<?xml version="1.0" encoding="UTF-8" standalone="no"?>
<svg
   xmlns:dc="http://purl.org/dc/elements/1.1/"
   xmlns:cc="http://creativecommons.org/ns#"
   xmlns:rdf="http://www.w3.org/1999/02/22-rdf-syntax-ns#"
   xmlns:svg="http://www.w3.org/2000/svg"
   xmlns="http://www.w3.org/2000/svg"
   xmlns:sodipodi="http://sodipodi.sourceforge.net/DTD/sodipodi-0.dtd"
   xmlns:inkscape="http://www.inkscape.org/namespaces/inkscape"
   width="64"
   height="64"
   viewBox="0 0 64 64.000003"
   version="1.1"
   id="svg8"
   inkscape:version="1.0.2 (e86c870879, 2021-01-15)"
   sodipodi:docname="align-vertical-bottom-to-anchor-symbolic.svg">
  <defs
     id="defs2" />
  <sodipodi:namedview
     id="base"
     pagecolor="#c3c3c3"
     bordercolor="#666666"
     borderopacity="1.0"
     inkscape:pageopacity="0"
     inkscape:pageshadow="2"
     inkscape:zoom="3.2757441"
     inkscape:cx="-6.8734266"
     inkscape:cy="24.667738"
     inkscape:document-units="px"
     inkscape:current-layer="layer1"
     inkscape:document-rotation="0"
     showgrid="false"
     units="px"
     inkscape:window-width="2048"
     inkscape:window-height="1080"
     inkscape:window-x="0"
     inkscape:window-y="0"
     inkscape:window-maximized="1" />
  <metadata
     id="metadata5">
    <rdf:RDF>
      <cc:Work
         rdf:about="">
        <dc:format>image/svg+xml</dc:format>
        <dc:type
           rdf:resource="http://purl.org/dc/dcmitype/StillImage" />
        <dc:title />
      </cc:Work>
    </rdf:RDF>
  </metadata>
  <g
     inkscape:label="Layer 1"
     inkscape:groupmode="layer"
     id="layer1">
    <rect
       style="opacity:0.5;fill:#808084;fill-opacity:1;stroke-width:0.5;stroke-linecap:round;stroke-linejoin:round;stroke-dashoffset:2.1875"
       id="rect1805-0"
       width="19"
       height="20"
       x="43.000015"
       y="-64"
       rx="2"
       ry="2"
       transform="rotate(90)" />
    <rect
       style="opacity:0.25;fill:#808084;stroke-width:0;stroke-linecap:round;stroke-linejoin:round;stroke-dashoffset:2.1875;stroke-opacity:0.5;fill-opacity:1"
       id="rect835-3"
       width="20"
       height="38.25"
       x="7.99999"
       y="2.0000019"
       rx="2"
       ry="2" />
    <rect
       style="opacity:0.25;fill:#808084;stroke-width:0;stroke-linecap:round;stroke-linejoin:round;stroke-dashoffset:2.1875;stroke-opacity:0.5;fill-opacity:1"
       id="rect835"
       width="20"
       height="29.375"
       x="35.999989"
       y="10"
       rx="2"
       ry="2" />
    <path
       id="rect2270-2-9-6-6-3"
       style="fill:#808084;fill-opacity:1;stroke:none;stroke-width:0;stroke-linecap:round;stroke-linejoin:round;stroke-miterlimit:4;stroke-dasharray:none;stroke-dashoffset:2.1875"
       d="m 45.999999,62 c -1.108,0 -2,-0.892 -2,-2 V 44 H 1 C 0.446,44 0,43.554 0,43 v -6.75 c 0,-0.554 0.446,-1 1,-1 H 7.999999 V 4 c 0,-1.108 0.892,-2 2,-2 h 16 c 1.108,0 2,0.892 2,2 v 31.25 h 8 V 12 c 0,-1.108 0.892,-2 2,-2 h 16 c 1.108,0 2,0.892 2,2 v 23.25 h 7 c 0.554,0 1,0.446 1,1 V 43 60 c 0,1.108 -0.892,2 -2,2 z m 2.5,-3.5 h 11 c 0.554,0 1,-0.446 1,-1 V 44 h -13 v 13.5 c 0,0.554 0.446,1 1,1 z m -37,-23.25 h 13 V 6.5 c 0,-0.554 -0.446,-1 -1,-1 h -11 c -0.554,0 -1,0.446 -1,1 z m 28,0 h 13 V 14.5 c 0,-0.554 -0.446,-1 -1,-1 h -11 c -0.554,0 -1,0.446 -1,1 z" />
  </g>
</svg>
