<?xml version="1.0" encoding="UTF-8" standalone="no"?>
<svg
   xmlns:dc="http://purl.org/dc/elements/1.1/"
   xmlns:cc="http://creativecommons.org/ns#"
   xmlns:rdf="http://www.w3.org/1999/02/22-rdf-syntax-ns#"
   xmlns:svg="http://www.w3.org/2000/svg"
   xmlns="http://www.w3.org/2000/svg"
   xmlns:sodipodi="http://sodipodi.sourceforge.net/DTD/sodipodi-0.dtd"
   xmlns:inkscape="http://www.inkscape.org/namespaces/inkscape"
   width="64"
   height="64"
   viewBox="0 0 64 64.000003"
   version="1.1"
   id="svg1461"
   inkscape:version="1.0.2 (e86c870879, 2021-01-15)"
   sodipodi:docname="align-on-canvas-symbolic.svg">
  <defs
     id="defs1455" />
  <sodipodi:namedview
     id="base"
     pagecolor="#c4c4c4"
     bordercolor="#666666"
     borderopacity="1.0"
     inkscape:pageopacity="0"
     inkscape:pageshadow="2"
     inkscape:zoom="4.4692769"
     inkscape:cx="45.160434"
     inkscape:cy="79.193995"
     inkscape:document-units="px"
     inkscape:current-layer="layer1"
     inkscape:document-rotation="0"
     showgrid="false"
     units="px"
     inkscape:window-width="2048"
     inkscape:window-height="1080"
     inkscape:window-x="0"
     inkscape:window-y="0"
     inkscape:window-maximized="1" />
  <metadata
     id="metadata1458">
    <rdf:RDF>
      <cc:Work
         rdf:about="">
        <dc:format>image/svg+xml</dc:format>
        <dc:type
           rdf:resource="http://purl.org/dc/dcmitype/StillImage" />
        <dc:title />
      </cc:Work>
    </rdf:RDF>
  </metadata>
  <g
     inkscape:label="Layer 1"
     inkscape:groupmode="layer"
     id="layer1">
    <rect
       style="fill:#808084;fill-opacity:1;stroke-width:0;stroke-linecap:round;stroke-linejoin:round;stroke-dashoffset:2.1875;opacity:0.25"
       id="rect2685"
       width="30"
       height="30"
       x="17"
       y="17"
       rx="3.5"
       ry="3.5" />
    <path
       id="rect2685-2"
       style="fill:#808084;fill-opacity:1;stroke-width:0;stroke-linecap:round;stroke-linejoin:round;stroke-dashoffset:2.1875;opacity:0.85"
       d="M 20.5,17 C 18.561,17 17,18.561 17,20.5 v 23 c 0,1.939 1.561,3.5 3.5,3.5 h 23 c 1.939,0 3.5,-1.561 3.5,-3.5 v -23 C 47,18.561 45.439,17 43.5,17 Z m 2.75,4.5 h 17.5 c 0.9695,0 1.75,0.7805 1.75,1.75 v 17.5 c 0,0.9695 -0.7805,1.75 -1.75,1.75 h -17.5 c -0.9695,0 -1.75,-0.7805 -1.75,-1.75 v -17.5 c 0,-0.9695 0.7805,-1.75 1.75,-1.75 z" />
    <path
       id="rect2009-36-0-0-6"
       style="fill:#808084;fill-opacity:1;stroke-width:7;stroke-dashoffset:2.1875"
       d="M 9,2 C 5.122,2 2,5.122 2,9 V 9.5 12.541016 14.5 c 0,0.554 0.446,1 1,1 h 2.5 c 0.554,0 1,-0.446 1,-1 V 12.541016 10 C 6.5,8.0609997 8.061,6.5 10,6.5 H 12.466797 14.5 c 0.554,0 1,-0.446 1,-1 V 3 c 0,-0.554 -0.446,-1 -1,-1 H 12.466797 9.5 Z m 17.250001,0 c -0.554,0 -1,0.446 -1,1 v 2.5 c 0,0.554 0.446,1 1,1 h 11.5 c 0.554,0 1,-0.446 1,-1 V 3 c 0,-0.554 -0.446,-1 -1,-1 z m 23.25,0 c -0.554,0 -1,0.446 -1,1 v 2.5 c 0,0.554 0.446,1 1,1 h 2.0332 2.4668 c 1.939,0 3.5,1.5609997 3.5,3.5 V 12.541016 14.5 c 0,0.554 0.446,1 1,1 h 2.5 c 0.554,0 1,-0.446 1,-1 V 12.541016 9.5 9 c 0,-3.878 -3.122,-7 -7,-7 h -0.5 -2.9668 z M 3,25.25 c -0.554,0 -1,0.446 -1,1 v 11.5 c 0,0.554 0.446,1 1,1 h 2.5 c 0.554,0 1,-0.446 1,-1 v -11.5 c 0,-0.554 -0.446,-1 -1,-1 z m 55.500001,0 c -0.554,0 -1,0.446 -1,1 v 11.5 c 0,0.554 0.446,1 1,1 h 2.5 c 0.554,0 1,-0.446 1,-1 v -11.5 c 0,-0.554 -0.446,-1 -1,-1 z M 3,48.5 c -0.554,0 -1,0.446 -1,1 V 51.458984 54.5 55 c 0,3.878 3.122,7 7,7 H 9.5 12.466797 14.5 c 0.554,0 1,-0.446 1,-1 v -2.5 c 0,-0.554 -0.446,-1 -1,-1 H 12.466797 10 C 8.061,57.5 6.5,55.939 6.5,54 V 51.458984 49.5 c 0,-0.554 -0.446,-1 -1,-1 z m 55.500001,0 c -0.554,0 -1,0.446 -1,1 V 51.458984 54 c 0,1.939 -1.561,3.5 -3.5,3.5 h -2.4668 -2.0332 c -0.554,0 -1,0.446 -1,1 V 61 c 0,0.554 0.446,1 1,1 h 2.0332 2.9668 0.5 c 3.878,0 7,-3.122 7,-7 V 54.5 51.458984 49.5 c 0,-0.554 -0.446,-1 -1,-1 z m -32.25,9 c -0.554,0 -1,0.446 -1,1 V 61 c 0,0.554 0.446,1 1,1 h 11.5 c 0.554,0 1,-0.446 1,-1 v -2.5 c 0,-0.554 -0.446,-1 -1,-1 z" />
  </g>
</svg>
