<?xml version="1.0" encoding="UTF-8" standalone="no"?>
<svg
   xmlns:dc="http://purl.org/dc/elements/1.1/"
   xmlns:cc="http://creativecommons.org/ns#"
   xmlns:rdf="http://www.w3.org/1999/02/22-rdf-syntax-ns#"
   xmlns:svg="http://www.w3.org/2000/svg"
   xmlns="http://www.w3.org/2000/svg"
   xmlns:sodipodi="http://sodipodi.sourceforge.net/DTD/sodipodi-0.dtd"
   xmlns:inkscape="http://www.inkscape.org/namespaces/inkscape"
   width="64"
   height="64"
   viewBox="0 0 16.933333 16.933334"
   version="1.1"
   id="svg841"
   inkscape:version="1.0.2 (e86c870879, 2021-01-15)"
   sodipodi:docname="appointment-new-symbolic.svg">
  <defs
     id="defs835" />
  <sodipodi:namedview
     id="base"
     pagecolor="#c4c4c4"
     bordercolor="#666666"
     borderopacity="1.0"
     inkscape:pageopacity="0"
     inkscape:pageshadow="2"
     inkscape:zoom="2.826835"
     inkscape:cx="65.360787"
     inkscape:cy="29.328954"
     inkscape:document-units="px"
     inkscape:current-layer="layer1"
     inkscape:document-rotation="0"
     showgrid="false"
     units="px"
     inkscape:window-width="2048"
     inkscape:window-height="1080"
     inkscape:window-x="0"
     inkscape:window-y="0"
     inkscape:window-maximized="1" />
  <metadata
     id="metadata838">
    <rdf:RDF>
      <cc:Work
         rdf:about="">
        <dc:format>image/svg+xml</dc:format>
        <dc:type
           rdf:resource="http://purl.org/dc/dcmitype/StillImage" />
        <dc:title></dc:title>
      </cc:Work>
    </rdf:RDF>
  </metadata>
  <g
     inkscape:label="Layer 1"
     inkscape:groupmode="layer"
     id="layer1">
    <path
       id="rect1673-3-7"
       style="display:inline;fill:#808084;fill-opacity:1;stroke-width:0;stroke-dashoffset:2.1875"
       d="m 12.303124,8.9958337 c -0.146579,0 -0.264583,0.117999 -0.264583,0.264581 V 12.038535 H 9.2604164 c -0.146579,0 -0.264583,0.118009 -0.264583,0.264588 v 1.322912 c 0,0.146579 0.118004,0.264588 0.264583,0.264588 h 2.7781246 v 2.77812 c 0,0.146582 0.118004,0.264591 0.264583,0.264591 h 1.322917 c 0.146579,0 0.264583,-0.118009 0.264583,-0.264591 v -2.77812 h 2.778125 c 0.14658,0 0.264584,-0.118009 0.264584,-0.264588 v -1.322912 c 0,-0.146579 -0.118004,-0.264588 -0.264584,-0.264588 H 13.890624 V 9.2604147 c 0,-0.146582 -0.118004,-0.264581 -0.264583,-0.264581 z" />
    <path
       id="rect848-5-9-3-8"
       style="fill:#808084;fill-opacity:1;stroke-width:1.19063;stroke-linecap:round;stroke-linejoin:round;stroke-dashoffset:2.1875"
       d="m 4.2333333,0.52916667 c -0.293158,0 -0.529166,0.236008 -0.529166,0.52916603 v 1.058334 h -1.058334 c -0.879475,0 -1.5875,0.708025 -1.5875,1.5875 V 14.816667 c 0,0.879475 0.708025,1.5875 1.5875,1.5875 h 3.3072921 1.322917 0.79375 c 0.146579,0 0.264583,-0.118004 0.264583,-0.264583 v -0.79375 c 0,-0.146579 -0.118004,-0.264584 -0.264583,-0.264584 h -0.79375 -1.322917 -2.7781251 c -0.439737,0 -0.79375,-0.354012 -0.79375,-0.79375 V 7.4083337 c 0,-0.439738 0.354013,-0.79375 0.79375,-0.79375 H 13.758334 c 0.439737,0 0.79375,0.354012 0.79375,0.79375 v 0.396875 0.264583 c 0,0.146579 0.118004,0.264583 0.264583,0.264583 h 0.79375 c 0.146579,0 0.264583,-0.118004 0.264583,-0.264583 v -0.264583 -1.058334 -3.042708 c 0,-0.879475 -0.708024,-1.5875 -1.5875,-1.5875 h -1.058333 v -1.058334 c 0,-0.29315803 -0.236009,-0.52916603 -0.529167,-0.52916603 h -1.058333 c -0.293158,0 -0.529167,0.236008 -0.529167,0.52916603 v 1.058334 H 5.8208334 v -1.058334 c 0,-0.29315803 -0.236008,-0.52916603 -0.5291661,-0.52916603 z" />
  </g>
</svg>
