<?xml version="1.0" encoding="UTF-8" standalone="no"?>
<svg
   xmlns:dc="http://purl.org/dc/elements/1.1/"
   xmlns:cc="http://creativecommons.org/ns#"
   xmlns:rdf="http://www.w3.org/1999/02/22-rdf-syntax-ns#"
   xmlns:svg="http://www.w3.org/2000/svg"
   xmlns="http://www.w3.org/2000/svg"
   xmlns:sodipodi="http://sodipodi.sourceforge.net/DTD/sodipodi-0.dtd"
   xmlns:inkscape="http://www.inkscape.org/namespaces/inkscape"
   width="64"
   height="64"
   viewBox="0 0 64 64"
   version="1.1"
   id="svg6374"
   inkscape:version="1.0.2 (e86c870879, 2021-01-15)"
   sodipodi:docname="bookmark-new-symbolic.svg">
  <defs
     id="defs6368" />
  <sodipodi:namedview
     id="base"
     pagecolor="#cecece"
     bordercolor="#666666"
     borderopacity="1.0"
     inkscape:pageopacity="0"
     inkscape:pageshadow="2"
     inkscape:zoom="4.478864"
     inkscape:cx="75.52744"
     inkscape:cy="61.808095"
     inkscape:document-units="px"
     inkscape:current-layer="layer1"
     inkscape:document-rotation="0"
     showgrid="false"
     units="px"
     inkscape:window-width="2048"
     inkscape:window-height="1080"
     inkscape:window-x="0"
     inkscape:window-y="0"
     inkscape:window-maximized="1" />
  <metadata
     id="metadata6371">
    <rdf:RDF>
      <cc:Work
         rdf:about="">
        <dc:format>image/svg+xml</dc:format>
        <dc:type
           rdf:resource="http://purl.org/dc/dcmitype/StillImage" />
        <dc:title />
      </cc:Work>
    </rdf:RDF>
  </metadata>
  <g
     inkscape:label="Layer 1"
     inkscape:groupmode="layer"
     id="layer1">
    <path
       id="rect863-3-1-7-0-9-2-2-6-7"
       style="fill:#808084;fill-opacity:1;stroke-width:4.50002;stroke-linecap:round;stroke-linejoin:round;stroke-dashoffset:2.1875"
       d="m 16.26458,2 c -1.662,0 -3.00001,1.338 -3,3 v 19.51562 21.2461 1 13.9707 V 61 c 0,0.554 0.446,1 1,1 h 3.11914 c 0.554,0 1,-0.446 1,-1 h 0.004 v -0.26562 l 0.004,-0.002 c -4.8e-4,-0.7675 0.29277,-1.53299 0.88086,-2.12109 L 29.87981,48.00586 c 1.17521,-1.17521 3.06698,-1.17521 4.24219,0 l 10.60938,10.60547 c 0.58812,0.5881 0.87943,1.35357 0.8789,2.12109 V 61 h 0.002 c 0,0.554 0.446,1 1,1 h 3.11914 c 0.554,0 1,-0.446 1,-1 v -0.26758 l 0.004,0.002 c 1e-5,-0.0274 -0.004,-0.0546 -0.004,-0.082 v -13.89062 -1 V 24.51571 5 c 0,-1.66199 -1.33801,-2.99999 -3,-3 z m 3.62305,5.12305 24.22265,0.002 c 0.831,-2e-5 1.5,0.66898 1.5,1.5 v 38.13672 h 0.002 v 6.36913 l -9.36914,-9.36913 c -1.17525,-1.17527 -2.70852,-1.76178 -4.24223,-1.76178 -1.53372,0 -3.06698,0.58651 -4.24219,1.76172 l -9.375,9.375 v -6.375 h 0.004 V 8.62304 c -1e-5,-0.831 0.66901,-1.5 1.5,-1.5 z" />
  </g>
</svg>
