<?xml version="1.0" encoding="UTF-8" standalone="no"?>
<svg
   xmlns:dc="http://purl.org/dc/elements/1.1/"
   xmlns:cc="http://creativecommons.org/ns#"
   xmlns:rdf="http://www.w3.org/1999/02/22-rdf-syntax-ns#"
   xmlns:svg="http://www.w3.org/2000/svg"
   xmlns="http://www.w3.org/2000/svg"
   xmlns:sodipodi="http://sodipodi.sourceforge.net/DTD/sodipodi-0.dtd"
   xmlns:inkscape="http://www.inkscape.org/namespaces/inkscape"
   width="64"
   height="64"
   viewBox="0 0 64 64.000003"
   version="1.1"
   id="svg8"
   inkscape:version="1.0.2 (e86c870879, 2021-01-15)"
   sodipodi:docname="color-select-symbolic.svg">
  <defs
     id="defs2" />
  <sodipodi:namedview
     id="base"
     pagecolor="#c3c3c3"
     bordercolor="#666666"
     borderopacity="1.0"
     inkscape:pageopacity="0"
     inkscape:pageshadow="2"
     inkscape:zoom="9.1401267"
     inkscape:cx="-8.5028686"
     inkscape:cy="33.650027"
     inkscape:document-units="px"
     inkscape:current-layer="layer1"
     inkscape:document-rotation="0"
     showgrid="false"
     units="px"
     inkscape:window-width="2048"
     inkscape:window-height="1080"
     inkscape:window-x="0"
     inkscape:window-y="0"
     inkscape:window-maximized="1" />
  <metadata
     id="metadata5">
    <rdf:RDF>
      <cc:Work
         rdf:about="">
        <dc:format>image/svg+xml</dc:format>
        <dc:type
           rdf:resource="http://purl.org/dc/dcmitype/StillImage" />
        <dc:title />
      </cc:Work>
    </rdf:RDF>
  </metadata>
  <g
     inkscape:label="Layer 1"
     inkscape:groupmode="layer"
     id="layer1">
    <path
       id="rect1013-9"
       style="opacity:0.45;fill:#808084;fill-opacity:1;stroke-width:0;stroke-linecap:round;stroke-linejoin:round;stroke-dashoffset:2.1875"
       d="m 27.805936,41.143136 -9.899489,1.1e-5 -9.1371587,9.137144 c -1.371062,1.37108 -1.371062,3.578653 0,4.949741 1.3710987,1.371088 3.5786827,1.371077 4.9497447,-4e-6 z" />
    <path
       id="rect898-1-0-3"
       style="fill:#808084;stroke-width:0;stroke-linecap:round;stroke-linejoin:round;stroke-dashoffset:2.1875;fill-opacity:1"
       d="m 61.307857,2.6914204 c -3.133909,-3.13391502 -8.179805,-3.13387902 -11.313675,1.9e-5 L 37.973357,14.712254 30.548702,7.2876204 c -0.587604,-0.58761 -1.533695,-0.587593 -2.121298,1.3e-5 l -1.767761,1.767767 c -0.587603,0.587606 -0.587603,1.5336976 0,2.1213066 l 7.424618,7.424635 -33.30444057,33.304456 c -0.2709921,0.271105 -0.437707,0.646677 -0.4378204,1.062043 v 9.189611 c -7.56e-5,0.415393 0.1666771,0.790908 0.4377826,1.062036 0.27099217,0.271106 0.64667717,0.437893 1.06208507,0.437817 l 9.1909793,0.0014 c 0.415672,1.85e-4 0.789543,-0.168076 1.060649,-0.439185 l 33.304478,-33.304456 7.424617,7.42461 c 0.587603,0.587607 1.533694,0.587618 2.121298,1.1e-5 l 1.767798,-1.767768 c 0.587603,-0.587603 0.587565,-1.533724 -3.8e-5,-2.121331 L 49.28707,26.025953 61.307857,14.005138 c 3.133909,-3.133898 3.133909,-8.1798286 0,-11.3137176 z M 37.288317,21.80541 42.19524,26.712335 c -0.06576,0.0766 -0.118299,0.16117 -0.191244,0.234066 l -28.284283,28.28427 c -1.371062,1.37108 -3.578684,1.371065 -4.9497447,7e-6 -1.371061,-1.371087 -1.371099,-3.578691 0,-4.949771 L 37.054213,21.996635 c 0.07294,-0.07292 0.157607,-0.125367 0.233953,-0.191305 z" />
  </g>
</svg>
