<?xml version="1.0" encoding="UTF-8" standalone="no"?>
<svg
   xmlns:dc="http://purl.org/dc/elements/1.1/"
   xmlns:cc="http://creativecommons.org/ns#"
   xmlns:rdf="http://www.w3.org/1999/02/22-rdf-syntax-ns#"
   xmlns:svg="http://www.w3.org/2000/svg"
   xmlns="http://www.w3.org/2000/svg"
   xmlns:sodipodi="http://sodipodi.sourceforge.net/DTD/sodipodi-0.dtd"
   xmlns:inkscape="http://www.inkscape.org/namespaces/inkscape"
   width="64"
   height="64"
   viewBox="0 0 16.933333 16.933334"
   version="1.1"
   id="svg841"
   inkscape:version="1.0.2 (e86c870879, 2021-01-15)"
   sodipodi:docname="contact-new-symbolic.svg">
  <defs
     id="defs835" />
  <sodipodi:namedview
     id="base"
     pagecolor="#c4c4c4"
     bordercolor="#666666"
     borderopacity="1.0"
     inkscape:pageopacity="0"
     inkscape:pageshadow="2"
     inkscape:zoom="1.9098398"
     inkscape:cx="71.69976"
     inkscape:cy="42.884334"
     inkscape:document-units="px"
     inkscape:current-layer="layer1"
     inkscape:document-rotation="0"
     showgrid="false"
     units="px"
     inkscape:window-width="2048"
     inkscape:window-height="1080"
     inkscape:window-x="0"
     inkscape:window-y="0"
     inkscape:window-maximized="1" />
  <metadata
     id="metadata838">
    <rdf:RDF>
      <cc:Work
         rdf:about="">
        <dc:format>image/svg+xml</dc:format>
        <dc:type
           rdf:resource="http://purl.org/dc/dcmitype/StillImage" />
        <dc:title />
      </cc:Work>
    </rdf:RDF>
  </metadata>
  <g
     inkscape:label="Layer 1"
     inkscape:groupmode="layer"
     id="layer1">
    <path
       id="path1012-1-0-7"
       style="display:inline;opacity:0.375;fill:#808084;fill-opacity:1;stroke-width:3.41926;stroke-linecap:round;stroke-linejoin:round;stroke-dashoffset:2.1875"
       d="M 8.4366606,0.26461164 A 3.9687501,3.9687501 0 0 0 4.4978874,4.2333617 3.9687501,3.9687501 0 0 0 8.4666376,8.2021118 3.9687501,3.9687501 0 0 0 12.435388,4.2333617 3.9687501,3.9687501 0 0 0 8.4666376,0.26461164 a 3.9687501,3.9687501 0 0 0 -0.02998,0 z m 0.02998,10.21281336 c -1.350751,0 -2.7013166,0.233159 -3.9284542,0.699699 -2.454275,0.933048 -4.12011823,2.73559 -4.12014473,4.830712 a 0.66124287,0.66132238 0 0 0 0.66092923,0.660942 h 7.3876697 2.9109464 v -0.0011 -2.115116 H 9.2603906 c -0.501597,0 -0.925513,-0.423934 -0.925513,-0.925523 v -1.324425 c 0,-0.50156 0.423916,-0.925526 0.925513,-0.925526 H 11.377587 V 10.852054 C 10.439213,10.603266 9.4530566,10.477401 8.4666376,10.477401 Z m 6.0848884,4.075203 v 2.115116 0.0011 h 1.302252 a 0.66124287,0.66132238 0 0 0 0.661456,-0.660984 c 0,-0.50495 -0.0989,-0.992339 -0.280088,-1.455209 z" />
    <path
       id="rect1673-3-7"
       style="display:inline;fill:#808084;fill-opacity:1;stroke-width:0;stroke-dashoffset:2.1875"
       d="m 12.303096,8.9958563 c -0.146579,0 -0.264583,0.117999 -0.264583,0.264581 V 12.038557 H 9.2603876 c -0.146579,0 -0.264583,0.118009 -0.264583,0.264588 v 1.322912 c 0,0.146579 0.118004,0.264588 0.264583,0.264588 h 2.7781254 v 2.77812 c 0,0.146582 0.118004,0.264591 0.264583,0.264591 h 1.322917 c 0.146579,0 0.264583,-0.118009 0.264583,-0.264591 v -2.77812 h 2.778125 c 0.14658,0 0.264584,-0.118009 0.264584,-0.264588 v -1.322912 c 0,-0.146579 -0.118004,-0.264588 -0.264584,-0.264588 H 13.890596 V 9.2604373 c 0,-0.146582 -0.118004,-0.264581 -0.264583,-0.264581 z" />
  </g>
</svg>
