<?xml version="1.0" encoding="UTF-8" standalone="no"?>
<svg
   xmlns:dc="http://purl.org/dc/elements/1.1/"
   xmlns:cc="http://creativecommons.org/ns#"
   xmlns:rdf="http://www.w3.org/1999/02/22-rdf-syntax-ns#"
   xmlns:svg="http://www.w3.org/2000/svg"
   xmlns="http://www.w3.org/2000/svg"
   xmlns:sodipodi="http://sodipodi.sourceforge.net/DTD/sodipodi-0.dtd"
   xmlns:inkscape="http://www.inkscape.org/namespaces/inkscape"
   width="64"
   height="64"
   viewBox="0 0 64 64.000003"
   version="1.1"
   id="svg8"
   inkscape:version="1.0.2 (e86c870879, 2021-01-15)"
   sodipodi:docname="debug-execute-to-cursor-symbolic.svg">
  <defs
     id="defs2" />
  <sodipodi:namedview
     id="base"
     pagecolor="#c3c3c3"
     bordercolor="#666666"
     borderopacity="1.0"
     inkscape:pageopacity="0"
     inkscape:pageshadow="2"
     inkscape:zoom="8.3782247"
     inkscape:cx="59.08187"
     inkscape:cy="19.308857"
     inkscape:document-units="px"
     inkscape:current-layer="layer1"
     inkscape:document-rotation="0"
     showgrid="false"
     units="px"
     inkscape:window-width="2048"
     inkscape:window-height="1080"
     inkscape:window-x="0"
     inkscape:window-y="0"
     inkscape:window-maximized="1" />
  <metadata
     id="metadata5">
    <rdf:RDF>
      <cc:Work
         rdf:about="">
        <dc:format>image/svg+xml</dc:format>
        <dc:type
           rdf:resource="http://purl.org/dc/dcmitype/StillImage" />
        <dc:title />
      </cc:Work>
    </rdf:RDF>
  </metadata>
  <g
     inkscape:label="Layer 1"
     inkscape:groupmode="layer"
     id="layer1">
    <path
       id="rect1323-3"
       style="fill:#808084;fill-opacity:1;stroke:none;stroke-width:2;stroke-linecap:round;stroke-linejoin:round;stroke-miterlimit:4;stroke-dasharray:none;stroke-dashoffset:2.1875;stroke-opacity:1"
       d="m 4.7971889,7.99976 v 0.002 c -0.058,0 -0.1139,0.008 -0.1719,0.01 -0.075,0.002 -0.1496,0.004 -0.2246,0.01 -0.093,0.007 -0.1844,0.0205 -0.2754,0.0332 -0.058,0.008 -0.1179,0.0149 -0.1758,0.0254 -0.1133,0.02 -0.2235,0.0464 -0.3339,0.0742 -0.032,0.008 -0.063,0.0144 -0.094,0.0234 -0.1258,0.0345 -0.2497,0.0749 -0.3711,0.11914 -0.018,0.006 -0.036,0.0125 -0.053,0.0195 -0.1315,0.0496 -0.2611,0.10551 -0.3867,0.16601 -0.01,0.004 -0.015,0.008 -0.025,0.0117 -1.4071,0.68829 -2.42050001,2.04049 -2.63870001,3.65625 -0.014,0.0292 -0.014,0.0587 -0.014,0.0879 -0.01,0.0887 -0.017,0.17748 -0.017,0.26758 -0.014,0.0798 -0.01600000111,0.16054 -0.01600000111,0.24024 -1.99999999e-4,0.019 0,0.0358 0,0.0547 v 38.40039 0.0566 c 0,0.0807 0.01600000111,0.16138 0.01600000111,0.24218 0.01,0.088 0.01,0.17708 0.017,0.26368 0,0.0324 0.014,0.0634 0.014,0.0957 0.1546,1.13219 0.6999,2.13356 1.49810001,2.86914 0.1154,0.1063 0.2358,0.20608 0.3613,0.30078 0.1239,0.0935 0.2517,0.18237 0.3847,0.26367 0.1306,0.0799 0.2638,0.1533 0.4024,0.2207 0.1306,0.0634 0.2654,0.12223 0.4023,0.17383 0.017,0.006 0.036,0.0135 0.053,0.0195 0.119,0.0433 0.2401,0.0832 0.3632,0.11719 0.039,0.011 0.079,0.0193 0.1192,0.0293 0.1043,0.0259 0.2074,0.0495 0.3144,0.0684 0.063,0.0114 0.1275,0.0203 0.1914,0.0293 0.08,0.011 0.1602,0.0203 0.2422,0.0273 0.092,0.008 0.1844,0.0126 0.2774,0.0156 0.046,0.002 0.092,0.006 0.1387,0.006 0.02,0 0.041,-0.004 0.061,-0.004 0.097,-8e-4 0.1921,-0.007 0.2891,-0.0137 0.062,-0.005 0.1265,-0.007 0.1875,-0.0137 0.073,-0.008 0.1457,-0.0215 0.2187,-0.0332 0.1002,-0.0158 0.1989,-0.031 0.2969,-0.0527 0,0 -4e-4,-0.002 0.01,-0.002 0.01,-0.001 0.018,-0.005 0.018,-0.006 0.4759,-0.10784 0.9222,-0.28645 1.3321,-0.52344 l 0.025,-0.0156 32.9317001,-19.01367 c 0,-10e-4 0.012,-9.1e-4 0.012,-0.002 0.6377,-0.3122 1.2066,-0.774 1.6641,-1.36133 0.023,-0.0297 0.048,-0.0595 0.07,-0.0898 0.061,-0.0818 0.1178,-0.16731 0.1738,-0.25391 0.031,-0.0482 0.064,-0.0973 0.094,-0.14648 0.014,-0.0227 0.031,-0.0414 0.045,-0.0644 0.028,-0.0486 0.048,-0.0993 0.074,-0.14844 0.042,-0.0787 0.083,-0.15758 0.1211,-0.23828 0.026,-0.0573 0.049,-0.11603 0.074,-0.17383 0.034,-0.0828 0.07,-0.1655 0.1,-0.25 0.026,-0.0737 0.05,-0.1464 0.072,-0.2207 0.021,-0.0741 0.045,-0.14951 0.062,-0.22461 0.018,-0.0727 0.032,-0.14565 0.047,-0.21875 0.016,-0.0811 0.033,-0.16029 0.045,-0.24219 0.011,-0.0782 0.015,-0.15617 0.025,-0.23437 0.01,-0.0692 0.01,-0.13938 0.018,-0.20899 0.01,-0.0815 0.01,-0.16284 0.01,-0.24414 0,-0.0822 6e-4,-0.16369 -0.01,-0.24609 0,-0.0685 -0.01,-0.13688 -0.018,-0.20508 -0.01,-0.0802 -0.014,-0.16013 -0.025,-0.24023 -0.011,-0.079 -0.027,-0.15803 -0.043,-0.23633 -0.014,-0.0748 -0.029,-0.14816 -0.047,-0.22266 -0.018,-0.0736 -0.041,-0.14615 -0.062,-0.21875 -0.023,-0.078 -0.046,-0.15512 -0.074,-0.23242 -0.027,-0.0759 -0.058,-0.15196 -0.088,-0.22656 -0.028,-0.067 -0.055,-0.13302 -0.086,-0.19922 -0.036,-0.0778 -0.077,-0.15457 -0.1172,-0.23047 -0.026,-0.0489 -0.048,-0.0982 -0.076,-0.14648 -0.011,-0.0201 -0.025,-0.0367 -0.037,-0.0566 -0.036,-0.06 -0.074,-0.11924 -0.1133,-0.17774 -0.052,-0.0789 -0.1022,-0.15762 -0.1582,-0.23242 -0.021,-0.0278 -0.044,-0.0527 -0.066,-0.0801 -0.08,-0.10352 -0.163,-0.20538 -0.25,-0.30078 -0.3972,-0.43401 -0.8632,-0.78281 -1.3711,-1.03906 L 7.2091889,8.64652 c -0.4141,-0.23938 -0.8643,-0.41986 -1.3457,-0.52735 0,-0.001 -0.012,-9e-4 -0.012,-0.002 -0.1103,-0.0244 -0.2229,-0.0437 -0.3359,-0.0605 -0.053,-0.008 -0.1052,-0.0174 -0.1582,-0.0234 -0.076,-0.009 -0.1554,-0.0126 -0.2324,-0.0176 -0.087,-0.006 -0.1728,-0.0127 -0.2598,-0.0137 -0.021,0 -0.043,-0.002 -0.062,-0.002 z" />
    <rect
       style="fill:#808084;stroke-width:4.5;stroke-linecap:round;stroke-linejoin:round;stroke-dashoffset:2.1875;fill-opacity:1"
       id="rect849"
       width="8.75"
       height="62"
       x="55.25"
       y="1"
       rx="1"
       ry="1" />
  </g>
</svg>
