<?xml version="1.0" encoding="UTF-8" standalone="no"?>
<svg
   xmlns:dc="http://purl.org/dc/elements/1.1/"
   xmlns:cc="http://creativecommons.org/ns#"
   xmlns:rdf="http://www.w3.org/1999/02/22-rdf-syntax-ns#"
   xmlns:svg="http://www.w3.org/2000/svg"
   xmlns="http://www.w3.org/2000/svg"
   xmlns:sodipodi="http://sodipodi.sourceforge.net/DTD/sodipodi-0.dtd"
   xmlns:inkscape="http://www.inkscape.org/namespaces/inkscape"
   width="64"
   height="64"
   viewBox="0 0 16.933333 16.933334"
   version="1.1"
   id="svg841"
   inkscape:version="1.0.2 (e86c870879, 2021-01-15)"
   sodipodi:docname="dialog-input-devices-symbolic.svg">
  <defs
     id="defs835" />
  <sodipodi:namedview
     id="base"
     pagecolor="#c4c4c4"
     bordercolor="#666666"
     borderopacity="1.0"
     inkscape:pageopacity="0"
     inkscape:pageshadow="2"
     inkscape:zoom="3.7761631"
     inkscape:cx="82.742788"
     inkscape:cy="35.945675"
     inkscape:document-units="px"
     inkscape:current-layer="layer1"
     inkscape:document-rotation="0"
     showgrid="false"
     units="px"
     inkscape:window-width="2048"
     inkscape:window-height="1080"
     inkscape:window-x="0"
     inkscape:window-y="0"
     inkscape:window-maximized="1" />
  <metadata
     id="metadata838">
    <rdf:RDF>
      <cc:Work
         rdf:about="">
        <dc:format>image/svg+xml</dc:format>
        <dc:type
           rdf:resource="http://purl.org/dc/dcmitype/StillImage" />
        <dc:title />
      </cc:Work>
    </rdf:RDF>
  </metadata>
  <g
     inkscape:label="Layer 1"
     inkscape:groupmode="layer"
     id="layer1">
    <path
       id="path2274-3-2"
       style="color:#000000;font-style:normal;font-variant:normal;font-weight:normal;font-stretch:normal;font-size:medium;line-height:normal;font-family:sans-serif;font-variant-ligatures:normal;font-variant-position:normal;font-variant-caps:normal;font-variant-numeric:normal;font-variant-alternates:normal;font-variant-east-asian:normal;font-feature-settings:normal;font-variation-settings:normal;text-indent:0;text-align:start;text-decoration:none;text-decoration-line:none;text-decoration-style:solid;text-decoration-color:#000000;letter-spacing:normal;word-spacing:normal;text-transform:none;writing-mode:lr-tb;direction:ltr;text-orientation:mixed;dominant-baseline:auto;baseline-shift:baseline;text-anchor:start;white-space:normal;shape-padding:0;shape-margin:0;inline-size:0;clip-rule:nonzero;display:inline;overflow:visible;visibility:visible;isolation:auto;mix-blend-mode:normal;color-interpolation:sRGB;color-interpolation-filters:linearRGB;solid-color:#000000;solid-opacity:1;vector-effect:none;fill:#808084;fill-opacity:1;fill-rule:nonzero;stroke:none;stroke-width:0.158748;stroke-linecap:butt;stroke-linejoin:miter;stroke-miterlimit:4;stroke-dasharray:none;stroke-dashoffset:2.1875;stroke-opacity:1;color-rendering:auto;image-rendering:auto;shape-rendering:auto;text-rendering:auto;enable-background:accumulate;stop-color:#000000"
       d="m 4.0613321,6.5087499 c -1.8359948,0 -3.33372793,1.497732 -3.33372793,3.333725 v 3.4924741 c 0,1.835977 1.49773313,3.333725 3.33372793,3.333725 1.8359947,0 3.3337277,-1.497748 3.3337277,-3.333725 V 9.8424749 c 0,-1.835993 -1.497733,-3.333725 -3.3337277,-3.333725 z m 0,0.873119 c 1.3641299,0 2.4606085,1.096478 2.4606085,2.460606 v 3.4924741 c 0,1.364129 -1.0964786,2.460607 -2.4606085,2.460607 -1.36413,0 -2.4606086,-1.096478 -2.4606086,-2.460607 V 9.8424749 c 0,-1.364129 1.0964786,-2.460622 2.4606086,-2.460606 z" />
    <rect
       style="fill:#808084;fill-opacity:1;stroke:none;stroke-width:0.714373;stroke-miterlimit:4;stroke-dasharray:none;stroke-dashoffset:2.1875;stroke-opacity:1"
       id="rect2436-1-3"
       width="0.95249367"
       height="2.5399814"
       x="3.5850849"
       y="8.8899822"
       rx="0.47624683"
       ry="0.47624648" />
    <rect
       style="opacity:0.1;fill:#808084;stroke-width:0;stroke-linecap:round;stroke-linejoin:round;stroke-dashoffset:2.1875;stroke-opacity:0.5;fill-opacity:1"
       id="rect831-5-1-7"
       width="10.927292"
       height="9.260355"
       x="1.2311063"
       y="-15.97773"
       transform="rotate(90)" />
    <path
       id="rect2726-4-8-2-8-8-3-0-5"
       style="fill:#808084;fill-opacity:1;stroke:none;stroke-width:0.756196;stroke-dashoffset:2.1875"
       d="m 1.6052787,2.3481921 c -0.054901,0.072816 0.021565,0.2223222 0.1713116,0.3351976 l 0.9489412,0.7150778 -9.63e-5,1.274e-4 6.1509472,4.6350669 0.6759295,0.509345 6.226e-4,-8.014e-4 c 0.041145,0.029827 0.085089,0.055827 0.1290782,0.073721 l 2.2439563,0.9154095 c 0.05245,0.021404 0.09555,0.027913 0.126641,0.022581 0.0096,-0.00166 0.01771,-0.00424 0.02489,-0.00796 0.003,-9.9e-4 0.0045,-0.00312 0.0062,-0.00444 0.0046,-0.00282 0.0078,-0.00596 0.01081,-0.00998 0.0026,-0.004 0.0046,-0.00853 0.0066,-0.012878 0.0018,-0.00192 0.0018,-0.00514 0.0032,-0.00804 0.002,-0.00746 0.0018,-0.016398 9.48e-4,-0.025914 -0.0033,-0.031375 -0.02133,-0.070711 -0.05632,-0.1153211 l -1.498861,-1.904809 c -0.02931,-0.037347 -0.06642,-0.072426 -0.10641,-0.1037907 l 6.4e-4,-8.026e-4 L 9.768348,6.850629 3.6174006,2.2155621 2.6681963,1.5002867 C 2.5184063,1.3874181 2.3536422,1.3551796 2.2987603,1.4280091 Z" />
    <path
       id="rect2235-5-7-5-27-2-9-9-2"
       style="fill:#808084;fill-opacity:1;stroke-width:0;stroke-dashoffset:2.1875"
       d="m 7.5282062,0.26458334 c -0.820838,0 -1.48208,0.6607261 -1.48208,1.48156336 v 0.2645834 0.013436 0.6216675 c 0,0.1465779 0.118005,0.2645834 0.264584,0.2645834 h 0.211873 c 0.146579,0 0.264583,-0.1180055 0.264583,-0.2645834 V 2.2360393 2.0107301 1.8520834 c 0,-0.2345246 0.188705,-0.42323 0.42323,-0.42323 h 7.8310468 c 0.234526,0 0.423747,0.1887054 0.423747,0.42323 v 9.7363576 c 0,0.234524 -0.189221,0.423747 -0.423747,0.423747 h -3.145028 c -9.26e-4,-10e-6 -0.0017,-5.29e-4 -0.0026,-5.29e-4 H 8.8190842 c -0.146579,0 -0.264584,0.118004 -0.264584,0.264583 v 1.270207 c 0,0.146579 0.118005,0.264583 0.264584,0.264583 h 1.2784748 1.796273 2.830318 c 0.820841,0 1.481563,-0.660725 1.481563,-1.481563 V 1.7461467 c 0,-0.82083726 -0.660722,-1.48156336 -1.481563,-1.48156336 z M 6.7597782,6.9391119 c 0.009,0.0083 0.0185,0.01595 0.02739,0.02429 v -0.02429 z" />
  </g>
</svg>
