<?xml version="1.0" encoding="UTF-8" standalone="no"?>
<svg
   xmlns:dc="http://purl.org/dc/elements/1.1/"
   xmlns:cc="http://creativecommons.org/ns#"
   xmlns:rdf="http://www.w3.org/1999/02/22-rdf-syntax-ns#"
   xmlns:svg="http://www.w3.org/2000/svg"
   xmlns="http://www.w3.org/2000/svg"
   xmlns:sodipodi="http://sodipodi.sourceforge.net/DTD/sodipodi-0.dtd"
   xmlns:inkscape="http://www.inkscape.org/namespaces/inkscape"
   width="64"
   height="64"
   viewBox="0 0 16.933333 16.933334"
   version="1.1"
   id="svg841"
   inkscape:version="1.0.2 (e86c870879, 2021-01-15)"
   sodipodi:docname="dialog-transform-symbolic.svg">
  <defs
     id="defs835" />
  <sodipodi:namedview
     id="base"
     pagecolor="#c4c4c4"
     bordercolor="#666666"
     borderopacity="1.0"
     inkscape:pageopacity="0"
     inkscape:pageshadow="2"
     inkscape:zoom="2.1510035"
     inkscape:cx="46.475398"
     inkscape:cy="48.011406"
     inkscape:document-units="px"
     inkscape:current-layer="layer1"
     inkscape:document-rotation="0"
     showgrid="false"
     units="px"
     inkscape:window-width="2048"
     inkscape:window-height="1080"
     inkscape:window-x="0"
     inkscape:window-y="0"
     inkscape:window-maximized="1" />
  <metadata
     id="metadata838">
    <rdf:RDF>
      <cc:Work
         rdf:about="">
        <dc:format>image/svg+xml</dc:format>
        <dc:type
           rdf:resource="http://purl.org/dc/dcmitype/StillImage" />
        <dc:title />
      </cc:Work>
    </rdf:RDF>
  </metadata>
  <g
     inkscape:label="Layer 1"
     inkscape:groupmode="layer"
     id="layer1">
    <rect
       style="opacity:0.25;fill:#808084;stroke-width:0;stroke-linecap:round;stroke-linejoin:round;stroke-dashoffset:2.1875;fill-opacity:1"
       id="rect857"
       width="10.054167"
       height="10.64957"
       x="6.3962073"
       y="3.6432741"
       rx="0.79374999"
       ry="0.84075546"
       transform="matrix(1,0,-0.32968398,0.94409135,0,0)" />
    <path
       id="rect2692"
       style="fill:#808084;fill-opacity:1;stroke:none;stroke-width:0.926042;stroke-linecap:round;stroke-linejoin:round;stroke-miterlimit:4;stroke-dasharray:none;stroke-dashoffset:2.1875;stroke-opacity:1"
       d="m 5.9888296,3.4395834 c -0.439737,0 -0.917374,0.3540125 -1.070933,0.79375 L 1.9612707,12.7 c -0.1535595,0.439737 0.07683,0.79375 0.5165669,0.79375 h 8.4666634 c 0.439738,0 0.91738,-0.354013 1.07094,-0.79375 l 2.95662,-8.4666666 c 0.153584,-0.4397375 -0.07682,-0.79375 -0.51656,-0.79375 z m 0.377975,1.190625 h 6.8791664 c 0.219869,0 0.335065,0.1770063 0.258285,0.396875 l -2.40226,6.8791666 c -0.07682,0.219869 -0.315596,0.396875 -0.535465,0.396875 H 3.6873626 c -0.219869,0 -0.335063,-0.177006 -0.258283,-0.396875 l 2.402258,-6.8791666 c 0.076782,-0.2198687 0.315598,-0.396875 0.535467,-0.396875 z" />
  </g>
</svg>
