<?xml version="1.0" encoding="UTF-8" standalone="no"?>
<svg
   xmlns:dc="http://purl.org/dc/elements/1.1/"
   xmlns:cc="http://creativecommons.org/ns#"
   xmlns:rdf="http://www.w3.org/1999/02/22-rdf-syntax-ns#"
   xmlns:svg="http://www.w3.org/2000/svg"
   xmlns="http://www.w3.org/2000/svg"
   xmlns:sodipodi="http://sodipodi.sourceforge.net/DTD/sodipodi-0.dtd"
   xmlns:inkscape="http://www.inkscape.org/namespaces/inkscape"
   width="64"
   height="64"
   viewBox="0 0 64 64.000003"
   version="1.1"
   id="svg1461"
   inkscape:version="1.0.2 (e86c870879, 2021-01-15)"
   sodipodi:docname="draw-text-symbolic.svg">
  <defs
     id="defs1455" />
  <sodipodi:namedview
     id="base"
     pagecolor="#c4c4c4"
     bordercolor="#666666"
     borderopacity="1.0"
     inkscape:pageopacity="0"
     inkscape:pageshadow="2"
     inkscape:zoom="5.0164767"
     inkscape:cx="61.837295"
     inkscape:cy="55.189237"
     inkscape:document-units="px"
     inkscape:current-layer="layer1"
     inkscape:document-rotation="0"
     showgrid="false"
     units="px"
     inkscape:window-width="2048"
     inkscape:window-height="1080"
     inkscape:window-x="0"
     inkscape:window-y="0"
     inkscape:window-maximized="1" />
  <metadata
     id="metadata1458">
    <rdf:RDF>
      <cc:Work
         rdf:about="">
        <dc:format>image/svg+xml</dc:format>
        <dc:type
           rdf:resource="http://purl.org/dc/dcmitype/StillImage" />
        <dc:title />
      </cc:Work>
    </rdf:RDF>
  </metadata>
  <g
     inkscape:label="Layer 1"
     inkscape:groupmode="layer"
     id="layer1">
    <path
       id="rect1180-5"
       style="display:inline;fill:#808084;fill-opacity:1;stroke-width:5.00001;stroke-dashoffset:2.1875"
       d="M 0.999999,8.0004989 C 0.445999,8.0004989 0,8.4464989 0,9.0005029 v 5.0000001 7.5 c 0,0.554 0.445999,1 0.999999,1 H 4.5 c 0.553999,0 0.999999,-0.446 0.999999,-1 v -2.75 a 3.75,3.75 0 0 1 3.7206988,-3.75 h 6.2793032 v 31.750001 a 3.75,3.75 0 0 1 -3.720703,3.749998 H 8.9999999 c -0.5539994,0 -0.9999988,0.445999 -0.9999988,1.000002 v 3.499998 c 0,0.554003 0.4459994,1.000002 0.9999988,1.000002 H 30.999998 c 0.554003,0 1.000003,-0.445999 1.000003,-1.000002 v -3.499998 c 0,-0.554003 -0.446,-1.000002 -1.000003,-1.000002 H 28.2207 A 3.75,3.75 0 0 1 24.500001,46.750504 V 15.000503 H 30.7793 a 3.7503025,3.75 0 0 1 3.720699,3.75 v 2.75 c 0,0.554 0.446,1 0.999999,1 h 3.500001 c 0.554,0 0.999999,-0.446 0.999999,-1 v -7.5 -5.0000001 c 0,-0.138504 -0.02797,-0.268959 -0.07801,-0.388676 -0.05,-0.11972 -0.124498,-0.227985 -0.214904,-0.318361 -0.180699,-0.180748 -0.430001,-0.29297 -0.706999,-0.29297 z" />
    <path
       id="rect2564-3-5"
       style="fill:#808084;fill-opacity:1;stroke:none;stroke-width:9.94987;stroke-linecap:butt;stroke-linejoin:miter;stroke-miterlimit:4;stroke-dasharray:none;stroke-dashoffset:2.1875;stroke-opacity:1"
       d="m 50.19528,2.4250962 c -0.38674,-0.04846 -0.78248,0.132353 -0.99023,0.492188 l -1.250002,2.1660146 c -0.276999,0.47978 -0.11259,1.088234 0.367188,1.365235 l 4.837894,2.792969 V 54.759077 l -4.839848,2.79297 c -0.479777,0.277 -0.642233,0.88546 -0.365234,1.36524 l 1.250002,2.16601 c 0.277,0.47978 0.88546,0.64224 1.36523,0.36524 l 5.33985,-3.08203 5.339839,3.08203 c 0.47978,0.277 1.08823,0.11454 1.36523,-0.36524 l 1.25,-2.16601 c 0.277,-0.47978 0.11455,-1.08824 -0.36523,-1.36524 l -4.83984,-2.79492 V 9.2415028 l 4.83984,-2.792969 c 0.47978,-0.277001 0.64223,-0.885455 0.36523,-1.365235 l -1.25,-2.1660146 c -0.277,-0.47978 -0.88545,-0.642235 -1.36523,-0.365235 L 55.91013,5.6340808 50.57028,2.5520492 c -0.11994,-0.06925 -0.24608,-0.110801 -0.375,-0.126953 z" />
  </g>
</svg>
