<?xml version="1.0" encoding="UTF-8" standalone="no"?>
<svg
   xmlns:dc="http://purl.org/dc/elements/1.1/"
   xmlns:cc="http://creativecommons.org/ns#"
   xmlns:rdf="http://www.w3.org/1999/02/22-rdf-syntax-ns#"
   xmlns:svg="http://www.w3.org/2000/svg"
   xmlns="http://www.w3.org/2000/svg"
   xmlns:sodipodi="http://sodipodi.sourceforge.net/DTD/sodipodi-0.dtd"
   xmlns:inkscape="http://www.inkscape.org/namespaces/inkscape"
   width="64"
   height="64"
   viewBox="0 0 64 64.000003"
   version="1.1"
   id="svg8"
   inkscape:version="1.0.2 (e86c870879, 2021-01-15)"
   sodipodi:docname="edit-find-replace-symbolic.svg">
  <defs
     id="defs2" />
  <sodipodi:namedview
     id="base"
     pagecolor="#c3c3c3"
     bordercolor="#666666"
     borderopacity="1.0"
     inkscape:pageopacity="0"
     inkscape:pageshadow="2"
     inkscape:zoom="3.726268"
     inkscape:cx="47.376056"
     inkscape:cy="64.075805"
     inkscape:document-units="px"
     inkscape:current-layer="layer1"
     inkscape:document-rotation="0"
     showgrid="false"
     units="px"
     inkscape:window-width="2048"
     inkscape:window-height="1080"
     inkscape:window-x="0"
     inkscape:window-y="0"
     inkscape:window-maximized="1" />
  <metadata
     id="metadata5">
    <rdf:RDF>
      <cc:Work
         rdf:about="">
        <dc:format>image/svg+xml</dc:format>
        <dc:type
           rdf:resource="http://purl.org/dc/dcmitype/StillImage" />
        <dc:title />
      </cc:Work>
    </rdf:RDF>
  </metadata>
  <g
     inkscape:label="Layer 1"
     inkscape:groupmode="layer"
     id="layer1">
    <path
       id="path2165-5-1-3"
       style="color:#000000;font-style:normal;font-variant:normal;font-weight:normal;font-stretch:normal;font-size:medium;line-height:normal;font-family:sans-serif;font-variant-ligatures:normal;font-variant-position:normal;font-variant-caps:normal;font-variant-numeric:normal;font-variant-alternates:normal;font-variant-east-asian:normal;font-feature-settings:normal;font-variation-settings:normal;text-indent:0;text-align:start;text-decoration:none;text-decoration-line:none;text-decoration-style:solid;text-decoration-color:#000000;letter-spacing:normal;word-spacing:normal;text-transform:none;writing-mode:lr-tb;direction:ltr;text-orientation:mixed;dominant-baseline:auto;baseline-shift:baseline;text-anchor:start;white-space:normal;shape-padding:0;shape-margin:0;inline-size:0;clip-rule:nonzero;display:inline;overflow:visible;visibility:visible;isolation:auto;mix-blend-mode:normal;color-interpolation:sRGB;color-interpolation-filters:linearRGB;solid-color:#000000;solid-opacity:1;vector-effect:none;fill:#808084;fill-opacity:1;fill-rule:nonzero;stroke:none;stroke-linecap:round;stroke-linejoin:round;stroke-miterlimit:4;stroke-dasharray:none;stroke-dashoffset:2.1875;stroke-opacity:1;color-rendering:auto;image-rendering:auto;shape-rendering:auto;text-rendering:auto;enable-background:accumulate;stop-color:#000000"
       d="m 26.224393,3.252 c -5.8935,0 -11.7853,2.2384 -16.2617004,6.7148 -8.2727,8.2726 -8.8931,21.3792 -1.8769,30.3867 L 13.105293,35.334 c -4.3656004,-6.2473 -3.7825004,-14.8288 1.8066,-20.418 5.5892,-5.5891 14.1706,-6.1723 20.418,-1.8066 l 5.0215,-5.0215 c -4.1338,-3.2196 -9.1288,-4.8359 -14.127,-4.8359 z m 22.4961,27.58 -17.8926,17.8926 c 2.9084,-0.5845 5.7254,-1.7222 8.2676,-3.4375 l 14.1758,14.1758 c 1.7138,1.7139 4.4737,1.7139 6.1875,0 1.7139,-1.7138 1.7139,-4.4718 0,-6.1856 l -14.1758,-14.1777 c 1.7155,-2.5425 2.8531,-5.3592 3.4375,-8.2676 z" />
    <path
       id="rect2726-4-8-2-8-8-6-9"
       style="display:inline;fill:#808084;fill-opacity:1;stroke:none;stroke-width:6.40663;stroke-dashoffset:2.1875"
       d="m 51.165693,0.932 c -0.5112,0 -1.0223,0.1961 -1.414,0.5878 l -4.9649,4.9649 12.7266,12.7285 4.9648,-4.9668 c 0.7835,-0.7835 0.7835,-2.0446 0,-2.8281 l -9.8984,-9.8985 c -0.3918,-0.3917 -0.9028,-0.5878 -1.4141,-0.5878 z m -9.5449,8.7187 -32.1738004,32.1719 -3.5352,3.5371 0.01,0.01 c -0.204,0.2204 -0.3677,0.4812 -0.4551,0.7773 l -4.4648,15.1094 c -0.10440005,0.3533 -0.087,0.6909 0.02,0.9785 0.033,0.088 0.074,0.1685 0.123,0.2461 0.014,0.029 0.036,0.052 0.055,0.076 0.035,0.049 0.073,0.092 0.1153,0.1347 0.041,0.041 0.086,0.075 0.1308,0.1113 0.023,0.023 0.054,0.039 0.08,0.059 0.076,0.049 0.1571,0.089 0.2441,0.1211 0.288,0.1074 0.6248,0.1238 0.9786,0.02 L 17.857993,58.5363 c 0.2961,-0.087 0.5569,-0.2494 0.7774,-0.4532 l 0.01,0.01 3.5352,-3.5351 32.1738,-32.1739 z m -28.6699,34.0781 c 0.5335,-0.047 1.05,0.1131 1.4238,0.4844 0,0 0,0 0,0 0.01,0.01 0.015,0.022 0.023,0.031 l 5.3477,5.3496 c 0.012,0.011 0.026,0.015 0.037,0.027 0.7482,0.7482 0.6316,2.0675 -0.2617,2.9609 l -0.9356,0.9355 -1.0234,1.0254 -0.9043,0.9024 -1.2891,1.291 c -0.8814,0.8814 -2.1943,0.9874 -2.9434,0.2383 -0.7491,-0.7492 -0.6431,-2.062 0.2383,-2.9434 -0.8814,0.8814 -2.1942,0.9874 -2.9433004,0.2383 -0.7491,-0.7492 -0.6431,-2.062 0.2382,-2.9434 -0.8814,0.8814 -2.1942,0.9874 -2.9433,0.2383 -0.7492,-0.7491 -0.6431,-2.0618 0.2383,-2.9433 l 1.291,-1.2891 0.9023,-0.9023 1.0254004,-1.0254 h 0.01 l 0.9316,-0.9317 c 0.4467,-0.4467 0.9998,-0.699 1.5352,-0.7461 z" />
  </g>
</svg>
