<?xml version="1.0" encoding="UTF-8" standalone="no"?>
<svg
   xmlns:dc="http://purl.org/dc/elements/1.1/"
   xmlns:cc="http://creativecommons.org/ns#"
   xmlns:rdf="http://www.w3.org/1999/02/22-rdf-syntax-ns#"
   xmlns:svg="http://www.w3.org/2000/svg"
   xmlns="http://www.w3.org/2000/svg"
   xmlns:sodipodi="http://sodipodi.sourceforge.net/DTD/sodipodi-0.dtd"
   xmlns:inkscape="http://www.inkscape.org/namespaces/inkscape"
   width="64"
   height="64"
   viewBox="0 0 16.933333 16.933334"
   version="1.1"
   id="svg841"
   inkscape:version="1.0.2 (e86c870879, 2021-01-15)"
   sodipodi:docname="edit-paste-size-seperately-symbolic.svg">
  <defs
     id="defs835" />
  <sodipodi:namedview
     id="base"
     pagecolor="#c4c4c4"
     bordercolor="#666666"
     borderopacity="1.0"
     inkscape:pageopacity="0"
     inkscape:pageshadow="2"
     inkscape:zoom="3.7980501"
     inkscape:cx="-37.92819"
     inkscape:cy="57.334593"
     inkscape:document-units="px"
     inkscape:current-layer="layer1"
     inkscape:document-rotation="0"
     showgrid="false"
     units="px"
     inkscape:window-width="2048"
     inkscape:window-height="1080"
     inkscape:window-x="0"
     inkscape:window-y="0"
     inkscape:window-maximized="1" />
  <metadata
     id="metadata838">
    <rdf:RDF>
      <cc:Work
         rdf:about="">
        <dc:format>image/svg+xml</dc:format>
        <dc:type
           rdf:resource="http://purl.org/dc/dcmitype/StillImage" />
        <dc:title />
      </cc:Work>
    </rdf:RDF>
  </metadata>
  <g
     inkscape:label="Layer 1"
     inkscape:groupmode="layer"
     id="layer1">
    <path
       id="rect1790-5-2-3-3-8-0-6"
       style="fill:#808084;fill-opacity:1;stroke-width:1.85209;stroke-dashoffset:2.1875"
       d="m 4.7323218,4.7323216 c -0.047815,0.04781 -0.077091,0.114158 -0.077102,0.187454 l -3.819e-4,1.78573 -2.33e-5,2.579754 1.8942726,-1.894273 2.9933644,2.9933644 -1.894273,1.894273 2.5797544,-2.3e-5 1.78573,-3.82e-4 c 0.146589,-2.6e-5 0.264538,-0.117975 0.264555,-0.264555 l 3.82e-4,-1.785731 2.4e-5,-2.5797544 -1.894273,1.894273 -2.9933648,-2.993364 1.894273,-1.894273 -2.5797539,2.4e-5 -1.7857307,3.82e-4 c -0.073292,7e-6 -0.1396402,0.02929 -0.1874526,0.0771 z" />
    <path
       id="rect2009-36-0-6-6-3"
       style="fill:#808084;fill-opacity:1;stroke-width:1.85208;stroke-dashoffset:2.1875"
       d="m 2.3812502,0.52916625 c -1.026054,0 -1.85208395,0.82602795 -1.85208395,1.85208295 v 0.132292 0.804602 0.518315 c 0,0.14658 0.118005,0.264583 0.264584,0.264583 H 1.4552082 c 0.146578,0 0.264583,-0.118004 0.264583,-0.264583 v -0.518315 -0.67231 c 0,-0.513027 0.413015,-0.926042 0.926042,-0.926042 h 0.652674 0.537951 c 0.14658,0 0.264584,-0.118003 0.264584,-0.264583 V 0.79374925 c 0,-0.146579 -0.118004,-0.264583 -0.264584,-0.264583 h -0.537951 -0.784965 z m 10.7156248,0 c -0.14658,0 -0.264583,0.118004 -0.264583,0.264583 V 1.4552082 c 0,0.146579 0.118003,0.264583 0.264583,0.264583 h 0.537952 0.652673 c 0.513027,0 0.926042,0.4130151 0.926042,0.926042 v 0.67231 0.518315 c 0,0.146579 0.118003,0.2645831 0.264583,0.2645831 h 0.661458 c 0.146579,0 0.264584,-0.118004 0.264584,-0.2645831 v -0.518315 -0.804602 -0.132292 c 0,-1.0260549 -0.82603,-1.85208295 -1.852084,-1.85208295 H 14.419792 13.634827 Z M 0.79375025,12.832291 c -0.146579,0 -0.264584,0.118005 -0.264584,0.264584 v 0.518314 0.804603 0.132291 c 0,1.026054 0.82602895,1.852084 1.85208395,1.852084 h 0.132292 0.784965 0.537951 c 0.14658,0 0.264584,-0.118005 0.264584,-0.264584 v -0.661458 c 0,-0.146579 -0.118004,-0.264583 -0.264584,-0.264583 h -0.537951 -0.652674 c -0.513028,0 -0.926042,-0.413015 -0.926042,-0.926042 v -0.672311 -0.518314 c 0,-0.146579 -0.118004,-0.264584 -0.264583,-0.264584 z m 14.68437475,0 c -0.14658,0 -0.264583,0.118005 -0.264583,0.264584 v 0.518314 0.672311 c 0,0.513027 -0.413015,0.926042 -0.926042,0.926042 h -0.652673 -0.537952 c -0.14658,0 -0.264583,0.118004 -0.264583,0.264583 v 0.661458 c 0,0.146579 0.118003,0.264584 0.264583,0.264584 h 0.537952 0.784965 0.132291 c 1.026054,0 1.852084,-0.82603 1.852084,-1.852084 v -0.132291 -0.804603 -0.518314 c 0,-0.146579 -0.118005,-0.264584 -0.264584,-0.264584 z" />
  </g>
</svg>
