<?xml version="1.0" encoding="UTF-8" standalone="no"?>
<svg
   xmlns:dc="http://purl.org/dc/elements/1.1/"
   xmlns:cc="http://creativecommons.org/ns#"
   xmlns:rdf="http://www.w3.org/1999/02/22-rdf-syntax-ns#"
   xmlns:svg="http://www.w3.org/2000/svg"
   xmlns="http://www.w3.org/2000/svg"
   xmlns:sodipodi="http://sodipodi.sourceforge.net/DTD/sodipodi-0.dtd"
   xmlns:inkscape="http://www.inkscape.org/namespaces/inkscape"
   width="64"
   height="64"
   viewBox="0 0 64 64.000003"
   version="1.1"
   id="svg1461"
   inkscape:version="1.0.2 (e86c870879, 2021-01-15)"
   sodipodi:docname="edit-opacity-symbolic.svg">
  <defs
     id="defs1455" />
  <sodipodi:namedview
     id="base"
     pagecolor="#c4c4c4"
     bordercolor="#666666"
     borderopacity="1.0"
     inkscape:pageopacity="0"
     inkscape:pageshadow="2"
     inkscape:zoom="8.6009763"
     inkscape:cx="34.747635"
     inkscape:cy="43.94267"
     inkscape:document-units="px"
     inkscape:current-layer="layer1"
     inkscape:document-rotation="0"
     showgrid="false"
     units="px"
     inkscape:window-width="1275"
     inkscape:window-height="1080"
     inkscape:window-x="68"
     inkscape:window-y="56"
     inkscape:window-maximized="0" />
  <metadata
     id="metadata1458">
    <rdf:RDF>
      <cc:Work
         rdf:about="">
        <dc:format>image/svg+xml</dc:format>
        <dc:type
           rdf:resource="http://purl.org/dc/dcmitype/StillImage" />
        <dc:title></dc:title>
      </cc:Work>
    </rdf:RDF>
  </metadata>
  <g
     inkscape:label="Layer 1"
     inkscape:groupmode="layer"
     id="layer1">
    <path
       id="path1743-29"
       style="fill:#808084;fill-opacity:1;stroke-width:0;stroke-dashoffset:2.1875"
       d="m 31.8555,2.000087 a 30,30 0 0 0 -29.8555,30 30,30 0 0 0 30,30 30,30 0 0 0 30,-30 30,30 0 0 0 -30,-30 30,30 0 0 0 -0.1445,0 z m 0,4.5 a 25.5,25.5 0 0 1 0.1406,0 25.5,25.5 0 0 1 25.5,25.5 25.5,25.5 0 0 1 -25.5,25.5 25.5,25.5 0 0 1 -25.5,-25.5 25.5,25.5 0 0 1 25.3594,-25.5 z" />
    <path
       id="path831-1"
       style="opacity:0.1;fill:#808084;fill-opacity:1;stroke-width:0;stroke-linecap:round;stroke-linejoin:round;stroke-dashoffset:2.1875"
       d="M 31.859376,6.500087 A 25.5,25.5 0 0 0 7.958984,23.500083 h 48.082032 a 25.5,25.5 0 0 0 -24.04102,-16.999996 25.5,25.5 0 0 0 -0.14062,0 z" />
    <path
       id="path831-3-2"
       style="fill:#808084;fill-opacity:1;stroke-width:0;stroke-linecap:round;stroke-linejoin:round;stroke-dashoffset:2.1875;opacity:0.45"
       d="m 7.9589885,23.5 a 25.5,25.5 0 0 0 -1.45899,8.5 25.5,25.5 0 0 0 1.45899,8.5 H 56.041021 a 25.5,25.5 0 0 0 1.45898,-8.5 25.5,25.5 0 0 0 -1.45898,-8.5 z" />
    <path
       id="path831-6-7-0"
       style="fill:#808084;fill-opacity:1;stroke-width:0;stroke-linecap:round;stroke-linejoin:round;stroke-dashoffset:2.1875;opacity:0.9"
       d="M 7.959017,40.5 A 25.501018,25.5 0 0 0 32.000987,57.499996 25.501018,25.5 0 0 0 56.041021,40.5 Z" />
  </g>
</svg>
