<?xml version="1.0" encoding="UTF-8" standalone="no"?>
<svg
   xmlns:dc="http://purl.org/dc/elements/1.1/"
   xmlns:cc="http://creativecommons.org/ns#"
   xmlns:rdf="http://www.w3.org/1999/02/22-rdf-syntax-ns#"
   xmlns:svg="http://www.w3.org/2000/svg"
   xmlns="http://www.w3.org/2000/svg"
   xmlns:sodipodi="http://sodipodi.sourceforge.net/DTD/sodipodi-0.dtd"
   xmlns:inkscape="http://www.inkscape.org/namespaces/inkscape"
   width="64"
   height="64"
   viewBox="0 0 64 64.000003"
   version="1.1"
   id="svg8"
   inkscape:version="1.0.2 (e86c870879, 2021-01-15)"
   sodipodi:docname="format-indent-more-symbolic-rtl.svg">
  <defs
     id="defs2" />
  <sodipodi:namedview
     id="base"
     pagecolor="#c3c3c3"
     bordercolor="#666666"
     borderopacity="1.0"
     inkscape:pageopacity="0"
     inkscape:pageshadow="2"
     inkscape:zoom="5.8089591"
     inkscape:cx="20.983299"
     inkscape:cy="7.9507402"
     inkscape:document-units="px"
     inkscape:current-layer="layer1"
     inkscape:document-rotation="0"
     showgrid="false"
     units="px"
     inkscape:window-width="2048"
     inkscape:window-height="1080"
     inkscape:window-x="0"
     inkscape:window-y="0"
     inkscape:window-maximized="1" />
  <metadata
     id="metadata5">
    <rdf:RDF>
      <cc:Work
         rdf:about="">
        <dc:format>image/svg+xml</dc:format>
        <dc:type
           rdf:resource="http://purl.org/dc/dcmitype/StillImage" />
        <dc:title />
      </cc:Work>
    </rdf:RDF>
  </metadata>
  <g
     inkscape:label="Layer 1"
     inkscape:groupmode="layer"
     id="layer1">
    <path
       id="rect1790-5-2-6-3-3"
       style="fill:#808084;fill-opacity:1;stroke-width:7.00005;stroke-dashoffset:2.1875"
       d="m 63.706362,9.5088525 c 0.3917,0.39171 0.3917,1.0224105 0,1.4142205 l -10.07632,10.07644 10.07632,10.076349 c 0.3917,0.391801 0.3917,1.02251 0,1.41432 l -4.773,4.77297 c -0.3917,0.3918 -1.0225,0.3918 -1.4142,0 l -10.7834,-10.78355 -4.773,-4.77297 c -0.3917,-0.39179 -0.3917,-1.0225 0,-1.41433 l 4.773,-4.77297 10.7834,-10.7835495 c 0.3917,-0.39171 1.0225,-0.39171 1.4142,0 z" />
    <rect
       style="fill:#808084;fill-opacity:1;stroke-width:0;stroke-dashoffset:2.1875"
       id="rect839-6-9-0-1-6-6"
       width="22"
       height="6"
       x="4"
       y="7.0000029"
       ry="1"
       rx="1" />
    <rect
       style="fill:#808084;fill-opacity:1;stroke-width:0;stroke-dashoffset:2.1875"
       id="rect841-7-3-6-8-1-7"
       width="50"
       height="6"
       x="4"
       y="51.000004"
       ry="1"
       rx="1" />
    <rect
       style="fill:#808084;fill-opacity:1;stroke-width:0;stroke-dashoffset:2.1875"
       id="rect843-5-6-2-7-2-5"
       width="22"
       height="6"
       x="4"
       y="29.000004"
       ry="1"
       rx="1" />
  </g>
</svg>
