<?xml version="1.0" encoding="UTF-8" standalone="no"?>
<svg
   xmlns:dc="http://purl.org/dc/elements/1.1/"
   xmlns:cc="http://creativecommons.org/ns#"
   xmlns:rdf="http://www.w3.org/1999/02/22-rdf-syntax-ns#"
   xmlns:svg="http://www.w3.org/2000/svg"
   xmlns="http://www.w3.org/2000/svg"
   xmlns:sodipodi="http://sodipodi.sourceforge.net/DTD/sodipodi-0.dtd"
   xmlns:inkscape="http://www.inkscape.org/namespaces/inkscape"
   width="64"
   height="64"
   viewBox="0 0 16.933333 16.933334"
   version="1.1"
   id="svg841"
   inkscape:version="1.0.2 (e86c870879, 2021-01-15)"
   sodipodi:docname="guides-symbolic.svg">
  <defs
     id="defs835" />
  <sodipodi:namedview
     id="base"
     pagecolor="#c4c4c4"
     bordercolor="#666666"
     borderopacity="1.0"
     inkscape:pageopacity="0"
     inkscape:pageshadow="2"
     inkscape:zoom="5.7391493"
     inkscape:cx="79.051862"
     inkscape:cy="28.923702"
     inkscape:document-units="px"
     inkscape:current-layer="layer1"
     inkscape:document-rotation="0"
     showgrid="false"
     units="px"
     inkscape:window-width="2048"
     inkscape:window-height="1080"
     inkscape:window-x="0"
     inkscape:window-y="0"
     inkscape:window-maximized="1" />
  <metadata
     id="metadata838">
    <rdf:RDF>
      <cc:Work
         rdf:about="">
        <dc:format>image/svg+xml</dc:format>
        <dc:type
           rdf:resource="http://purl.org/dc/dcmitype/StillImage" />
        <dc:title />
      </cc:Work>
    </rdf:RDF>
  </metadata>
  <g
     inkscape:label="Layer 1"
     inkscape:groupmode="layer"
     id="layer1">
    <path
       id="rect1429-3-36"
       style="fill:#808084;fill-opacity:1;stroke-width:0;stroke-linecap:round;stroke-linejoin:round;stroke-dashoffset:2.1875"
       d="m 4.8947917,0.52916667 c -0.146579,0 -0.264583,0.118005 -0.264583,0.264584 V 11.1125 H 0.79375067 c -0.14658,0 -0.264584,0.118004 -0.264584,0.264584 v 0.661458 c 0,0.146579 0.118004,0.264583 0.264584,0.264583 H 4.6302087 v 3.836459 c 0,0.146579 0.118004,0.264583 0.264583,0.264583 h 0.661459 c 0.146579,0 0.264583,-0.118004 0.264583,-0.264583 V 12.303125 H 16.139584 c 0.146579,0 0.264583,-0.118004 0.264583,-0.264583 v -0.661458 c 0,-0.14658 -0.118004,-0.264584 -0.264583,-0.264584 H 5.8208337 V 0.79375067 c 0,-0.146579 -0.118004,-0.264584 -0.264583,-0.264584 z" />
  </g>
</svg>
