<?xml version="1.0" encoding="UTF-8" standalone="no"?>
<svg
   xmlns:dc="http://purl.org/dc/elements/1.1/"
   xmlns:cc="http://creativecommons.org/ns#"
   xmlns:rdf="http://www.w3.org/1999/02/22-rdf-syntax-ns#"
   xmlns:svg="http://www.w3.org/2000/svg"
   xmlns="http://www.w3.org/2000/svg"
   xmlns:sodipodi="http://sodipodi.sourceforge.net/DTD/sodipodi-0.dtd"
   xmlns:inkscape="http://www.inkscape.org/namespaces/inkscape"
   width="64"
   height="64"
   viewBox="0 0 16.933333 16.933334"
   version="1.1"
   id="svg841"
   inkscape:version="1.0.2 (e86c870879, 2021-01-15)"
   sodipodi:docname="mail-message-new-symbolic.svg">
  <defs
     id="defs835" />
  <sodipodi:namedview
     id="base"
     pagecolor="#c4c4c4"
     bordercolor="#666666"
     borderopacity="1.0"
     inkscape:pageopacity="0"
     inkscape:pageshadow="2"
     inkscape:zoom="3.5451024"
     inkscape:cx="68.811251"
     inkscape:cy="38.515083"
     inkscape:document-units="px"
     inkscape:current-layer="layer1"
     inkscape:document-rotation="0"
     showgrid="false"
     units="px"
     inkscape:window-width="2048"
     inkscape:window-height="1080"
     inkscape:window-x="0"
     inkscape:window-y="0"
     inkscape:window-maximized="1" />
  <metadata
     id="metadata838">
    <rdf:RDF>
      <cc:Work
         rdf:about="">
        <dc:format>image/svg+xml</dc:format>
        <dc:type
           rdf:resource="http://purl.org/dc/dcmitype/StillImage" />
        <dc:title></dc:title>
      </cc:Work>
    </rdf:RDF>
  </metadata>
  <g
     inkscape:label="Layer 1"
     inkscape:groupmode="layer"
     id="layer1">
    <path
       id="rect1673-3-7"
       style="display:inline;fill:#808084;fill-opacity:1;stroke-width:0;stroke-dashoffset:2.1875"
       d="m 12.303124,8.466666 c -0.146579,0 -0.264583,0.117999 -0.264583,0.264581 v 2.77812 H 9.2604161 c -0.146579,0 -0.264583,0.118009 -0.264583,0.264588 v 1.322912 c 0,0.146579 0.118004,0.264588 0.264583,0.264588 h 2.7781249 v 2.77812 c 0,0.146582 0.118004,0.264591 0.264583,0.264591 h 1.322917 c 0.146579,0 0.264583,-0.118009 0.264583,-0.264591 v -2.77812 h 2.778125 c 0.14658,0 0.264584,-0.118009 0.264584,-0.264588 v -1.322912 c 0,-0.146579 -0.118004,-0.264588 -0.264584,-0.264588 h -2.778125 v -2.77812 c 0,-0.146582 -0.118004,-0.264581 -0.264583,-0.264581 z" />
    <path
       id="rect867-6-1-9-7-7"
       style="fill:#808084;stroke-width:1.19063;stroke-linecap:round;stroke-linejoin:round;stroke-dashoffset:2.1875"
       d="m 1.3229173,2.38125 c -0.58631696,0 -1.05833396,0.472025 -1.05833396,1.058334 v 10.054167 c 0,0.586319 0.472017,1.058333 1.05833396,1.058333 h 4.365625 1.0583328 0.79375 c 0.146579,0 0.264584,-0.118004 0.264584,-0.264583 v -0.661459 c 0,-0.146579 -0.118005,-0.264583 -0.264584,-0.264583 h -0.79375 -1.0583328 -3.704167 c -0.293158,0 -0.529167,-0.236006 -0.529167,-0.529167 v -8.73125 c 0,-0.008 0.0016,-0.01513 0.0021,-0.02273 l 2.46135,2.086179 h -0.0047 l 4.1051748,3.479374 c 0.01336,0.0113 0.02883,0.01934 0.04289,0.02946 0.0141,0.01019 0.0276,0.02045 0.04237,0.02946 0.02231,0.01349 0.04522,0.02477 0.06873,0.03566 0.01387,0.006 0.02713,0.0132 0.04134,0.0186 0.02495,0.009 0.05072,0.01675 0.07648,0.02326 0.01553,0.004 0.03078,0.008 0.04651,0.01085 0.02363,0.004 0.04742,0.0068 0.07131,0.0088 0.01939,0.0021 0.03843,0.0031 0.05788,0.0031 0.01945,-1.1e-5 0.03851,-0.0021 0.05788,-0.0031 0.02389,-0.0021 0.04771,-0.0038 0.07131,-0.0088 0.01574,-0.003 0.03098,-0.007 0.04651,-0.01085 0.02577,-0.007 0.05103,-0.01386 0.07597,-0.02326 0.01421,-0.005 0.02802,-0.0122 0.04186,-0.0186 0.02352,-0.0108 0.04643,-0.02207 0.06873,-0.03566 0.01479,-0.009 0.02828,-0.01937 0.04238,-0.02946 0.01405,-0.01011 0.02953,-0.01804 0.04289,-0.02946 L 13.018831,6.164491 h -0.0036 l 2.460831,-2.086179 c 2.65e-4,0.008 0.0021,0.01495 0.0021,0.02273 v 2.116667 1.058333 0.79375 c 0,0.146579 0.118004,0.264584 0.264583,0.264584 h 0.661458 c 0.14658,0 0.264584,-0.118005 0.264584,-0.264584 V 7.276042 6.217709 3.439584 c 0,-0.586309 -0.472014,-1.058334 -1.058334,-1.058334 z m 0.722953,1.190625 H 14.887464 L 8.4666671,7.735446 Z" />
  </g>
</svg>
