<?xml version="1.0" encoding="UTF-8" standalone="no"?>
<svg
   xmlns:dc="http://purl.org/dc/elements/1.1/"
   xmlns:cc="http://creativecommons.org/ns#"
   xmlns:rdf="http://www.w3.org/1999/02/22-rdf-syntax-ns#"
   xmlns:svg="http://www.w3.org/2000/svg"
   xmlns="http://www.w3.org/2000/svg"
   xmlns:sodipodi="http://sodipodi.sourceforge.net/DTD/sodipodi-0.dtd"
   xmlns:inkscape="http://www.inkscape.org/namespaces/inkscape"
   width="64"
   height="64"
   viewBox="0 0 16.933333 16.933334"
   version="1.1"
   id="svg841"
   inkscape:version="1.0.2 (e86c870879, 2021-01-15)"
   sodipodi:docname="media-view-subtitles-symbolic.svg">
  <defs
     id="defs835" />
  <sodipodi:namedview
     id="base"
     pagecolor="#c4c4c4"
     bordercolor="#666666"
     borderopacity="1.0"
     inkscape:pageopacity="0"
     inkscape:pageshadow="2"
     inkscape:zoom="3.1175765"
     inkscape:cx="88.658176"
     inkscape:cy="48.908702"
     inkscape:document-units="px"
     inkscape:current-layer="layer1"
     inkscape:document-rotation="0"
     showgrid="false"
     units="px"
     inkscape:window-width="2048"
     inkscape:window-height="1080"
     inkscape:window-x="0"
     inkscape:window-y="0"
     inkscape:window-maximized="1" />
  <metadata
     id="metadata838">
    <rdf:RDF>
      <cc:Work
         rdf:about="">
        <dc:format>image/svg+xml</dc:format>
        <dc:type
           rdf:resource="http://purl.org/dc/dcmitype/StillImage" />
        <dc:title />
      </cc:Work>
    </rdf:RDF>
  </metadata>
  <g
     inkscape:label="Layer 1"
     inkscape:groupmode="layer"
     id="layer1">
    <rect
       style="opacity:0.25;fill:#808084;fill-opacity:1;stroke-width:1.32292;stroke-linecap:round;stroke-linejoin:round;stroke-dashoffset:2.1875"
       id="rect952"
       width="16.668751"
       height="7.9375"
       x="0.13229167"
       y="4.4979167"
       rx="1.0583334"
       ry="1.0583334" />
    <rect
       style="fill:#808084;stroke-width:0.727604;stroke-linecap:round;stroke-linejoin:round;stroke-dashoffset:2.1875"
       id="rect866-6"
       width="3.4395833"
       height="2.1166668"
       x="0.92604166"
       y="5.4239593"
       rx="1.0583334"
       ry="1.0583334" />
    <rect
       style="fill:#808084;stroke-width:0.727604;stroke-linecap:round;stroke-linejoin:round;stroke-dashoffset:2.1875"
       id="rect866-6-7"
       width="2.6458333"
       height="2.1166668"
       x="13.361459"
       y="5.4239593"
       rx="1.0583334"
       ry="1.0583334" />
    <rect
       style="fill:#808084;stroke-width:0.727604;stroke-linecap:round;stroke-linejoin:round;stroke-dashoffset:2.1875"
       id="rect866-6-7-5"
       width="5.8208332"
       height="2.1166668"
       x="5.953125"
       y="5.4239593"
       rx="1.0583334"
       ry="1.0583334" />
    <rect
       style="fill:#808084;stroke-width:0.727604;stroke-linecap:round;stroke-linejoin:round;stroke-dashoffset:2.1875"
       id="rect866-6-7-3"
       width="4.4979167"
       height="2.1166668"
       x="0.92604166"
       y="9.3927116"
       rx="1.0583334"
       ry="1.0583334" />
    <rect
       style="fill:#808084;stroke-width:0.727604;stroke-linecap:round;stroke-linejoin:round;stroke-dashoffset:2.1875"
       id="rect866-6-5"
       width="4.2333336"
       height="2.1166668"
       x="7.0114584"
       y="9.3927116"
       rx="1.0583334"
       ry="1.0583334" />
    <rect
       style="fill:#808084;stroke-width:0.727604;stroke-linecap:round;stroke-linejoin:round;stroke-dashoffset:2.1875"
       id="rect866-6-7-5-6"
       width="3.175"
       height="2.1166668"
       x="12.832293"
       y="9.3927097"
       rx="1.0583334"
       ry="1.0583334" />
  </g>
</svg>
