<?xml version="1.0" encoding="UTF-8" standalone="no"?>
<svg
   xmlns:dc="http://purl.org/dc/elements/1.1/"
   xmlns:cc="http://creativecommons.org/ns#"
   xmlns:rdf="http://www.w3.org/1999/02/22-rdf-syntax-ns#"
   xmlns:svg="http://www.w3.org/2000/svg"
   xmlns="http://www.w3.org/2000/svg"
   xmlns:sodipodi="http://sodipodi.sourceforge.net/DTD/sodipodi-0.dtd"
   xmlns:inkscape="http://www.inkscape.org/namespaces/inkscape"
   width="64"
   height="64"
   viewBox="0 0 64 64.000003"
   version="1.1"
   id="svg8"
   inkscape:version="1.0.2 (e86c870879, 2021-01-15)"
   sodipodi:docname="media-seek-backward-symbolic.svg">
  <defs
     id="defs2" />
  <sodipodi:namedview
     id="base"
     pagecolor="#c3c3c3"
     bordercolor="#666666"
     borderopacity="1.0"
     inkscape:pageopacity="0"
     inkscape:pageshadow="2"
     inkscape:zoom="4.1988279"
     inkscape:cx="-28.095589"
     inkscape:cy="77.304681"
     inkscape:document-units="px"
     inkscape:current-layer="layer1"
     inkscape:document-rotation="0"
     showgrid="false"
     units="px"
     inkscape:window-width="2048"
     inkscape:window-height="1080"
     inkscape:window-x="0"
     inkscape:window-y="0"
     inkscape:window-maximized="1" />
  <metadata
     id="metadata5">
    <rdf:RDF>
      <cc:Work
         rdf:about="">
        <dc:format>image/svg+xml</dc:format>
        <dc:type
           rdf:resource="http://purl.org/dc/dcmitype/StillImage" />
        <dc:title />
      </cc:Work>
    </rdf:RDF>
  </metadata>
  <g
     inkscape:label="Layer 1"
     inkscape:groupmode="layer"
     id="layer1">
    <path
       id="rect1701-2-2"
       style="fill:#808084;fill-opacity:1;stroke:none;stroke-width:2;stroke-linecap:round;stroke-linejoin:round;stroke-miterlimit:4;stroke-dasharray:none;stroke-dashoffset:2.1875;stroke-opacity:1"
       d="m 60.9046,16.53933 v 0.002 c 0.037,0 0.073,0.005 0.1113,0.006 0.048,0.001 0.097,0.004 0.1446,0.008 0.06,0.005 0.1187,0.0115 0.1777,0.0195 0.037,0.005 0.075,0.0106 0.1133,0.0176 0.073,0.0129 0.1438,0.029 0.2148,0.0469 0.021,0.005 0.043,0.01 0.062,0.0156 0.081,0.0222 0.1603,0.0478 0.2383,0.0762 0.012,0.004 0.022,0.008 0.033,0.0117 0.085,0.032 0.1671,0.0684 0.2481,0.10742 0.01,0.003 0.01,0.005 0.017,0.008 0.9062,0.44333 1.5588,1.31475 1.6993,2.35547 0.01,0.0188 0.01,0.0378 0.01,0.0566 0.014,0.0572 0.014,0.11387 0.014,0.17187 0.01,0.0514 0.012,0.103 0.012,0.1543 1e-4,0.0122 0,0.0249 0,0.0371 v 24.73242 0.0371 c 0,0.052 -0.012,0.10415 -0.012,0.15625 -0.014,0.0567 -0.014,0.11422 -0.014,0.16992 0,0.0209 -0.01,0.0397 -0.01,0.0605 -0.1,0.72925 -0.4507,1.37582 -0.9649,1.84961 -0.074,0.0685 -0.1514,0.13236 -0.2324,0.19336 -0.08,0.0602 -0.162,0.11752 -0.248,0.16992 -0.084,0.0515 -0.1708,0.0993 -0.2598,0.14258 -0.084,0.0409 -0.1698,0.0781 -0.2578,0.11133 l -0.033,0.0117 c -0.077,0.0279 -0.1554,0.0543 -0.2344,0.0762 -0.025,0.007 -0.05,0.0116 -0.076,0.0176 -0.067,0.0167 -0.1341,0.0327 -0.2031,0.0449 -0.041,0.007 -0.082,0.0116 -0.123,0.0176 -0.052,0.007 -0.1043,0.0145 -0.1563,0.0195 -0.059,0.005 -0.1197,0.01 -0.1797,0.0117 -0.03,0.001 -0.059,0.004 -0.09,0.004 -0.013,0 -0.024,-0.002 -0.037,-0.002 -0.062,-10e-4 -0.1255,-0.008 -0.1875,-0.0117 -0.04,-0.003 -0.079,-0.004 -0.1192,-0.008 -0.047,-0.005 -0.096,-0.0145 -0.1426,-0.0215 -0.065,-0.0102 -0.1284,-0.0211 -0.1914,-0.0351 0,-2.4e-4 3e-4,0 -0.01,0 -0.01,-0.001 -0.01,-0.003 -0.01,-0.004 -0.3066,-0.0695 -0.5954,-0.18523 -0.8594,-0.33789 l -0.016,-0.01 -21.2109,-12.2461 c 0,-10e-4 -0.01,-9.5e-4 -0.01,-0.002 -0.4107,-0.20109 -0.7794,-0.49867 -1.0742,-0.87695 -0.015,-0.0192 -0.031,-0.0371 -0.045,-0.0566 -0.039,-0.0527 -0.075,-0.10836 -0.1114,-0.16406 -0.02,-0.031 -0.041,-0.062 -0.061,-0.0937 -0.01,-0.0146 -0.017,-0.0282 -0.027,-0.043 -0.018,-0.0313 -0.033,-0.0641 -0.049,-0.0957 -0.027,-0.0507 -0.054,-0.10034 -0.078,-0.15234 -0.017,-0.0369 -0.033,-0.0741 -0.049,-0.11133 -0.021,-0.0534 -0.043,-0.10771 -0.062,-0.16211 -0.017,-0.0475 -0.033,-0.0948 -0.047,-0.14258 -0.014,-0.0477 -0.027,-0.0962 -0.039,-0.14453 -0.012,-0.0469 -0.021,-0.0936 -0.031,-0.14063 -0.01,-0.0523 -0.019,-0.10345 -0.029,-0.15625 -0.01,-0.0504 -0.016,-0.10194 -0.016,-0.15234 -0.012,-0.0446 -0.012,-0.0881 -0.012,-0.13281 -0.01,-0.0525 -0.01,-0.10581 -0.01,-0.15821 0,-0.053 -3e-4,-0.1052 0.01,-0.1582 0,-0.0441 0.012,-0.0871 0.012,-0.13086 0.01,-0.0517 0.01,-0.10465 0.016,-0.15625 0.01,-0.0509 0.017,-0.10194 0.027,-0.15234 0.01,-0.0482 0.019,-0.0947 0.031,-0.14258 0.012,-0.0474 0.025,-0.0937 0.039,-0.14062 0.015,-0.0503 0.031,-0.10059 0.049,-0.15039 0.017,-0.0489 0.036,-0.0965 0.055,-0.14454 0.018,-0.0432 0.037,-0.0863 0.057,-0.1289 0.023,-0.0501 0.049,-0.0996 0.074,-0.14844 0.017,-0.0315 0.033,-0.0646 0.051,-0.0957 0.01,-0.0129 0.013,-0.0242 0.023,-0.0371 0.023,-0.0387 0.048,-0.0756 0.074,-0.11328 0.034,-0.0508 0.066,-0.10219 0.1016,-0.15039 0.014,-0.0179 0.028,-0.0332 0.043,-0.0508 0.052,-0.0667 0.1061,-0.13196 0.1621,-0.19335 0.2557,-0.27956 0.5557,-0.50488 0.8828,-0.66993 L 59.3539,16.95734 c 0.2667,-0.15419 0.5571,-0.27064 0.8672,-0.33984 0,0 0.01,-0.001 0.01,-0.002 0.071,-0.0157 0.1438,-0.0283 0.2168,-0.0391 0.034,-0.005 0.067,-0.01 0.1016,-0.0137 0.049,-0.006 0.1004,-0.009 0.1504,-0.0117 0.056,-0.004 0.112,-0.009 0.168,-0.01 0.012,0 0.023,-0.002 0.035,-0.002 z" />
    <path
       id="rect1701-9-0-3"
       style="fill:#808084;fill-opacity:1;stroke:none;stroke-width:2;stroke-linecap:round;stroke-linejoin:round;stroke-miterlimit:4;stroke-dasharray:none;stroke-dashoffset:2.1875;stroke-opacity:1"
       d="m 33.2756,16.53933 v 0.002 c 0.037,0 0.073,0.005 0.1113,0.006 0.048,0.001 0.097,0.004 0.1446,0.008 0.06,0.005 0.1187,0.0115 0.1777,0.0195 0.037,0.005 0.075,0.0106 0.1133,0.0176 0.073,0.0129 0.1438,0.029 0.2148,0.0469 0.021,0.005 0.043,0.01 0.062,0.0156 0.081,0.0222 0.1603,0.0478 0.2383,0.0762 0.012,0.004 0.022,0.008 0.033,0.0117 0.085,0.032 0.1671,0.0684 0.2481,0.10742 0.01,0.003 0.01,0.005 0.017,0.008 0.9062,0.44333 1.5588,1.31475 1.6993,2.35547 0.01,0.0188 0.01,0.0378 0.01,0.0566 0.014,0.0572 0.014,0.11387 0.014,0.17187 0.01,0.0514 0.012,0.103 0.012,0.1543 10e-5,0.0122 0,0.0249 0,0.0371 v 24.73242 0.0371 c 0,0.052 -0.012,0.10415 -0.012,0.15625 -0.014,0.0567 -0.014,0.11422 -0.014,0.16992 0,0.0209 -0.01,0.0397 -0.01,0.0605 -0.1,0.72925 -0.4507,1.37582 -0.9649,1.84961 -0.074,0.0685 -0.1514,0.13236 -0.2324,0.19336 -0.08,0.0602 -0.162,0.11752 -0.248,0.16992 -0.084,0.0515 -0.1708,0.0993 -0.2598,0.14258 -0.084,0.0409 -0.1698,0.0781 -0.2578,0.11133 l -0.033,0.0117 c -0.077,0.0279 -0.1554,0.0543 -0.2344,0.0762 -0.025,0.007 -0.05,0.0116 -0.076,0.0176 -0.067,0.0167 -0.1341,0.0327 -0.2031,0.0449 -0.041,0.007 -0.082,0.0116 -0.123,0.0176 -0.052,0.007 -0.1043,0.0145 -0.1563,0.0195 -0.059,0.005 -0.1197,0.01 -0.1797,0.0117 -0.03,0.001 -0.059,0.004 -0.09,0.004 -0.013,0 -0.024,-0.002 -0.037,-0.002 -0.062,-10e-4 -0.1255,-0.008 -0.1875,-0.0117 -0.04,-0.003 -0.079,-0.004 -0.1192,-0.008 -0.047,-0.005 -0.096,-0.0145 -0.1426,-0.0215 -0.065,-0.0102 -0.1284,-0.0211 -0.1914,-0.0351 0,-2.4e-4 3e-4,0 -0.01,0 -0.01,-0.001 -0.01,-0.003 -0.01,-0.004 -0.3066,-0.0695 -0.5954,-0.18523 -0.8594,-0.33789 l -0.016,-0.01 -21.2109,-12.2461 c 0,-10e-4 -0.01,-9.5e-4 -0.01,-0.002 -0.4107,-0.20109 -0.7794,-0.49867 -1.0742,-0.87695 -0.015,-0.0192 -0.031,-0.0371 -0.045,-0.0566 -0.039,-0.0527 -0.075,-0.10836 -0.1114,-0.16406 -0.02,-0.031 -0.041,-0.062 -0.061,-0.0937 -0.01,-0.0146 -0.017,-0.0282 -0.027,-0.043 C 9.146,33.51588 9.131,33.48308 9.115,33.45148 9.088,33.40078 9.061,33.35114 9.037,33.29914 9.02,33.26224 9.004,33.22504 8.988,33.18781 8.967,33.13441 8.945,33.0801 8.926,33.0257 8.909,32.9782 8.893,32.9309 8.879,32.88312 8.865,32.83542 8.852,32.78692 8.84,32.73859 8.828,32.69169 8.819,32.64499 8.809,32.59796 8.799,32.54566 8.79,32.49451 8.78,32.44171 8.77,32.39131 8.764,32.33977 8.764,32.28937 8.752,32.24477 8.752,32.20127 8.752,32.15656 c -0.01,-0.0525 -0.01,-0.10581 -0.01,-0.15821 0,-0.053 -3e-4,-0.1052 0.01,-0.1582 0,-0.0441 0.012,-0.0871 0.012,-0.13086 0.01,-0.0517 0.01,-0.10465 0.016,-0.15625 0.01,-0.0509 0.017,-0.10194 0.027,-0.15234 0.01,-0.0482 0.019,-0.0947 0.031,-0.14258 0.012,-0.0474 0.025,-0.0937 0.039,-0.14062 0.015,-0.0503 0.031,-0.10059 0.049,-0.15039 0.017,-0.0489 0.036,-0.0965 0.055,-0.14454 0.018,-0.0432 0.037,-0.0863 0.057,-0.1289 0.023,-0.0501 0.049,-0.0996 0.074,-0.14844 0.017,-0.0315 0.033,-0.0646 0.051,-0.0957 0.01,-0.0129 0.013,-0.0242 0.023,-0.0371 0.023,-0.0387 0.048,-0.0756 0.074,-0.11328 0.034,-0.0508 0.066,-0.10219 0.1016,-0.15039 0.014,-0.0179 0.028,-0.0332 0.043,-0.0508 0.052,-0.0667 0.1061,-0.13196 0.1621,-0.19335 0.2557,-0.27956 0.5557,-0.50488 0.8828,-0.66993 L 31.7249,16.95734 c 0.2667,-0.15419 0.5571,-0.27064 0.8672,-0.33984 0,0 0.01,-0.001 0.01,-0.002 0.071,-0.0157 0.1438,-0.0283 0.2168,-0.0391 0.034,-0.005 0.067,-0.01 0.1016,-0.0137 0.049,-0.006 0.1004,-0.009 0.1504,-0.0117 0.056,-0.004 0.112,-0.009 0.168,-0.01 0.012,0 0.023,-0.002 0.035,-0.002 z" />
  </g>
</svg>
