<?xml version="1.0" encoding="UTF-8" standalone="no"?>
<svg
   xmlns:dc="http://purl.org/dc/elements/1.1/"
   xmlns:cc="http://creativecommons.org/ns#"
   xmlns:rdf="http://www.w3.org/1999/02/22-rdf-syntax-ns#"
   xmlns:svg="http://www.w3.org/2000/svg"
   xmlns="http://www.w3.org/2000/svg"
   xmlns:sodipodi="http://sodipodi.sourceforge.net/DTD/sodipodi-0.dtd"
   xmlns:inkscape="http://www.inkscape.org/namespaces/inkscape"
   width="64"
   height="64"
   viewBox="0 0 16.933333 16.933334"
   version="1.1"
   id="svg841"
   inkscape:version="1.0.2 (e86c870879, 2021-01-15)"
   sodipodi:docname="notebook-new-symbolic.svg">
  <defs
     id="defs835" />
  <sodipodi:namedview
     id="base"
     pagecolor="#c4c4c4"
     bordercolor="#666666"
     borderopacity="1.0"
     inkscape:pageopacity="0"
     inkscape:pageshadow="2"
     inkscape:zoom="3.3745544"
     inkscape:cx="-22.509543"
     inkscape:cy="49.366281"
     inkscape:document-units="px"
     inkscape:current-layer="layer1"
     inkscape:document-rotation="0"
     showgrid="false"
     units="px"
     inkscape:window-width="2048"
     inkscape:window-height="1080"
     inkscape:window-x="0"
     inkscape:window-y="0"
     inkscape:window-maximized="1" />
  <metadata
     id="metadata838">
    <rdf:RDF>
      <cc:Work
         rdf:about="">
        <dc:format>image/svg+xml</dc:format>
        <dc:type
           rdf:resource="http://purl.org/dc/dcmitype/StillImage" />
        <dc:title />
      </cc:Work>
    </rdf:RDF>
  </metadata>
  <g
     inkscape:label="Layer 1"
     inkscape:groupmode="layer"
     id="layer1">
    <path
       id="rect1673-7-0-3-7-7-3-5"
       style="display:inline;fill:#808084;fill-opacity:1;stroke-width:0;stroke-dashoffset:2.1875"
       d="m 12.303125,8.9964151 c -0.146579,0 -0.264583,0.118005 -0.264583,0.264584 V 12.039124 H 9.260417 c -0.146579,0 -0.264583,0.118004 -0.264583,0.264583 v 1.322917 c 0,0.146579 0.118004,0.264583 0.264583,0.264583 h 2.778125 v 2.778125 c 0,0.14658 0.118004,0.264584 0.264583,0.264584 h 1.322917 c 0.146579,0 0.264583,-0.118004 0.264583,-0.264584 v -2.778125 h 2.778125 c 0.14658,0 0.264584,-0.118004 0.264584,-0.264583 v -1.322917 c 0,-0.146579 -0.118004,-0.264583 -0.264584,-0.264583 H 13.890625 V 9.2609991 c 0,-0.146579 -0.118004,-0.264584 -0.264583,-0.264584 z" />
    <path
       style="display:inline;opacity:0.375;fill:#808084;fill-opacity:1;stroke-width:1.19063;stroke-linecap:round;stroke-linejoin:round;stroke-dashoffset:2.1875"
       d="M 9.193239,0.26511244 15.345834,6.4177334 V 2.1172223 c 0,-1.0260542 -0.826029,-1.85210986 -1.852084,-1.85210986 z"
       id="path3104-0" />
    <rect
       style="display:inline;opacity:0.375;fill:#808084;fill-opacity:1;stroke:none;stroke-width:0.520965;stroke-linecap:round;stroke-linejoin:round;stroke-dashoffset:2.1875"
       id="rect1363-3-6-6"
       width="2.6458335"
       height="16.404167"
       x="2.2489586"
       y="0.26514477" />
    <path
       id="rect869-1-2-2-9-0-6-0-4-5-8-4"
       style="display:inline;opacity:0.15;fill:#808084;fill-opacity:1;stroke-width:1.19063;stroke-linecap:round;stroke-linejoin:round;stroke-dashoffset:2.1875"
       d="M 7.9917662,0.26458334 H 4.8947918 V 16.66875 h 2.2489584 v -0.529166 h 0.5291667 v -4.894792 c 0,-0.293159 0.2360083,-0.529167 0.5291666,-0.529167 H 10.715625 V 8.2020835 c 0,-0.2931584 0.236009,-0.5291667 0.529167,-0.5291667 h 3.51917 V 7.1437501 L 7.9380294,0.31781744 Z" />
    <path
       id="rect1227-1-1-0-3-7"
       style="display:inline;fill:#808084;fill-opacity:1;stroke:none;stroke-width:0.520965;stroke-linecap:round;stroke-linejoin:round;stroke-dashoffset:2.1875"
       d="M 2.3812501,0.26511244 C 1.9415125,0.26511244 1.5875,0.61912494 1.5875,1.0588625 V 15.875529 c 0,0.439764 0.3540125,0.79375 0.7937501,0.79375 h 1.5875 0.9260417 0.6614583 1.3229167 0.5291667 c 0.1465792,0 0.2645834,-0.11803 0.2645834,-0.264583 v -0.661458 c 0,-0.146606 -0.1180042,-0.264584 -0.2645834,-0.264584 H 6.8791668 5.5562501 4.8947918 V 1.4557375 H 8.466667 9.074388 l 5.080821,5.0808203 v 0.00582 0.3374496 0.3183202 0.2129103 c 0,0.1465791 0.118004,0.2645833 0.264583,0.2645833 h 0.661458 c 0.14658,0 0.264584,-0.1180042 0.264584,-0.2645833 V 7.1981484 6.5423786 6.4178393 5.5569115 2.1173281 c 0,-1.0260542 -0.826029,-1.85208336 -1.852084,-1.85208336 H 9.193239 8.466667 7.9912371 4.8947918 3.9687501 Z m 0.79375,1.19062506 h 0.79375 V 15.478654 h -0.79375 c -0.2198688,0 -0.396875,-0.177006 -0.396875,-0.396875 V 1.8526125 c 0,-0.2198688 0.1770062,-0.396875 0.396875,-0.396875 z m 7.2088639,0 h 2.845303 c 0.513027,0 0.926042,0.413041 0.926042,0.9260417 v 2.8453027 z" />
  </g>
</svg>
