<?xml version="1.0" encoding="UTF-8" standalone="no"?>
<svg
   xmlns:dc="http://purl.org/dc/elements/1.1/"
   xmlns:cc="http://creativecommons.org/ns#"
   xmlns:rdf="http://www.w3.org/1999/02/22-rdf-syntax-ns#"
   xmlns:svg="http://www.w3.org/2000/svg"
   xmlns="http://www.w3.org/2000/svg"
   xmlns:sodipodi="http://sodipodi.sourceforge.net/DTD/sodipodi-0.dtd"
   xmlns:inkscape="http://www.inkscape.org/namespaces/inkscape"
   width="64"
   height="64"
   viewBox="0 0 16.933333 16.933334"
   version="1.1"
   id="svg841"
   inkscape:version="1.0.2 (e86c870879, 2021-01-15)"
   sodipodi:docname="note-symbolic.svg">
  <defs
     id="defs835" />
  <sodipodi:namedview
     id="base"
     pagecolor="#c4c4c4"
     bordercolor="#666666"
     borderopacity="1.0"
     inkscape:pageopacity="0"
     inkscape:pageshadow="2"
     inkscape:zoom="2.8903394"
     inkscape:cx="46.372831"
     inkscape:cy="36.927888"
     inkscape:document-units="px"
     inkscape:current-layer="layer1"
     inkscape:document-rotation="0"
     showgrid="false"
     units="px"
     inkscape:window-width="2048"
     inkscape:window-height="1080"
     inkscape:window-x="0"
     inkscape:window-y="0"
     inkscape:window-maximized="1" />
  <metadata
     id="metadata838">
    <rdf:RDF>
      <cc:Work
         rdf:about="">
        <dc:format>image/svg+xml</dc:format>
        <dc:type
           rdf:resource="http://purl.org/dc/dcmitype/StillImage" />
        <dc:title />
      </cc:Work>
    </rdf:RDF>
  </metadata>
  <g
     inkscape:label="Layer 1"
     inkscape:groupmode="layer"
     id="layer1">
    <rect
       style="fill:#808084;stroke:none;stroke-width:0.520965;stroke-linecap:round;stroke-linejoin:round;stroke-dashoffset:2.1875"
       id="rect939"
       width="6.8791666"
       height="1.190625"
       x="4.7624998"
       y="5.68854"
       rx="0.59531248"
       ry="0.59531248" />
    <rect
       style="fill:#808084;stroke:none;stroke-width:0.520965;stroke-linecap:round;stroke-linejoin:round;stroke-dashoffset:2.1875"
       id="rect939-5"
       width="4.2333336"
       height="1.190625"
       x="4.7624998"
       y="9.1281261"
       rx="0.59531248"
       ry="0.59531248" />
    <rect
       style="fill:#808084;stroke:none;stroke-width:0.520965;stroke-linecap:round;stroke-linejoin:round;stroke-dashoffset:2.1875"
       id="rect939-3"
       width="5.8208332"
       height="1.190625"
       x="4.7624998"
       y="12.567709"
       rx="0.59531248"
       ry="0.59531248" />
    <rect
       style="opacity:0.25;fill:#808084;fill-opacity:1;stroke:none;stroke-width:0.520965;stroke-linecap:round;stroke-linejoin:round;stroke-dashoffset:2.1875"
       id="rect990"
       width="13.758333"
       height="3.7041667"
       x="1.5875"
       y="0.26458398"
       rx="1.3229166"
       ry="1.3229166" />
    <path
       id="rect994-4"
       style="fill:#808084;fill-opacity:1;stroke:none;stroke-width:0.520965;stroke-linecap:round;stroke-linejoin:round;stroke-dashoffset:2.1875"
       d="m 2.910417,0.26458334 c -0.732896,0 -1.322917,0.5900208 -1.322917,1.32291676 V 3.0427085 3.9687501 15.345834 c 0,0.732896 0.590021,1.322917 1.322917,1.322917 h 11.1125 c 0.732896,0 1.322917,-0.590021 1.322917,-1.322917 V 3.9687501 3.0427085 1.5875001 c 0,-0.73289596 -0.590021,-1.32291676 -1.322917,-1.32291676 z M 3.439583,1.4552084 H 13.49375 c 0.366448,0 0.661459,0.2950104 0.661459,0.6614584 V 3.0427085 H 2.778125 V 2.1166668 c 0,-0.366448 0.295011,-0.6614584 0.661458,-0.6614584 z M 2.778125,3.9687501 H 14.155209 V 14.816667 c 0,0.366448 -0.295011,0.661459 -0.661459,0.661459 H 3.439583 c -0.366447,0 -0.661458,-0.295011 -0.661458,-0.661459 z" />
  </g>
</svg>
