<?xml version="1.0" encoding="UTF-8" standalone="no"?>
<svg
   xmlns:dc="http://purl.org/dc/elements/1.1/"
   xmlns:cc="http://creativecommons.org/ns#"
   xmlns:rdf="http://www.w3.org/1999/02/22-rdf-syntax-ns#"
   xmlns:svg="http://www.w3.org/2000/svg"
   xmlns="http://www.w3.org/2000/svg"
   xmlns:sodipodi="http://sodipodi.sourceforge.net/DTD/sodipodi-0.dtd"
   xmlns:inkscape="http://www.inkscape.org/namespaces/inkscape"
   width="64"
   height="64"
   viewBox="0 0 16.933333 16.933334"
   version="1.1"
   id="svg841"
   inkscape:version="1.0.2 (e86c870879, 2021-01-15)"
   sodipodi:docname="pack-less-symbolic.svg">
  <defs
     id="defs835" />
  <sodipodi:namedview
     id="base"
     pagecolor="#c4c4c4"
     bordercolor="#666666"
     borderopacity="1.0"
     inkscape:pageopacity="0"
     inkscape:pageshadow="2"
     inkscape:zoom="5.8503689"
     inkscape:cx="41.073307"
     inkscape:cy="36.274137"
     inkscape:document-units="px"
     inkscape:current-layer="layer1"
     inkscape:document-rotation="0"
     showgrid="false"
     units="px"
     inkscape:window-width="2048"
     inkscape:window-height="1080"
     inkscape:window-x="0"
     inkscape:window-y="0"
     inkscape:window-maximized="1" />
  <metadata
     id="metadata838">
    <rdf:RDF>
      <cc:Work
         rdf:about="">
        <dc:format>image/svg+xml</dc:format>
        <dc:type
           rdf:resource="http://purl.org/dc/dcmitype/StillImage" />
        <dc:title />
      </cc:Work>
    </rdf:RDF>
  </metadata>
  <g
     inkscape:label="Layer 1"
     inkscape:groupmode="layer"
     id="layer1">
    <rect
       style="display:inline;opacity:0.25;fill:#808084;fill-opacity:1;stroke-width:0;stroke-linecap:round;stroke-linejoin:round;stroke-dashoffset:2.1875"
       id="rect2685-1"
       width="7.9375"
       height="7.9375"
       x="0"
       y="0"
       rx="0.92604166"
       ry="0.92604166" />
    <path
       id="rect2685-2-2"
       style="display:inline;fill:#808084;fill-opacity:1;stroke-width:0;stroke-linecap:round;stroke-linejoin:round;stroke-dashoffset:2.1875"
       d="M 0.9260417,3.873291e-8 C 0.4130146,3.873291e-8 0,0.41301464 0,0.92604174 V 7.0114585 c 0,0.5130271 0.4130146,0.9260421 0.9260417,0.9260421 h 6.0854168 c 0.5130271,0 0.9260421,-0.413015 0.9260421,-0.9260421 V 0.92604174 C 7.9375006,0.41301464 7.5244856,3.873291e-8 7.0114585,3.873291e-8 Z M 1.6536459,1.1906251 h 4.6302084 c 0.2565136,0 0.4630209,0.2065073 0.4630209,0.4630208 v 4.6302085 c 0,0.2565135 -0.2065073,0.4630208 -0.4630209,0.4630208 H 1.6536459 c -0.2565136,0 -0.4630209,-0.2065073 -0.4630209,-0.4630208 V 1.6536459 c 0,-0.2565135 0.2065073,-0.4630208 0.4630209,-0.4630208 z" />
    <rect
       style="display:inline;opacity:0.25;fill:#808084;fill-opacity:1;stroke-width:0;stroke-linecap:round;stroke-linejoin:round;stroke-dashoffset:2.1875"
       id="rect2685-3"
       width="7.9375"
       height="7.9375"
       x="8.9958334"
       y="0"
       rx="0.92604166"
       ry="0.92604166" />
    <path
       id="rect2685-2-6"
       style="display:inline;opacity:1;fill:#808084;fill-opacity:1;stroke-width:0;stroke-linecap:round;stroke-linejoin:round;stroke-dashoffset:2.1875"
       d="M 9.9218756,3.873291e-8 C 9.4088486,3.873291e-8 8.9958336,0.41301464 8.9958336,0.92604174 V 7.0114585 c 0,0.5130271 0.413015,0.9260421 0.926042,0.9260421 h 6.0854164 c 0.513028,0 0.926042,-0.413015 0.926042,-0.9260421 V 0.92604174 C 16.933334,0.41301464 16.52032,3.873291e-8 16.007292,3.873291e-8 Z M 10.64948,1.1906251 h 4.630208 c 0.256514,0 0.463021,0.2065073 0.463021,0.4630208 v 4.6302085 c 0,0.2565135 -0.206507,0.4630208 -0.463021,0.4630208 H 10.64948 c -0.256514,0 -0.463021,-0.2065073 -0.463021,-0.4630208 V 1.6536459 c 0,-0.2565135 0.206507,-0.4630208 0.463021,-0.4630208 z" />
    <rect
       style="display:inline;opacity:0.25;fill:#808084;fill-opacity:1;stroke-width:0;stroke-linecap:round;stroke-linejoin:round;stroke-dashoffset:2.1875"
       id="rect2685-1-3"
       width="7.9375"
       height="7.9375"
       x="0"
       y="8.9958344"
       rx="0.92604166"
       ry="0.92604166" />
    <path
       id="rect2685-2-2-6"
       style="display:inline;fill:#808084;fill-opacity:1;stroke-width:0;stroke-linecap:round;stroke-linejoin:round;stroke-dashoffset:2.1875"
       d="M 0.92604173,8.9958334 C 0.41301463,8.9958334 2.9859924e-8,9.4088484 2.9859924e-8,9.9218754 V 16.007292 C 2.9859924e-8,16.520319 0.41301463,16.933334 0.92604173,16.933334 H 7.0114585 c 0.5130271,0 0.9260417,-0.413015 0.9260417,-0.926042 V 9.9218754 c 0,-0.513027 -0.4130146,-0.926042 -0.9260417,-0.926042 z M 1.6536459,10.186458 h 4.6302084 c 0.2565136,0 0.4630209,0.206508 0.4630209,0.463021 v 4.630209 c 0,0.256513 -0.2065073,0.463021 -0.4630209,0.463021 H 1.6536459 c -0.2565136,0 -0.4630209,-0.206508 -0.4630209,-0.463021 v -4.630209 c 0,-0.256513 0.2065073,-0.463021 0.4630209,-0.463021 z" />
    <rect
       style="display:inline;opacity:0.25;fill:#808084;fill-opacity:1;stroke-width:0;stroke-linecap:round;stroke-linejoin:round;stroke-dashoffset:2.1875"
       id="rect2685-3-7"
       width="7.9375"
       height="7.9375"
       x="8.9958344"
       y="8.9958344"
       rx="0.92604166"
       ry="0.92604166" />
    <path
       id="rect2685-2-6-5"
       style="display:inline;opacity:1;fill:#808084;fill-opacity:1;stroke-width:0;stroke-linecap:round;stroke-linejoin:round;stroke-dashoffset:2.1875"
       d="m 9.9218756,8.9958334 c -0.513027,0 -0.926042,0.413015 -0.926042,0.926042 v 6.0854166 c 0,0.513027 0.413015,0.926042 0.926042,0.926042 h 6.0854164 c 0.513028,0 0.926042,-0.413015 0.926042,-0.926042 V 9.9218754 c 0,-0.513027 -0.413014,-0.926042 -0.926042,-0.926042 z M 10.64948,10.186458 h 4.630208 c 0.256514,0 0.463021,0.206508 0.463021,0.463021 v 4.630209 c 0,0.256513 -0.206507,0.463021 -0.463021,0.463021 H 10.64948 c -0.256514,0 -0.463021,-0.206508 -0.463021,-0.463021 v -4.630209 c 0,-0.256513 0.206507,-0.463021 0.463021,-0.463021 z" />
  </g>
</svg>
