<?xml version="1.0" encoding="UTF-8" standalone="no"?>
<svg
   xmlns:dc="http://purl.org/dc/elements/1.1/"
   xmlns:cc="http://creativecommons.org/ns#"
   xmlns:rdf="http://www.w3.org/1999/02/22-rdf-syntax-ns#"
   xmlns:svg="http://www.w3.org/2000/svg"
   xmlns="http://www.w3.org/2000/svg"
   xmlns:sodipodi="http://sodipodi.sourceforge.net/DTD/sodipodi-0.dtd"
   xmlns:inkscape="http://www.inkscape.org/namespaces/inkscape"
   width="64"
   height="64"
   viewBox="0 0 64 64"
   version="1.1"
   id="svg6374"
   inkscape:version="1.0.2 (e86c870879, 2021-01-15)"
   sodipodi:docname="path-difference-symbolic.svg">
  <defs
     id="defs6368" />
  <sodipodi:namedview
     id="base"
     pagecolor="#cecece"
     bordercolor="#666666"
     borderopacity="1.0"
     inkscape:pageopacity="0"
     inkscape:pageshadow="2"
     inkscape:zoom="3.2130262"
     inkscape:cx="16.207814"
     inkscape:cy="43.709718"
     inkscape:document-units="px"
     inkscape:current-layer="layer1"
     inkscape:document-rotation="0"
     showgrid="false"
     units="px"
     inkscape:window-width="2048"
     inkscape:window-height="1080"
     inkscape:window-x="0"
     inkscape:window-y="0"
     inkscape:window-maximized="1" />
  <metadata
     id="metadata6371">
    <rdf:RDF>
      <cc:Work
         rdf:about="">
        <dc:format>image/svg+xml</dc:format>
        <dc:type
           rdf:resource="http://purl.org/dc/dcmitype/StillImage" />
        <dc:title />
      </cc:Work>
    </rdf:RDF>
  </metadata>
  <g
     inkscape:label="Layer 1"
     inkscape:groupmode="layer"
     id="layer1">
    <path
       id="rect942-3-7-2-1-3"
       style="fill:#808084;fill-opacity:1;stroke-width:5;stroke-linecap:round;stroke-linejoin:round;stroke-dashoffset:2.1875"
       d="M 3,0 C 1.337999,0 0,1.338 0,3 v 38 c 0,1.662 1.337999,3 3,3 h 17.091797 a 22,22 0 0 1 -0.0918,-2 22,22 0 0 1 0.142578,-2.5 H 6 C 5.169,39.5 4.5,38.831 4.5,38 V 6 C 4.5,5.169 5.169,4.5 6,4.5 h 32 c 0.831,0 1.5,0.669 1.5,1.5 V 20.14258 A 22,22 0 0 1 42,20 22,22 0 0 1 44,20.0918 V 3 C 44,1.338 42.662,0 41,0 Z" />
    <path
       id="path944-6-5-3-2-3-3-2"
       style="fill:#808084;fill-opacity:1;stroke-width:5.23809;stroke-linecap:round;stroke-linejoin:round;stroke-dashoffset:2.1875"
       d="m 41.75585,20.00034 a 22,22 0 0 0 -21.75585,22 22,22 0 0 0 22,22 22,22 0 0 0 22,-22 22,22 0 0 0 -22,-22 22,22 0 0 0 -0.24415,0 z m 0.19336,4.5 a 17.5,17.5 0 0 1 0.0508,0 17.5,17.5 0 0 1 17.5,17.5 17.5,17.5 0 0 1 -17.5,17.5 17.5,17.5 0 0 1 -17.5,-17.5 17.5,17.5 0 0 1 17.44921,-17.5 z" />
    <circle
       style="opacity:0.05;fill:#808084;fill-opacity:1;stroke-width:5.23809;stroke-linecap:round;stroke-linejoin:round;stroke-dashoffset:2.1875"
       id="path944-6-5-3-9-0"
       cx="42"
       cy="42"
       r="22" />
    <path
       id="rect942-3-7-7-7-6"
       style="opacity:0.25;fill:#808084;fill-opacity:1;stroke-width:5;stroke-linecap:round;stroke-linejoin:round;stroke-dashoffset:2.1875"
       d="M 3,0 C 1.338,0 0,1.338 0,3 v 38 c 0,1.662 1.338,3 3,3 h 17.091797 a 22,22 0 0 1 -0.0918,-2 22,22 0 0 1 22,-22 22,22 0 0 1 2,0.0918 V 3 c 0,-1.662 -1.338,-3 -3,-3 z" />
  </g>
</svg>
