<?xml version="1.0" encoding="UTF-8" standalone="no"?>
<svg
   xmlns:dc="http://purl.org/dc/elements/1.1/"
   xmlns:cc="http://creativecommons.org/ns#"
   xmlns:rdf="http://www.w3.org/1999/02/22-rdf-syntax-ns#"
   xmlns:svg="http://www.w3.org/2000/svg"
   xmlns="http://www.w3.org/2000/svg"
   xmlns:sodipodi="http://sodipodi.sourceforge.net/DTD/sodipodi-0.dtd"
   xmlns:inkscape="http://www.inkscape.org/namespaces/inkscape"
   width="64"
   height="64"
   viewBox="0 0 64 64.000003"
   version="1.1"
   id="svg1461"
   inkscape:version="1.0.2 (e86c870879, 2021-01-15)"
   sodipodi:docname="selection-raise-symbolic.svg">
  <defs
     id="defs1455" />
  <sodipodi:namedview
     id="base"
     pagecolor="#c4c4c4"
     bordercolor="#666666"
     borderopacity="1.0"
     inkscape:pageopacity="0"
     inkscape:pageshadow="2"
     inkscape:zoom="2.8720533"
     inkscape:cx="-46.982671"
     inkscape:cy="44.448733"
     inkscape:document-units="px"
     inkscape:current-layer="layer1"
     inkscape:document-rotation="0"
     showgrid="false"
     units="px"
     inkscape:window-width="2048"
     inkscape:window-height="1080"
     inkscape:window-x="0"
     inkscape:window-y="0"
     inkscape:window-maximized="1" />
  <metadata
     id="metadata1458">
    <rdf:RDF>
      <cc:Work
         rdf:about="">
        <dc:format>image/svg+xml</dc:format>
        <dc:type
           rdf:resource="http://purl.org/dc/dcmitype/StillImage" />
        <dc:title />
      </cc:Work>
    </rdf:RDF>
  </metadata>
  <g
     inkscape:label="Layer 1"
     inkscape:groupmode="layer"
     id="layer1">
    <path
       id="rect1790-5-2-6-3-3-3-6-9"
       style="fill:#808084;fill-opacity:1;stroke-width:7.00004;stroke-dashoffset:2.1875"
       d="m 35.95187,63.706302 c 0.39169,0.391599 1.0224,0.391599 1.4142,0 l 10.0765,-10.076366 10.0763,10.076366 c 0.3918,0.391599 1.0225,0.391599 1.4143,0 l 4.773,-4.772984 c 0.3918,-0.391699 0.3918,-1.022497 0,-1.414195 l -10.7835,-10.783364 -4.773,-4.772984 c -0.3918,-0.391699 -1.0225,-0.391699 -1.4143,0 l -4.773,4.772984 -10.7836,10.783364 c -0.3917,0.391698 -0.3917,1.022496 0,1.414195 z" />
    <rect
       style="fill:#808084;fill-opacity:1;stroke-width:0;stroke-dashoffset:2.1875"
       id="rect839-6-9-0-1-6-6-6-0-2"
       width="22"
       height="6"
       x="0"
       y="7"
       ry="1"
       rx="1" />
    <rect
       style="fill:#808084;fill-opacity:1;stroke-width:0;stroke-dashoffset:2.1875"
       id="rect841-7-3-6-8-1-7-7-6-8"
       width="22"
       height="6"
       x="0"
       y="51.000004"
       ry="1"
       rx="1" />
    <rect
       style="fill:#808084;fill-opacity:1;stroke-width:0;stroke-dashoffset:2.1875"
       id="rect843-5-6-2-7-2-5-5-2-9"
       width="50"
       height="6"
       x="0"
       y="29"
       ry="1"
       rx="1" />
  </g>
</svg>
