<?xml version="1.0" encoding="UTF-8" standalone="no"?>
<svg
   xmlns:dc="http://purl.org/dc/elements/1.1/"
   xmlns:cc="http://creativecommons.org/ns#"
   xmlns:rdf="http://www.w3.org/1999/02/22-rdf-syntax-ns#"
   xmlns:svg="http://www.w3.org/2000/svg"
   xmlns="http://www.w3.org/2000/svg"
   xmlns:sodipodi="http://sodipodi.sourceforge.net/DTD/sodipodi-0.dtd"
   xmlns:inkscape="http://www.inkscape.org/namespaces/inkscape"
   width="64"
   height="64"
   viewBox="0 0 16.933333 16.933334"
   version="1.1"
   id="svg841"
   inkscape:version="1.0.2 (e86c870879, 2021-01-15)"
   sodipodi:docname="transform-move-horizontal-symbolic.svg">
  <defs
     id="defs835" />
  <sodipodi:namedview
     id="base"
     pagecolor="#c4c4c4"
     bordercolor="#666666"
     borderopacity="1.0"
     inkscape:pageopacity="0"
     inkscape:pageshadow="2"
     inkscape:zoom="11.023525"
     inkscape:cx="13.545308"
     inkscape:cy="28.923467"
     inkscape:document-units="px"
     inkscape:current-layer="layer1"
     inkscape:document-rotation="0"
     showgrid="false"
     units="px"
     inkscape:window-width="2048"
     inkscape:window-height="1080"
     inkscape:window-x="0"
     inkscape:window-y="0"
     inkscape:window-maximized="1" />
  <metadata
     id="metadata838">
    <rdf:RDF>
      <cc:Work
         rdf:about="">
        <dc:format>image/svg+xml</dc:format>
        <dc:type
           rdf:resource="http://purl.org/dc/dcmitype/StillImage" />
        <dc:title />
      </cc:Work>
    </rdf:RDF>
  </metadata>
  <g
     inkscape:label="Layer 1"
     inkscape:groupmode="layer"
     id="layer1">
    <rect
       style="opacity:0.25;fill:#808084;fill-opacity:1;stroke-width:0;stroke-linecap:round;stroke-linejoin:round;stroke-dashoffset:2.1875"
       id="rect2685-7"
       width="7.9375"
       height="7.9375"
       x="8.9958344"
       y="4.4979167"
       rx="0.92604166"
       ry="0.92604166" />
    <path
       id="rect2685-2-5"
       style="opacity:0.85;fill:#808084;fill-opacity:1;stroke-width:0;stroke-linecap:round;stroke-linejoin:round;stroke-dashoffset:2.1875"
       d="m 9.9218751,4.4979167 c -0.5130271,0 -0.9260417,0.413014 -0.9260417,0.926041 v 6.0854183 c 0,0.513027 0.4130146,0.926042 0.9260417,0.926042 h 6.0854179 c 0.513027,0 0.926041,-0.413015 0.926041,-0.926042 V 5.4239577 c 0,-0.513027 -0.413014,-0.926041 -0.926041,-0.926041 z m 0.7276049,1.190625 h 4.630209 c 0.256513,0 0.46302,0.206507 0.46302,0.4630198 v 4.6302105 c 0,0.256514 -0.206507,0.463021 -0.46302,0.463021 H 10.64948 c -0.256514,0 -0.463021,-0.206507 -0.463021,-0.463021 V 6.1515615 c 0,-0.2565128 0.206507,-0.4630198 0.463021,-0.4630198 z" />
    <path
       id="rect1790-5-2-3-3-8-5-3"
       style="fill:#808084;fill-opacity:1;stroke-width:1.85208;stroke-dashoffset:2.1875"
       d="M 4.2435463,5.192448 V 7.871355 H 0.2645757 C 0.1180007,7.871355 0,7.989359 0,8.135938 V 8.797396 C 0,8.943975 0.1180007,9.06198 0.2645757,9.06198 h 3.9789706 v 2.678906 L 6.0681883,9.916708 7.3306071,8.653736 c 0.1036351,-0.103661 0.1036351,-0.270466 0,-0.374138 L 6.0681883,7.016626 Z" />
  </g>
</svg>
