<?xml version="1.0" encoding="UTF-8" standalone="no"?>
<svg
   xmlns:dc="http://purl.org/dc/elements/1.1/"
   xmlns:cc="http://creativecommons.org/ns#"
   xmlns:rdf="http://www.w3.org/1999/02/22-rdf-syntax-ns#"
   xmlns:svg="http://www.w3.org/2000/svg"
   xmlns="http://www.w3.org/2000/svg"
   xmlns:sodipodi="http://sodipodi.sourceforge.net/DTD/sodipodi-0.dtd"
   xmlns:inkscape="http://www.inkscape.org/namespaces/inkscape"
   width="64"
   height="64"
   viewBox="0 0 16.933333 16.933334"
   version="1.1"
   id="svg841"
   inkscape:version="1.0.2 (e86c870879, 2021-01-15)"
   sodipodi:docname="view-continuous-symbolic.svg">
  <defs
     id="defs835" />
  <sodipodi:namedview
     id="base"
     pagecolor="#c4c4c4"
     bordercolor="#666666"
     borderopacity="1.0"
     inkscape:pageopacity="0"
     inkscape:pageshadow="2"
     inkscape:zoom="2.8903394"
     inkscape:cx="46.372831"
     inkscape:cy="36.927888"
     inkscape:document-units="px"
     inkscape:current-layer="layer1"
     inkscape:document-rotation="0"
     showgrid="false"
     units="px"
     inkscape:window-width="2048"
     inkscape:window-height="1080"
     inkscape:window-x="0"
     inkscape:window-y="0"
     inkscape:window-maximized="1" />
  <metadata
     id="metadata838">
    <rdf:RDF>
      <cc:Work
         rdf:about="">
        <dc:format>image/svg+xml</dc:format>
        <dc:type
           rdf:resource="http://purl.org/dc/dcmitype/StillImage" />
        <dc:title></dc:title>
      </cc:Work>
    </rdf:RDF>
  </metadata>
  <g
     inkscape:label="Layer 1"
     inkscape:groupmode="layer"
     id="layer1">
    <path
       id="rect852-6-5"
       style="fill:#808084;fill-opacity:1;stroke-width:0.264583;stroke-linecap:round;stroke-linejoin:round;stroke-dashoffset:2.1875;stroke-opacity:0.74902"
       d="m 1.5874999,5.8208334 c -0.2931583,0 -0.5291666,0.2360084 -0.5291666,0.5291667 v 4.2333339 c 0,0.293158 0.2360083,0.529166 0.5291666,0.529166 H 15.345834 c 0.293158,0 0.529166,-0.236008 0.529166,-0.529166 V 6.3500001 c 0,-0.2931583 -0.236008,-0.5291667 -0.529166,-0.5291667 z M 2.2489582,6.7468751 H 14.684375 c 0.14658,0 0.264584,0.1180042 0.264584,0.2645833 v 2.9104168 c 0,0.1465788 -0.118004,0.2645838 -0.264584,0.2645838 H 2.2489582 c -0.1465792,0 -0.2645833,-0.118005 -0.2645833,-0.2645838 V 7.0114584 c 0,-0.1465791 0.1180041,-0.2645833 0.2645833,-0.2645833 z" />
    <path
       id="rect852-3-6-2-0-3"
       style="opacity:0.6;fill:#808084;fill-opacity:1;stroke-width:0.264583;stroke-linecap:round;stroke-linejoin:round;stroke-dashoffset:2.1875;stroke-opacity:0.74902"
       d="m 3.5718755,12.7 c -0.2931583,0 -0.5291667,0.236009 -0.5291667,0.529167 v 2.38125 c 0,0.293158 0.2360084,0.529167 0.5291667,0.529167 h 9.7895825 c 0.293159,0 0.529167,-0.236009 0.529167,-0.529167 v -2.38125 C 13.890625,12.936009 13.654617,12.7 13.361458,12.7 Z m 0.6614584,0.926042 H 12.7 c 0.146579,0 0.264583,0.118004 0.264583,0.264583 v 1.058334 c 0,0.146579 -0.118004,0.264583 -0.264583,0.264583 H 4.2333339 c -0.1465792,0 -0.2645834,-0.118004 -0.2645834,-0.264583 v -1.058334 c 0,-0.146579 0.1180042,-0.264583 0.2645834,-0.264583 z" />
    <path
       id="rect852-3-6-2-0-3-6"
       style="opacity:0.6;fill:#808084;fill-opacity:1;stroke-width:0.264583;stroke-linecap:round;stroke-linejoin:round;stroke-dashoffset:2.1875;stroke-opacity:0.74902"
       d="m 3.5718755,0.79375001 c -0.2931583,0 -0.5291667,0.23600829 -0.5291667,0.52916659 v 2.3812501 c 0,0.2931583 0.2360084,0.5291667 0.5291667,0.5291667 h 9.7895825 c 0.293159,0 0.529167,-0.2360084 0.529167,-0.5291667 V 1.3229166 c 0,-0.2931583 -0.236008,-0.52916659 -0.529167,-0.52916659 z M 4.2333339,1.7197917 H 12.7 c 0.146579,0 0.264583,0.1180041 0.264583,0.2645833 v 1.0583334 c 0,0.1465791 -0.118004,0.2645833 -0.264583,0.2645833 H 4.2333339 c -0.1465792,0 -0.2645834,-0.1180042 -0.2645834,-0.2645833 V 1.984375 c 0,-0.1465792 0.1180042,-0.2645833 0.2645834,-0.2645833 z" />
  </g>
</svg>
