<?xml version="1.0" encoding="UTF-8" standalone="no"?>
<svg
   xmlns:dc="http://purl.org/dc/elements/1.1/"
   xmlns:cc="http://creativecommons.org/ns#"
   xmlns:rdf="http://www.w3.org/1999/02/22-rdf-syntax-ns#"
   xmlns:svg="http://www.w3.org/2000/svg"
   xmlns="http://www.w3.org/2000/svg"
   xmlns:sodipodi="http://sodipodi.sourceforge.net/DTD/sodipodi-0.dtd"
   xmlns:inkscape="http://www.inkscape.org/namespaces/inkscape"
   width="64"
   height="64"
   viewBox="0 0 16.933333 16.933334"
   version="1.1"
   id="svg841"
   inkscape:version="1.0.2 (e86c870879, 2021-01-15)"
   sodipodi:docname="view-sort-ascending-symbolic.svg">
  <defs
     id="defs835" />
  <sodipodi:namedview
     id="base"
     pagecolor="#c4c4c4"
     bordercolor="#666666"
     borderopacity="1.0"
     inkscape:pageopacity="0"
     inkscape:pageshadow="2"
     inkscape:zoom="2.8903394"
     inkscape:cx="46.372831"
     inkscape:cy="36.927888"
     inkscape:document-units="px"
     inkscape:current-layer="layer1"
     inkscape:document-rotation="0"
     showgrid="false"
     units="px"
     inkscape:window-width="2048"
     inkscape:window-height="1080"
     inkscape:window-x="0"
     inkscape:window-y="0"
     inkscape:window-maximized="1" />
  <metadata
     id="metadata838">
    <rdf:RDF>
      <cc:Work
         rdf:about="">
        <dc:format>image/svg+xml</dc:format>
        <dc:type
           rdf:resource="http://purl.org/dc/dcmitype/StillImage" />
        <dc:title></dc:title>
      </cc:Work>
    </rdf:RDF>
  </metadata>
  <g
     inkscape:label="Layer 1"
     inkscape:groupmode="layer"
     id="layer1">
    <path
       id="rect866-3-5"
       style="fill:#808084;stroke-width:0;stroke-linecap:round;stroke-linejoin:round;stroke-dashoffset:2.1875"
       d="m 5.6885417,14.684375 c -0.1465792,0 -0.2645834,-0.118004 -0.2645834,-0.264583 v -1.322917 c 0,-0.146579 0.1180042,-0.264583 0.2645834,-0.264583 h 4.7625003 c 0.146579,0 0.264584,0.118004 0.264584,0.264583 v 1.322917 c 0,0.146579 -0.118005,0.264583 -0.264584,0.264583 z M 3.8364583,9.3927082 c -0.1465792,0 -0.2645834,-0.1180041 -0.2645834,-0.2645833 V 7.8052082 c 0,-0.1465792 0.1180042,-0.2645834 0.2645834,-0.2645834 h 8.9958337 c 0.14658,0 0.264584,0.1180042 0.264584,0.2645834 v 1.3229167 c 0,0.1465792 -0.118004,0.2645833 -0.264584,0.2645833 z M 1.8520832,4.1010412 c -0.1465791,0 -0.2645833,-0.118004 -0.2645833,-0.264583 v -1.322917 c 0,-0.146579 0.1180042,-0.264583 0.2645833,-0.264583 H 15.081251 c 0.146579,0 0.264583,0.118004 0.264583,0.264583 v 1.322917 c 0,0.146579 -0.118004,0.264583 -0.264583,0.264583 z" />
  </g>
</svg>
