<?xml version="1.0" encoding="UTF-8" standalone="no"?>
<svg
   xmlns:dc="http://purl.org/dc/elements/1.1/"
   xmlns:cc="http://creativecommons.org/ns#"
   xmlns:rdf="http://www.w3.org/1999/02/22-rdf-syntax-ns#"
   xmlns:svg="http://www.w3.org/2000/svg"
   xmlns="http://www.w3.org/2000/svg"
   xmlns:sodipodi="http://sodipodi.sourceforge.net/DTD/sodipodi-0.dtd"
   xmlns:inkscape="http://www.inkscape.org/namespaces/inkscape"
   width="64"
   height="64"
   viewBox="0 0 64 64.000003"
   version="1.1"
   id="svg8"
   inkscape:version="1.0.2 (e86c870879, 2021-01-15)"
   sodipodi:docname="view-restore-symbolic.svg">
  <defs
     id="defs2" />
  <sodipodi:namedview
     id="base"
     pagecolor="#c3c3c3"
     bordercolor="#666666"
     borderopacity="1.0"
     inkscape:pageopacity="0"
     inkscape:pageshadow="2"
     inkscape:zoom="2.8637218"
     inkscape:cx="-58.453246"
     inkscape:cy="37.790325"
     inkscape:document-units="px"
     inkscape:current-layer="layer1"
     inkscape:document-rotation="0"
     showgrid="false"
     units="px"
     inkscape:window-width="2048"
     inkscape:window-height="1080"
     inkscape:window-x="0"
     inkscape:window-y="0"
     inkscape:window-maximized="1" />
  <metadata
     id="metadata5">
    <rdf:RDF>
      <cc:Work
         rdf:about="">
        <dc:format>image/svg+xml</dc:format>
        <dc:type
           rdf:resource="http://purl.org/dc/dcmitype/StillImage" />
        <dc:title />
      </cc:Work>
    </rdf:RDF>
  </metadata>
  <g
     inkscape:label="Layer 1"
     inkscape:groupmode="layer"
     id="layer1">
    <path
       id="rect2130-6-4"
       style="display:inline;fill:#808084;fill-opacity:1;stroke-width:7;stroke-dashoffset:2.1875"
       d="M 24.25,5 C 22.7265,5 21.5,6.2265 21.5,7.75 V 21.5 H 7.75 C 6.2265,21.5 5,22.7265 5,24.25 5,25.7735 6.2265,27 7.75,27 h 16.5 C 25.7735,27 27,25.7735 27,24.25 V 7.75 C 27,6.2265 25.7735,5 24.25,5 Z m 15.5,0 C 38.2265,5 37,6.2265 37,7.75 v 16.5 c 0,1.5235 1.2265,2.75 2.75,2.75 h 16.5 C 57.7735,27 59,25.7735 59,24.25 59,22.7265 57.7735,21.5 56.25,21.5 H 42.5 V 7.75 C 42.5,6.2265 41.2735,5 39.75,5 Z m -32,32 C 6.2265,37 5,38.2265 5,39.75 5,41.2735 6.2265,42.5 7.75,42.5 H 21.5 V 56.25 C 21.5,57.7735 22.7265,59 24.25,59 25.7735,59 27,57.7735 27,56.25 V 39.75 C 27,38.2265 25.7735,37 24.25,37 Z m 32,0 C 38.2265,37 37,38.2265 37,39.75 v 16.5 c 0,1.5235 1.2265,2.75 2.75,2.75 1.5235,0 2.75,-1.2265 2.75,-2.75 V 42.5 H 56.25 C 57.7735,42.5 59,41.2735 59,39.75 59,38.2265 57.7735,37 56.25,37 Z" />
  </g>
</svg>
