<?xml version="1.0" encoding="UTF-8" standalone="no"?>
<svg
   xmlns:dc="http://purl.org/dc/elements/1.1/"
   xmlns:cc="http://creativecommons.org/ns#"
   xmlns:rdf="http://www.w3.org/1999/02/22-rdf-syntax-ns#"
   xmlns:svg="http://www.w3.org/2000/svg"
   xmlns="http://www.w3.org/2000/svg"
   xmlns:sodipodi="http://sodipodi.sourceforge.net/DTD/sodipodi-0.dtd"
   xmlns:inkscape="http://www.inkscape.org/namespaces/inkscape"
   width="64"
   height="64"
   viewBox="0 0 64 64.000003"
   version="1.1"
   id="svg1461"
   inkscape:version="1.0.2 (e86c870879, 2021-01-15)"
   sodipodi:docname="xml-text-new-symbolic.svg">
  <defs
     id="defs1455" />
  <sodipodi:namedview
     id="base"
     pagecolor="#c4c4c4"
     bordercolor="#666666"
     borderopacity="1.0"
     inkscape:pageopacity="0"
     inkscape:pageshadow="2"
     inkscape:zoom="5.5461362"
     inkscape:cx="63.069814"
     inkscape:cy="29.424392"
     inkscape:document-units="px"
     inkscape:current-layer="layer1"
     inkscape:document-rotation="0"
     showgrid="false"
     units="px"
     inkscape:window-width="2048"
     inkscape:window-height="1080"
     inkscape:window-x="0"
     inkscape:window-y="0"
     inkscape:window-maximized="1" />
  <metadata
     id="metadata1458">
    <rdf:RDF>
      <cc:Work
         rdf:about="">
        <dc:format>image/svg+xml</dc:format>
        <dc:type
           rdf:resource="http://purl.org/dc/dcmitype/StillImage" />
        <dc:title />
      </cc:Work>
    </rdf:RDF>
  </metadata>
  <g
     inkscape:label="Layer 1"
     inkscape:groupmode="layer"
     id="layer1">
    <path
       id="rect2569"
       style="fill:#808084;stroke:#363636;stroke-width:0;stroke-linecap:round;stroke-linejoin:round;stroke-dashoffset:2.1875;fill-opacity:1"
       d="M 48.25 38 C 47.696 38 47.25 38.446 47.25 39 L 47.25 47.25 L 39 47.25 C 38.446 47.25 38 47.696 38 48.25 L 38 51.75 C 38 52.304 38.446 52.75 39 52.75 L 47.25 52.75 L 47.25 61 C 47.25 61.554 47.696 62 48.25 62 L 51.75 62 C 52.304 62 52.75 61.554 52.75 61 L 52.75 52.75 L 61 52.75 C 61.554 52.75 62 52.304 62 51.75 L 62 48.25 C 62 47.696 61.554 47.25 61 47.25 L 52.75 47.25 L 52.75 39 C 52.75 38.446 52.304 38 51.75 38 L 48.25 38 z " />
    <path
       id="rect1180-5-3-2"
       style="fill:#808084;fill-opacity:1;stroke-width:3.12499;stroke-dashoffset:2.1875"
       d="M 12.624975,12 C 12.278775,12 12,12.278753 12,12.624998 V 15.75 20.4375 c 0,0.346253 0.278775,0.624998 0.624975,0.624998 H 14.8125 c 0.346275,0 0.624975,-0.278745 0.624975,-0.624998 v -1.718753 a 2.34375,2.34375 0 0 1 2.32545,-2.343749 h 3.9246 v 19.843755 a 2.34375,2.34375 0 0 1 -2.32545,2.34375 H 17.625 c -0.346275,0 -0.624975,0.278745 -0.624975,0.624997 v 2.187502 C 17.000025,41.721247 17.278725,42 17.625,42 h 13.749975 c 0.346275,0 0.62505,-0.278753 0.62505,-0.624998 V 39.1875 c 0,-0.346252 -0.278775,-0.624997 -0.62505,-0.624997 H 29.6379 a 2.34375,2.34375 0 0 1 -2.325375,-2.34375 V 16.374998 h 3.924525 a 2.343939,2.34375 0 0 1 2.32545,2.343749 V 20.4375 c 0,0.346253 0.278775,0.624998 0.624975,0.624998 h 2.187523 c 0.346275,0 0.624975,-0.278745 0.624975,-0.624998 V 15.75 12.624998 c 0,-0.08656 -0.01725,-0.16809 -0.04875,-0.242918 -0.0315,-0.07485 -0.07778,-0.142492 -0.134325,-0.198975 C 36.704023,12.07014 36.548173,12 36.375073,12 Z" />
    <path
       id="rect2657-6"
       style="fill:#808084;stroke:none;stroke-width:0;stroke-linecap:round;stroke-linejoin:round;stroke-dashoffset:2.1875;fill-opacity:1"
       d="M 8,1 C 4.122,1 1,4.122 1,8 v 48 c 0,3.878 3.122,7 7,7 h 14 1 9 c 0.554,0 1,-0.446 1,-1 v -1.5 c 0,-0.554 -0.446,-1 -1,-1 H 23 22 8 C 6.061,59.5 4.5,57.939 4.5,56 V 8 C 4.5,6.061 6.061,4.5 8,4.5 h 48 c 1.939,0 3.5,1.561 3.5,3.5 v 14 1 9 c 0,0.554 0.446,1 1,1 H 62 c 0.554,0 1,-0.446 1,-1 V 23 22 8 C 63,4.122 59.878,1 56,1 Z" />
  </g>
</svg>
