<?xml version="1.0" encoding="UTF-8" standalone="no"?>
<svg
   xmlns:dc="http://purl.org/dc/elements/1.1/"
   xmlns:cc="http://creativecommons.org/ns#"
   xmlns:rdf="http://www.w3.org/1999/02/22-rdf-syntax-ns#"
   xmlns:svg="http://www.w3.org/2000/svg"
   xmlns="http://www.w3.org/2000/svg"
   xmlns:xlink="http://www.w3.org/1999/xlink"
   xmlns:sodipodi="http://sodipodi.sourceforge.net/DTD/sodipodi-0.dtd"
   xmlns:inkscape="http://www.inkscape.org/namespaces/inkscape"
   width="64"
   height="64"
   viewBox="0 0 16.933333 16.933334"
   version="1.1"
   id="svg841"
   inkscape:version="1.0.2 (e86c870879, 2021-01-15)"
   sodipodi:docname="system-file-manager.svg">
  <defs
     id="defs835">
    <linearGradient
       inkscape:collect="always"
       xlink:href="#linearGradient1784"
       id="linearGradient1756"
       gradientUnits="userSpaceOnUse"
       gradientTransform="scale(0.26458334)"
       x1="33.48571"
       y1="4.0123987"
       x2="33.594517"
       y2="23.910183" />
    <linearGradient
       inkscape:collect="always"
       id="linearGradient1784">
      <stop
         style="stop-color:#a39da4;stop-opacity:1"
         offset="0"
         id="stop1780" />
      <stop
         style="stop-color:#827b84;stop-opacity:1"
         offset="1"
         id="stop1782" />
    </linearGradient>
    <linearGradient
       inkscape:collect="always"
       xlink:href="#linearGradient1778"
       id="linearGradient1758"
       gradientUnits="userSpaceOnUse"
       gradientTransform="matrix(0.26458334,0,0,0.26458334,-1.5099851,-18.843811)"
       x1="38.194393"
       y1="86.220306"
       x2="37.853539"
       y2="130.25267" />
    <linearGradient
       inkscape:collect="always"
       id="linearGradient1778">
      <stop
         style="stop-color:#cbc7cb;stop-opacity:1"
         offset="0"
         id="stop1774" />
      <stop
         style="stop-color:#756e77;stop-opacity:1"
         offset="1"
         id="stop1776" />
    </linearGradient>
  </defs>
  <sodipodi:namedview
     id="base"
     pagecolor="#c4c4c4"
     bordercolor="#666666"
     borderopacity="1.0"
     inkscape:pageopacity="0"
     inkscape:pageshadow="2"
     inkscape:zoom="4.0098513"
     inkscape:cx="12.472798"
     inkscape:cy="66.995717"
     inkscape:document-units="px"
     inkscape:current-layer="layer1"
     inkscape:document-rotation="0"
     showgrid="false"
     units="px"
     inkscape:window-width="2048"
     inkscape:window-height="1080"
     inkscape:window-x="0"
     inkscape:window-y="0"
     inkscape:window-maximized="1" />
  <metadata
     id="metadata838">
    <rdf:RDF>
      <cc:Work
         rdf:about="">
        <dc:format>image/svg+xml</dc:format>
        <dc:type
           rdf:resource="http://purl.org/dc/dcmitype/StillImage" />
        <dc:title></dc:title>
      </cc:Work>
    </rdf:RDF>
  </metadata>
  <g
     inkscape:label="Layer 1"
     inkscape:groupmode="layer"
     id="layer1">
    <path
       id="rect1006-9-7-4-98-3"
       style="isolation:isolate;fill:#8a8a8c;fill-opacity:1;stroke:none;stroke-width:0.161759;stroke-miterlimit:4;stroke-dasharray:none;stroke-opacity:1"
       d="m 1.8571687,1.190625 c -0.4425421,0 -0.7988353,0.3591878 -0.7988353,0.8053203 v 1.2988661 0.012938 4.2213055 c 0,0.4461325 0.3562932,0.8053202 0.7988353,0.8053202 H 15.076162 c 0.442543,0 0.798838,-0.3591877 0.798838,-0.8053202 V 3.2948087 c 0,-0.4461325 -0.356295,-0.8053202 -0.798838,-0.8053202 H 7.5647816 L 6.4052187,1.190625 H 5.4131185 1.8957978 Z" />
    <path
       id="rect1006-9-9-5-7-7-5"
       style="color:#000000;font-style:normal;font-variant:normal;font-weight:normal;font-stretch:normal;font-size:medium;line-height:normal;font-family:sans-serif;font-variant-ligatures:normal;font-variant-position:normal;font-variant-caps:normal;font-variant-numeric:normal;font-variant-alternates:normal;font-variant-east-asian:normal;font-feature-settings:normal;font-variation-settings:normal;text-indent:0;text-align:start;text-decoration:none;text-decoration-line:none;text-decoration-style:solid;text-decoration-color:#000000;letter-spacing:normal;word-spacing:normal;text-transform:none;writing-mode:lr-tb;direction:ltr;text-orientation:mixed;dominant-baseline:auto;baseline-shift:baseline;text-anchor:start;white-space:normal;shape-padding:0;shape-margin:0;inline-size:0;clip-rule:nonzero;display:inline;overflow:visible;visibility:visible;isolation:isolate;mix-blend-mode:normal;color-interpolation:sRGB;color-interpolation-filters:linearRGB;solid-color:#000000;solid-opacity:1;vector-effect:none;fill:url(#linearGradient1756);fill-opacity:1;fill-rule:nonzero;stroke:none;stroke-width:0.264583;stroke-linecap:butt;stroke-linejoin:miter;stroke-miterlimit:4;stroke-dasharray:none;stroke-dashoffset:0;stroke-opacity:1;color-rendering:auto;image-rendering:auto;shape-rendering:auto;text-rendering:auto;enable-background:accumulate;stop-color:#000000"
       d="m 1.8572507,1.0914063 c -0.4962287,0 -0.89813611,0.4053787 -0.89813611,0.9043379 v 1.2991465 0.012912 4.2214457 c 0,0.4989619 0.40190741,0.9043379 0.89813611,0.9043379 H 15.076083 c 0.496229,0 0.898136,-0.405376 0.898136,-0.9043379 V 3.2948828 c 0,-0.4989619 -0.401907,-0.9048539 -0.898136,-0.9048539 H 7.6093534 L 6.4497349,1.0914063 H 5.4131053 1.8960095 Z m 0,0.1984375 h 0.038759 3.5170958 0.9477454 l 1.1596212,1.2986306 h 7.5556109 c 0.388856,0 0.699699,0.3131079 0.699699,0.7064163 V 7.529256 c 0,0.3933111 -0.310843,0.7059005 -0.699699,0.7059005 H 1.8572507 c -0.3888555,0 -0.6996986,-0.3125894 -0.6996986,-0.7059005 V 3.3078103 3.2948987 1.9957521 c 0,-0.3933084 0.3108431,-0.7059004 0.6996986,-0.7059004 z" />
    <path
       id="rect880-1-9-6-9-8-2-6"
       style="opacity:0.125;isolation:isolate;fill:#343135;fill-opacity:1;stroke:none;stroke-width:0.16137;stroke-miterlimit:4;stroke-dasharray:none;stroke-opacity:1"
       d="M 8.5514156,3.5718751 8.5219595,3.604948 7.3917971,4.8653357 H 1.8572507 c -0.4960065,0 -0.89813611,0.4038944 -0.89813611,0.901237 v 8.7441703 c 0,0.49734 0.40212961,0.901237 0.89813611,0.901237 H 15.076083 c 0.496007,0 0.898136,-0.403895 0.898136,-0.901237 V 8.6899091 5.7665727 4.4731121 c 0,-0.4973426 -0.402129,-0.901237 -0.898136,-0.901237 h -1.327052 -2.228805 z" />
    <path
       id="rect880-1-9-2-4-8-2"
       style="opacity:0.15;isolation:isolate;fill:#343135;fill-opacity:1;stroke:none;stroke-width:0.16137;stroke-miterlimit:4;stroke-dasharray:none;stroke-opacity:1"
       d="M 8.5514156,4.2664064 8.5219595,4.2994793 7.3917971,5.559867 H 1.8572507 c -0.4960065,0 -0.89813611,0.4038944 -0.89813611,0.901237 v 8.74417 c 0,0.49734 0.40212961,0.901237 0.89813611,0.901237 H 15.076083 c 0.496007,0 0.898136,-0.403895 0.898136,-0.901237 V 9.3844403 6.461104 5.1676434 c 0,-0.4973426 -0.402129,-0.901237 -0.898136,-0.901237 h -1.327052 -2.228805 z" />
    <path
       id="rect880-1-28-5-2-9"
       style="isolation:isolate;fill:#bebabf;fill-opacity:1;stroke:none;stroke-width:0.16137;stroke-miterlimit:4;stroke-dasharray:none;stroke-opacity:1"
       d="M 8.595511,3.9687501 7.4359454,5.2622689 h -5.578782 c -0.4425421,0 -0.79883,0.3577088 -0.79883,0.8020051 v 8.744135 c 0,0.444299 0.3562879,0.802008 0.79883,0.802008 H 15.076165 c 0.442542,0 0.798835,-0.357709 0.798835,-0.802008 V 8.9877029 6.064274 4.7707578 c 0,-0.444299 -0.356293,-0.8020077 -0.798835,-0.8020077 h -1.327031 -2.228929 z" />
    <path
       id="rect880-1-2-9-0-99-1"
       style="color:#000000;font-style:normal;font-variant:normal;font-weight:normal;font-stretch:normal;font-size:medium;line-height:normal;font-family:sans-serif;font-variant-ligatures:normal;font-variant-position:normal;font-variant-caps:normal;font-variant-numeric:normal;font-variant-alternates:normal;font-variant-east-asian:normal;font-feature-settings:normal;font-variation-settings:normal;text-indent:0;text-align:start;text-decoration:none;text-decoration-line:none;text-decoration-style:solid;text-decoration-color:#000000;letter-spacing:normal;word-spacing:normal;text-transform:none;writing-mode:lr-tb;direction:ltr;text-orientation:mixed;dominant-baseline:auto;baseline-shift:baseline;text-anchor:start;white-space:normal;shape-padding:0;shape-margin:0;inline-size:0;clip-rule:nonzero;display:inline;overflow:visible;visibility:visible;isolation:isolate;mix-blend-mode:normal;color-interpolation:sRGB;color-interpolation-filters:linearRGB;solid-color:#000000;solid-opacity:1;vector-effect:none;fill:url(#linearGradient1758);fill-opacity:1;fill-rule:nonzero;stroke:none;stroke-width:0.264583;stroke-linecap:butt;stroke-linejoin:miter;stroke-miterlimit:4;stroke-dasharray:none;stroke-dashoffset:0;stroke-opacity:1;color-rendering:auto;image-rendering:auto;shape-rendering:auto;text-rendering:auto;enable-background:accumulate;stop-color:#000000"
       d="M 8.5514156,3.8695313 8.5219595,3.9026043 7.3917971,5.162992 H 1.8572507 c -0.4960065,0 -0.89813611,0.403897 -0.89813611,0.901237 v 8.744167 c 0,0.49734 0.40212961,0.901237 0.89813611,0.901237 H 15.076083 c 0.496007,0 0.898136,-0.403894 0.898136,-0.901237 V 8.9875653 6.064229 4.7707683 c 0,-0.4973425 -0.402129,-0.901237 -0.898136,-0.901237 h -1.327052 -2.228803 z m 0.088368,0.1984376 h 2.8804424 2.228805 1.327052 c 0.389075,0 0.699699,0.3115468 0.699699,0.7027994 V 6.064229 8.9875653 14.808396 c 0,0.391253 -0.310624,0.7028 -0.699699,0.7028 H 1.8572507 c -0.3890751,0 -0.6996986,-0.311547 -0.6996986,-0.7028 V 6.064229 c 0,-0.3912553 0.3106235,-0.7027995 0.6996986,-0.7027995 h 5.6229119 z" />
  </g>
</svg>
