<?xml version="1.0" encoding="UTF-8" standalone="no"?>
<svg
   xmlns:dc="http://purl.org/dc/elements/1.1/"
   xmlns:cc="http://creativecommons.org/ns#"
   xmlns:rdf="http://www.w3.org/1999/02/22-rdf-syntax-ns#"
   xmlns:svg="http://www.w3.org/2000/svg"
   xmlns="http://www.w3.org/2000/svg"
   xmlns:sodipodi="http://sodipodi.sourceforge.net/DTD/sodipodi-0.dtd"
   xmlns:inkscape="http://www.inkscape.org/namespaces/inkscape"
   width="64"
   height="64"
   viewBox="0 0 64 64"
   version="1.1"
   id="svg6374"
   inkscape:version="1.0.2 (e86c870879, 2021-01-15)"
   sodipodi:docname="document-revert-rtl.svg">
  <defs
     id="defs6368" />
  <sodipodi:namedview
     id="base"
     pagecolor="#cecece"
     bordercolor="#666666"
     borderopacity="1.0"
     inkscape:pageopacity="0"
     inkscape:pageshadow="2"
     inkscape:zoom="7.5046773"
     inkscape:cx="15.961847"
     inkscape:cy="37.861521"
     inkscape:document-units="px"
     inkscape:current-layer="layer1"
     inkscape:document-rotation="0"
     showgrid="false"
     units="px"
     inkscape:window-width="2048"
     inkscape:window-height="1080"
     inkscape:window-x="0"
     inkscape:window-y="0"
     inkscape:window-maximized="1" />
  <metadata
     id="metadata6371">
    <rdf:RDF>
      <cc:Work
         rdf:about="">
        <dc:format>image/svg+xml</dc:format>
        <dc:type
           rdf:resource="http://purl.org/dc/dcmitype/StillImage" />
        <dc:title></dc:title>
      </cc:Work>
    </rdf:RDF>
  </metadata>
  <g
     inkscape:label="Layer 1"
     inkscape:groupmode="layer"
     id="layer1">
    <path
       id="rect954-7-0-7-3-0-0-0-6-2-3-6-9"
       style="color:#000000;font-style:normal;font-variant:normal;font-weight:normal;font-stretch:normal;font-size:medium;line-height:normal;font-family:sans-serif;font-variant-ligatures:normal;font-variant-position:normal;font-variant-caps:normal;font-variant-numeric:normal;font-variant-alternates:normal;font-variant-east-asian:normal;font-feature-settings:normal;font-variation-settings:normal;text-indent:0;text-align:start;text-decoration:none;text-decoration-line:none;text-decoration-style:solid;text-decoration-color:#000000;letter-spacing:normal;word-spacing:normal;text-transform:none;writing-mode:lr-tb;direction:ltr;text-orientation:mixed;dominant-baseline:auto;baseline-shift:baseline;text-anchor:start;white-space:normal;shape-padding:0;shape-margin:0;inline-size:0;clip-rule:nonzero;display:inline;overflow:visible;visibility:visible;opacity:0.85;isolation:auto;mix-blend-mode:normal;color-interpolation:sRGB;color-interpolation-filters:linearRGB;solid-color:#000000;solid-opacity:1;vector-effect:none;fill:#4c2a65;fill-opacity:1;fill-rule:nonzero;stroke:none;stroke-linecap:round;stroke-linejoin:round;stroke-miterlimit:4;stroke-dasharray:none;stroke-dashoffset:2.1875;stroke-opacity:1;color-rendering:auto;image-rendering:auto;shape-rendering:auto;text-rendering:auto;enable-background:accumulate;stop-color:#000000"
       d="M 13,2.5 C 10.53295,2.5 8.5,4.53295 8.5,7 v 49.99999 c 0,2.46706 2.03295,4.5 4.5,4.5 h 38 c 2.467,0 4.5,-2.03294 4.5,-4.5 V 7 C 55.5,4.53295 53.467,2.5 51,2.5 Z m 0,3 h 38 c 0.8569,0 1.5,0.64306 1.5,1.5 v 49.99999 c 0,0.85695 -0.6431,1.5 -1.5,1.5 H 13 c -0.85695,0 -1.5,-0.64305 -1.5,-1.5 V 7 c 0,-0.85694 0.64305,-1.5 1.5,-1.5 z" />
    <rect
       style="fill:#fcfcfc;fill-opacity:1;stroke-width:0.495;stroke-linecap:round;stroke-linejoin:round;stroke-miterlimit:4;stroke-dasharray:none;stroke-dashoffset:2.1875"
       id="rect954-7-0-7-3-0-0-8-6-1-4"
       width="44"
       height="56"
       x="10.000031"
       y="4.000001"
       rx="3"
       ry="3" />
    <path
       id="rect867-2-3-36-5-6"
       style="display:inline;fill:#af87cd;fill-opacity:1;stroke:none;stroke-width:1.34931;stroke-linecap:round;stroke-miterlimit:4;stroke-dasharray:none;stroke-opacity:1"
       d="m 37.18285,14.62534 a 0.58832266,0.59219959 0 0 1 0.32298,0.10701 l 11.74344,8.2776 a 0.58832266,0.59219959 0 0 1 0,0.97 l -11.74344,8.27662 a 0.58832266,0.59219959 0 0 1 -0.9259,-0.48484 v -2.55268 -0.45908 -2.04404 h -7.61232 v 2.5e-4 c -4.49758,0 -8.0743,3.59556 -8.0743,8.11644 0,4.51974 3.575,8.11563 8.07102,8.1174 v -7.5e-4 h 7.02876 c 0.32619,0 0.58881,0.26396 0.58881,0.59184 v 5.24208 c 0,0.32789 -0.26262,0.59183 -0.58881,0.59183 H 28.96761 C 21.01512,49.37502 14.5,42.82617 14.5,34.83252 c 0,-7.99189 6.51226,-14.53964 14.46234,-14.54253 h 0.005 7.61232 v -2.01763 -0.50169 -2.55332 a 0.58832266,0.59219959 0 0 1 0.57664,-0.59218 0.58832266,0.59219959 0 0 1 0.0263,0 z" />
    <path
       id="rect867-2-3-36-3-5-4-9"
       style="color:#000000;font-style:normal;font-variant:normal;font-weight:normal;font-stretch:normal;font-size:medium;line-height:normal;font-family:sans-serif;font-variant-ligatures:normal;font-variant-position:normal;font-variant-caps:normal;font-variant-numeric:normal;font-variant-alternates:normal;font-variant-east-asian:normal;font-feature-settings:normal;font-variation-settings:normal;text-indent:0;text-align:start;text-decoration:none;text-decoration-line:none;text-decoration-style:solid;text-decoration-color:#000000;letter-spacing:normal;word-spacing:normal;text-transform:none;writing-mode:lr-tb;direction:ltr;text-orientation:mixed;dominant-baseline:auto;baseline-shift:baseline;text-anchor:start;white-space:normal;shape-padding:0;shape-margin:0;inline-size:0;clip-rule:nonzero;display:inline;overflow:visible;visibility:visible;opacity:0.85;isolation:auto;mix-blend-mode:normal;color-interpolation:sRGB;color-interpolation-filters:linearRGB;solid-color:#000000;solid-opacity:1;vector-effect:none;fill:#4c2a65;fill-opacity:1;fill-rule:nonzero;stroke:none;stroke-width:0.944605;stroke-linecap:round;stroke-linejoin:round;stroke-miterlimit:4;stroke-dasharray:none;stroke-dashoffset:0;stroke-opacity:1;color-rendering:auto;image-rendering:auto;shape-rendering:auto;text-rendering:auto;enable-background:accumulate;stop-color:#000000"
       d="m 37.14936,13.87541 c -0.71923,0.0153 -1.30872,0.62227 -1.3086,1.34451 v 2.55151 0.50297 1.26523 h -6.86791 -0.006 C 20.60431,19.54263 13.75,26.43031 13.75,34.83207 c 0,8.40361 6.85718,15.29294 15.22222,15.29294 h 7.02959 c 0.72783,0 1.33638,-0.61134 1.33638,-1.34255 v -5.24247 c 0,-0.73121 -0.60855,-1.34254 -1.33638,-1.34254 h -7.03154 c -4.10164,-9.9e-4 -7.32767,-3.24426 -7.32767,-7.36537 0,-4.12217 3.22642,-7.36343 7.32962,-7.36343 h 6.86937 v 1.29264 0.45844 2.552 c 2.5e-4,1.04233 1.25408,1.69939 2.10392,1.10037 l 11.74928,-8.27494 a 0.74813327,0.75158503 0 0 0 0,-0.002 c 0.74028,-0.52179 0.74028,-1.67696 0,-2.19876 a 0.74813327,0.75158503 0 0 0 0,-0.002 L 37.9458,14.11758 c -0.21546,-0.15187 -0.47123,-0.23563 -0.73442,-0.2422 a 0.74813327,0.75158503 0 0 0 -0.004,0 c -0.0193,-5e-4 -0.0377,-5e-4 -0.057,0 z m 0.18752,1.64931 11.31292,7.97208 -11.31292,7.97011 v -2.24719 -0.45844 -2.04513 a 0.74813327,0.75158503 0 0 0 -0.74709,-0.75053 h -7.61694 a 0.74813327,0.75158503 0 0 0 -0.28687,0.0572 c -4.75373,0.15984 -8.53935,3.99268 -8.53935,8.80919 0,4.9178 3.92787,8.86697 8.82281,8.8689 a 0.74813327,0.75158503 0 0 0 0.002,0 h 6.87326 v 4.92249 h -6.87131 c -7.54791,0 -13.7261,-6.20868 -13.7261,-13.79139 0,-7.5804 6.17599,-13.78564 13.72074,-13.78942 h 0.006 7.61694 a 0.74813327,0.75158503 0 0 0 0.74709,-0.75053 v -2.01772 -0.50296 z" />
  </g>
</svg>
