<?xml version="1.0" encoding="UTF-8" standalone="no"?>
<svg
   xmlns:dc="http://purl.org/dc/elements/1.1/"
   xmlns:cc="http://creativecommons.org/ns#"
   xmlns:rdf="http://www.w3.org/1999/02/22-rdf-syntax-ns#"
   xmlns:svg="http://www.w3.org/2000/svg"
   xmlns="http://www.w3.org/2000/svg"
   xmlns:sodipodi="http://sodipodi.sourceforge.net/DTD/sodipodi-0.dtd"
   xmlns:inkscape="http://www.inkscape.org/namespaces/inkscape"
   width="64"
   height="64"
   viewBox="0 0 64 64"
   version="1.1"
   id="svg6374"
   inkscape:version="1.0.2 (e86c870879, 2021-01-15)"
   sodipodi:docname="edit-clear-rtl.svg">
  <defs
     id="defs6368" />
  <sodipodi:namedview
     id="base"
     pagecolor="#cecece"
     bordercolor="#666666"
     borderopacity="1.0"
     inkscape:pageopacity="0"
     inkscape:pageshadow="2"
     inkscape:zoom="7.0447353"
     inkscape:cx="22.71677"
     inkscape:cy="32.282423"
     inkscape:document-units="px"
     inkscape:current-layer="layer1"
     inkscape:document-rotation="0"
     showgrid="false"
     units="px"
     inkscape:window-width="1500"
     inkscape:window-height="970"
     inkscape:window-x="68"
     inkscape:window-y="56"
     inkscape:window-maximized="0" />
  <metadata
     id="metadata6371">
    <rdf:RDF>
      <cc:Work
         rdf:about="">
        <dc:format>image/svg+xml</dc:format>
        <dc:type
           rdf:resource="http://purl.org/dc/dcmitype/StillImage" />
        <dc:title />
      </cc:Work>
    </rdf:RDF>
  </metadata>
  <g
     inkscape:label="Layer 1"
     inkscape:groupmode="layer"
     id="layer1">
    <path
       id="rect895-5-7-2-5-8-4-7-4-7"
       style="color:#000000;font-style:normal;font-variant:normal;font-weight:normal;font-stretch:normal;font-size:medium;line-height:normal;font-family:sans-serif;font-variant-ligatures:normal;font-variant-position:normal;font-variant-caps:normal;font-variant-numeric:normal;font-variant-alternates:normal;font-variant-east-asian:normal;font-feature-settings:normal;font-variation-settings:normal;text-indent:0;text-align:start;text-decoration:none;text-decoration-line:none;text-decoration-style:solid;text-decoration-color:#000000;letter-spacing:normal;word-spacing:normal;text-transform:none;writing-mode:lr-tb;direction:ltr;text-orientation:mixed;dominant-baseline:auto;baseline-shift:baseline;text-anchor:start;white-space:normal;shape-padding:0;shape-margin:0;inline-size:0;clip-rule:nonzero;display:inline;overflow:visible;visibility:visible;opacity:0.15;isolation:auto;mix-blend-mode:normal;color-interpolation:sRGB;color-interpolation-filters:linearRGB;solid-color:#000000;solid-opacity:1;vector-effect:none;fill:#0c0c0c;fill-opacity:1;fill-rule:nonzero;stroke:none;stroke-linecap:round;stroke-linejoin:round;stroke-miterlimit:4;stroke-dasharray:none;stroke-dashoffset:2.1875;stroke-opacity:1;color-rendering:auto;image-rendering:auto;shape-rendering:auto;text-rendering:auto;enable-background:accumulate;stop-color:#000000"
       d="m 39.12499,11.1275 c 0.20173,0 0.38333,0.012 0.54492,0.027 a 1.50015,1.50015 0 0 1 0.004,0 c 0.16019,0.015 0.28488,0.038 0.37698,0.053 -0.004,-10e-4 0.0435,0 0.16016,0.025 0.17262,0.033 0.34303,0.075 0.51367,0.125 a 1.50015,1.50015 0 0 1 0.002,0 c 0.98051,0.2886 1.84128,0.8351 2.51367,1.5527 l 17.10352,17.0996 c 2.19171,2.1917 2.19171,5.7887 0,7.9805 L 43.24039,55.0919 c -0.67,0.715 -1.52918,1.2576 -2.50389,1.5468 -0.009,0 -0.0434,0.015 -0.0449,0.016 a 1.50015,1.50015 0 0 1 -0.004,0 c -0.15091,0.043 -0.302,0.079 -0.45508,0.1094 -0.16332,0.034 -0.22267,0.037 -0.17577,0.029 a 1.50015,1.50015 0 0 1 -0.004,0 c -0.0748,0.012 -0.20103,0.038 -0.375,0.055 -0.18653,0.018 -0.37099,0.027 -0.55273,0.027 H 7.64259 c -3.099,0 -5.64257,-2.5407 -5.64257,-5.6407 V 16.7676 c 0,-3.1 2.54271,-5.6426 5.64257,-5.6426 z m 0,3 H 7.64256 c -1.48874,0 -2.64257,1.1538 -2.64257,2.6425 v 34.4669 c 0,1.4888 1.15299,2.6405 2.64257,2.6405 h 31.48243 c 0.0885,0 0.17713,-0.01 0.25977,-0.014 a 1.50015,1.50015 0 0 1 0.002,0 c 0.012,0 0.067,-0.01 0.17383,-0.027 h 0.002 c 0.11122,-0.019 0.13507,-0.024 0.0508,-0.01 a 1.50015,1.50015 0 0 1 0.0254,0 c 0.0758,-0.015 0.14641,-0.033 0.21679,-0.053 0.002,-5e-4 0.004,-9e-4 0.006,0 a 1.50015,1.50015 0 0 1 0.0195,-0.01 c 0.45133,-0.1333 0.85116,-0.3863 1.16992,-0.7264 a 1.50015,1.50015 0 0 1 0.0352,-0.035 L 58.22291,35.8652 c 1.05296,-1.053 1.05296,-2.6814 0,-3.7344 L 41.08619,14.996 a 1.50015,1.50015 0 0 1 -0.0352,-0.035 c -0.31954,-0.341 -0.72062,-0.5956 -1.17187,-0.7285 -0.0771,-0.023 -0.15592,-0.04 -0.24025,-0.057 a 1.50015,1.50015 0 0 1 -0.002,0 c 0.0479,0.01 0.0255,0.01 -0.0625,-0.01 a 1.50015,1.50015 0 0 1 -0.01,0 c -0.0907,-0.015 -0.14256,-0.022 -0.17187,-0.025 -0.10759,-0.01 -0.19909,-0.014 -0.26758,-0.014 z" />
    <path
       id="rect895-5-7-2-5-2-9-3"
       style="color:#000000;font-style:normal;font-variant:normal;font-weight:normal;font-stretch:normal;font-size:medium;line-height:normal;font-family:sans-serif;font-variant-ligatures:normal;font-variant-position:normal;font-variant-caps:normal;font-variant-numeric:normal;font-variant-alternates:normal;font-variant-east-asian:normal;font-feature-settings:normal;font-variation-settings:normal;text-indent:0;text-align:start;text-decoration:none;text-decoration-line:none;text-decoration-style:solid;text-decoration-color:#000000;letter-spacing:normal;word-spacing:normal;text-transform:none;writing-mode:lr-tb;direction:ltr;text-orientation:mixed;dominant-baseline:auto;baseline-shift:baseline;text-anchor:start;white-space:normal;shape-padding:0;shape-margin:0;inline-size:0;clip-rule:nonzero;display:inline;overflow:visible;visibility:visible;opacity:0.85;isolation:auto;mix-blend-mode:normal;color-interpolation:sRGB;color-interpolation-filters:linearRGB;solid-color:#000000;solid-opacity:1;vector-effect:none;fill:#515152;fill-opacity:1;fill-rule:nonzero;stroke:none;stroke-linecap:round;stroke-linejoin:round;stroke-miterlimit:4;stroke-dasharray:none;stroke-dashoffset:2.1875;stroke-opacity:1;color-rendering:auto;image-rendering:auto;shape-rendering:auto;text-rendering:auto;enable-background:accumulate;stop-color:#000000"
       d="m 39.125,9.1275 c 0.20173,0 0.38333,0.012 0.54492,0.027 a 1.50015,1.50015 0 0 1 0.004,0 c 0.16017,0.015 0.28486,0.038 0.37696,0.053 -0.004,-10e-4 0.0435,0 0.16017,0.025 0.17261,0.033 0.34303,0.075 0.51367,0.125 a 1.50015,1.50015 0 0 1 0.002,0 c 0.98052,0.2886 1.84127,0.8351 2.51367,1.5527 l 17.10352,17.0996 c 2.1917,2.1917 2.1917,5.7887 0,7.9805 L 43.24039,53.0919 c -0.66999,0.715 -1.52918,1.2576 -2.5039,1.5468 -0.009,0 -0.0434,0.015 -0.0449,0.016 a 1.50015,1.50015 0 0 1 -0.004,0 c -0.15092,0.043 -0.30201,0.079 -0.45508,0.1093 -0.16332,0.034 -0.22267,0.037 -0.17578,0.029 a 1.50015,1.50015 0 0 1 -0.004,0 c -0.0748,0.012 -0.20103,0.038 -0.375,0.055 -0.18654,0.018 -0.371,0.027 -0.55273,0.027 H 7.64258 C 4.54357,54.875 2,52.3342 2,49.2344 V 14.7676 C 2,11.6676 4.54271,9.125 7.64258,9.125 Z m 0,3 H 7.64258 C 6.15384,12.1275 5,13.2813 5,14.77 v 34.4669 c 0,1.4888 1.15299,2.6405 2.64258,2.6405 H 39.125 c 0.0885,0 0.17712,-0.01 0.25977,-0.014 a 1.50015,1.50015 0 0 1 0.002,0 c 0.012,0 0.067,-0.01 0.17383,-0.027 h 0.002 c 0.11122,-0.019 0.13509,-0.024 0.0508,-0.01 a 1.50015,1.50015 0 0 1 0.0254,0 c 0.0758,-0.015 0.14641,-0.033 0.21679,-0.053 0.002,-5e-4 0.004,-9e-4 0.006,0 a 1.50015,1.50015 0 0 1 0.0195,-0.01 c 0.45136,-0.1333 0.85117,-0.3863 1.16993,-0.7264 a 1.50015,1.50015 0 0 1 0.0352,-0.035 L 58.22293,33.8652 c 1.05296,-1.053 1.05296,-2.6814 0,-3.7344 L 41.08622,12.996 a 1.50015,1.50015 0 0 1 -0.0352,-0.035 c -0.31954,-0.341 -0.72062,-0.5956 -1.17187,-0.7285 -0.0771,-0.023 -0.15592,-0.04 -0.24025,-0.057 a 1.50015,1.50015 0 0 1 -0.002,0 c 0.0479,0.01 0.0255,0.01 -0.0625,-0.01 a 1.50015,1.50015 0 0 1 -0.01,0 c -0.0907,-0.015 -0.14256,-0.022 -0.17186,-0.025 -0.10759,-0.01 -0.19908,-0.014 -0.26758,-0.014 z" />
    <path
       id="rect895-5-7-8-2-6"
       style="display:inline;fill:#a0a0a2;fill-opacity:1;stroke-width:0.890615;stroke-linecap:round;stroke-linejoin:round;stroke-dashoffset:2.1875"
       d="m 39.11273,10.6275 c 0.13511,0 0.27166,0.01 0.40625,0.022 0.0945,0.01 0.18491,0.024 0.27733,0.039 0.0381,0.01 0.0773,0.01 0.11523,0.018 0.1288,0.025 0.25473,0.055 0.37891,0.092 0.71589,0.2107 1.34778,0.6113 1.84375,1.1406 l 17.13673,17.1346 c 1.62231,1.6224 1.62231,4.2351 0,5.8575 L 42.1342,52.0678 c -0.49519,0.5284 -1.12535,0.9276 -1.83984,1.1386 -0.0102,0 -0.0208,0.01 -0.0312,0.01 -0.1155,0.033 -0.23209,0.061 -0.35154,0.084 -0.0379,0.01 -0.0771,0.011 -0.11524,0.018 -0.0924,0.015 -0.18288,0.032 -0.27733,0.041 -0.13459,0.013 -0.27114,0.019 -0.40625,0.019 H 7.63039 c -2.29431,0 -4.14259,-1.8462 -4.14259,-4.1406 V 14.7712 c 0,-2.2943 1.84828,-4.1425 4.14259,-4.1425 z" />
    <path
       id="rect4173-9-8-2-0-5"
       style="opacity:0.35;fill:#3d3d3e;fill-opacity:1;stroke:none;stroke-width:1;stroke-linecap:round;stroke-linejoin:round;stroke-miterlimit:4;stroke-dasharray:none;stroke-opacity:1"
       d="m 14.94463,20.4313 c 0.39173,-0.3918 1.02247,-0.3918 1.41422,0 l 9.26281,9.263 9.26282,-9.263 c 0.39173,-0.3918 1.02247,-0.3918 1.4142,0 l 3.39468,3.3946 c 0.39175,0.3919 0.39175,1.0225 0,1.4144 l -9.26281,9.2629 9.26281,9.2626 c 0.39175,0.3917 0.39175,1.0227 0,1.4142 l -3.39468,3.3947 c -0.39173,0.3917 -1.02247,0.3917 -1.4142,0 l -9.26282,-9.2627 -9.26281,9.2627 c -0.39175,0.3917 -1.02247,0.3917 -1.41423,0 L 11.54997,45.18 c -0.39175,-0.3915 -0.39175,-1.0224 0,-1.4142 l 9.26281,-9.2626 -9.26281,-9.2629 c -0.39175,-0.3919 -0.39175,-1.0225 0,-1.4144 z" />
    <path
       id="rect4173-1-2-8-6-9-6-6"
       style="color:#000000;font-style:normal;font-variant:normal;font-weight:normal;font-stretch:normal;font-size:medium;line-height:normal;font-family:sans-serif;font-variant-ligatures:normal;font-variant-position:normal;font-variant-caps:normal;font-variant-numeric:normal;font-variant-alternates:normal;font-variant-east-asian:normal;font-feature-settings:normal;font-variation-settings:normal;text-indent:0;text-align:start;text-decoration:none;text-decoration-line:none;text-decoration-style:solid;text-decoration-color:#000000;letter-spacing:normal;word-spacing:normal;text-transform:none;writing-mode:lr-tb;direction:ltr;text-orientation:mixed;dominant-baseline:auto;baseline-shift:baseline;text-anchor:start;white-space:normal;shape-padding:0;shape-margin:0;inline-size:0;clip-rule:nonzero;display:inline;overflow:visible;visibility:visible;opacity:0.75;isolation:auto;mix-blend-mode:normal;color-interpolation:sRGB;color-interpolation-filters:linearRGB;solid-color:#000000;solid-opacity:1;vector-effect:none;fill:#3d3d3e;fill-opacity:1;fill-rule:nonzero;stroke:none;stroke-width:1.00028;stroke-linecap:round;stroke-linejoin:round;stroke-miterlimit:4;stroke-dasharray:none;stroke-dashoffset:0;stroke-opacity:1;color-rendering:auto;image-rendering:auto;shape-rendering:auto;text-rendering:auto;enable-background:accumulate;stop-color:#000000"
       d="m 35.59497,17.1375 c 0.38508,0 0.77003,0.1468 1.06088,0.4376 l 3.39559,3.3954 c 0.58164,0.5816 0.58166,1.54 0,2.1216 l -8.91096,8.9106 8.91096,8.9125 c 0.58164,0.5816 0.58166,1.54 0,2.1216 l -3.39559,3.3955 c -0.58166,0.5816 -1.54008,0.5816 -2.12174,0 l -8.91096,-8.9106 -8.91289,8.9106 c -0.58168,0.5816 -1.54007,0.5816 -2.12174,0 l -3.39559,-3.3955 c -0.58167,-0.5816 -0.58167,-1.54 0,-2.1216 l 8.91095,-8.9125 -8.91095,-8.9106 c -0.58167,-0.5816 -0.58167,-1.54 0,-2.1216 l 3.39559,-3.3954 c 0.58165,-0.5817 1.54006,-0.5817 2.12174,0 l 8.91289,8.9105 8.91096,-8.9105 c 0.29084,-0.2908 0.67579,-0.4376 1.06086,-0.4376 z m 0,0.9924 c -0.12631,0 -0.25259,0.051 -0.35362,0.1524 l -9.26458,9.2641 a 0.50020396,0.50018076 0 0 1 -0.70725,0 l -9.26653,-9.2641 c -0.20204,-0.202 -0.5052,-0.202 -0.70724,0 l -3.39558,3.3954 c -0.20204,0.202 -0.20204,0.5052 0,0.7072 l 9.26653,9.2642 a 0.50020396,0.50018076 0 0 1 0,0.7072 l -9.26653,9.2661 c -0.20204,0.2021 -0.20204,0.5052 0,0.7071 l 3.39558,3.3956 c 0.20205,0.202 0.5052,0.202 0.70724,0 l 9.26653,-9.2643 a 0.50020396,0.50018076 0 0 1 0.70725,0 l 9.26458,9.2643 c 0.20205,0.202 0.50521,0.202 0.70725,0 l 3.39558,-3.3956 c 0.20204,-0.2019 0.20204,-0.505 0,-0.7071 l -9.26457,-9.2661 a 0.50020396,0.50018076 0 0 1 0,-0.7072 l 9.26457,-9.2642 c 0.20204,-0.202 0.20204,-0.5051 0,-0.7072 L 35.9486,18.2823 c -0.10102,-0.101 -0.22733,-0.1524 -0.35363,-0.1524 z" />
    <path
       id="rect4173-2-9-8-3"
       style="fill:#fdfcfb;fill-opacity:1;stroke:none;stroke-width:1;stroke-linecap:round;stroke-linejoin:round;stroke-miterlimit:4;stroke-dasharray:none;stroke-opacity:1"
       d="m 14.94463,17.9318 c 0.39173,-0.3918 1.02247,-0.3918 1.41422,0 l 9.26281,9.2628 9.26282,-9.2628 c 0.39173,-0.3918 1.02247,-0.3918 1.4142,0 l 3.39468,3.3946 c 0.39175,0.3918 0.39175,1.0225 0,1.4142 l -9.26281,9.2629 9.26281,9.2628 c 0.39175,0.3918 0.39175,1.0225 0,1.4142 l -3.39468,3.3947 c -0.39173,0.3917 -1.02247,0.3917 -1.4142,0 l -9.26282,-9.2628 -9.26281,9.2628 c -0.39175,0.3917 -1.02247,0.3917 -1.41423,0 l -3.39465,-3.3947 c -0.39175,-0.3917 -0.39175,-1.0224 0,-1.4142 l 9.26281,-9.2628 -9.26281,-9.2629 c -0.39175,-0.3917 -0.39175,-1.0224 0,-1.4142 z" />
    <path
       id="rect895-5-7-2-5-8-6-9-9"
       style="color:#000000;font-style:normal;font-variant:normal;font-weight:normal;font-stretch:normal;font-size:medium;line-height:normal;font-family:sans-serif;font-variant-ligatures:normal;font-variant-position:normal;font-variant-caps:normal;font-variant-numeric:normal;font-variant-alternates:normal;font-variant-east-asian:normal;font-feature-settings:normal;font-variation-settings:normal;text-indent:0;text-align:start;text-decoration:none;text-decoration-line:none;text-decoration-style:solid;text-decoration-color:#000000;letter-spacing:normal;word-spacing:normal;text-transform:none;writing-mode:lr-tb;direction:ltr;text-orientation:mixed;dominant-baseline:auto;baseline-shift:baseline;text-anchor:start;white-space:normal;shape-padding:0;shape-margin:0;inline-size:0;clip-rule:nonzero;display:inline;overflow:visible;visibility:visible;opacity:0.15;isolation:auto;mix-blend-mode:normal;color-interpolation:sRGB;color-interpolation-filters:linearRGB;solid-color:#000000;solid-opacity:1;vector-effect:none;fill:#3d3d3e;fill-opacity:1;fill-rule:nonzero;stroke:none;stroke-linecap:round;stroke-linejoin:round;stroke-miterlimit:4;stroke-dasharray:none;stroke-dashoffset:2.1875;stroke-opacity:1;color-rendering:auto;image-rendering:auto;shape-rendering:auto;text-rendering:auto;enable-background:accumulate;stop-color:#000000"
       d="m 39.12499,9.1275 c 0.20173,0 0.38333,0.012 0.54492,0.027 a 1.50015,1.50015 0 0 1 0.004,0 c 0.16019,0.015 0.28488,0.038 0.37698,0.053 -0.004,-10e-4 0.0435,0 0.16016,0.025 0.17262,0.033 0.34303,0.075 0.51367,0.125 a 1.50015,1.50015 0 0 1 0.002,0 c 0.98051,0.2886 1.84128,0.8351 2.51367,1.5527 l 17.10352,17.0996 c 2.19171,2.1917 2.19171,5.7887 0,7.9805 L 43.24039,53.0919 c -0.67,0.715 -1.52918,1.2576 -2.50389,1.5468 -0.009,0 -0.0434,0.015 -0.0449,0.016 a 1.50015,1.50015 0 0 1 -0.004,0 c -0.15091,0.043 -0.302,0.079 -0.45508,0.1093 -0.16332,0.034 -0.22267,0.037 -0.17577,0.029 a 1.50015,1.50015 0 0 1 -0.004,0 c -0.0748,0.012 -0.20103,0.038 -0.375,0.055 -0.18653,0.018 -0.37099,0.027 -0.55273,0.027 H 7.64259 c -3.099,0 -5.64257,-2.5408 -5.64257,-5.6406 V 14.7676 c 0,-3.1 2.54271,-5.6426 5.64257,-5.6426 z m 0,3 H 7.64256 c -1.48874,0 -2.64257,1.1538 -2.64257,2.6425 v 34.4669 c 0,1.4888 1.15299,2.6405 2.64257,2.6405 h 31.48243 c 0.0885,0 0.17713,-0.01 0.25977,-0.014 a 1.50015,1.50015 0 0 1 0.002,0 c 0.012,0 0.067,-0.01 0.17384,-0.027 h 0.002 c 0.11122,-0.019 0.13507,-0.024 0.0508,-0.01 a 1.50015,1.50015 0 0 1 0.0254,0 c 0.0758,-0.015 0.14641,-0.033 0.21679,-0.053 0.002,-5e-4 0.004,-9e-4 0.006,0 a 1.50015,1.50015 0 0 1 0.0195,-0.01 c 0.45134,-0.1333 0.85116,-0.3863 1.16992,-0.7264 a 1.50015,1.50015 0 0 1 0.0352,-0.035 L 58.22292,33.8652 c 1.05296,-1.053 1.05296,-2.6814 0,-3.7344 L 41.08621,12.996 a 1.50015,1.50015 0 0 1 -0.0352,-0.035 c -0.31955,-0.341 -0.72062,-0.5956 -1.17188,-0.7285 -0.0771,-0.023 -0.15591,-0.04 -0.24023,-0.057 a 1.50015,1.50015 0 0 1 -0.002,0 c 0.0479,0.01 0.0255,0.01 -0.0625,-0.01 a 1.50015,1.50015 0 0 1 -0.01,0 c -0.0907,-0.015 -0.14256,-0.022 -0.17187,-0.025 -0.1076,-0.01 -0.19908,-0.014 -0.26759,-0.014 z" />
  </g>
</svg>
