<?xml version="1.0" encoding="UTF-8" standalone="no"?>
<svg
   xmlns:dc="http://purl.org/dc/elements/1.1/"
   xmlns:cc="http://creativecommons.org/ns#"
   xmlns:rdf="http://www.w3.org/1999/02/22-rdf-syntax-ns#"
   xmlns:svg="http://www.w3.org/2000/svg"
   xmlns="http://www.w3.org/2000/svg"
   xmlns:xlink="http://www.w3.org/1999/xlink"
   xmlns:sodipodi="http://sodipodi.sourceforge.net/DTD/sodipodi-0.dtd"
   xmlns:inkscape="http://www.inkscape.org/namespaces/inkscape"
   width="64"
   height="64"
   viewBox="0 0 64 64"
   version="1.1"
   id="svg6374"
   inkscape:version="1.0.2 (e86c870879, 2021-01-15)"
   sodipodi:docname="folder-new.svg">
  <defs
     id="defs6368">
    <linearGradient
       inkscape:collect="always"
       xlink:href="#linearGradient877"
       id="linearGradient1739"
       gradientUnits="userSpaceOnUse"
       gradientTransform="translate(-16,-7.5)"
       x1="47.75"
       y1="33.5"
       x2="48.25"
       y2="61.5" />
    <linearGradient
       inkscape:collect="always"
       id="linearGradient877">
      <stop
         style="stop-color:#17cea7;stop-opacity:1"
         offset="0"
         id="stop873" />
      <stop
         style="stop-color:#13ae8d;stop-opacity:1"
         offset="1"
         id="stop875" />
    </linearGradient>
  </defs>
  <sodipodi:namedview
     id="base"
     pagecolor="#cecece"
     bordercolor="#666666"
     borderopacity="1.0"
     inkscape:pageopacity="0"
     inkscape:pageshadow="2"
     inkscape:zoom="3.1106447"
     inkscape:cx="29.6594"
     inkscape:cy="42.109359"
     inkscape:document-units="px"
     inkscape:current-layer="layer1"
     inkscape:document-rotation="0"
     showgrid="false"
     units="px"
     inkscape:window-width="1500"
     inkscape:window-height="970"
     inkscape:window-x="68"
     inkscape:window-y="56"
     inkscape:window-maximized="0" />
  <metadata
     id="metadata6371">
    <rdf:RDF>
      <cc:Work
         rdf:about="">
        <dc:format>image/svg+xml</dc:format>
        <dc:type
           rdf:resource="http://purl.org/dc/dcmitype/StillImage" />
        <dc:title />
      </cc:Work>
    </rdf:RDF>
  </metadata>
  <g
     inkscape:label="Layer 1"
     inkscape:groupmode="layer"
     id="layer1">
    <path
       id="rect1006-9-62-6-0-7-4-6-3"
       style="color:#000000;font-style:normal;font-variant:normal;font-weight:normal;font-stretch:normal;font-size:medium;line-height:normal;font-family:sans-serif;font-variant-ligatures:normal;font-variant-position:normal;font-variant-caps:normal;font-variant-numeric:normal;font-variant-alternates:normal;font-variant-east-asian:normal;font-feature-settings:normal;font-variation-settings:normal;text-indent:0;text-align:start;text-decoration:none;text-decoration-line:none;text-decoration-style:solid;text-decoration-color:#000000;letter-spacing:normal;word-spacing:normal;text-transform:none;writing-mode:lr-tb;direction:ltr;text-orientation:mixed;dominant-baseline:auto;baseline-shift:baseline;text-anchor:start;white-space:normal;shape-padding:0;shape-margin:0;inline-size:0;clip-rule:nonzero;display:inline;overflow:visible;visibility:visible;isolation:isolate;mix-blend-mode:normal;color-interpolation:sRGB;color-interpolation-filters:linearRGB;solid-color:#000000;solid-opacity:1;vector-effect:none;fill:#444145;fill-opacity:1;fill-rule:nonzero;stroke:none;stroke-linecap:round;stroke-linejoin:round;stroke-miterlimit:4;stroke-dasharray:none;stroke-dashoffset:0;stroke-opacity:1;color-rendering:auto;image-rendering:auto;shape-rendering:auto;text-rendering:auto;enable-background:accumulate;stop-color:#000000"
       d="M 7.01953,0.75003002 C 3.72364,0.75003002 1,3.51153 1,6.79495 v 4.90821 0.0488 15.95507 C 1,30.99046 3.72365,33.75 7.01953,33.75 H 56.98047 C 60.27635,33.75 63,30.99048 63,27.70703 V 11.70313 C 63,8.41968 60.27636,5.66016 56.98047,5.66016 H 29.93555 L 26.44726,1.75195 A 3.0003,3.0003 0 0 0 24.20898,0.75000002 h -3.75 H 7.16601 Z M 6.99223,6.73831 c -0.001,-1.2e-4 0.003,0.0117 0.0273,0.0117 h 0.14648 13.29297 2.40625 l 3.48828,3.9082 a 3.0003,3.0003 0 0 0 2.23828,1.00196 h 28.38868 c 0.0493,0 0.0195,-0.0459 0.0195,0.043 v 16.0039 c 0,0.0889 0.0298,0.043 -0.0195,0.043 H 7.01953 c -0.0493,0 -0.0195,0.046 -0.0195,-0.043 v -15.95508 -0.0488 -4.9082 c 0,-0.0445 -0.007,-0.0565 -0.008,-0.0566 z" />
    <path
       id="rect1006-9-62-6-0-7-4-67"
       style="isolation:isolate;fill:#8a8a8c;fill-opacity:1;stroke:none;stroke-width:0.611371;stroke-miterlimit:4;stroke-dasharray:none;stroke-opacity:1"
       d="M 7.01922,3.75009 C 5.34662,3.75009 4,5.10765 4,6.79382 v 4.9091 0.0489 15.95454 c 0,1.68618 1.34662,3.04373 3.01922,3.04373 H 56.98077 C 58.65336,30.75009 60,29.39254 60,27.70636 V 11.70291 C 60,10.01674 58.65336,8.65918 56.98077,8.65918 H 28.59129 L 24.2087,3.75009 H 20.45903 7.16522 Z" />
    <path
       id="rect880-1-74-4-2-3-0-8-5"
       style="color:#000000;font-style:normal;font-variant:normal;font-weight:normal;font-stretch:normal;font-size:medium;line-height:normal;font-family:sans-serif;font-variant-ligatures:normal;font-variant-position:normal;font-variant-caps:normal;font-variant-numeric:normal;font-variant-alternates:normal;font-variant-east-asian:normal;font-feature-settings:normal;font-variation-settings:normal;text-indent:0;text-align:start;text-decoration:none;text-decoration-line:none;text-decoration-style:solid;text-decoration-color:#000000;letter-spacing:normal;word-spacing:normal;text-transform:none;writing-mode:lr-tb;direction:ltr;text-orientation:mixed;dominant-baseline:auto;baseline-shift:baseline;text-anchor:start;white-space:normal;shape-padding:0;shape-margin:0;inline-size:0;clip-rule:nonzero;display:inline;overflow:visible;visibility:visible;isolation:isolate;mix-blend-mode:normal;color-interpolation:sRGB;color-interpolation-filters:linearRGB;solid-color:#000000;solid-opacity:1;vector-effect:none;fill:#444145;fill-opacity:1;fill-rule:nonzero;stroke:none;stroke-linecap:round;stroke-linejoin:round;stroke-miterlimit:4;stroke-dasharray:none;stroke-dashoffset:0;stroke-opacity:1;color-rendering:auto;image-rendering:auto;shape-rendering:auto;text-rendering:auto;enable-background:accumulate;stop-color:#000000"
       d="m 32.48633,13.25003 a 3.0003,3.0003 0 0 0 -2.23438,0.99805 L 26.76367,18.1387 H 7.01758 C 3.72837,18.1387 1,20.88689 1,24.16995 v 33.04883 c 0,3.28306 2.72837,6.03125 6.01758,6.03125 H 56.98047 C 60.26968,63.25003 63,60.50188 63,57.21878 v -22 -11.04883 -4.88867 c 0,-3.2831 -2.73032,-6.03125 -6.01953,-6.03125 h -5.01563 -8.42382 z m 24.52539,5.98828 c -0.002,-0.002 -0.0117,0.005 -0.0117,0.043 v 4.88867 11.04883 22 c 0,0.0754 0.0365,0.0312 -0.0195,0.0312 H 7.01763 c -0.056,0 -0.0176,0.0442 -0.0176,-0.0312 V 24.16998 c 0,-0.0754 -0.0384,-0.0312 0.0176,-0.0312 h 21.08594 a 3.0003,3.0003 0 0 0 2.23437,-0.99804 l 3.48823,-3.89063 h 9.71485 8.42382 5.01563 c 0.028,0 0.0334,-0.0101 0.0312,-0.0117 z" />
    <path
       id="rect880-1-74-4-2-3-0-3"
       style="isolation:isolate;fill:#bebabf;fill-opacity:1;stroke:none;stroke-width:0.609904;stroke-miterlimit:4;stroke-dasharray:none;stroke-opacity:1"
       d="m 32.48696,16.25009 -4.38261,4.88889 H 7.01919 C 5.3466,21.13898 4,22.49095 4,24.17019 v 33.04869 c 0,1.67924 1.3466,3.03121 3.01919,3.03121 H 56.98077 C 58.65337,60.25009 60,58.89812 60,57.21888 V 35.21936 24.17019 19.2813 c 0,-1.67924 -1.34663,-3.03121 -3.01923,-3.03121 h -5.01555 -8.42429 z" />
    <path
       id="rect4307-0-2-6-35-2-1-0-8-2"
       style="opacity:0.25;fill:#343135;fill-opacity:1;stroke:none;stroke-width:0;stroke-linecap:round;stroke-linejoin:round;stroke-miterlimit:4;stroke-dasharray:none;stroke-dashoffset:2.1875;stroke-opacity:1"
       d="m 30.5,27.75 c -0.554,0 -1,0.446 -1,1 V 39.5 H 18.75 c -0.554,0 -1,0.446 -1,1.0001 V 43.5 c 0,0.554 0.446,1 1,1 H 29.5 v 10.7501 c 0,0.554 0.446,0.9999 1,0.9999 h 3 c 0.554,0 1,-0.4459 1,-0.9999 V 44.5 h 10.75 c 0.554,0 1,-0.446 1,-1 V 40.5001 C 46.25,39.946 45.804,39.5 45.25,39.5 H 34.5 V 28.75 c 0,-0.554 -0.446,-1 -1,-1 z" />
    <path
       id="rect4307-0-2-6-35-2-1-5-9"
       style="fill:url(#linearGradient1739);fill-opacity:1;stroke:none;stroke-width:0;stroke-linecap:round;stroke-linejoin:round;stroke-miterlimit:4;stroke-dasharray:none;stroke-dashoffset:2.1875;stroke-opacity:1"
       d="m 30.5,25.75 c -0.554,0 -1,0.446 -1,1 V 37.5 H 18.75 c -0.554,0 -1,0.446 -1,1.0001 V 41.5 c 0,0.554 0.446,1 1,1 H 29.5 v 10.7501 c 0,0.554 0.446,0.9999 1,0.9999 h 3 c 0.554,0 1,-0.4459 1,-0.9999 V 42.5 h 10.75 c 0.554,0 1,-0.446 1,-1 V 38.5001 C 46.25,37.946 45.804,37.5 45.25,37.5 H 34.5 V 26.75 c 0,-0.554 -0.446,-1 -1,-1 z" />
    <path
       id="rect4307-0-2-9-9-1-5-3-6-8-1"
       style="color:#000000;font-style:normal;font-variant:normal;font-weight:normal;font-stretch:normal;font-size:medium;line-height:normal;font-family:sans-serif;font-variant-ligatures:normal;font-variant-position:normal;font-variant-caps:normal;font-variant-numeric:normal;font-variant-alternates:normal;font-variant-east-asian:normal;font-feature-settings:normal;font-variation-settings:normal;text-indent:0;text-align:start;text-decoration:none;text-decoration-line:none;text-decoration-style:solid;text-decoration-color:#000000;letter-spacing:normal;word-spacing:normal;text-transform:none;writing-mode:lr-tb;direction:ltr;text-orientation:mixed;dominant-baseline:auto;baseline-shift:baseline;text-anchor:start;white-space:normal;shape-padding:0;shape-margin:0;inline-size:0;clip-rule:nonzero;display:inline;overflow:visible;visibility:visible;isolation:auto;mix-blend-mode:normal;color-interpolation:sRGB;color-interpolation-filters:linearRGB;solid-color:#000000;solid-opacity:1;vector-effect:none;fill:#0a5c4a;fill-opacity:1;fill-rule:nonzero;stroke:none;stroke-width:3.77953;stroke-linecap:round;stroke-linejoin:round;stroke-miterlimit:4;stroke-dasharray:none;stroke-dashoffset:2.1875;stroke-opacity:1;color-rendering:auto;image-rendering:auto;shape-rendering:auto;text-rendering:auto;enable-background:accumulate;stop-color:#000000"
       d="m 30.50195,25 c -0.95652,0 -1.75,0.7915 -1.75,1.7481 V 36.752 H 18.75 C 17.79347,36.752 17,37.5435 17,38.5 v 2.9981 c 0,0.9565 0.79347,1.75 1.75,1.75 h 10.00195 v 10.002 c 0,0.9565 0.79348,1.75 1.75,1.75 h 2.9961 c 0.95652,0 1.75,-0.7935 1.75,-1.75 V 43.2481 H 45.25 c 0.95653,0 1.75,-0.7935 1.75,-1.75 V 38.5 c 0,-0.9565 -0.79347,-1.748 -1.75,-1.748 H 35.24805 V 26.7481 c 0,-0.9566 -0.79348,-1.7481 -1.75,-1.7481 z m 0,1.4981 h 2.9961 c 0.15148,0 0.25194,0.099 0.25194,0.2498 v 10.748 a 0.75007497,0.75007497 0 0 0 0.75195,0.7539 H 45.25 c 0.15148,0 0.25194,0.099 0.25194,0.2499 v 2.998 c 0,0.1516 -0.10046,0.2499 -0.25194,0.2499 H 34.50194 a 0.75007497,0.75007497 0 0 0 -0.75195,0.7539 v 10.748 c 0,0.1516 -0.10046,0.2498 -0.25194,0.2498 h -2.9961 c -0.15148,0 -0.25194,-0.099 -0.25194,-0.2498 v -10.748 a 0.75007497,0.75007497 0 0 0 -0.7461,-0.7539 h -10.7539 c -0.15148,0 -0.25194,-0.099 -0.25194,-0.2499 v -2.998 c 0,-0.1516 0.10046,-0.2499 0.25194,-0.2499 h 10.7539 A 0.75007497,0.75007497 0 0 0 30.25,37.4959 v -10.748 c 0,-0.1515 0.10046,-0.2498 0.25194,-0.2498 z" />
  </g>
</svg>
