<?xml version="1.0" encoding="UTF-8" standalone="no"?>
<svg
   xmlns:dc="http://purl.org/dc/elements/1.1/"
   xmlns:cc="http://creativecommons.org/ns#"
   xmlns:rdf="http://www.w3.org/1999/02/22-rdf-syntax-ns#"
   xmlns:svg="http://www.w3.org/2000/svg"
   xmlns="http://www.w3.org/2000/svg"
   xmlns:sodipodi="http://sodipodi.sourceforge.net/DTD/sodipodi-0.dtd"
   xmlns:inkscape="http://www.inkscape.org/namespaces/inkscape"
   width="64"
   height="64"
   viewBox="0 0 64 64"
   version="1.1"
   id="svg6374"
   inkscape:version="1.0.2 (e86c870879, 2021-01-15)"
   sodipodi:docname="gtk-properties.svg">
  <defs
     id="defs6368" />
  <sodipodi:namedview
     id="base"
     pagecolor="#cecece"
     bordercolor="#666666"
     borderopacity="1.0"
     inkscape:pageopacity="0"
     inkscape:pageshadow="2"
     inkscape:zoom="6.8818909"
     inkscape:cx="20.896034"
     inkscape:cy="43.433357"
     inkscape:document-units="px"
     inkscape:current-layer="layer1"
     inkscape:document-rotation="0"
     showgrid="false"
     units="px"
     inkscape:window-width="1500"
     inkscape:window-height="970"
     inkscape:window-x="68"
     inkscape:window-y="56"
     inkscape:window-maximized="0" />
  <metadata
     id="metadata6371">
    <rdf:RDF>
      <cc:Work
         rdf:about="">
        <dc:format>image/svg+xml</dc:format>
        <dc:type
           rdf:resource="http://purl.org/dc/dcmitype/StillImage" />
        <dc:title></dc:title>
      </cc:Work>
    </rdf:RDF>
  </metadata>
  <g
     inkscape:label="Layer 1"
     inkscape:groupmode="layer"
     id="layer1">
    <path
       id="rect1649-7-15-4-62-93-7"
       style="display:inline;opacity:0.15;fill:#0c0c10;fill-opacity:1;stroke-width:0.906739;stroke-linecap:round;stroke-linejoin:round;stroke-dashoffset:2.1875;stroke-opacity:0.74902"
       d="m 9.0563746,50.762202 a 5.7981688,5.8080904 0 0 1 -2.163,-2.149416 5.7981688,5.8080904 0 0 1 2.12267,-7.933405 5.7981688,5.8080904 0 0 1 6.5790294,0.542512 l 10.68392,-6.179009 a 5.7981688,5.8080904 0 0 1 -0.0771,-0.951153 5.7981688,5.8080904 0 0 1 0.0788,-0.949013 l -10.68538,-6.179779 a 5.7981688,5.8080904 0 0 1 -6.5799394,0.543762 5.7981688,5.8080904 0 0 1 -2.12239,-7.934474 5.7981688,5.8080904 0 0 1 7.9209294,-2.126027 5.7981688,5.8080904 0 0 1 2.81981,5.980069 l 10.6854,6.179708 a 5.7981688,5.8080904 0 0 1 1.64087,-0.950332 V 16.296207 a 5.7981688,5.8080904 0 0 1 -3.75848,-5.436107 5.7981688,5.8080904 0 0 1 5.79737,-5.8080876 5.7981688,5.8080904 0 0 1 5.79825,5.8072476 5.7981688,5.8080904 0 0 1 -3.75922,5.437557 v 12.359448 a 5.7981688,5.8080904 0 0 1 1.64279,0.950072 l 10.6863,-6.179718 a 5.7981688,5.8080904 0 0 1 2.8199,-5.980789 5.7981688,5.8080904 0 0 1 7.91976,2.126397 5.7981688,5.8080904 0 0 1 -2.12268,7.933294 5.7981688,5.8080904 0 0 1 -6.57901,-0.542492 l -10.68484,6.180619 a 5.7981688,5.8080904 0 0 1 0.078,0.949613 5.7981688,5.8080904 0 0 1 -0.0788,0.949013 l 10.68538,6.179799 a 5.7981688,5.8080904 0 0 1 6.57992,-0.543872 5.7981688,5.8080904 0 0 1 2.12241,7.934485 5.7981688,5.8080904 0 0 1 -7.92094,2.126036 5.7981688,5.8080904 0 0 1 -2.81984,-5.979988 l -10.68539,-6.179819 a 5.7981688,5.8080904 0 0 1 -1.6424,0.949473 l 6.1e-4,12.360338 a 5.7981688,5.8080904 0 0 1 3.7585,5.436176 5.7981688,5.8080904 0 0 1 -5.79733,5.808098 5.7981688,5.8080904 0 0 1 -5.7983,-5.807258 5.7981688,5.8080904 0 0 1 3.75923,-5.437556 l -5.4e-4,-12.360358 a 5.7981688,5.8080904 0 0 1 -1.63971,-0.948253 l -10.68722,6.181169 a 5.7981688,5.8080904 0 0 1 -2.82052,5.978328 5.7981688,5.8080904 0 0 1 -5.7567494,0.0244 z" />
    <path
       id="rect1649-7-15-4-62-93"
       style="display:inline;fill:#f1f0f1;fill-opacity:1;stroke-width:0.906739;stroke-linecap:round;stroke-linejoin:round;stroke-dashoffset:2.1875;stroke-opacity:0.74902"
       d="m 9.0565583,47.762543 a 5.7981688,5.8080904 0 0 1 -2.163,-2.149417 5.7981688,5.8080904 0 0 1 2.12267,-7.933414 5.7981688,5.8080904 0 0 1 6.5790297,0.542512 l 10.68392,-6.179009 a 5.7981688,5.8080904 0 0 1 -0.0771,-0.951143 5.7981688,5.8080904 0 0 1 0.0788,-0.949013 L 15.595488,23.96328 a 5.7981688,5.8080904 0 0 1 -6.5799397,0.543752 5.7981688,5.8080904 0 0 1 -2.12239,-7.934464 5.7981688,5.8080904 0 0 1 7.9209297,-2.126037 5.7981688,5.8080904 0 0 1 2.81981,5.980068 l 10.6854,6.179719 a 5.7981688,5.8080904 0 0 1 1.64087,-0.950343 V 13.296548 a 5.7981688,5.8080904 0 0 1 -3.75848,-5.436117 5.7981688,5.8080904 0 0 1 5.79737,-5.8080778 5.7981688,5.8080904 0 0 1 5.79825,5.8072378 5.7981688,5.8080904 0 0 1 -3.75922,5.437567 v 12.359437 a 5.7981688,5.8080904 0 0 1 1.64279,0.950073 l 10.6863,-6.179709 a 5.7981688,5.8080904 0 0 1 2.8199,-5.980798 5.7981688,5.8080904 0 0 1 7.91976,2.126407 5.7981688,5.8080904 0 0 1 -2.12268,7.933294 5.7981688,5.8080904 0 0 1 -6.57901,-0.542502 l -10.68484,6.180629 a 5.7981688,5.8080904 0 0 1 0.078,0.949613 5.7981688,5.8080904 0 0 1 -0.0788,0.949013 l 10.68538,6.179799 a 5.7981688,5.8080904 0 0 1 6.57992,-0.543872 5.7981688,5.8080904 0 0 1 2.12241,7.934484 5.7981688,5.8080904 0 0 1 -7.92094,2.126037 5.7981688,5.8080904 0 0 1 -2.81984,-5.979988 l -10.68539,-6.179819 a 5.7981688,5.8080904 0 0 1 -1.6424,0.949463 l 6.1e-4,12.360347 a 5.7981688,5.8080904 0 0 1 3.7585,5.436177 5.7981688,5.8080904 0 0 1 -5.79733,5.808098 5.7981688,5.8080904 0 0 1 -5.7983,-5.807258 5.7981688,5.8080904 0 0 1 3.75923,-5.437557 l -5.4e-4,-12.360357 a 5.7981688,5.8080904 0 0 1 -1.63971,-0.948253 l -10.68722,6.181159 a 5.7981688,5.8080904 0 0 1 -2.82052,5.978338 5.7981688,5.8080904 0 0 1 -5.7567497,0.0244 z" />
    <path
       id="rect1649-7-15-4-6-5-6"
       style="color:#000000;font-style:normal;font-variant:normal;font-weight:normal;font-stretch:normal;font-size:medium;line-height:normal;font-family:sans-serif;font-variant-ligatures:normal;font-variant-position:normal;font-variant-caps:normal;font-variant-numeric:normal;font-variant-alternates:normal;font-variant-east-asian:normal;font-feature-settings:normal;font-variation-settings:normal;text-indent:0;text-align:start;text-decoration:none;text-decoration-line:none;text-decoration-style:solid;text-decoration-color:#000000;letter-spacing:normal;word-spacing:normal;text-transform:none;writing-mode:lr-tb;direction:ltr;text-orientation:mixed;dominant-baseline:auto;baseline-shift:baseline;text-anchor:start;white-space:normal;shape-padding:0;shape-margin:0;inline-size:0;clip-rule:nonzero;display:inline;overflow:visible;visibility:visible;opacity:0.85;isolation:auto;mix-blend-mode:normal;color-interpolation:sRGB;color-interpolation-filters:linearRGB;solid-color:#000000;solid-opacity:1;vector-effect:none;fill:#161817;fill-opacity:1;fill-rule:nonzero;stroke:none;stroke-width:3.98789;stroke-linecap:round;stroke-linejoin:round;stroke-miterlimit:4;stroke-dasharray:none;stroke-dashoffset:2.1875;stroke-opacity:1;color-rendering:auto;image-rendering:auto;shape-rendering:auto;text-rendering:auto;enable-background:accumulate;stop-color:#000000"
       d="m 31.996078,1.00016 c -3.77183,5.2e-4 -6.84866,3.0818294 -6.84866,6.859801 3.2e-4,2.551538 1.55472,4.702744 3.75996,5.884248 v 11.318865 c -0.19648,0.10135 -0.39075,0.208 -0.57654,0.327921 l -9.77469,-5.651178 c 0.0842,-2.506457 -1.00613,-4.928405 -3.21433,-6.205999 -3.26697,-1.889515 -7.4768097,-0.762482 -9.3628697,2.510038 -1.88646,3.27229 -0.76125,7.488953 2.50595,9.378079 2.2080597,1.276264 4.8495497,1.005443 6.9742797,-0.319681 l 9.71912,5.620237 c -0.007,0.12239 -0.0306,0.244461 -0.0311,0.367101 -1.6e-4,0.1229 0.0244,0.242401 0.0311,0.365071 l -9.71292,5.628507 c -2.12595,-1.329334 -4.77005,-1.597535 -6.9804797,-0.319701 -3.26656,1.888996 -4.3915,6.105979 -2.50595,9.378079 0.51926,0.901013 1.31639,1.578505 2.17239,2.159417 0.003,0.002 0.005,0.007 0.008,0.008 a 1.0543807,1.0560941 0 0 0 0.35003,0.356811 1.0543807,1.0560941 0 0 0 0.0227,0.0168 c 2.1114697,1.197673 4.7082597,1.184533 6.8095597,-0.0311 2.20777,-1.277134 3.29773,-3.700072 3.2143,-6.205989 l 9.77467,-5.659448 c 0.18642,0.120371 0.37935,0.226161 0.57655,0.327911 v 11.318875 c -2.20597,1.181654 -3.76014,3.3402 -3.75994,5.892498 5.2e-4,3.778022 3.07678,6.859871 6.84865,6.859811 3.77184,-5.3e-4 6.85691,-3.081839 6.85691,-6.859811 -3e-4,-2.551578 -1.5547,-4.710944 -3.75997,-5.892498 V 37.11435 c 0.19751,-0.10185 0.3898,-0.2073 0.57655,-0.327911 l 9.77451,5.659698 c -0.0818,2.504047 1.00807,4.929515 3.21433,6.205999 3.26697,1.889495 7.4768,0.762472 9.36287,-2.510058 1.88644,-3.27229 0.76125,-7.488933 -2.50596,-9.378059 -2.20835,-1.276424 -4.85562,-1.014213 -6.98048,0.311411 l -9.71289,-5.611987 c 0.007,-0.12323 0.0306,-0.243581 0.0306,-0.367121 a 1.0543807,1.0560941 0 0 0 0,-0.007 c 0,-0.12273 -0.0244,-0.244681 -0.0306,-0.367101 l 9.71908,-5.620257 c 2.12389,1.321014 4.76863,1.594775 6.97429,0.319681 3.26651,-1.888976 4.3914,-6.105989 2.50596,-9.378079 -1.88591,-3.27186 -6.09609,-4.398543 -9.36287,-2.510038 -2.20853,1.277684 -3.29881,3.699242 -3.21433,6.205999 l -9.78293,5.651348 c -0.18468,-0.119031 -0.37308,-0.227221 -0.56833,-0.327931 V 13.744039 c 2.206,-1.181614 3.76017,-3.33193 3.76,-5.884228 C 38.852058,4.0817894 35.767568,0.99995 31.995678,1 Z m 0,2.1037264 c 2.63244,-3e-5 4.74799,2.1193665 4.74836,4.7560746 1.5e-4,1.983426 -1.22053,3.753341 -3.07428,4.450824 a 1.0543807,1.0560941 0 0 0 -0.68569,0.981753 v 12.362477 a 1.0543807,1.0560941 0 0 0 0.68569,0.989983 c 0.48763,0.183461 0.93602,0.442182 1.33843,0.773443 a 1.0543807,1.0560941 0 0 0 1.19843,0.10101 l 10.68482,-6.183299 a 1.0543807,1.0560941 0 0 0 0.51479,-1.082803 c -0.32435,-1.956726 0.59554,-3.902212 2.31033,-4.894275 2.27993,-1.318014 5.1598,-0.546832 6.47597,1.736605 1.3159,2.283607 0.54387,5.176416 -1.73584,6.49474 -1.71457,0.991193 -3.85704,0.813213 -5.38668,-0.445481 a 1.0543807,1.0560941 0 0 0 -1.19019,-0.101011 l -10.68482,6.181249 a 1.0543807,1.0560941 0 0 0 -0.5148,1.091054 c 0.0424,0.25678 0.064,0.513131 0.064,0.773432 -2.4e-4,0.260151 -0.021,0.523002 -0.064,0.779602 a 1.0543807,1.0560941 0 0 0 0.5148,1.082794 l 10.68482,6.181269 a 1.0543807,1.0560941 0 0 0 1.19019,-0.0928 c 1.52956,-1.259384 3.67172,-1.442914 5.38668,-0.451671 2.28023,1.318444 3.05243,4.208903 1.73584,6.49266 -1.31629,2.283937 -4.19589,3.057399 -6.47597,1.738675 -1.7145,-0.991933 -2.63443,-2.931589 -2.31033,-4.888055 a 1.0543807,1.0560941 0 0 0 -0.51479,-1.091053 l -10.68482,-6.175069 a 1.0543807,1.0560941 0 0 0 -1.19843,0.0948 c -0.40236,0.331081 -0.85094,0.596322 -1.33843,0.779633 a 1.0543807,1.0560941 0 0 0 -0.68569,0.989973 v 12.354257 a 1.0543807,1.0560941 0 0 0 0.68569,0.989973 c 1.85313,0.697543 3.07406,2.467958 3.07428,4.450824 0,2.636678 -2.11595,4.747455 -4.74836,4.747825 -2.63243,5e-5 -4.73973,-2.111117 -4.74012,-4.747825 -1.5e-4,-1.983446 1.22053,-3.753331 3.0743,-4.450824 a 1.0543807,1.0560941 0 0 0 0.68567,-0.989973 V 36.530419 a 1.0543807,1.0560941 0 0 0 -0.68567,-0.989973 c -0.48667,-0.183261 -0.9367,-0.449122 -1.33845,-0.779633 a 1.0543807,1.0560941 0 0 0 -1.19841,-0.0948 l -10.68485,6.183319 a 1.0543807,1.0560941 0 0 0 -0.5127,1.082803 c 0.32334,1.956166 -0.59818,3.896472 -2.3124,4.888055 -1.45712,0.842873 -3.24506,0.853223 -4.7092397,0.0227 -0.73595,-0.417711 -1.35003,-1.027553 -1.77291,-1.761345 -1.31595,-2.283617 -0.53774,-5.168146 1.74202,-6.48649 1.7145697,-0.991193 3.8487997,-0.813213 5.3784397,0.445491 a 1.0543807,1.0560941 0 0 0 1.19843,0.0928 l 10.68483,-6.173009 a 1.0543807,1.0560941 0 0 0 0.51478,-1.091054 c -0.0423,-0.25722 -0.0641,-0.518901 -0.0638,-0.779592 2.6e-4,-0.260171 0.0211,-0.516862 0.0638,-0.773442 a 1.0543807,1.0560941 0 0 0 -0.51478,-1.091134 l -10.68483,-6.181249 a 1.0543807,1.0560941 0 0 0 -1.19843,0.101011 c -1.52957,1.259364 -3.66349,1.436754 -5.3784397,0.445471 -2.28022,-1.318414 -3.05861,-4.210953 -1.74202,-6.49473 1.31631,-2.283917 4.2020897,-3.055329 6.4821497,-1.736585 1.71454,0.991973 2.63651,2.937749 2.3124,4.894255 a 1.0543807,1.0560941 0 0 0 0.5127,1.082813 l 10.68485,6.183289 a 1.0543807,1.0560941 0 0 0 1.19222,-0.10101 c 0.40193,-0.331201 0.85751,-0.589782 1.34464,-0.773443 a 1.0543807,1.0560941 0 0 0 0.68567,-0.989983 V 13.292478 a 1.0543807,1.0560941 0 0 0 -0.68567,-0.981753 c -1.85313,-0.697533 -3.07403,-2.467978 -3.0743,-4.450824 0,-2.6366781 2.10772,-4.7556846 4.74012,-4.7560746 z" />
  </g>
</svg>
