<?xml version="1.0" encoding="UTF-8" standalone="no"?>
<svg
   xmlns:dc="http://purl.org/dc/elements/1.1/"
   xmlns:cc="http://creativecommons.org/ns#"
   xmlns:rdf="http://www.w3.org/1999/02/22-rdf-syntax-ns#"
   xmlns:svg="http://www.w3.org/2000/svg"
   xmlns="http://www.w3.org/2000/svg"
   xmlns:xlink="http://www.w3.org/1999/xlink"
   xmlns:sodipodi="http://sodipodi.sourceforge.net/DTD/sodipodi-0.dtd"
   xmlns:inkscape="http://www.inkscape.org/namespaces/inkscape"
   width="64"
   height="64"
   viewBox="0 0 64 64"
   version="1.1"
   id="svg6374"
   inkscape:version="1.0.2 (e86c870879, 2021-01-15)"
   sodipodi:docname="system-shutdown.svg">
  <defs
     id="defs6368">
    <linearGradient
       inkscape:collect="always"
       xlink:href="#linearGradient1791"
       id="linearGradient1733"
       gradientUnits="userSpaceOnUse"
       gradientTransform="matrix(3.7795275,0,0,3.7795275,1,1)"
       x1="8.1944265"
       y1="1.0125455"
       x2="8.2493715"
       y2="15.385565" />
    <linearGradient
       inkscape:collect="always"
       id="linearGradient1791">
      <stop
         style="stop-color:#db71c0;stop-opacity:1"
         offset="0"
         id="stop1787" />
      <stop
         style="stop-color:#d350b2;stop-opacity:1"
         offset="1"
         id="stop1789" />
    </linearGradient>
  </defs>
  <sodipodi:namedview
     id="base"
     pagecolor="#cecece"
     bordercolor="#666666"
     borderopacity="1.0"
     inkscape:pageopacity="0"
     inkscape:pageshadow="2"
     inkscape:zoom="3.4015893"
     inkscape:cx="-45.21797"
     inkscape:cy="28.671913"
     inkscape:document-units="px"
     inkscape:current-layer="layer1"
     inkscape:document-rotation="0"
     showgrid="false"
     units="px"
     inkscape:window-width="2048"
     inkscape:window-height="1080"
     inkscape:window-x="0"
     inkscape:window-y="0"
     inkscape:window-maximized="1" />
  <metadata
     id="metadata6371">
    <rdf:RDF>
      <cc:Work
         rdf:about="">
        <dc:format>image/svg+xml</dc:format>
        <dc:type
           rdf:resource="http://purl.org/dc/dcmitype/StillImage" />
        <dc:title />
      </cc:Work>
    </rdf:RDF>
  </metadata>
  <g
     inkscape:label="Layer 1"
     inkscape:groupmode="layer"
     id="layer1">
    <path
       id="rect831-360-6-7-9-7-1"
       style="color:#000000;font-style:normal;font-variant:normal;font-weight:normal;font-stretch:normal;font-size:medium;line-height:normal;font-family:sans-serif;font-variant-ligatures:normal;font-variant-position:normal;font-variant-caps:normal;font-variant-numeric:normal;font-variant-alternates:normal;font-variant-east-asian:normal;font-feature-settings:normal;font-variation-settings:normal;text-indent:0;text-align:start;text-decoration:none;text-decoration-line:none;text-decoration-style:solid;text-decoration-color:#000000;letter-spacing:normal;word-spacing:normal;text-transform:none;writing-mode:lr-tb;direction:ltr;text-orientation:mixed;dominant-baseline:auto;baseline-shift:baseline;text-anchor:start;white-space:normal;shape-padding:0;shape-margin:0;inline-size:0;clip-rule:nonzero;display:inline;overflow:visible;visibility:visible;opacity:0.15;isolation:auto;mix-blend-mode:normal;color-interpolation:sRGB;color-interpolation-filters:linearRGB;solid-color:#000000;solid-opacity:1;vector-effect:none;fill:#0c0c0c;fill-opacity:1;fill-rule:nonzero;stroke:none;stroke-width:0;stroke-linecap:round;stroke-linejoin:round;stroke-miterlimit:4;stroke-dasharray:none;stroke-dashoffset:2.1875;stroke-opacity:1;color-rendering:auto;image-rendering:auto;shape-rendering:auto;text-rendering:auto;enable-background:accumulate;stop-color:#000000"
       d="M 10.00346,5 C 6.42865,5 3.5,7.92124 3.5,11.49654 V 55.50346 C 3.5,59.07876 6.42865,62 10.00346,62 H 53.99654 C 57.57135,62 60.5,59.07876 60.5,55.50346 V 11.49654 C 60.5,7.92124 57.57135,5 53.99654,5 Z m 0,2.99825 h 43.99308 c 1.96481,0 3.50562,1.53321 3.50562,3.49829 v 44.00692 c 0,1.96508 -1.54081,3.50024 -3.50562,3.50024 H 10.00346 c -1.96481,0 -3.49781,-1.53516 -3.49781,-3.50024 V 11.49654 c 0,-1.96508 1.533,-3.49829 3.49781,-3.49829 z" />
    <path
       id="rect831-360-6-5-2"
       style="color:#000000;font-style:normal;font-variant:normal;font-weight:normal;font-stretch:normal;font-size:medium;line-height:normal;font-family:sans-serif;font-variant-ligatures:normal;font-variant-position:normal;font-variant-caps:normal;font-variant-numeric:normal;font-variant-alternates:normal;font-variant-east-asian:normal;font-feature-settings:normal;font-variation-settings:normal;text-indent:0;text-align:start;text-decoration:none;text-decoration-line:none;text-decoration-style:solid;text-decoration-color:#000000;letter-spacing:normal;word-spacing:normal;text-transform:none;writing-mode:lr-tb;direction:ltr;text-orientation:mixed;dominant-baseline:auto;baseline-shift:baseline;text-anchor:start;white-space:normal;shape-padding:0;shape-margin:0;inline-size:0;clip-rule:nonzero;display:inline;overflow:visible;visibility:visible;opacity:0.85;isolation:auto;mix-blend-mode:normal;color-interpolation:sRGB;color-interpolation-filters:linearRGB;solid-color:#000000;solid-opacity:1;vector-effect:none;fill:#922577;fill-opacity:1;fill-rule:nonzero;stroke:none;stroke-width:0;stroke-linecap:round;stroke-linejoin:round;stroke-miterlimit:4;stroke-dasharray:none;stroke-dashoffset:2.1875;stroke-opacity:1;color-rendering:auto;image-rendering:auto;shape-rendering:auto;text-rendering:auto;enable-background:accumulate;stop-color:#000000"
       d="M 10.00346,3.5 C 6.42865,3.5 3.5,6.42124 3.5,9.99654 V 54.00346 C 3.5,57.57876 6.42865,60.5 10.00346,60.5 H 53.99654 C 57.57135,60.5 60.5,57.57876 60.5,54.00346 V 9.99654 C 60.5,6.42124 57.57135,3.5 53.99654,3.5 Z m 0,2.99825 h 43.99308 c 1.96481,0 3.50562,1.53321 3.50562,3.49829 v 44.00692 c 0,1.96508 -1.54081,3.50024 -3.50562,3.50024 H 10.00346 c -1.96481,0 -3.49781,-1.53516 -3.49781,-3.50024 V 9.99654 c 0,-1.96508 1.533,-3.49829 3.49781,-3.49829 z" />
    <rect
       style="fill:url(#linearGradient1733);fill-opacity:1;stroke-width:0;stroke-linecap:round;stroke-linejoin:round;stroke-dashoffset:2.1875"
       id="rect831-9-7"
       width="54"
       height="54"
       x="4.9999995"
       y="5.0000005"
       rx="5"
       ry="5" />
    <path
       id="rect831-360-6-7-7-0"
       style="color:#000000;font-style:normal;font-variant:normal;font-weight:normal;font-stretch:normal;font-size:medium;line-height:normal;font-family:sans-serif;font-variant-ligatures:normal;font-variant-position:normal;font-variant-caps:normal;font-variant-numeric:normal;font-variant-alternates:normal;font-variant-east-asian:normal;font-feature-settings:normal;font-variation-settings:normal;text-indent:0;text-align:start;text-decoration:none;text-decoration-line:none;text-decoration-style:solid;text-decoration-color:#000000;letter-spacing:normal;word-spacing:normal;text-transform:none;writing-mode:lr-tb;direction:ltr;text-orientation:mixed;dominant-baseline:auto;baseline-shift:baseline;text-anchor:start;white-space:normal;shape-padding:0;shape-margin:0;inline-size:0;clip-rule:nonzero;display:inline;overflow:visible;visibility:visible;opacity:0.15;isolation:auto;mix-blend-mode:normal;color-interpolation:sRGB;color-interpolation-filters:linearRGB;solid-color:#000000;solid-opacity:1;vector-effect:none;fill:#721d5c;fill-opacity:1;fill-rule:nonzero;stroke:none;stroke-width:0;stroke-linecap:round;stroke-linejoin:round;stroke-miterlimit:4;stroke-dasharray:none;stroke-dashoffset:2.1875;stroke-opacity:1;color-rendering:auto;image-rendering:auto;shape-rendering:auto;text-rendering:auto;enable-background:accumulate;stop-color:#000000"
       d="M 10.00346,3.5 C 6.42865,3.5 3.5,6.42124 3.5,9.99654 V 54.00346 C 3.5,57.57876 6.42865,60.5 10.00346,60.5 H 53.99654 C 57.57135,60.5 60.5,57.57876 60.5,54.00346 V 9.99654 C 60.5,6.42124 57.57135,3.5 53.99654,3.5 Z m 0,2.99825 h 43.99308 c 1.96481,0 3.50562,1.53321 3.50562,3.49829 v 44.00692 c 0,1.96508 -1.54081,3.50024 -3.50562,3.50024 H 10.00346 c -1.96482,0 -3.49781,-1.53516 -3.49781,-3.50024 V 9.99654 c 0,-1.96508 1.53299,-3.49829 3.49781,-3.49829 z" />
    <rect
       style="opacity:0.2;fill:#49133b;fill-opacity:1;stroke:none;stroke-width:1.5;stroke-linecap:round;stroke-linejoin:round;stroke-miterlimit:4;stroke-dasharray:none;stroke-opacity:1;paint-order:stroke fill markers"
       id="rect1845-3"
       width="5"
       height="20"
       x="29.500002"
       y="24.499998"
       rx="2.5"
       ry="2.5" />
    <path
       id="rect1845-2"
       style="color:#000000;font-style:normal;font-variant:normal;font-weight:normal;font-stretch:normal;font-size:medium;line-height:normal;font-family:sans-serif;font-variant-ligatures:normal;font-variant-position:normal;font-variant-caps:normal;font-variant-numeric:normal;font-variant-alternates:normal;font-variant-east-asian:normal;font-feature-settings:normal;font-variation-settings:normal;text-indent:0;text-align:start;text-decoration:none;text-decoration-line:none;text-decoration-style:solid;text-decoration-color:#000000;letter-spacing:normal;word-spacing:normal;text-transform:none;writing-mode:lr-tb;direction:ltr;text-orientation:mixed;dominant-baseline:auto;baseline-shift:baseline;text-anchor:start;white-space:normal;shape-padding:0;shape-margin:0;inline-size:0;clip-rule:nonzero;display:inline;overflow:visible;visibility:visible;opacity:0.85;isolation:auto;mix-blend-mode:normal;color-interpolation:sRGB;color-interpolation-filters:linearRGB;solid-color:#000000;solid-opacity:1;vector-effect:none;fill:#591748;fill-opacity:1;fill-rule:nonzero;stroke:none;stroke-linecap:round;stroke-linejoin:round;stroke-miterlimit:4;stroke-dasharray:none;stroke-dashoffset:0;stroke-opacity:1;paint-order:stroke fill markers;color-rendering:auto;image-rendering:auto;shape-rendering:auto;text-rendering:auto;enable-background:accumulate;stop-color:#000000"
       d="m 32,21.5 c -1.65335,0 -3,1.34664 -3,3 v 15 c 0,1.65335 1.34665,3 3,3 1.65335,0 3,-1.34665 3,-3 v -15 c 0,-1.65336 -1.34665,-3 -3,-3 z m 0,1 c 1.11665,0 2,0.88335 2,2 v 15 c 0,1.11664 -0.88335,2 -2,2 -1.11665,0 -2,-0.88336 -2,-2 v -15 c 0,-1.11665 0.88335,-2 2,-2 z" />
    <rect
       style="fill:#fbfcfd;fill-opacity:1;stroke:none;stroke-width:1.5;stroke-linecap:round;stroke-linejoin:round;stroke-miterlimit:4;stroke-dasharray:none;stroke-opacity:1;paint-order:stroke fill markers"
       id="rect1845"
       width="5"
       height="20"
       x="29.500002"
       y="21.999998"
       rx="2.5"
       ry="2.5" />
    <path
       id="path1848-9"
       style="color:#000000;font-style:normal;font-variant:normal;font-weight:normal;font-stretch:normal;font-size:medium;line-height:normal;font-family:sans-serif;font-variant-ligatures:normal;font-variant-position:normal;font-variant-caps:normal;font-variant-numeric:normal;font-variant-alternates:normal;font-variant-east-asian:normal;font-feature-settings:normal;font-variation-settings:normal;text-indent:0;text-align:start;text-decoration:none;text-decoration-line:none;text-decoration-style:solid;text-decoration-color:#000000;letter-spacing:normal;word-spacing:normal;text-transform:none;writing-mode:lr-tb;direction:ltr;text-orientation:mixed;dominant-baseline:auto;baseline-shift:baseline;text-anchor:start;white-space:normal;shape-padding:0;shape-margin:0;inline-size:0;clip-rule:nonzero;display:inline;overflow:visible;visibility:visible;opacity:0.85;isolation:auto;mix-blend-mode:normal;color-interpolation:sRGB;color-interpolation-filters:linearRGB;solid-color:#000000;solid-opacity:1;vector-effect:none;fill:#591749;fill-opacity:1;fill-rule:nonzero;stroke:none;stroke-linecap:round;stroke-linejoin:round;stroke-miterlimit:4;stroke-dasharray:none;stroke-dashoffset:0;stroke-opacity:1;paint-order:stroke fill markers;color-rendering:auto;image-rendering:auto;shape-rendering:auto;text-rendering:auto;enable-background:accumulate;stop-color:#000000"
       d="M 32,11.5 C 20.68408,11.5 11.5,20.68408 11.5,32 11.5,43.31591 20.68408,52.5 32,52.5 43.31591,52.5 52.5,43.31591 52.5,32 52.5,20.68408 43.31591,11.5 32,11.5 Z m 0,1 C 42.77547,12.5 51.5,21.22452 51.5,32 51.5,42.77547 42.77547,51.5 32,51.5 21.22452,51.5 12.5,42.77547 12.5,32 12.5,21.22452 21.22452,12.5 32,12.5 Z m -0.0488,3 a 0.50005,0.50005 0 0 0 -0.0762,0.008 c -9.05169,0.0686 -16.37504,7.43006 -16.375,16.49219 -10e-6,9.10677 7.39322,16.5 16.5,16.5 9.10678,0 16.5,-7.39323 16.5,-16.5 0,-9.10678 -7.39322,-16.5 -16.5,-16.5 -0.0114,-2e-5 -0.0218,-10e-6 -0.0332,0 a 0.50005,0.50005 0 0 0 -0.01,0 0.50005,0.50005 0 0 0 -0.002,0 c -10e-4,0 -0.003,-10e-6 -0.004,0 z m 0.006,1 h 0.002 c 0.0133,-2e-5 0.0278,-2e-5 0.041,0 8.56634,0 15.5,6.93366 15.5,15.5 0,8.56633 -6.93366,15.5 -15.5,15.5 -8.56634,0 -15.50001,-6.93367 -15.5,-15.5 -4e-5,-8.5494 6.90792,-15.47597 15.45703,-15.5 z" />
    <path
       id="path1848-1"
       style="opacity:0.2;fill:#49133b;fill-opacity:1;stroke:none;stroke-width:1.5;stroke-linecap:round;stroke-linejoin:round;stroke-miterlimit:4;stroke-dasharray:none;stroke-opacity:1;paint-order:stroke fill markers"
       d="m 32,14.5 a 20,20 0 0 0 -20,20 20,20 0 0 0 20,20 20,20 0 0 0 20,-20 20,20 0 0 0 -20,-20 z m -0.043,4 a 16,15.999992 0 0 1 0.043,0 16,15.999992 0 0 1 16,16 16,15.999992 0 0 1 -16,16 16,15.999992 0 0 1 -16,-16 16,15.999992 0 0 1 15.95703,-16 z" />
    <path
       id="path1848"
       style="fill:#fbfcfd;fill-opacity:1;stroke:none;stroke-width:1.5;stroke-linecap:round;stroke-linejoin:round;stroke-miterlimit:4;stroke-dasharray:none;stroke-opacity:1;paint-order:stroke fill markers"
       d="M 32,12 A 20,20 0 0 0 12,32 20,20 0 0 0 32,52 20,20 0 0 0 52,32 20,20 0 0 0 32,12 Z m -0.043,4 A 16,15.999992 0 0 1 32,16 16,15.999992 0 0 1 48,32 16,15.999992 0 0 1 32,48 16,15.999992 0 0 1 16,32 16,15.999992 0 0 1 31.95703,16 Z" />
  </g>
</svg>
