<?xml version="1.0" encoding="UTF-8" standalone="no"?>
<svg
   xmlns:dc="http://purl.org/dc/elements/1.1/"
   xmlns:cc="http://creativecommons.org/ns#"
   xmlns:rdf="http://www.w3.org/1999/02/22-rdf-syntax-ns#"
   xmlns:svg="http://www.w3.org/2000/svg"
   xmlns="http://www.w3.org/2000/svg"
   xmlns:xlink="http://www.w3.org/1999/xlink"
   xmlns:sodipodi="http://sodipodi.sourceforge.net/DTD/sodipodi-0.dtd"
   xmlns:inkscape="http://www.inkscape.org/namespaces/inkscape"
   width="64"
   height="64"
   viewBox="0 0 64 64"
   version="1.1"
   id="svg6374"
   inkscape:version="1.0.2 (e86c870879, 2021-01-15)"
   sodipodi:docname="folder-publicshare.svg">
  <defs
     id="defs6368">
    <linearGradient
       inkscape:collect="always"
       xlink:href="#linearGradient1065"
       id="linearGradient2382"
       gradientUnits="userSpaceOnUse"
       gradientTransform="translate(-2e-6)"
       x1="33.48571"
       y1="4.0123987"
       x2="33.594517"
       y2="23.910183" />
    <linearGradient
       inkscape:collect="always"
       id="linearGradient1065">
      <stop
         style="stop-color:#4aabab;stop-opacity:1"
         offset="0"
         id="stop1061" />
      <stop
         style="stop-color:#489292;stop-opacity:1"
         offset="1"
         id="stop1063" />
    </linearGradient>
    <linearGradient
       inkscape:collect="always"
       xlink:href="#linearGradient1071"
       id="linearGradient2384"
       gradientUnits="userSpaceOnUse"
       gradientTransform="translate(-5.707032,-71.2207)"
       x1="38.194393"
       y1="86.220306"
       x2="37.853539"
       y2="130.25267" />
    <linearGradient
       inkscape:collect="always"
       id="linearGradient1071">
      <stop
         style="stop-color:#73c4c4;stop-opacity:1"
         offset="0"
         id="stop1067" />
      <stop
         style="stop-color:#417878;stop-opacity:1"
         offset="1"
         id="stop1069" />
    </linearGradient>
  </defs>
  <sodipodi:namedview
     id="base"
     pagecolor="#cecece"
     bordercolor="#666666"
     borderopacity="1.0"
     inkscape:pageopacity="0"
     inkscape:pageshadow="2"
     inkscape:zoom="5.5639287"
     inkscape:cx="51.388888"
     inkscape:cy="29.73153"
     inkscape:document-units="px"
     inkscape:current-layer="layer1"
     inkscape:document-rotation="0"
     showgrid="false"
     units="px"
     inkscape:window-width="1368"
     inkscape:window-height="846"
     inkscape:window-x="68"
     inkscape:window-y="56"
     inkscape:window-maximized="0" />
  <metadata
     id="metadata6371">
    <rdf:RDF>
      <cc:Work
         rdf:about="">
        <dc:format>image/svg+xml</dc:format>
        <dc:type
           rdf:resource="http://purl.org/dc/dcmitype/StillImage" />
        <dc:title></dc:title>
      </cc:Work>
    </rdf:RDF>
  </metadata>
  <g
     inkscape:label="Layer 1"
     inkscape:groupmode="layer"
     id="layer1">
    <path
       id="rect1006-9-7-4-2-5-2"
       style="isolation:isolate;fill:#489292;fill-opacity:1;stroke:none;stroke-width:0.611371;stroke-miterlimit:4;stroke-dasharray:none;stroke-opacity:1"
       d="M 7.01922,4.5 C 5.34662,4.5 4,5.8576 4,7.5437 v 4.9091 0.049 15.9546 c 0,1.6861 1.34662,3.0437 3.01922,3.0437 H 56.98077 C 58.65337,31.5 60,30.1424 60,28.4563 V 12.4528 C 60,10.7667 58.65337,9.4091 56.98077,9.4091 H 28.5913 L 24.2087,4.5 H 20.45903 7.16522 Z" />
    <path
       id="rect1006-9-9-5-7-6-6-4"
       style="color:#000000;font-style:normal;font-variant:normal;font-weight:normal;font-stretch:normal;font-size:medium;line-height:normal;font-family:sans-serif;font-variant-ligatures:normal;font-variant-position:normal;font-variant-caps:normal;font-variant-numeric:normal;font-variant-alternates:normal;font-variant-east-asian:normal;font-feature-settings:normal;font-variation-settings:normal;text-indent:0;text-align:start;text-decoration:none;text-decoration-line:none;text-decoration-style:solid;text-decoration-color:#000000;letter-spacing:normal;word-spacing:normal;text-transform:none;writing-mode:lr-tb;direction:ltr;text-orientation:mixed;dominant-baseline:auto;baseline-shift:baseline;text-anchor:start;white-space:normal;shape-padding:0;shape-margin:0;inline-size:0;clip-rule:nonzero;display:inline;overflow:visible;visibility:visible;isolation:isolate;mix-blend-mode:normal;color-interpolation:sRGB;color-interpolation-filters:linearRGB;solid-color:#000000;solid-opacity:1;vector-effect:none;fill:url(#linearGradient2382);fill-opacity:1;fill-rule:nonzero;stroke:none;stroke-linecap:butt;stroke-linejoin:miter;stroke-miterlimit:4;stroke-dasharray:none;stroke-dashoffset:0;stroke-opacity:1;color-rendering:auto;image-rendering:auto;shape-rendering:auto;text-rendering:auto;enable-background:accumulate;stop-color:#000000"
       d="M 7.01953,4.125 C 5.14402,4.125 3.625,5.6571 3.625,7.543 v 4.9101 0.049 15.9551 c 0,1.8858 1.51902,3.418 3.39453,3.418 h 49.96094 c 1.87551,0 3.39453,-1.5322 3.39453,-3.418 V 12.4533 c 0,-1.8858 -1.51902,-3.4199 -3.39453,-3.4199 H 28.75977 L 24.37695,4.1252 H 20.45898 7.16602 Z m 0,0.75 h 0.14649 13.29296 3.58204 l 4.38281,4.9082 h 28.55664 c 1.46969,0 2.64453,1.1834 2.64453,2.6699 V 28.457 c 0,1.4866 -1.17484,2.668 -2.64453,2.668 H 7.01953 C 5.54984,31.125 4.375,29.9436 4.375,28.457 V 12.502 12.453 7.5428 c 0,-1.4865 1.17484,-2.668 2.64453,-2.668 z" />
    <path
       id="rect880-1-9-6-9-8-6-3-7"
       style="opacity:0.125;isolation:isolate;fill:#224444;fill-opacity:1;stroke:none;stroke-width:0.609903;stroke-miterlimit:4;stroke-dasharray:none;stroke-opacity:1"
       d="m 32.32031,13.5 -0.11133,0.125 -4.27148,4.7637 H 7.01953 c -1.87467,0 -3.39453,1.5265 -3.39453,3.4062 v 33.0489 c 0,1.8797 1.51986,3.4062 3.39453,3.4062 h 49.96094 c 1.87467,0 3.39453,-1.5265 3.39453,-3.4062 v -22 -11.0489 -4.8887 C 60.375,15.0265 58.85514,13.5 56.98047,13.5 h -5.01563 -8.42382 z" />
    <path
       id="rect880-1-9-2-4-4-9-7"
       style="opacity:0.15;isolation:isolate;fill:#224444;fill-opacity:1;stroke:none;stroke-width:0.609903;stroke-miterlimit:4;stroke-dasharray:none;stroke-opacity:1"
       d="M 32.32031,16.125 32.20898,16.25 27.9375,21.0137 H 7.01953 c -1.87467,0 -3.39453,1.5265 -3.39453,3.4062 v 33.0489 c 0,1.8797 1.51986,3.4062 3.39453,3.4062 h 49.96094 c 1.87467,0 3.39453,-1.5265 3.39453,-3.4062 v -22 -11.0489 -4.8887 c 0,-1.8797 -1.51986,-3.4062 -3.39453,-3.4062 h -5.01563 -8.42382 z" />
    <path
       id="rect880-1-28-5-9-4-5"
       style="isolation:isolate;fill:#4aabab;fill-opacity:1;stroke:none;stroke-width:0.609904;stroke-miterlimit:4;stroke-dasharray:none;stroke-opacity:1"
       d="m 32.48697,15 -4.38261,4.8889 H 7.0192 C 5.3466,19.8889 4,21.2409 4,22.9201 V 55.9688 C 4,57.648 5.3466,59 7.0192,59 H 56.98078 C 58.65338,59 60,57.648 60,55.9688 V 33.9693 22.9201 18.0312 C 60,16.352 58.65338,15 56.98078,15 h -5.01555 -8.4243 z" />
    <path
       id="path5194-9-3-4-4-3-0-3-2-5-4"
       style="opacity:0.15;fill:#224444;fill-opacity:1;stroke:none;stroke-width:1.95618;stroke-linecap:round;stroke-linejoin:round;stroke-miterlimit:4;stroke-dasharray:none;stroke-opacity:1"
       d="m 41.79579,23.5002 a 6.0001181,5.9989392 0 0 0 -3.12489,0.912 6.0001181,5.9989392 0 0 0 -2.36709,7.3737 l -12.46244,7.7857 a 4.4995188,4.4992044 0 0 0 -3.20691,-1.3259 4.4995188,4.4992044 0 0 0 -2.36905,0.6835 4.4995188,4.4992044 0 0 0 -1.4316,6.2 4.4995188,4.4992044 0 0 0 6.20095,1.4314 4.4995188,4.4992044 0 0 0 1.12105,-0.9939 l 8.21259,4.0051 a 5.124319,5.1233593 0 0 0 0.60936,4.0188 5.124319,5.1233593 0 0 0 7.06225,1.6306 5.124319,5.1233593 0 0 0 1.63078,-7.0613 5.124319,5.1233593 0 0 0 -4.35335,-2.4097 5.124319,5.1233593 0 0 0 -2.70889,0.7792 5.124319,5.1233593 0 0 0 -1.36323,1.2458 l -8.21454,-4.0071 a 4.4995188,4.4992044 0 0 0 -0.12891,-2.4995 l 12.46244,-7.7877 a 6.0001181,5.9989392 0 0 0 7.66574,1.1053 6.0001181,5.9989392 0 0 0 1.90813,-8.2661 6.0001181,5.9989392 0 0 0 -5.14239,-2.8199 z m 0.008,1.9997 a 4.0000787,3.9992928 0 0 1 3.43933,1.8805 4.0000787,3.9992928 0 0 1 -1.2734,5.5108 4.0000787,3.9992928 0 0 1 -5.51152,-1.2733 4.0000787,3.9992928 0 0 1 1.2734,-5.5107 4.0000787,3.9992928 0 0 1 2.07219,-0.6073 z M 20.58385,40.2453 a 2.4997326,2.499558 0 0 1 1.50191,0.4531 2.4999091,2.499558 0 0 1 0.18749,0.1445 2.4997326,2.499558 0 0 1 0.0215,0.019 2.4999091,2.499558 0 0 1 0.0781,0.07 2.4997326,2.499558 0 0 1 0.0195,0.019 2.4999091,2.499558 0 0 1 0.16405,0.1738 2.4997326,2.499558 0 0 1 0.0176,0.022 2.4999091,2.499558 0 0 1 0.14258,0.1894 2.4997326,2.499558 0 0 1 0.0156,0.023 2.4999091,2.499558 0 0 1 0.0137,0.019 2.4997326,2.499558 0 0 1 0.0234,0.039 2.4999091,2.499558 0 0 1 0.002,0 2.4997326,2.499558 0 0 1 0.0684,0.1132 2.4997326,2.499558 0 0 1 0.0586,0.1172 2.4999091,2.499558 0 0 1 0.002,0 2.4997326,2.499558 0 0 1 0.0527,0.1191 2.4999091,2.499558 0 0 1 0.002,0 2.4997326,2.499558 0 0 1 0.15233,0.5058 2.4997326,2.499558 0 0 1 0.0352,0.66 2.4997326,2.499558 0 0 1 -0.0117,0.1133 2.4999091,2.499558 0 0 1 -0.008,0.059 2.4997326,2.499558 0 0 1 -0.006,0.037 2.4999091,2.499558 0 0 1 -0.0176,0.094 2.4997326,2.499558 0 0 1 -0.0527,0.2109 2.4997326,2.499558 0 0 1 -0.002,0.01 2.4999091,2.499558 0 0 1 -0.002,0.01 2.4997326,2.499558 0 0 1 -0.0352,0.1054 2.4999091,2.499558 0 0 1 -0.0195,0.053 2.4997326,2.499558 0 0 1 -0.0332,0.086 2.4999091,2.499558 0 0 1 -0.006,0.012 2.4997326,2.499558 0 0 1 -0.0508,0.1094 2.4999091,2.499558 0 0 1 -0.0176,0.037 2.4997326,2.499558 0 0 1 -0.0273,0.051 2.4999091,2.499558 0 0 1 -0.0352,0.066 2.4997326,2.499558 0 0 1 -0.0469,0.078 2.4999091,2.499558 0 0 1 -0.002,0 2.4997326,2.499558 0 0 1 -0.0644,0.098 2.4997326,2.499558 0 0 1 -0.008,0.01 2.4999091,2.499558 0 0 1 -0.0234,0.033 2.4997326,2.499558 0 0 1 -0.0547,0.074 2.4999091,2.499558 0 0 1 -0.0254,0.031 2.4997326,2.499558 0 0 1 -0.0606,0.07 2.4999091,2.499558 0 0 1 -0.0273,0.029 2.4997326,2.499558 0 0 1 -0.0625,0.068 2.4999091,2.499558 0 0 1 -0.0293,0.029 2.4997326,2.499558 0 0 1 -0.0156,0.014 2.4999091,2.499558 0 0 1 -0.0801,0.076 2.4999091,2.499558 0 0 1 -0.0488,0.043 2.4997326,2.499558 0 0 1 -0.29491,0.2167 2.4997326,2.499558 0 0 1 -3.44518,-0.7947 2.4997326,2.499558 0 0 1 0.79684,-3.4447 2.4997326,2.499558 0 0 1 1.25776,-0.3789 z m 16.77869,7.5046 a 3.1245847,3.1239995 0 0 1 2.61124,1.4684 3.1245847,3.1239995 0 0 1 -0.99411,4.3059 3.1245847,3.1239995 0 0 1 -4.30648,-0.9939 3.1245847,3.1239995 0 0 1 -0.4492,-2.0544 3.1248864,3.1244475 0 0 1 0.004,-0.023 3.1248864,3.1244475 0 0 1 0.0195,-0.123 3.1248864,3.1244475 0 0 1 0.0156,-0.084 3.1245847,3.1239995 0 0 1 0.01,-0.039 3.1248864,3.1244475 0 0 1 0.01,-0.049 3.1248864,3.1244475 0 0 1 0.0312,-0.1191 3.1248864,3.1244475 0 0 1 0.043,-0.1426 3.1248864,3.1244475 0 0 1 0.0449,-0.1288 3.1248864,3.1244475 0 0 1 0.0176,-0.041 3.1245847,3.1239995 0 0 1 0.0312,-0.08 3.1248864,3.1244475 0 0 1 0.0195,-0.043 3.1248864,3.1244475 0 0 1 0.0469,-0.1016 3.1248864,3.1244475 0 0 1 0.0273,-0.057 3.1245847,3.1239995 0 0 1 0.0391,-0.07 3.1248864,3.1244475 0 0 1 0.0215,-0.039 3.1248864,3.1244475 0 0 1 0.0664,-0.1113 3.1248864,3.1244475 0 0 1 0.0762,-0.1171 3.1248864,3.1244475 0 0 1 0.0176,-0.025 3.1245847,3.1239995 0 0 1 0.0566,-0.076 3.1248864,3.1244475 0 0 1 0.0273,-0.037 3.1248864,3.1244475 0 0 1 0.084,-0.1035 3.1248864,3.1244475 0 0 1 0.0977,-0.1114 3.1248864,3.1244475 0 0 1 0.0703,-0.074 3.1245847,3.1239995 0 0 1 0.56639,-0.455 3.1245847,3.1239995 0 0 1 1.69524,-0.4745 z" />
    <path
       id="rect880-1-2-9-0-5-8-8"
       style="color:#000000;font-style:normal;font-variant:normal;font-weight:normal;font-stretch:normal;font-size:medium;line-height:normal;font-family:sans-serif;font-variant-ligatures:normal;font-variant-position:normal;font-variant-caps:normal;font-variant-numeric:normal;font-variant-alternates:normal;font-variant-east-asian:normal;font-feature-settings:normal;font-variation-settings:normal;text-indent:0;text-align:start;text-decoration:none;text-decoration-line:none;text-decoration-style:solid;text-decoration-color:#000000;letter-spacing:normal;word-spacing:normal;text-transform:none;writing-mode:lr-tb;direction:ltr;text-orientation:mixed;dominant-baseline:auto;baseline-shift:baseline;text-anchor:start;white-space:normal;shape-padding:0;shape-margin:0;inline-size:0;clip-rule:nonzero;display:inline;overflow:visible;visibility:visible;isolation:isolate;mix-blend-mode:normal;color-interpolation:sRGB;color-interpolation-filters:linearRGB;solid-color:#000000;solid-opacity:1;vector-effect:none;fill:url(#linearGradient2384);fill-opacity:1;fill-rule:nonzero;stroke:none;stroke-linecap:butt;stroke-linejoin:miter;stroke-miterlimit:4;stroke-dasharray:none;stroke-dashoffset:0;stroke-opacity:1;color-rendering:auto;image-rendering:auto;shape-rendering:auto;text-rendering:auto;enable-background:accumulate;stop-color:#000000"
       d="M 32.32031,14.625 32.20898,14.75 27.9375,19.5137 H 7.01953 c -1.87467,0 -3.39453,1.5265 -3.39453,3.4062 v 33.0488 c 0,1.8798 1.51986,3.4063 3.39453,3.4063 h 49.96094 c 1.87467,0 3.39453,-1.5265 3.39453,-3.4063 V 33.9688 22.9199 18.0312 c 0,-1.8797 -1.51986,-3.4062 -3.39453,-3.4062 h -5.01563 -8.42382 z m 0.33399,0.75 h 10.88672 8.42382 5.01563 c 1.47052,0 2.64453,1.1775 2.64453,2.6562 v 4.8887 11.0489 21.9999 c 0,1.4788 -1.17401,2.6563 -2.64453,2.6563 H 7.01953 C 5.54901,58.625 4.375,57.4475 4.375,55.9687 V 22.9199 c 0,-1.4787 1.17401,-2.6562 2.64453,-2.6562 h 21.25195 z" />
    <path
       id="path5194-9-3-4-4-3-0-3-2-1"
       style="fill:#fafafa;fill-opacity:1;stroke:none;stroke-width:1.95618;stroke-linecap:round;stroke-linejoin:round;stroke-miterlimit:4;stroke-dasharray:none;stroke-opacity:1"
       d="m 41.79579,21.0002 a 6.0001181,5.9989392 0 0 0 -3.12489,0.912 6.0001181,5.9989392 0 0 0 -2.36709,7.3737 l -12.46244,7.7857 a 4.4995188,4.4992044 0 0 0 -3.20691,-1.3259 4.4995188,4.4992044 0 0 0 -2.36905,0.6835 4.4995188,4.4992044 0 0 0 -1.4316,6.2 4.4995188,4.4992044 0 0 0 6.20095,1.4314 4.4995188,4.4992044 0 0 0 1.12105,-0.9939 l 8.21259,4.0051 a 5.124319,5.1233593 0 0 0 0.60936,4.0188 5.124319,5.1233593 0 0 0 7.06225,1.6306 5.124319,5.1233593 0 0 0 1.63078,-7.0613 5.124319,5.1233593 0 0 0 -4.35335,-2.4097 5.124319,5.1233593 0 0 0 -2.70889,0.7792 5.124319,5.1233593 0 0 0 -1.36323,1.2458 l -8.21454,-4.0071 a 4.4995188,4.4992044 0 0 0 -0.12891,-2.4995 l 12.46244,-7.7877 a 6.0001181,5.9989392 0 0 0 7.66574,1.1053 6.0001181,5.9989392 0 0 0 1.90813,-8.2661 6.0001181,5.9989392 0 0 0 -5.14239,-2.8199 z m 0.008,1.9997 a 4.0000787,3.9992928 0 0 1 3.43933,1.8805 4.0000787,3.9992928 0 0 1 -1.2734,5.5108 4.0000787,3.9992928 0 0 1 -5.51152,-1.2733 4.0000787,3.9992928 0 0 1 1.2734,-5.5107 4.0000787,3.9992928 0 0 1 2.07219,-0.6073 z M 20.58385,37.7453 a 2.4997326,2.499558 0 0 1 1.50191,0.4531 2.4999091,2.499558 0 0 1 0.18749,0.1445 2.4997326,2.499558 0 0 1 0.0215,0.019 2.4999091,2.499558 0 0 1 0.0781,0.07 2.4997326,2.499558 0 0 1 0.0195,0.019 2.4999091,2.499558 0 0 1 0.16405,0.1738 2.4997326,2.499558 0 0 1 0.0176,0.022 2.4999091,2.499558 0 0 1 0.14258,0.1894 2.4997326,2.499558 0 0 1 0.0156,0.023 2.4999091,2.499558 0 0 1 0.0137,0.019 2.4997326,2.499558 0 0 1 0.0234,0.039 2.4999091,2.499558 0 0 1 0.002,0 2.4997326,2.499558 0 0 1 0.0684,0.1132 2.4997326,2.499558 0 0 1 0.0586,0.1172 2.4999091,2.499558 0 0 1 0.002,0 2.4997326,2.499558 0 0 1 0.0527,0.1191 2.4999091,2.499558 0 0 1 0.002,0 2.4997326,2.499558 0 0 1 0.15233,0.5058 2.4997326,2.499558 0 0 1 0.0352,0.66 2.4997326,2.499558 0 0 1 -0.0117,0.1133 2.4999091,2.499558 0 0 1 -0.008,0.059 2.4997326,2.499558 0 0 1 -0.006,0.037 2.4999091,2.499558 0 0 1 -0.0176,0.094 2.4997326,2.499558 0 0 1 -0.0527,0.2109 2.4997326,2.499558 0 0 1 -0.002,0.01 2.4999091,2.499558 0 0 1 -0.002,0.01 2.4997326,2.499558 0 0 1 -0.0352,0.1054 2.4999091,2.499558 0 0 1 -0.0195,0.053 2.4997326,2.499558 0 0 1 -0.0332,0.086 2.4999091,2.499558 0 0 1 -0.006,0.012 2.4997326,2.499558 0 0 1 -0.0508,0.1094 2.4999091,2.499558 0 0 1 -0.0176,0.037 2.4997326,2.499558 0 0 1 -0.0273,0.051 2.4999091,2.499558 0 0 1 -0.0352,0.066 2.4997326,2.499558 0 0 1 -0.0469,0.078 2.4999091,2.499558 0 0 1 -0.002,0 2.4997326,2.499558 0 0 1 -0.0644,0.098 2.4997326,2.499558 0 0 1 -0.008,0.01 2.4999091,2.499558 0 0 1 -0.0234,0.033 2.4997326,2.499558 0 0 1 -0.0547,0.074 2.4999091,2.499558 0 0 1 -0.0254,0.031 2.4997326,2.499558 0 0 1 -0.0606,0.07 2.4999091,2.499558 0 0 1 -0.0273,0.029 2.4997326,2.499558 0 0 1 -0.0625,0.068 2.4999091,2.499558 0 0 1 -0.0293,0.029 2.4997326,2.499558 0 0 1 -0.0156,0.014 2.4999091,2.499558 0 0 1 -0.0801,0.076 2.4999091,2.499558 0 0 1 -0.0488,0.043 2.4997326,2.499558 0 0 1 -0.29491,0.2167 2.4997326,2.499558 0 0 1 -3.44518,-0.7947 2.4997326,2.499558 0 0 1 0.79684,-3.4447 2.4997326,2.499558 0 0 1 1.25776,-0.3789 z m 16.77869,7.5046 a 3.1245847,3.1239995 0 0 1 2.61124,1.4684 3.1245847,3.1239995 0 0 1 -0.99411,4.3059 3.1245847,3.1239995 0 0 1 -4.30648,-0.9939 3.1245847,3.1239995 0 0 1 -0.4492,-2.0544 3.1248864,3.1244475 0 0 1 0.004,-0.023 3.1248864,3.1244475 0 0 1 0.0195,-0.123 3.1248864,3.1244475 0 0 1 0.0156,-0.084 3.1245847,3.1239995 0 0 1 0.01,-0.039 3.1248864,3.1244475 0 0 1 0.01,-0.049 3.1248864,3.1244475 0 0 1 0.0312,-0.1191 3.1248864,3.1244475 0 0 1 0.043,-0.1426 3.1248864,3.1244475 0 0 1 0.0449,-0.1288 3.1248864,3.1244475 0 0 1 0.0176,-0.041 3.1245847,3.1239995 0 0 1 0.0312,-0.08 3.1248864,3.1244475 0 0 1 0.0195,-0.043 3.1248864,3.1244475 0 0 1 0.0469,-0.1016 3.1248864,3.1244475 0 0 1 0.0273,-0.057 3.1245847,3.1239995 0 0 1 0.0391,-0.07 3.1248864,3.1244475 0 0 1 0.0215,-0.039 3.1248864,3.1244475 0 0 1 0.0664,-0.1113 3.1248864,3.1244475 0 0 1 0.0762,-0.1171 3.1248864,3.1244475 0 0 1 0.0176,-0.025 3.1245847,3.1239995 0 0 1 0.0566,-0.076 3.1248864,3.1244475 0 0 1 0.0273,-0.037 3.1248864,3.1244475 0 0 1 0.084,-0.1035 3.1248864,3.1244475 0 0 1 0.0977,-0.1114 3.1248864,3.1244475 0 0 1 0.0703,-0.074 3.1245847,3.1239995 0 0 1 0.56639,-0.455 3.1245847,3.1239995 0 0 1 1.69524,-0.4745 z" />
    <circle
       style="opacity:0.15;fill:#224444;fill-opacity:1;stroke:none;stroke-width:1.30423;stroke-linecap:round;stroke-linejoin:round;stroke-miterlimit:4;stroke-dasharray:none;stroke-opacity:1"
       id="path5194-9-3-4-4-8-65-2"
       cx="21.18387"
       cy="45.075066"
       transform="rotate(-32)"
       r="4" />
    <circle
       style="opacity:0.15;fill:#224444;fill-opacity:1;stroke:none;stroke-width:0.815142;stroke-linecap:round;stroke-linejoin:round;stroke-miterlimit:4;stroke-dasharray:none;stroke-opacity:1"
       id="path5194-9-3-4-4-8-6-2-8"
       cx="-3.8159463"
       cy="45.075188"
       transform="rotate(-32)"
       r="2.5" />
    <circle
       style="opacity:0.15;fill:#224444;fill-opacity:1;stroke:none;stroke-width:1.01893;stroke-linecap:round;stroke-linejoin:round;stroke-miterlimit:4;stroke-dasharray:none;stroke-opacity:1"
       id="path5194-9-3-4-4-8-8-6-9"
       cx="6.0151086"
       cy="60.80724"
       transform="rotate(-32)"
       r="3.125" />
  </g>
</svg>
