<?xml version="1.0" encoding="UTF-8" standalone="no"?>
<svg
   xmlns:dc="http://purl.org/dc/elements/1.1/"
   xmlns:cc="http://creativecommons.org/ns#"
   xmlns:rdf="http://www.w3.org/1999/02/22-rdf-syntax-ns#"
   xmlns:svg="http://www.w3.org/2000/svg"
   xmlns="http://www.w3.org/2000/svg"
   xmlns:sodipodi="http://sodipodi.sourceforge.net/DTD/sodipodi-0.dtd"
   xmlns:inkscape="http://www.inkscape.org/namespaces/inkscape"
   width="64"
   height="64"
   viewBox="0 0 16.933333 16.933334"
   version="1.1"
   id="svg841"
   inkscape:version="1.0.2 (e86c870879, 2021-01-15)"
   sodipodi:docname="notebook.svg">
  <defs
     id="defs835" />
  <sodipodi:namedview
     id="base"
     pagecolor="#c4c4c4"
     bordercolor="#666666"
     borderopacity="1.0"
     inkscape:pageopacity="0"
     inkscape:pageshadow="2"
     inkscape:zoom="2.8903394"
     inkscape:cx="46.372831"
     inkscape:cy="36.927888"
     inkscape:document-units="px"
     inkscape:current-layer="layer1"
     inkscape:document-rotation="0"
     showgrid="false"
     units="px"
     inkscape:window-width="2048"
     inkscape:window-height="1080"
     inkscape:window-x="0"
     inkscape:window-y="0"
     inkscape:window-maximized="1" />
  <metadata
     id="metadata838">
    <rdf:RDF>
      <cc:Work
         rdf:about="">
        <dc:format>image/svg+xml</dc:format>
        <dc:type
           rdf:resource="http://purl.org/dc/dcmitype/StillImage" />
        <dc:title></dc:title>
      </cc:Work>
    </rdf:RDF>
  </metadata>
  <g
     inkscape:label="Layer 1"
     inkscape:groupmode="layer"
     id="layer1">
    <path
       id="rect869-36-0-1-8-7-9-9"
       style="color:#000000;font-style:normal;font-variant:normal;font-weight:normal;font-stretch:normal;font-size:medium;line-height:normal;font-family:sans-serif;font-variant-ligatures:normal;font-variant-position:normal;font-variant-caps:normal;font-variant-numeric:normal;font-variant-alternates:normal;font-variant-east-asian:normal;font-feature-settings:normal;font-variation-settings:normal;text-indent:0;text-align:start;text-decoration:none;text-decoration-line:none;text-decoration-style:solid;text-decoration-color:#000000;letter-spacing:normal;word-spacing:normal;text-transform:none;writing-mode:lr-tb;direction:ltr;text-orientation:mixed;dominant-baseline:auto;baseline-shift:baseline;text-anchor:start;white-space:normal;shape-padding:0;shape-margin:0;inline-size:0;clip-rule:nonzero;display:inline;overflow:visible;visibility:visible;opacity:0.25;isolation:auto;mix-blend-mode:normal;color-interpolation:sRGB;color-interpolation-filters:linearRGB;solid-color:#000000;solid-opacity:1;vector-effect:none;fill:#0c0c10;fill-opacity:1;fill-rule:nonzero;stroke:none;stroke-width:1.00002;stroke-linecap:round;stroke-linejoin:round;stroke-miterlimit:4;stroke-dasharray:none;stroke-dashoffset:2.1875;stroke-opacity:1;color-rendering:auto;image-rendering:auto;shape-rendering:auto;text-rendering:auto;enable-background:accumulate;stop-color:#000000"
       d="m 3.17345,0.59531871 c -0.652741,0 -1.189075,0.53686999 -1.189075,1.18962999 V 15.545269 c 0,0.65278 0.536334,1.18963 1.189075,1.18963 h 5.293217 4.232299 c 1.23906,0 2.249996,-1.00942 2.249993,-2.24851 V 2.8438287 c 0,-1.23909 -1.010933,-2.24850999 -2.249993,-2.24850999 H 8.466667 Z m 0,0.79325999 h 5.293217 4.232299 c 0.813051,0 1.455208,0.64219 1.455208,1.45525 V 14.486389 c 3e-6,0.81307 -0.642157,1.45525 -1.455208,1.45525 H 8.466667 3.17345 c -0.226738,0 -0.396359,-0.16963 -0.396359,-0.39637 V 1.7849487 c 0,-0.22675 0.169621,-0.39637 0.396359,-0.39637 z" />
    <path
       id="rect869-36-0-1-8-2"
       style="fill:#77adcf;fill-opacity:1;stroke-width:1.19063;stroke-linecap:round;stroke-linejoin:round;stroke-dashoffset:2.1875"
       d="m 3.175,0.59531871 c -0.439738,0 -0.79375,0.35401 -0.79375,0.79374999 V 15.147399 c 0,0.43974 0.354012,0.79375 0.79375,0.79375 H 8.466667 12.7 c 1.026054,0 1.852086,-0.82603 1.852083,-1.85208 V 2.4473987 c 0,-1.02605 -0.826029,-1.85207999 -1.852083,-1.85207999 H 8.466667 Z" />
    <rect
       style="opacity:0.25;fill:#0c0c0c;fill-opacity:1;stroke:none;stroke-width:0.79375;stroke-linecap:round;stroke-linejoin:round;stroke-miterlimit:4;stroke-dasharray:none;stroke-dashoffset:2.1875;stroke-opacity:1"
       id="rect2031-7-0"
       width="0.39687499"
       height="16.139584"
       x="4.6302109"
       y="0.1984375" />
    <rect
       style="opacity:0.25;fill:#0c0c0c;fill-opacity:1;stroke:none;stroke-width:0.79375;stroke-linecap:round;stroke-linejoin:round;stroke-miterlimit:4;stroke-dasharray:none;stroke-dashoffset:2.1875;stroke-opacity:1"
       id="rect2246-3-8-2"
       width="0.39687499"
       height="8.9164581"
       x="17.16511"
       y="-3.4758217"
       rx="0.1984375"
       ry="0.1984375"
       transform="rotate(45)" />
    <rect
       style="opacity:0.25;fill:#0c0c0c;fill-opacity:1;stroke:none;stroke-width:0.79375;stroke-linecap:round;stroke-linejoin:round;stroke-miterlimit:4;stroke-dasharray:none;stroke-dashoffset:2.1875;stroke-opacity:1"
       id="rect2246-8-1-3"
       width="0.39687499"
       height="8.9164581"
       x="5.4718394"
       y="6.2530017"
       rx="0.1984375"
       ry="0.1984375"
       transform="rotate(-45)" />
    <rect
       style="fill:#428ab8;fill-opacity:1;stroke:none;stroke-width:0.79375;stroke-linecap:round;stroke-linejoin:round;stroke-miterlimit:4;stroke-dasharray:none;stroke-dashoffset:2.1875;stroke-opacity:1"
       id="rect2029-7"
       width="2.3812499"
       height="15.345834"
       x="2.3812523"
       y="0.59531862"
       rx="0.79374999"
       ry="0.79374999" />
    <rect
       style="fill:#0d1c26;fill-opacity:1;stroke:none;stroke-width:0.79375;stroke-linecap:round;stroke-linejoin:round;stroke-miterlimit:4;stroke-dasharray:none;stroke-dashoffset:2.1875;stroke-opacity:1"
       id="rect2031-5-6"
       width="0.39687499"
       height="16.139584"
       x="4.4979172"
       y="0.1984375" />
    <path
       style="fill:#428ab8;fill-opacity:1;stroke:none;stroke-width:0.793741;stroke-linecap:round;stroke-linejoin:round;stroke-miterlimit:4;stroke-dasharray:none;stroke-dashoffset:2.1875;stroke-opacity:1"
       d="m 9.128086,0.19861871 0.196367,-1e-5 H 9.71203 l 0.73949,1e-5 2.247403,-1e-5 c 1.239276,0 2.250006,1.00954999 2.249996,2.24891999 l 10e-7,2.24891 -4e-6,0.92601 6e-6,0.39687 c -4e-6,0.14661 -0.117987,0.26458 -0.264587,0.26458 h -0.264584 c -0.03829,-3e-5 -0.07418,-0.009 -0.106964,-0.0233 -0.04067,-0.0121 -0.07991,-0.0308 -0.112147,-0.0631 l -0.04596,-0.046 -0.889352,-0.88933 -3.379125,-3.37958 -0.89038,-0.88983999 -0.04546,-0.0455 c -0.03196,-0.032 -0.05081,-0.0708 -0.06305,-0.11111 -0.01478,-0.033 -0.02376,-0.0693 -0.02378,-0.10802 l 5e-6,-0.26458 c -10e-7,-0.14661 0.117973,-0.26509 0.264581,-0.26509 z"
       id="path1865-3-0-8-8-9" />
    <rect
       style="fill:#0d1c26;fill-opacity:1;stroke:none;stroke-width:0.79375;stroke-linecap:round;stroke-linejoin:round;stroke-miterlimit:4;stroke-dasharray:none;stroke-dashoffset:2.1875;stroke-opacity:1"
       id="rect2246-8-2"
       width="0.39687499"
       height="8.9164581"
       x="5.6589046"
       y="6.252872"
       rx="0.1984375"
       ry="0.1984375"
       transform="rotate(-45)" />
    <path
       style="fill:#428ab8;fill-opacity:1;stroke:none;stroke-width:0.793741;stroke-linecap:round;stroke-linejoin:round;stroke-miterlimit:4;stroke-dasharray:none;stroke-dashoffset:2.1875;stroke-opacity:1"
       d="m 14.948881,10.517309 3e-6,0.19636 -3e-6,0.38758 -2e-6,0.73949 6e-6,2.2474 c 10e-7,1.23928 -1.009544,2.25001 -2.248914,2.25 H 10.451061 9.525044 9.128179 c -0.146616,0 -0.264584,-0.11798 -0.264587,-0.26458 l 10e-7,-0.26459 c 3.6e-5,-0.0383 0.009,-0.0742 0.02329,-0.10696 0.01208,-0.0407 0.03082,-0.0799 0.0631,-0.11215 l 0.04597,-0.046 0.889333,-0.88935 3.379571,-3.37912 0.889847,-0.89038 0.04548,-0.0455 c 0.03197,-0.032 0.07081,-0.0508 0.111107,-0.0631 0.03302,-0.0148 0.0693,-0.0238 0.108025,-0.0238 h 0.264575 c 0.146611,0 0.265094,0.11797 0.265091,0.26458 z"
       id="path1865-3-0-8-4-2" />
    <rect
       style="fill:#0d1c26;fill-opacity:1;stroke:none;stroke-width:0.79375;stroke-linecap:round;stroke-linejoin:round;stroke-miterlimit:4;stroke-dasharray:none;stroke-dashoffset:2.1875;stroke-opacity:1"
       id="rect2246-3-89"
       width="0.39687499"
       height="8.9164581"
       x="17.352221"
       y="-3.4758065"
       rx="0.1984375"
       ry="0.1984375"
       transform="rotate(45)" />
    <path
       id="rect869-36-0-1-8-7-9-2-0-7"
       style="color:#000000;font-style:normal;font-variant:normal;font-weight:normal;font-stretch:normal;font-size:medium;line-height:normal;font-family:sans-serif;font-variant-ligatures:normal;font-variant-position:normal;font-variant-caps:normal;font-variant-numeric:normal;font-variant-alternates:normal;font-variant-east-asian:normal;font-feature-settings:normal;font-variation-settings:normal;text-indent:0;text-align:start;text-decoration:none;text-decoration-line:none;text-decoration-style:solid;text-decoration-color:#000000;letter-spacing:normal;word-spacing:normal;text-transform:none;writing-mode:lr-tb;direction:ltr;text-orientation:mixed;dominant-baseline:auto;baseline-shift:baseline;text-anchor:start;white-space:normal;shape-padding:0;shape-margin:0;inline-size:0;clip-rule:nonzero;display:inline;overflow:visible;visibility:visible;isolation:auto;mix-blend-mode:normal;color-interpolation:sRGB;color-interpolation-filters:linearRGB;solid-color:#000000;solid-opacity:1;vector-effect:none;fill:#1b384b;fill-opacity:1;fill-rule:nonzero;stroke:none;stroke-width:1.00002;stroke-linecap:round;stroke-linejoin:round;stroke-miterlimit:4;stroke-dasharray:none;stroke-dashoffset:2.1875;stroke-opacity:1;color-rendering:auto;image-rendering:auto;shape-rendering:auto;text-rendering:auto;enable-background:accumulate;stop-color:#000000"
       d="m 3.17345,0.19844871 c -0.652741,0 -1.189075,0.53687 -1.189075,1.18962999 V 15.148399 c 0,0.65278 0.536334,1.18963 1.189075,1.18963 h 5.293213 4.2323 c 1.23906,0 2.25,-1.00942 2.25,-2.24851 V 2.4469587 c 0,-1.23909 -1.01094,-2.24850999 -2.25,-2.24850999 h -4.2323 z m 0,0.79326 h 5.293213 4.2323 c 0.81305,0 1.45521,0.64218999 1.45521,1.45524999 V 14.089519 c 0,0.81307 -0.64216,1.45525 -1.45521,1.45525 H 8.466663 3.17345 c -0.226738,0 -0.396359,-0.16963 -0.396359,-0.39637 V 1.3880787 c 0,-0.22675 0.169621,-0.39636999 0.396359,-0.39636999 z" />
  </g>
</svg>
