<?xml version="1.0" encoding="UTF-8" standalone="no"?>
<svg
   xmlns:dc="http://purl.org/dc/elements/1.1/"
   xmlns:cc="http://creativecommons.org/ns#"
   xmlns:rdf="http://www.w3.org/1999/02/22-rdf-syntax-ns#"
   xmlns:svg="http://www.w3.org/2000/svg"
   xmlns="http://www.w3.org/2000/svg"
   xmlns:sodipodi="http://sodipodi.sourceforge.net/DTD/sodipodi-0.dtd"
   xmlns:inkscape="http://www.inkscape.org/namespaces/inkscape"
   width="64"
   height="64"
   viewBox="0 0 16.933333 16.933334"
   version="1.1"
   id="svg841"
   inkscape:version="1.0.2 (e86c870879, 2021-01-15)"
   sodipodi:docname="applications-system-symbolic.svg">
  <defs
     id="defs835" />
  <sodipodi:namedview
     id="base"
     pagecolor="#c4c4c4"
     bordercolor="#666666"
     borderopacity="1.0"
     inkscape:pageopacity="0"
     inkscape:pageshadow="2"
     inkscape:zoom="2.8903394"
     inkscape:cx="46.372831"
     inkscape:cy="36.927888"
     inkscape:document-units="px"
     inkscape:current-layer="layer1"
     inkscape:document-rotation="0"
     showgrid="false"
     units="px"
     inkscape:window-width="2048"
     inkscape:window-height="1080"
     inkscape:window-x="0"
     inkscape:window-y="0"
     inkscape:window-maximized="1" />
  <metadata
     id="metadata838">
    <rdf:RDF>
      <cc:Work
         rdf:about="">
        <dc:format>image/svg+xml</dc:format>
        <dc:type
           rdf:resource="http://purl.org/dc/dcmitype/StillImage" />
        <dc:title></dc:title>
      </cc:Work>
    </rdf:RDF>
  </metadata>
  <g
     inkscape:label="Layer 1"
     inkscape:groupmode="layer"
     id="layer1">
    <path
       id="rect1475-9-6-4"
       style="display:inline;fill:#808084;fill-opacity:1;stroke-width:0.264583;stroke-linecap:round;stroke-linejoin:round;stroke-dashoffset:2.1875;stroke-opacity:0.74902"
       d="M 9.3251844,0.23373275 A 1.6933334,1.6933334 0 0 0 8.4666114,-2.4793823e-7 1.6933334,1.6933334 0 0 0 6.7734894,1.6933328 a 1.6933334,1.6933334 0 0 0 0.02276,0.276887 l -3.120205,1.801468 a 1.6933334,1.6933334 0 0 0 -0.228547,-0.158141 1.6933334,1.6933334 0 0 0 -2.313279,0.619839 1.6933334,1.6933334 0 0 0 0.619866,2.313252 1.6933334,1.6933334 0 0 0 0.251513,0.118322 v 3.6033612 a 1.6933334,1.6933334 0 0 0 -0.251169,0.118745 1.6933334,1.6933334 0 0 0 -0.619919,2.312961 1.6933334,1.6933334 0 0 0 2.312935,0.619919 1.6933334,1.6933334 0 0 0 0.228785,-0.158512 l 3.120178,1.801442 a 1.6933334,1.6933334 0 0 0 -0.02302,0.277363 1.6933334,1.6933334 0 0 0 1.693333,1.693095 A 1.6933334,1.6933334 0 0 0 10.159842,15.24 1.6933334,1.6933334 0 0 0 10.137092,14.96314 l 3.120205,-1.801468 A 1.6933334,1.6933334 0 0 0 13.485818,13.319813 1.6933334,1.6933334 0 0 0 15.799097,12.7 1.6933334,1.6933334 0 0 0 15.179257,10.386722 1.6933334,1.6933334 0 0 0 14.927718,10.2684 V 6.6650398 a 1.6933334,1.6933334 0 0 0 0.251142,-0.118745 1.6933334,1.6933334 0 0 0 0.619945,-2.312962 1.6933334,1.6933334 0 0 0 -2.312961,-0.619918 1.6933334,1.6933334 0 0 0 -0.228758,0.158512 l -3.120187,-1.801443 a 1.6933334,1.6933334 0 0 0 0.02302,-0.277362 1.6933334,1.6933334 0 0 0 -0.8347866,-1.45936305 z m 0.216561,2.76785905 3.1206286,1.80168 a 1.6933334,1.6933334 0 0 0 0,0.553562 l -3.1209196,1.801653 a 1.6933334,1.6933334 0 0 0 -0.478843,-0.276463 l -1.85e-4,-3.603625 a 1.6933334,1.6933334 0 0 0 0.479663,-0.276807 z m -2.150348,0 a 1.6933334,1.6933334 0 0 0 0.479769,0.276992 l -2.6e-5,3.602911 a 1.6933334,1.6933334 0 0 0 -0.251407,0.119169 1.6933334,1.6933334 0 0 0 -0.228045,0.158326 l -3.120654,-1.80168 a 1.6933334,1.6933334 0 0 0 -1.06e-4,-0.553799 z m 5.8662356,3.386879 a 1.6933334,1.6933334 0 0 0 0.479769,0.276965 v 3.6033612 a 1.6933334,1.6933334 0 0 0 -0.479636,0.276807 L 10.137111,8.7439238 a 1.6933334,1.6933334 0 0 0 -7.9e-5,-0.5538 z m -9.5819116,-5.3e-5 3.120628,1.801706 a 1.6933334,1.6933334 0 0 0 0,0.553535 L 3.6759064,10.545578 A 1.6933334,1.6933334 0 0 0 3.1961374,10.268585 V 6.6652248 a 1.6933334,1.6933334 0 0 0 0.479637,-0.276807 z m 5.865786,3.386613 3.1206546,1.8017072 a 1.6933334,1.6933334 0 0 0 7.9e-5,0.5538 L 9.5417984,13.93243 a 1.6933334,1.6933334 0 0 0 -0.479769,-0.276966 v -3.603361 a 1.6933334,1.6933334 0 0 0 0.251143,-0.1187452 1.6933334,1.6933334 0 0 0 0.228044,-0.158327 z m -2.149872,-7.9e-5 a 1.6933334,1.6933334 0 0 0 0.479743,0.2769922 v 3.603334 a 1.6933334,1.6933334 0 0 0 -0.479663,0.276834 l -3.120628,-1.801707 a 1.6933334,1.6933334 0 0 0 0,-0.553534 z" />
  </g>
</svg>
