<?xml version="1.0" encoding="UTF-8" standalone="no"?>
<svg
   xmlns:dc="http://purl.org/dc/elements/1.1/"
   xmlns:cc="http://creativecommons.org/ns#"
   xmlns:rdf="http://www.w3.org/1999/02/22-rdf-syntax-ns#"
   xmlns:svg="http://www.w3.org/2000/svg"
   xmlns="http://www.w3.org/2000/svg"
   xmlns:sodipodi="http://sodipodi.sourceforge.net/DTD/sodipodi-0.dtd"
   xmlns:inkscape="http://www.inkscape.org/namespaces/inkscape"
   width="64"
   height="64"
   viewBox="0 0 16.933333 16.933334"
   version="1.1"
   id="svg841"
   inkscape:version="1.0.2 (e86c870879, 2021-01-15)"
   sodipodi:docname="document-properties-symbolic.svg">
  <defs
     id="defs835" />
  <sodipodi:namedview
     id="base"
     pagecolor="#c4c4c4"
     bordercolor="#666666"
     borderopacity="1.0"
     inkscape:pageopacity="0"
     inkscape:pageshadow="2"
     inkscape:zoom="5.057115"
     inkscape:cx="51.171154"
     inkscape:cy="86.363732"
     inkscape:document-units="px"
     inkscape:current-layer="layer1"
     inkscape:document-rotation="0"
     showgrid="false"
     units="px"
     inkscape:window-width="2048"
     inkscape:window-height="1080"
     inkscape:window-x="0"
     inkscape:window-y="0"
     inkscape:window-maximized="1" />
  <metadata
     id="metadata838">
    <rdf:RDF>
      <cc:Work
         rdf:about="">
        <dc:format>image/svg+xml</dc:format>
        <dc:type
           rdf:resource="http://purl.org/dc/dcmitype/StillImage" />
        <dc:title />
      </cc:Work>
    </rdf:RDF>
  </metadata>
  <g
     inkscape:label="Layer 1"
     inkscape:groupmode="layer"
     id="layer1">
    <path
       id="rect863-7-3"
       style="fill:#808084;stroke-width:0;stroke-linecap:round;stroke-linejoin:round;stroke-dashoffset:2.1875;fill-opacity:1"
       d="m 2.3812501,1.0583333 c -0.4397375,0 -0.7937501,0.354013 -0.7937501,0.79375 v 1.595252 C 0.6662975,3.7769643 0,4.6587783 0,5.6885423 c 0,1.029764 0.6662975,1.911577 1.5875,2.241207 V 15.08125 c 0,0.439738 0.3540126,0.79375 0.7937501,0.79375 0.4397375,0 0.79375,-0.354012 0.79375,-0.79375 V 7.9297493 c 0.9212024,-0.32963 1.5875,-1.211443 1.5875,-2.241207 0,-1.029764 -0.6662976,-1.911578 -1.5875,-2.241207 v -1.595252 c 0,-0.439737 -0.3540125,-0.79375 -0.79375,-0.79375 z m 0,3.439584 c 0.079701,0 0.1569806,0.0083 0.2320271,0.02274 a 1.190625,1.190625 0 0 1 0.00258,5.29e-4 1.190625,1.190625 0 0 1 0.020671,0.0047 c 0.063168,0.01348 0.1241031,0.03291 0.1829345,0.05581 a 1.190625,1.190625 0 0 1 0.060462,0.02584 c 0.046168,0.02101 0.09014,0.04534 0.1328084,0.07183 a 1.190625,1.190625 0 0 1 0.07183,0.04858 1.190625,1.190625 0 0 1 0.00206,0.0016 c 0.2941918,0.215357 0.485244,0.561001 0.485244,0.959089 0,0.396364 -0.1896385,0.740422 -0.4816242,0.956014 a 1.190625,1.190625 0 0 1 -0.078032,0.05323 c -0.041828,0.02595 -0.085031,0.04959 -0.1302248,0.07028 a 1.190625,1.190625 0 0 1 -0.063045,0.02739 c -0.058692,0.02281 -0.1194131,0.04236 -0.1824178,0.05581 a 1.190625,1.190625 0 0 1 -0.00207,5.3e-4 1.190625,1.190625 0 0 1 -0.024288,0.0047 c -0.074123,0.01408 -0.1502812,0.02273 -0.2289272,0.02273 -0.079704,0 -0.1569789,-0.0083 -0.2320272,-0.02274 -8.44e-4,-1.63e-4 -0.00174,-3.44e-4 -0.00259,-5.3e-4 a 1.190625,1.190625 0 0 1 -0.020671,-0.0047 c -0.063168,-0.01347 -0.1241013,-0.0329 -0.1829334,-0.0558 a 1.190625,1.190625 0 0 1 -0.060461,-0.02584 c -0.046169,-0.02101 -0.090141,-0.04534 -0.1328085,-0.07183 a 1.190625,1.190625 0 0 1 -0.07183,-0.04858 1.190625,1.190625 0 0 1 -0.00207,-0.0016 C 1.3816792,6.4322843 1.190625,6.0866613 1.190625,5.6885423 c 0,-0.396349 0.1896405,-0.740417 0.4816244,-0.956014 a 1.190625,1.190625 0 0 1 0.078031,-0.05323 c 0.041828,-0.02595 0.085031,-0.04959 0.1302246,-0.07028 a 1.190625,1.190625 0 0 1 0.063045,-0.02739 c 0.058692,-0.02281 0.1194117,-0.04236 0.1824178,-0.05581 7.038e-4,-1.5e-4 0.00136,-3.7e-4 0.00207,-5.29e-4 a 1.190625,1.190625 0 0 1 0.024288,-0.0047 c 0.074125,-0.01408 0.1502782,-0.02273 0.2289273,-0.02273 z" />
    <path
       id="rect863-3-5-6"
       style="fill:#808084;stroke-width:0;stroke-linecap:round;stroke-linejoin:round;stroke-dashoffset:2.1875;fill-opacity:1"
       d="m 8.4666669,1.0583333 c -0.4397375,0 -0.79375,0.354013 -0.79375,0.79375 v 6.754627 c -0.9212022,0.32963 -1.5875001,1.211443 -1.5875001,2.2412067 0,1.029764 0.6662979,1.911578 1.5875001,2.241207 v 1.992126 c 0,0.439738 0.3540125,0.79375 0.79375,0.79375 0.4397375,0 0.79375,-0.354012 0.79375,-0.79375 v -1.992126 c 0.9212031,-0.329629 1.5875001,-1.211443 1.5875001,-2.241207 0,-1.0297637 -0.666297,-1.9115767 -1.5875001,-2.2412067 v -6.754627 c 0,-0.439737 -0.3540125,-0.79375 -0.79375,-0.79375 z m 0,8.598959 c 0.079701,0 0.1569807,0.0083 0.2320271,0.02274 a 1.190625,1.190625 0 0 1 0.00259,5.29e-4 1.190625,1.190625 0 0 1 0.020672,0.0047 c 0.063168,0.01348 0.1241031,0.03291 0.1829346,0.05581 a 1.190625,1.190625 0 0 1 0.060461,0.02584 c 0.046169,0.02101 0.09014,0.04534 0.1328084,0.07183 a 1.190625,1.190625 0 0 1 0.07183,0.04858 1.190625,1.190625 0 0 1 0.00206,0.0016 c 0.2941828,0.2153567 0.4852347,0.5610007 0.4852347,0.9590887 0,0.396365 -0.1896382,0.740422 -0.4816242,0.956014 a 1.190625,1.190625 0 0 1 -0.078032,0.05323 c -0.041828,0.02595 -0.085031,0.04959 -0.1302247,0.07028 a 1.190625,1.190625 0 0 1 -0.063045,0.02739 c -0.058692,0.02281 -0.1194131,0.04236 -0.1824178,0.05581 a 1.190625,1.190625 0 0 1 -0.00206,5.29e-4 1.190625,1.190625 0 0 1 -0.024289,0.0047 c -0.074125,0.01408 -0.150283,0.02273 -0.2289291,0.02273 -0.079704,0 -0.1569789,-0.0083 -0.2320272,-0.02274 -8.466e-4,-1.63e-4 -0.00175,-3.44e-4 -0.00259,-5.29e-4 a 1.190625,1.190625 0 0 1 -0.020672,-0.0047 c -0.063169,-0.01348 -0.1241025,-0.03292 -0.1829345,-0.05581 a 1.190625,1.190625 0 0 1 -0.060462,-0.02584 c -0.046169,-0.02101 -0.09014,-0.04534 -0.1328084,-0.07183 a 1.190625,1.190625 0 0 1 -0.07183,-0.04858 1.190625,1.190625 0 0 1 -0.00206,-0.0016 C 7.4670984,11.591717 7.276044,11.246094 7.276044,10.847975 c 0,-0.396349 0.1896407,-0.740417 0.4816243,-0.9560137 a 1.190625,1.190625 0 0 1 0.078031,-0.05323 c 0.041828,-0.02595 0.085031,-0.04959 0.1302248,-0.07028 a 1.190625,1.190625 0 0 1 0.063045,-0.02739 c 0.058692,-0.02281 0.1194117,-0.04236 0.1824177,-0.05581 7.144e-4,-1.5e-4 0.00138,-3.7e-4 0.00206,-5.29e-4 a 1.190625,1.190625 0 0 1 0.024289,-0.0047 c 0.074127,-0.01408 0.1502802,-0.02273 0.2289292,-0.02273 z" />
    <path
       id="rect863-6-3-7"
       style="fill:#808084;stroke-width:0;stroke-linecap:round;stroke-linejoin:round;stroke-dashoffset:2.1875;fill-opacity:1"
       d="m 14.552084,1.0583333 c -0.439738,0 -0.79375,0.354013 -0.79375,0.79375 v 2.918169 c -0.921203,0.329629 -1.5875,1.211442 -1.5875,2.241207 0,1.029763 0.666297,1.911577 1.5875,2.241206 V 15.08125 c 0,0.439738 0.354012,0.79375 0.79375,0.79375 0.439737,0 0.79375,-0.354012 0.79375,-0.79375 V 9.2526653 c 0.921202,-0.329629 1.5875,-1.211443 1.5875,-2.241206 0,-1.029765 -0.666298,-1.911578 -1.5875,-2.241207 v -2.918169 c 0,-0.439737 -0.354013,-0.79375 -0.79375,-0.79375 z m 0,4.7625 c 0.0797,0 0.156981,0.0083 0.232027,0.02274 a 1.190625,1.190625 0 0 1 0.0026,5.29e-4 1.190625,1.190625 0 0 1 0.02067,0.0047 c 0.06317,0.01348 0.124103,0.03291 0.182934,0.05581 a 1.190625,1.190625 0 0 1 0.06046,0.02584 c 0.04617,0.02101 0.09014,0.04534 0.132808,0.07183 a 1.190625,1.190625 0 0 1 0.07183,0.04858 1.190625,1.190625 0 0 1 0.0021,0.0016 c 0.294183,0.215357 0.485235,0.561002 0.485235,0.95909 0,0.396364 -0.189639,0.740422 -0.481624,0.956013 a 1.190625,1.190625 0 0 1 -0.07803,0.05323 c -0.04183,0.02595 -0.08503,0.04959 -0.130225,0.07028 a 1.190625,1.190625 0 0 1 -0.06305,0.02739 c -0.05869,0.02281 -0.119413,0.04236 -0.182418,0.05581 a 1.190625,1.190625 0 0 1 -0.0021,5.29e-4 1.190625,1.190625 0 0 1 -0.02429,0.0047 c -0.07413,0.01408 -0.150283,0.02273 -0.228929,0.02273 -0.0797,0 -0.156979,-0.0083 -0.232027,-0.02274 -8.47e-4,-1.62e-4 -0.0017,-3.44e-4 -0.0026,-5.29e-4 a 1.190625,1.190625 0 0 1 -0.02067,-0.0047 c -0.06317,-0.01348 -0.124103,-0.03292 -0.182935,-0.05581 a 1.190625,1.190625 0 0 1 -0.06046,-0.02584 c -0.04617,-0.02101 -0.09014,-0.04534 -0.132809,-0.07183 a 1.190625,1.190625 0 0 1 -0.07183,-0.04858 1.190625,1.190625 0 0 1 -0.0021,-0.0016 c -0.294181,-0.215347 -0.485235,-0.56097 -0.485235,-0.959089 0,-0.39635 0.18964,-0.740418 0.481624,-0.956014 a 1.190625,1.190625 0 0 1 0.07803,-0.05323 c 0.04183,-0.02595 0.08503,-0.04959 0.130225,-0.07028 a 1.190625,1.190625 0 0 1 0.06304,-0.02739 c 0.05869,-0.02281 0.119412,-0.04236 0.182418,-0.05581 7.15e-4,-1.5e-4 0.0014,-3.71e-4 0.0021,-5.29e-4 a 1.190625,1.190625 0 0 1 0.02429,-0.0047 c 0.07413,-0.01408 0.15028,-0.02273 0.228929,-0.02273 z" />
  </g>
</svg>
