<?xml version="1.0" encoding="UTF-8" standalone="no"?>
<svg
   xmlns:dc="http://purl.org/dc/elements/1.1/"
   xmlns:cc="http://creativecommons.org/ns#"
   xmlns:rdf="http://www.w3.org/1999/02/22-rdf-syntax-ns#"
   xmlns:svg="http://www.w3.org/2000/svg"
   xmlns="http://www.w3.org/2000/svg"
   xmlns:xlink="http://www.w3.org/1999/xlink"
   xmlns:sodipodi="http://sodipodi.sourceforge.net/DTD/sodipodi-0.dtd"
   xmlns:inkscape="http://www.inkscape.org/namespaces/inkscape"
   width="64"
   height="64"
   viewBox="0 0 64 64"
   version="1.1"
   id="svg6374"
   inkscape:version="1.0.2 (e86c870879, 2021-01-15)"
   sodipodi:docname="dialog-error.svg">
  <defs
     id="defs6368">
    <linearGradient
       inkscape:collect="always"
       xlink:href="#linearGradient994-9"
       id="linearGradient1244"
       gradientUnits="userSpaceOnUse"
       gradientTransform="translate(-12.5937,-60.67725)"
       x1="44.592453"
       y1="67.342995"
       x2="44.093658"
       y2="92.677246" />
    <linearGradient
       inkscape:collect="always"
       id="linearGradient994-9">
      <stop
         style="stop-color:#f9f9f7;stop-opacity:0.1"
         offset="0"
         id="stop992" />
      <stop
         style="stop-color:#f9f9f7;stop-opacity:0"
         offset="1"
         id="stop990" />
    </linearGradient>
  </defs>
  <sodipodi:namedview
     id="base"
     pagecolor="#cecece"
     bordercolor="#666666"
     borderopacity="1.0"
     inkscape:pageopacity="0"
     inkscape:pageshadow="2"
     inkscape:zoom="6.8818909"
     inkscape:cx="20.896034"
     inkscape:cy="44.014593"
     inkscape:document-units="px"
     inkscape:current-layer="layer1"
     inkscape:document-rotation="0"
     showgrid="false"
     units="px"
     inkscape:window-width="2048"
     inkscape:window-height="1080"
     inkscape:window-x="0"
     inkscape:window-y="0"
     inkscape:window-maximized="1" />
  <metadata
     id="metadata6371">
    <rdf:RDF>
      <cc:Work
         rdf:about="">
        <dc:format>image/svg+xml</dc:format>
        <dc:type
           rdf:resource="http://purl.org/dc/dcmitype/StillImage" />
        <dc:title />
      </cc:Work>
    </rdf:RDF>
  </metadata>
  <g
     inkscape:label="Layer 1"
     inkscape:groupmode="layer"
     id="layer1">
    <path
       id="path895-3-6-7-6-6-7-2-7-7"
       style="color:#000000;font-style:normal;font-variant:normal;font-weight:normal;font-stretch:normal;font-size:medium;line-height:normal;font-family:sans-serif;font-variant-ligatures:normal;font-variant-position:normal;font-variant-caps:normal;font-variant-numeric:normal;font-variant-alternates:normal;font-variant-east-asian:normal;font-feature-settings:normal;font-variation-settings:normal;text-indent:0;text-align:start;text-decoration:none;text-decoration-line:none;text-decoration-style:solid;text-decoration-color:#000000;letter-spacing:normal;word-spacing:normal;text-transform:none;writing-mode:lr-tb;direction:ltr;text-orientation:mixed;dominant-baseline:auto;baseline-shift:baseline;text-anchor:start;white-space:normal;shape-padding:0;shape-margin:0;inline-size:0;clip-rule:nonzero;display:inline;overflow:visible;visibility:visible;opacity:0.15;isolation:auto;mix-blend-mode:normal;color-interpolation:sRGB;color-interpolation-filters:linearRGB;solid-color:#000000;solid-opacity:1;vector-effect:none;fill:#0c0c0c;fill-opacity:1;fill-rule:nonzero;stroke:none;stroke-linecap:round;stroke-linejoin:round;stroke-miterlimit:4;stroke-dasharray:none;stroke-dashoffset:0;stroke-opacity:1;color-rendering:auto;image-rendering:auto;shape-rendering:auto;text-rendering:auto;enable-background:accumulate;stop-color:#000000"
       d="m 32,6.5 c -14.8939,0 -27,12.10608 -27,27 0,14.89392 12.1061,27 27,27 14.8939,0 27,-12.10608 27,-27 0,-14.89392 -12.1061,-27 -27,-27 z m 0,3 c 13.2726,0 24,10.7274 24,24 0,13.2726 -10.7274,24 -24,24 C 18.7274,57.5 8,46.7726 8,33.5 8,20.2274 18.7274,9.5 32,9.5 Z" />
    <path
       id="path895-3-6-5-7-9-5-5"
       style="color:#000000;font-style:normal;font-variant:normal;font-weight:normal;font-stretch:normal;font-size:medium;line-height:normal;font-family:sans-serif;font-variant-ligatures:normal;font-variant-position:normal;font-variant-caps:normal;font-variant-numeric:normal;font-variant-alternates:normal;font-variant-east-asian:normal;font-feature-settings:normal;font-variation-settings:normal;text-indent:0;text-align:start;text-decoration:none;text-decoration-line:none;text-decoration-style:solid;text-decoration-color:#000000;letter-spacing:normal;word-spacing:normal;text-transform:none;writing-mode:lr-tb;direction:ltr;text-orientation:mixed;dominant-baseline:auto;baseline-shift:baseline;text-anchor:start;white-space:normal;shape-padding:0;shape-margin:0;inline-size:0;clip-rule:nonzero;display:inline;overflow:visible;visibility:visible;opacity:0.85;isolation:auto;mix-blend-mode:normal;color-interpolation:sRGB;color-interpolation-filters:linearRGB;solid-color:#000000;solid-opacity:1;vector-effect:none;fill:#982041;fill-opacity:1;fill-rule:nonzero;stroke:none;stroke-linecap:round;stroke-linejoin:round;stroke-miterlimit:4;stroke-dasharray:none;stroke-dashoffset:0;stroke-opacity:1;color-rendering:auto;image-rendering:auto;shape-rendering:auto;text-rendering:auto;enable-background:accumulate;stop-color:#000000"
       d="M 32,5 C 17.1061,5 5,17.10608 5,32 5,46.89392 17.1061,59 32,59 46.8939,59 59,46.89392 59,32 59,17.10608 46.8939,5 32,5 Z m 0,3 C 45.2726,8 56,18.7274 56,32 56,45.2726 45.2726,56 32,56 18.7274,56 8,45.2726 8,32 8,18.7274 18.7274,8 32,8 Z" />
    <circle
       style="fill:#d53460;fill-opacity:1;stroke:none;stroke-width:0;stroke-linecap:round;stroke-linejoin:round;stroke-miterlimit:4;stroke-dasharray:none"
       id="path895-6-6-3-3-3"
       cx="31.999998"
       cy="32.000031"
       r="25.5" />
    <circle
       style="fill:url(#linearGradient1244);fill-opacity:1;stroke:none;stroke-width:0;stroke-linecap:round;stroke-linejoin:round;stroke-miterlimit:4;stroke-dasharray:none"
       id="path895-5-9-3-1-5-5"
       cx="31.999998"
       cy="32.000031"
       r="25.5" />
    <path
       id="path895-3-6-5-7-9-9-2-1"
       style="color:#000000;font-style:normal;font-variant:normal;font-weight:normal;font-stretch:normal;font-size:medium;line-height:normal;font-family:sans-serif;font-variant-ligatures:normal;font-variant-position:normal;font-variant-caps:normal;font-variant-numeric:normal;font-variant-alternates:normal;font-variant-east-asian:normal;font-feature-settings:normal;font-variation-settings:normal;text-indent:0;text-align:start;text-decoration:none;text-decoration-line:none;text-decoration-style:solid;text-decoration-color:#000000;letter-spacing:normal;word-spacing:normal;text-transform:none;writing-mode:lr-tb;direction:ltr;text-orientation:mixed;dominant-baseline:auto;baseline-shift:baseline;text-anchor:start;white-space:normal;shape-padding:0;shape-margin:0;inline-size:0;clip-rule:nonzero;display:inline;overflow:visible;visibility:visible;opacity:0.15;isolation:auto;mix-blend-mode:normal;color-interpolation:sRGB;color-interpolation-filters:linearRGB;solid-color:#000000;solid-opacity:1;vector-effect:none;fill:#65152c;fill-opacity:1;fill-rule:nonzero;stroke:none;stroke-linecap:round;stroke-linejoin:round;stroke-miterlimit:4;stroke-dasharray:none;stroke-dashoffset:0;stroke-opacity:1;color-rendering:auto;image-rendering:auto;shape-rendering:auto;text-rendering:auto;enable-background:accumulate;stop-color:#000000"
       d="M 32,5 C 17.1061,5 5,17.10608 5,32 5,46.89392 17.1061,59 32,59 46.8939,59 59,46.89392 59,32 59,17.10608 46.8939,5 32,5 Z m 0,3 C 45.2726,8 56,18.7274 56,32 56,45.2726 45.2726,56 32,56 18.7274,56 8,45.2726 8,32 8,18.7274 18.7274,8 32,8 Z" />
    <path
       id="rect2609-8-3-9-9"
       style="opacity:0.35;fill:#65162c;fill-opacity:1;stroke:none;stroke-width:2.32272;stroke-linecap:round;stroke-linejoin:round;stroke-miterlimit:4;stroke-dasharray:none;stroke-dashoffset:2.1875;stroke-opacity:1"
       d="m 30.2578,17 c -0.6434,0 -1.1614,0.51782 -1.1614,1.16116 v 20.90323 c 0,0.64336 0.518,1.16142 1.1614,1.16142 h 3.4843 c 0.6434,0 1.1614,-0.51806 1.1614,-1.16142 V 18.16116 C 34.9035,17.51781 34.3855,17 33.7421,17 Z M 32,44.87085 A 4.0650011,4.0645161 0 0 0 27.935,48.93547 4.0650011,4.0645161 0 0 0 32,52.99987 4.0650011,4.0645161 0 0 0 36.065,48.93547 4.0650011,4.0645161 0 0 0 32,44.87085 Z" />
    <path
       id="rect2609-8-3-6-3"
       style="color:#000000;font-style:normal;font-variant:normal;font-weight:normal;font-stretch:normal;font-size:medium;line-height:normal;font-family:sans-serif;font-variant-ligatures:normal;font-variant-position:normal;font-variant-caps:normal;font-variant-numeric:normal;font-variant-alternates:normal;font-variant-east-asian:normal;font-feature-settings:normal;font-variation-settings:normal;text-indent:0;text-align:start;text-decoration:none;text-decoration-line:none;text-decoration-style:solid;text-decoration-color:#000000;letter-spacing:normal;word-spacing:normal;text-transform:none;writing-mode:lr-tb;direction:ltr;text-orientation:mixed;dominant-baseline:auto;baseline-shift:baseline;text-anchor:start;white-space:normal;shape-padding:0;shape-margin:0;inline-size:0;clip-rule:nonzero;display:inline;overflow:visible;visibility:visible;opacity:0.75;isolation:auto;mix-blend-mode:normal;color-interpolation:sRGB;color-interpolation-filters:linearRGB;solid-color:#000000;solid-opacity:1;vector-effect:none;fill:#541224;fill-opacity:1;fill-rule:nonzero;stroke:none;stroke-width:0.999953;stroke-linecap:round;stroke-linejoin:round;stroke-miterlimit:4;stroke-dasharray:none;stroke-dashoffset:2.1875;stroke-opacity:1;color-rendering:auto;image-rendering:auto;shape-rendering:auto;text-rendering:auto;enable-background:accumulate;stop-color:#000000"
       d="m 30.257,13.5 c -0.9117,0 -1.6601,0.75036 -1.6601,1.6621 v 20.90234 c 0,0.91174 0.7483,1.66211 1.6601,1.66211 h 3.484 c 0.9117,0 1.662,-0.75038 1.662,-1.66211 V 15.1621 C 35.403,14.25037 34.6526,13.5 33.741,13.5 Z m 0,1 h 3.484 c 0.3752,0 0.6621,0.28714 0.6621,0.6621 v 20.90234 c 0,0.37497 -0.2871,0.66211 -0.6621,0.66211 h -3.484 c -0.3751,0 -0.6601,-0.28715 -0.6601,-0.66211 V 15.1621 c 0,-0.37496 0.2849,-0.6621 0.6601,-0.6621 z m 1.742,26.87108 c -2.5151,0 -4.5641,2.04939 -4.564,4.56445 0,2.51498 2.049,4.56447 4.564,4.56447 2.5149,0 4.5659,-2.04949 4.566,-4.56447 0,-2.51507 -2.051,-4.56445 -4.566,-4.56445 z m 0,1 c 1.9747,0 3.5661,1.58991 3.566,3.56445 0,1.97448 -1.5914,3.56447 -3.566,3.56447 -1.9746,0 -3.5641,-1.58998 -3.5641,-3.56447 -10e-5,-1.97455 1.5894,-3.56445 3.5641,-3.56445 z" />
    <path
       id="rect2609-8-3-60"
       style="fill:#fbfcfd;fill-opacity:1;stroke:none;stroke-width:2.32272;stroke-linecap:round;stroke-linejoin:round;stroke-miterlimit:4;stroke-dasharray:none;stroke-dashoffset:2.1875;stroke-opacity:1"
       d="m 30.2578,14 c -0.6434,0 -1.1614,0.51782 -1.1614,1.16116 v 20.90323 c 0,0.64336 0.518,1.16142 1.1614,1.16142 h 3.4843 c 0.6434,0 1.1614,-0.51806 1.1614,-1.16142 V 15.16116 C 34.9035,14.51781 34.3855,14 33.7421,14 Z M 32,41.87085 A 4.0650011,4.0645161 0 0 0 27.935,45.93547 4.0650011,4.0645161 0 0 0 32,49.99987 4.0650011,4.0645161 0 0 0 36.065,45.93547 4.0650011,4.0645161 0 0 0 32,41.87085 Z" />
  </g>
</svg>
