<?xml version="1.0" encoding="UTF-8" standalone="no"?>
<svg
   xmlns:dc="http://purl.org/dc/elements/1.1/"
   xmlns:cc="http://creativecommons.org/ns#"
   xmlns:rdf="http://www.w3.org/1999/02/22-rdf-syntax-ns#"
   xmlns:svg="http://www.w3.org/2000/svg"
   xmlns="http://www.w3.org/2000/svg"
   xmlns:xlink="http://www.w3.org/1999/xlink"
   xmlns:sodipodi="http://sodipodi.sourceforge.net/DTD/sodipodi-0.dtd"
   xmlns:inkscape="http://www.inkscape.org/namespaces/inkscape"
   width="64"
   height="64"
   viewBox="0 0 64 64"
   version="1.1"
   id="svg6374"
   inkscape:version="1.0.2 (e86c870879, 2021-01-15)"
   sodipodi:docname="dialog-close.svg">
  <defs
     id="defs6368">
    <radialGradient
       inkscape:collect="always"
       xlink:href="#linearGradient982"
       id="radialGradient972"
       cx="32"
       cy="32"
       fx="32"
       fy="32"
       r="20.487448"
       gradientUnits="userSpaceOnUse"
       gradientTransform="translate(-4.975e-4,-4.955e-4)" />
    <linearGradient
       inkscape:collect="always"
       id="linearGradient982">
      <stop
         style="stop-color:#bebec4;stop-opacity:1"
         offset="0"
         id="stop978" />
      <stop
         style="stop-color:#a4a4af;stop-opacity:1"
         offset="1"
         id="stop980" />
    </linearGradient>
  </defs>
  <sodipodi:namedview
     id="base"
     pagecolor="#cecece"
     bordercolor="#666666"
     borderopacity="1.0"
     inkscape:pageopacity="0"
     inkscape:pageshadow="2"
     inkscape:zoom="5.5639287"
     inkscape:cx="8.3100654"
     inkscape:cy="29.73153"
     inkscape:document-units="px"
     inkscape:current-layer="layer1"
     inkscape:document-rotation="0"
     showgrid="false"
     units="px"
     inkscape:window-width="1500"
     inkscape:window-height="970"
     inkscape:window-x="68"
     inkscape:window-y="56"
     inkscape:window-maximized="0" />
  <metadata
     id="metadata6371">
    <rdf:RDF>
      <cc:Work
         rdf:about="">
        <dc:format>image/svg+xml</dc:format>
        <dc:type
           rdf:resource="http://purl.org/dc/dcmitype/StillImage" />
        <dc:title></dc:title>
      </cc:Work>
    </rdf:RDF>
  </metadata>
  <g
     inkscape:label="Layer 1"
     inkscape:groupmode="layer"
     id="layer1">
    <path
       id="rect937-1-2-6"
       style="color:#000000;font-style:normal;font-variant:normal;font-weight:normal;font-stretch:normal;font-size:medium;line-height:normal;font-family:sans-serif;font-variant-ligatures:normal;font-variant-position:normal;font-variant-caps:normal;font-variant-numeric:normal;font-variant-alternates:normal;font-variant-east-asian:normal;font-feature-settings:normal;font-variation-settings:normal;text-indent:0;text-align:start;text-decoration:none;text-decoration-line:none;text-decoration-style:solid;text-decoration-color:#000000;letter-spacing:normal;word-spacing:normal;text-transform:none;writing-mode:lr-tb;direction:ltr;text-orientation:mixed;dominant-baseline:auto;baseline-shift:baseline;text-anchor:start;white-space:normal;shape-padding:0;shape-margin:0;inline-size:0;clip-rule:nonzero;display:inline;overflow:visible;visibility:visible;opacity:0.15;isolation:auto;mix-blend-mode:normal;color-interpolation:sRGB;color-interpolation-filters:linearRGB;solid-color:#000000;solid-opacity:1;vector-effect:none;fill:#0c0c0c;fill-opacity:1;fill-rule:nonzero;stroke:none;stroke-width:1.0004;stroke-linecap:round;stroke-linejoin:round;stroke-miterlimit:4;stroke-dasharray:none;stroke-dashoffset:0;stroke-opacity:1;paint-order:stroke fill markers;color-rendering:auto;image-rendering:auto;shape-rendering:auto;text-rendering:auto;enable-background:accumulate;stop-color:#000000"
       d="m 16.260873,12.512513 c -1.47345,0 -2.94744,0.55978 -4.06801,1.68035 -2.2411405,2.241139 -2.2411405,5.894879 0,8.136019 l 11.672569,11.67062 -11.672569,11.67257 c -2.2411505,2.24115 -2.2411505,5.892941 0,8.13407 2.24114,2.24115 5.892919,2.24115 8.13407,0 l 11.67257,-11.670609 11.672569,11.670609 c 2.241151,2.24115 5.892931,2.24115 8.134071,0 2.241149,-2.241129 2.241149,-5.89292 0,-8.13407 l -11.67062,-11.67257 11.67062,-11.67062 c 2.241149,-2.24114 2.241149,-5.89488 0,-8.136019 -2.24114,-2.24114 -5.89292,-2.24114 -8.134071,0 L 31.999503,25.865432 20.326933,14.192862 c -1.12058,-1.12057 -2.592611,-1.68035 -4.06606,-1.680349 z m 31.47922,1.9832 c 0.955749,0 1.910519,0.37085 2.651429,1.11177 1.48183,1.481829 1.48183,3.824949 0,5.30679 L 38.011643,33.292192 a 1.0004948,1.0004948 0 0 0 0,1.41462 l 12.37988,12.37988 c 1.48183,1.48184 1.48183,3.823011 0,5.30484 -1.48183,1.48182 -3.823001,1.48182 -5.304821,0 l -12.37989,-12.37794 a 1.0004948,1.0004948 0 0 0 -1.414619,0 l -12.37989,12.37794 c -1.48182,1.48182 -3.82299,1.48182 -5.30482,0 -1.48183,-1.48183 -1.48183,-3.82299 0,-5.30484 l 12.37988,-12.37988 a 1.0004948,1.0004948 0 0 0 0,-1.41462 L 13.607483,20.914273 c -1.48183,-1.481841 -1.48183,-3.824961 0,-5.30679 0.74091,-0.74092 1.6975,-1.10982 2.65339,-1.10982 0.95589,0 1.910519,0.3689 2.65143,1.10982 l 12.37989,12.379889 a 1.0004948,1.0004948 0 0 0 1.414619,0 l 12.37989,-12.379889 c 0.74091,-0.74092 1.69763,-1.11177 2.653391,-1.11177 z" />
    <path
       id="rect937-1"
       style="color:#000000;font-style:normal;font-variant:normal;font-weight:normal;font-stretch:normal;font-size:medium;line-height:normal;font-family:sans-serif;font-variant-ligatures:normal;font-variant-position:normal;font-variant-caps:normal;font-variant-numeric:normal;font-variant-alternates:normal;font-variant-east-asian:normal;font-feature-settings:normal;font-variation-settings:normal;text-indent:0;text-align:start;text-decoration:none;text-decoration-line:none;text-decoration-style:solid;text-decoration-color:#000000;letter-spacing:normal;word-spacing:normal;text-transform:none;writing-mode:lr-tb;direction:ltr;text-orientation:mixed;dominant-baseline:auto;baseline-shift:baseline;text-anchor:start;white-space:normal;shape-padding:0;shape-margin:0;inline-size:0;clip-rule:nonzero;display:inline;overflow:visible;visibility:visible;isolation:auto;mix-blend-mode:normal;color-interpolation:sRGB;color-interpolation-filters:linearRGB;solid-color:#000000;solid-opacity:1;vector-effect:none;fill:#414144;fill-opacity:1;fill-rule:nonzero;stroke:none;stroke-width:1.0004;stroke-linecap:round;stroke-linejoin:round;stroke-miterlimit:4;stroke-dasharray:none;stroke-dashoffset:0;stroke-opacity:1;paint-order:stroke fill markers;color-rendering:auto;image-rendering:auto;shape-rendering:auto;text-rendering:auto;enable-background:accumulate;stop-color:#000000"
       d="m 16.260873,10.512513 c -1.47345,0 -2.94744,0.55978 -4.06801,1.68035 -2.2411405,2.24114 -2.2411405,5.894879 0,8.136019 l 11.672569,11.67062 -11.672569,11.67257 c -2.2411505,2.24115 -2.2411505,5.892941 0,8.13407 2.24114,2.24115 5.892919,2.24115 8.13407,0 l 11.67257,-11.670609 11.672569,11.670609 c 2.241151,2.24115 5.892931,2.24115 8.134071,0 2.241149,-2.241129 2.241149,-5.89292 0,-8.13407 l -11.67062,-11.67257 11.67062,-11.67062 c 2.241149,-2.24114 2.241149,-5.894879 0,-8.136019 -2.24114,-2.2411505 -5.89292,-2.2411505 -8.134071,0 L 31.999503,23.865432 20.326933,12.192862 c -1.12058,-1.12057 -2.592611,-1.68035 -4.06606,-1.680349 z m 31.47922,1.9832 c 0.955749,0 1.910519,0.37085 2.651429,1.11177 1.48183,1.48183 1.48183,3.824949 0,5.30679 L 38.011643,31.292192 a 1.0004948,1.0004948 0 0 0 0,1.41462 l 12.37988,12.37988 c 1.48183,1.48184 1.48183,3.823011 0,5.30484 -1.48183,1.48182 -3.823001,1.48182 -5.304821,0 l -12.37989,-12.37794 a 1.0004948,1.0004948 0 0 0 -1.414619,0 l -12.37989,12.37794 c -1.48182,1.48182 -3.82299,1.48182 -5.30482,0 -1.48183,-1.48183 -1.48183,-3.82299 0,-5.30484 l 12.37988,-12.37988 a 1.0004948,1.0004948 0 0 0 0,-1.41462 L 13.607483,18.914273 c -1.48183,-1.481841 -1.48183,-3.82496 0,-5.30679 0.74091,-0.74092 1.6975,-1.10982 2.65339,-1.10982 0.95589,0 1.910519,0.3689 2.65143,1.10982 l 12.37989,12.379889 a 1.0004948,1.0004948 0 0 0 1.414619,0 l 12.37989,-12.379889 c 0.74091,-0.74092 1.69763,-1.11177 2.653391,-1.11177 z" />
    <path
       id="rect937"
       style="fill:url(#radialGradient972);fill-opacity:1;stroke:none;stroke-width:3;stroke-linecap:round;stroke-linejoin:round;paint-order:stroke fill markers"
       d="m 51.091383,12.907622 c -1.860751,-1.86076 -4.856761,-1.86076 -6.71751,0 l -12.37437,12.37436 -12.37437,-12.374359 c -1.86075,-1.86075 -4.85676,-1.86075 -6.71751,0 -1.86075,1.86075 -1.86075,4.85676 0,6.717509 l 12.37437,12.37437 -12.37437,12.37437 c -1.86075,1.86075 -1.86075,4.85676 0,6.71751 1.86075,1.86075 4.85676,1.86075 6.71751,0 l 12.37437,-12.37437 12.37437,12.37437 c 1.860749,1.86075 4.856759,1.86075 6.717509,0 1.86076,-1.86075 1.86076,-4.85676 0,-6.71751 l -12.37437,-12.37437 12.374371,-12.37437 c 1.86076,-1.860749 1.86076,-4.856759 0,-6.71751 z" />
    <path
       id="rect937-1-2"
       style="color:#000000;font-style:normal;font-variant:normal;font-weight:normal;font-stretch:normal;font-size:medium;line-height:normal;font-family:sans-serif;font-variant-ligatures:normal;font-variant-position:normal;font-variant-caps:normal;font-variant-numeric:normal;font-variant-alternates:normal;font-variant-east-asian:normal;font-feature-settings:normal;font-variation-settings:normal;text-indent:0;text-align:start;text-decoration:none;text-decoration-line:none;text-decoration-style:solid;text-decoration-color:#000000;letter-spacing:normal;word-spacing:normal;text-transform:none;writing-mode:lr-tb;direction:ltr;text-orientation:mixed;dominant-baseline:auto;baseline-shift:baseline;text-anchor:start;white-space:normal;shape-padding:0;shape-margin:0;inline-size:0;clip-rule:nonzero;display:inline;overflow:visible;visibility:visible;opacity:0.25;isolation:auto;mix-blend-mode:normal;color-interpolation:sRGB;color-interpolation-filters:linearRGB;solid-color:#000000;solid-opacity:1;vector-effect:none;fill:#414144;fill-opacity:1;fill-rule:nonzero;stroke:none;stroke-width:1.0004;stroke-linecap:round;stroke-linejoin:round;stroke-miterlimit:4;stroke-dasharray:none;stroke-dashoffset:0;stroke-opacity:1;paint-order:stroke fill markers;color-rendering:auto;image-rendering:auto;shape-rendering:auto;text-rendering:auto;enable-background:accumulate;stop-color:#000000"
       d="m 16.260873,10.512513 c -1.47345,0 -2.94744,0.55978 -4.06801,1.68035 -2.2411405,2.24114 -2.2411405,5.894879 0,8.136019 l 11.672569,11.67062 -11.672569,11.67257 c -2.2411505,2.24115 -2.2411505,5.892941 0,8.13407 2.24114,2.24115 5.892919,2.24115 8.13407,0 l 11.67257,-11.670609 11.672569,11.670609 c 2.241151,2.24115 5.892931,2.24115 8.134071,0 2.241149,-2.241129 2.241149,-5.89292 0,-8.13407 l -11.67062,-11.67257 11.67062,-11.67062 c 2.241149,-2.24114 2.241149,-5.894879 0,-8.136019 -2.24114,-2.2411405 -5.89292,-2.2411405 -8.134071,0 L 31.999503,23.865432 20.326933,12.192862 c -1.12058,-1.12057 -2.592611,-1.68035 -4.06606,-1.680349 z m 31.47922,1.9832 c 0.955749,0 1.910519,0.37085 2.651429,1.11177 1.48183,1.48183 1.48183,3.824949 0,5.30679 L 38.011643,31.292192 a 1.0004948,1.0004948 0 0 0 0,1.41462 l 12.37988,12.37988 c 1.48183,1.48184 1.48183,3.823011 0,5.30484 -1.48183,1.48182 -3.823001,1.48182 -5.304821,0 l -12.37989,-12.37794 a 1.0004948,1.0004948 0 0 0 -1.414619,0 l -12.37989,12.37794 c -1.48182,1.48182 -3.82299,1.48182 -5.30482,0 -1.48183,-1.48183 -1.48183,-3.82299 0,-5.30484 l 12.37988,-12.37988 a 1.0004948,1.0004948 0 0 0 0,-1.41462 L 13.607483,18.914273 c -1.48183,-1.481841 -1.48183,-3.82496 0,-5.30679 0.74091,-0.74092 1.6975,-1.10982 2.65339,-1.10982 0.95589,0 1.910519,0.3689 2.65143,1.10982 l 12.37989,12.379889 a 1.0004948,1.0004948 0 0 0 1.414619,0 l 12.37989,-12.379889 c 0.74091,-0.74092 1.69763,-1.11177 2.653391,-1.11177 z" />
  </g>
</svg>
