<?xml version="1.0" encoding="UTF-8" standalone="no"?>
<svg
   xmlns:dc="http://purl.org/dc/elements/1.1/"
   xmlns:cc="http://creativecommons.org/ns#"
   xmlns:rdf="http://www.w3.org/1999/02/22-rdf-syntax-ns#"
   xmlns:svg="http://www.w3.org/2000/svg"
   xmlns="http://www.w3.org/2000/svg"
   xmlns:xlink="http://www.w3.org/1999/xlink"
   xmlns:sodipodi="http://sodipodi.sourceforge.net/DTD/sodipodi-0.dtd"
   xmlns:inkscape="http://www.inkscape.org/namespaces/inkscape"
   width="64"
   height="64"
   viewBox="0 0 64 64"
   version="1.1"
   id="svg6374"
   inkscape:version="1.0.2 (e86c870879, 2021-01-15)"
   sodipodi:docname="network-transmit.svg">
  <defs
     id="defs6368">
    <linearGradient
       inkscape:collect="always"
       xlink:href="#linearGradient1139-3"
       id="linearGradient5836-6"
       gradientUnits="userSpaceOnUse"
       gradientTransform="matrix(3.7795275,0,0,3.7795275,0.99999993,1.0000003)"
       x1="8.1944265"
       y1="1.0125455"
       x2="8.2493715"
       y2="15.385565" />
    <linearGradient
       inkscape:collect="always"
       id="linearGradient1139-3">
      <stop
         style="stop-color:#faf9fb;stop-opacity:1"
         offset="0"
         id="stop1135-6" />
      <stop
         style="stop-color:#d8d7d9;stop-opacity:1"
         offset="1"
         id="stop1137-7" />
    </linearGradient>
  </defs>
  <sodipodi:namedview
     id="base"
     pagecolor="#cecece"
     bordercolor="#666666"
     borderopacity="1.0"
     inkscape:pageopacity="0"
     inkscape:pageshadow="2"
     inkscape:zoom="5.5639287"
     inkscape:cx="8.3100654"
     inkscape:cy="29.73153"
     inkscape:document-units="px"
     inkscape:current-layer="layer1"
     inkscape:document-rotation="0"
     showgrid="false"
     units="px"
     inkscape:window-width="1500"
     inkscape:window-height="970"
     inkscape:window-x="68"
     inkscape:window-y="56"
     inkscape:window-maximized="0" />
  <metadata
     id="metadata6371">
    <rdf:RDF>
      <cc:Work
         rdf:about="">
        <dc:format>image/svg+xml</dc:format>
        <dc:type
           rdf:resource="http://purl.org/dc/dcmitype/StillImage" />
        <dc:title></dc:title>
      </cc:Work>
    </rdf:RDF>
  </metadata>
  <g
     inkscape:label="Layer 1"
     inkscape:groupmode="layer"
     id="layer1">
    <path
       id="rect831-360-6-7-9-7-5-9-2-5-1"
       style="color:#000000;font-style:normal;font-variant:normal;font-weight:normal;font-stretch:normal;font-size:medium;line-height:normal;font-family:sans-serif;font-variant-ligatures:normal;font-variant-position:normal;font-variant-caps:normal;font-variant-numeric:normal;font-variant-alternates:normal;font-variant-east-asian:normal;font-feature-settings:normal;font-variation-settings:normal;text-indent:0;text-align:start;text-decoration:none;text-decoration-line:none;text-decoration-style:solid;text-decoration-color:#000000;letter-spacing:normal;word-spacing:normal;text-transform:none;writing-mode:lr-tb;direction:ltr;text-orientation:mixed;dominant-baseline:auto;baseline-shift:baseline;text-anchor:start;white-space:normal;shape-padding:0;shape-margin:0;inline-size:0;clip-rule:nonzero;display:inline;overflow:visible;visibility:visible;opacity:0.15;isolation:auto;mix-blend-mode:normal;color-interpolation:sRGB;color-interpolation-filters:linearRGB;solid-color:#000000;solid-opacity:1;vector-effect:none;fill:#0c0c0c;fill-opacity:1;fill-rule:nonzero;stroke:none;stroke-width:0;stroke-linecap:round;stroke-linejoin:round;stroke-miterlimit:4;stroke-dasharray:none;stroke-dashoffset:2.1875;stroke-opacity:1;color-rendering:auto;image-rendering:auto;shape-rendering:auto;text-rendering:auto;enable-background:accumulate;stop-color:#000000"
       d="m 10.00346,5.0000003 c -3.5748101,0 -6.5034601,2.9212 -6.5034601,6.4964997 v 44.007 c 0,3.5753 2.92865,6.4965 6.5034601,6.4965 h 43.99308 c 3.5748,0 6.50345,-2.9212 6.50345,-6.4965 v -44.007 c 0,-3.5752997 -2.92865,-6.4964997 -6.50345,-6.4964997 z m 0,2.9983 h 43.99308 c 1.96481,0 3.50562,1.5332 3.50562,3.4981997 v 44.007 c 0,1.965 -1.54081,3.5002 -3.50562,3.5002 H 10.00346 c -1.9648101,0 -3.4978101,-1.5352 -3.4978101,-3.5002 v -44.007 c 0,-1.9649997 1.533,-3.4981997 3.4978101,-3.4981997 z" />
    <rect
       style="fill:#525054;fill-opacity:1;stroke:none;stroke-width:4;stroke-linecap:round;stroke-linejoin:round;stroke-miterlimit:4;stroke-dasharray:none;stroke-opacity:1;paint-order:stroke fill markers"
       id="rect5846-2"
       width="58"
       height="58"
       x="3"
       y="3"
       rx="7"
       ry="7" />
    <rect
       style="fill:url(#linearGradient5836-6);fill-opacity:1;stroke-width:0;stroke-linecap:round;stroke-linejoin:round;stroke-dashoffset:2.1875"
       id="rect831-9-3-0-6-2-7"
       width="54"
       height="54"
       x="5"
       y="5.0001078"
       rx="5"
       ry="5" />
    <path
       id="rect831-360-6-7-7-6-7-1-9-0"
       style="color:#000000;font-style:normal;font-variant:normal;font-weight:normal;font-stretch:normal;font-size:medium;line-height:normal;font-family:sans-serif;font-variant-ligatures:normal;font-variant-position:normal;font-variant-caps:normal;font-variant-numeric:normal;font-variant-alternates:normal;font-variant-east-asian:normal;font-feature-settings:normal;font-variation-settings:normal;text-indent:0;text-align:start;text-decoration:none;text-decoration-line:none;text-decoration-style:solid;text-decoration-color:#000000;letter-spacing:normal;word-spacing:normal;text-transform:none;writing-mode:lr-tb;direction:ltr;text-orientation:mixed;dominant-baseline:auto;baseline-shift:baseline;text-anchor:start;white-space:normal;shape-padding:0;shape-margin:0;inline-size:0;clip-rule:nonzero;display:inline;overflow:visible;visibility:visible;opacity:0.15;isolation:auto;mix-blend-mode:normal;color-interpolation:sRGB;color-interpolation-filters:linearRGB;solid-color:#000000;solid-opacity:1;vector-effect:none;fill:#333234;fill-opacity:1;fill-rule:nonzero;stroke:none;stroke-width:0;stroke-linecap:round;stroke-linejoin:round;stroke-miterlimit:4;stroke-dasharray:none;stroke-dashoffset:2.1875;stroke-opacity:1;color-rendering:auto;image-rendering:auto;shape-rendering:auto;text-rendering:auto;enable-background:accumulate;stop-color:#000000"
       d="m 10.00346,3.5000003 c -3.5748101,0 -6.5034601,2.9212 -6.5034601,6.4965 V 54.0035 c 0,3.5753 2.92865,6.4965 6.5034601,6.4965 h 43.99308 c 3.5748,0 6.50345,-2.9212 6.50345,-6.4965 V 9.9965003 c 0,-3.5753 -2.92865,-6.4965 -6.50345,-6.4965 z m 0,2.9983 h 43.99308 c 1.96481,0 3.50562,1.5332 3.50562,3.4982 V 54.0035 c 0,1.965 -1.54081,3.5002 -3.50562,3.5002 H 10.00346 c -1.9648201,0 -3.4978101,-1.5352 -3.4978101,-3.5002 V 9.9965003 c 0,-1.965 1.53299,-3.4982 3.4978101,-3.4982 z" />
    <path
       id="path1113-1-0-6-8-3-2-5-4-8-3-92-8-3-2-4-2-0-9-9-93"
       style="color:#000000;font-style:normal;font-variant:normal;font-weight:normal;font-stretch:normal;font-size:medium;line-height:normal;font-family:sans-serif;font-variant-ligatures:normal;font-variant-position:normal;font-variant-caps:normal;font-variant-numeric:normal;font-variant-alternates:normal;font-variant-east-asian:normal;font-feature-settings:normal;font-variation-settings:normal;text-indent:0;text-align:start;text-decoration:none;text-decoration-line:none;text-decoration-style:solid;text-decoration-color:#000000;letter-spacing:normal;word-spacing:normal;text-transform:none;writing-mode:lr-tb;direction:ltr;text-orientation:mixed;dominant-baseline:auto;baseline-shift:baseline;text-anchor:start;white-space:normal;shape-padding:0;shape-margin:0;inline-size:0;clip-rule:nonzero;display:inline;overflow:visible;visibility:visible;opacity:0.25;isolation:auto;mix-blend-mode:normal;color-interpolation:sRGB;color-interpolation-filters:linearRGB;solid-color:#000000;solid-opacity:1;vector-effect:none;fill:#333234;fill-opacity:1;fill-rule:nonzero;stroke:none;stroke-width:1.00069;stroke-linecap:round;stroke-linejoin:round;stroke-miterlimit:4;stroke-dasharray:none;stroke-dashoffset:0;stroke-opacity:1;color-rendering:auto;image-rendering:auto;shape-rendering:auto;text-rendering:auto;enable-background:accumulate;stop-color:#000000"
       d="m 36.22579,14.7008 c -0.98487,-0.03 -1.9655,0.7535 -1.97578,1.8295 a 1.0006939,1.0008791 0 0 0 0,0.01 v 7.4648 9.3686 7.457 c 2.9e-4,0.9964 0.80782,1.846 1.81358,1.8687 0.39796,0.01 0.7887,-0.1121 1.11199,-0.3421 L 54.22867,30.217 c 1.02843,-0.7325 1.02845,-2.3226 0,-3.0551 L 37.17558,15.0216 C 36.88166,14.8123 36.55409,14.7109 36.22579,14.701 Z m 0.0254,2.1189 16.67005,11.8686 -16.67005,11.8705 v -7.1853 -9.3686 z" />
    <path
       id="path1113-1-0-6-8-3-2-5-4-8-3-92-8-3-2-4-2-0-9-6"
       style="color:#000000;font-style:normal;font-variant:normal;font-weight:normal;font-stretch:normal;font-size:medium;line-height:normal;font-family:sans-serif;font-variant-ligatures:normal;font-variant-position:normal;font-variant-caps:normal;font-variant-numeric:normal;font-variant-alternates:normal;font-variant-east-asian:normal;font-feature-settings:normal;font-variation-settings:normal;text-indent:0;text-align:start;text-decoration:none;text-decoration-line:none;text-decoration-style:solid;text-decoration-color:#000000;letter-spacing:normal;word-spacing:normal;text-transform:none;writing-mode:lr-tb;direction:ltr;text-orientation:mixed;dominant-baseline:auto;baseline-shift:baseline;text-anchor:start;white-space:normal;shape-padding:0;shape-margin:0;inline-size:0;clip-rule:nonzero;display:inline;overflow:visible;visibility:visible;isolation:auto;mix-blend-mode:normal;color-interpolation:sRGB;color-interpolation-filters:linearRGB;solid-color:#000000;solid-opacity:1;vector-effect:none;fill:#871c3a;fill-opacity:1;fill-rule:nonzero;stroke:none;stroke-width:1.00069;stroke-linecap:round;stroke-linejoin:round;stroke-miterlimit:4;stroke-dasharray:none;stroke-dashoffset:0;stroke-opacity:1;color-rendering:auto;image-rendering:auto;shape-rendering:auto;text-rendering:auto;enable-background:accumulate;stop-color:#000000"
       d="m 36.22579,12.5008 c -0.98487,-0.03 -1.9655,0.7535 -1.97578,1.8295 a 1.0006939,1.0008791 0 0 0 0,0.01 v 7.4648 9.3686 7.457 c 2.9e-4,0.9964 0.80782,1.846 1.81358,1.8687 0.39796,0.01 0.7887,-0.1121 1.11199,-0.3421 L 54.22867,28.017 c 1.02843,-0.7325 1.02845,-2.3226 0,-3.0551 L 37.17558,12.8216 C 36.88166,12.6123 36.55409,12.5109 36.22579,12.501 Z m 0.0254,2.1189 16.67005,11.8686 -16.67005,11.8705 v -7.1853 -9.3686 z" />
    <path
       id="path1113-1-0-6-8-3-2-5-4-8-3-92-8-3-2-4-2-06"
       style="color:#000000;font-style:normal;font-variant:normal;font-weight:normal;font-stretch:normal;font-size:medium;line-height:normal;font-family:sans-serif;font-variant-ligatures:normal;font-variant-position:normal;font-variant-caps:normal;font-variant-numeric:normal;font-variant-alternates:normal;font-variant-east-asian:normal;font-feature-settings:normal;font-variation-settings:normal;text-indent:0;text-align:start;text-decoration:none;text-decoration-line:none;text-decoration-style:solid;text-decoration-color:#000000;letter-spacing:normal;word-spacing:normal;text-transform:none;writing-mode:lr-tb;direction:ltr;text-orientation:mixed;dominant-baseline:auto;baseline-shift:baseline;text-anchor:start;white-space:normal;shape-padding:0;shape-margin:0;inline-size:0;clip-rule:nonzero;display:inline;overflow:visible;visibility:visible;isolation:auto;mix-blend-mode:normal;color-interpolation:sRGB;color-interpolation-filters:linearRGB;solid-color:#000000;solid-opacity:1;vector-effect:none;fill:#db5278;fill-opacity:1;fill-rule:nonzero;stroke:none;stroke-width:0;stroke-linecap:round;stroke-linejoin:round;stroke-miterlimit:4;stroke-dasharray:none;stroke-dashoffset:0;stroke-opacity:1;color-rendering:auto;image-rendering:auto;shape-rendering:auto;text-rendering:auto;enable-background:accumulate;stop-color:#000000"
       d="m 35.25005,38.6323 a 0.85386343,0.86797014 0 0 0 0.83497,0.8675 0.85386343,0.86797014 0 0 0 0.50869,-0.1566 L 53.63601,27.211 a 0.85386343,0.86797014 0 0 0 -2e-5,-1.4218 L 36.59371,13.657 a 0.85386343,0.86797014 0 0 0 -1.34368,0.7025 l -3e-5,7.4603 1e-5,9.3605 z" />
    <path
       id="path1113-1-0-6-8-3-2-5-4-8-3-92-8-3-2-4-2-0-1-2"
       style="color:#000000;font-style:normal;font-variant:normal;font-weight:normal;font-stretch:normal;font-size:medium;line-height:normal;font-family:sans-serif;font-variant-ligatures:normal;font-variant-position:normal;font-variant-caps:normal;font-variant-numeric:normal;font-variant-alternates:normal;font-variant-east-asian:normal;font-feature-settings:normal;font-variation-settings:normal;text-indent:0;text-align:start;text-decoration:none;text-decoration-line:none;text-decoration-style:solid;text-decoration-color:#000000;letter-spacing:normal;word-spacing:normal;text-transform:none;writing-mode:lr-tb;direction:ltr;text-orientation:mixed;dominant-baseline:auto;baseline-shift:baseline;text-anchor:start;white-space:normal;shape-padding:0;shape-margin:0;inline-size:0;clip-rule:nonzero;display:inline;overflow:visible;visibility:visible;opacity:0.25;isolation:auto;mix-blend-mode:normal;color-interpolation:sRGB;color-interpolation-filters:linearRGB;solid-color:#000000;solid-opacity:1;vector-effect:none;fill:#333234;fill-opacity:1;fill-rule:nonzero;stroke:none;stroke-width:1.00069;stroke-linecap:round;stroke-linejoin:round;stroke-miterlimit:4;stroke-dasharray:none;stroke-dashoffset:0;stroke-opacity:1;color-rendering:auto;image-rendering:auto;shape-rendering:auto;text-rendering:auto;enable-background:accumulate;stop-color:#000000"
       d="m 27.77421,25.7008 c 0.98487,-0.03 1.9655,0.7535 1.97578,1.8295 a 1.0006939,1.0008791 0 0 1 0,0.01 v 7.4648 9.3686 7.457 c -2.9e-4,0.9964 -0.80782,1.846 -1.81358,1.8687 -0.39796,0.01 -0.7887,-0.1121 -1.11199,-0.3421 L 9.7713299,41.217 c -1.02843,-0.7325 -1.02845,-2.3226 0,-3.0551 L 26.82442,26.0216 c 0.29392,-0.2093 0.62149,-0.3107 0.94979,-0.3206 z m -0.0254,2.1189 -16.67005,11.8686 16.67005,11.8705 v -7.1853 -9.3686 z" />
    <path
       id="path1113-1-0-6-8-3-2-5-4-8-3-92-8-3-2-4-2-0-6"
       style="color:#000000;font-style:normal;font-variant:normal;font-weight:normal;font-stretch:normal;font-size:medium;line-height:normal;font-family:sans-serif;font-variant-ligatures:normal;font-variant-position:normal;font-variant-caps:normal;font-variant-numeric:normal;font-variant-alternates:normal;font-variant-east-asian:normal;font-feature-settings:normal;font-variation-settings:normal;text-indent:0;text-align:start;text-decoration:none;text-decoration-line:none;text-decoration-style:solid;text-decoration-color:#000000;letter-spacing:normal;word-spacing:normal;text-transform:none;writing-mode:lr-tb;direction:ltr;text-orientation:mixed;dominant-baseline:auto;baseline-shift:baseline;text-anchor:start;white-space:normal;shape-padding:0;shape-margin:0;inline-size:0;clip-rule:nonzero;display:inline;overflow:visible;visibility:visible;isolation:auto;mix-blend-mode:normal;color-interpolation:sRGB;color-interpolation-filters:linearRGB;solid-color:#000000;solid-opacity:1;vector-effect:none;fill:#555558;fill-opacity:1;fill-rule:nonzero;stroke:none;stroke-width:1.00069;stroke-linecap:round;stroke-linejoin:round;stroke-miterlimit:4;stroke-dasharray:none;stroke-dashoffset:0;stroke-opacity:1;color-rendering:auto;image-rendering:auto;shape-rendering:auto;text-rendering:auto;enable-background:accumulate;stop-color:#000000"
       d="m 27.77421,23.5008 c 0.98487,-0.03 1.9655,0.7535 1.97578,1.8295 a 1.0006939,1.0008791 0 0 1 0,0.01 v 7.4648 9.3686 7.457 c -2.9e-4,0.9964 -0.80782,1.846 -1.81358,1.8687 -0.39796,0.01 -0.7887,-0.1121 -1.11199,-0.3421 L 9.7713299,39.017 c -1.02843,-0.7325 -1.02845,-2.3226 0,-3.0551 L 26.82442,23.8216 c 0.29392,-0.2093 0.62149,-0.3107 0.94979,-0.3206 z m -0.0254,2.1189 -16.67005,11.8686 16.67005,11.8705 v -7.1853 -9.3686 z" />
    <path
       id="path1113-1-0-6-8-3-2-5-4-8-3-92-8-3-2-5-9-2-3-1"
       style="color:#000000;font-style:normal;font-variant:normal;font-weight:normal;font-stretch:normal;font-size:medium;line-height:normal;font-family:sans-serif;font-variant-ligatures:normal;font-variant-position:normal;font-variant-caps:normal;font-variant-numeric:normal;font-variant-alternates:normal;font-variant-east-asian:normal;font-feature-settings:normal;font-variation-settings:normal;text-indent:0;text-align:start;text-decoration:none;text-decoration-line:none;text-decoration-style:solid;text-decoration-color:#000000;letter-spacing:normal;word-spacing:normal;text-transform:none;writing-mode:lr-tb;direction:ltr;text-orientation:mixed;dominant-baseline:auto;baseline-shift:baseline;text-anchor:start;white-space:normal;shape-padding:0;shape-margin:0;inline-size:0;clip-rule:nonzero;display:inline;overflow:visible;visibility:visible;isolation:auto;mix-blend-mode:normal;color-interpolation:sRGB;color-interpolation-filters:linearRGB;solid-color:#000000;solid-opacity:1;vector-effect:none;fill:#c3c3c6;fill-opacity:1;fill-rule:nonzero;stroke:none;stroke-width:0;stroke-linecap:round;stroke-linejoin:round;stroke-miterlimit:4;stroke-dasharray:none;stroke-dashoffset:0;stroke-opacity:1;color-rendering:auto;image-rendering:auto;shape-rendering:auto;text-rendering:auto;enable-background:accumulate;stop-color:#000000"
       d="m 28.74991,49.6323 a 0.85386305,0.86797053 0 0 1 -0.83497,0.8675 0.85386305,0.86797053 0 0 1 -0.5087,-0.1566 L 10.36395,38.211 a 0.85386305,0.86797053 0 0 1 3e-5,-1.4218 L 27.40625,24.657 a 0.85386305,0.86797053 0 0 1 1.34367,0.7025 l 4e-5,7.4603 -1e-5,9.3605 z" />
  </g>
</svg>
