<?xml version="1.0" encoding="UTF-8" standalone="no"?>
<svg
   xmlns:dc="http://purl.org/dc/elements/1.1/"
   xmlns:cc="http://creativecommons.org/ns#"
   xmlns:rdf="http://www.w3.org/1999/02/22-rdf-syntax-ns#"
   xmlns:svg="http://www.w3.org/2000/svg"
   xmlns="http://www.w3.org/2000/svg"
   xmlns:xlink="http://www.w3.org/1999/xlink"
   xmlns:sodipodi="http://sodipodi.sourceforge.net/DTD/sodipodi-0.dtd"
   xmlns:inkscape="http://www.inkscape.org/namespaces/inkscape"
   width="64"
   height="64"
   viewBox="0 0 64 64"
   version="1.1"
   id="svg6374"
   inkscape:version="1.0.2 (e86c870879, 2021-01-15)"
   sodipodi:docname="network-offline.svg">
  <defs
     id="defs6368">
    <linearGradient
       inkscape:collect="always"
       xlink:href="#linearGradient1139-3"
       id="linearGradient5836-4"
       gradientUnits="userSpaceOnUse"
       gradientTransform="matrix(3.7795275,0,0,3.7795275,1,1.00001)"
       x1="8.1944265"
       y1="1.0125455"
       x2="8.2493715"
       y2="15.385565" />
    <linearGradient
       inkscape:collect="always"
       id="linearGradient1139-3">
      <stop
         style="stop-color:#faf9fb;stop-opacity:1"
         offset="0"
         id="stop1135-6" />
      <stop
         style="stop-color:#d8d7d9;stop-opacity:1"
         offset="1"
         id="stop1137-7" />
    </linearGradient>
    <linearGradient
       inkscape:collect="always"
       xlink:href="#linearGradient979-8"
       id="linearGradient2332"
       gradientUnits="userSpaceOnUse"
       gradientTransform="matrix(2.3622047,0,0,2.3622041,28.5,-35)"
       x1="8.3343754"
       y1="37.041672"
       x2="8.598959"
       y2="29.104166" />
    <linearGradient
       inkscape:collect="always"
       id="linearGradient979-8">
      <stop
         style="stop-color:#f9f9f7;stop-opacity:0"
         offset="0"
         id="stop975-7" />
      <stop
         style="stop-color:#f9f9f7;stop-opacity:0.1"
         offset="1"
         id="stop977-9" />
    </linearGradient>
  </defs>
  <sodipodi:namedview
     id="base"
     pagecolor="#cecece"
     bordercolor="#666666"
     borderopacity="1.0"
     inkscape:pageopacity="0"
     inkscape:pageshadow="2"
     inkscape:zoom="5.5639287"
     inkscape:cx="8.3100654"
     inkscape:cy="29.73153"
     inkscape:document-units="px"
     inkscape:current-layer="layer1"
     inkscape:document-rotation="0"
     showgrid="false"
     units="px"
     inkscape:window-width="1500"
     inkscape:window-height="970"
     inkscape:window-x="68"
     inkscape:window-y="56"
     inkscape:window-maximized="0" />
  <metadata
     id="metadata6371">
    <rdf:RDF>
      <cc:Work
         rdf:about="">
        <dc:format>image/svg+xml</dc:format>
        <dc:type
           rdf:resource="http://purl.org/dc/dcmitype/StillImage" />
        <dc:title></dc:title>
      </cc:Work>
    </rdf:RDF>
  </metadata>
  <g
     inkscape:label="Layer 1"
     inkscape:groupmode="layer"
     id="layer1">
    <path
       id="rect831-360-6-7-9-7-5-9-2-5-43"
       style="color:#000000;font-style:normal;font-variant:normal;font-weight:normal;font-stretch:normal;font-size:medium;line-height:normal;font-family:sans-serif;font-variant-ligatures:normal;font-variant-position:normal;font-variant-caps:normal;font-variant-numeric:normal;font-variant-alternates:normal;font-variant-east-asian:normal;font-feature-settings:normal;font-variation-settings:normal;text-indent:0;text-align:start;text-decoration:none;text-decoration-line:none;text-decoration-style:solid;text-decoration-color:#000000;letter-spacing:normal;word-spacing:normal;text-transform:none;writing-mode:lr-tb;direction:ltr;text-orientation:mixed;dominant-baseline:auto;baseline-shift:baseline;text-anchor:start;white-space:normal;shape-padding:0;shape-margin:0;inline-size:0;clip-rule:nonzero;display:inline;overflow:visible;visibility:visible;opacity:0.15;isolation:auto;mix-blend-mode:normal;color-interpolation:sRGB;color-interpolation-filters:linearRGB;solid-color:#000000;solid-opacity:1;vector-effect:none;fill:#0c0c0c;fill-opacity:1;fill-rule:nonzero;stroke:none;stroke-width:0;stroke-linecap:round;stroke-linejoin:round;stroke-miterlimit:4;stroke-dasharray:none;stroke-dashoffset:2.1875;stroke-opacity:1;color-rendering:auto;image-rendering:auto;shape-rendering:auto;text-rendering:auto;enable-background:accumulate;stop-color:#000000"
       d="M 10.00346,5.00001 C 6.42865,5.00001 3.5,7.92121 3.5,11.49651 v 44.007 c 0,3.5753 2.92865,6.4965 6.50346,6.4965 h 43.99308 c 3.5748,0 6.50345,-2.9212 6.50345,-6.4965 v -44.007 c 0,-3.5753 -2.92865,-6.4965 -6.50345,-6.4965 z m 0,2.9983 h 43.99308 c 1.96481,0 3.50562,1.5332 3.50562,3.4982 v 44.007 c 0,1.965 -1.54081,3.5002 -3.50562,3.5002 H 10.00346 c -1.96481,0 -3.49781,-1.5352 -3.49781,-3.5002 v -44.007 c 0,-1.965 1.533,-3.4982 3.49781,-3.4982 z" />
    <rect
       style="fill:#525054;fill-opacity:1;stroke:none;stroke-width:4;stroke-linecap:round;stroke-linejoin:round;stroke-miterlimit:4;stroke-dasharray:none;stroke-opacity:1;paint-order:stroke fill markers"
       id="rect5846-07"
       width="58"
       height="58"
       x="3"
       y="3"
       rx="7"
       ry="7" />
    <rect
       style="fill:url(#linearGradient5836-4);fill-opacity:1;stroke-width:0;stroke-linecap:round;stroke-linejoin:round;stroke-dashoffset:2.1875"
       id="rect831-9-3-0-6-2-8"
       width="54"
       height="54"
       x="5"
       y="5.0001221"
       rx="5"
       ry="5" />
    <path
       id="rect831-360-6-7-7-6-7-1-9-6"
       style="color:#000000;font-style:normal;font-variant:normal;font-weight:normal;font-stretch:normal;font-size:medium;line-height:normal;font-family:sans-serif;font-variant-ligatures:normal;font-variant-position:normal;font-variant-caps:normal;font-variant-numeric:normal;font-variant-alternates:normal;font-variant-east-asian:normal;font-feature-settings:normal;font-variation-settings:normal;text-indent:0;text-align:start;text-decoration:none;text-decoration-line:none;text-decoration-style:solid;text-decoration-color:#000000;letter-spacing:normal;word-spacing:normal;text-transform:none;writing-mode:lr-tb;direction:ltr;text-orientation:mixed;dominant-baseline:auto;baseline-shift:baseline;text-anchor:start;white-space:normal;shape-padding:0;shape-margin:0;inline-size:0;clip-rule:nonzero;display:inline;overflow:visible;visibility:visible;opacity:0.15;isolation:auto;mix-blend-mode:normal;color-interpolation:sRGB;color-interpolation-filters:linearRGB;solid-color:#000000;solid-opacity:1;vector-effect:none;fill:#333234;fill-opacity:1;fill-rule:nonzero;stroke:none;stroke-width:0;stroke-linecap:round;stroke-linejoin:round;stroke-miterlimit:4;stroke-dasharray:none;stroke-dashoffset:2.1875;stroke-opacity:1;color-rendering:auto;image-rendering:auto;shape-rendering:auto;text-rendering:auto;enable-background:accumulate;stop-color:#000000"
       d="M 10.00346,3.50001 C 6.42865,3.50001 3.5,6.42121 3.5,9.99651 v 44.007 c 0,3.5753 2.92865,6.4965 6.50346,6.4965 h 43.99308 c 3.5748,0 6.50345,-2.9212 6.50345,-6.4965 v -44.007 c 0,-3.5753 -2.92865,-6.4965 -6.50345,-6.4965 z m 0,2.9983 h 43.99308 c 1.96481,0 3.50562,1.5332 3.50562,3.4982 v 44.007 c 0,1.965 -1.54081,3.5002 -3.50562,3.5002 H 10.00346 c -1.96482,0 -3.49781,-1.5352 -3.49781,-3.5002 v -44.007 c 0,-1.965 1.53299,-3.4982 3.49781,-3.4982 z" />
    <path
       id="path1113-1-0-6-8-3-2-5-4-8-3-92-8-3-2-4-2-0-9-9-8"
       style="color:#000000;font-style:normal;font-variant:normal;font-weight:normal;font-stretch:normal;font-size:medium;line-height:normal;font-family:sans-serif;font-variant-ligatures:normal;font-variant-position:normal;font-variant-caps:normal;font-variant-numeric:normal;font-variant-alternates:normal;font-variant-east-asian:normal;font-feature-settings:normal;font-variation-settings:normal;text-indent:0;text-align:start;text-decoration:none;text-decoration-line:none;text-decoration-style:solid;text-decoration-color:#000000;letter-spacing:normal;word-spacing:normal;text-transform:none;writing-mode:lr-tb;direction:ltr;text-orientation:mixed;dominant-baseline:auto;baseline-shift:baseline;text-anchor:start;white-space:normal;shape-padding:0;shape-margin:0;inline-size:0;clip-rule:nonzero;display:inline;overflow:visible;visibility:visible;opacity:0.25;isolation:auto;mix-blend-mode:normal;color-interpolation:sRGB;color-interpolation-filters:linearRGB;solid-color:#000000;solid-opacity:1;vector-effect:none;fill:#333234;fill-opacity:1;fill-rule:nonzero;stroke:none;stroke-width:1.00069;stroke-linecap:round;stroke-linejoin:round;stroke-miterlimit:4;stroke-dasharray:none;stroke-dashoffset:0;stroke-opacity:1;color-rendering:auto;image-rendering:auto;shape-rendering:auto;text-rendering:auto;enable-background:accumulate;stop-color:#000000"
       d="m 36.22579,14.70081 c -0.98487,-0.03 -1.9655,0.7535 -1.97578,1.8295 a 1.0006939,1.0008791 0 0 0 0,0.01 v 7.4648 9.3686 7.457 c 2.9e-4,0.9964 0.80782,1.846 1.81358,1.8687 0.39796,0.01 0.7887,-0.1121 1.11199,-0.3421 l 17.05309,-12.1403 c 1.02843,-0.7325 1.02845,-2.3226 0,-3.0551 L 37.17558,15.02161 c -0.29392,-0.2093 -0.62149,-0.3107 -0.94979,-0.3206 z m 0.0254,2.1189 16.67005,11.8686 -16.67005,11.8705 v -7.1853 -9.3686 z" />
    <path
       id="path1113-1-0-6-8-3-2-5-4-8-3-92-8-3-2-4-2-0-9-8"
       style="color:#000000;font-style:normal;font-variant:normal;font-weight:normal;font-stretch:normal;font-size:medium;line-height:normal;font-family:sans-serif;font-variant-ligatures:normal;font-variant-position:normal;font-variant-caps:normal;font-variant-numeric:normal;font-variant-alternates:normal;font-variant-east-asian:normal;font-feature-settings:normal;font-variation-settings:normal;text-indent:0;text-align:start;text-decoration:none;text-decoration-line:none;text-decoration-style:solid;text-decoration-color:#000000;letter-spacing:normal;word-spacing:normal;text-transform:none;writing-mode:lr-tb;direction:ltr;text-orientation:mixed;dominant-baseline:auto;baseline-shift:baseline;text-anchor:start;white-space:normal;shape-padding:0;shape-margin:0;inline-size:0;clip-rule:nonzero;display:inline;overflow:visible;visibility:visible;isolation:auto;mix-blend-mode:normal;color-interpolation:sRGB;color-interpolation-filters:linearRGB;solid-color:#000000;solid-opacity:1;vector-effect:none;fill:#555558;fill-opacity:1;fill-rule:nonzero;stroke:none;stroke-width:1.00069;stroke-linecap:round;stroke-linejoin:round;stroke-miterlimit:4;stroke-dasharray:none;stroke-dashoffset:0;stroke-opacity:1;color-rendering:auto;image-rendering:auto;shape-rendering:auto;text-rendering:auto;enable-background:accumulate;stop-color:#000000"
       d="m 36.22579,12.50081 c -0.98487,-0.03 -1.9655,0.7535 -1.97578,1.8295 a 1.0006939,1.0008791 0 0 0 0,0.01 v 7.4648 9.3686 7.457 c 2.9e-4,0.9964 0.80782,1.846 1.81358,1.8687 0.39796,0.01 0.7887,-0.1121 1.11199,-0.3421 l 17.05309,-12.1403 c 1.02843,-0.7325 1.02845,-2.3226 0,-3.0551 L 37.17558,12.82161 c -0.29392,-0.2093 -0.62149,-0.3107 -0.94979,-0.3206 z m 0.0254,2.1189 16.67005,11.8686 -16.67005,11.8705 v -7.1853 -9.3686 z" />
    <path
       id="path1113-1-0-6-8-3-2-5-4-8-3-92-8-3-2-4-2-4"
       style="color:#000000;font-style:normal;font-variant:normal;font-weight:normal;font-stretch:normal;font-size:medium;line-height:normal;font-family:sans-serif;font-variant-ligatures:normal;font-variant-position:normal;font-variant-caps:normal;font-variant-numeric:normal;font-variant-alternates:normal;font-variant-east-asian:normal;font-feature-settings:normal;font-variation-settings:normal;text-indent:0;text-align:start;text-decoration:none;text-decoration-line:none;text-decoration-style:solid;text-decoration-color:#000000;letter-spacing:normal;word-spacing:normal;text-transform:none;writing-mode:lr-tb;direction:ltr;text-orientation:mixed;dominant-baseline:auto;baseline-shift:baseline;text-anchor:start;white-space:normal;shape-padding:0;shape-margin:0;inline-size:0;clip-rule:nonzero;display:inline;overflow:visible;visibility:visible;isolation:auto;mix-blend-mode:normal;color-interpolation:sRGB;color-interpolation-filters:linearRGB;solid-color:#000000;solid-opacity:1;vector-effect:none;fill:#cbcbcd;fill-opacity:1;fill-rule:nonzero;stroke:none;stroke-width:0;stroke-linecap:round;stroke-linejoin:round;stroke-miterlimit:4;stroke-dasharray:none;stroke-dashoffset:0;stroke-opacity:1;color-rendering:auto;image-rendering:auto;shape-rendering:auto;text-rendering:auto;enable-background:accumulate;stop-color:#000000"
       d="m 35.25005,38.63231 a 0.85386343,0.86797014 0 0 0 0.83497,0.8675 0.85386343,0.86797014 0 0 0 0.50869,-0.1566 l 17.0423,-12.1322 a 0.85386343,0.86797014 0 0 0 -2e-5,-1.4218 L 36.59371,13.65701 a 0.85386343,0.86797014 0 0 0 -1.34368,0.7025 l -3e-5,7.4603 1e-5,9.3605 z" />
    <path
       id="path1113-1-0-6-8-3-2-5-4-8-3-92-8-3-2-4-2-0-1-3"
       style="color:#000000;font-style:normal;font-variant:normal;font-weight:normal;font-stretch:normal;font-size:medium;line-height:normal;font-family:sans-serif;font-variant-ligatures:normal;font-variant-position:normal;font-variant-caps:normal;font-variant-numeric:normal;font-variant-alternates:normal;font-variant-east-asian:normal;font-feature-settings:normal;font-variation-settings:normal;text-indent:0;text-align:start;text-decoration:none;text-decoration-line:none;text-decoration-style:solid;text-decoration-color:#000000;letter-spacing:normal;word-spacing:normal;text-transform:none;writing-mode:lr-tb;direction:ltr;text-orientation:mixed;dominant-baseline:auto;baseline-shift:baseline;text-anchor:start;white-space:normal;shape-padding:0;shape-margin:0;inline-size:0;clip-rule:nonzero;display:inline;overflow:visible;visibility:visible;opacity:0.25;isolation:auto;mix-blend-mode:normal;color-interpolation:sRGB;color-interpolation-filters:linearRGB;solid-color:#000000;solid-opacity:1;vector-effect:none;fill:#333234;fill-opacity:1;fill-rule:nonzero;stroke:none;stroke-width:1.00069;stroke-linecap:round;stroke-linejoin:round;stroke-miterlimit:4;stroke-dasharray:none;stroke-dashoffset:0;stroke-opacity:1;color-rendering:auto;image-rendering:auto;shape-rendering:auto;text-rendering:auto;enable-background:accumulate;stop-color:#000000"
       d="m 27.77421,25.70081 c 0.98487,-0.03 1.9655,0.7535 1.97578,1.8295 a 1.0006939,1.0008791 0 0 1 0,0.01 v 7.4648 9.3686 7.457 c -2.9e-4,0.9964 -0.80782,1.846 -1.81358,1.8687 -0.39796,0.01 -0.7887,-0.1121 -1.11199,-0.3421 L 9.77133,41.21701 c -1.02843,-0.7325 -1.02845,-2.3226 0,-3.0551 l 17.05309,-12.1403 c 0.29392,-0.2093 0.62149,-0.3107 0.94979,-0.3206 z m -0.0254,2.1189 -16.67005,11.8686 16.67005,11.8705 v -7.1853 -9.3686 z" />
    <path
       id="path1113-1-0-6-8-3-2-5-4-8-3-92-8-3-2-4-2-0-14"
       style="color:#000000;font-style:normal;font-variant:normal;font-weight:normal;font-stretch:normal;font-size:medium;line-height:normal;font-family:sans-serif;font-variant-ligatures:normal;font-variant-position:normal;font-variant-caps:normal;font-variant-numeric:normal;font-variant-alternates:normal;font-variant-east-asian:normal;font-feature-settings:normal;font-variation-settings:normal;text-indent:0;text-align:start;text-decoration:none;text-decoration-line:none;text-decoration-style:solid;text-decoration-color:#000000;letter-spacing:normal;word-spacing:normal;text-transform:none;writing-mode:lr-tb;direction:ltr;text-orientation:mixed;dominant-baseline:auto;baseline-shift:baseline;text-anchor:start;white-space:normal;shape-padding:0;shape-margin:0;inline-size:0;clip-rule:nonzero;display:inline;overflow:visible;visibility:visible;isolation:auto;mix-blend-mode:normal;color-interpolation:sRGB;color-interpolation-filters:linearRGB;solid-color:#000000;solid-opacity:1;vector-effect:none;fill:#555558;fill-opacity:1;fill-rule:nonzero;stroke:none;stroke-width:1.00069;stroke-linecap:round;stroke-linejoin:round;stroke-miterlimit:4;stroke-dasharray:none;stroke-dashoffset:0;stroke-opacity:1;color-rendering:auto;image-rendering:auto;shape-rendering:auto;text-rendering:auto;enable-background:accumulate;stop-color:#000000"
       d="m 27.77421,23.50081 c 0.98487,-0.03 1.9655,0.7535 1.97578,1.8295 a 1.0006939,1.0008791 0 0 1 0,0.01 v 7.4648 9.3686 7.457 c -2.9e-4,0.9964 -0.80782,1.846 -1.81358,1.8687 -0.39796,0.01 -0.7887,-0.1121 -1.11199,-0.3421 L 9.77133,39.01701 c -1.02843,-0.7325 -1.02845,-2.3226 0,-3.0551 l 17.05309,-12.1403 c 0.29392,-0.2093 0.62149,-0.3107 0.94979,-0.3206 z m -0.0254,2.1189 -16.67005,11.8686 16.67005,11.8705 v -7.1853 -9.3686 z" />
    <path
       id="path1113-1-0-6-8-3-2-5-4-8-3-92-8-3-2-5-9-2-3-9"
       style="color:#000000;font-style:normal;font-variant:normal;font-weight:normal;font-stretch:normal;font-size:medium;line-height:normal;font-family:sans-serif;font-variant-ligatures:normal;font-variant-position:normal;font-variant-caps:normal;font-variant-numeric:normal;font-variant-alternates:normal;font-variant-east-asian:normal;font-feature-settings:normal;font-variation-settings:normal;text-indent:0;text-align:start;text-decoration:none;text-decoration-line:none;text-decoration-style:solid;text-decoration-color:#000000;letter-spacing:normal;word-spacing:normal;text-transform:none;writing-mode:lr-tb;direction:ltr;text-orientation:mixed;dominant-baseline:auto;baseline-shift:baseline;text-anchor:start;white-space:normal;shape-padding:0;shape-margin:0;inline-size:0;clip-rule:nonzero;display:inline;overflow:visible;visibility:visible;isolation:auto;mix-blend-mode:normal;color-interpolation:sRGB;color-interpolation-filters:linearRGB;solid-color:#000000;solid-opacity:1;vector-effect:none;fill:#cbcbcd;fill-opacity:1;fill-rule:nonzero;stroke:none;stroke-width:0;stroke-linecap:round;stroke-linejoin:round;stroke-miterlimit:4;stroke-dasharray:none;stroke-dashoffset:0;stroke-opacity:1;color-rendering:auto;image-rendering:auto;shape-rendering:auto;text-rendering:auto;enable-background:accumulate;stop-color:#000000"
       d="m 28.74991,49.63231 a 0.85386305,0.86797053 0 0 1 -0.83497,0.8675 0.85386305,0.86797053 0 0 1 -0.5087,-0.1566 L 10.36395,38.21101 a 0.85386305,0.86797053 0 0 1 3e-5,-1.4218 l 17.04227,-12.1322 a 0.85386305,0.86797053 0 0 1 1.34367,0.7025 l 4e-5,7.4603 -1e-5,9.3605 z" />
    <path
       id="path1181-0-2-9-62-2-2-7-7-2-7-3-5-6-3-5-2"
       style="color:#000000;font-style:normal;font-variant:normal;font-weight:normal;font-stretch:normal;font-size:medium;line-height:normal;font-family:sans-serif;font-variant-ligatures:normal;font-variant-position:normal;font-variant-caps:normal;font-variant-numeric:normal;font-variant-alternates:normal;font-variant-east-asian:normal;font-feature-settings:normal;font-variation-settings:normal;text-indent:0;text-align:start;text-decoration:none;text-decoration-line:none;text-decoration-style:solid;text-decoration-color:#000000;letter-spacing:normal;word-spacing:normal;text-transform:none;writing-mode:lr-tb;direction:ltr;text-orientation:mixed;dominant-baseline:auto;baseline-shift:baseline;text-anchor:start;white-space:normal;shape-padding:0;shape-margin:0;inline-size:0;clip-rule:nonzero;display:inline;overflow:visible;visibility:visible;opacity:0.25;isolation:auto;mix-blend-mode:normal;color-interpolation:sRGB;color-interpolation-filters:linearRGB;solid-color:#000000;solid-opacity:1;vector-effect:none;fill:#0c0c0c;fill-opacity:1;fill-rule:nonzero;stroke:none;stroke-width:0;stroke-linecap:round;stroke-linejoin:round;stroke-miterlimit:4;stroke-dasharray:none;stroke-dashoffset:2.1875;stroke-opacity:1;color-rendering:auto;image-rendering:auto;shape-rendering:auto;text-rendering:auto;enable-background:accumulate;stop-color:#000000"
       d="m 48.5,33.49999 c -8.27385,0 -15,6.72709 -15,15.00066 0,8.27346 6.72615,14.99935 15,14.99935 8.27384,0 15,-6.72589 15,-14.99935 0,-8.27357 -6.72616,-15.00066 -15,-15.00066 z m 0,1.87387 c 7.26042,0 13.12729,5.86661 13.12729,13.12679 0,7.26018 -5.86687,13.12548 -13.12729,13.12548 -7.26043,0 -13.12729,-5.8653 -13.12729,-13.12548 0,-7.26018 5.86686,-13.12679 13.12729,-13.12679 z" />
    <path
       id="path1181-0-6-2-9-0-9-5-5-9-9-3-6-1-7-3-6"
       style="color:#000000;font-style:normal;font-variant:normal;font-weight:normal;font-stretch:normal;font-size:medium;line-height:normal;font-family:sans-serif;font-variant-ligatures:normal;font-variant-position:normal;font-variant-caps:normal;font-variant-numeric:normal;font-variant-alternates:normal;font-variant-east-asian:normal;font-feature-settings:normal;font-variation-settings:normal;text-indent:0;text-align:start;text-decoration:none;text-decoration-line:none;text-decoration-style:solid;text-decoration-color:#000000;letter-spacing:normal;word-spacing:normal;text-transform:none;writing-mode:lr-tb;direction:ltr;text-orientation:mixed;dominant-baseline:auto;baseline-shift:baseline;text-anchor:start;white-space:normal;shape-padding:0;shape-margin:0;inline-size:0;clip-rule:nonzero;display:inline;overflow:visible;visibility:visible;opacity:0.95;isolation:auto;mix-blend-mode:normal;color-interpolation:sRGB;color-interpolation-filters:linearRGB;solid-color:#000000;solid-opacity:1;vector-effect:none;fill:#4f4840;fill-opacity:1;fill-rule:nonzero;stroke:none;stroke-width:2.36234;stroke-linecap:round;stroke-linejoin:round;stroke-miterlimit:4;stroke-dasharray:none;stroke-dashoffset:2.1875;stroke-opacity:1;color-rendering:auto;image-rendering:auto;shape-rendering:auto;text-rendering:auto;enable-background:accumulate;stop-color:#000000"
       d="m 48.5,32.5 c -8.27385,0 -15,6.7271 -15,15.00055 0,8.27357 6.72615,14.99947 15,14.99947 8.27384,0 15,-6.7259 15,-14.99947 C 63.5,39.2271 56.77384,32.5 48.5,32.5 Z m 0,1.87387 c 7.26042,0 13.12729,5.8666 13.12729,13.12668 0,7.26028 -5.86687,13.12559 -13.12729,13.12559 -7.26043,0 -13.12729,-5.86531 -13.12729,-13.12559 0,-7.26008 5.86686,-13.12668 13.12729,-13.12668 z" />
    <ellipse
       style="fill:#adadae;fill-opacity:1;stroke:#771832;stroke-width:0;stroke-linecap:round;stroke-linejoin:round;stroke-miterlimit:4;stroke-dasharray:none;stroke-dashoffset:2.1875;stroke-opacity:1"
       id="path1181-0-1-2-1-3-3-39-2-8-2-0-4-5-1"
       cx="48.499939"
       cy="47.500183"
       rx="14.062499"
       ry="14.062494" />
    <ellipse
       style="display:inline;fill:url(#linearGradient2332);fill-opacity:1;stroke:#771832;stroke-width:0;stroke-linecap:round;stroke-linejoin:round;stroke-miterlimit:4;stroke-dasharray:none;stroke-dashoffset:2.1875;stroke-opacity:1"
       id="path1181-6-2-7-3-2-5-5-0-0-6-9-6-5-6-0"
       cx="48.499939"
       cy="47.500183"
       rx="14.062499"
       ry="14.062494" />
    <path
       id="path1181-0-2-9-3-2-7-7-6-6-8-2-0-1-3-2-2-6"
       style="color:#000000;font-style:normal;font-variant:normal;font-weight:normal;font-stretch:normal;font-size:medium;line-height:normal;font-family:sans-serif;font-variant-ligatures:normal;font-variant-position:normal;font-variant-caps:normal;font-variant-numeric:normal;font-variant-alternates:normal;font-variant-east-asian:normal;font-feature-settings:normal;font-variation-settings:normal;text-indent:0;text-align:start;text-decoration:none;text-decoration-line:none;text-decoration-style:solid;text-decoration-color:#000000;letter-spacing:normal;word-spacing:normal;text-transform:none;writing-mode:lr-tb;direction:ltr;text-orientation:mixed;dominant-baseline:auto;baseline-shift:baseline;text-anchor:start;white-space:normal;shape-padding:0;shape-margin:0;inline-size:0;clip-rule:nonzero;display:inline;overflow:visible;visibility:visible;opacity:0.15;isolation:auto;mix-blend-mode:normal;color-interpolation:sRGB;color-interpolation-filters:linearRGB;solid-color:#000000;solid-opacity:1;vector-effect:none;fill:#38332e;fill-opacity:1;fill-rule:nonzero;stroke:none;stroke-width:0;stroke-linecap:round;stroke-linejoin:round;stroke-miterlimit:4;stroke-dasharray:none;stroke-dashoffset:2.1875;stroke-opacity:1;color-rendering:auto;image-rendering:auto;shape-rendering:auto;text-rendering:auto;enable-background:accumulate;stop-color:#000000"
       d="m 48.5,32.5 c -8.27385,0 -15,6.7271 -15,15.00055 0,8.27357 6.72615,14.99947 15,14.99947 8.27384,0 15,-6.7259 15,-14.99947 C 63.5,39.2271 56.77384,32.5 48.5,32.5 Z m 0,1.87387 c 7.26042,0 13.12729,5.8666 13.12729,13.12668 0,7.26028 -5.86687,13.12559 -13.12729,13.12559 -7.26043,0 -13.12729,-5.86531 -13.12729,-13.12559 0,-7.26008 5.86686,-13.12668 13.12729,-13.12668 z" />
    <path
       id="rect2388-9-6-0-6-9-7-50-5-7-8-7-6-4-6-9-1"
       style="color:#000000;font-style:normal;font-variant:normal;font-weight:normal;font-stretch:normal;font-size:medium;line-height:normal;font-family:sans-serif;font-variant-ligatures:normal;font-variant-position:normal;font-variant-caps:normal;font-variant-numeric:normal;font-variant-alternates:normal;font-variant-east-asian:normal;font-feature-settings:normal;font-variation-settings:normal;text-indent:0;text-align:start;text-decoration:none;text-decoration-line:none;text-decoration-style:solid;text-decoration-color:#000000;letter-spacing:normal;word-spacing:normal;text-transform:none;writing-mode:lr-tb;direction:ltr;text-orientation:mixed;dominant-baseline:auto;baseline-shift:baseline;text-anchor:start;white-space:normal;shape-padding:0;shape-margin:0;inline-size:0;clip-rule:nonzero;display:inline;overflow:visible;visibility:visible;opacity:0.25;isolation:auto;mix-blend-mode:normal;color-interpolation:sRGB;color-interpolation-filters:linearRGB;solid-color:#000000;solid-opacity:1;vector-effect:none;fill:#333333;fill-opacity:1;fill-rule:nonzero;stroke:none;stroke-width:1.00052;stroke-linecap:round;stroke-linejoin:round;stroke-miterlimit:4;stroke-dasharray:none;stroke-dashoffset:2.1875;stroke-opacity:1;color-rendering:auto;image-rendering:auto;shape-rendering:auto;text-rendering:auto;enable-background:accumulate;stop-color:#000000"
       d="m 43.63611,40.72313 c -0.38519,0 -0.77025,0.14684 -1.06115,0.43771 l -1.41487,1.41474 c -0.58185,0.58179 -0.58182,1.54036 0,2.12212 l 3.80295,3.80261 -3.80295,3.80262 c -0.58186,0.5818 -0.58181,1.54036 0,2.12212 l 1.41487,1.41474 c 0.58182,0.58176 1.54044,0.58181 2.1223,0 l 3.80295,-3.80261 3.80296,3.80261 c 0.58183,0.58178 1.54046,0.5818 2.1223,0 l 1.41487,-1.41474 c 0.58179,-0.58172 0.58183,-1.54035 0,-2.12212 l -3.80295,-3.80262 3.80295,-3.80261 c 0.58178,-0.58172 0.58187,-1.54031 0,-2.12212 l -1.41487,-1.41474 c -0.58186,-0.5818 -1.54051,-0.58174 -2.1223,0 l -3.80296,3.80262 -3.80295,-3.80262 c -0.29091,-0.29091 -0.67597,-0.43772 -1.06115,-0.43771 z" />
    <path
       id="rect2388-9-6-1-96-6-5-8-0-1-7-1-5"
       style="fill:#191714;fill-opacity:1;stroke-width:1.17021;stroke-linecap:round;stroke-linejoin:round;stroke-dashoffset:2.1875"
       d="m 54.06833,40.51704 c -0.39174,-0.39174 -1.02253,-0.39167 -1.41421,10e-6 l -4.15425,4.15418 -4.15425,-4.15419 c -0.39174,-0.39173 -1.02247,-0.39174 -1.41421,0 l -1.41422,1.41419 c -0.39173,0.39173 -0.39173,1.02246 0,1.41418 l 4.15426,4.15419 -4.15425,4.15418 c -0.39175,0.39175 -0.39176,1.02247 -2e-5,1.4142 l 1.41422,1.41419 c 0.39174,0.39173 1.02248,0.39172 1.41422,-1e-5 l 4.15425,-4.15418 4.15425,4.15418 c 0.39175,0.39174 1.02249,0.39174 1.41422,2e-5 l 1.41422,-1.4142 c 0.39173,-0.39173 0.39173,-1.02245 -2e-5,-1.4142 l -4.15425,-4.15418 4.15425,-4.15418 c 0.39168,-0.39167 0.39174,-1.02246 0,-1.4142 z" />
  </g>
</svg>
