<?xml version="1.0" encoding="UTF-8" standalone="no"?>
<svg
   xmlns:dc="http://purl.org/dc/elements/1.1/"
   xmlns:cc="http://creativecommons.org/ns#"
   xmlns:rdf="http://www.w3.org/1999/02/22-rdf-syntax-ns#"
   xmlns:svg="http://www.w3.org/2000/svg"
   xmlns="http://www.w3.org/2000/svg"
   xmlns:xlink="http://www.w3.org/1999/xlink"
   xmlns:sodipodi="http://sodipodi.sourceforge.net/DTD/sodipodi-0.dtd"
   xmlns:inkscape="http://www.inkscape.org/namespaces/inkscape"
   width="64"
   height="64"
   viewBox="0 0 64 64"
   version="1.1"
   id="svg6374"
   inkscape:version="1.0.2 (e86c870879, 2021-01-15)"
   sodipodi:docname="semi-starred.svg">
  <defs
     id="defs6368">
    <linearGradient
       inkscape:collect="always"
       xlink:href="#linearGradient976-6"
       id="linearGradient1417"
       gradientUnits="userSpaceOnUse"
       gradientTransform="matrix(-1.111112,0,0,1.1111109,949.7783,-663.55523)"
       x1="826"
       y1="600"
       x2="825.70746"
       y2="651.8797" />
    <linearGradient
       inkscape:collect="always"
       id="linearGradient976-6">
      <stop
         style="stop-color:#afafb1;stop-opacity:1"
         offset="0"
         id="stop972-0" />
      <stop
         style="stop-color:#a0a0a2;stop-opacity:1"
         offset="1"
         id="stop974-6" />
    </linearGradient>
    <radialGradient
       inkscape:collect="always"
       xlink:href="#linearGradient1460"
       id="radialGradient1454"
       cx="748.3252"
       cy="93.665787"
       fx="748.3252"
       fy="93.665787"
       r="14.444175"
       gradientTransform="matrix(-1.9303916,-0.01859131,0.01926105,-1.9999375,1474.3705,232.62733)"
       gradientUnits="userSpaceOnUse" />
    <linearGradient
       inkscape:collect="always"
       id="linearGradient1460">
      <stop
         style="stop-color:#feef67;stop-opacity:0"
         offset="0"
         id="stop1458" />
      <stop
         style="stop-color:#fcd217;stop-opacity:0.89803922"
         offset="1"
         id="stop1456" />
    </linearGradient>
  </defs>
  <sodipodi:namedview
     id="base"
     pagecolor="#cecece"
     bordercolor="#666666"
     borderopacity="1.0"
     inkscape:pageopacity="0"
     inkscape:pageshadow="2"
     inkscape:zoom="6.8818909"
     inkscape:cx="20.896034"
     inkscape:cy="44.014593"
     inkscape:document-units="px"
     inkscape:current-layer="layer1"
     inkscape:document-rotation="0"
     showgrid="false"
     units="px"
     inkscape:window-width="1500"
     inkscape:window-height="970"
     inkscape:window-x="68"
     inkscape:window-y="56"
     inkscape:window-maximized="0" />
  <metadata
     id="metadata6371">
    <rdf:RDF>
      <cc:Work
         rdf:about="">
        <dc:format>image/svg+xml</dc:format>
        <dc:type
           rdf:resource="http://purl.org/dc/dcmitype/StillImage" />
        <dc:title></dc:title>
      </cc:Work>
    </rdf:RDF>
  </metadata>
  <g
     inkscape:label="Layer 1"
     inkscape:groupmode="layer"
     id="layer1">
    <path
       id="rect2288-3-1-2-9-3-2-6-2-4"
       style="color:#000000;font-style:normal;font-variant:normal;font-weight:normal;font-stretch:normal;font-size:medium;line-height:normal;font-family:sans-serif;font-variant-ligatures:normal;font-variant-position:normal;font-variant-caps:normal;font-variant-numeric:normal;font-variant-alternates:normal;font-variant-east-asian:normal;font-feature-settings:normal;font-variation-settings:normal;text-indent:0;text-align:start;text-decoration:none;text-decoration-line:none;text-decoration-style:solid;text-decoration-color:#000000;letter-spacing:normal;word-spacing:normal;text-transform:none;writing-mode:lr-tb;direction:ltr;text-orientation:mixed;dominant-baseline:auto;baseline-shift:baseline;text-anchor:start;white-space:normal;shape-padding:0;shape-margin:0;inline-size:0;clip-rule:nonzero;display:inline;overflow:visible;visibility:visible;opacity:0.15;isolation:auto;mix-blend-mode:normal;color-interpolation:sRGB;color-interpolation-filters:linearRGB;solid-color:#000000;solid-opacity:1;vector-effect:none;fill:#0c0c0c;fill-opacity:1;fill-rule:nonzero;stroke:none;stroke-width:1.11119;stroke-linecap:round;stroke-linejoin:round;stroke-miterlimit:4;stroke-dasharray:none;stroke-dashoffset:2.1875;stroke-opacity:1;color-rendering:auto;image-rendering:auto;shape-rendering:auto;text-rendering:auto;enable-background:accumulate;stop-color:#000000"
       d="m 31.951152,3.00021 c -0.99218,0.038 -1.63512,0.7751 -2.04642,1.5128 -0.4113,0.7377 -0.70626,1.6373 -0.97439,2.6892 -0.53625,2.1039 -0.92755,4.8088 -1.30207,7.5621 -0.37453,2.7533 -0.7281,5.5499 -1.15017,7.7444 -0.21103,1.0972 -0.44308,2.0457 -0.68142,2.7304 -0.23833,0.6847 -0.54655,1.0764 -0.53819,1.0701 0.009,-0.011 -0.40862,0.1676 -1.09374,0.191 -0.68512,0.023 -1.61445,-0.041 -2.67359,-0.1737 -2.11829,-0.2648 -4.76886,-0.7875 -7.38493,-1.2741 -2.61608,-0.4865 -5.1901199,-0.9413 -7.2720999,-1.057 -1.04098,-0.058 -1.9572,-0.04 -2.76907,0.1541 -0.81187,0.1942 -1.6857,0.6745 -1.97264,1.5975 -0.28698,0.923 0.13809,1.7974 0.67491,2.4461 0.53681,0.6488 1.26257,1.2279 2.13323,1.8254 1.74133,1.195 4.07339,2.4276 6.4582899,3.6574 2.38488,1.2296 4.819,2.4519 6.67964,3.5531 0.93032,0.5505 1.71694,1.074 2.26126,1.5214 0.54435,0.4475 0.79991,0.8529 0.8073,0.8769 0.008,0.024 0.027,0.5325 -0.1671,1.2372 -0.19413,0.7048 -0.54305,1.6163 -0.99175,2.6372 -0.8974,2.0417 -2.18913,4.5305 -3.43748,6.9933 -1.24834,2.4629 -2.45351,4.8928 -3.1966,6.9239 -0.37153,1.0156 -0.6345,1.9244 -0.70745,2.7696 -0.073,0.8452 0.0548,1.8112 0.8355,2.4093 0.7808,0.5979 1.78629,0.4404 2.54989,0.1 0.76361,-0.3407 1.50841,-0.8867 2.3177,-1.5715 1.61856,-1.3696 3.45193,-3.3172 5.30161,-5.3199 1.84968,-2.0027 3.70902,-4.0579 5.28208,-5.5782 0.78653,-0.7601 1.50443,-1.3878 2.07681,-1.7928 0.57239,-0.4051 1.02577,-0.5209 0.99175,-0.521 a 1.1112147,1.1114067 0 0 0 0.002,0 h 0.0369 a 1.1112147,1.1114067 0 0 0 0.013,0 1.1112147,1.1114067 0 0 0 0.0239,0 c -0.0334,0 0.42135,0.1176 0.99392,0.5231 0.57256,0.4056 1.29023,1.0326 2.0768,1.7929 1.57315,1.5207 3.43238,3.5758 5.28209,5.5781 1.8497,2.0025 3.68299,3.9507 5.3016,5.3199 0.80931,0.6847 1.55407,1.2289 2.3177,1.5694 0.76362,0.3404 1.76919,0.498 2.54989,-0.1 0.78072,-0.5981 0.90852,-1.5641 0.8355,-2.4093 -0.073,-0.8452 -0.338,-1.754 -0.70963,-2.7696 -0.74326,-2.0311 -1.94585,-4.461 -3.19442,-6.9239 -1.24857,-2.4628 -2.54212,-4.9516 -3.43965,-6.9933 -0.44876,-1.0209 -0.7976,-1.9324 -0.99174,-2.6372 -0.19414,-0.7047 -0.17451,-1.2131 -0.1671,-1.2372 0.008,-0.024 0.26295,-0.4294 0.80728,-0.8769 0.54434,-0.4474 1.33096,-0.9709 2.26127,-1.5214 1.86064,-1.1011 4.29476,-2.3235 6.67965,-3.5531 2.38487,-1.2298 4.71695,-2.4624 6.45829,-3.6574 0.87066,-0.5975 1.59641,-1.1766 2.13323,-1.8254 0.53681,-0.6487 0.96185,-1.523 0.6749,-2.4461 -0.28694,-0.923 -1.16078,-1.4033 -1.97264,-1.5975 -0.81186,-0.1941 -1.7281,-0.212 -2.76908,-0.1541 -2.08196,0.1157 -4.656,0.5705 -7.27209,1.057 -2.61608,0.4866 -5.26665,1.0093 -7.38492,1.2741 -1.05915,0.1325 -1.98631,0.197 -2.67142,0.1737 -0.68513,-0.023 -1.10434,-0.1974 -1.09592,-0.191 0.009,0.011 -0.29985,-0.3854 -0.53818,-1.0701 -0.23835,-0.6847 -0.46822,-1.6333 -0.67926,-2.7304 -0.42207,-2.1945 -0.7778,-4.9911 -1.15233,-7.7444 -0.37454,-2.7533 -0.76582,-5.4582 -1.30208,-7.5621 -0.26813,-1.0519 -0.56309,-1.9514 -0.97439,-2.6892 -0.41129,-0.7377 -1.05424,-1.4747 -2.04643,-1.5128 a 1.1112147,1.1114067 0 0 0 -0.0434,0 h -0.0111 a 1.1112147,1.1114067 0 0 0 -0.0435,0 z m 0.0499,2.3311 c 0.0227,0.037 0.0633,0.1023 0.15409,0.2648 0.24296,0.4358 0.51852,1.2012 0.76171,2.1553 0.48638,1.9082 0.88179,4.5738 1.25433,7.3124 0.37255,2.7386 0.72534,5.5556 1.1697,7.8659 0.22217,1.1552 0.46513,2.1826 0.76388,3.0408 0.29876,0.8584 0.59253,1.576 1.29122,2.1076 0.70103,0.5334 1.48006,0.6144 2.36544,0.6447 0.88539,0.03 1.8998,-0.051 3.02298,-0.191 2.24637,-0.2809 4.91794,-0.8124 7.51731,-1.2958 2.59938,-0.4836 5.13219,-0.9171 6.9878,-1.0202 0.92781,-0.051 1.69057,-0.011 2.1289,0.095 0.21513,0.051 0.30844,0.091 0.34938,0.1111 -0.0113,0.029 -0.0466,0.1111 -0.24739,0.3539 -0.30442,0.3679 -0.89752,0.8755 -1.6775,1.4108 -1.55998,1.0706 -3.84956,2.2898 -6.21958,3.5119 -2.37003,1.222 -4.8255,2.4529 -6.79466,3.6182 -0.98458,0.5827 -1.84794,1.1448 -2.54121,1.7147 -0.69328,0.5699 -1.26349,1.1116 -1.51909,1.9425 -0.2556,0.831 -0.093,1.5998 0.14974,2.4809 0.24271,0.8812 0.62534,1.8657 1.09809,2.9411 0.94546,2.1508 2.25028,4.6553 3.49171,7.104 1.24145,2.4488 2.42066,4.8473 3.09244,6.683 0.33588,0.9179 0.5387,1.7023 0.58159,2.1987 0.0188,0.2176 0.006,0.3162 -0.004,0.3842 -0.0488,-0.014 -0.10011,-0.025 -0.26258,-0.098 -0.41656,-0.1857 -1.06209,-0.623 -1.78818,-1.2372 -1.4522,-1.2284 -3.26546,-3.1405 -5.10413,-5.131 -1.83868,-1.9904 -3.70936,-4.061 -5.37106,-5.6672 -0.83085,-0.8031 -1.60659,-1.4923 -2.33722,-2.0099 -0.73064,-0.5175 -1.38799,-0.9311 -2.27646,-0.9311 -0.004,-10e-5 -0.006,0 -0.013,0 -0.007,0 -0.0133,-10e-5 -0.0239,0 h -0.0347 -0.002 c -0.0132,6e-4 -0.0323,0 -0.0326,0 -1.4e-4,0 -0.0846,0.011 -0.0847,0.011 -10e-6,0 -0.068,0.023 -0.11285,0.039 -0.76781,0.064 -1.38562,0.4136 -2.04643,0.8812 -0.73084,0.5171 -1.50631,1.2025 -2.33721,2.0056 -1.66182,1.606 -3.53237,3.6784 -5.37107,5.6693 -1.8387,1.9908 -3.6519,3.9021 -5.10413,5.131 -0.72611,0.6145 -1.37379,1.0536 -1.79034,1.2393 -0.16222,0.072 -0.21191,0.083 -0.26042,0.098 -0.01,-0.068 -0.0231,-0.1666 -0.004,-0.3841 0.0429,-0.4964 0.24579,-1.2809 0.58159,-2.1988 0.67161,-1.8357 1.84904,-4.2341 3.09026,-6.6829 1.24121,-2.4487 2.5464,-4.9532 3.49173,-7.1041 0.47266,-1.0754 0.85538,-2.0599 1.09808,-2.941 0.24271,-0.8811 0.40523,-1.65 0.14975,-2.4809 -0.25561,-0.8308 -0.82581,-1.3727 -1.51909,-1.9425 -0.69329,-0.5699 -1.55664,-1.1321 -2.54122,-1.7148 -1.96918,-1.1653 -4.42246,-2.3961 -6.79249,-3.6182 -2.37004,-1.222 -4.6617799,-2.4412 -6.2217499,-3.5118 -0.77998,-0.5353 -1.37309,-1.043 -1.67751,-1.4109 -0.20086,-0.2428 -0.23608,-0.3248 -0.24738,-0.3538 0.0409,-0.02 0.13425,-0.059 0.34938,-0.1111 0.43833,-0.1044 1.2011,-0.147 2.1289,-0.095 1.8556,0.1033 4.3905899,0.5366 6.9899599,1.0201 2.59938,0.4835 5.26878,1.0149 7.51514,1.2958 1.12318,0.1405 2.13761,0.2212 3.02299,0.191 0.88537,-0.03 1.66441,-0.1111 2.36543,-0.6446 0.69871,-0.5317 0.99247,-1.2493 1.29123,-2.1075 0.29875,-0.8584 0.54171,-1.8858 0.76388,-3.0409 0.44435,-2.3104 0.79934,-5.1272 1.17187,-7.8659 0.37253,-2.7387 0.76579,-5.4042 1.25216,-7.3125 0.24319,-0.9541 0.51877,-1.7216 0.76171,-2.1574 0.0907,-0.1627 0.13316,-0.2266 0.15625,-0.2627 z" />
    <path
       id="rect2288-3-7-2-8-6-1-2-9-3-4"
       style="color:#000000;font-style:normal;font-variant:normal;font-weight:normal;font-stretch:normal;font-size:medium;line-height:normal;font-family:sans-serif;font-variant-ligatures:normal;font-variant-position:normal;font-variant-caps:normal;font-variant-numeric:normal;font-variant-alternates:normal;font-variant-east-asian:normal;font-feature-settings:normal;font-variation-settings:normal;text-indent:0;text-align:start;text-decoration:none;text-decoration-line:none;text-decoration-style:solid;text-decoration-color:#000000;letter-spacing:normal;word-spacing:normal;text-transform:none;writing-mode:lr-tb;direction:ltr;text-orientation:mixed;dominant-baseline:auto;baseline-shift:baseline;text-anchor:start;white-space:normal;shape-padding:0;shape-margin:0;inline-size:0;clip-rule:nonzero;display:inline;overflow:visible;visibility:visible;isolation:auto;mix-blend-mode:normal;color-interpolation:sRGB;color-interpolation-filters:linearRGB;solid-color:#000000;solid-opacity:1;vector-effect:none;fill:#45454a;fill-opacity:1;fill-rule:nonzero;stroke:none;stroke-width:1.1112;stroke-linecap:round;stroke-linejoin:round;stroke-miterlimit:4;stroke-dasharray:none;stroke-dashoffset:2.1875;stroke-opacity:1;color-rendering:auto;image-rendering:auto;shape-rendering:auto;text-rendering:auto;enable-background:accumulate;stop-color:#000000"
       d="m 32.006462,2.0002 a 1.1112452,1.1113694 0 0 1 0.0433,0.002 c 0.99223,0.0381 1.63523,0.7751 2.04645,1.51279 0.41133,0.7377 0.70633,1.63726 0.97445,2.68917 0.53622,2.1038 0.92766,4.80639 1.30211,7.55958 0.37444,2.7532 0.72822,5.5519 1.15022,7.74626 0.211,1.09719 0.44089,2.04572 0.67922,2.73039 0.23834,0.68468 0.54656,1.0764 0.53823,1.07002 -0.0111,-0.007 0.41077,0.16762 1.09589,0.191 0.68511,0.0233 1.61233,-0.0433 2.67155,-0.1758 2.11834,-0.26488 4.77123,-0.78531 7.38723,-1.27187 2.61611,-0.48657 5.19034,-0.94136 7.27234,-1.05701 1.041,-0.0578 1.95511,-0.04 2.767,0.15411 0.81189,0.1941 1.68578,0.67226 1.97267,1.59526 0.287,0.92302 -0.13589,1.79952 -0.67278,2.44824 -0.53678,0.64872 -1.26478,1.22784 -2.13544,1.82532 -1.74134,1.19502 -4.07345,2.42535 -6.45845,3.65501 -2.385,1.22966 -4.81912,2.45407 -6.67979,3.55516 -0.93033,0.55054 -1.717,1.07188 -2.26133,1.51929 -0.54445,0.44742 -0.79778,0.85502 -0.80522,0.87903 -0.0111,0.0241 -0.0289,0.5324 0.165,1.23715 0.19411,0.70473 0.543,1.61622 0.99177,2.63706 0.89745,2.04169 2.19123,4.53039 3.43967,6.99311 1.24856,2.46272 2.45145,4.8926 3.19456,6.92367 0.37156,1.01552 0.63667,1.92429 0.70967,2.76945 0.0733,0.84517 -0.0544,1.81115 -0.83556,2.40918 -0.78078,0.59794 -1.78411,0.44044 -2.54778,0.0998 -0.76366,-0.34062 -1.50833,-0.88656 -2.31778,-1.5714 -1.61866,-1.36969 -3.45189,-3.31915 -5.30178,-5.32188 -1.84978,-2.00273 -3.71111,-4.05769 -5.28434,-5.578 -0.78666,-0.76015 -1.50444,-1.38553 -2.07689,-1.7906 -0.57244,-0.40506 -1.02577,-0.52301 -0.99177,-0.52306 h -0.039 a 1.1112452,1.1113694 0 0 1 -1.11112,-1.11127 V 3.11126 A 1.1112452,1.1113694 0 0 1 31.999882,2 Z m 1.10456,5.88185 V 45.1309 c 0.38955,0.16964 0.81711,0.21793 1.20233,0.49053 0.73089,0.51718 1.50634,1.20461 2.33734,2.00764 1.66189,1.60608 3.53222,3.67614 5.37111,5.66699 1.83889,1.99084 3.65189,3.9041 5.10434,5.13305 0.72611,0.61447 1.37156,1.05349 1.78822,1.23931 0.16134,0.072 0.21123,0.0831 0.26045,0.0977 0.0111,-0.0682 0.0233,-0.16762 0,-0.38633 -0.0433,-0.4964 -0.24367,-1.27862 -0.57945,-2.19647 -0.67166,-1.83572 -1.85122,-4.2341 -3.09256,-6.68275 -1.24133,-2.44865 -2.54422,-4.95307 -3.48966,-7.1038 -0.47267,-1.07536 -0.85756,-2.05986 -1.10023,-2.94092 -0.24278,-0.88108 -0.40311,-1.64996 -0.14766,-2.4808 0.25566,-0.83088 0.82588,-1.37269 1.51922,-1.94254 0.69322,-0.56983 1.55667,-1.13415 2.54122,-1.71681 1.96923,-1.1653 4.42256,-2.39393 6.79268,-3.61593 2.37011,-1.22199 4.65978,-2.4412 6.21978,-3.51174 0.78,-0.53527 1.37533,-1.04289 1.67967,-1.41077 0.20088,-0.24274 0.23455,-0.32629 0.24522,-0.35597 -0.0411,-0.0198 -0.13422,-0.0592 -0.34934,-0.11066 -0.43833,-0.10478 -1.199,-0.14486 -2.12677,-0.0933 -1.85567,0.103 -4.39079,0.53665 -6.99023,1.0201 -2.59934,0.48345 -5.27112,1.01269 -7.51745,1.29358 -1.12323,0.14043 -2.13767,0.22121 -3.02312,0.191 -0.88533,-0.0302 -1.66444,-0.109 -2.36544,-0.64246 -0.69878,-0.5316 -0.99256,-1.25137 -1.29134,-2.10965 -0.29866,-0.85827 -0.53955,-1.88348 -0.76166,-3.03859 -0.44434,-2.31025 -0.79945,-5.12924 -1.17189,-7.8678 -0.315,-2.31575 -0.67045,-4.38406 -1.05912,-6.18137 z" />
    <path
       id="rect2288-3-7-2-3-0-5"
       style="fill:url(#linearGradient1417);fill-opacity:1;stroke-width:0;stroke-linecap:round;stroke-linejoin:round;stroke-dashoffset:2.1875;stroke-opacity:0.5"
       d="m 32.006352,3.11131 c 3.38622,0.13 3.29989,20.9788 6.06123,23.07942 2.77033,2.10783 21.71568,-4.53356 22.77779,-1.11762 1.06211,3.41564 -17.96279,9.80358 -19.01479,13.22266 -1.05167,3.41942 10.81512,20.29411 8.05123,22.41102 -2.76423,2.1165 -14.42668,-14.9168 -17.84724,-14.91102 h -0.0347 V 3.11131 Z" />
    <path
       id="rect2288-3-7-2-8-6-1-2-7-2"
       style="color:#000000;font-style:normal;font-variant:normal;font-weight:normal;font-stretch:normal;font-size:medium;line-height:normal;font-family:sans-serif;font-variant-ligatures:normal;font-variant-position:normal;font-variant-caps:normal;font-variant-numeric:normal;font-variant-alternates:normal;font-variant-east-asian:normal;font-feature-settings:normal;font-variation-settings:normal;text-indent:0;text-align:start;text-decoration:none;text-decoration-line:none;text-decoration-style:solid;text-decoration-color:#000000;letter-spacing:normal;word-spacing:normal;text-transform:none;writing-mode:lr-tb;direction:ltr;text-orientation:mixed;dominant-baseline:auto;baseline-shift:baseline;text-anchor:start;white-space:normal;shape-padding:0;shape-margin:0;inline-size:0;clip-rule:nonzero;display:inline;overflow:visible;visibility:visible;opacity:0.35;isolation:auto;mix-blend-mode:normal;color-interpolation:sRGB;color-interpolation-filters:linearRGB;solid-color:#000000;solid-opacity:1;vector-effect:none;fill:#45454a;fill-opacity:1;fill-rule:nonzero;stroke:none;stroke-width:1.1112;stroke-linecap:round;stroke-linejoin:round;stroke-miterlimit:4;stroke-dasharray:none;stroke-dashoffset:2.1875;stroke-opacity:1;color-rendering:auto;image-rendering:auto;shape-rendering:auto;text-rendering:auto;enable-background:accumulate;stop-color:#000000"
       d="m 32.006572,2.00021 a 1.1112452,1.1113694 0 0 1 0.0433,0.002 c 0.99222,0.0381 1.63511,0.7751 2.04644,1.51279 0.41133,0.7377 0.70634,1.63726 0.97445,2.68917 0.53611,2.1038 0.92766,4.80639 1.30211,7.55959 0.37444,2.7532 0.72822,5.55189 1.15022,7.74625 0.21089,1.09719 0.44089,2.04572 0.67922,2.73039 0.23834,0.68468 0.54656,1.0764 0.53823,1.07002 -0.0111,-0.007 0.41078,0.16762 1.09589,0.191 0.68511,0.0233 1.61233,-0.0433 2.67155,-0.1758 2.11823,-0.26488 4.77123,-0.78531 7.38723,-1.27187 2.61612,-0.48657 5.19034,-0.94136 7.27234,-1.05701 1.041,-0.0578 1.95511,-0.04 2.767,0.15411 0.81189,0.1941 1.68567,0.67226 1.97267,1.59526 0.287,0.92302 -0.13589,1.79952 -0.67278,2.44824 -0.53677,0.64873 -1.26477,1.22784 -2.13544,1.82533 -1.74134,1.19501 -4.07356,2.42534 -6.45845,3.65501 -2.385,1.22965 -4.81912,2.45406 -6.67978,3.55515 -0.93045,0.55055 -1.71701,1.07188 -2.26134,1.51929 -0.54444,0.44742 -0.79778,0.85502 -0.80522,0.87903 -0.0111,0.0241 -0.0289,0.5324 0.165,1.23715 0.19411,0.70473 0.543,1.61622 0.99178,2.63706 0.89744,2.04169 2.19122,4.53039 3.43967,6.99311 1.24844,2.46273 2.45133,4.8926 3.19455,6.92367 0.37156,1.01552 0.63667,1.92429 0.70967,2.76945 0.0733,0.84517 -0.0544,1.81115 -0.83556,2.40918 -0.78089,0.59795 -1.78411,0.44045 -2.54778,0.0998 -0.76366,-0.34062 -1.50844,-0.88656 -2.31778,-1.5714 -1.61866,-1.36969 -3.45189,-3.31914 -5.30178,-5.32188 -1.84989,-2.00273 -3.71111,-4.05769 -5.28433,-5.578 -0.78667,-0.76015 -1.50445,-1.38553 -2.0769,-1.7906 -0.57244,-0.40506 -1.02577,-0.52301 -0.99177,-0.52306 h -0.0345 a 1.1112452,1.1113694 0 0 1 -1.11111,-1.11127 V 3.11127 a 1.1112452,1.1113694 0 0 1 1.11111,-1.11126 z m 1.10456,5.88186 v 37.24885 c 0.38955,0.16963 0.81711,0.21792 1.20233,0.49052 0.73089,0.51719 1.50634,1.20461 2.33723,2.00764 1.662,1.60608 3.53233,3.67615 5.37122,5.66699 1.83889,1.99084 3.65189,3.9041 5.10434,5.13305 0.72611,0.61447 1.37156,1.05349 1.78822,1.23931 0.16134,0.072 0.21123,0.0831 0.26034,0.0977 0.0111,-0.0682 0.0233,-0.16762 0,-0.38633 -0.0433,-0.4964 -0.24356,-1.27862 -0.57934,-2.19647 -0.67177,-1.83572 -1.85122,-4.2341 -3.09255,-6.68275 -1.24134,-2.44865 -2.54423,-4.95307 -3.48967,-7.1038 -0.47267,-1.07536 -0.85756,-2.05986 -1.10034,-2.94092 -0.24266,-0.88108 -0.403,-1.64996 -0.14755,-2.4808 0.25566,-0.83088 0.82589,-1.37269 1.51922,-1.94254 0.69322,-0.56983 1.55656,-1.13415 2.54122,-1.71681 1.96923,-1.1653 4.42256,-2.39393 6.79268,-3.61593 2.37011,-1.22199 4.65978,-2.4412 6.21978,-3.51174 0.78,-0.53527 1.37522,-1.04289 1.67967,-1.41077 0.20089,-0.24274 0.23455,-0.32629 0.24522,-0.35597 -0.0411,-0.0198 -0.13422,-0.0592 -0.34933,-0.11066 -0.43834,-0.10478 -1.19901,-0.14486 -2.12678,-0.0933 -1.85567,0.103 -4.39079,0.53665 -6.99023,1.0201 -2.59934,0.48345 -5.27112,1.01269 -7.51745,1.29358 -1.12323,0.14043 -2.13767,0.22121 -3.02312,0.191 -0.88533,-0.0302 -1.66444,-0.109 -2.36544,-0.64245 -0.69878,-0.5316 -0.99256,-1.25138 -1.29134,-2.10966 -0.29866,-0.85827 -0.53955,-1.88348 -0.76166,-3.03859 -0.44434,-2.31025 -0.79945,-5.12924 -1.17189,-7.8678 -0.315,-2.31575 -0.67045,-4.38406 -1.05912,-6.18137 z" />
    <path
       id="rect2288-3-7-2-8-6-1-8-5"
       style="color:#000000;font-style:normal;font-variant:normal;font-weight:normal;font-stretch:normal;font-size:medium;line-height:normal;font-family:sans-serif;font-variant-ligatures:normal;font-variant-position:normal;font-variant-caps:normal;font-variant-numeric:normal;font-variant-alternates:normal;font-variant-east-asian:normal;font-feature-settings:normal;font-variation-settings:normal;text-indent:0;text-align:start;text-decoration:none;text-decoration-line:none;text-decoration-style:solid;text-decoration-color:#000000;letter-spacing:normal;word-spacing:normal;text-transform:none;writing-mode:lr-tb;direction:ltr;text-orientation:mixed;dominant-baseline:auto;baseline-shift:baseline;text-anchor:start;white-space:normal;shape-padding:0;shape-margin:0;inline-size:0;clip-rule:nonzero;display:inline;overflow:visible;visibility:visible;isolation:auto;mix-blend-mode:normal;color-interpolation:sRGB;color-interpolation-filters:linearRGB;solid-color:#000000;solid-opacity:1;vector-effect:none;fill:#413c41;fill-opacity:1;fill-rule:nonzero;stroke:none;stroke-width:1.1112;stroke-linecap:round;stroke-linejoin:round;stroke-miterlimit:4;stroke-dasharray:none;stroke-dashoffset:2.1875;stroke-opacity:1;color-rendering:auto;image-rendering:auto;shape-rendering:auto;text-rendering:auto;enable-background:accumulate;stop-color:#000000"
       d="m 31.993462,2.0002 a 1.1112452,1.1113694 0 0 0 -0.0433,0.002 c -0.99223,0.0381 -1.63523,0.7751 -2.04656,1.51279 -0.41122,0.7377 -0.70633,1.63726 -0.97433,2.68917 -0.53623,2.1038 -0.92778,4.80639 -1.30212,7.55958 -0.37444,2.7532 -0.72822,5.5519 -1.15022,7.74626 -0.211,1.09719 -0.441,2.04572 -0.67933,2.73039 -0.23823,0.68468 -0.54656,1.0764 -0.53811,1.07002 0.0111,-0.007 -0.41089,0.16762 -1.09601,0.191 -0.68511,0.0233 -1.61233,-0.0433 -2.67144,-0.1758 -2.11834,-0.26488 -4.77123,-0.78531 -7.38734,-1.27187 -2.61611,-0.48657 -5.1903399,-0.94136 -7.2723399,-1.05701 -1.041,-0.0578 -1.95511,-0.04 -2.76689,0.15411 -0.81189,0.1941 -1.68578,0.67226 -1.97278,1.59526 -0.287,0.92302 0.136,1.79952 0.67278,2.44824 0.53689,0.64872 1.26478,1.22784 2.13544,1.82532 1.74145,1.19502 4.07356,2.42535 6.4584499,3.65501 2.38501,1.22966 4.81912,2.45407 6.6799,3.55516 0.93033,0.55054 1.717,1.07188 2.26133,1.51929 0.54434,0.44742 0.79767,0.85502 0.80511,0.87903 0.0111,0.0241 0.0289,0.5324 -0.16488,1.23715 -0.19423,0.70473 -0.54312,1.61622 -0.99178,2.63706 -0.89756,2.04169 -2.19134,4.53039 -3.43978,6.99311 -1.24845,2.46272 -2.45134,4.8926 -3.19456,6.92367 -0.37156,1.01552 -0.63667,1.92429 -0.70956,2.76945 -0.0733,0.84517 0.0544,1.81115 0.83545,2.40918 0.78089,0.59794 1.78422,0.44044 2.54778,0.0998 0.76366,-0.34062 1.50844,-0.88656 2.31778,-1.5714 1.61878,-1.36969 3.45189,-3.31915 5.30178,-5.32188 1.84989,-2.00273 3.71111,-4.05769 5.28434,-5.578 0.78666,-0.76015 1.50444,-1.38553 2.07689,-1.7906 0.57244,-0.40506 1.02589,-0.52301 0.99178,-0.52306 h 0.039 a 1.1112452,1.1113694 0 0 0 1.11111,-1.11127 V 3.11126 A 1.1112452,1.1113694 0 0 0 31.999942,2 Z m -1.10467,5.88185 V 45.1309 c -0.38955,0.16964 -0.817,0.21793 -1.20222,0.49053 -0.731,0.51718 -1.50633,1.20461 -2.33734,2.00764 -1.662,1.60608 -3.53233,3.67614 -5.37122,5.66699 -1.83889,1.99084 -3.65189,3.9041 -5.10423,5.13305 -0.72622,0.61447 -1.37167,1.05349 -1.78822,1.23931 -0.16134,0.072 -0.21134,0.0831 -0.26045,0.0977 -0.0111,-0.0682 -0.0233,-0.16762 0,-0.38633 0.0433,-0.4964 0.24356,-1.27862 0.57945,-2.19647 0.67167,-1.83572 1.85111,-4.2341 3.09245,-6.68275 1.24133,-2.44865 2.54422,-4.95307 3.48967,-7.1038 0.47277,-1.07536 0.85755,-2.05986 1.10033,-2.94092 0.24267,-0.88108 0.403,-1.64996 0.14755,-2.4808 -0.25566,-0.83088 -0.82577,-1.37269 -1.51911,-1.94254 -0.69333,-0.56983 -1.55667,-1.13415 -2.54133,-1.71681 -1.96923,-1.1653 -4.42256,-2.39393 -6.79267,-3.61593 -2.37012,-1.22199 -4.6596799,-2.4412 -6.2197899,-3.51174 -0.78,-0.53527 -1.37522,-1.04289 -1.67967,-1.41077 -0.20088,-0.24274 -0.23455,-0.32629 -0.24522,-0.35597 0.0411,-0.0198 0.13422,-0.0592 0.34945,-0.11066 0.43833,-0.10478 1.19889,-0.14486 2.12678,-0.0933 1.85555,0.103 4.3906699,0.53665 6.9901099,1.0201 2.59945,0.48345 5.27112,1.01269 7.51756,1.29358 1.12312,0.14043 2.13767,0.22121 3.02301,0.191 0.88544,-0.0302 1.66444,-0.109 2.36555,-0.64246 0.69867,-0.5316 0.99245,-1.25137 1.29123,-2.10965 0.29878,-0.85827 0.53955,-1.88348 0.76178,-3.03859 0.44422,-2.31025 0.79944,-5.12924 1.17189,-7.8678 0.31488,-2.31575 0.67033,-4.38406 1.059,-6.18137 z" />
    <path
       id="rect2288-3-7-2-6-4"
       style="fill:#feed5a;fill-opacity:1;stroke-width:0;stroke-linecap:round;stroke-linejoin:round;stroke-dashoffset:2.1875;stroke-opacity:0.5"
       d="m 31.993352,3.11131 c -3.38623,0.13 -3.29978,20.9788 -6.06112,23.07942 -2.77044,2.10783 -21.7157899,-4.53356 -22.7777899,-1.11762 -1.06211,3.41564 17.9627899,9.80358 19.0146799,13.22266 1.05167,3.41942 -10.81501,20.29411 -8.05112,22.41102 2.76423,2.1165 14.42668,-14.9168 17.84724,-14.91102 h 0.0347 V 3.11131 Z" />
    <path
       id="rect2288-3-7-2-6-4-4"
       style="fill:url(#radialGradient1454);fill-opacity:1;stroke-width:0;stroke-linecap:round;stroke-linejoin:round;stroke-dashoffset:2.1875;stroke-opacity:0.5"
       d="m 31.992492,3.11154 c -3.38623,0.13 -3.29978,20.9788 -6.06112,23.07942 -2.77044,2.10783 -21.7157899,-4.53356 -22.7777899,-1.11762 -1.06211,3.41564 17.9627899,9.80358 19.0146799,13.22266 1.05167,3.41942 -10.81501,20.2941 -8.05112,22.41102 2.76423,2.1165 14.42668,-14.9168 17.84724,-14.91102 h 0.0347 V 3.11154 Z" />
    <path
       id="rect2288-3-7-2-8-6-5-8-7"
       style="color:#000000;font-style:normal;font-variant:normal;font-weight:normal;font-stretch:normal;font-size:medium;line-height:normal;font-family:sans-serif;font-variant-ligatures:normal;font-variant-position:normal;font-variant-caps:normal;font-variant-numeric:normal;font-variant-alternates:normal;font-variant-east-asian:normal;font-feature-settings:normal;font-variation-settings:normal;text-indent:0;text-align:start;text-decoration:none;text-decoration-line:none;text-decoration-style:solid;text-decoration-color:#000000;letter-spacing:normal;word-spacing:normal;text-transform:none;writing-mode:lr-tb;direction:ltr;text-orientation:mixed;dominant-baseline:auto;baseline-shift:baseline;text-anchor:start;white-space:normal;shape-padding:0;shape-margin:0;inline-size:0;clip-rule:nonzero;display:inline;overflow:visible;visibility:visible;opacity:0.25;isolation:auto;mix-blend-mode:normal;color-interpolation:sRGB;color-interpolation-filters:linearRGB;solid-color:#000000;solid-opacity:1;vector-effect:none;fill:#655301;fill-opacity:1;fill-rule:nonzero;stroke:none;stroke-width:1.11118;stroke-linecap:round;stroke-linejoin:round;stroke-miterlimit:4;stroke-dasharray:none;stroke-dashoffset:2.1875;stroke-opacity:1;color-rendering:auto;image-rendering:auto;shape-rendering:auto;text-rendering:auto;enable-background:accumulate;stop-color:#000000"
       d="m 31.992912,3.11299 c -3.38634,0.13001 -3.29979,20.97803 -6.06123,23.07864 -2.77045,2.1078 -21.7156899,-4.53347 -22.7777999,-1.11759 -1.06222,3.41563 17.9627899,9.80317 19.0147999,13.22222 1.05166,3.41939 -10.81524,20.29554 -8.05123,22.41243 2.76422,2.11648 14.42656,-14.91824 17.84723,-14.91269 h 0.0344 V 3.11299 Z m -1.10467,4.7698 v 37.24917 c -0.38956,0.16963 -0.817,0.21787 -1.20223,0.49044 -0.73089,0.51717 -1.50622,1.2043 -2.33722,2.00731 -1.662,1.60603 -3.53222,3.67526 -5.37112,5.66604 -1.83889,1.99077 -3.65178,3.9033 -5.10422,5.13221 -0.72611,0.61444 -1.37156,1.05545 -1.78811,1.24126 -0.16134,0.072 -0.21134,0.0831 -0.26045,0.0977 -0.0111,-0.0682 -0.0233,-0.16973 0,-0.38844 0.0433,-0.49639 0.24356,-1.27829 0.57945,-2.1961 0.67166,-1.83567 1.85111,-4.23307 3.09244,-6.68164 1.24134,-2.44856 2.54412,-4.95196 3.48956,-7.10262 0.47267,-1.07532 0.85756,-2.06157 1.10022,-2.94261 0.24278,-0.88104 0.40312,-1.64957 0.14756,-2.48039 -0.25556,-0.83084 -0.82578,-1.37237 -1.519,-1.9422 -0.69333,-0.56981 -1.55667,-1.1339 -2.54134,-1.71653 -1.96911,-1.16525 -4.42233,-2.39336 -6.79245,-3.61532 -2.37011,-1.22194 -4.6596699,-2.44066 -6.2196699,-3.51117 -0.78,-0.53525 -1.37522,-1.04484 -1.67967,-1.41271 -0.20088,-0.24273 -0.23455,-0.32622 -0.24522,-0.3559 0.0411,-0.0198 0.13422,-0.0592 0.34934,-0.11066 0.43833,-0.10478 1.199,-0.14485 2.12678,-0.0933 1.85566,0.103 4.3906699,0.53649 6.9899999,1.01994 2.59945,0.48342 5.271,1.01465 7.51734,1.29553 1.12322,0.14042 2.13767,0.22117 3.023,0.19095 0.88545,-0.0302 1.66445,-0.10888 2.36556,-0.64233 0.69867,-0.53158 0.99244,-1.25323 1.29122,-2.11146 0.29867,-0.85825 0.53956,-1.88304 0.76167,-3.0381 0.44433,-2.31018 0.79945,-5.12804 1.17189,-7.86649 0.31489,-2.31567 0.67033,-4.38528 1.059,-6.18252 z M 3.7072221,28.12733 c 0.358,0.30054 0.75822,0.59533 1.19355,0.89407 0.43545,0.29874 0.90767,0.59797 1.40845,0.90057 -0.50078,-0.30276 -0.973,-0.604 -1.40845,-0.90274 -0.43533,-0.29875 -0.83555,-0.59141 -1.19355,-0.8919 z" />
  </g>
</svg>
