<?xml version="1.0" encoding="UTF-8" standalone="no"?>
<svg
   xmlns:dc="http://purl.org/dc/elements/1.1/"
   xmlns:cc="http://creativecommons.org/ns#"
   xmlns:rdf="http://www.w3.org/1999/02/22-rdf-syntax-ns#"
   xmlns:svg="http://www.w3.org/2000/svg"
   xmlns="http://www.w3.org/2000/svg"
   xmlns:xlink="http://www.w3.org/1999/xlink"
   xmlns:sodipodi="http://sodipodi.sourceforge.net/DTD/sodipodi-0.dtd"
   xmlns:inkscape="http://www.inkscape.org/namespaces/inkscape"
   width="64"
   height="64"
   viewBox="0 0 16.933333 16.933334"
   version="1.1"
   id="svg841"
   inkscape:version="1.0.2 (e86c870879, 2021-01-15)"
   sodipodi:docname="task-due.svg">
  <defs
     id="defs835">
    <linearGradient
       inkscape:collect="always"
       xlink:href="#linearGradient2607"
       id="linearGradient2574"
       gradientUnits="userSpaceOnUse"
       x1="3.4395835"
       y1="2.1166675"
       x2="13.493752"
       y2="16.404167" />
    <linearGradient
       inkscape:collect="always"
       id="linearGradient2607">
      <stop
         style="stop-color:#fcc231;stop-opacity:1"
         offset="0"
         id="stop2603" />
      <stop
         style="stop-color:#f2ae03;stop-opacity:1"
         offset="1"
         id="stop2605" />
    </linearGradient>
    <linearGradient
       inkscape:collect="always"
       xlink:href="#linearGradient3680-7"
       id="linearGradient2576"
       gradientUnits="userSpaceOnUse"
       gradientTransform="translate(-0.16224778,-23.078186)"
       x1="6.9795055"
       y1="23.404812"
       x2="10.278595"
       y2="26.579811" />
    <linearGradient
       inkscape:collect="always"
       id="linearGradient3680-7">
      <stop
         style="stop-color:#fcfcfc;stop-opacity:0.55000001"
         offset="0"
         id="stop3678-2" />
      <stop
         style="stop-color:#fcfcfc;stop-opacity:0"
         offset="1"
         id="stop3676-7" />
    </linearGradient>
  </defs>
  <sodipodi:namedview
     id="base"
     pagecolor="#c4c4c4"
     bordercolor="#666666"
     borderopacity="1.0"
     inkscape:pageopacity="0"
     inkscape:pageshadow="2"
     inkscape:zoom="2.8903394"
     inkscape:cx="46.372831"
     inkscape:cy="36.927888"
     inkscape:document-units="px"
     inkscape:current-layer="layer1"
     inkscape:document-rotation="0"
     showgrid="false"
     units="px"
     inkscape:window-width="2048"
     inkscape:window-height="1080"
     inkscape:window-x="0"
     inkscape:window-y="0"
     inkscape:window-maximized="1" />
  <metadata
     id="metadata838">
    <rdf:RDF>
      <cc:Work
         rdf:about="">
        <dc:format>image/svg+xml</dc:format>
        <dc:type
           rdf:resource="http://purl.org/dc/dcmitype/StillImage" />
        <dc:title />
      </cc:Work>
    </rdf:RDF>
  </metadata>
  <g
     inkscape:label="Layer 1"
     inkscape:groupmode="layer"
     id="layer1">
    <rect
       style="opacity:0.25;fill:#0c0c0c;fill-opacity:1;stroke-width:1.19063;stroke-linecap:round;stroke-linejoin:round;stroke-dashoffset:2.1875"
       id="rect848-6-3-2-3-2-6-4-6"
       width="13.229167"
       height="14.2875"
       x="1.8520834"
       y="2.3812506"
       rx="0.79375005"
       ry="0.79375005" />
    <path
       id="rect848-6-3-2-3-2-63-2-4-1"
       style="color:#000000;font-style:normal;font-variant:normal;font-weight:normal;font-stretch:normal;font-size:medium;line-height:normal;font-family:sans-serif;font-variant-ligatures:normal;font-variant-position:normal;font-variant-caps:normal;font-variant-numeric:normal;font-variant-alternates:normal;font-variant-east-asian:normal;font-feature-settings:normal;font-variation-settings:normal;text-indent:0;text-align:start;text-decoration:none;text-decoration-line:none;text-decoration-style:solid;text-decoration-color:#000000;letter-spacing:normal;word-spacing:normal;text-transform:none;writing-mode:lr-tb;direction:ltr;text-orientation:mixed;dominant-baseline:auto;baseline-shift:baseline;text-anchor:start;white-space:normal;shape-padding:0;shape-margin:0;inline-size:0;clip-rule:nonzero;display:inline;overflow:visible;visibility:visible;isolation:auto;mix-blend-mode:normal;color-interpolation:sRGB;color-interpolation-filters:linearRGB;solid-color:#000000;solid-opacity:1;vector-effect:none;fill:#785602;fill-opacity:1;fill-rule:nonzero;stroke:none;stroke-width:1.00002;stroke-linecap:round;stroke-linejoin:round;stroke-miterlimit:4;stroke-dasharray:none;stroke-dashoffset:2.1875;stroke-opacity:1;color-rendering:auto;image-rendering:auto;shape-rendering:auto;text-rendering:auto;enable-background:accumulate;stop-color:#000000"
       d="M 2.6458731,1.5875007 C 2.0641099,1.5875007 1.5875,2.0625443 1.5875,2.6442836 V 15.345321 c 0,0.58174 0.4766099,1.058852 1.0583731,1.058852 H 14.286945 c 0.58176,0 1.058889,-0.477112 1.058889,-1.058852 V 2.6442836 c 0,-0.5817393 -0.477129,-1.0567829 -1.058889,-1.0567829 z m 0,0.5276163 H 14.286945 c 0.297746,0 0.529185,0.2314337 0.529185,0.5291666 V 15.345321 c 0,0.297736 -0.231439,0.529686 -0.529185,0.529686 H 2.6458731 c -0.2977462,0 -0.5291852,-0.23195 -0.5291852,-0.529686 V 2.6442836 c 0,-0.2977329 0.231439,-0.5291666 0.5291852,-0.5291666 z" />
    <rect
       style="fill:url(#linearGradient2574);fill-opacity:1;stroke-width:1.19063;stroke-linecap:round;stroke-linejoin:round;stroke-dashoffset:2.1875"
       id="rect848-6-3-2-3-2-3-15"
       width="13.229167"
       height="14.2875"
       x="1.8520834"
       y="1.852084"
       rx="0.79375005"
       ry="0.79375005" />
    <ellipse
       style="opacity:0.3;fill:#594103;fill-opacity:1;stroke:none;stroke-width:0;stroke-linecap:round;stroke-linejoin:round;stroke-dashoffset:2.1875"
       id="path1414-4-6-62-5-1-4-9"
       cx="8.466671"
       cy="2.3771489"
       rx="1.6495433"
       ry="1.6495448" />
    <ellipse
       style="fill:#fcb503;fill-opacity:1;stroke:none;stroke-width:0;stroke-linecap:round;stroke-linejoin:round;stroke-dashoffset:2.1875"
       id="path1414-4-6-3-5-5-6"
       cx="8.466671"
       cy="1.9141282"
       rx="1.6495433"
       ry="1.6495448" />
    <ellipse
       style="opacity:0.451;fill:url(#linearGradient2576);fill-opacity:1;stroke:none;stroke-width:0;stroke-linecap:round;stroke-linejoin:round;stroke-dashoffset:2.1875"
       id="path1414-4-6-13-6-4-0-2"
       cx="8.4667997"
       cy="1.9141282"
       rx="1.6495433"
       ry="1.6495448" />
    <path
       id="path1414-4-6-629-1-3-0-1-5-5-4-1"
       style="opacity:0.65;fill:#0c0c0c;fill-opacity:1;stroke:none;stroke-width:0;stroke-linecap:round;stroke-linejoin:round;stroke-dashoffset:2.1875"
       d="M 8.4666325,0.26458399 A 1.6495433,1.6495449 0 0 0 6.817122,1.9140945 1.6495433,1.6495449 0 0 0 8.4666325,3.5636049 1.6495433,1.6495449 0 0 0 10.116143,1.9140945 1.6495433,1.6495449 0 0 0 8.4666325,0.26458399 Z m 0,0.2645834 A 1.3849602,1.3849615 0 0 1 9.8515596,1.9140945 1.3849602,1.3849615 0 0 1 8.4666325,3.2990216 1.3849602,1.3849615 0 0 1 7.0817054,1.9140945 1.3849602,1.3849615 0 0 1 8.4666325,0.52916739 Z" />
    <path
       id="rect2609-8-3-61-2-9-3-9"
       style="color:#000000;font-style:normal;font-variant:normal;font-weight:normal;font-stretch:normal;font-size:medium;line-height:normal;font-family:sans-serif;font-variant-ligatures:normal;font-variant-position:normal;font-variant-caps:normal;font-variant-numeric:normal;font-variant-alternates:normal;font-variant-east-asian:normal;font-feature-settings:normal;font-variation-settings:normal;text-indent:0;text-align:start;text-decoration:none;text-decoration-line:none;text-decoration-style:solid;text-decoration-color:#000000;letter-spacing:normal;word-spacing:normal;text-transform:none;writing-mode:lr-tb;direction:ltr;text-orientation:mixed;dominant-baseline:auto;baseline-shift:baseline;text-anchor:start;white-space:normal;shape-padding:0;shape-margin:0;inline-size:0;clip-rule:nonzero;display:inline;overflow:visible;visibility:visible;opacity:0.25;isolation:auto;mix-blend-mode:normal;color-interpolation:sRGB;color-interpolation-filters:linearRGB;solid-color:#000000;solid-opacity:1;vector-effect:none;fill:#594103;fill-opacity:1;fill-rule:nonzero;stroke:none;stroke-width:0.264572;stroke-linecap:round;stroke-linejoin:round;stroke-miterlimit:4;stroke-dasharray:none;stroke-dashoffset:2.1875;stroke-opacity:1;color-rendering:auto;image-rendering:auto;shape-rendering:auto;text-rendering:auto;enable-background:accumulate;stop-color:#000000"
       d="m 8.0054955,5.3578133 c -0.3121687,0 -0.5714948,0.2598209 -0.5714948,0.5720583 v 5.5304134 c 0,0.312238 0.25926,0.572059 0.5714948,0.572059 H 8.927325 c 0.3122348,0 0.5720107,-0.259821 0.5720107,-0.572059 V 5.9298716 c 0,-0.3122374 -0.2598421,-0.5720583 -0.5720107,-0.5720583 z m 0,0.5291667 H 8.927325 c 0.028287,0 0.042889,0.014684 0.042889,0.042892 v 5.530413 c 0,0.0282 -0.014658,0.04289 -0.042889,0.04289 H 8.0054955 c -0.028223,0 -0.042373,-0.01468 -0.042373,-0.04289 V 5.9298716 c 0,-0.028199 0.014076,-0.042892 0.042373,-0.042892 z m 0.4609147,6.845062 c -0.7369254,0 -1.3398738,0.603018 -1.3398579,1.339969 2.11e-5,0.736923 0.6029616,1.33997 1.3398579,1.33997 0.7368964,0 1.3403501,-0.603047 1.3403713,-1.33997 2.12e-5,-0.736951 -0.6034458,-1.339969 -1.3403713,-1.339969 z m 0,0.529167 c 0.4509956,0 0.8112628,0.359873 0.8112496,0.810802 -1.06e-5,0.450911 -0.3602699,0.810803 -0.8112496,0.810803 -0.4509796,0 -0.8107204,-0.359892 -0.8107362,-0.810803 -1.06e-5,-0.450929 0.3597381,-0.810802 0.8107362,-0.810802 z" />
    <path
       id="rect2609-8-3-61-2-9-3"
       style="color:#000000;font-style:normal;font-variant:normal;font-weight:normal;font-stretch:normal;font-size:medium;line-height:normal;font-family:sans-serif;font-variant-ligatures:normal;font-variant-position:normal;font-variant-caps:normal;font-variant-numeric:normal;font-variant-alternates:normal;font-variant-east-asian:normal;font-feature-settings:normal;font-variation-settings:normal;text-indent:0;text-align:start;text-decoration:none;text-decoration-line:none;text-decoration-style:solid;text-decoration-color:#000000;letter-spacing:normal;word-spacing:normal;text-transform:none;writing-mode:lr-tb;direction:ltr;text-orientation:mixed;dominant-baseline:auto;baseline-shift:baseline;text-anchor:start;white-space:normal;shape-padding:0;shape-margin:0;inline-size:0;clip-rule:nonzero;display:inline;overflow:visible;visibility:visible;opacity:0.75;isolation:auto;mix-blend-mode:normal;color-interpolation:sRGB;color-interpolation-filters:linearRGB;solid-color:#000000;solid-opacity:1;vector-effect:none;fill:#594103;fill-opacity:1;fill-rule:nonzero;stroke:none;stroke-width:0.264572;stroke-linecap:round;stroke-linejoin:round;stroke-miterlimit:4;stroke-dasharray:none;stroke-dashoffset:2.1875;stroke-opacity:1;color-rendering:auto;image-rendering:auto;shape-rendering:auto;text-rendering:auto;enable-background:accumulate;stop-color:#000000"
       d="m 8.0054955,4.8286467 c -0.3121687,0 -0.5714948,0.2598208 -0.5714948,0.5720582 v 5.5304141 c 0,0.312237 0.25926,0.572058 0.5714948,0.572058 H 8.927325 c 0.3122348,0 0.5720107,-0.259821 0.5720107,-0.572058 V 5.4007049 c 0,-0.3122374 -0.2598421,-0.5720582 -0.5720107,-0.5720582 z m 0,0.5291666 H 8.927325 c 0.028287,0 0.042889,0.014684 0.042889,0.042892 v 5.5304137 c 0,0.0282 -0.014658,0.04289 -0.042889,0.04289 H 8.0054955 c -0.028223,0 -0.042373,-0.01468 -0.042373,-0.04289 V 5.4007049 c 0,-0.028199 0.014076,-0.042892 0.042373,-0.042892 z m 0.4609147,6.8450627 c -0.7369254,0 -1.3398738,0.603017 -1.3398579,1.339969 2.11e-5,0.736923 0.6029616,1.339969 1.3398579,1.339969 0.7368964,0 1.3403501,-0.603046 1.3403713,-1.339969 2.12e-5,-0.736952 -0.6034458,-1.339969 -1.3403713,-1.339969 z m 0,0.529166 c 0.4509956,0 0.8112628,0.359873 0.8112496,0.810803 -1.06e-5,0.450911 -0.3602699,0.810802 -0.8112496,0.810802 -0.4509796,0 -0.8107204,-0.359891 -0.8107362,-0.810802 -1.06e-5,-0.45093 0.3597381,-0.810803 0.8107362,-0.810803 z" />
    <path
       id="rect2609-8-3-61-2"
       style="fill:#fbfcfd;fill-opacity:1;stroke:none;stroke-width:0.614553;stroke-linecap:round;stroke-linejoin:round;stroke-miterlimit:4;stroke-dasharray:none;stroke-dashoffset:2.1875;stroke-opacity:1"
       d="m 8.0057257,5.09323 c -0.1702435,0 -0.3072951,0.1370065 -0.3072951,0.3072262 v 5.5306468 c 0,0.17022 0.1370516,0.30729 0.3072951,0.30729 h 0.9218824 c 0.1702435,0 0.307295,-0.13707 0.307295,-0.30729 V 5.4004562 c 0,-0.1702197 -0.1370515,-0.3072262 -0.307295,-0.3072262 z m 0.4609412,7.374163 a 1.0755316,1.0754032 0 0 0 -1.0755313,1.075433 1.0755316,1.0754032 0 0 0 1.0755313,1.075373 1.0755316,1.0754032 0 0 0 1.0755313,-1.075373 1.0755316,1.0754032 0 0 0 -1.0755313,-1.075433 z" />
  </g>
</svg>
