<?xml version="1.0" encoding="UTF-8" standalone="no"?>
<svg
   xmlns:dc="http://purl.org/dc/elements/1.1/"
   xmlns:cc="http://creativecommons.org/ns#"
   xmlns:rdf="http://www.w3.org/1999/02/22-rdf-syntax-ns#"
   xmlns:svg="http://www.w3.org/2000/svg"
   xmlns="http://www.w3.org/2000/svg"
   xmlns:sodipodi="http://sodipodi.sourceforge.net/DTD/sodipodi-0.dtd"
   xmlns:inkscape="http://www.inkscape.org/namespaces/inkscape"
   width="64"
   height="64"
   viewBox="0 0 64 64"
   version="1.1"
   id="svg6374"
   inkscape:version="1.0.2 (e86c870879, 2021-01-15)"
   sodipodi:docname="document-send.svg">
  <defs
     id="defs6368" />
  <sodipodi:namedview
     id="base"
     pagecolor="#cecece"
     bordercolor="#666666"
     borderopacity="1.0"
     inkscape:pageopacity="0"
     inkscape:pageshadow="2"
     inkscape:zoom="7.5046773"
     inkscape:cx="15.961847"
     inkscape:cy="37.861521"
     inkscape:document-units="px"
     inkscape:current-layer="layer1"
     inkscape:document-rotation="0"
     showgrid="false"
     units="px"
     inkscape:window-width="2048"
     inkscape:window-height="1080"
     inkscape:window-x="0"
     inkscape:window-y="0"
     inkscape:window-maximized="1" />
  <metadata
     id="metadata6371">
    <rdf:RDF>
      <cc:Work
         rdf:about="">
        <dc:format>image/svg+xml</dc:format>
        <dc:type
           rdf:resource="http://purl.org/dc/dcmitype/StillImage" />
        <dc:title />
      </cc:Work>
    </rdf:RDF>
  </metadata>
  <g
     inkscape:label="Layer 1"
     inkscape:groupmode="layer"
     id="layer1">
    <path
       id="rect954-7-0-7-3-0-0-0-6-2-3"
       style="color:#000000;font-style:normal;font-variant:normal;font-weight:normal;font-stretch:normal;font-size:medium;line-height:normal;font-family:sans-serif;font-variant-ligatures:normal;font-variant-position:normal;font-variant-caps:normal;font-variant-numeric:normal;font-variant-alternates:normal;font-variant-east-asian:normal;font-feature-settings:normal;font-variation-settings:normal;text-indent:0;text-align:start;text-decoration:none;text-decoration-line:none;text-decoration-style:solid;text-decoration-color:#000000;letter-spacing:normal;word-spacing:normal;text-transform:none;writing-mode:lr-tb;direction:ltr;text-orientation:mixed;dominant-baseline:auto;baseline-shift:baseline;text-anchor:start;white-space:normal;shape-padding:0;shape-margin:0;inline-size:0;clip-rule:nonzero;display:inline;overflow:visible;visibility:visible;opacity:0.85;isolation:auto;mix-blend-mode:normal;color-interpolation:sRGB;color-interpolation-filters:linearRGB;solid-color:#000000;solid-opacity:1;vector-effect:none;fill:#2a2a2c;fill-opacity:1;fill-rule:nonzero;stroke:none;stroke-linecap:round;stroke-linejoin:round;stroke-miterlimit:4;stroke-dasharray:none;stroke-dashoffset:2.1875;stroke-opacity:1;color-rendering:auto;image-rendering:auto;shape-rendering:auto;text-rendering:auto;enable-background:accumulate;stop-color:#000000"
       d="M 13,2.5 C 10.533,2.5 8.5,4.53295 8.5,7 v 49.99999 c 0,2.46706 2.033,4.5 4.5,4.5 h 38 c 2.467,0 4.5,-2.03294 4.5,-4.5 V 7 C 55.5,4.53295 53.467,2.5 51,2.5 Z m 0,3 h 38 c 0.8569,0 1.5,0.64306 1.5,1.5 v 49.99999 c 0,0.85695 -0.6431,1.5 -1.5,1.5 H 13 c -0.8569,0 -1.5,-0.64305 -1.5,-1.5 V 7 c 0,-0.85694 0.6431,-1.5 1.5,-1.5 z" />
    <rect
       style="fill:#fcfcfc;fill-opacity:1;stroke-width:0.495;stroke-linecap:round;stroke-linejoin:round;stroke-miterlimit:4;stroke-dasharray:none;stroke-dashoffset:2.1875"
       id="rect954-7-0-7-3-0-0-8-6"
       width="44"
       height="56"
       x="10"
       y="4.000061"
       rx="3"
       ry="3" />
    <path
       id="path1085-36-7-6-6-5"
       style="color:#000000;font-style:normal;font-variant:normal;font-weight:normal;font-stretch:normal;font-size:medium;line-height:normal;font-family:sans-serif;font-variant-ligatures:normal;font-variant-position:normal;font-variant-caps:normal;font-variant-numeric:normal;font-variant-alternates:normal;font-variant-east-asian:normal;font-feature-settings:normal;font-variation-settings:normal;text-indent:0;text-align:start;text-decoration:none;text-decoration-line:none;text-decoration-style:solid;text-decoration-color:#000000;letter-spacing:normal;word-spacing:normal;text-transform:none;writing-mode:lr-tb;direction:ltr;text-orientation:mixed;dominant-baseline:auto;baseline-shift:baseline;text-anchor:start;white-space:normal;shape-padding:0;shape-margin:0;inline-size:0;clip-rule:nonzero;display:inline;overflow:visible;visibility:visible;opacity:0.075;isolation:auto;mix-blend-mode:normal;color-interpolation:sRGB;color-interpolation-filters:linearRGB;solid-color:#000000;solid-opacity:1;vector-effect:none;fill:#2a2a2c;fill-opacity:1;fill-rule:nonzero;stroke:none;stroke-width:0;stroke-linecap:butt;stroke-linejoin:round;stroke-miterlimit:4;stroke-dasharray:none;stroke-dashoffset:0;stroke-opacity:1;color-rendering:auto;image-rendering:auto;shape-rendering:auto;text-rendering:auto;enable-background:accumulate;stop-color:#000000"
       d="m 42.907,15.95967 c -3.4283,-1.98144 -7.8538,-0.79432 -9.8333,2.63769 l -9.79,16.97464 c -0.7707,1.33619 -0.7706,2.98814 -3e-4,4.32408 0.7702,1.33596 2.1995,2.16202 3.7404,2.16179 1.5409,-1.9e-4 2.97,-0.82613 3.7407,-2.16231 l -1e-4,-4e-4 5.111,-8.86176 1.7997,-3.12034 c 0.3988,-0.69146 0.1638,-1.56952 -0.527,-1.96873 -0.6907,-0.39921 -1.5678,-0.16392 -1.9667,0.52755 l -1.7996,3.12033 -5.111,8.86175 c -0.2584,0.44806 -0.7298,0.72068 -1.2466,0.72075 -0.5167,1.5e-4 -0.9887,-0.27275 -1.247,-0.72073 -0.2583,-0.44798 -0.2582,-0.993 3e-4,-1.44106 v 1.3e-4 l 9.79,-16.97461 c 1.2013,-2.08288 3.8196,-2.7854 5.9002,-1.58288 2.0806,1.20252 2.7822,3.8237 1.5809,5.90657 l -9.7901,16.97463 -3.8173,6.61877 a 1.4396932,1.4412139 0.56332026 0 0 4e-4,0.003 l -0.01,0.005 c -1.0542,1.82134 -3.2372,2.61553 -5.2137,1.89538 -1.9786,-0.7209 -3.1426,-2.73788 -2.7769,-4.81366 a 1.4396932,1.4412139 0.56332026 0 0 -1.1674,-1.6696 1.4396932,1.4412139 0.56332026 0 0 -1.6684,1.16958 c -0.605,3.43451 1.3537,6.82911 4.6273,8.02186 3.2717,1.19202 6.949,-0.14633 8.6922,-3.16265 l 10e-5,4.2e-4 3.8224,-6.62755 9.7901,-16.97463 v -1.3e-4 c 1.9794,-3.43199 0.7936,-7.86219 -2.6348,-9.84361 z" />
    <path
       id="path1085-36-7-6-6"
       style="color:#000000;font-style:normal;font-variant:normal;font-weight:normal;font-stretch:normal;font-size:medium;line-height:normal;font-family:sans-serif;font-variant-ligatures:normal;font-variant-position:normal;font-variant-caps:normal;font-variant-numeric:normal;font-variant-alternates:normal;font-variant-east-asian:normal;font-feature-settings:normal;font-variation-settings:normal;text-indent:0;text-align:start;text-decoration:none;text-decoration-line:none;text-decoration-style:solid;text-decoration-color:#000000;letter-spacing:normal;word-spacing:normal;text-transform:none;writing-mode:lr-tb;direction:ltr;text-orientation:mixed;dominant-baseline:auto;baseline-shift:baseline;text-anchor:start;white-space:normal;shape-padding:0;shape-margin:0;inline-size:0;clip-rule:nonzero;display:inline;overflow:visible;visibility:visible;isolation:auto;mix-blend-mode:normal;color-interpolation:sRGB;color-interpolation-filters:linearRGB;solid-color:#000000;solid-opacity:1;vector-effect:none;fill:#2a2a2c;fill-opacity:1;fill-rule:nonzero;stroke:none;stroke-width:0;stroke-linecap:butt;stroke-linejoin:round;stroke-miterlimit:4;stroke-dasharray:none;stroke-dashoffset:0;stroke-opacity:1;color-rendering:auto;image-rendering:auto;shape-rendering:auto;text-rendering:auto;enable-background:accumulate;stop-color:#000000"
       d="m 42.407,13.95967 c -3.4283,-1.98144 -7.8538,-0.79432 -9.8333,2.63769 l -9.79,16.97464 c -0.7707,1.33619 -0.7706,2.98814 -3e-4,4.32408 0.7702,1.33596 2.1995,2.16202 3.7404,2.16179 1.5409,-1.9e-4 2.97,-0.82613 3.7407,-2.16231 l -1e-4,-4e-4 5.111,-8.86176 1.7997,-3.12034 c 0.3988,-0.69146 0.1638,-1.56952 -0.527,-1.96873 -0.6907,-0.39921 -1.5678,-0.16392 -1.9667,0.52755 l -1.7996,3.12033 -5.111,8.86175 c -0.2584,0.44806 -0.7298,0.72068 -1.2466,0.72075 -0.5167,1.5e-4 -0.9887,-0.27275 -1.247,-0.72073 -0.2583,-0.44798 -0.2582,-0.993 3e-4,-1.44106 v 1.3e-4 l 9.79,-16.97461 c 1.2013,-2.08288 3.8196,-2.7854 5.9002,-1.58288 2.0806,1.20252 2.7822,3.8237 1.5809,5.90657 l -9.7901,16.97463 -3.8173,6.61877 a 1.4396932,1.4412139 0.56332026 0 0 4e-4,0.003 l -0.01,0.005 c -1.0542,1.82134 -3.2372,2.61553 -5.2137,1.89538 -1.9786,-0.7209 -3.1426,-2.73788 -2.7769,-4.81366 a 1.4396932,1.4412139 0.56332026 0 0 -1.1674,-1.6696 1.4396932,1.4412139 0.56332026 0 0 -1.6684,1.16958 c -0.605,3.43451 1.3537,6.82911 4.6273,8.02186 3.2717,1.19202 6.949,-0.14633 8.6922,-3.16265 l 10e-5,4.2e-4 3.8224,-6.62755 9.7901,-16.97463 v -1.3e-4 c 1.9794,-3.43199 0.7936,-7.86219 -2.6348,-9.84361 z" />
  </g>
</svg>
