<?xml version="1.0" encoding="UTF-8" standalone="no"?>
<svg
   xmlns:dc="http://purl.org/dc/elements/1.1/"
   xmlns:cc="http://creativecommons.org/ns#"
   xmlns:rdf="http://www.w3.org/1999/02/22-rdf-syntax-ns#"
   xmlns:svg="http://www.w3.org/2000/svg"
   xmlns="http://www.w3.org/2000/svg"
   xmlns:xlink="http://www.w3.org/1999/xlink"
   xmlns:sodipodi="http://sodipodi.sourceforge.net/DTD/sodipodi-0.dtd"
   xmlns:inkscape="http://www.inkscape.org/namespaces/inkscape"
   width="64"
   height="64"
   viewBox="0 0 64 64"
   version="1.1"
   id="svg6374"
   inkscape:version="1.0.2 (e86c870879, 2021-01-15)"
   sodipodi:docname="hb-add-queue.svg">
  <defs
     id="defs6368">
    <linearGradient
       inkscape:collect="always"
       xlink:href="#linearGradient3476-9"
       id="linearGradient6963"
       gradientUnits="userSpaceOnUse"
       gradientTransform="matrix(1.1363634,0,0,1.1428545,2.6363499,-2.7855001)"
       x1="32"
       y1="16"
       x2="32"
       y2="58" />
    <linearGradient
       inkscape:collect="always"
       id="linearGradient3476-9">
      <stop
         style="stop-color:#bc6296;stop-opacity:1"
         offset="0"
         id="stop3472-3" />
      <stop
         style="stop-color:#b4508a;stop-opacity:1"
         offset="1"
         id="stop3474-7" />
    </linearGradient>
  </defs>
  <sodipodi:namedview
     id="base"
     pagecolor="#cecece"
     bordercolor="#666666"
     borderopacity="1.0"
     inkscape:pageopacity="0"
     inkscape:pageshadow="2"
     inkscape:zoom="3.909941"
     inkscape:cx="23.345608"
     inkscape:cy="31.028878"
     inkscape:document-units="px"
     inkscape:current-layer="layer1"
     inkscape:document-rotation="0"
     showgrid="false"
     units="px"
     inkscape:window-width="1500"
     inkscape:window-height="970"
     inkscape:window-x="68"
     inkscape:window-y="56"
     inkscape:window-maximized="0" />
  <metadata
     id="metadata6371">
    <rdf:RDF>
      <cc:Work
         rdf:about="">
        <dc:format>image/svg+xml</dc:format>
        <dc:type
           rdf:resource="http://purl.org/dc/dcmitype/StillImage" />
        <dc:title></dc:title>
      </cc:Work>
    </rdf:RDF>
  </metadata>
  <g
     inkscape:label="Layer 1"
     inkscape:groupmode="layer"
     id="layer1">
    <rect
       style="fill:#e6ba42;fill-opacity:1;stroke-width:0;stroke-linecap:round;stroke-linejoin:round;stroke-dashoffset:2.1875"
       id="rect1208-1-9-7-7-98-3-2-7-52-4-9-7-6-6-3"
       width="49.999989"
       height="47.999996"
       x="0"
       y="0.5"
       rx="3.40909"
       ry="3.4285712" />
    <path
       id="rect1208-1-9-7-7-98-3-2-7-52-4-8-2-6-4-2-7-2-3"
       style="fill:#6b530f;fill-opacity:1;stroke-width:0;stroke-linecap:round;stroke-linejoin:round;stroke-dashoffset:2.1875"
       d="M 3.4090999,0.50009995 C 1.5204699,0.50009995 9.8894348e-6,2.0291999 9.8894348e-6,3.9286999 V 45.0715 c 0,1.8995 1.5204600105652,3.4286 3.4090900105652,3.4286 H 46.59091 C 48.47954,48.5001 50,46.971 50,45.0715 V 3.9286999 c 0,-1.8995 -1.52046,-3.42859995 -3.40909,-3.42859995 z m 0,1.71429995 H 46.59091 c 0.94432,0 1.70454,0.7646 1.70454,1.7143 V 45.0715 c 0,0.9497 -0.76022,1.7143 -1.70454,1.7143 H 3.4090999 c -0.94432,0 -1.70454,-0.7646 -1.70454,-1.7143 V 3.9286999 c 0,-0.9497 0.76022,-1.7143 1.70454,-1.7143 z" />
    <rect
       style="fill:#64aab9;fill-opacity:1;stroke-width:0;stroke-linecap:round;stroke-linejoin:round;stroke-dashoffset:2.1875"
       id="rect1208-1-9-7-7-98-3-2-7-52-4-5-1-5-1-8"
       width="49.999989"
       height="47.999973"
       x="6.9999995"
       y="7.9999995"
       rx="3.40909"
       ry="3.4285696" />
    <path
       id="rect1208-1-9-7-7-98-3-2-7-52-4-8-2-6-4-0-5-6-79-0"
       style="fill:#2c5863;fill-opacity:1;stroke-width:0;stroke-linecap:round;stroke-linejoin:round;stroke-dashoffset:2.1875"
       d="m 10.4091,7.9999999 c -1.8886301,0 -3.4090901,1.5291 -3.4090901,3.4286001 v 41.1428 c 0,1.8994 1.52046,3.4286 3.4090901,3.4286 H 53.59091 C 55.47955,56 57,54.4708 57,52.5714 V 11.4286 C 57,9.5290999 55.47955,7.9999999 53.59091,7.9999999 Z m 0,1.7143 h 43.18181 c 0.94432,0 1.70454,0.7646001 1.70454,1.7143001 v 41.1428 c 0,0.9497 -0.76022,1.7143 -1.70454,1.7143 H 10.4091 c -0.9443101,0 -1.7045401,-0.7646 -1.7045401,-1.7143 V 11.4286 c 0,-0.9497 0.76023,-1.7143001 1.7045401,-1.7143001 z" />
    <rect
       style="fill:url(#linearGradient6963);fill-opacity:1;stroke-width:0;stroke-linecap:round;stroke-linejoin:round;stroke-dashoffset:2.1875"
       id="rect1208-1-9-7-7-98-3-2-7-52-9-9-2-6"
       width="49.999989"
       height="47.999886"
       x="14"
       y="15.500122"
       rx="3.40909"
       ry="3.4285634" />
    <path
       id="rect1208-1-9-7-7-98-3-2-7-52-4-8-2-6-49-8-0-8"
       style="fill:#642b4c;fill-opacity:1;stroke-width:0;stroke-linecap:round;stroke-linejoin:round;stroke-dashoffset:2.1875"
       d="m 17.4091,15.5 c -1.88863,0 -3.40909,1.5291 -3.40909,3.4286 v 41.1427 c 0,1.8994 1.52046,3.4286 3.40909,3.4286 H 60.59091 C 62.47955,63.4999 64,61.9707 64,60.0713 V 18.9286 C 64,17.0291 62.47955,15.5 60.59091,15.5 Z m 0,1.7143 h 43.18181 c 0.94432,0 1.70454,0.7646 1.70454,1.7143 v 41.1427 c 0,0.9497 -0.76022,1.7143 -1.70454,1.7143 H 17.4091 c -0.94432,0 -1.70454,-0.7646 -1.70454,-1.7143 V 18.9286 c 0,-0.9497 0.76022,-1.7143 1.70454,-1.7143 z" />
    <path
       id="rect4307-0-2-6-35-7-6-3"
       style="opacity:0.35;fill:#562541;fill-opacity:1;stroke:none;stroke-width:0;stroke-linecap:round;stroke-linejoin:round;stroke-miterlimit:4;stroke-dasharray:none;stroke-dashoffset:2.1875;stroke-opacity:1"
       d="m 37.5,27.75 c -0.554,0 -1,0.446 -1,1 V 39.5 H 25.75 c -0.554,0 -1,0.446 -1,1.0001 V 43.5 c 0,0.554 0.446,1 1,1 H 36.5 v 10.7501 c 0,0.554 0.446,0.9999 1,0.9999 h 3 c 0.554,0 1,-0.4459 1,-0.9999 V 44.5 h 10.75 c 0.554,0 1,-0.446 1,-1 V 40.5001 C 53.25,39.946 52.804,39.5 52.25,39.5 H 41.5 V 28.75 c 0,-0.554 -0.446,-1 -1,-1 z" />
    <path
       id="rect4307-0-2-9-9-1-5-8-7"
       style="color:#000000;font-style:normal;font-variant:normal;font-weight:normal;font-stretch:normal;font-size:medium;line-height:normal;font-family:sans-serif;font-variant-ligatures:normal;font-variant-position:normal;font-variant-caps:normal;font-variant-numeric:normal;font-variant-alternates:normal;font-variant-east-asian:normal;font-feature-settings:normal;font-variation-settings:normal;text-indent:0;text-align:start;text-decoration:none;text-decoration-line:none;text-decoration-style:solid;text-decoration-color:#000000;letter-spacing:normal;word-spacing:normal;text-transform:none;writing-mode:lr-tb;direction:ltr;text-orientation:mixed;dominant-baseline:auto;baseline-shift:baseline;text-anchor:start;white-space:normal;shape-padding:0;shape-margin:0;inline-size:0;clip-rule:nonzero;display:inline;overflow:visible;visibility:visible;opacity:0.75;isolation:auto;mix-blend-mode:normal;color-interpolation:sRGB;color-interpolation-filters:linearRGB;solid-color:#000000;solid-opacity:1;vector-effect:none;fill:#562541;fill-opacity:1;fill-rule:nonzero;stroke:none;stroke-width:3.77953;stroke-linecap:round;stroke-linejoin:round;stroke-miterlimit:4;stroke-dasharray:none;stroke-dashoffset:2.1875;stroke-opacity:1;color-rendering:auto;image-rendering:auto;shape-rendering:auto;text-rendering:auto;enable-background:accumulate;stop-color:#000000"
       d="m 37.50195,24.5 c -0.95652,0 -1.75,0.7915 -1.75,1.7481 V 36.252 H 25.75 C 24.79347,36.252 24,37.0435 24,38 v 2.9981 c 0,0.9565 0.79347,1.75 1.75,1.75 h 10.00195 v 10.002 c 0,0.9565 0.79348,1.75 1.75,1.75 h 2.9961 c 0.95652,0 1.75,-0.7935 1.75,-1.75 V 42.7481 H 52.25 c 0.95653,0 1.75,-0.7935 1.75,-1.75 V 38 c 0,-0.9565 -0.79347,-1.748 -1.75,-1.748 H 42.24805 V 26.2481 c 0,-0.9566 -0.79348,-1.7481 -1.75,-1.7481 z m 0,1.4981 h 2.9961 c 0.15148,0 0.25194,0.099 0.25194,0.2498 v 10.748 a 0.75007497,0.75007497 0 0 0 0.75195,0.7539 H 52.25 c 0.15148,0 0.25194,0.099 0.25194,0.2499 v 2.998 c 0,0.1516 -0.10046,0.2499 -0.25194,0.2499 H 41.50194 a 0.75007497,0.75007497 0 0 0 -0.75195,0.7539 v 10.748 c 0,0.1516 -0.10046,0.2498 -0.25194,0.2498 h -2.9961 c -0.15148,0 -0.25194,-0.099 -0.25194,-0.2498 v -10.748 a 0.75007497,0.75007497 0 0 0 -0.7461,-0.7539 h -10.7539 c -0.15148,0 -0.25194,-0.099 -0.25194,-0.2499 v -2.998 c 0,-0.1516 0.10046,-0.2499 0.25194,-0.2499 h 10.7539 A 0.75007497,0.75007497 0 0 0 37.25,36.9959 v -10.748 c 0,-0.1515 0.10046,-0.2498 0.25194,-0.2498 z" />
    <path
       id="rect4307-0-2-6-35-7-6"
       style="fill:#fbfdfc;fill-opacity:1;stroke:none;stroke-width:0;stroke-linecap:round;stroke-linejoin:round;stroke-miterlimit:4;stroke-dasharray:none;stroke-dashoffset:2.1875;stroke-opacity:1"
       d="m 37.5,25.25 c -0.554,0 -1,0.446 -1,1 V 37 H 25.75 c -0.554,0 -1,0.446 -1,1.0001 V 41 c 0,0.554 0.446,1 1,1 H 36.5 v 10.7501 c 0,0.554 0.446,0.9999 1,0.9999 h 3 c 0.554,0 1,-0.4459 1,-0.9999 V 42 h 10.75 c 0.554,0 1,-0.446 1,-1 V 38.0001 C 53.25,37.446 52.804,37 52.25,37 H 41.5 V 26.25 c 0,-0.554 -0.446,-1 -1,-1 z" />
  </g>
</svg>
