<?xml version="1.0" encoding="UTF-8" standalone="no"?>
<svg
   xmlns:dc="http://purl.org/dc/elements/1.1/"
   xmlns:cc="http://creativecommons.org/ns#"
   xmlns:rdf="http://www.w3.org/1999/02/22-rdf-syntax-ns#"
   xmlns:svg="http://www.w3.org/2000/svg"
   xmlns="http://www.w3.org/2000/svg"
   xmlns:xlink="http://www.w3.org/1999/xlink"
   xmlns:sodipodi="http://sodipodi.sourceforge.net/DTD/sodipodi-0.dtd"
   xmlns:inkscape="http://www.inkscape.org/namespaces/inkscape"
   width="64"
   height="64"
   viewBox="0 0 64 64"
   version="1.1"
   id="svg6374"
   inkscape:version="1.0.2 (e86c870879, 2021-01-15)"
   sodipodi:docname="insert-image.svg">
  <defs
     id="defs6368">
    <linearGradient
       inkscape:collect="always"
       xlink:href="#linearGradient1890"
       id="linearGradient1748-7"
       gradientUnits="userSpaceOnUse"
       gradientTransform="matrix(0.89810548,0,0,0.87574424,-38.4393,-138.79848)"
       x1="49.481316"
       y1="172.19466"
       x2="102.92715"
       y2="215.58632" />
    <linearGradient
       inkscape:collect="always"
       id="linearGradient1890">
      <stop
         style="stop-color:#d94a72;stop-opacity:1"
         offset="0"
         id="stop1886" />
      <stop
         style="stop-color:#e1bb56;stop-opacity:1"
         offset="1"
         id="stop1888" />
    </linearGradient>
    <linearGradient
       inkscape:collect="always"
       xlink:href="#linearGradient877"
       id="linearGradient1474"
       gradientUnits="userSpaceOnUse"
       x1="847.93756"
       y1="533.50037"
       x2="848.06256"
       y2="561.50037"
       gradientTransform="translate(-800,-499.99999)" />
    <linearGradient
       inkscape:collect="always"
       id="linearGradient877">
      <stop
         style="stop-color:#17cea7;stop-opacity:1"
         offset="0"
         id="stop873" />
      <stop
         style="stop-color:#13ae8d;stop-opacity:1"
         offset="1"
         id="stop875" />
    </linearGradient>
  </defs>
  <sodipodi:namedview
     id="base"
     pagecolor="#cecece"
     bordercolor="#666666"
     borderopacity="1.0"
     inkscape:pageopacity="0"
     inkscape:pageshadow="2"
     inkscape:zoom="2.9592501"
     inkscape:cx="-19.272507"
     inkscape:cy="51.108593"
     inkscape:document-units="px"
     inkscape:current-layer="layer1"
     inkscape:document-rotation="0"
     showgrid="false"
     units="px"
     inkscape:window-width="1500"
     inkscape:window-height="970"
     inkscape:window-x="68"
     inkscape:window-y="56"
     inkscape:window-maximized="0" />
  <metadata
     id="metadata6371">
    <rdf:RDF>
      <cc:Work
         rdf:about="">
        <dc:format>image/svg+xml</dc:format>
        <dc:type
           rdf:resource="http://purl.org/dc/dcmitype/StillImage" />
        <dc:title />
      </cc:Work>
    </rdf:RDF>
  </metadata>
  <g
     inkscape:label="Layer 1"
     inkscape:groupmode="layer"
     id="layer1">
    <path
       id="rect9720-3-3-2-9-3-7-9-8-2-3"
       style="opacity:0.175;fill:#0c0c0c;fill-opacity:1;stroke:none;stroke-width:1.23443;stroke-linecap:round;stroke-linejoin:round;stroke-miterlimit:4;stroke-dasharray:none;stroke-dashoffset:0;stroke-opacity:1"
       d="m 6.9999998,14.000009 c -1.662,0 -3,1.33799 -3,3 v 37.999986 c 0,1.662011 1.338,3 3,3 H 57 c 1.662,0 3,-1.338 3,-3 V 16.999999 c 0,-1.661999 -1.338,-3 -3,-3 z m 2.5,4 H 54.5 c 0.831,0 1.5,0.669 1.5,1.5 v 33 c 0,0.83099 -0.669,1.499997 -1.5,1.499997 H 9.4999998 c -0.831,-10e-7 -1.5,-0.669007 -1.5,-1.499997 V 19.50001 c 0,-0.831 0.669,-1.5 1.5,-1.500001 z" />
    <rect
       style="opacity:0.325;fill:#323132;fill-opacity:1;stroke:none;stroke-width:1.23443;stroke-linecap:round;stroke-linejoin:round;stroke-miterlimit:4;stroke-dasharray:none;stroke-dashoffset:0;stroke-opacity:1"
       id="rect9720-3-3-2-9-31-3-0-7-5"
       width="60"
       height="48"
       x="2"
       y="8"
       ry="4.5"
       rx="4.5" />
    <rect
       style="fill:url(#linearGradient1748-7);fill-opacity:1;stroke:none;stroke-width:1.70814;stroke-linecap:square;stroke-miterlimit:4;stroke-dasharray:none;stroke-opacity:0.54902"
       id="rect2119-0-9-3-1-7-9"
       width="52"
       height="40"
       x="5.9999995"
       y="12.000031"
       rx="2"
       ry="2" />
    <path
       id="rect9720-3-3-2-9-3-7-9-8-2-7"
       style="fill:#fcfcfc;fill-opacity:1;stroke:none;stroke-width:1.23443;stroke-linecap:round;stroke-linejoin:round;stroke-miterlimit:4;stroke-dasharray:none;stroke-dashoffset:0;stroke-opacity:1"
       d="m 6.9999998,10.000009 c -1.662,0 -3,1.33799 -3,3 v 37.99999 c 0,1.66201 1.338,3 3,3 H 57 c 1.662,0 3,-1.338 3,-3 v -38 C 60,11.338 58.662,9.9999994 57,9.9999994 Z m 2.5,4 H 54.5 c 0.831,0 1.5,0.669 1.5,1.5 v 33 c 0,0.83099 -0.669,1.5 -1.5,1.5 H 9.4999998 c -0.831,0 -1.5,-0.66901 -1.5,-1.5 V 15.50001 c 0,-0.831 0.669,-1.5 1.5,-1.500001 z" />
    <path
       id="rect9720-3-3-2-9-6-6-4-5-7"
       style="opacity:0.15;fill:#5c1428;fill-opacity:1;stroke:none;stroke-width:1.23443;stroke-linecap:round;stroke-linejoin:round;stroke-miterlimit:4;stroke-dasharray:none;stroke-dashoffset:0;stroke-opacity:1"
       d="m 9.4999998,14.000009 c -0.831,0 -1.5,0.669 -1.5,1.5 v 33 c 0,0.83099 0.669,1.5 1.5,1.5 H 54.5 c 0.831,0 1.5,-0.66901 1.5,-1.5 V 15.50001 c 0,-0.831 -0.669,-1.5 -1.5,-1.5 z m 3.2500002,4 h 38.5 c 0.4155,0 0.75,0.33449 0.75,0.75 v 26.5 c 0,0.415501 -0.3345,0.75 -0.75,0.75 h -38.5 c -0.4155,0 -0.75,-0.334499 -0.75,-0.75 V 18.75001 c 0,-0.41551 0.3345,-0.75 0.75,-0.750001 z" />
    <path
       id="rect9720-3-3-2-9-6-6-4-6-3-5-4-6"
       style="opacity:0.3;fill:#5c1428;fill-opacity:1;stroke:none;stroke-width:1.23443;stroke-linecap:round;stroke-linejoin:round;stroke-miterlimit:4;stroke-dasharray:none;stroke-dashoffset:0;stroke-opacity:1"
       d="m 9.4999998,13.999999 c -0.831,0 -1.5,0.669 -1.5,1.5 v 33 c 0,0.83099 0.669,1.5 1.5,1.5 H 54.5 c 0.831,0 1.5,-0.66901 1.5,-1.5 v -33 c 0,-0.831 -0.669,-1.5 -1.5,-1.5 z m 0.4981,2 H 53.9981 v 32 H 9.9980998 Z" />
    <path
       id="path1181-0-2-9-62-2-2-7-5-6-4"
       style="color:#000000;font-style:normal;font-variant:normal;font-weight:normal;font-stretch:normal;font-size:medium;line-height:normal;font-family:sans-serif;font-variant-ligatures:normal;font-variant-position:normal;font-variant-caps:normal;font-variant-numeric:normal;font-variant-alternates:normal;font-variant-east-asian:normal;font-feature-settings:normal;font-variation-settings:normal;text-indent:0;text-align:start;text-decoration:none;text-decoration-line:none;text-decoration-style:solid;text-decoration-color:#000000;letter-spacing:normal;word-spacing:normal;text-transform:none;writing-mode:lr-tb;direction:ltr;text-orientation:mixed;dominant-baseline:auto;baseline-shift:baseline;text-anchor:start;white-space:normal;shape-padding:0;shape-margin:0;inline-size:0;clip-rule:nonzero;display:inline;overflow:visible;visibility:visible;opacity:0.25;isolation:auto;mix-blend-mode:normal;color-interpolation:sRGB;color-interpolation-filters:linearRGB;solid-color:#000000;solid-opacity:1;vector-effect:none;fill:#0c0c0c;fill-opacity:1;fill-rule:nonzero;stroke:none;stroke-width:0;stroke-linecap:round;stroke-linejoin:round;stroke-miterlimit:4;stroke-dasharray:none;stroke-dashoffset:2.1875;stroke-opacity:1;color-rendering:auto;image-rendering:auto;shape-rendering:auto;text-rendering:auto;enable-background:accumulate;stop-color:#000000"
       d="m 48,33.437499 c -8.2738,0 -15,6.7272 -15,15.0009 0,8.2736 6.7262,14.9996 15,14.9996 8.2738,0 15,-6.726 15,-14.9996 0,-8.2737 -6.7262,-15.0009 -15,-15.0009 z m 0,1.8739 c 7.2604,0 13.1273,5.8667 13.1273,13.127 0,7.2603 -5.8669,13.1257 -13.1273,13.1257 -7.2604,0 -13.1273,-5.8654 -13.1273,-13.1257 0,-7.2603 5.8669,-13.127 13.1273,-13.127 z" />
    <path
       id="path1181-0-6-2-9-0-9-5-3-1-7"
       style="color:#000000;font-style:normal;font-variant:normal;font-weight:normal;font-stretch:normal;font-size:medium;line-height:normal;font-family:sans-serif;font-variant-ligatures:normal;font-variant-position:normal;font-variant-caps:normal;font-variant-numeric:normal;font-variant-alternates:normal;font-variant-east-asian:normal;font-feature-settings:normal;font-variation-settings:normal;text-indent:0;text-align:start;text-decoration:none;text-decoration-line:none;text-decoration-style:solid;text-decoration-color:#000000;letter-spacing:normal;word-spacing:normal;text-transform:none;writing-mode:lr-tb;direction:ltr;text-orientation:mixed;dominant-baseline:auto;baseline-shift:baseline;text-anchor:start;white-space:normal;shape-padding:0;shape-margin:0;inline-size:0;clip-rule:nonzero;display:inline;overflow:visible;visibility:visible;opacity:0.85;isolation:auto;mix-blend-mode:normal;color-interpolation:sRGB;color-interpolation-filters:linearRGB;solid-color:#000000;solid-opacity:1;vector-effect:none;fill:#0c6e59;fill-opacity:1;fill-rule:nonzero;stroke:none;stroke-width:2.36236;stroke-linecap:round;stroke-linejoin:round;stroke-miterlimit:4;stroke-dasharray:none;stroke-dashoffset:2.1875;stroke-opacity:1;color-rendering:auto;image-rendering:auto;shape-rendering:auto;text-rendering:auto;enable-background:accumulate;stop-color:#000000"
       d="m 48,32.499999 c -8.2738,0 -15,6.7272 -15,15.0008 0,8.2737 6.7262,14.9997 15,14.9997 8.2738,0 15,-6.726 15,-14.9997 0,-8.2736 -6.7262,-15.0008 -15,-15.0008 z m 0,1.8739 c 7.2604,0 13.1273,5.8667 13.1273,13.1269 0,7.2604 -5.8669,13.1258 -13.1273,13.1258 -7.2604,0 -13.1273,-5.8654 -13.1273,-13.1258 0,-7.2602 5.8669,-13.1269 13.1273,-13.1269 z" />
    <ellipse
       style="fill:url(#linearGradient1474);fill-opacity:1;stroke:#771832;stroke-width:0;stroke-linecap:round;stroke-linejoin:round;stroke-miterlimit:4;stroke-dasharray:none;stroke-dashoffset:2.1875;stroke-opacity:1"
       id="path1181-0-1-2-1-3-5-2-8"
       cx="48.000244"
       cy="47.500366"
       rx="14.062499"
       ry="14.062726" />
    <path
       id="path1181-0-2-9-3-2-7-7-6-2-3-4"
       style="color:#000000;font-style:normal;font-variant:normal;font-weight:normal;font-stretch:normal;font-size:medium;line-height:normal;font-family:sans-serif;font-variant-ligatures:normal;font-variant-position:normal;font-variant-caps:normal;font-variant-numeric:normal;font-variant-alternates:normal;font-variant-east-asian:normal;font-feature-settings:normal;font-variation-settings:normal;text-indent:0;text-align:start;text-decoration:none;text-decoration-line:none;text-decoration-style:solid;text-decoration-color:#000000;letter-spacing:normal;word-spacing:normal;text-transform:none;writing-mode:lr-tb;direction:ltr;text-orientation:mixed;dominant-baseline:auto;baseline-shift:baseline;text-anchor:start;white-space:normal;shape-padding:0;shape-margin:0;inline-size:0;clip-rule:nonzero;display:inline;overflow:visible;visibility:visible;opacity:0.15;isolation:auto;mix-blend-mode:normal;color-interpolation:sRGB;color-interpolation-filters:linearRGB;solid-color:#000000;solid-opacity:1;vector-effect:none;fill:#0a5c4a;fill-opacity:1;fill-rule:nonzero;stroke:none;stroke-width:0;stroke-linecap:round;stroke-linejoin:round;stroke-miterlimit:4;stroke-dasharray:none;stroke-dashoffset:2.1875;stroke-opacity:1;color-rendering:auto;image-rendering:auto;shape-rendering:auto;text-rendering:auto;enable-background:accumulate;stop-color:#000000"
       d="m 48,32.499999 c -8.2738,0 -15,6.7272 -15,15.0008 0,8.2737 6.7262,14.9997 15,14.9997 8.2738,0 15,-6.726 15,-14.9997 0,-8.2736 -6.7262,-15.0008 -15,-15.0008 z m 0,1.8739 c 7.2604,0 13.1273,5.8667 13.1273,13.1269 0,7.2604 -5.8669,13.1258 -13.1273,13.1258 -7.2604,0 -13.1273,-5.8654 -13.1273,-13.1258 0,-7.2602 5.8669,-13.1269 13.1273,-13.1269 z" />
    <path
       id="rect2388-9-6-0-6-2-9-1-5"
       style="color:#000000;font-style:normal;font-variant:normal;font-weight:normal;font-stretch:normal;font-size:medium;line-height:normal;font-family:sans-serif;font-variant-ligatures:normal;font-variant-position:normal;font-variant-caps:normal;font-variant-numeric:normal;font-variant-alternates:normal;font-variant-east-asian:normal;font-feature-settings:normal;font-variation-settings:normal;text-indent:0;text-align:start;text-decoration:none;text-decoration-line:none;text-decoration-style:solid;text-decoration-color:#000000;letter-spacing:normal;word-spacing:normal;text-transform:none;writing-mode:lr-tb;direction:ltr;text-orientation:mixed;dominant-baseline:auto;baseline-shift:baseline;text-anchor:start;white-space:normal;shape-padding:0;shape-margin:0;inline-size:0;clip-rule:nonzero;display:inline;overflow:visible;visibility:visible;opacity:0.35;isolation:auto;mix-blend-mode:normal;color-interpolation:sRGB;color-interpolation-filters:linearRGB;solid-color:#000000;solid-opacity:1;vector-effect:none;fill:#0a5c4a;fill-opacity:1;fill-rule:nonzero;stroke:none;stroke-width:0.999999;stroke-linecap:round;stroke-linejoin:round;stroke-miterlimit:4;stroke-dasharray:none;stroke-dashoffset:2.1875;stroke-opacity:1;color-rendering:auto;image-rendering:auto;shape-rendering:auto;text-rendering:auto;enable-background:accumulate;stop-color:#000000"
       d="m 47,39.124999 c -0.8224,0 -1.5,0.6777 -1.5,1.5 v 5.375 h -5.375 c -0.8223,0 -1.5,0.6777 -1.5,1.5 v 2 c 0,0.8224 0.6777,1.5 1.5,1.5 H 45.5 v 5.375 c 0,0.8224 0.6777,1.5 1.5,1.5 h 2 c 0.8224,0 1.5,-0.6776 1.5,-1.5 v -5.375 h 5.375 c 0.8224,0 1.5,-0.6776 1.5,-1.5 v -2 c 0,-0.8223 -0.6776,-1.5 -1.5,-1.5 H 50.5 v -5.375 c 0,-0.8223 -0.6776,-1.5 -1.5,-1.5 z m 0,1 h 2 c 0.2856,0 0.5,0.21449 0.5,0.5 v 5.875 a 0.50005001,0.50005001 0 0 0 0.5,0.5 h 5.875 c 0.2857,0 0.5,0.21441 0.5,0.5 v 2 c 0,0.28569 -0.2143,0.5 -0.5,0.5 H 50 a 0.50005001,0.50005001 0 0 0 -0.5,0.5 v 5.875 c 0,0.28569 -0.2143,0.5 -0.5,0.5 h -2 c -0.2857,0 -0.5,-0.2143 -0.5,-0.5 v -5.875 a 0.50005001,0.50005001 0 0 0 -0.5,-0.5 h -5.875 c -0.2857,0 -0.5,-0.2143 -0.5,-0.5 v -2 c 0,-0.28558 0.2143,-0.5 0.5,-0.5 H 46 a 0.50005001,0.50005001 0 0 0 0.5,-0.5 v -5.875 c 0,-0.28551 0.2144,-0.5 0.5,-0.5 z" />
    <path
       id="rect2388-9-6-0-6-1-9-0"
       style="color:#000000;font-style:normal;font-variant:normal;font-weight:normal;font-stretch:normal;font-size:medium;line-height:normal;font-family:sans-serif;font-variant-ligatures:normal;font-variant-position:normal;font-variant-caps:normal;font-variant-numeric:normal;font-variant-alternates:normal;font-variant-east-asian:normal;font-feature-settings:normal;font-variation-settings:normal;text-indent:0;text-align:start;text-decoration:none;text-decoration-line:none;text-decoration-style:solid;text-decoration-color:#000000;letter-spacing:normal;word-spacing:normal;text-transform:none;writing-mode:lr-tb;direction:ltr;text-orientation:mixed;dominant-baseline:auto;baseline-shift:baseline;text-anchor:start;white-space:normal;shape-padding:0;shape-margin:0;inline-size:0;clip-rule:nonzero;display:inline;overflow:visible;visibility:visible;isolation:auto;mix-blend-mode:normal;color-interpolation:sRGB;color-interpolation-filters:linearRGB;solid-color:#000000;solid-opacity:1;vector-effect:none;fill:#0a5c4a;fill-opacity:1;fill-rule:nonzero;stroke:none;stroke-width:0.999999;stroke-linecap:round;stroke-linejoin:round;stroke-miterlimit:4;stroke-dasharray:none;stroke-dashoffset:2.1875;stroke-opacity:1;color-rendering:auto;image-rendering:auto;shape-rendering:auto;text-rendering:auto;enable-background:accumulate;stop-color:#000000"
       d="m 47,38.124999 c -0.8224,0 -1.5,0.6777 -1.5,1.5 v 5.375 h -5.375 c -0.8223,0 -1.5,0.6777 -1.5,1.5 v 2 c 0,0.8224 0.6777,1.5 1.5,1.5 H 45.5 v 5.375 c 0,0.8224 0.6777,1.5 1.5,1.5 h 2 c 0.8224,0 1.5,-0.6776 1.5,-1.5 v -5.375 h 5.375 c 0.8224,0 1.5,-0.6776 1.5,-1.5 v -2 c 0,-0.8223 -0.6776,-1.5 -1.5,-1.5 H 50.5 v -5.375 c 0,-0.8223 -0.6776,-1.5 -1.5,-1.5 z m 0,1 h 2 c 0.2856,0 0.5,0.21449 0.5,0.5 v 5.875 a 0.50005001,0.50005001 0 0 0 0.5,0.5 h 5.875 c 0.2857,0 0.5,0.21441 0.5,0.5 v 2 c 0,0.28569 -0.2143,0.5 -0.5,0.5 H 50 a 0.50005001,0.50005001 0 0 0 -0.5,0.5 v 5.875 c 0,0.28569 -0.2143,0.5 -0.5,0.5 h -2 c -0.2857,0 -0.5,-0.2143 -0.5,-0.5 v -5.875 a 0.50005001,0.50005001 0 0 0 -0.5,-0.5 h -5.875 c -0.2857,0 -0.5,-0.2143 -0.5,-0.5 v -2 c 0,-0.28558 0.2143,-0.5 0.5,-0.5 H 46 a 0.50005001,0.50005001 0 0 0 0.5,-0.5 v -5.875 c 0,-0.28551 0.2144,-0.5 0.5,-0.5 z" />
    <path
       id="rect2388-9-6-2-4-3"
       style="fill:#fdfbfc;fill-opacity:1;stroke-width:1.17022;stroke-linecap:round;stroke-linejoin:round;stroke-dashoffset:2.1875"
       d="m 47,38.624999 c -0.554,0 -1,0.4461 -1,1 v 5.875 h -5.875 c -0.554,0 -1,0.446 -1,1 v 2 c 0,0.554 0.446,1 1,1 H 46 v 5.875 c 0,0.554 0.446,1 1,1 h 2 c 0.554,0 1,-0.446 1,-1 v -5.875 h 5.875 c 0.554,0 1,-0.446 1,-1 v -2 c 0,-0.554 -0.446,-1 -1,-1 H 50 v -5.875 c 0,-0.5539 -0.446,-1 -1,-1 z" />
  </g>
</svg>
