<?xml version="1.0" encoding="UTF-8" standalone="no"?>
<svg
   xmlns:dc="http://purl.org/dc/elements/1.1/"
   xmlns:cc="http://creativecommons.org/ns#"
   xmlns:rdf="http://www.w3.org/1999/02/22-rdf-syntax-ns#"
   xmlns:svg="http://www.w3.org/2000/svg"
   xmlns="http://www.w3.org/2000/svg"
   xmlns:xlink="http://www.w3.org/1999/xlink"
   xmlns:sodipodi="http://sodipodi.sourceforge.net/DTD/sodipodi-0.dtd"
   xmlns:inkscape="http://www.inkscape.org/namespaces/inkscape"
   width="64"
   height="64"
   viewBox="0 0 64 64"
   version="1.1"
   id="svg6374"
   inkscape:version="1.0.2 (e86c870879, 2021-01-15)"
   sodipodi:docname="media-playback-pause.svg">
  <defs
     id="defs6368">
    <linearGradient
       inkscape:collect="always"
       xlink:href="#linearGradient2658"
       id="linearGradient2355"
       x1="880.77393"
       y1="311.58563"
       x2="880.4729"
       y2="352.60959"
       gradientUnits="userSpaceOnUse"
       gradientTransform="translate(-834.53507,-299.89646)" />
    <linearGradient
       inkscape:collect="always"
       id="linearGradient2658">
      <stop
         style="stop-color:#fdfcfb;stop-opacity:0.55000001"
         offset="0"
         id="stop2654" />
      <stop
         style="stop-color:#fcfcfc;stop-opacity:0"
         offset="1"
         id="stop2656" />
    </linearGradient>
    <linearGradient
       inkscape:collect="always"
       xlink:href="#linearGradient2658"
       id="linearGradient2699"
       gradientUnits="userSpaceOnUse"
       gradientTransform="translate(-862.53507,-299.89646)"
       x1="880.77393"
       y1="311.58563"
       x2="880.4729"
       y2="352.60959" />
  </defs>
  <sodipodi:namedview
     id="base"
     pagecolor="#cecece"
     bordercolor="#666666"
     borderopacity="1.0"
     inkscape:pageopacity="0"
     inkscape:pageshadow="2"
     inkscape:zoom="4.9704778"
     inkscape:cx="23.572436"
     inkscape:cy="51.052774"
     inkscape:document-units="px"
     inkscape:current-layer="layer1"
     inkscape:document-rotation="0"
     showgrid="false"
     units="px"
     inkscape:window-width="1500"
     inkscape:window-height="970"
     inkscape:window-x="68"
     inkscape:window-y="56"
     inkscape:window-maximized="0" />
  <metadata
     id="metadata6371">
    <rdf:RDF>
      <cc:Work
         rdf:about="">
        <dc:format>image/svg+xml</dc:format>
        <dc:type
           rdf:resource="http://purl.org/dc/dcmitype/StillImage" />
        <dc:title></dc:title>
      </cc:Work>
    </rdf:RDF>
  </metadata>
  <g
     inkscape:label="Layer 1"
     inkscape:groupmode="layer"
     id="layer1">
    <path
       id="rect1233-7-7-9-2-1"
       style="color:#000000;font-style:normal;font-variant:normal;font-weight:normal;font-stretch:normal;font-size:medium;line-height:normal;font-family:sans-serif;font-variant-ligatures:normal;font-variant-position:normal;font-variant-caps:normal;font-variant-numeric:normal;font-variant-alternates:normal;font-variant-east-asian:normal;font-feature-settings:normal;font-variation-settings:normal;text-indent:0;text-align:start;text-decoration:none;text-decoration-line:none;text-decoration-style:solid;text-decoration-color:#000000;letter-spacing:normal;word-spacing:normal;text-transform:none;writing-mode:lr-tb;direction:ltr;text-orientation:mixed;dominant-baseline:auto;baseline-shift:baseline;text-anchor:start;white-space:normal;shape-padding:0;shape-margin:0;inline-size:0;clip-rule:nonzero;display:inline;overflow:visible;visibility:visible;opacity:0.1;isolation:auto;mix-blend-mode:normal;color-interpolation:sRGB;color-interpolation-filters:linearRGB;solid-color:#000000;solid-opacity:1;vector-effect:none;fill:#0c0c0c;fill-opacity:1;fill-rule:nonzero;stroke:none;stroke-linecap:butt;stroke-linejoin:miter;stroke-miterlimit:4;stroke-dasharray:none;stroke-dashoffset:2.1875;stroke-opacity:1;color-rendering:auto;image-rendering:auto;shape-rendering:auto;text-rendering:auto;enable-background:accumulate;stop-color:#000000"
       d="m 42,11.5 c -2.1987,0 -4,1.8013 -4,4 v 35.99999 c 0,2.1987 1.8013,4 4,4 h 8 c 2.19871,0 4,-1.8013 4,-4 V 15.5 c 0,-2.1987 -1.80129,-4 -4,-4 z m 0,2 h 8 c 1.12531,0 2,0.8747 2,2 v 35.99999 c 0,1.1253 -0.87469,2 -2,2 h -8 c -1.1253,0 -2,-0.8747 -2,-2 V 15.5 c 0,-1.1253 0.8747,-2 2,-2 z" />
    <path
       id="rect1233-7-7-9"
       style="color:#000000;font-style:normal;font-variant:normal;font-weight:normal;font-stretch:normal;font-size:medium;line-height:normal;font-family:sans-serif;font-variant-ligatures:normal;font-variant-position:normal;font-variant-caps:normal;font-variant-numeric:normal;font-variant-alternates:normal;font-variant-east-asian:normal;font-feature-settings:normal;font-variation-settings:normal;text-indent:0;text-align:start;text-decoration:none;text-decoration-line:none;text-decoration-style:solid;text-decoration-color:#000000;letter-spacing:normal;word-spacing:normal;text-transform:none;writing-mode:lr-tb;direction:ltr;text-orientation:mixed;dominant-baseline:auto;baseline-shift:baseline;text-anchor:start;white-space:normal;shape-padding:0;shape-margin:0;inline-size:0;clip-rule:nonzero;display:inline;overflow:visible;visibility:visible;opacity:0.85;isolation:auto;mix-blend-mode:normal;color-interpolation:sRGB;color-interpolation-filters:linearRGB;solid-color:#000000;solid-opacity:1;vector-effect:none;fill:#332691;fill-opacity:1;fill-rule:nonzero;stroke:none;stroke-linecap:butt;stroke-linejoin:miter;stroke-miterlimit:4;stroke-dasharray:none;stroke-dashoffset:2.1875;stroke-opacity:1;color-rendering:auto;image-rendering:auto;shape-rendering:auto;text-rendering:auto;enable-background:accumulate;stop-color:#000000"
       d="m 42,10 c -2.1987,0 -4,1.8013 -4,4 v 35.99999 c 0,2.1987 1.8013,4 4,4 h 8 c 2.19871,0 4,-1.8013 4,-4 V 14 c 0,-2.1987 -1.80129,-4 -4,-4 z m 0,2 h 8 c 1.12531,0 2,0.8747 2,2 v 35.99999 c 0,1.1253 -0.87469,2 -2,2 h -8 c -1.1253,0 -2,-0.8747 -2,-2 V 14 c 0,-1.1253 0.8747,-2 2,-2 z" />
    <rect
       style="fill:#8f86df;fill-opacity:1;stroke:none;stroke-width:5;stroke-dashoffset:2.1875"
       id="rect1233-7"
       width="14"
       height="42"
       x="39.000122"
       y="11"
       rx="3"
       ry="3" />
    <path
       id="rect1233-7-7-9-6"
       style="color:#000000;font-style:normal;font-variant:normal;font-weight:normal;font-stretch:normal;font-size:medium;line-height:normal;font-family:sans-serif;font-variant-ligatures:normal;font-variant-position:normal;font-variant-caps:normal;font-variant-numeric:normal;font-variant-alternates:normal;font-variant-east-asian:normal;font-feature-settings:normal;font-variation-settings:normal;text-indent:0;text-align:start;text-decoration:none;text-decoration-line:none;text-decoration-style:solid;text-decoration-color:#000000;letter-spacing:normal;word-spacing:normal;text-transform:none;writing-mode:lr-tb;direction:ltr;text-orientation:mixed;dominant-baseline:auto;baseline-shift:baseline;text-anchor:start;white-space:normal;shape-padding:0;shape-margin:0;inline-size:0;clip-rule:nonzero;display:inline;overflow:visible;visibility:visible;opacity:0.25;isolation:auto;mix-blend-mode:normal;color-interpolation:sRGB;color-interpolation-filters:linearRGB;solid-color:#000000;solid-opacity:1;vector-effect:none;fill:#332691;fill-opacity:1;fill-rule:nonzero;stroke:none;stroke-linecap:butt;stroke-linejoin:miter;stroke-miterlimit:4;stroke-dasharray:none;stroke-dashoffset:2.1875;stroke-opacity:1;color-rendering:auto;image-rendering:auto;shape-rendering:auto;text-rendering:auto;enable-background:accumulate;stop-color:#000000"
       d="m 42,10 c -2.1987,0 -4,1.8013 -4,4 v 35.99999 c 0,2.1987 1.8013,4 4,4 h 8 c 2.19871,0 4,-1.8013 4,-4 V 14 c 0,-2.1987 -1.80129,-4 -4,-4 z m 0,2 h 8 c 1.12531,0 2,0.8747 2,2 v 35.99999 c 0,1.1253 -0.87469,2 -2,2 h -8 c -1.1253,0 -2,-0.8747 -2,-2 V 14 c 0,-1.1253 0.8747,-2 2,-2 z" />
    <path
       id="rect1233-7-7-9-4"
       style="color:#000000;font-style:normal;font-variant:normal;font-weight:normal;font-stretch:normal;font-size:medium;line-height:normal;font-family:sans-serif;font-variant-ligatures:normal;font-variant-position:normal;font-variant-caps:normal;font-variant-numeric:normal;font-variant-alternates:normal;font-variant-east-asian:normal;font-feature-settings:normal;font-variation-settings:normal;text-indent:0;text-align:start;text-decoration:none;text-decoration-line:none;text-decoration-style:solid;text-decoration-color:#000000;letter-spacing:normal;word-spacing:normal;text-transform:none;writing-mode:lr-tb;direction:ltr;text-orientation:mixed;dominant-baseline:auto;baseline-shift:baseline;text-anchor:start;white-space:normal;shape-padding:0;shape-margin:0;inline-size:0;clip-rule:nonzero;display:inline;overflow:visible;visibility:visible;opacity:0.85;isolation:auto;mix-blend-mode:normal;color-interpolation:sRGB;color-interpolation-filters:linearRGB;solid-color:#000000;solid-opacity:1;vector-effect:none;fill:url(#linearGradient2355);fill-opacity:1;fill-rule:nonzero;stroke:none;stroke-linecap:butt;stroke-linejoin:miter;stroke-miterlimit:4;stroke-dasharray:none;stroke-dashoffset:2.1875;stroke-opacity:1;color-rendering:auto;image-rendering:auto;shape-rendering:auto;text-rendering:auto;enable-background:accumulate;stop-color:#000000"
       d="m 42,11 c -1.662,0 -3,1.338 -3,3 v 36 c 0,1.662 1.338,3 3,3 h 8 c 1.66201,0 3,-1.338 3,-3 V 14 c 0,-1.662 -1.33799,-3 -3,-3 z m 0,1 h 8 c 1.12531,0 2,0.8747 2,2 v 36 c 0,1.1253 -0.87469,2 -2,2 h -8 c -1.1253,0 -2,-0.8747 -2,-2 V 14 c 0,-1.1253 0.8747,-2 2,-2 z" />
    <path
       id="rect1233-7-7-9-2-1-9"
       style="color:#000000;font-style:normal;font-variant:normal;font-weight:normal;font-stretch:normal;font-size:medium;line-height:normal;font-family:sans-serif;font-variant-ligatures:normal;font-variant-position:normal;font-variant-caps:normal;font-variant-numeric:normal;font-variant-alternates:normal;font-variant-east-asian:normal;font-feature-settings:normal;font-variation-settings:normal;text-indent:0;text-align:start;text-decoration:none;text-decoration-line:none;text-decoration-style:solid;text-decoration-color:#000000;letter-spacing:normal;word-spacing:normal;text-transform:none;writing-mode:lr-tb;direction:ltr;text-orientation:mixed;dominant-baseline:auto;baseline-shift:baseline;text-anchor:start;white-space:normal;shape-padding:0;shape-margin:0;inline-size:0;clip-rule:nonzero;display:inline;overflow:visible;visibility:visible;opacity:0.1;isolation:auto;mix-blend-mode:normal;color-interpolation:sRGB;color-interpolation-filters:linearRGB;solid-color:#000000;solid-opacity:1;vector-effect:none;fill:#0c0c0c;fill-opacity:1;fill-rule:nonzero;stroke:none;stroke-linecap:butt;stroke-linejoin:miter;stroke-miterlimit:4;stroke-dasharray:none;stroke-dashoffset:2.1875;stroke-opacity:1;color-rendering:auto;image-rendering:auto;shape-rendering:auto;text-rendering:auto;enable-background:accumulate;stop-color:#000000"
       d="m 14,11.5 c -2.1987,0 -4,1.8013 -4,4 v 35.99999 c 0,2.1987 1.8013,4 4,4 h 8 c 2.19871,0 4,-1.8013 4,-4 V 15.5 c 0,-2.1987 -1.80129,-4 -4,-4 z m 0,2 h 8 c 1.12531,0 2,0.8747 2,2 v 35.99999 c 0,1.1253 -0.87469,2 -2,2 h -8 c -1.1253,0 -2,-0.8747 -2,-2 V 15.5 c 0,-1.1253 0.8747,-2 2,-2 z" />
    <path
       id="rect1233-7-7-9-0"
       style="color:#000000;font-style:normal;font-variant:normal;font-weight:normal;font-stretch:normal;font-size:medium;line-height:normal;font-family:sans-serif;font-variant-ligatures:normal;font-variant-position:normal;font-variant-caps:normal;font-variant-numeric:normal;font-variant-alternates:normal;font-variant-east-asian:normal;font-feature-settings:normal;font-variation-settings:normal;text-indent:0;text-align:start;text-decoration:none;text-decoration-line:none;text-decoration-style:solid;text-decoration-color:#000000;letter-spacing:normal;word-spacing:normal;text-transform:none;writing-mode:lr-tb;direction:ltr;text-orientation:mixed;dominant-baseline:auto;baseline-shift:baseline;text-anchor:start;white-space:normal;shape-padding:0;shape-margin:0;inline-size:0;clip-rule:nonzero;display:inline;overflow:visible;visibility:visible;opacity:0.85;isolation:auto;mix-blend-mode:normal;color-interpolation:sRGB;color-interpolation-filters:linearRGB;solid-color:#000000;solid-opacity:1;vector-effect:none;fill:#332691;fill-opacity:1;fill-rule:nonzero;stroke:none;stroke-linecap:butt;stroke-linejoin:miter;stroke-miterlimit:4;stroke-dasharray:none;stroke-dashoffset:2.1875;stroke-opacity:1;color-rendering:auto;image-rendering:auto;shape-rendering:auto;text-rendering:auto;enable-background:accumulate;stop-color:#000000"
       d="m 14,10 c -2.1987,0 -4,1.8013 -4,4 v 35.99999 c 0,2.1987 1.8013,4 4,4 h 8 c 2.19871,0 4,-1.8013 4,-4 V 14 c 0,-2.1987 -1.80129,-4 -4,-4 z m 0,2 h 8 c 1.12531,0 2,0.8747 2,2 v 35.99999 c 0,1.1253 -0.87469,2 -2,2 h -8 c -1.1253,0 -2,-0.8747 -2,-2 V 14 c 0,-1.1253 0.8747,-2 2,-2 z" />
    <rect
       style="fill:#8f86df;fill-opacity:1;stroke:none;stroke-width:5;stroke-dashoffset:2.1875"
       id="rect1233-7-9"
       width="14"
       height="42"
       x="11.000122"
       y="11"
       rx="3"
       ry="3" />
    <path
       id="rect1233-7-7-9-6-1"
       style="color:#000000;font-style:normal;font-variant:normal;font-weight:normal;font-stretch:normal;font-size:medium;line-height:normal;font-family:sans-serif;font-variant-ligatures:normal;font-variant-position:normal;font-variant-caps:normal;font-variant-numeric:normal;font-variant-alternates:normal;font-variant-east-asian:normal;font-feature-settings:normal;font-variation-settings:normal;text-indent:0;text-align:start;text-decoration:none;text-decoration-line:none;text-decoration-style:solid;text-decoration-color:#000000;letter-spacing:normal;word-spacing:normal;text-transform:none;writing-mode:lr-tb;direction:ltr;text-orientation:mixed;dominant-baseline:auto;baseline-shift:baseline;text-anchor:start;white-space:normal;shape-padding:0;shape-margin:0;inline-size:0;clip-rule:nonzero;display:inline;overflow:visible;visibility:visible;opacity:0.25;isolation:auto;mix-blend-mode:normal;color-interpolation:sRGB;color-interpolation-filters:linearRGB;solid-color:#000000;solid-opacity:1;vector-effect:none;fill:#332691;fill-opacity:1;fill-rule:nonzero;stroke:none;stroke-linecap:butt;stroke-linejoin:miter;stroke-miterlimit:4;stroke-dasharray:none;stroke-dashoffset:2.1875;stroke-opacity:1;color-rendering:auto;image-rendering:auto;shape-rendering:auto;text-rendering:auto;enable-background:accumulate;stop-color:#000000"
       d="m 14,10 c -2.1987,0 -4,1.8013 -4,4 v 35.99999 c 0,2.1987 1.8013,4 4,4 h 8 c 2.19871,0 4,-1.8013 4,-4 V 14 c 0,-2.1987 -1.80129,-4 -4,-4 z m 0,2 h 8 c 1.12531,0 2,0.8747 2,2 v 35.99999 c 0,1.1253 -0.87469,2 -2,2 h -8 c -1.1253,0 -2,-0.8747 -2,-2 V 14 c 0,-1.1253 0.8747,-2 2,-2 z" />
    <path
       id="rect1233-7-7-9-4-7"
       style="color:#000000;font-style:normal;font-variant:normal;font-weight:normal;font-stretch:normal;font-size:medium;line-height:normal;font-family:sans-serif;font-variant-ligatures:normal;font-variant-position:normal;font-variant-caps:normal;font-variant-numeric:normal;font-variant-alternates:normal;font-variant-east-asian:normal;font-feature-settings:normal;font-variation-settings:normal;text-indent:0;text-align:start;text-decoration:none;text-decoration-line:none;text-decoration-style:solid;text-decoration-color:#000000;letter-spacing:normal;word-spacing:normal;text-transform:none;writing-mode:lr-tb;direction:ltr;text-orientation:mixed;dominant-baseline:auto;baseline-shift:baseline;text-anchor:start;white-space:normal;shape-padding:0;shape-margin:0;inline-size:0;clip-rule:nonzero;display:inline;overflow:visible;visibility:visible;opacity:0.85;isolation:auto;mix-blend-mode:normal;color-interpolation:sRGB;color-interpolation-filters:linearRGB;solid-color:#000000;solid-opacity:1;vector-effect:none;fill:url(#linearGradient2699);fill-opacity:1;fill-rule:nonzero;stroke:none;stroke-linecap:butt;stroke-linejoin:miter;stroke-miterlimit:4;stroke-dasharray:none;stroke-dashoffset:2.1875;stroke-opacity:1;color-rendering:auto;image-rendering:auto;shape-rendering:auto;text-rendering:auto;enable-background:accumulate;stop-color:#000000"
       d="m 14,11 c -1.662,0 -3,1.338 -3,3 v 36 c 0,1.662 1.338,3 3,3 h 8 c 1.66201,0 3,-1.338 3,-3 V 14 c 0,-1.662 -1.33799,-3 -3,-3 z m 0,1 h 8 c 1.12531,0 2,0.8747 2,2 v 36 c 0,1.1253 -0.87469,2 -2,2 h -8 c -1.1253,0 -2,-0.8747 -2,-2 V 14 c 0,-1.1253 0.8747,-2 2,-2 z" />
  </g>
</svg>
