<?xml version="1.0" encoding="UTF-8" standalone="no"?>
<svg
   xmlns:dc="http://purl.org/dc/elements/1.1/"
   xmlns:cc="http://creativecommons.org/ns#"
   xmlns:rdf="http://www.w3.org/1999/02/22-rdf-syntax-ns#"
   xmlns:svg="http://www.w3.org/2000/svg"
   xmlns="http://www.w3.org/2000/svg"
   xmlns:xlink="http://www.w3.org/1999/xlink"
   xmlns:sodipodi="http://sodipodi.sourceforge.net/DTD/sodipodi-0.dtd"
   xmlns:inkscape="http://www.inkscape.org/namespaces/inkscape"
   width="64"
   height="64"
   viewBox="0 0 64 64"
   version="1.1"
   id="svg6374"
   inkscape:version="1.0.2 (e86c870879, 2021-01-15)"
   sodipodi:docname="system-log-out.svg">
  <defs
     id="defs6368">
    <linearGradient
       inkscape:collect="always"
       xlink:href="#linearGradient1072"
       id="linearGradient1772"
       gradientUnits="userSpaceOnUse"
       gradientTransform="matrix(3.7795275,0,0,3.7795275,1,1)"
       x1="8.1944265"
       y1="1.0125455"
       x2="8.2493715"
       y2="15.385565" />
    <linearGradient
       inkscape:collect="always"
       id="linearGradient1072">
      <stop
         style="stop-color:#65b9cd;stop-opacity:1"
         offset="0"
         id="stop1068" />
      <stop
         style="stop-color:#3ea6c1;stop-opacity:1"
         offset="1"
         id="stop1070" />
    </linearGradient>
  </defs>
  <sodipodi:namedview
     id="base"
     pagecolor="#cecece"
     bordercolor="#666666"
     borderopacity="1.0"
     inkscape:pageopacity="0"
     inkscape:pageshadow="2"
     inkscape:zoom="6.9030677"
     inkscape:cx="-13.733572"
     inkscape:cy="32.421411"
     inkscape:document-units="px"
     inkscape:current-layer="layer1"
     inkscape:document-rotation="0"
     showgrid="false"
     units="px"
     inkscape:window-width="2048"
     inkscape:window-height="1080"
     inkscape:window-x="0"
     inkscape:window-y="0"
     inkscape:window-maximized="1" />
  <metadata
     id="metadata6371">
    <rdf:RDF>
      <cc:Work
         rdf:about="">
        <dc:format>image/svg+xml</dc:format>
        <dc:type
           rdf:resource="http://purl.org/dc/dcmitype/StillImage" />
        <dc:title />
      </cc:Work>
    </rdf:RDF>
  </metadata>
  <g
     inkscape:label="Layer 1"
     inkscape:groupmode="layer"
     id="layer1">
    <path
       id="rect831-360-6-7-9-7-18"
       style="color:#000000;font-style:normal;font-variant:normal;font-weight:normal;font-stretch:normal;font-size:medium;line-height:normal;font-family:sans-serif;font-variant-ligatures:normal;font-variant-position:normal;font-variant-caps:normal;font-variant-numeric:normal;font-variant-alternates:normal;font-variant-east-asian:normal;font-feature-settings:normal;font-variation-settings:normal;text-indent:0;text-align:start;text-decoration:none;text-decoration-line:none;text-decoration-style:solid;text-decoration-color:#000000;letter-spacing:normal;word-spacing:normal;text-transform:none;writing-mode:lr-tb;direction:ltr;text-orientation:mixed;dominant-baseline:auto;baseline-shift:baseline;text-anchor:start;white-space:normal;shape-padding:0;shape-margin:0;inline-size:0;clip-rule:nonzero;display:inline;overflow:visible;visibility:visible;opacity:0.15;isolation:auto;mix-blend-mode:normal;color-interpolation:sRGB;color-interpolation-filters:linearRGB;solid-color:#000000;solid-opacity:1;vector-effect:none;fill:#0c0c0c;fill-opacity:1;fill-rule:nonzero;stroke:none;stroke-width:0;stroke-linecap:round;stroke-linejoin:round;stroke-miterlimit:4;stroke-dasharray:none;stroke-dashoffset:2.1875;stroke-opacity:1;color-rendering:auto;image-rendering:auto;shape-rendering:auto;text-rendering:auto;enable-background:accumulate;stop-color:#000000"
       d="M 10.00346,5 C 6.42865,5 3.5,7.9212 3.5,11.4965 v 44.007 C 3.5,59.0788 6.42865,62 10.00346,62 H 53.99654 C 57.57135,62 60.5,59.0788 60.5,55.5035 V 11.4965 C 60.5,7.9212 57.57135,5 53.99654,5 Z m 0,2.9982 h 43.99308 c 1.96481,0 3.50562,1.5333 3.50562,3.4983 v 44.007 c 0,1.965 -1.54081,3.5002 -3.50562,3.5002 H 10.00346 c -1.96481,0 -3.49781,-1.5352 -3.49781,-3.5002 v -44.007 c 0,-1.965 1.533,-3.4983 3.49781,-3.4983 z" />
    <path
       id="rect831-360-6-5-7"
       style="color:#000000;font-style:normal;font-variant:normal;font-weight:normal;font-stretch:normal;font-size:medium;line-height:normal;font-family:sans-serif;font-variant-ligatures:normal;font-variant-position:normal;font-variant-caps:normal;font-variant-numeric:normal;font-variant-alternates:normal;font-variant-east-asian:normal;font-feature-settings:normal;font-variation-settings:normal;text-indent:0;text-align:start;text-decoration:none;text-decoration-line:none;text-decoration-style:solid;text-decoration-color:#000000;letter-spacing:normal;word-spacing:normal;text-transform:none;writing-mode:lr-tb;direction:ltr;text-orientation:mixed;dominant-baseline:auto;baseline-shift:baseline;text-anchor:start;white-space:normal;shape-padding:0;shape-margin:0;inline-size:0;clip-rule:nonzero;display:inline;overflow:visible;visibility:visible;isolation:auto;mix-blend-mode:normal;color-interpolation:sRGB;color-interpolation-filters:linearRGB;solid-color:#000000;solid-opacity:1;vector-effect:none;fill:#2b7083;fill-opacity:1;fill-rule:nonzero;stroke:none;stroke-width:0;stroke-linecap:round;stroke-linejoin:round;stroke-miterlimit:4;stroke-dasharray:none;stroke-dashoffset:2.1875;stroke-opacity:1;color-rendering:auto;image-rendering:auto;shape-rendering:auto;text-rendering:auto;enable-background:accumulate;stop-color:#000000"
       d="M 10.00346,3.5 C 6.42865,3.5 3.5,6.4212 3.5,9.9965 v 44.007 C 3.5,57.5788 6.42865,60.5 10.00346,60.5 H 53.99654 C 57.57135,60.5 60.5,57.5788 60.5,54.0035 V 9.9965 C 60.5,6.4212 57.57135,3.5 53.99654,3.5 Z m 0,2.9982 h 43.99308 c 1.96481,0 3.50562,1.5333 3.50562,3.4983 v 44.007 c 0,1.965 -1.54081,3.5002 -3.50562,3.5002 H 10.00346 c -1.96481,0 -3.49781,-1.5352 -3.49781,-3.5002 V 9.9965 c 0,-1.965 1.533,-3.4983 3.49781,-3.4983 z" />
    <rect
       style="fill:url(#linearGradient1772);fill-opacity:1;stroke-width:0;stroke-linecap:round;stroke-linejoin:round;stroke-dashoffset:2.1875"
       id="rect831-9-9"
       width="54"
       height="54"
       x="5.000001"
       y="5"
       rx="5"
       ry="5" />
    <path
       id="rect831-360-6-7-7-2"
       style="color:#000000;font-style:normal;font-variant:normal;font-weight:normal;font-stretch:normal;font-size:medium;line-height:normal;font-family:sans-serif;font-variant-ligatures:normal;font-variant-position:normal;font-variant-caps:normal;font-variant-numeric:normal;font-variant-alternates:normal;font-variant-east-asian:normal;font-feature-settings:normal;font-variation-settings:normal;text-indent:0;text-align:start;text-decoration:none;text-decoration-line:none;text-decoration-style:solid;text-decoration-color:#000000;letter-spacing:normal;word-spacing:normal;text-transform:none;writing-mode:lr-tb;direction:ltr;text-orientation:mixed;dominant-baseline:auto;baseline-shift:baseline;text-anchor:start;white-space:normal;shape-padding:0;shape-margin:0;inline-size:0;clip-rule:nonzero;display:inline;overflow:visible;visibility:visible;opacity:0.15;isolation:auto;mix-blend-mode:normal;color-interpolation:sRGB;color-interpolation-filters:linearRGB;solid-color:#000000;solid-opacity:1;vector-effect:none;fill:#235d6c;fill-opacity:1;fill-rule:nonzero;stroke:none;stroke-width:0;stroke-linecap:round;stroke-linejoin:round;stroke-miterlimit:4;stroke-dasharray:none;stroke-dashoffset:2.1875;stroke-opacity:1;color-rendering:auto;image-rendering:auto;shape-rendering:auto;text-rendering:auto;enable-background:accumulate;stop-color:#000000"
       d="M 10.00346,3.5 C 6.42865,3.5 3.5,6.4212 3.5,9.9965 v 44.007 C 3.5,57.5788 6.42865,60.5 10.00346,60.5 H 53.99654 C 57.57135,60.5 60.5,57.5788 60.5,54.0035 V 9.9965 C 60.5,6.4212 57.57135,3.5 53.99654,3.5 Z m 0,2.9982 h 43.99308 c 1.96481,0 3.50562,1.5333 3.50562,3.4983 v 44.007 c 0,1.965 -1.54081,3.5002 -3.50562,3.5002 H 10.00346 c -1.96482,0 -3.49781,-1.5352 -3.49781,-3.5002 V 9.9965 c 0,-1.965 1.53299,-3.4983 3.49781,-3.4983 z" />
    <path
       id="path882-5-5-7-67-3-3-6-9-2-8-7"
       style="color:#000000;font-style:normal;font-variant:normal;font-weight:normal;font-stretch:normal;font-size:medium;line-height:normal;font-family:sans-serif;font-variant-ligatures:normal;font-variant-position:normal;font-variant-caps:normal;font-variant-numeric:normal;font-variant-alternates:normal;font-variant-east-asian:normal;font-feature-settings:normal;font-variation-settings:normal;text-indent:0;text-align:start;text-decoration:none;text-decoration-line:none;text-decoration-style:solid;text-decoration-color:#000000;letter-spacing:normal;word-spacing:normal;text-transform:none;writing-mode:lr-tb;direction:ltr;text-orientation:mixed;dominant-baseline:auto;baseline-shift:baseline;text-anchor:start;white-space:normal;shape-padding:0;shape-margin:0;inline-size:0;clip-rule:nonzero;display:inline;overflow:visible;visibility:visible;opacity:0.2;isolation:auto;mix-blend-mode:normal;color-interpolation:sRGB;color-interpolation-filters:linearRGB;solid-color:#000000;solid-opacity:1;vector-effect:none;fill:#163d46;fill-opacity:1;fill-rule:nonzero;stroke:none;stroke-width:1.23075;stroke-linecap:round;stroke-linejoin:round;stroke-miterlimit:4;stroke-dasharray:none;stroke-dashoffset:2.1875;stroke-opacity:1;color-rendering:auto;image-rendering:auto;shape-rendering:auto;text-rendering:auto;enable-background:accumulate;stop-color:#000000"
       d="M 38.14267,27.0001 A 0.62917267,0.60200637 0.00361782 0 0 37.504,27.6016 L 37.5,32.0003 H 25.25 c -0.4155,0 -0.75,0.3345 -0.75,0.7501 v 3.5001 c 0,0.4155 0.3345,0.75 0.75,0.75 h 12.24805 l -0.004,4.3966 a 0.62917267,0.60200637 0.00361782 0 0 0.94141,0.5236 L 50.9296,35.0298 a 0.62917267,0.60200637 0.00361782 0 0 0.3125,-0.5197 h 0.002 A 0.62917267,0.60200637 0.00361782 0 0 50.92965,33.9886 L 38.44722,27.0801 a 0.62917267,0.60200637 0.00361782 0 0 -0.30464,-0.08 z" />
    <path
       id="path882-5-5-7-67-3-3-6-9-2-8-9"
       style="color:#000000;font-style:normal;font-variant:normal;font-weight:normal;font-stretch:normal;font-size:medium;line-height:normal;font-family:sans-serif;font-variant-ligatures:normal;font-variant-position:normal;font-variant-caps:normal;font-variant-numeric:normal;font-variant-alternates:normal;font-variant-east-asian:normal;font-feature-settings:normal;font-variation-settings:normal;text-indent:0;text-align:start;text-decoration:none;text-decoration-line:none;text-decoration-style:solid;text-decoration-color:#000000;letter-spacing:normal;word-spacing:normal;text-transform:none;writing-mode:lr-tb;direction:ltr;text-orientation:mixed;dominant-baseline:auto;baseline-shift:baseline;text-anchor:start;white-space:normal;shape-padding:0;shape-margin:0;inline-size:0;clip-rule:nonzero;display:inline;overflow:visible;visibility:visible;opacity:1;isolation:auto;mix-blend-mode:normal;color-interpolation:sRGB;color-interpolation-filters:linearRGB;solid-color:#000000;solid-opacity:1;vector-effect:none;fill:#1e4f5c;fill-opacity:1;fill-rule:nonzero;stroke:none;stroke-width:1.00014;stroke-linecap:round;stroke-linejoin:round;stroke-miterlimit:4;stroke-dasharray:none;stroke-dashoffset:2.1875;stroke-opacity:1;color-rendering:auto;image-rendering:auto;shape-rendering:auto;text-rendering:auto;enable-background:accumulate;stop-color:#000000"
       d="m 38.14267,24 a 0.50005,0.50018767 0 0 0 -0.33594,0.1347 c -0.43812,0.1476 -0.80239,0.4791 -0.80273,0.9671 L 37,29.0014 H 25.25 c -0.68385,0 -1.25,0.5662 -1.25,1.2503 v 3.501 c 0,0.684 0.56615,1.2503 1.25,1.2503 h 11.74805 l -0.004,3.8976 c -0.001,0.8394 0.95291,1.3618 1.68164,0.9631 a 0.50005,0.50018767 0 0 0 0.002,0 l 12.49414,-6.8925 a 0.50005,0.50018767 0 0 0 0.002,0 c 0.18677,-0.1042 0.20903,-0.3341 0.30859,-0.5178 a 0.50005,0.50018767 0 0 0 0.26172,-0.4395 c 1.7e-4,-0.4011 -0.22544,-0.7676 -0.57226,-0.9593 L 38.68946,24.1445 a 0.50005,0.50018767 0 0 0 -0.002,0 c -0.0978,-0.054 -0.21039,-0.061 -0.31836,-0.084 a 0.50005,0.50018767 0 0 0 -0.21093,-0.057 0.50005,0.50018767 0 0 0 -0.008,0 h -0.002 c -0.002,-10e-5 -0.003,0 -0.006,0 z m -0.008,0.9964 v 0 a 0.50005,0.50018767 0 0 0 0.002,0 c 0.0257,3e-4 0.0503,0.01 0.0703,0.02 l 12.48047,6.9082 c 0.0414,0.023 0.054,0.053 0.0547,0.082 -3e-5,0.028 -0.0151,0.059 -0.0547,0.082 h -0.002 l -12.49023,6.8906 c -0.11086,0.061 -0.20131,0 -0.20118,-0.084 l 0.004,-4.3977 a 0.50005,0.50018767 0 0 0 -0.5,-0.502 H 25.25009 c -0.14715,0 -0.25,-0.103 -0.25,-0.2501 v -3.501 c 0,-0.1472 0.10285,-0.2501 0.25,-0.2501 h 12.25 a 0.50005,0.50018767 0 0 0 0.5,-0.4982 l 0.004,-4.3996 c 4e-5,-0.051 0.0408,-0.1048 0.13086,-0.1035 z" />
    <path
       id="path882-5-5-7-67-3-3-6-9-2-8"
       style="color:#000000;font-style:normal;font-variant:normal;font-weight:normal;font-stretch:normal;font-size:medium;line-height:normal;font-family:sans-serif;font-variant-ligatures:normal;font-variant-position:normal;font-variant-caps:normal;font-variant-numeric:normal;font-variant-alternates:normal;font-variant-east-asian:normal;font-feature-settings:normal;font-variation-settings:normal;text-indent:0;text-align:start;text-decoration:none;text-decoration-line:none;text-decoration-style:solid;text-decoration-color:#000000;letter-spacing:normal;word-spacing:normal;text-transform:none;writing-mode:lr-tb;direction:ltr;text-orientation:mixed;dominant-baseline:auto;baseline-shift:baseline;text-anchor:start;white-space:normal;shape-padding:0;shape-margin:0;inline-size:0;clip-rule:nonzero;display:inline;overflow:visible;visibility:visible;isolation:auto;mix-blend-mode:normal;color-interpolation:sRGB;color-interpolation-filters:linearRGB;solid-color:#000000;solid-opacity:1;vector-effect:none;fill:#fdfbfc;fill-opacity:1;fill-rule:nonzero;stroke:none;stroke-width:1.23075;stroke-linecap:round;stroke-linejoin:round;stroke-miterlimit:4;stroke-dasharray:none;stroke-dashoffset:2.1875;stroke-opacity:1;color-rendering:auto;image-rendering:auto;shape-rendering:auto;text-rendering:auto;enable-background:accumulate;stop-color:#000000"
       d="M 38.14267,24.5001 A 0.62917267,0.60200637 0.00361782 0 0 37.504,25.1016 L 37.5,29.5003 H 25.25 c -0.4155,0 -0.75,0.3345 -0.75,0.7501 v 3.5001 c 0,0.4155 0.3345,0.75 0.75,0.75 h 12.24805 l -0.004,4.3966 a 0.62917267,0.60200637 0.00361782 0 0 0.94141,0.5236 L 50.9296,32.5298 a 0.62917267,0.60200637 0.00361782 0 0 0.3125,-0.5197 h 0.002 A 0.62917267,0.60200637 0.00361782 0 0 50.92965,31.4886 L 38.44722,24.5801 a 0.62917267,0.60200637 0.00361782 0 0 -0.30464,-0.08 z" />
    <path
       id="path1895-9-7-8"
       style="color:#000000;font-style:normal;font-variant:normal;font-weight:normal;font-stretch:normal;font-size:medium;line-height:normal;font-family:sans-serif;font-variant-ligatures:normal;font-variant-position:normal;font-variant-caps:normal;font-variant-numeric:normal;font-variant-alternates:normal;font-variant-east-asian:normal;font-feature-settings:normal;font-variation-settings:normal;text-indent:0;text-align:start;text-decoration:none;text-decoration-line:none;text-decoration-style:solid;text-decoration-color:#000000;letter-spacing:normal;word-spacing:normal;text-transform:none;writing-mode:lr-tb;direction:ltr;text-orientation:mixed;dominant-baseline:auto;baseline-shift:baseline;text-anchor:start;white-space:normal;shape-padding:0;shape-margin:0;inline-size:0;clip-rule:nonzero;display:inline;overflow:visible;visibility:visible;opacity:0.2;isolation:auto;mix-blend-mode:normal;color-interpolation:sRGB;color-interpolation-filters:linearRGB;solid-color:#000000;solid-opacity:1;vector-effect:none;fill:#163d46;fill-opacity:1;fill-rule:nonzero;stroke:none;stroke-width:0.999985;stroke-linecap:round;stroke-linejoin:round;stroke-miterlimit:4;stroke-dasharray:none;stroke-dashoffset:0;stroke-opacity:1;paint-order:normal;color-rendering:auto;image-rendering:auto;shape-rendering:auto;text-rendering:auto;enable-background:accumulate;stop-color:#000000"
       d="m 31.98593,14.5 c -5.12264,0 -10.24376,1.9487 -14.14063,5.8455 -7.79373,7.7935 -7.79373,20.4908 0,28.2844 7.79374,7.7935 20.48948,7.7935 28.2832,0 a 2,1.9999412 0 0 0 0,-2.83 2,1.9999412 0 0 0 -2.82812,0 c -6.26514,6.2649 -16.36181,6.2649 -22.62695,0 -6.26514,-6.265 -6.26514,-16.3613 0,-22.6264 6.26514,-6.2649 16.36181,-6.2649 22.62695,0 a 2,1.9999412 0 0 0 2.82812,0 2,1.9999412 0 0 0 0,-2.828 C 42.23165,16.4487 37.10856,14.5 31.98593,14.5 Z" />
    <path
       id="path1895-9-7-4"
       style="color:#000000;font-style:normal;font-variant:normal;font-weight:normal;font-stretch:normal;font-size:medium;line-height:normal;font-family:sans-serif;font-variant-ligatures:normal;font-variant-position:normal;font-variant-caps:normal;font-variant-numeric:normal;font-variant-alternates:normal;font-variant-east-asian:normal;font-feature-settings:normal;font-variation-settings:normal;text-indent:0;text-align:start;text-decoration:none;text-decoration-line:none;text-decoration-style:solid;text-decoration-color:#000000;letter-spacing:normal;word-spacing:normal;text-transform:none;writing-mode:lr-tb;direction:ltr;text-orientation:mixed;dominant-baseline:auto;baseline-shift:baseline;text-anchor:start;white-space:normal;shape-padding:0;shape-margin:0;inline-size:0;clip-rule:nonzero;display:inline;overflow:visible;visibility:visible;opacity:1;isolation:auto;mix-blend-mode:normal;color-interpolation:sRGB;color-interpolation-filters:linearRGB;solid-color:#000000;solid-opacity:1;vector-effect:none;fill:#1e4f5c;fill-opacity:1;fill-rule:nonzero;stroke:none;stroke-width:1.00009;stroke-linecap:round;stroke-linejoin:round;stroke-miterlimit:4;stroke-dasharray:none;stroke-dashoffset:0;stroke-opacity:1;paint-order:normal;color-rendering:auto;image-rendering:auto;shape-rendering:auto;text-rendering:auto;enable-background:accumulate;stop-color:#000000"
       d="m 31.98651,11.5 c -5.25023,0 -10.5029,1.9995 -14.49631,5.9924 -7.98694,7.9858 -7.98693,21.0073 0,28.9932 7.98691,7.9859 21.0077,7.9859 28.99457,0 0.97364,-0.9723 0.97364,-2.5648 0,-3.5372 -0.97222,-0.9718 -2.56345,-0.9718 -3.53568,0 -6.07612,6.0752 -15.84708,6.0752 -21.9232,0 -6.07613,-6.0752 -6.07613,-15.8453 0,-21.9207 6.07612,-6.0753 15.84708,-6.0753 21.9232,0 0.97223,0.9719 2.56347,0.9719 3.53568,0 0.97201,-0.9721 0.97201,-2.5632 0,-3.5353 C 42.49133,13.4995 37.23673,11.5 31.98651,11.5 Z m 0,1 c 4.99658,0 9.98972,1.8985 13.79113,5.6995 0.58988,0.5899 0.58988,1.5312 0,2.1211 -0.59003,0.5899 -1.53138,0.5899 -2.12141,0 -6.45604,-6.455 -16.88145,-6.455 -23.33748,0 -6.45603,6.4553 -6.45604,16.8797 0,23.3349 6.45603,6.4551 16.88144,6.4551 23.33748,0 0.59003,-0.5898 1.53138,-0.5898 2.12141,0 0.5909,0.5902 0.5909,1.533 0,2.1231 -7.60288,7.6018 -19.97741,7.6018 -27.58031,0 -7.60286,-7.6019 -7.60286,-19.9774 0,-27.5791 C 21.99883,14.3984 26.98992,12.5 31.98651,12.5 Z" />
    <path
       id="path1895-9-7"
       style="color:#000000;font-style:normal;font-variant:normal;font-weight:normal;font-stretch:normal;font-size:medium;line-height:normal;font-family:sans-serif;font-variant-ligatures:normal;font-variant-position:normal;font-variant-caps:normal;font-variant-numeric:normal;font-variant-alternates:normal;font-variant-east-asian:normal;font-feature-settings:normal;font-variation-settings:normal;text-indent:0;text-align:start;text-decoration:none;text-decoration-line:none;text-decoration-style:solid;text-decoration-color:#000000;letter-spacing:normal;word-spacing:normal;text-transform:none;writing-mode:lr-tb;direction:ltr;text-orientation:mixed;dominant-baseline:auto;baseline-shift:baseline;text-anchor:start;white-space:normal;shape-padding:0;shape-margin:0;inline-size:0;clip-rule:nonzero;display:inline;overflow:visible;visibility:visible;isolation:auto;mix-blend-mode:normal;color-interpolation:sRGB;color-interpolation-filters:linearRGB;solid-color:#000000;solid-opacity:1;vector-effect:none;fill:#fdfbfc;fill-opacity:1;fill-rule:nonzero;stroke:none;stroke-width:0.999985;stroke-linecap:round;stroke-linejoin:round;stroke-miterlimit:4;stroke-dasharray:none;stroke-dashoffset:0;stroke-opacity:1;paint-order:normal;color-rendering:auto;image-rendering:auto;shape-rendering:auto;text-rendering:auto;enable-background:accumulate;stop-color:#000000"
       d="m 31.98593,12 c -5.12264,0 -10.24376,1.9487 -14.14063,5.8455 -7.79373,7.7935 -7.79373,20.4908 0,28.2844 7.79374,7.7935 20.48948,7.7935 28.2832,0 a 2,1.9999412 0 0 0 0,-2.83 2,1.9999412 0 0 0 -2.82812,0 c -6.26514,6.2649 -16.36181,6.2649 -22.62695,0 -6.26514,-6.265 -6.26514,-16.3613 0,-22.6264 6.26514,-6.2649 16.36181,-6.2649 22.62695,0 a 2,1.9999412 0 0 0 2.82812,0 2,1.9999412 0 0 0 0,-2.828 C 42.23165,13.9487 37.10856,12 31.98593,12 Z" />
  </g>
</svg>
