<?xml version="1.0" encoding="UTF-8" standalone="no"?>
<svg
   xmlns:dc="http://purl.org/dc/elements/1.1/"
   xmlns:cc="http://creativecommons.org/ns#"
   xmlns:rdf="http://www.w3.org/1999/02/22-rdf-syntax-ns#"
   xmlns:svg="http://www.w3.org/2000/svg"
   xmlns="http://www.w3.org/2000/svg"
   xmlns:sodipodi="http://sodipodi.sourceforge.net/DTD/sodipodi-0.dtd"
   xmlns:inkscape="http://www.inkscape.org/namespaces/inkscape"
   width="64"
   height="64"
   viewBox="0 0 16.933333 16.933334"
   version="1.1"
   id="svg841"
   inkscape:version="1.0.2 (e86c870879, 2021-01-15)"
   sodipodi:docname="vc-commit-24.svg">
  <defs
     id="defs835" />
  <sodipodi:namedview
     id="base"
     pagecolor="#c4c4c4"
     bordercolor="#666666"
     borderopacity="1.0"
     inkscape:pageopacity="0"
     inkscape:pageshadow="2"
     inkscape:zoom="4.6320129"
     inkscape:cx="38.827358"
     inkscape:cy="41.338622"
     inkscape:document-units="px"
     inkscape:current-layer="layer1"
     inkscape:document-rotation="0"
     showgrid="false"
     units="px"
     inkscape:window-width="2048"
     inkscape:window-height="1080"
     inkscape:window-x="0"
     inkscape:window-y="0"
     inkscape:window-maximized="1" />
  <metadata
     id="metadata838">
    <rdf:RDF>
      <cc:Work
         rdf:about="">
        <dc:format>image/svg+xml</dc:format>
        <dc:type
           rdf:resource="http://purl.org/dc/dcmitype/StillImage" />
        <dc:title />
      </cc:Work>
    </rdf:RDF>
  </metadata>
  <g
     inkscape:label="Layer 1"
     inkscape:groupmode="layer"
     id="layer1">
    <path
       id="path1113-1-0-6-8-3-2-5-4-0-7-1-1-0-9"
       style="color:#000000;font-style:normal;font-variant:normal;font-weight:normal;font-stretch:normal;font-size:medium;line-height:normal;font-family:sans-serif;font-variant-ligatures:normal;font-variant-position:normal;font-variant-caps:normal;font-variant-numeric:normal;font-variant-alternates:normal;font-variant-east-asian:normal;font-feature-settings:normal;font-variation-settings:normal;text-indent:0;text-align:start;text-decoration:none;text-decoration-line:none;text-decoration-style:solid;text-decoration-color:#000000;letter-spacing:normal;word-spacing:normal;text-transform:none;writing-mode:lr-tb;direction:ltr;text-orientation:mixed;dominant-baseline:auto;baseline-shift:baseline;text-anchor:start;white-space:normal;shape-padding:0;shape-margin:0;inline-size:0;clip-rule:nonzero;display:inline;overflow:visible;visibility:visible;opacity:0.075;isolation:auto;mix-blend-mode:normal;color-interpolation:sRGB;color-interpolation-filters:linearRGB;solid-color:#000000;solid-opacity:1;vector-effect:none;fill:#0c0c0c;fill-opacity:1;fill-rule:nonzero;stroke:none;stroke-width:0.335492;stroke-linecap:round;stroke-linejoin:round;stroke-miterlimit:4;stroke-dasharray:none;stroke-dashoffset:0;stroke-opacity:1;color-rendering:auto;image-rendering:auto;shape-rendering:auto;text-rendering:auto;enable-background:accumulate;stop-color:#000000"
       d="m 8.4697058,1.5875 c -0.1598744,0 -0.3199553,0.072311 -0.4211637,0.2170112 L 4.3275372,7.1247001 c -0.063299,0.090435 -0.096343,0.1995488 -0.094096,0.3109648 0.00566,0.2830777 0.2397575,0.5101431 0.5152576,0.5101167 h 1.147318 0.8890476 v 5.6814244 c 0,0.361553 0.2930102,0.660294 0.6476392,0.660294 h 2.0733567 c 0.354629,0 0.6476337,-0.298741 0.6476337,-0.660294 V 7.9457816 h 0.889053 1.147321 c 0.399055,-1.588e-4 0.65406,-0.4883415 0.421161,-0.8210815 L 8.8902189,1.8045112 C 8.7890159,1.6598106 8.6295749,1.5875 8.4697058,1.5875 Z m 0,0.5021791 c 0.00524,0 0.01016,0.00317 0.014896,0.00979 L 12.204967,7.419658 c 0.01434,0.020373 0.0168,0.017992 -0.01495,0.017992 H 11.042699 9.9044559 a 0.2492172,0.25409161 0 0 0 -0.24919,0.2540529 v 5.9354781 c 0,0.08885 -0.06211,0.152188 -0.149252,0.152188 H 7.4326582 c -0.087143,0 -0.1492567,-0.06334 -0.1492567,-0.152188 V 7.6917022 A 0.2492172,0.25409161 0 0 0 7.0342063,7.4376493 H 5.8959714 4.7486507 c -0.01442,0 -0.01741,-0.00476 -0.017542,-0.011906 -3.18e-5,-0.00265 2.645e-4,-0.0037 0.00212,-0.00609 L 8.4542409,2.0994687 c 0.00479,-0.00688 0.010319,-0.00979 0.015584,-0.00979 z" />
    <path
       id="path1113-1-0-6-8-3-2-5-4-3-3-1"
       style="color:#000000;font-style:normal;font-variant:normal;font-weight:normal;font-stretch:normal;font-size:medium;line-height:normal;font-family:sans-serif;font-variant-ligatures:normal;font-variant-position:normal;font-variant-caps:normal;font-variant-numeric:normal;font-variant-alternates:normal;font-variant-east-asian:normal;font-feature-settings:normal;font-variation-settings:normal;text-indent:0;text-align:start;text-decoration:none;text-decoration-line:none;text-decoration-style:solid;text-decoration-color:#000000;letter-spacing:normal;word-spacing:normal;text-transform:none;writing-mode:lr-tb;direction:ltr;text-orientation:mixed;dominant-baseline:auto;baseline-shift:baseline;text-anchor:start;white-space:normal;shape-padding:0;shape-margin:0;inline-size:0;clip-rule:nonzero;display:inline;overflow:visible;visibility:visible;isolation:auto;mix-blend-mode:normal;color-interpolation:sRGB;color-interpolation-filters:linearRGB;solid-color:#000000;solid-opacity:1;vector-effect:none;fill:#13af8e;fill-opacity:1;fill-rule:nonzero;stroke:none;stroke-width:0;stroke-linecap:round;stroke-linejoin:round;stroke-miterlimit:4;stroke-dasharray:none;stroke-dashoffset:0;stroke-opacity:1;color-rendering:auto;image-rendering:auto;shape-rendering:auto;text-rendering:auto;enable-background:accumulate;stop-color:#000000"
       d="m 7.4307585,13.504334 c -0.2207313,0 -0.398436,-0.181266 -0.398436,-0.4064 V 7.164467 H 5.895429 4.7484152 A 0.26602746,0.26648543 0 0 1 4.4824058,6.9033232 0.26602746,0.26648543 0 0 1 4.5305071,6.7450495 L 8.2489005,1.4259718 a 0.26602746,0.26648543 0 0 1 0.4358214,0 L 12.402811,6.7450495 A 0.26602746,0.26648543 0 0 1 12.185057,7.164467 H 11.038233 9.9009929 v 5.933467 c 0,0.225134 -0.177704,0.4064 -0.398433,0.4064 z" />
    <path
       id="path1113-1-0-6-8-3-2-5-4-0-7-1-6-2"
       style="color:#000000;font-style:normal;font-variant:normal;font-weight:normal;font-stretch:normal;font-size:medium;line-height:normal;font-family:sans-serif;font-variant-ligatures:normal;font-variant-position:normal;font-variant-caps:normal;font-variant-numeric:normal;font-variant-alternates:normal;font-variant-east-asian:normal;font-feature-settings:normal;font-variation-settings:normal;text-indent:0;text-align:start;text-decoration:none;text-decoration-line:none;text-decoration-style:solid;text-decoration-color:#000000;letter-spacing:normal;word-spacing:normal;text-transform:none;writing-mode:lr-tb;direction:ltr;text-orientation:mixed;dominant-baseline:auto;baseline-shift:baseline;text-anchor:start;white-space:normal;shape-padding:0;shape-margin:0;inline-size:0;clip-rule:nonzero;display:inline;overflow:visible;visibility:visible;opacity:0.85;isolation:auto;mix-blend-mode:normal;color-interpolation:sRGB;color-interpolation-filters:linearRGB;solid-color:#000000;solid-opacity:1;vector-effect:none;fill:#0a5c4b;fill-opacity:1;fill-rule:nonzero;stroke:none;stroke-width:0.335492;stroke-linecap:round;stroke-linejoin:round;stroke-miterlimit:4;stroke-dasharray:none;stroke-dashoffset:0;stroke-opacity:1;color-rendering:auto;image-rendering:auto;shape-rendering:auto;text-rendering:auto;enable-background:accumulate;stop-color:#000000"
       d="m 8.4697058,1.0583333 c -0.1598744,0 -0.3199553,0.072311 -0.4211637,0.2170112 L 4.3275372,6.5955334 c -0.063299,0.090435 -0.096343,0.1995488 -0.094096,0.3109648 0.00566,0.2830777 0.2397575,0.5101432 0.5152576,0.5101167 h 1.147318 0.8890476 V 13.09804 c 0,0.361553 0.2930102,0.660294 0.6476392,0.660294 h 2.0733567 c 0.354629,0 0.6476337,-0.298741 0.6476337,-0.660294 V 7.4166149 h 0.889053 1.147321 c 0.399055,-1.587e-4 0.65406,-0.4883415 0.421161,-0.8210815 L 8.8902189,1.2753445 C 8.7890159,1.1306439 8.6295749,1.0583333 8.4697058,1.0583333 Z m 0,0.5021792 c 0.00524,0 0.01016,0.00317 0.014896,0.00979 l 3.7203652,5.3201888 c 0.01434,0.020373 0.0168,0.017992 -0.01495,0.017992 H 11.042699 9.9044559 a 0.2492172,0.25409161 0 0 0 -0.24919,0.2540529 v 5.9354768 c 0,0.08885 -0.06211,0.152188 -0.149252,0.152188 H 7.4326582 c -0.087143,0 -0.1492567,-0.06334 -0.1492567,-0.152188 V 7.1625355 A 0.2492172,0.25409161 0 0 0 7.0342063,6.9084826 H 5.8959714 4.7486507 c -0.01442,0 -0.01741,-0.00476 -0.017542,-0.011906 -3.18e-5,-0.00265 2.645e-4,-0.0037 0.00212,-0.00609 L 8.4542409,1.5703021 c 0.00479,-0.00688 0.010319,-0.00979 0.015584,-0.00979 z" />
  </g>
</svg>
