<?xml version="1.0" encoding="UTF-8" standalone="no"?>
<svg
   xmlns:dc="http://purl.org/dc/elements/1.1/"
   xmlns:cc="http://creativecommons.org/ns#"
   xmlns:rdf="http://www.w3.org/1999/02/22-rdf-syntax-ns#"
   xmlns:svg="http://www.w3.org/2000/svg"
   xmlns="http://www.w3.org/2000/svg"
   xmlns:xlink="http://www.w3.org/1999/xlink"
   xmlns:sodipodi="http://sodipodi.sourceforge.net/DTD/sodipodi-0.dtd"
   xmlns:inkscape="http://www.inkscape.org/namespaces/inkscape"
   width="64"
   height="64"
   viewBox="0 0 64 64"
   version="1.1"
   id="svg6374"
   inkscape:version="1.0.2 (e86c870879, 2021-01-15)"
   sodipodi:docname="application-x-javascript.svg">
  <defs
     id="defs6368">
    <linearGradient
       inkscape:collect="always"
       xlink:href="#linearGradient945"
       id="linearGradient2110"
       x1="396.59225"
       y1="4"
       x2="396.59225"
       y2="60"
       gradientUnits="userSpaceOnUse"
       gradientTransform="translate(-364.59226)" />
    <linearGradient
       inkscape:collect="always"
       id="linearGradient945">
      <stop
         style="stop-color:#f7c355;stop-opacity:1"
         offset="0"
         id="stop943" />
      <stop
         style="stop-color:#f5b733;stop-opacity:1;"
         offset="1"
         id="stop941" />
    </linearGradient>
  </defs>
  <sodipodi:namedview
     id="base"
     pagecolor="#cecece"
     bordercolor="#666666"
     borderopacity="1.0"
     inkscape:pageopacity="0"
     inkscape:pageshadow="2"
     inkscape:zoom="1.5340798"
     inkscape:cx="32.673374"
     inkscape:cy="72.435551"
     inkscape:document-units="px"
     inkscape:current-layer="layer1"
     inkscape:document-rotation="0"
     showgrid="false"
     units="px"
     inkscape:window-width="1024"
     inkscape:window-height="1080"
     inkscape:window-x="68"
     inkscape:window-y="56"
     inkscape:window-maximized="0" />
  <metadata
     id="metadata6371">
    <rdf:RDF>
      <cc:Work
         rdf:about="">
        <dc:format>image/svg+xml</dc:format>
        <dc:type
           rdf:resource="http://purl.org/dc/dcmitype/StillImage" />
        <dc:title></dc:title>
      </cc:Work>
    </rdf:RDF>
  </metadata>
  <g
     inkscape:label="Layer 1"
     inkscape:groupmode="layer"
     id="layer1">
    <rect
       style="opacity:0.45;fill:#0c0c0c;fill-opacity:1;stroke-width:0.495;stroke-linecap:round;stroke-linejoin:round;stroke-miterlimit:4;stroke-dasharray:none;stroke-dashoffset:2.1875"
       id="rect954-6-3-2-2-6-4-5"
       width="44"
       height="56"
       x="10"
       y="5.4999995"
       rx="3"
       ry="3" />
    <path
       id="rect954-60-6-7-3-1-91-6"
       style="color:#000000;font-style:normal;font-variant:normal;font-weight:normal;font-stretch:normal;font-size:medium;line-height:normal;font-family:sans-serif;font-variant-ligatures:normal;font-variant-position:normal;font-variant-caps:normal;font-variant-numeric:normal;font-variant-alternates:normal;font-variant-east-asian:normal;font-feature-settings:normal;font-variation-settings:normal;text-indent:0;text-align:start;text-decoration:none;text-decoration-line:none;text-decoration-style:solid;text-decoration-color:#000000;letter-spacing:normal;word-spacing:normal;text-transform:none;writing-mode:lr-tb;direction:ltr;text-orientation:mixed;dominant-baseline:auto;baseline-shift:baseline;text-anchor:start;white-space:normal;shape-padding:0;shape-margin:0;inline-size:0;clip-rule:nonzero;display:inline;overflow:visible;visibility:visible;opacity:0.8;isolation:auto;mix-blend-mode:normal;color-interpolation:sRGB;color-interpolation-filters:linearRGB;solid-color:#000000;solid-opacity:1;vector-effect:none;fill:#f4ae15;fill-opacity:1;fill-rule:nonzero;stroke:none;stroke-linecap:round;stroke-linejoin:round;stroke-miterlimit:4;stroke-dasharray:none;stroke-dashoffset:2.1875;stroke-opacity:1;color-rendering:auto;image-rendering:auto;shape-rendering:auto;text-rendering:auto;enable-background:accumulate;stop-color:#000000"
       d="M 13,3.5 C 11.0696,3.5 9.5,5.06965 9.5,7 v 50 c 0,1.93035 1.5696,3.5 3.5,3.5 h 38 c 1.9304,0 3.5,-1.56965 3.5,-3.5 V 7 C 54.5,5.06965 52.9304,3.5 51,3.5 Z m 0,1 h 38 c 1.3936,0 2.5,1.10635 2.5,2.5 v 50 c 0,1.39365 -1.1064,2.5 -2.5,2.5 H 13 c -1.3936,0 -2.5,-1.10635 -2.5,-2.5 V 7 c 0,-1.39365 1.1064,-2.5 2.5,-2.5 z" />
    <rect
       style="fill:url(#linearGradient2110);fill-opacity:1;stroke-width:0.495;stroke-linecap:round;stroke-linejoin:round;stroke-miterlimit:4;stroke-dasharray:none;stroke-dashoffset:2.1875"
       id="rect954-7-0-7-3-0-9"
       width="44"
       height="56"
       x="10"
       y="3.9999995"
       rx="3"
       ry="3" />
    <path
       id="rect1046-1-5"
       style="opacity:0.15;fill:#614405;fill-opacity:1;stroke:none;stroke-width:0.483302;stroke-linejoin:round;stroke-opacity:1"
       d="m 38.29659,28.750833 c -0.12495,-0.002 -0.25249,-0.0017 -0.38347,9.4e-4 l -1.09164,0.142307 c -1.04601,0.266477 -2.04289,0.819836 -2.62745,1.561975 -1.75401,2.006493 -1.25372,5.518138 0.88063,6.963322 2.10268,1.591109 5.19132,1.953248 5.58588,3.441105 0.38388,1.821478 -1.32791,2.411111 -3.02924,2.201629 -1.25379,-0.262897 -1.95114,-0.905629 -2.70501,-2.073891 -1.38757,0.809577 -1.38724,0.809586 -2.81389,1.636771 0.33831,0.745717 0.69363,1.083482 1.26073,1.729539 2.684,2.744745 9.40053,2.609934 10.6052,-1.544492 0.0489,-0.142639 0.37301,-1.093878 0.11225,-2.560552 h 5e-4 c -0.27143,-1.704201 -1.37373,-3.135991 -4.63875,-4.470766 -1.13422,-0.525496 -2.39905,-0.901819 -2.77584,-1.768393 -0.13378,-0.504309 -0.15161,-0.788501 -0.0669,-1.093772 0.243,-0.990718 1.41641,-1.29917 2.34611,-1.01509 0.59877,0.202324 1.16553,0.667331 1.50739,1.40947 1.59891,-1.043829 1.5953,-1.036937 2.71176,-1.754309 -0.40876,-0.638889 -0.62655,-0.933598 -0.89413,-1.206936 -0.90156,-1.015238 -2.10987,-1.568813 -3.98405,-1.598889 z m -11.54894,0.220989 -0.014,9.033328 c 0,1.921145 0.0984,3.682275 -0.21148,4.222094 -0.50703,1.061733 -1.82104,0.930063 -2.41982,0.724162 -0.60944,-0.301988 -0.91905,-0.731598 -1.27808,-1.338558 -0.0986,-0.17427 -0.17265,-0.309142 -0.19752,-0.319584 L 19.809,43.033001 c 0.46854,0.969527 1.15898,1.811339 2.04309,2.358021 1.32069,0.79913 3.09546,1.044102 4.95189,0.614396 1.20821,-0.354807 2.25075,-1.089699 2.79655,-2.208428 0.78909,-1.466671 0.61987,-3.242095 0.61278,-5.205614 0.0178,-3.203399 0,-6.406007 0,-9.619554 z" />
    <path
       id="rect1046-1"
       style="fill:#504b50;fill-opacity:1;stroke:none;stroke-width:0.483302;stroke-linejoin:round;stroke-opacity:1"
       d="m 38.29659,27.751301 c -0.12495,-0.002 -0.25249,-0.0017 -0.38347,9.4e-4 l -1.09164,0.142307 c -1.04601,0.266477 -2.04289,0.819836 -2.62745,1.561975 -1.75401,2.006493 -1.25372,5.518138 0.88063,6.963322 2.10268,1.591109 5.19132,1.953248 5.58588,3.441105 0.38388,1.821478 -1.32791,2.411111 -3.02924,2.201629 -1.25379,-0.262897 -1.95114,-0.905629 -2.70501,-2.073891 -1.38757,0.809576 -1.38724,0.809586 -2.81389,1.636771 0.33831,0.745717 0.69363,1.083482 1.26073,1.729539 2.684,2.744745 9.40053,2.609934 10.6052,-1.544492 0.0489,-0.142639 0.37301,-1.093878 0.11225,-2.560552 h 5e-4 c -0.27143,-1.704201 -1.37373,-3.135991 -4.63875,-4.470766 -1.13422,-0.525496 -2.39905,-0.901819 -2.77584,-1.768394 -0.13378,-0.504308 -0.15161,-0.7885 -0.0669,-1.093771 0.243,-0.990718 1.41641,-1.29917 2.34611,-1.01509 0.59877,0.202324 1.16553,0.667331 1.50739,1.40947 1.59891,-1.043829 1.5953,-1.036937 2.71176,-1.754309 -0.40876,-0.638889 -0.62655,-0.933598 -0.89413,-1.206936 -0.90156,-1.015238 -2.10987,-1.568813 -3.98405,-1.598889 z m -11.54894,0.220989 -0.014,9.033328 c 0,1.921145 0.0984,3.682275 -0.21148,4.222094 -0.50703,1.061733 -1.82104,0.930063 -2.41982,0.724162 -0.60944,-0.301988 -0.91905,-0.731598 -1.27808,-1.338558 -0.0986,-0.17427 -0.17265,-0.309143 -0.19752,-0.319584 L 19.809,42.033468 c 0.46854,0.969528 1.15898,1.81134 2.04309,2.358022 1.32069,0.79913 3.09546,1.044102 4.95189,0.614396 1.20821,-0.354807 2.25075,-1.089699 2.79655,-2.208428 0.78909,-1.466671 0.61987,-3.242095 0.61278,-5.205614 0.0178,-3.2034 0,-6.406007 0,-9.619554 z" />
  </g>
</svg>
