<?xml version="1.0" encoding="UTF-8" standalone="no"?>
<svg
   xmlns:dc="http://purl.org/dc/elements/1.1/"
   xmlns:cc="http://creativecommons.org/ns#"
   xmlns:rdf="http://www.w3.org/1999/02/22-rdf-syntax-ns#"
   xmlns:svg="http://www.w3.org/2000/svg"
   xmlns="http://www.w3.org/2000/svg"
   xmlns:xlink="http://www.w3.org/1999/xlink"
   xmlns:sodipodi="http://sodipodi.sourceforge.net/DTD/sodipodi-0.dtd"
   xmlns:inkscape="http://www.inkscape.org/namespaces/inkscape"
   width="64"
   height="64"
   viewBox="0 0 64 64"
   version="1.1"
   id="svg6374"
   inkscape:version="1.0.2 (e86c870879, 2021-01-15)"
   sodipodi:docname="image-png.svg">
  <defs
     id="defs6368">
    <linearGradient
       inkscape:collect="always"
       xlink:href="#linearGradient1890"
       id="linearGradient1748"
       gradientUnits="userSpaceOnUse"
       gradientTransform="matrix(0.89810548,0,0,0.87574424,-38.4393,-133.29848)"
       x1="49.481316"
       y1="172.19466"
       x2="102.92715"
       y2="215.58632" />
    <linearGradient
       inkscape:collect="always"
       id="linearGradient1890">
      <stop
         style="stop-color:#d94a72;stop-opacity:1"
         offset="0"
         id="stop1886" />
      <stop
         style="stop-color:#e1bb56;stop-opacity:1"
         offset="1"
         id="stop1888" />
    </linearGradient>
  </defs>
  <sodipodi:namedview
     id="base"
     pagecolor="#cecece"
     bordercolor="#666666"
     borderopacity="1.0"
     inkscape:pageopacity="0"
     inkscape:pageshadow="2"
     inkscape:zoom="3.9847868"
     inkscape:cx="46.915285"
     inkscape:cy="57.371745"
     inkscape:document-units="px"
     inkscape:current-layer="layer1"
     inkscape:document-rotation="0"
     showgrid="false"
     units="px"
     inkscape:window-width="1500"
     inkscape:window-height="970"
     inkscape:window-x="68"
     inkscape:window-y="56"
     inkscape:window-maximized="0" />
  <metadata
     id="metadata6371">
    <rdf:RDF>
      <cc:Work
         rdf:about="">
        <dc:format>image/svg+xml</dc:format>
        <dc:type
           rdf:resource="http://purl.org/dc/dcmitype/StillImage" />
        <dc:title></dc:title>
      </cc:Work>
    </rdf:RDF>
  </metadata>
  <g
     inkscape:label="Layer 1"
     inkscape:groupmode="layer"
     id="layer1">
    <rect
       style="opacity:0.45;fill:#323132;fill-opacity:1;stroke:none;stroke-width:1.23443;stroke-linecap:round;stroke-linejoin:round;stroke-miterlimit:4;stroke-dasharray:none;stroke-dashoffset:0;stroke-opacity:1"
       id="rect9720-3-3-2-9-31-3-0-7"
       width="60"
       height="48"
       x="2"
       y="13.5"
       ry="4.5"
       rx="4.5" />
    <rect
       style="fill:url(#linearGradient1748);fill-opacity:1;stroke:none;stroke-width:1.70814;stroke-linecap:square;stroke-miterlimit:4;stroke-dasharray:none;stroke-opacity:0.54902"
       id="rect2119-0-9-3-1-7"
       width="52"
       height="40"
       x="5.9999995"
       y="17.500031"
       rx="2"
       ry="2" />
    <path
       id="rect9720-3-3-2-9-3-7-9-8-2"
       style="fill:#fcfcfc;fill-opacity:1;stroke:none;stroke-width:1.23443;stroke-linecap:round;stroke-linejoin:round;stroke-miterlimit:4;stroke-dasharray:none;stroke-dashoffset:0;stroke-opacity:1"
       d="m 6.9999998,15.50001 c -1.662,0 -3,1.33799 -3,3 V 56.5 c 0,1.66201 1.338,3 3,3 H 57 c 1.662,0 3,-1.338 3,-3 v -38 c 0,-1.662 -1.338,-3 -3,-3 z m 2.5,4 H 54.5 c 0.831,0 1.5,0.669 1.5,1.5 v 33 c 0,0.83099 -0.669,1.5 -1.5,1.5 H 9.4999998 c -0.831,0 -1.5,-0.66901 -1.5,-1.5 v -33 c 0,-0.831 0.669,-1.5 1.5,-1.5 z" />
    <path
       id="rect9720-3-3-2-9-6-6-4-5"
       style="opacity:0.15;fill:#5c1428;fill-opacity:1;stroke:none;stroke-width:1.23443;stroke-linecap:round;stroke-linejoin:round;stroke-miterlimit:4;stroke-dasharray:none;stroke-dashoffset:0;stroke-opacity:1"
       d="m 9.4999998,19.50001 c -0.831,0 -1.5,0.669 -1.5,1.5 v 33 c 0,0.83099 0.669,1.5 1.5,1.5 H 54.5 c 0.831,0 1.5,-0.66901 1.5,-1.5 v -33 c 0,-0.831 -0.669,-1.5 -1.5,-1.5 z m 3.2500002,4 h 38.5 c 0.4155,0 0.75,0.33449 0.75,0.75 v 26.5 c 0,0.4155 -0.3345,0.75 -0.75,0.75 h -38.5 c -0.4155,0 -0.75,-0.3345 -0.75,-0.75 v -26.5 c 0,-0.41551 0.3345,-0.75 0.75,-0.75 z" />
    <path
       id="rect9720-3-3-2-9-6-6-4-6-3-5-4"
       style="opacity:0.3;fill:#5c1428;fill-opacity:1;stroke:none;stroke-width:1.23443;stroke-linecap:round;stroke-linejoin:round;stroke-miterlimit:4;stroke-dasharray:none;stroke-dashoffset:0;stroke-opacity:1"
       d="m 9.4999998,19.5 c -0.831,0 -1.5,0.669 -1.5,1.5 v 33 c 0,0.83099 0.669,1.5 1.5,1.5 H 54.5 C 55.331,55.5 56,54.83099 56,54 V 21 c 0,-0.831 -0.669,-1.5 -1.5,-1.5 z m 0.4981,2 H 53.9981 v 32 H 9.9980998 Z" />
  </g>
</svg>
