<?xml version="1.0" encoding="UTF-8" standalone="no"?>
<svg
   xmlns:dc="http://purl.org/dc/elements/1.1/"
   xmlns:cc="http://creativecommons.org/ns#"
   xmlns:rdf="http://www.w3.org/1999/02/22-rdf-syntax-ns#"
   xmlns:svg="http://www.w3.org/2000/svg"
   xmlns="http://www.w3.org/2000/svg"
   xmlns:sodipodi="http://sodipodi.sourceforge.net/DTD/sodipodi-0.dtd"
   xmlns:inkscape="http://www.inkscape.org/namespaces/inkscape"
   width="64"
   height="64"
   viewBox="0 0 64 64"
   version="1.1"
   id="svg6374"
   inkscape:version="1.0.2 (e86c870879, 2021-01-15)"
   sodipodi:docname="text-x-makefile.svg">
  <defs
     id="defs6368" />
  <sodipodi:namedview
     id="base"
     pagecolor="#cecece"
     bordercolor="#666666"
     borderopacity="1.0"
     inkscape:pageopacity="0"
     inkscape:pageshadow="2"
     inkscape:zoom="2.7426703"
     inkscape:cx="35.478521"
     inkscape:cy="52.549069"
     inkscape:document-units="px"
     inkscape:current-layer="layer1"
     inkscape:document-rotation="0"
     showgrid="false"
     units="px"
     inkscape:window-width="1024"
     inkscape:window-height="1080"
     inkscape:window-x="68"
     inkscape:window-y="56"
     inkscape:window-maximized="0" />
  <metadata
     id="metadata6371">
    <rdf:RDF>
      <cc:Work
         rdf:about="">
        <dc:format>image/svg+xml</dc:format>
        <dc:type
           rdf:resource="http://purl.org/dc/dcmitype/StillImage" />
        <dc:title></dc:title>
      </cc:Work>
    </rdf:RDF>
  </metadata>
  <g
     inkscape:label="Layer 1"
     inkscape:groupmode="layer"
     id="layer1">
    <path
       id="rect954-7-0-7-3-0-0-0-6-3-9-6-1-9-9-7-2"
       style="color:#000000;font-style:normal;font-variant:normal;font-weight:normal;font-stretch:normal;font-size:medium;line-height:normal;font-family:sans-serif;font-variant-ligatures:normal;font-variant-position:normal;font-variant-caps:normal;font-variant-numeric:normal;font-variant-alternates:normal;font-variant-east-asian:normal;font-feature-settings:normal;font-variation-settings:normal;text-indent:0;text-align:start;text-decoration:none;text-decoration-line:none;text-decoration-style:solid;text-decoration-color:#000000;letter-spacing:normal;word-spacing:normal;text-transform:none;writing-mode:lr-tb;direction:ltr;text-orientation:mixed;dominant-baseline:auto;baseline-shift:baseline;text-anchor:start;white-space:normal;shape-padding:0;shape-margin:0;inline-size:0;clip-rule:nonzero;display:inline;overflow:visible;visibility:visible;opacity:0.85;isolation:auto;mix-blend-mode:normal;color-interpolation:sRGB;color-interpolation-filters:linearRGB;solid-color:#000000;solid-opacity:1;vector-effect:none;fill:#9ec17b;fill-opacity:1;fill-rule:nonzero;stroke:none;stroke-linecap:round;stroke-linejoin:round;stroke-miterlimit:4;stroke-dasharray:none;stroke-dashoffset:2.1875;stroke-opacity:1;color-rendering:auto;image-rendering:auto;shape-rendering:auto;text-rendering:auto;enable-background:accumulate;stop-color:#000000"
       d="M 13,2.5 C 10.53295,2.5 8.5,4.5329 8.5,7 v 49.9999 c 0,2.4671 2.03295,4.5 4.5,4.5 h 38 c 2.467,0 4.5,-2.0329 4.5,-4.5 V 7 C 55.5,4.5329 53.467,2.5 51,2.5 Z m 0,3 h 38 c 0.8569,0 1.5,0.643 1.5,1.5 v 49.9999 c 0,0.857 -0.6431,1.5 -1.5,1.5 H 13 c -0.85695,0 -1.5,-0.643 -1.5,-1.5 V 7 c 0,-0.857 0.64305,-1.5 1.5,-1.5 z" />
    <rect
       style="fill:#303032;fill-opacity:1;stroke-width:0.495;stroke-linecap:round;stroke-linejoin:round;stroke-miterlimit:4;stroke-dasharray:none;stroke-dashoffset:2.1875"
       id="rect954-0-8-0-6-4-3"
       width="44"
       height="56"
       x="9.999939"
       y="3.9998999"
       rx="3"
       ry="3" />
    <ellipse
       style="display:inline;opacity:0.9;fill:#9ec17b;fill-opacity:1;stroke:#0c0c0c;stroke-width:0;stroke-linecap:round;stroke-linejoin:round;stroke-dashoffset:2.1875"
       id="path840-31"
       cx="20.688141"
       cy="28.913717"
       rx="2.6177096"
       ry="2.6171691" />
    <ellipse
       style="display:inline;opacity:0.75;fill:#9ec17b;fill-opacity:1;stroke:#0c0c0c;stroke-width:0;stroke-linecap:round;stroke-linejoin:round;stroke-dashoffset:2.1875"
       id="path840-3-1"
       cx="32.029907"
       cy="22.511923"
       rx="2.6177096"
       ry="2.6171691" />
    <ellipse
       style="display:inline;opacity:0.6;fill:#9ec17b;fill-opacity:1;stroke:#0c0c0c;stroke-width:0;stroke-linecap:round;stroke-linejoin:round;stroke-dashoffset:2.1875"
       id="path840-6-0"
       cx="43.335938"
       cy="29.043722"
       rx="2.6177096"
       ry="2.6171691" />
    <ellipse
       style="display:inline;opacity:0.45;fill:#9ec17b;fill-opacity:1;stroke:#0c0c0c;stroke-width:0;stroke-linecap:round;stroke-linejoin:round;stroke-dashoffset:2.1875"
       id="path840-7-3"
       cx="43.354065"
       cy="42.112694"
       rx="2.6177096"
       ry="2.6171691" />
    <ellipse
       style="display:inline;opacity:0.3;fill:#9ec17b;fill-opacity:1;stroke:#0c0c0c;stroke-width:0;stroke-linecap:round;stroke-linejoin:round;stroke-dashoffset:2.1875"
       id="path840-5-4"
       cx="31.897766"
       cy="48.696556"
       rx="2.6177096"
       ry="2.6171691" />
    <ellipse
       style="display:inline;opacity:0.15;fill:#9ec17b;fill-opacity:1;stroke:#0c0c0c;stroke-width:0;stroke-linecap:round;stroke-linejoin:round;stroke-dashoffset:2.1875"
       id="path840-35-0"
       cx="20.676117"
       cy="42.12368"
       rx="2.6177096"
       ry="2.6171691" />
    <path
       id="rect1649-7-7-4-67-3"
       style="display:inline;fill:#9ec17b;fill-opacity:1;stroke-width:0.523487;stroke-linecap:round;stroke-linejoin:round;stroke-dashoffset:2.1875;stroke-opacity:0.74902"
       d="m 32.00599,18.7499 a 3.6647936,3.6640368 0 0 0 -3.1801,1.832 3.6647936,3.6640368 0 0 0 1.34158,5.0054 3.6647936,3.6640368 0 0 0 0.65442,0.2954 V 32.03 a 3.6647936,3.6640368 0 0 0 -1.23828,0.7156 L 24.2582,29.6715 a 3.6647936,3.6640368 0 0 0 -1.76083,-3.888 3.6647936,3.6640368 0 0 0 -1.82627,-0.4907 3.6647936,3.6640368 0 0 0 -3.1801,1.8321 3.6647936,3.6640368 0 0 0 1.34158,5.0052 3.6647936,3.6640368 0 0 0 4.24864,-0.4191 l 5.32442,3.0742 a 3.6647936,3.6640368 0 0 0 0,1.4292 l -5.32541,3.0732 a 3.6647936,3.6640368 0 0 0 -0.58286,-0.4183 3.6647936,3.6640368 0 0 0 -1.82627,-0.4907 3.6647936,3.6640368 0 0 0 -3.1801,1.8321 3.6647936,3.6640368 0 0 0 1.34158,5.0053 3.6647936,3.6640368 0 0 0 5.00636,-1.3413 3.6647936,3.6640368 0 0 0 0.42025,-2.5477 l 5.32442,-3.073 a 3.6647936,3.6640368 0 0 0 0.58386,0.4191 3.6647936,3.6640368 0 0 0 0.65442,0.2954 v 6.1474 a 3.6647936,3.6640368 0 0 0 -1.996,1.6377 3.6647936,3.6640368 0 0 0 1.34158,5.0054 3.6647936,3.6640368 0 0 0 5.00637,-1.3413 3.6647936,3.6640368 0 0 0 -1.34158,-5.0054 3.6647936,3.6640368 0 0 0 -0.65443,-0.2964 v -6.1474 a 3.6647936,3.6640368 0 0 0 1.23829,-0.7145 l 5.32436,3.0741 a 3.6647936,3.6640368 0 0 0 1.76188,3.8879 3.6647936,3.6640368 0 0 0 5.00637,-1.3413 3.6647936,3.6640368 0 0 0 -1.34158,-5.0054 3.6647936,3.6640368 0 0 0 -1.82627,-0.4907 3.6647936,3.6640368 0 0 0 -2.42138,0.91 l -5.32542,-3.0742 a 3.6647936,3.6640368 0 0 0 0,-1.4292 l 5.32437,-3.0742 a 3.6647936,3.6640368 0 0 0 0.58391,0.4191 3.6647936,3.6640368 0 0 0 5.00637,-1.3412 3.6647936,3.6640368 0 0 0 -1.34158,-5.0054 3.6647936,3.6640368 0 0 0 -1.82627,-0.4907 3.6647936,3.6640368 0 0 0 -3.1801,1.8321 3.6647936,3.6640368 0 0 0 -0.4203,2.5455 l -5.32536,3.0742 a 3.6647936,3.6640368 0 0 0 -0.58286,-0.4181 3.6647936,3.6640368 0 0 0 -0.65443,-0.2954 v -6.1474 a 3.6647936,3.6640368 0 0 0 1.99601,-1.6377 3.6647936,3.6640368 0 0 0 -1.34158,-5.0054 3.6647936,3.6640368 0 0 0 -1.82627,-0.4907 z m -0.0309,1.832 a 1.8323968,1.8320184 0 0 1 0.94075,0.2454 1.8323968,1.8320184 0 0 1 0.67077,2.5027 1.8323968,1.8320184 0 0 1 -2.50316,0.6706 1.8323968,1.8320184 0 0 1 -0.67077,-2.5027 1.8323968,1.8320184 0 0 1 1.56241,-0.916 z m -11.33489,6.543 a 1.8323968,1.8320184 0 0 1 0.94075,0.2453 1.8323968,1.8320184 0 0 1 0.67082,2.5027 1.8323968,1.8320184 0 0 1 -2.50322,0.6707 1.8323968,1.8320184 0 0 1 -0.67076,-2.5027 1.8323968,1.8320184 0 0 1 1.56241,-0.916 z m 22.66978,0 a 1.8323968,1.8320184 0 0 1 0.94076,0.2453 1.8323968,1.8320184 0 0 1 0.67076,2.5027 1.8323968,1.8320184 0 0 1 -2.50316,0.6707 1.8323968,1.8320184 0 0 1 -0.67082,-2.5027 1.8323968,1.8320184 0 0 1 1.56246,-0.916 z m -11.33489,6.5428 a 1.8323968,1.8320184 0 0 1 0.94075,0.2455 1.8323968,1.8320184 0 0 1 0.67077,2.5026 1.8323968,1.8320184 0 0 1 -2.50316,0.6706 1.8323968,1.8320184 0 0 1 -0.67077,-2.5027 1.8323968,1.8320184 0 0 1 1.56241,-0.916 z m -11.33489,6.543 a 1.8323968,1.8320184 0 0 1 0.94075,0.2454 1.8323968,1.8320184 0 0 1 0.67082,2.5026 1.8323968,1.8320184 0 0 1 -2.50322,0.6707 1.8323968,1.8320184 0 0 1 -0.67076,-2.5027 1.8323968,1.8320184 0 0 1 1.56241,-0.916 z m 22.66978,0 a 1.8323968,1.8320184 0 0 1 0.94076,0.2454 1.8323968,1.8320184 0 0 1 0.67076,2.5026 1.8323968,1.8320184 0 0 1 -2.50316,0.6707 1.8323968,1.8320184 0 0 1 -0.67082,-2.5027 1.8323968,1.8320184 0 0 1 1.56246,-0.916 z m -11.33489,6.5429 a 1.8323968,1.8320184 0 0 1 0.94075,0.2454 1.8323968,1.8320184 0 0 1 0.67077,2.5026 1.8323968,1.8320184 0 0 1 -2.50316,0.6707 1.8323968,1.8320184 0 0 1 -0.67077,-2.5027 1.8323968,1.8320184 0 0 1 1.56241,-0.916 z" />
    <ellipse
       style="display:inline;fill:#9ec17b;fill-opacity:1;stroke:#0c0c0c;stroke-width:0;stroke-linecap:round;stroke-linejoin:round;stroke-dashoffset:2.1875"
       id="path840-31-9"
       cx="31.90564"
       cy="35.239281"
       rx="2.6177096"
       ry="2.6171691" />
  </g>
</svg>
