<?xml version="1.0" encoding="UTF-8" standalone="no"?>
<svg
   xmlns:dc="http://purl.org/dc/elements/1.1/"
   xmlns:cc="http://creativecommons.org/ns#"
   xmlns:rdf="http://www.w3.org/1999/02/22-rdf-syntax-ns#"
   xmlns:svg="http://www.w3.org/2000/svg"
   xmlns="http://www.w3.org/2000/svg"
   xmlns:sodipodi="http://sodipodi.sourceforge.net/DTD/sodipodi-0.dtd"
   xmlns:inkscape="http://www.inkscape.org/namespaces/inkscape"
   width="64"
   height="64"
   viewBox="0 0 16.933333 16.933334"
   version="1.1"
   id="svg841"
   inkscape:version="1.0.2 (e86c870879, 2021-01-15)"
   sodipodi:docname="x-office-address-book.svg">
  <defs
     id="defs835" />
  <sodipodi:namedview
     id="base"
     pagecolor="#c4c4c4"
     bordercolor="#666666"
     borderopacity="1.0"
     inkscape:pageopacity="0"
     inkscape:pageshadow="2"
     inkscape:zoom="7.1911241"
     inkscape:cx="10.829097"
     inkscape:cy="45.21707"
     inkscape:document-units="px"
     inkscape:current-layer="layer1"
     inkscape:document-rotation="0"
     showgrid="false"
     units="px"
     inkscape:window-width="2048"
     inkscape:window-height="1080"
     inkscape:window-x="0"
     inkscape:window-y="0"
     inkscape:window-maximized="1" />
  <metadata
     id="metadata838">
    <rdf:RDF>
      <cc:Work
         rdf:about="">
        <dc:format>image/svg+xml</dc:format>
        <dc:type
           rdf:resource="http://purl.org/dc/dcmitype/StillImage" />
        <dc:title />
      </cc:Work>
    </rdf:RDF>
  </metadata>
  <g
     inkscape:label="Layer 1"
     inkscape:groupmode="layer"
     id="layer1">
    <path
       id="rect869-36-0-1-8-7-9-9-3"
       style="color:#000000;font-style:normal;font-variant:normal;font-weight:normal;font-stretch:normal;font-size:medium;line-height:normal;font-family:sans-serif;font-variant-ligatures:normal;font-variant-position:normal;font-variant-caps:normal;font-variant-numeric:normal;font-variant-alternates:normal;font-variant-east-asian:normal;font-feature-settings:normal;font-variation-settings:normal;text-indent:0;text-align:start;text-decoration:none;text-decoration-line:none;text-decoration-style:solid;text-decoration-color:#000000;letter-spacing:normal;word-spacing:normal;text-transform:none;writing-mode:lr-tb;direction:ltr;text-orientation:mixed;dominant-baseline:auto;baseline-shift:baseline;text-anchor:start;white-space:normal;shape-padding:0;shape-margin:0;inline-size:0;clip-rule:nonzero;display:inline;overflow:visible;visibility:visible;opacity:0.25;isolation:auto;mix-blend-mode:normal;color-interpolation:sRGB;color-interpolation-filters:linearRGB;solid-color:#000000;solid-opacity:1;vector-effect:none;fill:#0c0c10;fill-opacity:1;fill-rule:nonzero;stroke:none;stroke-width:1.00002;stroke-linecap:round;stroke-linejoin:round;stroke-miterlimit:4;stroke-dasharray:none;stroke-dashoffset:2.1875;stroke-opacity:1;color-rendering:auto;image-rendering:auto;shape-rendering:auto;text-rendering:auto;enable-background:accumulate;stop-color:#000000"
       d="m 3.1734496,0.5953206 c -0.6527403,0 -1.1890746,0.536869 -1.1890746,1.1896311 V 15.545272 c 0,0.65278 0.5363343,1.189631 1.1890746,1.189631 h 5.2932173 4.2322991 c 1.239059,0 2.249995,-1.00942 2.249993,-2.248512 V 2.8438296 c 0,-1.239089 -1.010934,-2.248509 -2.249993,-2.248509 H 8.4666669 Z m 0,0.7932611 h 5.2932173 4.2322991 c 0.813051,0 1.455208,0.642189 1.455208,1.455248 V 14.486391 c 3e-6,0.81307 -0.642157,1.455251 -1.455208,1.455251 H 8.4666669 3.1734496 c -0.2267373,0 -0.3963592,-0.16963 -0.3963592,-0.39637 V 1.7849517 c 0,-0.226751 0.1696218,-0.39637 0.3963592,-0.39637 z" />
    <path
       id="rect869-36-0-1-8-2-6"
       style="fill:#e37d7d;fill-opacity:1;stroke-width:1.19063;stroke-linecap:round;stroke-linejoin:round;stroke-dashoffset:2.1875"
       d="m 3.1750001,0.5953206 c -0.4397375,0 -0.7937501,0.35400996 -0.7937501,0.7937501 V 15.147403 c 0,0.43974 0.3540126,0.79375 0.7937501,0.79375 H 8.4666669 12.7 c 1.026055,0 1.852086,-0.826032 1.852084,-1.852081 V 2.4474017 C 14.552084,1.4213506 13.726055,0.5953206 12.7,0.5953206 H 8.4666669 Z" />
    <path
       id="path1204-1-0-9-3-6"
       style="color:#000000;font-style:normal;font-variant:normal;font-weight:normal;font-stretch:normal;font-size:medium;line-height:normal;font-family:sans-serif;font-variant-ligatures:normal;font-variant-position:normal;font-variant-caps:normal;font-variant-numeric:normal;font-variant-alternates:normal;font-variant-east-asian:normal;font-feature-settings:normal;font-variation-settings:normal;text-indent:0;text-align:start;text-decoration:none;text-decoration-line:none;text-decoration-style:solid;text-decoration-color:#000000;letter-spacing:normal;word-spacing:normal;text-transform:none;writing-mode:lr-tb;direction:ltr;text-orientation:mixed;dominant-baseline:auto;baseline-shift:baseline;text-anchor:start;white-space:normal;shape-padding:0;shape-margin:0;inline-size:0;clip-rule:nonzero;display:inline;overflow:visible;visibility:visible;opacity:0.35;isolation:auto;mix-blend-mode:normal;color-interpolation:sRGB;color-interpolation-filters:linearRGB;solid-color:#000000;solid-opacity:1;vector-effect:none;fill:#0c0c0c;fill-opacity:1;fill-rule:nonzero;stroke:none;stroke-width:0;stroke-linecap:round;stroke-linejoin:round;stroke-miterlimit:4;stroke-dasharray:none;stroke-dashoffset:2.1875;stroke-opacity:1;color-rendering:auto;image-rendering:auto;shape-rendering:auto;text-rendering:auto;enable-background:accumulate;stop-color:#000000"
       d="m 9.2650561,4.6303665 c -0.05554,-5.81e-5 -0.110145,0.0019 -0.164332,0.0041 -0.878581,0.03643 -1.745856,0.3740689 -2.4334431,1.003914 -1.375212,1.2597259 -1.643664,3.337119 -0.6345859,4.9053835 1.009049,1.568234 3.00941,2.183504 4.7263259,1.454978 0.287744,-0.122459 0.427106,-0.460588 0.304892,-0.750224 -0.122292,-0.289462 -0.461816,-0.427596 -0.751893,-0.304326 -1.2109179,0.513785 -2.6050069,0.08442 -3.3165929,-1.02148 -0.711596,-1.1059335 -0.522404,-2.5526265 0.447517,-3.4411055 0.969898,-0.888462 2.4241814,-0.947731 3.4643889,-0.142605 0.66748,0.516654 1.030185,1.288679 1.043348,2.08378 v 0.460882 c 0,0.30647 -0.213213,0.519783 -0.468706,0.519783 -0.25549,0 -0.468705,-0.213313 -0.468705,-0.519783 v -0.417996 -0.43143 -0.0057 c 3.8e-5,-0.0036 1.13e-4,-0.0083 0,-0.01188 a 0.1323049,0.13228394 0 0 0 0,-0.0021 c -4e-6,-8.7e-5 -0.0018,-0.0042 -0.0021,-0.0057 3.42e-4,-0.0038 0.0021,-0.0038 0.0021,-0.0078 v -1.041116 c 0,-0.314527 -0.260039,-0.574034 -0.574643,-0.574034 -0.135264,0 -0.247456,0.07131 -0.318327,0.156555 -0.04036,0.04854 -0.05849,0.101228 -0.08371,0.153971 -0.2920935,-0.218284 -0.6115899,-0.419546 -0.9963219,-0.419546 -1.107593,0 -1.97249,1.00252 -1.97249,2.188667 0,1.186137 0.864709,2.1933175 1.97249,2.1933175 0.5398822,-3.4e-5 0.9785719,-0.334198 1.3280839,-0.734206 0.27821,0.327383 0.634162,0.62467 1.113628,0.62467 0.89637,0 1.614889,-0.7550485 1.614889,-1.6657855 v -0.441247 -0.0021 c -4.62e-4,-0.0509 -0.01252,-0.07215 -0.0098,-0.05632 a 0.1323049,0.13228394 0 0 0 -0.0015,-0.0098 l -0.01344,-0.04753 C 13.030369,7.2244564 12.536096,6.1493975 11.61072,5.4331315 10.919283,4.8979244 10.089568,4.6312175 9.2651261,4.6302084 Z m 0,0.265574 c 0.7678019,9.389e-4 1.5392899,0.247569 2.1833299,0.7460899 0.864927,0.669474 1.327131,1.677133 1.361674,2.7125821 a 0.1323049,0.13228394 0 0 0 0.0036,0.02945 l 0.01189,0.04495 c 0.0068,0.03978 0.0055,0.0423 0.0057,0.01137 v 0.443314 c 0,0.772444 -0.601236,1.4002105 -1.349272,1.4002105 -0.418796,0 -0.756588,-0.249045 -1.008208,-0.5781685 a 0.1323049,0.13228394 0 0 0 -0.206706,-0.0015 C 9.9424585,10.11074 9.5178473,10.393463 9.0402661,10.393493 c -0.946847,0 -1.7068731,-0.8692335 -1.7068731,-1.9277425 0,-1.0585161 0.7598861,-1.9230921 1.7068731,-1.9230921 0.354243,0 0.6787854,0.174883 0.9725499,0.419546 a 0.1323049,0.13228394 0 0 0 0.20929,-0.05477 c 0.02939,-0.07809 0.06428,-0.150796 0.101286,-0.195306 0.03701,-0.04451 0.06273,-0.06252 0.115238,-0.06252 0.169162,0 0.309025,0.141457 0.309025,0.310526 v 1.041116 c -7.86e-4,0.0058 -0.0021,0.0075 -0.0021,0.01343 0,1.63e-4 0.0013,0.0073 0.0021,0.01188 v 0.0021 0.437114 0.417996 c 0,0.435259 0.328595,0.785357 0.734323,0.785357 0.405729,0 0.734323,-0.350098 0.734323,-0.785357 v -0.462949 a 0.1323049,0.13228394 0 0 0 0,-0.0015 c -0.01445,-0.872677 -0.414794,-1.72238 -1.146701,-2.288903 -1.1400695,-0.88242 -2.743487,-0.815644 -3.806486,0.158104 -1.062977,0.973722 -1.270409,2.564705 -0.49041,3.7769506 0.780008,1.21224 2.315447,1.685883 3.642672,1.122751 0.155363,-0.06602 0.338221,0.0083 0.40411,0.164304 0.06546,0.155146 -0.0083,0.335791 -0.163815,0.401979 C 9.056023,12.433275 7.195507,11.860297 6.255423,10.399251 5.315319,8.9381805 5.563879,7.0074234 6.845051,5.8338425 c 0.64063,-0.586832 1.449436,-0.901791 2.267562,-0.935712 0.05101,-0.0021 0.101244,-0.0021 0.152445,-0.0021 z m -0.238229,2.2615189 a 0.1323049,0.13228394 0 0 0 -0.10387,0.0527 0.1323049,0.13228394 0 0 0 -0.0015,0.0021 c -0.5356141,0.08095 -0.97105,0.581891 -0.971,1.253472 0,0.728738 0.4929439,1.3123731 1.0919229,1.3123731 0.5984125,0 1.088932,-0.5825031 1.089856,-1.3103062 v -0.0021 c 1.7e-5,-0.0042 2.3e-5,-0.0092 0,-0.01343 -0.0067,-0.68493 -0.4581135,-1.199898 -1.0097569,-1.255538 a 0.1323049,0.13228394 0 0 0 -0.0021,-0.0021 0.1323049,0.13228394 0 0 0 -0.0739,-0.03513 0.1323049,0.13228394 0 0 0 -0.01757,-0.0021 0.1323049,0.13228394 0 0 0 -0.0021,0 z m 0.0021,0.263509 c 5.59e-4,1.1e-6 9.91e-4,1.1e-6 0.0015,0 5.59e-4,-2e-6 0.0015,5e-6 0.0021,0 a 0.1323049,0.13228394 0 0 0 0.0057,0 0.1323049,0.13228394 0 0 0 0.0021,0 c 0,0 0.0018,1.41e-5 0.0041,0 0.4192199,8.281e-4 0.8183614,0.4281761 0.8242394,1.0333651 2.1e-5,0.0038 2.1e-5,0.0076 0,0.01137 0,0.610884 -0.4030784,1.046798 -0.8263064,1.046798 -0.423223,0 -0.828373,-0.435945 -0.828373,-1.046798 -4.6e-5,-0.603944 0.396567,-1.03659 0.814937,-1.044732 z" />
    <rect
       style="opacity:0.25;fill:#0c0c0c;fill-opacity:1;stroke:none;stroke-width:0.79375;stroke-linecap:round;stroke-linejoin:round;stroke-miterlimit:4;stroke-dasharray:none;stroke-dashoffset:2.1875;stroke-opacity:1"
       id="rect2031-7-0-7"
       width="0.39687502"
       height="16.139584"
       x="4.6302085"
       y="0.1984375" />
    <rect
       style="opacity:0.25;fill:#0c0c0c;fill-opacity:1;stroke:none;stroke-width:0.79375;stroke-linecap:round;stroke-linejoin:round;stroke-miterlimit:4;stroke-dasharray:none;stroke-dashoffset:2.1875;stroke-opacity:1"
       id="rect2246-3-8-2-5"
       width="0.39687496"
       height="8.9164572"
       x="17.165096"
       y="-3.4758203"
       rx="0.19843748"
       ry="0.19843748"
       transform="rotate(45)" />
    <rect
       style="opacity:0.25;fill:#0c0c0c;fill-opacity:1;stroke:none;stroke-width:0.79375;stroke-linecap:round;stroke-linejoin:round;stroke-miterlimit:4;stroke-dasharray:none;stroke-dashoffset:2.1875;stroke-opacity:1"
       id="rect2246-8-1-3-3"
       width="0.39687496"
       height="8.9164572"
       x="5.4718394"
       y="6.252986"
       rx="0.19843748"
       ry="0.19843748"
       transform="rotate(-45)" />
    <rect
       style="fill:#d34f4f;fill-opacity:1;stroke:none;stroke-width:0.79375;stroke-linecap:round;stroke-linejoin:round;stroke-miterlimit:4;stroke-dasharray:none;stroke-dashoffset:2.1875;stroke-opacity:1"
       id="rect2029-7-5"
       width="2.3812499"
       height="15.345834"
       x="2.3812499"
       y="0.59533006"
       rx="0.79375005"
       ry="0.79375005" />
    <rect
       style="fill:#3d0f0f;fill-opacity:1;stroke:none;stroke-width:0.79375;stroke-linecap:round;stroke-linejoin:round;stroke-miterlimit:4;stroke-dasharray:none;stroke-dashoffset:2.1875;stroke-opacity:1"
       id="rect2031-5-6-6"
       width="0.39687502"
       height="16.139584"
       x="4.4979167"
       y="0.1984375" />
    <path
       style="fill:#d34f4f;fill-opacity:1;stroke:none;stroke-width:0.793742;stroke-linecap:round;stroke-linejoin:round;stroke-miterlimit:4;stroke-dasharray:none;stroke-dashoffset:2.1875;stroke-opacity:1"
       d="m 9.128086,0.1986206 0.1963679,-1.1e-5 h 0.3875776 l 0.7394895,1.1e-5 2.247402,-1.1e-5 c 1.239277,0 2.250007,1.0095531 2.249996,2.248922 l 3e-6,2.248911 -6e-6,0.926009 6e-6,0.39687 c -3e-6,0.146608 -0.117986,0.264578 -0.264586,0.264578 h -0.264584 c -0.03829,-2.9e-5 -0.07418,-0.009 -0.106965,-0.02331 -0.04067,-0.01209 -0.07991,-0.0308 -0.112147,-0.0631 l -0.04596,-0.046 -0.889352,-0.889328 -3.3791245,-3.379581 -0.8903805,-0.88983904 -0.04546,-0.0455 c -0.03196,-0.032 -0.05081,-0.0708 -0.06305,-0.111109 -0.01479,-0.033 -0.02376,-0.0693 -0.02379,-0.10802196 l 5e-6,-0.26458 c -2e-6,-0.146609 0.117973,-0.265089 0.264581,-0.265089 z"
       id="path1865-3-0-8-8-9-2" />
    <rect
       style="fill:#3e0f0f;fill-opacity:1;stroke:none;stroke-width:0.79375;stroke-linecap:round;stroke-linejoin:round;stroke-miterlimit:4;stroke-dasharray:none;stroke-dashoffset:2.1875;stroke-opacity:1"
       id="rect2246-8-2-9"
       width="0.39687496"
       height="8.9164572"
       x="5.6589036"
       y="6.2528563"
       rx="0.19843748"
       ry="0.19843748"
       transform="rotate(-45)" />
    <path
       style="fill:#d34f4f;fill-opacity:1;stroke:none;stroke-width:0.793742;stroke-linecap:round;stroke-linejoin:round;stroke-miterlimit:4;stroke-dasharray:none;stroke-dashoffset:2.1875;stroke-opacity:1"
       d="m 14.948882,10.51731 3e-6,0.196361 -3e-6,0.38758 -3e-6,0.739489 6e-6,2.2474 c 2e-6,1.239282 -1.009545,2.250012 -2.248914,2.250001 H 10.45106 9.525045 9.128178 c -0.146613,0 -0.264583,-0.11798 -0.264586,-0.26458 v -0.264589 c 3.7e-5,-0.0383 0.009,-0.0742 0.02328,-0.10696 0.01209,-0.0407 0.03082,-0.0799 0.0631,-0.112149 l 0.04597,-0.046 0.8893325,-0.889352 3.3795715,-3.379118 0.889846,-0.890381 0.04548,-0.0455 c 0.03197,-0.032 0.07081,-0.0508 0.111107,-0.0631 0.03302,-0.01479 0.0693,-0.02381 0.108024,-0.02381 h 0.264575 c 0.146611,0 0.265094,0.11797 0.265092,0.264581 z"
       id="path1865-3-0-8-4-2-1" />
    <rect
       style="fill:#3d0f0f;fill-opacity:1;stroke:none;stroke-width:0.79375;stroke-linecap:round;stroke-linejoin:round;stroke-miterlimit:4;stroke-dasharray:none;stroke-dashoffset:2.1875;stroke-opacity:1"
       id="rect2246-3-89-2"
       width="0.39687496"
       height="8.9164572"
       x="17.352213"
       y="-3.475807"
       rx="0.19843748"
       ry="0.19843748"
       transform="rotate(45)" />
    <path
       id="rect869-36-0-1-8-7-9-2-0-7-7"
       style="color:#000000;font-style:normal;font-variant:normal;font-weight:normal;font-stretch:normal;font-size:medium;line-height:normal;font-family:sans-serif;font-variant-ligatures:normal;font-variant-position:normal;font-variant-caps:normal;font-variant-numeric:normal;font-variant-alternates:normal;font-variant-east-asian:normal;font-feature-settings:normal;font-variation-settings:normal;text-indent:0;text-align:start;text-decoration:none;text-decoration-line:none;text-decoration-style:solid;text-decoration-color:#000000;letter-spacing:normal;word-spacing:normal;text-transform:none;writing-mode:lr-tb;direction:ltr;text-orientation:mixed;dominant-baseline:auto;baseline-shift:baseline;text-anchor:start;white-space:normal;shape-padding:0;shape-margin:0;inline-size:0;clip-rule:nonzero;display:inline;overflow:visible;visibility:visible;isolation:auto;mix-blend-mode:normal;color-interpolation:sRGB;color-interpolation-filters:linearRGB;solid-color:#000000;solid-opacity:1;vector-effect:none;fill:#5a1616;fill-opacity:1;fill-rule:nonzero;stroke:none;stroke-width:1.00002;stroke-linecap:round;stroke-linejoin:round;stroke-miterlimit:4;stroke-dasharray:none;stroke-dashoffset:2.1875;stroke-opacity:1;color-rendering:auto;image-rendering:auto;shape-rendering:auto;text-rendering:auto;enable-background:accumulate;stop-color:#000000"
       d="m 3.1734496,0.1984516 c -0.6527403,0 -1.1890746,0.536868 -1.1890746,1.18963 V 15.148403 c 0,0.65278 0.5363343,1.189627 1.1890746,1.189627 h 5.2932144 4.232299 c 1.23906,0 2.250001,-1.00942 2.250001,-2.248508 V 2.4469597 c 0,-1.2390881 -1.010941,-2.2485081 -2.250001,-2.2485081 H 8.466664 Z m 0,0.79325996 h 5.2932144 4.232299 c 0.813052,0 1.455211,0.64218904 1.455211,1.45524814 V 14.089522 c 0,0.813069 -0.642159,1.45525 -1.455211,1.45525 H 8.466664 3.1734496 c -0.2267373,0 -0.3963592,-0.169629 -0.3963592,-0.396369 V 1.3880816 c 0,-0.2267509 0.1696218,-0.39637004 0.3963592,-0.39637004 z" />
    <path
       id="path1204-1-0"
       style="color:#000000;font-style:normal;font-variant:normal;font-weight:normal;font-stretch:normal;font-size:medium;line-height:normal;font-family:sans-serif;font-variant-ligatures:normal;font-variant-position:normal;font-variant-caps:normal;font-variant-numeric:normal;font-variant-alternates:normal;font-variant-east-asian:normal;font-feature-settings:normal;font-variation-settings:normal;text-indent:0;text-align:start;text-decoration:none;text-decoration-line:none;text-decoration-style:solid;text-decoration-color:#000000;letter-spacing:normal;word-spacing:normal;text-transform:none;writing-mode:lr-tb;direction:ltr;text-orientation:mixed;dominant-baseline:auto;baseline-shift:baseline;text-anchor:start;white-space:normal;shape-padding:0;shape-margin:0;inline-size:0;clip-rule:nonzero;display:inline;overflow:visible;visibility:visible;isolation:auto;mix-blend-mode:normal;color-interpolation:sRGB;color-interpolation-filters:linearRGB;solid-color:#000000;solid-opacity:1;vector-effect:none;fill:#fdfdfd;fill-opacity:1;fill-rule:nonzero;stroke:none;stroke-width:0.246941;stroke-linecap:round;stroke-linejoin:round;stroke-miterlimit:4;stroke-dasharray:none;stroke-dashoffset:2.1875;stroke-opacity:1;color-rendering:auto;image-rendering:auto;shape-rendering:auto;text-rendering:auto;enable-background:accumulate;stop-color:#000000"
       d="M 9.2655002,4.6303635 C 9.2121323,4.6303075 9.159413,4.6315735 9.106814,4.6337236 8.2584602,4.6689008 7.4209732,4.9951514 6.7568652,5.6035863 5.4286733,6.8204319 5.1697031,8.8241599 6.144294,10.339067 c 0.9745666,1.51488 2.9046608,2.109116 4.562943,1.405358 0.221634,-0.09434 0.329203,-0.353399 0.235364,-0.575824 -0.09409,-0.222743 -0.355108,-0.330016 -0.577828,-0.235353 C 9.0957016,11.471831 7.6304806,11.020888 6.8846835,9.8616315 6.1388862,8.7023592 6.3365897,7.1835108 7.3530387,6.2522637 8.3694869,5.3210109 9.8997525,5.2574007 10.989891,6.1013086 c 0.699693,0.5416747 1.080136,1.353112 1.09394,2.1871331 V 8.75143 c 0,0.3709244 -0.270873,0.6525171 -0.601484,0.6525171 -0.330609,0 -0.601482,-0.2815926 -0.601482,-0.6525171 V 8.3342561 7.8968299 a 0.12349147,0.12347536 0 0 0 0,-0.00775 c -1.23e-4,-0.00252 -0.0024,-0.00476 -0.0024,-0.00728 0,-0.00569 0.0024,-0.00775 0.0024,-0.012544 V 6.8265816 c 0,-0.2418373 -0.199459,-0.4412837 -0.441342,-0.4412837 -0.187776,0 -0.278281,0.1761896 -0.341005,0.3429014 C 9.7920355,6.4729041 9.4390538,6.2763016 9.0412257,6.2763016 c -1.0272895,0 -1.8396382,0.9353697 -1.8396382,2.0578799 0,1.1225007 0.8123244,2.0598065 1.8396382,2.0598065 0.5297202,-3.4e-5 0.9878763,-0.313221 1.3288573,-0.7402964 0.266972,0.3492584 0.640798,0.6308184 1.112264,0.6308184 0.822203,0 1.482236,-0.6914326 1.482236,-1.5331565 V 8.3086231 c 7.4e-5,-0.012003 -0.0057,-0.023016 -0.0077,-0.034729 l -0.01457,-0.05642 C 12.906553,7.14536 12.427236,6.0997574 11.529543,5.4048101 10.861805,4.887865 10.061554,4.6312437 9.2654309,4.6302702 Z M 9.0286808,7.1565357 a 0.12349147,0.12347536 0 0 0 0.00243,0 c 0.00345,-1.96e-5 0.00616,-2.43e-5 0.00915,0 0,7.5e-6 0.00271,7.5e-6 0.00392,0 0.5061871,0.00103 0.9505136,0.5010245 0.9569582,1.1647014 2.4e-5,0.00429 2.4e-5,0.00868 0,0.013011 0,0.6699294 -0.4477835,1.1791698 -0.9588846,1.1791698 -0.511101,0 -0.9588856,-0.5092675 -0.9588856,-1.1791698 -4.94e-5,-0.6634253 0.4404748,-1.1692703 0.9463408,-1.1777226 z" />
  </g>
</svg>
