<?xml version="1.0" encoding="UTF-8" standalone="no"?>
<svg
   xmlns:dc="http://purl.org/dc/elements/1.1/"
   xmlns:cc="http://creativecommons.org/ns#"
   xmlns:rdf="http://www.w3.org/1999/02/22-rdf-syntax-ns#"
   xmlns:svg="http://www.w3.org/2000/svg"
   xmlns="http://www.w3.org/2000/svg"
   xmlns:sodipodi="http://sodipodi.sourceforge.net/DTD/sodipodi-0.dtd"
   xmlns:inkscape="http://www.inkscape.org/namespaces/inkscape"
   width="64"
   height="64"
   viewBox="0 0 64 64"
   version="1.1"
   id="svg6374"
   inkscape:version="1.0.2 (e86c870879, 2021-01-15)"
   sodipodi:docname="slideshow-pause.svg">
  <defs
     id="defs6368" />
  <sodipodi:namedview
     id="base"
     pagecolor="#cecece"
     bordercolor="#666666"
     borderopacity="1.0"
     inkscape:pageopacity="0"
     inkscape:pageshadow="2"
     inkscape:zoom="4.9704778"
     inkscape:cx="23.572436"
     inkscape:cy="51.052774"
     inkscape:document-units="px"
     inkscape:current-layer="layer1"
     inkscape:document-rotation="0"
     showgrid="false"
     units="px"
     inkscape:window-width="1500"
     inkscape:window-height="970"
     inkscape:window-x="68"
     inkscape:window-y="56"
     inkscape:window-maximized="0" />
  <metadata
     id="metadata6371">
    <rdf:RDF>
      <cc:Work
         rdf:about="">
        <dc:format>image/svg+xml</dc:format>
        <dc:type
           rdf:resource="http://purl.org/dc/dcmitype/StillImage" />
        <dc:title></dc:title>
      </cc:Work>
    </rdf:RDF>
  </metadata>
  <g
     inkscape:label="Layer 1"
     inkscape:groupmode="layer"
     id="layer1">
    <path
       id="rect896-3-0-6-1-3-5-8-3-6"
       style="opacity:0.15;fill:#0c0c0c;fill-opacity:1;stroke-width:0;stroke-linecap:round;stroke-linejoin:round;stroke-dashoffset:2.1875"
       d="m 16.700042,5.7999983 c -6.59269,0 -11.8999998,5.3073997 -11.8999998,11.9000097 v 30.59999 c 0,6.5926 5.3073098,11.9 11.8999998,11.9 h 30.6 c 6.59251,0 11.9,-5.3074 11.9,-11.9 v -30.59999 c 0,-6.59261 -5.30749,-11.9000097 -11.9,-11.9000097 z m 0,1.7 h 30.6 c 5.65071,0 10.2,4.5491997 10.2,10.2000097 v 30.59999 c 0,5.6508 -4.54929,10.2 -10.2,10.2 h -30.6 c -5.65089,0 -10.1999998,-4.5492 -10.1999998,-10.2 v -30.59999 c 0,-5.65081 4.5491098,-10.2000097 10.1999998,-10.2000097 z" />
    <rect
       style="fill:#a0a0a2;fill-opacity:1;stroke-width:0;stroke-linecap:round;stroke-linejoin:round;stroke-dashoffset:2.1875"
       id="rect896-3-0-6-6-9"
       width="54.400002"
       height="54.400002"
       x="4.8000002"
       y="4.8000002"
       rx="11.9"
       ry="11.9" />
    <path
       id="rect896-3-0-6-1-2-2-8-4"
       style="opacity:0.85;fill:#474748;fill-opacity:1;stroke-width:0;stroke-linecap:round;stroke-linejoin:round;stroke-dashoffset:2.1875"
       d="m 16.700102,4.8000083 c -6.59269,0 -11.8999998,5.3073997 -11.8999998,11.9000097 v 30.6 c 0,6.59259 5.3073098,11.9 11.8999998,11.9 h 30.6 c 6.59251,0 11.9,-5.30741 11.9,-11.9 v -30.6 c 0,-6.59261 -5.30749,-11.9000097 -11.9,-11.9000097 z m 0,0.85 h 30.6 c 6.1217,0 11.05,4.9282997 11.05,11.0500097 v 30.6 c 0,6.1217 -4.9283,11.04999 -11.05,11.04999 h -30.6 c -6.1217,0 -11.0499998,-4.92829 -11.0499998,-11.04999 v -30.6 c 0,-6.12171 4.9282998,-11.0500097 11.0499998,-11.0500097 z" />
    <path
       id="rect896-3-0-6-1-3-5-8-7"
       style="opacity:0.15;fill:#0c0c0c;fill-opacity:1;stroke-width:0;stroke-linecap:round;stroke-linejoin:round;stroke-dashoffset:2.1875"
       d="m 16.700102,4.8000083 c -6.59269,0 -11.8999998,5.3073997 -11.8999998,11.9000097 v 30.6 c 0,6.59259 5.3073098,11.9 11.8999998,11.9 h 30.6 c 6.59251,0 11.9,-5.30741 11.9,-11.9 v -30.6 c 0,-6.59261 -5.30749,-11.9000097 -11.9,-11.9000097 z m 0,1.7 h 30.6 c 5.65071,0 10.2,4.5491997 10.2,10.2000097 v 30.6 c 0,5.6508 -4.54929,10.2 -10.2,10.2 h -30.6 c -5.65089,0 -10.1999998,-4.5492 -10.1999998,-10.2 v -30.6 c 0,-5.65081 4.5491098,-10.2000097 10.1999998,-10.2000097 z" />
    <rect
       style="opacity:0.15;fill:#0c0c10;fill-opacity:1;stroke:none;stroke-width:4.25001;stroke-dashoffset:2.1875"
       id="rect1233-6-1-9-7-9"
       width="11.9"
       height="35.700001"
       x="36.250134"
       y="16.149998"
       rx="2.5500002"
       ry="2.5500002" />
    <rect
       style="opacity:0.15;fill:#0c0c10;fill-opacity:1;stroke:none;stroke-width:4.25001;stroke-dashoffset:2.1875"
       id="rect1233-6-1-9-7-8-2"
       width="11.9"
       height="35.700001"
       x="15.85011"
       y="16.149998"
       rx="2.5500002"
       ry="2.5500002" />
    <rect
       style="fill:#fdfcfb;fill-opacity:1;stroke:none;stroke-width:4.25001;stroke-dashoffset:2.1875"
       id="rect1233-6-1-9-0"
       width="11.9"
       height="35.700001"
       x="15.85011"
       y="14.150014"
       rx="2.5500002"
       ry="2.5500002" />
    <rect
       style="fill:#fdfcfb;fill-opacity:1;stroke:none;stroke-width:4.25001;stroke-dashoffset:2.1875"
       id="rect1233-7-7-2-3-5"
       width="11.9"
       height="35.700001"
       x="36.250134"
       y="14.150014"
       rx="2.5500002"
       ry="2.5500002" />
    <path
       id="rect1233-6-1-9-4-5-9"
       style="color:#000000;font-style:normal;font-variant:normal;font-weight:normal;font-stretch:normal;font-size:medium;line-height:normal;font-family:sans-serif;font-variant-ligatures:normal;font-variant-position:normal;font-variant-caps:normal;font-variant-numeric:normal;font-variant-alternates:normal;font-variant-east-asian:normal;font-feature-settings:normal;font-variation-settings:normal;text-indent:0;text-align:start;text-decoration:none;text-decoration-line:none;text-decoration-style:solid;text-decoration-color:#000000;letter-spacing:normal;word-spacing:normal;text-transform:none;writing-mode:lr-tb;direction:ltr;text-orientation:mixed;dominant-baseline:auto;baseline-shift:baseline;text-anchor:start;white-space:normal;shape-padding:0;shape-margin:0;inline-size:0;clip-rule:nonzero;display:inline;overflow:visible;visibility:visible;opacity:0.6;isolation:auto;mix-blend-mode:normal;color-interpolation:sRGB;color-interpolation-filters:linearRGB;solid-color:#000000;solid-opacity:1;vector-effect:none;fill:#0c0c0c;fill-opacity:1;fill-rule:nonzero;stroke:none;stroke-width:0.849999;stroke-linecap:round;stroke-linejoin:round;stroke-miterlimit:4;stroke-dasharray:none;stroke-dashoffset:2.1875;stroke-opacity:1;color-rendering:auto;image-rendering:auto;shape-rendering:auto;text-rendering:auto;enable-background:accumulate;stop-color:#000000"
       d="m 18.400012,13.724998 c -1.64075,0 -2.975,1.33419 -2.975,2.975 v 30.6 c 0,1.6408 1.33425,2.975 2.975,2.975 h 6.8 c 1.64084,0 2.975,-1.3342 2.975,-2.975 v -30.6 c 0,-1.64081 -1.33416,-2.975 -2.975,-2.975 z m 0,0.85 h 6.8 c 1.18464,0 2.125,0.9404 2.125,2.125 v 30.6 c 0,1.18459 -0.94036,2.125 -2.125,2.125 h -6.8 c -1.18456,0 -2.125,-0.94041 -2.125,-2.125 v -30.6 c 0,-1.1846 0.94044,-2.125 2.125,-2.125 z" />
    <path
       id="rect1233-6-1-9-4-5-0-4"
       style="color:#000000;font-style:normal;font-variant:normal;font-weight:normal;font-stretch:normal;font-size:medium;line-height:normal;font-family:sans-serif;font-variant-ligatures:normal;font-variant-position:normal;font-variant-caps:normal;font-variant-numeric:normal;font-variant-alternates:normal;font-variant-east-asian:normal;font-feature-settings:normal;font-variation-settings:normal;text-indent:0;text-align:start;text-decoration:none;text-decoration-line:none;text-decoration-style:solid;text-decoration-color:#000000;letter-spacing:normal;word-spacing:normal;text-transform:none;writing-mode:lr-tb;direction:ltr;text-orientation:mixed;dominant-baseline:auto;baseline-shift:baseline;text-anchor:start;white-space:normal;shape-padding:0;shape-margin:0;inline-size:0;clip-rule:nonzero;display:inline;overflow:visible;visibility:visible;opacity:0.6;isolation:auto;mix-blend-mode:normal;color-interpolation:sRGB;color-interpolation-filters:linearRGB;solid-color:#000000;solid-opacity:1;vector-effect:none;fill:#0c0c0c;fill-opacity:1;fill-rule:nonzero;stroke:none;stroke-width:0.849999;stroke-linecap:round;stroke-linejoin:round;stroke-miterlimit:4;stroke-dasharray:none;stroke-dashoffset:2.1875;stroke-opacity:1;color-rendering:auto;image-rendering:auto;shape-rendering:auto;text-rendering:auto;enable-background:accumulate;stop-color:#000000"
       d="m 38.800012,13.724998 c -1.64076,0 -2.975,1.33419 -2.975,2.975 v 30.6 c 0,1.6408 1.33424,2.975 2.975,2.975 h 6.8 c 1.64084,0 2.975,-1.3342 2.975,-2.975 v -30.6 c 0,-1.64081 -1.33416,-2.975 -2.975,-2.975 z m 0,0.85 h 6.8 c 1.18464,0 2.125,0.9404 2.125,2.125 v 30.6 c 0,1.18459 -0.94036,2.125 -2.125,2.125 h -6.8 c -1.18456,0 -2.125,-0.94041 -2.125,-2.125 v -30.6 c 0,-1.1846 0.94044,-2.125 2.125,-2.125 z" />
  </g>
</svg>
