<?xml version="1.0" encoding="UTF-8" standalone="no"?>
<svg
   xmlns:dc="http://purl.org/dc/elements/1.1/"
   xmlns:cc="http://creativecommons.org/ns#"
   xmlns:rdf="http://www.w3.org/1999/02/22-rdf-syntax-ns#"
   xmlns:svg="http://www.w3.org/2000/svg"
   xmlns="http://www.w3.org/2000/svg"
   xmlns:sodipodi="http://sodipodi.sourceforge.net/DTD/sodipodi-0.dtd"
   xmlns:inkscape="http://www.inkscape.org/namespaces/inkscape"
   width="64"
   height="64"
   viewBox="0 0 16.933333 16.933334"
   version="1.1"
   id="svg841"
   inkscape:version="1.0.2 (e86c870879, 2021-01-15)"
   sodipodi:docname="vc-checkout-24.svg">
  <defs
     id="defs835" />
  <sodipodi:namedview
     id="base"
     pagecolor="#c4c4c4"
     bordercolor="#666666"
     borderopacity="1.0"
     inkscape:pageopacity="0"
     inkscape:pageshadow="2"
     inkscape:zoom="2.8903394"
     inkscape:cx="46.372831"
     inkscape:cy="36.927888"
     inkscape:document-units="px"
     inkscape:current-layer="layer1"
     inkscape:document-rotation="0"
     showgrid="false"
     units="px"
     inkscape:window-width="2048"
     inkscape:window-height="1080"
     inkscape:window-x="0"
     inkscape:window-y="0"
     inkscape:window-maximized="1" />
  <metadata
     id="metadata838">
    <rdf:RDF>
      <cc:Work
         rdf:about="">
        <dc:format>image/svg+xml</dc:format>
        <dc:type
           rdf:resource="http://purl.org/dc/dcmitype/StillImage" />
        <dc:title />
      </cc:Work>
    </rdf:RDF>
  </metadata>
  <g
     inkscape:label="Layer 1"
     inkscape:groupmode="layer"
     id="layer1">
    <path
       id="rect954-7-0-7-3-0-0-5-1-3-4-5-0-1-4-4-0"
       style="color:#000000;font-style:normal;font-variant:normal;font-weight:normal;font-stretch:normal;font-size:medium;line-height:normal;font-family:sans-serif;font-variant-ligatures:normal;font-variant-position:normal;font-variant-caps:normal;font-variant-numeric:normal;font-variant-alternates:normal;font-variant-east-asian:normal;font-feature-settings:normal;font-variation-settings:normal;text-indent:0;text-align:start;text-decoration:none;text-decoration-line:none;text-decoration-style:solid;text-decoration-color:#000000;letter-spacing:normal;word-spacing:normal;text-transform:none;writing-mode:lr-tb;direction:ltr;text-orientation:mixed;dominant-baseline:auto;baseline-shift:baseline;text-anchor:start;white-space:normal;shape-padding:0;shape-margin:0;inline-size:0;clip-rule:nonzero;display:inline;overflow:visible;visibility:visible;opacity:0.15;isolation:auto;mix-blend-mode:normal;color-interpolation:sRGB;color-interpolation-filters:linearRGB;solid-color:#000000;solid-opacity:1;vector-effect:none;fill:#0c0c0c;fill-opacity:1;fill-rule:nonzero;stroke:none;stroke-width:0.264583;stroke-linecap:round;stroke-linejoin:round;stroke-miterlimit:4;stroke-dasharray:none;stroke-dashoffset:2.1875;stroke-opacity:1;color-rendering:auto;image-rendering:auto;shape-rendering:auto;text-rendering:auto;enable-background:accumulate;stop-color:#000000"
       d="m 1.4552084,2.6458334 c -0.65274296,0 -1.19062506,0.5378979 -1.19062506,1.190625 V 13.890625 c 0,0.652754 0.5378821,1.190625 1.19062506,1.190625 H 11.509375 c 0.652762,0 1.190633,-0.537871 1.190633,-1.190625 V 3.8364584 c 0,-0.6527271 -0.537871,-1.190625 -1.190633,-1.190625 z m 0,0.79375 H 11.509375 c 0.226722,0 0.396875,0.1701536 0.396875,0.396875 V 13.890625 c 0,0.226748 -0.170153,0.396875 -0.396875,0.396875 H 1.4552084 c -0.2267347,0 -0.396875,-0.170127 -0.396875,-0.396875 V 3.8364584 c 0,-0.2267214 0.1701403,-0.396875 0.396875,-0.396875 z" />
    <path
       id="rect954-7-0-7-3-0-0-5-1-3-4-5-0-6-6-5"
       style="color:#000000;font-style:normal;font-variant:normal;font-weight:normal;font-stretch:normal;font-size:medium;line-height:normal;font-family:sans-serif;font-variant-ligatures:normal;font-variant-position:normal;font-variant-caps:normal;font-variant-numeric:normal;font-variant-alternates:normal;font-variant-east-asian:normal;font-feature-settings:normal;font-variation-settings:normal;text-indent:0;text-align:start;text-decoration:none;text-decoration-line:none;text-decoration-style:solid;text-decoration-color:#000000;letter-spacing:normal;word-spacing:normal;text-transform:none;writing-mode:lr-tb;direction:ltr;text-orientation:mixed;dominant-baseline:auto;baseline-shift:baseline;text-anchor:start;white-space:normal;shape-padding:0;shape-margin:0;inline-size:0;clip-rule:nonzero;display:inline;overflow:visible;visibility:visible;opacity:0.95;isolation:auto;mix-blend-mode:normal;color-interpolation:sRGB;color-interpolation-filters:linearRGB;solid-color:#000000;solid-opacity:1;vector-effect:none;fill:#721d5c;fill-opacity:1;fill-rule:nonzero;stroke:none;stroke-width:0.264583;stroke-linecap:round;stroke-linejoin:round;stroke-miterlimit:4;stroke-dasharray:none;stroke-dashoffset:2.1875;stroke-opacity:1;color-rendering:auto;image-rendering:auto;shape-rendering:auto;text-rendering:auto;enable-background:accumulate;stop-color:#000000"
       d="m 1.4552084,2.2489584 c -0.65274296,0 -1.19062506,0.5378979 -1.19062506,1.190625 V 13.49375 c 0,0.652754 0.5378821,1.190625 1.19062506,1.190625 H 11.509375 C 12.162129,14.684375 12.7,14.146504 12.7,13.49375 V 3.4395834 c 0,-0.6527271 -0.537871,-1.190625 -1.190625,-1.190625 z m 0,0.79375 H 11.509375 c 0.226722,0 0.396875,0.1701536 0.396875,0.396875 V 13.49375 c 0,0.226748 -0.170153,0.396875 -0.396875,0.396875 H 1.4552084 c -0.2267347,0 -0.396875,-0.170127 -0.396875,-0.396875 V 3.4395834 c 0,-0.2267214 0.1701403,-0.396875 0.396875,-0.396875 z" />
    <rect
       style="fill:#fbfaf9;fill-opacity:1;stroke-width:0.130969;stroke-linecap:round;stroke-linejoin:round;stroke-miterlimit:4;stroke-dasharray:none;stroke-dashoffset:2.1875"
       id="rect954-7-0-7-3-0-0-5-1-3-4-9-2-6"
       width="11.641667"
       height="11.641667"
       x="0.66145849"
       y="2.6458657"
       rx="0.79375005"
       ry="0.79375005" />
    <path
       id="path1113-1-0-6-8-3-2-5-4-0-7-1-1-9-4-3-5"
       style="color:#000000;font-style:normal;font-variant:normal;font-weight:normal;font-stretch:normal;font-size:medium;line-height:normal;font-family:sans-serif;font-variant-ligatures:normal;font-variant-position:normal;font-variant-caps:normal;font-variant-numeric:normal;font-variant-alternates:normal;font-variant-east-asian:normal;font-feature-settings:normal;font-variation-settings:normal;text-indent:0;text-align:start;text-decoration:none;text-decoration-line:none;text-decoration-style:solid;text-decoration-color:#000000;letter-spacing:normal;word-spacing:normal;text-transform:none;writing-mode:lr-tb;direction:ltr;text-orientation:mixed;dominant-baseline:auto;baseline-shift:baseline;text-anchor:start;white-space:normal;shape-padding:0;shape-margin:0;inline-size:0;clip-rule:nonzero;display:inline;overflow:visible;visibility:visible;opacity:0.075;isolation:auto;mix-blend-mode:normal;color-interpolation:sRGB;color-interpolation-filters:linearRGB;solid-color:#000000;solid-opacity:1;vector-effect:none;fill:#0c0c0c;fill-opacity:1;fill-rule:nonzero;stroke:none;stroke-width:0.335492;stroke-linecap:round;stroke-linejoin:round;stroke-miterlimit:4;stroke-dasharray:none;stroke-dashoffset:0;stroke-opacity:1;color-rendering:auto;image-rendering:auto;shape-rendering:auto;text-rendering:auto;enable-background:accumulate;stop-color:#000000"
       d="m 16.66875,8.9927909 c 0,0.1598877 -0.07231,0.3199606 -0.217013,0.4211637 l -5.320173,3.7209944 c -0.09045,0.06331 -0.199568,0.09636 -0.310971,0.09411 -0.283075,-0.0058 -0.510151,-0.239765 -0.510114,-0.515249 V 11.56647 10.677444 H 4.6290575 c -0.361569,0 -0.6603074,-0.293026 -0.6603074,-0.647647 V 7.9564444 c 0,-0.3546211 0.2987384,-0.6476471 0.6603074,-0.6476471 H 10.310479 V 6.4197443 5.2724316 c 1.54e-4,-0.3990446 0.488321,-0.65405 0.821085,-0.4211638 l 5.320173,3.7210207 c 0.144705,0.1012032 0.217013,0.2606411 0.217013,0.4205024 z m -0.502181,0 c 0,-0.00529 -0.003,-0.010054 -0.0099,-0.014817 l -5.320201,-3.720359 c -0.02045,-0.014288 -0.01786,-0.016669 -0.01786,0.014817 V 6.4197443 7.5579819 A 0.25409161,0.2492172 0 0 1 10.56454,7.8071664 H 4.6290707 c -0.088852,0 -0.1521777,0.062124 -0.1521777,0.149278 v 2.0733546 c 0,0.08713 0.063325,0.149251 0.1521777,0.149251 h 5.9354823 a 0.25409161,0.2492172 0 0 1 0.254064,0.249185 v 1.138237 1.147313 c 0,0.01429 0.0047,0.01746 0.01193,0.01746 0.0016,5.3e-5 0.0038,-2.65e-4 0.006,-0.0026 L 16.15672,9.0076505 c 0.0069,-0.00476 0.0099,-0.010319 0.0099,-0.01561 z" />
    <path
       id="path1113-1-0-6-8-3-2-5-4-3-4-44-1-1"
       style="color:#000000;font-style:normal;font-variant:normal;font-weight:normal;font-stretch:normal;font-size:medium;line-height:normal;font-family:sans-serif;font-variant-ligatures:normal;font-variant-position:normal;font-variant-caps:normal;font-variant-numeric:normal;font-variant-alternates:normal;font-variant-east-asian:normal;font-feature-settings:normal;font-variation-settings:normal;text-indent:0;text-align:start;text-decoration:none;text-decoration-line:none;text-decoration-style:solid;text-decoration-color:#000000;letter-spacing:normal;word-spacing:normal;text-transform:none;writing-mode:lr-tb;direction:ltr;text-orientation:mixed;dominant-baseline:auto;baseline-shift:baseline;text-anchor:start;white-space:normal;shape-padding:0;shape-margin:0;inline-size:0;clip-rule:nonzero;display:inline;overflow:visible;visibility:visible;isolation:auto;mix-blend-mode:normal;color-interpolation:sRGB;color-interpolation-filters:linearRGB;solid-color:#000000;solid-opacity:1;vector-effect:none;fill:#e187ca;fill-opacity:1;fill-rule:nonzero;stroke:none;stroke-width:0;stroke-linecap:round;stroke-linejoin:round;stroke-miterlimit:4;stroke-dasharray:none;stroke-dashoffset:0;stroke-opacity:1;color-rendering:auto;image-rendering:auto;shape-rendering:auto;text-rendering:auto;enable-background:accumulate;stop-color:#000000"
       d="m 4.2227501,9.50259 c 0,0.220715 0.1812581,0.39841 0.4064053,0.39841 h 5.9334536 v 1.136914 1.146995 a 0.26648543,0.26602746 0 0 0 0.261146,0.266013 0.26648543,0.26602746 0 0 0 0.158274,-0.0481 l 5.319096,-3.7183746 a 0.26648543,0.26602746 0 0 0 0,-0.4358217 L 10.982029,4.5305134 a 0.26648543,0.26602746 0 0 0 -0.41942,0.2177521 V 5.895102 7.0323341 H 4.6291581 c -0.2251472,0 -0.4064053,0.1777207 -0.4064053,0.3984361 z" />
    <path
       id="path1113-1-0-6-8-3-2-5-4-0-7-1-7-4-7-10"
       style="color:#000000;font-style:normal;font-variant:normal;font-weight:normal;font-stretch:normal;font-size:medium;line-height:normal;font-family:sans-serif;font-variant-ligatures:normal;font-variant-position:normal;font-variant-caps:normal;font-variant-numeric:normal;font-variant-alternates:normal;font-variant-east-asian:normal;font-feature-settings:normal;font-variation-settings:normal;text-indent:0;text-align:start;text-decoration:none;text-decoration-line:none;text-decoration-style:solid;text-decoration-color:#000000;letter-spacing:normal;word-spacing:normal;text-transform:none;writing-mode:lr-tb;direction:ltr;text-orientation:mixed;dominant-baseline:auto;baseline-shift:baseline;text-anchor:start;white-space:normal;shape-padding:0;shape-margin:0;inline-size:0;clip-rule:nonzero;display:inline;overflow:visible;visibility:visible;isolation:auto;mix-blend-mode:normal;color-interpolation:sRGB;color-interpolation-filters:linearRGB;solid-color:#000000;solid-opacity:1;vector-effect:none;fill:#721d5c;fill-opacity:1;fill-rule:nonzero;stroke:none;stroke-width:0.335492;stroke-linecap:round;stroke-linejoin:round;stroke-miterlimit:4;stroke-dasharray:none;stroke-dashoffset:0;stroke-opacity:1;color-rendering:auto;image-rendering:auto;shape-rendering:auto;text-rendering:auto;enable-background:accumulate;stop-color:#000000"
       d="m 16.66875,8.4636242 c 0,0.1598877 -0.07231,0.3199606 -0.217013,0.4211637 l -5.320173,3.7209941 c -0.09045,0.06332 -0.199568,0.09636 -0.310971,0.09411 -0.283075,-0.0058 -0.510151,-0.239765 -0.510114,-0.515249 V 11.037306 10.148279 H 4.6290575 c -0.361569,0 -0.6603074,-0.293026 -0.6603074,-0.6476469 V 7.4272777 c 0,-0.3546211 0.2987384,-0.6476471 0.6603074,-0.6476471 H 10.310479 V 5.8905776 4.7432649 c 1.54e-4,-0.3990446 0.488321,-0.65405 0.821085,-0.4211637 l 5.320173,3.7210207 c 0.144705,0.1012031 0.217013,0.260641 0.217013,0.4205023 z m -0.502181,0 c 0,-0.00529 -0.003,-0.010054 -0.0099,-0.014817 l -5.320201,-3.720359 c -0.02045,-0.014288 -0.01786,-0.016669 -0.01786,0.014817 V 5.8905776 7.0288152 A 0.25409161,0.2492172 0 0 1 10.56454,7.2779998 H 4.6290707 c -0.088852,0 -0.1521777,0.062124 -0.1521777,0.1492779 v 2.0733544 c 0,0.087127 0.063325,0.1492519 0.1521777,0.1492519 h 5.9354823 a 0.25409161,0.2492172 0 0 1 0.254064,0.249184 v 1.138238 1.147312 c 0,0.01429 0.0047,0.01746 0.01193,0.01746 0.0016,5.3e-5 0.0038,-2.65e-4 0.006,-0.0026 L 16.15672,8.4784838 c 0.0069,-0.00476 0.0099,-0.010319 0.0099,-0.01561 z" />
  </g>
</svg>
