<?xml version="1.0" encoding="UTF-8" standalone="no"?>
<svg
   xmlns:dc="http://purl.org/dc/elements/1.1/"
   xmlns:cc="http://creativecommons.org/ns#"
   xmlns:rdf="http://www.w3.org/1999/02/22-rdf-syntax-ns#"
   xmlns:svg="http://www.w3.org/2000/svg"
   xmlns="http://www.w3.org/2000/svg"
   xmlns:sodipodi="http://sodipodi.sourceforge.net/DTD/sodipodi-0.dtd"
   xmlns:inkscape="http://www.inkscape.org/namespaces/inkscape"
   width="64"
   height="64"
   viewBox="0 0 64 64"
   version="1.1"
   id="svg6374"
   inkscape:version="1.0.2 (e86c870879, 2021-01-15)"
   sodipodi:docname="user-trash.svg">
  <defs
     id="defs6368" />
  <sodipodi:namedview
     id="base"
     pagecolor="#cecece"
     bordercolor="#666666"
     borderopacity="1.0"
     inkscape:pageopacity="0"
     inkscape:pageshadow="2"
     inkscape:zoom="6.1502216"
     inkscape:cx="6.1967846"
     inkscape:cy="35.167766"
     inkscape:document-units="px"
     inkscape:current-layer="layer1"
     inkscape:document-rotation="0"
     showgrid="false"
     units="px"
     inkscape:window-width="1500"
     inkscape:window-height="970"
     inkscape:window-x="68"
     inkscape:window-y="56"
     inkscape:window-maximized="0" />
  <metadata
     id="metadata6371">
    <rdf:RDF>
      <cc:Work
         rdf:about="">
        <dc:format>image/svg+xml</dc:format>
        <dc:type
           rdf:resource="http://purl.org/dc/dcmitype/StillImage" />
        <dc:title></dc:title>
      </cc:Work>
    </rdf:RDF>
  </metadata>
  <g
     inkscape:label="Layer 1"
     inkscape:groupmode="layer"
     id="layer1">
    <path
       id="path841-3-1-4-3-7-5-3-7-0-3-3"
       style="color:#000000;font-style:normal;font-variant:normal;font-weight:normal;font-stretch:normal;font-size:medium;line-height:normal;font-family:sans-serif;font-variant-ligatures:normal;font-variant-position:normal;font-variant-caps:normal;font-variant-numeric:normal;font-variant-alternates:normal;font-variant-east-asian:normal;font-feature-settings:normal;font-variation-settings:normal;text-indent:0;text-align:start;text-decoration:none;text-decoration-line:none;text-decoration-style:solid;text-decoration-color:#000000;letter-spacing:normal;word-spacing:normal;text-transform:none;writing-mode:lr-tb;direction:ltr;text-orientation:mixed;dominant-baseline:auto;baseline-shift:baseline;text-anchor:start;white-space:normal;shape-padding:0;shape-margin:0;inline-size:0;clip-rule:nonzero;display:inline;overflow:visible;visibility:visible;opacity:0.15;isolation:auto;mix-blend-mode:normal;color-interpolation:sRGB;color-interpolation-filters:linearRGB;solid-color:#000000;solid-opacity:1;vector-effect:none;fill:#0c0c0c;fill-opacity:1;fill-rule:nonzero;stroke:none;stroke-width:1.00001;stroke-linecap:round;stroke-linejoin:round;stroke-miterlimit:4;stroke-dasharray:none;stroke-dashoffset:0;stroke-opacity:1;color-rendering:auto;image-rendering:auto;shape-rendering:auto;text-rendering:auto;enable-background:accumulate;stop-color:#000000"
       d="m 56.322757,5.0012777 c -0.33025,-0.007 -0.67325,0.0148 -1.02541,0.0645 -1.4086,0.19883 -3.03411,0.8183 -4.92976,1.89648 -4.93378,2.80616 -11.66686,8.7631703 -18.369433,15.2089803 -8.29038,-8.00383 -15.35726,-14.2402003 -20.60188,-16.3652303 -1.4266299,-0.57805 -2.7249799,-0.85989 -3.8867799,-0.78906 -1.16178,0.0708 -2.2371897,0.55567 -2.8672197,1.47265 -0.63004,0.91699 -0.77014,2.12134 -0.53517,3.47071 0.23498,1.3493703 0.84062,2.8937803 1.8555,4.6777303 2.8067497,4.93376 8.7658796,11.66667 15.2131296,18.36914 -7.99471,8.28355 -14.2337599,15.34727 -16.3674496,20.58789 -0.58065,1.42615 -0.86499,2.72341 -0.79688,3.88477 0.0681,1.16136 0.55058,2.23897 1.46681,2.86914 0.9162397,0.63018 2.1198397,0.76869 3.4688097,0.5332 1.3489799,-0.23548 2.8945299,-0.84247 4.6797599,-1.85742 4.9356,-2.80601 11.67185,-8.75707 18.379189,-15.19922 8.285974,7.99555 15.352224,14.23349 20.594074,16.36719 1.42629,0.58059 2.72339,0.86496 3.88482,0.79687 1.16143,-0.0681 2.23893,-0.55063 2.86919,-1.46679 0.63027,-0.91617 0.76873,-2.11988 0.53321,-3.46875 -0.23552,-1.34888 -0.84238,-2.89463 -1.85745,-4.67969 -2.806,-4.93451 -8.75551,-11.66913 -15.1975,-18.375 8.00534,-8.29014 14.24402,-15.35911 16.36939,-20.60352 0.54198,-1.33731 0.82072,-2.5609103 0.79689,-3.6660103 -0.0201,-0.93302 -0.34203,-1.77026 -0.88673,-2.43945 -9.2e-4,-0.001 -10e-4,-0.003 -0.002,-0.004 a 1.0001155,1.0001 0 0 0 -0.26558,-0.38867 c -0.6557,-0.58993 -1.53077,-0.87479 -2.52153,-0.89649 z m -0.0508,1.99609 c 0.61369,0.008 0.99435,0.17271 1.2344,0.38867 0.28236,0.25404 0.47661,0.66409 0.49219,1.38672 0.0156,0.72263 -0.18092,1.7126603 -0.6504,2.8710903 -1.89656,4.67984 -8.26518,12.07978 -16.58815,20.66016 a 1.0001155,1.0001 0 0 0 0,1.39062 c 6.66321,6.8954 12.84996,13.95428 15.53149,18.66992 0.93714,1.64802 1.44879,3.01461 1.62698,4.03516 0.1782,1.02055 0.0251,1.64433 -0.21289,1.99024 -0.23796,0.3459 -0.60574,0.56059 -1.33792,0.60351 -0.73217,0.0429 -1.77761,-0.14917 -3.01372,-0.65234 -4.68004,-1.90502 -12.075,-8.27607 -20.650714,-16.58789 a 1.0001155,1.0001 0 0 0 -1.390639,0 c -6.8969,6.66336 -13.95739,12.85162 -18.67412,15.5332 -1.64818,0.93704 -3.0145099,1.44682 -4.0352199,1.625 -1.02069,0.17818 -1.64623,0.027 -1.99221,-0.21094 -0.34598,-0.23795 -0.5605997,-0.60586 -0.6035297,-1.33789 -0.0429,-0.73203 0.1491397,-1.77772 0.6523497,-3.01367 1.90506,-4.67909 8.2746299,-12.07272 16.5861999,-20.64648 a 1.0001155,1.0001 0 0 0 0.002,-1.39258 c -6.66819,-6.89171 -12.86397,-13.94712 -15.5451599,-18.66016 -0.9367,-1.64654 -1.44923,-3.01245 -1.62698,-4.0332003 -0.1777497,-1.02075 -0.0243,-1.64601 0.21485,-1.99414 0.23919,-0.34813 0.60933,-0.56472 1.34182,-0.60938 0.73248,-0.0447 1.77597,0.14577 3.0117599,0.64649 4.67994,1.89623 12.08021,8.2610403 20.66047,16.5820303 a 1.0001155,1.0001 0 0 0 1.390649,0.002 c 6.891814,-6.66671 13.947324,-12.86231 18.660454,-15.5429703 1.74965,-0.99514 3.18278,-1.50778 4.22077,-1.6543 0.25949,-0.0366 0.49076,-0.0513 0.69532,-0.0488 z" />
    <path
       id="path841-3-1-4-3-3-0-1-3-2"
       style="color:#000000;font-style:normal;font-variant:normal;font-weight:normal;font-stretch:normal;font-size:medium;line-height:normal;font-family:sans-serif;font-variant-ligatures:normal;font-variant-position:normal;font-variant-caps:normal;font-variant-numeric:normal;font-variant-alternates:normal;font-variant-east-asian:normal;font-feature-settings:normal;font-variation-settings:normal;text-indent:0;text-align:start;text-decoration:none;text-decoration-line:none;text-decoration-style:solid;text-decoration-color:#000000;letter-spacing:normal;word-spacing:normal;text-transform:none;writing-mode:lr-tb;direction:ltr;text-orientation:mixed;dominant-baseline:auto;baseline-shift:baseline;text-anchor:start;white-space:normal;shape-padding:0;shape-margin:0;inline-size:0;clip-rule:nonzero;display:inline;overflow:visible;visibility:visible;opacity:0.25;isolation:auto;mix-blend-mode:normal;color-interpolation:sRGB;color-interpolation-filters:linearRGB;solid-color:#000000;solid-opacity:1;vector-effect:none;fill:#323234;fill-opacity:1;fill-rule:nonzero;stroke:none;stroke-width:1.00002;stroke-linecap:round;stroke-linejoin:round;stroke-miterlimit:4;stroke-dasharray:none;stroke-dashoffset:0;stroke-opacity:1;color-rendering:auto;image-rendering:auto;shape-rendering:auto;text-rendering:auto;enable-background:accumulate;stop-color:#000000"
       d="m 56.297592,5.0002277 c -1.3366,-0.0241 -3.15735,0.53815 -5.43569,1.83398 -4.91017,2.79271 -11.94859,9.0040603 -18.86181,15.6914103 -8.60063,-8.34064 -15.93735,-14.7501703 -20.97905,-16.7929703 -5.3249092,-2.15753 -8.0907892,0.55112 -4.1876089,7.4121103 2.79331,4.91008 9.0068089,11.95023 15.6957189,18.86328 -8.33106,8.59378 -14.7436489,15.92563 -16.7953592,20.96485 -2.16776,5.32419 0.5317403,8.08757 7.3986292,4.18359 4.91306,-2.79317 11.95705,-8.99949 18.87548,-15.68359 8.5958,8.33121 15.93101,14.7433 20.97125,16.79492 5.32485,2.16751 8.08622,-0.53034 4.18174,-7.39649 -2.79316,-4.9119 -8.99802,-11.95423 -15.68204,-18.87109 8.34271,-8.60065 14.75216,-15.93888 16.79535,-20.98047 1.01147,-2.4957503 0.95422,-4.4288503 -0.0996,-5.3769503 -0.44787,-0.40295 -1.07504,-0.62814 -1.877,-0.64258 z m -0.0508,1.99414 c 0.42461,-1.6e-4 0.55766,0.10384 0.58986,0.13281 0.0378,0.034 0.1526,0.13265 0.16407,0.66407 0.0115,0.53141 -0.14687,1.40559 -0.5801,2.4746103 -1.74998,4.31819 -8.07399,11.7795 -16.37737,20.33984 a 2.0002513,2.0002553 0 0 0 -0.002,2.78125 c 6.64254,6.87412 12.8113,13.95119 15.38125,18.4707 0.8982,1.57953 1.36223,2.85648 1.51176,3.71289 0.14954,0.85642 -0.009,1.19118 -0.0508,1.25196 -0.0418,0.0608 -0.0567,0.14152 -0.57423,0.17187 -0.51755,0.0303 -1.43521,-0.11561 -2.57624,-0.58008 -4.3199,-1.75848 -11.77869,-8.08624 -20.33446,-16.3789 a 2.0002513,2.0002553 0 0 0 -2.78133,-0.002 c -6.87551,6.64282 -13.95263,12.81276 -18.47313,15.38281 -1.57968,0.8981 -2.8564089,1.36219 -3.7129789,1.51172 -0.85657,0.14952 -1.19114,-0.009 -1.25199,-0.0508 -0.0608,-0.0419 -0.14154,-0.0549 -0.17188,-0.57227 -0.0303,-0.51737 0.1156,-1.43725 0.5801,-2.57812 1.75845,-4.31908 8.0851189,-11.77608 16.3773689,-20.33008 a 2.0002513,2.0002553 0 0 0 0.002,-2.7832 c -6.64765,-6.87047 -12.82584,-13.94281 -15.3949689,-18.45894 -0.89763,-1.57789 -1.36067,-2.8544803 -1.50981,-3.7109403 -0.14914,-0.85646 0.009,-1.19216 0.0527,-1.25586 0.0438,-0.0637 0.0603,-0.14616 0.57814,-0.17773 0.51784,-0.0316 1.43587,0.11215 2.5762389,0.57421 4.31826,1.74973 11.77831,8.0734403 20.33841,16.3750003 a 2.0002513,2.0002553 0 0 0 2.78328,0.002 c 6.87052,-6.64625 13.94328,-12.8239 18.45945,-15.3925703 1.67666,-0.95366 3.01461,-1.41285 3.86729,-1.53321 0.21317,-0.0301 0.38776,-0.041 0.52931,-0.041 z" />
    <path
       id="path841-3-1-4-3-7-5-9"
       style="color:#000000;font-style:normal;font-variant:normal;font-weight:normal;font-stretch:normal;font-size:medium;line-height:normal;font-family:sans-serif;font-variant-ligatures:normal;font-variant-position:normal;font-variant-caps:normal;font-variant-numeric:normal;font-variant-alternates:normal;font-variant-east-asian:normal;font-feature-settings:normal;font-variation-settings:normal;text-indent:0;text-align:start;text-decoration:none;text-decoration-line:none;text-decoration-style:solid;text-decoration-color:#000000;letter-spacing:normal;word-spacing:normal;text-transform:none;writing-mode:lr-tb;direction:ltr;text-orientation:mixed;dominant-baseline:auto;baseline-shift:baseline;text-anchor:start;white-space:normal;shape-padding:0;shape-margin:0;inline-size:0;clip-rule:nonzero;display:inline;overflow:visible;visibility:visible;isolation:auto;mix-blend-mode:normal;color-interpolation:sRGB;color-interpolation-filters:linearRGB;solid-color:#000000;solid-opacity:1;vector-effect:none;fill:#464649;fill-opacity:1;fill-rule:nonzero;stroke:none;stroke-width:1.00001;stroke-linecap:round;stroke-linejoin:round;stroke-miterlimit:4;stroke-dasharray:none;stroke-dashoffset:0;stroke-opacity:1;color-rendering:auto;image-rendering:auto;shape-rendering:auto;text-rendering:auto;enable-background:accumulate;stop-color:#000000"
       d="m 56.322752,4.0012777 c -0.33025,-0.007 -0.67325,0.0148 -1.02541,0.0645 -1.4086,0.19883 -3.03411,0.8183 -4.92976,1.89648 -4.93378,2.80616 -11.66686,8.7631703 -18.36943,15.2089803 -8.29038,-8.00383 -15.35726,-14.2402003 -20.60188,-16.3652303 -1.4266299,-0.57805 -2.7249799,-0.85989 -3.8867799,-0.78906 -1.16178,0.0708 -2.2371892,0.55567 -2.8672192,1.47265 -0.63004,0.91699 -0.77014,2.12134 -0.53517,3.47071 0.23498,1.3493703 0.84062,2.8937803 1.8555,4.6777303 2.8067492,4.93376 8.7658791,11.66667 15.2131291,18.36914 -7.99471,8.28355 -14.2337599,15.34727 -16.3674491,20.58789 -0.58065,1.42615 -0.86499,2.72341 -0.79688,3.88477 0.0681,1.16136 0.55058,2.23897 1.46681,2.86914 0.9162392,0.63018 2.1198392,0.76869 3.4688092,0.5332 1.3489799,-0.23548 2.8945299,-0.84247 4.6797599,-1.85742 4.9356,-2.80601 11.67185,-8.75707 18.37919,-15.19922 8.28597,7.99555 15.35222,14.23349 20.59407,16.36719 1.42629,0.58059 2.72339,0.86496 3.88482,0.79687 1.16143,-0.0681 2.23893,-0.55063 2.86919,-1.46679 0.63027,-0.91617 0.76873,-2.11988 0.53321,-3.46875 -0.23552,-1.34888 -0.84238,-2.89463 -1.85745,-4.67969 -2.806,-4.93451 -8.75551,-11.66913 -15.1975,-18.375 8.00534,-8.29014 14.24402,-15.35911 16.36939,-20.60352 0.54198,-1.33731 0.82072,-2.5609103 0.79689,-3.6660103 -0.0201,-0.93302 -0.34203,-1.77026 -0.88673,-2.43945 -9.2e-4,-0.001 -0.001,-0.003 -0.002,-0.004 a 1.0001155,1.0001 0 0 0 -0.26558,-0.38867 c -0.6557,-0.58993 -1.53077,-0.87479 -2.52153,-0.89649 z m -0.0508,1.99609 c 0.61369,0.008 0.99435,0.17271 1.2344,0.38867 0.28236,0.25404 0.47661,0.66409 0.49219,1.38672 0.0156,0.72263 -0.18092,1.71266 -0.6504,2.8710903 -1.89656,4.67984 -8.26518,12.07978 -16.58815,20.66016 a 1.0001155,1.0001 0 0 0 0,1.39062 c 6.66321,6.8954 12.84996,13.95428 15.53149,18.66992 0.93714,1.64802 1.44879,3.01461 1.62698,4.03516 0.1782,1.02055 0.0251,1.64433 -0.21289,1.99024 -0.23796,0.3459 -0.60574,0.56059 -1.33792,0.60351 -0.73217,0.0429 -1.77761,-0.14917 -3.01372,-0.65234 -4.68004,-1.90502 -12.075,-8.27607 -20.65071,-16.58789 a 1.0001155,1.0001 0 0 0 -1.39064,0 c -6.8969,6.66336 -13.95739,12.85162 -18.67412,15.5332 -1.64818,0.93704 -3.0145099,1.44682 -4.0352199,1.625 -1.02069,0.17818 -1.64623,0.027 -1.99221,-0.21094 -0.34598,-0.23795 -0.5605996,-0.60586 -0.6035296,-1.33789 -0.0429,-0.73203 0.1491396,-1.77772 0.6523496,-3.01367 1.90506,-4.67909 8.2746299,-12.07272 16.5861999,-20.64648 a 1.0001155,1.0001 0 0 0 0.002,-1.39258 c -6.66819,-6.89171 -12.86397,-13.94712 -15.5451599,-18.66016 -0.9367,-1.64654 -1.44923,-3.0124503 -1.62698,-4.0332003 -0.1777492,-1.02075 -0.0243,-1.64601 0.21485,-1.99414 0.23919,-0.34813 0.60933,-0.56472 1.34182,-0.60938 0.73248,-0.0447 1.77597,0.14577 3.0117599,0.64649 4.67994,1.89623 12.08021,8.2610403 20.66047,16.5820303 a 1.0001155,1.0001 0 0 0 1.39065,0.002 c 6.89181,-6.66671 13.94732,-12.86231 18.66045,-15.5429703 1.74965,-0.99514 3.18278,-1.50778 4.22077,-1.6543 0.25949,-0.0366 0.49076,-0.0513 0.69532,-0.0488 z" />
    <path
       id="path841-3-1-4-3-3-1"
       style="mix-blend-mode:normal;fill:#d2d2d8;fill-opacity:1;stroke:none;stroke-width:0;stroke-linecap:butt;stroke-linejoin:miter;stroke-miterlimit:4;stroke-dasharray:none;stroke-opacity:1"
       d="m 58.174434,5.6427677 c -1.19428,-1.07452 -3.66763,-0.88323 -7.31287,1.1901 -4.91005,2.7927 -11.94821,9.0049903 -18.86125,15.6923403 -8.60041,-8.34064 -15.93771,-14.7495903 -20.97928,-16.7923803 -5.3247696,-2.15754 -8.0907696,0.55119 -4.1876899,7.4121903 2.79324,4.91007 9.0070999,11.94848 15.6958299,18.86153 -8.33084,8.59377 -14.7428399,15.92707 -16.7944896,20.96629 -2.16771,5.3242 0.5315497,8.08662 7.3982696,4.18264 4.91293,-2.79317 11.9558,-8.99893 18.87406,-15.68303 8.59558,8.33121 15.93044,14.74367 20.97055,16.79529 5.32472,2.16751 8.0874,-0.53146 4.18302,-7.3976 -2.79309,-4.9119 -8.99828,-11.95313 -15.68213,-18.86999 8.3425,-8.60065 14.75281,-15.9384 16.79595,-20.97999 1.01144,-2.4957503 0.9538,-4.4292903 -0.1,-5.3773903 z" />
    <path
       id="path841-3-1-4-3-3-0-1-9-3-6"
       style="color:#000000;font-style:normal;font-variant:normal;font-weight:normal;font-stretch:normal;font-size:medium;line-height:normal;font-family:sans-serif;font-variant-ligatures:normal;font-variant-position:normal;font-variant-caps:normal;font-variant-numeric:normal;font-variant-alternates:normal;font-variant-east-asian:normal;font-feature-settings:normal;font-variation-settings:normal;text-indent:0;text-align:start;text-decoration:none;text-decoration-line:none;text-decoration-style:solid;text-decoration-color:#000000;letter-spacing:normal;word-spacing:normal;text-transform:none;writing-mode:lr-tb;direction:ltr;text-orientation:mixed;dominant-baseline:auto;baseline-shift:baseline;text-anchor:start;white-space:normal;shape-padding:0;shape-margin:0;inline-size:0;clip-rule:nonzero;display:inline;overflow:visible;visibility:visible;opacity:0.1;isolation:auto;mix-blend-mode:normal;color-interpolation:sRGB;color-interpolation-filters:linearRGB;solid-color:#000000;solid-opacity:1;vector-effect:none;fill:#323234;fill-opacity:1;fill-rule:nonzero;stroke:none;stroke-width:1.00002;stroke-linecap:round;stroke-linejoin:round;stroke-miterlimit:4;stroke-dasharray:none;stroke-dashoffset:0;stroke-opacity:1;color-rendering:auto;image-rendering:auto;shape-rendering:auto;text-rendering:auto;enable-background:accumulate;stop-color:#000000"
       d="m 56.297591,5.0005277 c -1.3366,-0.0241 -3.15736,0.53815 -5.43569,1.83398 -4.91017,2.79271 -11.94859,9.0040503 -18.86181,15.6914103 -8.60063,-8.34064 -15.93735,-14.7501803 -20.979051,-16.7929703 -5.3249044,-2.15754 -8.0907864,0.55111 -4.1876059,7.4121103 2.793311,4.91007 9.0068169,11.95023 15.6957169,18.86328 -8.331057,8.59378 -14.7436519,15.92562 -16.7953544,20.96484 -2.167766,5.3242 0.5317275,8.08758 7.3986254,4.1836 4.913049,-2.79317 11.957039,-8.99949 18.875479,-15.6836 8.5958,8.33122 15.93101,14.74331 20.97125,16.79493 5.32485,2.1675 8.08623,-0.53034 4.18175,-7.39649 -2.79317,-4.9119 -8.99803,-11.95423 -15.68205,-18.87109 8.34272,-8.60065 14.75216,-15.93888 16.79535,-20.98047 1.01147,-2.4957503 0.95422,-4.4288603 -0.0996,-5.3769603 -0.44787,-0.40294 -1.07504,-0.62813 -1.877,-0.64257 z m -0.0508,1.99414 c 0.42461,-1.6e-4 0.55766,0.10384 0.58986,0.13281 0.0378,0.034 0.1526,0.13265 0.16406,0.66406 0.0115,0.53142 -0.14686,1.40559 -0.58009,2.4746103 -1.74999,4.31819 -8.07399,11.77951 -16.37737,20.33985 a 2.0002512,2.0002553 0 0 0 -0.002,2.78125 c 6.64254,6.87412 12.81129,13.95119 15.38125,18.4707 0.89819,1.57953 1.36223,2.85648 1.51176,3.71289 0.14953,0.85642 -0.009,1.19117 -0.0508,1.25195 -0.0418,0.0608 -0.0567,0.14153 -0.57424,0.17188 -0.51754,0.0303 -1.4352,-0.11561 -2.57623,-0.58008 -4.31994,-1.75848 -11.77872,-8.08624 -20.33451,-16.37891 a 2.0002512,2.0002553 0 0 0 -2.78132,-0.002 c -6.87552,6.64282 -13.95263,12.81277 -18.473129,15.38282 -1.579681,0.8981 -2.8564129,1.36219 -3.7129849,1.51172 -0.856572,0.14952 -1.191135,-0.009 -1.251986,-0.0508 -0.0609,-0.0419 -0.141549,-0.0549 -0.17188,-0.57227 -0.0303,-0.51737 0.115602,-1.43725 0.580094,-2.57813 1.758455,-4.31907 8.0851259,-11.77607 16.3773759,-20.33007 a 2.0002512,2.0002553 0 0 0 0.002,-2.78321 c -6.6476,-6.87051 -12.825806,-13.9428 -15.3949319,-18.45893 -0.897633,-1.57788 -1.36066,-2.8544903 -1.509804,-3.7109503 -0.149134,-0.85647 0.009,-1.19215 0.05273,-1.25585 0.0438,-0.0637 0.06029,-0.14617 0.57814,-0.17774 0.517833,-0.0316 1.435859,0.11215 2.5762379,0.57422 4.31826,1.74972 11.778308,8.0734403 20.338408,16.3750003 a 2.0002512,2.0002553 0 0 0 2.78328,0.002 c 6.87053,-6.64625 13.94329,-12.8239 18.45946,-15.3925803 1.67666,-0.95365 3.0146,-1.41284 3.86728,-1.5332 0.21318,-0.0301 0.38776,-0.041 0.52932,-0.041 z" />
    <path
       id="path841-3-1-4-3-7-5-3-7"
       style="color:#000000;font-style:normal;font-variant:normal;font-weight:normal;font-stretch:normal;font-size:medium;line-height:normal;font-family:sans-serif;font-variant-ligatures:normal;font-variant-position:normal;font-variant-caps:normal;font-variant-numeric:normal;font-variant-alternates:normal;font-variant-east-asian:normal;font-feature-settings:normal;font-variation-settings:normal;text-indent:0;text-align:start;text-decoration:none;text-decoration-line:none;text-decoration-style:solid;text-decoration-color:#000000;letter-spacing:normal;word-spacing:normal;text-transform:none;writing-mode:lr-tb;direction:ltr;text-orientation:mixed;dominant-baseline:auto;baseline-shift:baseline;text-anchor:start;white-space:normal;shape-padding:0;shape-margin:0;inline-size:0;clip-rule:nonzero;display:inline;overflow:visible;visibility:visible;opacity:0.3;isolation:auto;mix-blend-mode:normal;color-interpolation:sRGB;color-interpolation-filters:linearRGB;solid-color:#000000;solid-opacity:1;vector-effect:none;fill:#323234;fill-opacity:1;fill-rule:nonzero;stroke:none;stroke-width:1.00001;stroke-linecap:round;stroke-linejoin:round;stroke-miterlimit:4;stroke-dasharray:none;stroke-dashoffset:0;stroke-opacity:1;color-rendering:auto;image-rendering:auto;shape-rendering:auto;text-rendering:auto;enable-background:accumulate;stop-color:#000000"
       d="m 56.322752,4.0012777 c -0.33025,-0.007 -0.67325,0.0148 -1.02541,0.0645 -1.4086,0.19883 -3.03411,0.8183 -4.92976,1.89648 -4.93378,2.80616 -11.66686,8.7631703 -18.36943,15.2089803 -8.29038,-8.00383 -15.35726,-14.2402003 -20.60188,-16.3652303 -1.4266299,-0.57805 -2.7249799,-0.85989 -3.8867789,-0.78906 -1.16178,0.0708 -2.2371902,0.55567 -2.8672202,1.47265 -0.63004,0.91699 -0.77014,2.12134 -0.53517,3.47071 0.23498,1.3493703 0.84062,2.8937803 1.8555,4.6777303 2.8067492,4.93376 8.7658791,11.66667 15.2131291,18.36914 -7.99471,8.28355 -14.2337589,15.34727 -16.3674491,20.58789 -0.58065,1.42615 -0.86499,2.72341 -0.79688,3.88477 0.0681,1.16136 0.55058,2.23897 1.46681,2.86914 0.9162402,0.63018 2.1198402,0.76869 3.4688092,0.5332 1.3489799,-0.23548 2.8945299,-0.84247 4.6797599,-1.85742 4.9356,-2.80601 11.67185,-8.75707 18.37919,-15.19922 8.28597,7.99555 15.35222,14.23349 20.59407,16.36719 1.42629,0.58059 2.72339,0.86496 3.88482,0.79687 1.16143,-0.0681 2.23893,-0.55063 2.86919,-1.46679 0.63027,-0.91617 0.76873,-2.11988 0.53321,-3.46875 -0.23552,-1.34888 -0.84238,-2.89463 -1.85745,-4.67969 -2.806,-4.93451 -8.75551,-11.66913 -15.1975,-18.375 8.00534,-8.29014 14.24402,-15.35911 16.36939,-20.60352 0.54198,-1.33731 0.82072,-2.5609103 0.79689,-3.6660103 -0.0201,-0.93302 -0.34203,-1.77026 -0.88673,-2.43945 -9.2e-4,-0.001 -0.001,-0.003 -0.002,-0.004 a 1.0001155,1.0001 0 0 0 -0.26558,-0.38867 c -0.6557,-0.58993 -1.53077,-0.87479 -2.52153,-0.89649 z m -0.0508,1.99609 c 0.61369,0.008 0.99435,0.17271 1.2344,0.38867 0.28236,0.25404 0.47661,0.66409 0.49219,1.38672 0.0156,0.72263 -0.18092,1.71266 -0.6504,2.8710903 -1.89656,4.67984 -8.26518,12.07978 -16.58815,20.66016 a 1.0001155,1.0001 0 0 0 0,1.39062 c 6.66321,6.8954 12.84996,13.95428 15.53149,18.66992 0.93714,1.64802 1.44879,3.01461 1.62698,4.03516 0.1782,1.02055 0.0251,1.64433 -0.21289,1.99024 -0.23796,0.3459 -0.60574,0.56059 -1.33792,0.60351 -0.73217,0.0429 -1.77761,-0.14917 -3.01372,-0.65234 -4.68004,-1.90502 -12.075,-8.27607 -20.65071,-16.58789 a 1.0001155,1.0001 0 0 0 -1.39064,0 c -6.8969,6.66336 -13.95739,12.85162 -18.67412,15.5332 -1.64818,0.93704 -3.0145099,1.44682 -4.0352199,1.625 -1.020689,0.17818 -1.646229,0.027 -1.992209,-0.21094 -0.34598,-0.23795 -0.5606002,-0.60586 -0.6035302,-1.33789 -0.0429,-0.73203 0.1491402,-1.77772 0.6523502,-3.01367 1.905059,-4.67909 8.2746289,-12.07272 16.5861989,-20.64648 a 1.0001155,1.0001 0 0 0 0.002,-1.39258 c -6.66819,-6.89171 -12.86397,-13.94712 -15.5451589,-18.66016 -0.9367,-1.64654 -1.44923,-3.0124503 -1.62698,-4.0332003 -0.1777502,-1.02075 -0.0243,-1.64601 0.21485,-1.99414 0.23919,-0.34813 0.60933,-0.56472 1.34182,-0.60938 0.732479,-0.0447 1.775969,0.14577 3.0117589,0.64649 4.67994,1.89623 12.08021,8.2610403 20.66047,16.5820303 a 1.0001155,1.0001 0 0 0 1.39065,0.002 c 6.89181,-6.66671 13.94732,-12.86231 18.66045,-15.5429703 1.74965,-0.99514 3.18278,-1.50778 4.22077,-1.6543 0.25949,-0.0366 0.49076,-0.0513 0.69532,-0.0488 z" />
  </g>
</svg>
