<?xml version="1.0" encoding="UTF-8" standalone="no"?>
<svg
   xmlns:dc="http://purl.org/dc/elements/1.1/"
   xmlns:cc="http://creativecommons.org/ns#"
   xmlns:rdf="http://www.w3.org/1999/02/22-rdf-syntax-ns#"
   xmlns:svg="http://www.w3.org/2000/svg"
   xmlns="http://www.w3.org/2000/svg"
   xmlns:xlink="http://www.w3.org/1999/xlink"
   xmlns:sodipodi="http://sodipodi.sourceforge.net/DTD/sodipodi-0.dtd"
   xmlns:inkscape="http://www.inkscape.org/namespaces/inkscape"
   width="64"
   height="64"
   viewBox="0 0 64 64"
   version="1.1"
   id="svg6374"
   inkscape:version="1.0.2 (e86c870879, 2021-01-15)"
   sodipodi:docname="preferences-system.svg">
  <defs
     id="defs6368">
    <linearGradient
       inkscape:collect="always"
       xlink:href="#linearGradient1045"
       id="linearGradient4049"
       gradientUnits="userSpaceOnUse"
       x1="831.93896"
       y1="204.53712"
       x2="831.97717"
       y2="215.46114"
       gradientTransform="matrix(1.0683761,0,0,1.0683761,-877.24485,-204.66238)" />
    <linearGradient
       inkscape:collect="always"
       id="linearGradient1045">
      <stop
         style="stop-color:#e6e6e9;stop-opacity:0.8509804"
         offset="0"
         id="stop1041" />
      <stop
         style="stop-color:#bebec1;stop-opacity:0.60000002"
         offset="1"
         id="stop1043" />
    </linearGradient>
    <linearGradient
       inkscape:collect="always"
       xlink:href="#linearGradient1045"
       id="linearGradient3989"
       gradientUnits="userSpaceOnUse"
       x1="831.93896"
       y1="204.53712"
       x2="831.97717"
       y2="215.46114"
       gradientTransform="matrix(1.0683761,0,0,1.0683761,-836.53654,-204.66238)" />
    <linearGradient
       inkscape:collect="always"
       xlink:href="#linearGradient1045"
       id="linearGradient4004"
       gradientUnits="userSpaceOnUse"
       x1="831.93896"
       y1="204.53712"
       x2="831.97717"
       y2="215.46114"
       gradientTransform="matrix(1.0683761,0,0,1.0683761,-836.53652,-181.1581)" />
    <linearGradient
       inkscape:collect="always"
       xlink:href="#linearGradient1045"
       id="linearGradient4019"
       gradientUnits="userSpaceOnUse"
       x1="831.93896"
       y1="204.53712"
       x2="831.97717"
       y2="215.46114"
       gradientTransform="matrix(1.0683761,0,0,1.0683761,-856.88905,-192.91026)" />
    <linearGradient
       inkscape:collect="always"
       xlink:href="#linearGradient1045"
       id="linearGradient4079"
       gradientUnits="userSpaceOnUse"
       gradientTransform="matrix(1.0683761,0,0,1.0683761,-856.88903,-169.40599)"
       x1="831.93896"
       y1="204.53712"
       x2="831.97717"
       y2="215.46114" />
    <linearGradient
       inkscape:collect="always"
       xlink:href="#linearGradient1045"
       id="linearGradient4034"
       gradientUnits="userSpaceOnUse"
       x1="831.93896"
       y1="204.53712"
       x2="831.97717"
       y2="215.46114"
       gradientTransform="matrix(1.0683761,0,0,1.0683761,-877.24486,-181.15812)" />
    <linearGradient
       inkscape:collect="always"
       xlink:href="#linearGradient1045"
       id="linearGradient3954"
       x1="831.93896"
       y1="204.53712"
       x2="831.97717"
       y2="215.46114"
       gradientUnits="userSpaceOnUse"
       gradientTransform="matrix(1.0683761,0,0,1.0683761,-856.88909,-216.41452)" />
  </defs>
  <sodipodi:namedview
     id="base"
     pagecolor="#cecece"
     bordercolor="#666666"
     borderopacity="1.0"
     inkscape:pageopacity="0"
     inkscape:pageshadow="2"
     inkscape:zoom="6.2784709"
     inkscape:cx="25.64355"
     inkscape:cy="23.762828"
     inkscape:document-units="px"
     inkscape:current-layer="layer1"
     inkscape:document-rotation="0"
     showgrid="false"
     units="px"
     inkscape:window-width="1500"
     inkscape:window-height="970"
     inkscape:window-x="68"
     inkscape:window-y="56"
     inkscape:window-maximized="0" />
  <metadata
     id="metadata6371">
    <rdf:RDF>
      <cc:Work
         rdf:about="">
        <dc:format>image/svg+xml</dc:format>
        <dc:type
           rdf:resource="http://purl.org/dc/dcmitype/StillImage" />
        <dc:title></dc:title>
      </cc:Work>
    </rdf:RDF>
  </metadata>
  <g
     inkscape:label="Layer 1"
     inkscape:groupmode="layer"
     id="layer1">
    <path
       id="rect1475-9-6-4-8-9-3-3"
       style="color:#000000;font-style:normal;font-variant:normal;font-weight:normal;font-stretch:normal;font-size:medium;line-height:normal;font-family:sans-serif;font-variant-ligatures:normal;font-variant-position:normal;font-variant-caps:normal;font-variant-numeric:normal;font-variant-alternates:normal;font-variant-east-asian:normal;font-feature-settings:normal;font-variation-settings:normal;text-indent:0;text-align:start;text-decoration:none;text-decoration-line:none;text-decoration-style:solid;text-decoration-color:#000000;letter-spacing:normal;word-spacing:normal;text-transform:none;writing-mode:lr-tb;direction:ltr;text-orientation:mixed;dominant-baseline:auto;baseline-shift:baseline;text-anchor:start;white-space:normal;shape-padding:0;shape-margin:0;inline-size:0;clip-rule:nonzero;display:inline;overflow:visible;visibility:visible;opacity:0.15;isolation:auto;mix-blend-mode:normal;color-interpolation:sRGB;color-interpolation-filters:linearRGB;solid-color:#000000;solid-opacity:1;vector-effect:none;fill:#0c0c0c;fill-opacity:1;fill-rule:nonzero;stroke:none;stroke-width:1.06847;stroke-linecap:round;stroke-linejoin:round;stroke-miterlimit:4;stroke-dasharray:none;stroke-dashoffset:2.1875;stroke-opacity:1;color-rendering:auto;image-rendering:auto;shape-rendering:auto;text-rendering:auto;enable-background:accumulate;stop-color:#000000"
       d="m 32.000199,2.6025818 c -3.82292,4.8e-4 -6.94553,3.12213 -6.94553,6.94445 -2e-5,0.1245 0.0247,0.24721 0.0313,0.37143 l -9.66492,5.5797702 c -0.10448,-0.068 -0.19866,-0.1505 -0.30677,-0.21285 -3.31122,-1.91171 -7.5759197,-0.76936 -9.4875097,2.54156 -1.91192,3.3107 -0.76946,7.57477 2.54197,9.48602 a 1.0686512,1.0684829 0 0 0 0.002,0.002 c 0.10765,0.0619 0.22526,0.10256 0.336,0.15859 v 11.15747 c -0.11106,0.0564 -0.23016,0.0963 -0.33809,0.15859 -3.31079,1.91114 -4.45303,6.17552 -2.54196,9.486 1.91144,3.3102 6.1765197,4.45226 9.4875097,2.54157 0.10796,-0.0623 0.20238,-0.14484 0.30677,-0.21284 l 9.66492,5.57767 c -0.006,0.12491 -0.0312,0.24834 -0.0313,0.37352 5.3e-4,3.82228 3.12265,6.94444 6.94553,6.94444 3.82293,-4.8e-4 6.94555,-3.12211 6.94555,-6.94444 10e-6,-0.12448 -0.0247,-0.24721 -0.0313,-0.37142 l 9.6649,-5.57977 c 0.10438,0.0679 0.19879,0.15056 0.30678,0.21284 3.31119,1.91171 7.57589,0.76931 9.48751,-2.54157 1.912,-3.31068 0.76948,-7.5768 -2.54196,-9.48809 a 1.0686512,1.0684829 0 0 0 -0.002,0 c -0.10813,-0.0622 -0.22687,-0.10235 -0.3381,-0.15858 v -11.15536 c 0.11151,-0.0566 0.22972,-0.0981 0.3381,-0.16067 3.31083,-1.91111 4.45508,-6.17549 2.54405,-9.48601 -1.91144,-3.31026 -6.1765,-4.45442 -9.48751,-2.54366 a 1.0686512,1.0684829 0 0 0 0,0.002 c -0.10845,0.0626 -0.20403,0.1445 -0.30887,0.21285 l -9.66287,-5.5776502 c 0.006,-0.12488 0.0312,-0.24834 0.0313,-0.37352 a 1.0686512,1.0684829 0 0 0 0,-0.002 c -2.4e-4,-2.27085 -1.20106,-4.30385 -3.04075,-5.59648 a 1.0686512,1.0684829 0 0 0 -0.38402,-0.38812 c -1.06736,-0.62768 -2.28248,-0.95788 -3.52077,-0.95779 z m 0,2.13676 c 0.85738,-6e-5 1.69858,0.22897 2.43762,0.66356 1.46996,0.86453 2.37065,2.43899 2.37083,4.14413 -2.6e-4,0.26315 -0.0235,0.5271002 -0.0668,0.7866802 a 1.0686512,1.0684829 0 0 0 0.51967,1.09967 l 10.82945,6.25167 a 1.0686512,1.0684829 0 0 0 1.21254,-0.10011 c 0.20382,-0.16758 0.42264,-0.31878 0.65114,-0.45071 2.31078,-1.33354 5.23378,-0.54911 6.5678,1.76114 1.33374,2.31044 0.54922,5.23298 -1.76143,6.56676 -0.22808,0.13173 -0.4672,0.2433 -0.71376,0.33596 a 1.0686512,1.0684829 0 0 0 -0.69289,1.0016 v 12.50334 a 1.0686512,1.0684829 0 0 0 0.69498,1.0016 c 0.24688,0.0922 0.48736,0.20459 0.71585,0.33596 2.30902,1.33461 3.09114,4.25708 1.75725,6.56675 -1.33415,2.3107 -4.25689,3.09328 -6.5678,1.75907 a 1.0686512,1.0684829 0 0 0 -0.002,0 c -0.22828,-0.13164 -0.44337,-0.28145 -0.647,-0.44863 a 1.0686512,1.0684829 0 0 0 -1.21255,-0.10011 l -10.82945,6.25167 a 1.0686512,1.0684829 0 0 0 -0.51967,1.09966 c 0.0431,0.25982 0.0647,0.52334 0.0647,0.78668 0,2.66763 -2.1404,4.80736 -4.80845,4.80769 -2.66731,0 -4.80693,-2.13899 -4.80844,-4.80559 v -0.002 c 2.6e-4,-0.26315 0.0215,-0.52711 0.0647,-0.78668 a 1.0686512,1.0684829 0 0 0 -0.51966,-1.09971 l -10.82946,-6.25166 a 1.0686512,1.0684829 0 0 0 -1.21254,0.1001 c -0.20385,0.16759 -0.42053,0.3167 -0.64905,0.44864 -2.31076,1.33348 -5.2337797,0.55114 -6.5677997,-1.75907 -1.33375,-2.31042 -0.55128,-5.23295 1.75935,-6.56676 a 1.0686512,1.0684829 0 0 0 0.002,0 c 0.2281,-0.13172 0.46508,-0.24538 0.71165,-0.33804 a 1.0686512,1.0684829 0 0 0 0.6928997,-0.99951 v -12.50334 a 1.0686512,1.0684829 0 0 0 -0.6949797,-1.00161 c -0.24627,-0.092 -0.48371,-0.205 -0.71165,-0.33595 h -0.002 c -2.30998,-1.33426 -3.09342,-4.25666 -1.75934,-6.56676 1.33412,-2.31073 4.2589397,-3.09326 6.5698797,-1.75906 0.22825,0.13163 0.44538,0.28144 0.64905,0.44863 a 1.0686512,1.0684829 0 0 0 1.21254,0.10011 l 10.82946,-6.25167 a 1.0686512,1.0684829 0 0 0 0.51967,-1.09968 c -0.0431,-0.25983 -0.0647,-0.5233002 -0.0647,-0.7866702 0,-2.66763 2.14039,-4.80735 4.80844,-4.8077 z m 3.73156,8.2778302 a 1.0686512,1.0684829 0 0 0 -0.67828,0.24414 c -0.40781,0.33493 -0.86662,0.59913 -1.36073,0.78459 a 1.0686512,1.0684829 0 0 0 -0.69287,1.0016 v 12.50543 a 1.0686512,1.0684829 0 0 0 0.69287,0.99951 c 0.49322,0.18539 0.95147,0.45022 1.35865,0.78459 a 1.0686512,1.0684829 0 0 0 1.21254,0.1001 l 10.83154,-6.25166 a 1.0686512,1.0684829 0 0 0 0.51967,-1.09968 c -0.0862,-0.52034 -0.0862,-1.05299 0,-1.57335 a 1.0686512,1.0684829 0 0 0 -0.51967,-1.09967 l -10.82945,-6.25167 a 1.0686512,1.0684829 0 0 0 -0.53427,-0.14399 z m -7.4485,0.002 a 1.0686512,1.0684829 0 0 0 -0.54888,0.1419 l -10.83154,6.25375 a 1.0686512,1.0684829 0 0 0 -0.51966,1.09968 c 0.0864,0.52054 0.0862,1.05068 0,1.57126 a 1.0686512,1.0684829 0 0 0 0.52175,1.09968 l 10.82945,6.25375 a 1.0686512,1.0684829 0 0 0 1.21462,-0.10225 c 0.20319,-0.1673 0.41918,-0.31676 0.64698,-0.44863 0.22828,-0.13217 0.46691,-0.24503 0.71376,-0.33804 a 1.0686512,1.0684829 0 0 0 0.69079,-0.99951 l 0.002,-12.50335 a 1.0686512,1.0684829 0 0 0 -0.69288,-0.99951 c -0.49423,-0.18559 -0.95496,-0.45153 -1.36282,-0.78667 a 1.0686512,1.0684829 0 0 0 -0.66363,-0.24193 z m 0,2.29326 c 0.18882,0.12157 0.38255,0.23114 0.58227,0.33386 l -0.002,11.23256 c -0.11133,0.0567 -0.22988,0.098 -0.33808,0.16067 -0.10746,0.0622 -0.20082,0.14502 -0.30471,0.21284 l -9.72752,-5.61523 c 0.0109,-0.22511 0.008,-0.44889 -0.002,-0.674 z m 7.43389,0 9.79012,5.6507 c -0.0109,0.22452 -0.0109,0.44739 0,0.67191 l -9.79221,5.65071 c -0.18778,-0.12079 -0.37955,-0.23165 -0.57809,-0.33383 v -11.30559 c 0.19928,-0.10246 0.39174,-0.21263 0.58018,-0.33387 z m -20.34409,9.45887 a 1.0686512,1.0684829 0 0 0 -0.67826,0.24207 c -0.4078,0.33491 -0.86875,0.6012 -1.36281,0.78666 a 1.0686512,1.0684829 0 0 0 -0.69289,0.99952 v 12.50335 a 1.0686512,1.0684829 0 0 0 0.69289,1.0016 c 0.49423,0.18559 0.95493,0.45153 1.36281,0.78667 a 1.0686512,1.0684829 0 0 0 1.21254,0.0981 l 10.82945,-6.25166 a 1.0686512,1.0684829 0 0 0 0.51967,-1.09968 c -0.0862,-0.52032 -0.0862,-1.05094 0,-1.57126 a 1.0686512,1.0684829 0 0 0 -0.51967,-1.09968 l -10.82945,-6.25375 a 1.0686512,1.0684829 0 0 0 -0.53428,-0.1419 z m 33.27098,0 a 1.0686512,1.0684829 0 0 0 -0.55096,0.14191 l -10.82946,6.25375 a 1.0686512,1.0684829 0 0 0 -0.51967,1.09967 c 0.0864,0.52056 0.0862,1.05069 0,1.57127 a 1.0686512,1.0684829 0 0 0 0.51967,1.09967 l 10.82946,6.25375 a 1.0686512,1.0684829 0 0 0 1.21254,-0.1001 c 0.4078,-0.33493 0.86874,-0.6012 1.36281,-0.78667 a 1.0686512,1.0684829 0 0 0 0.69288,-0.99948 v -12.50543 a 1.0686512,1.0684829 0 0 0 -0.69288,-0.99952 c -0.49423,-0.18556 -0.95494,-0.45155 -1.36281,-0.78666 a 1.0686512,1.0684829 0 0 0 -0.66158,-0.24207 z m -33.28558,2.29326 9.79012,5.65071 c -0.0109,0.22451 -0.0109,0.4474 0,0.67191 l -9.79012,5.65279 c -0.18903,-0.12171 -0.38234,-0.23313 -0.58226,-0.33595 v -11.30555 c 0.19964,-0.10267 0.39348,-0.21239 0.58226,-0.33387 z m 33.28349,0 c 0.18903,0.1217 0.38233,0.23314 0.58227,0.33595 v 11.30351 c -0.2005,0.1031 -0.39483,0.21386 -0.58435,0.33595 l -9.78804,-5.65067 c 0.0109,-0.22511 0.011,-0.44889 0,-0.674 z m -20.3566,9.45888 a 1.0686512,1.0684829 0 0 0 -0.55097,0.1419 l -10.82945,6.25375 a 1.0686512,1.0684829 0 0 0 -0.51966,1.09968 c 0.0862,0.52032 0.0862,1.05094 0,1.57126 a 1.0686512,1.0684829 0 0 0 0.51966,1.09968 l 10.82945,6.25167 a 1.0686512,1.0684829 0 0 0 1.21254,-0.10011 c 0.40781,-0.33496 0.86872,-0.5991 1.36282,-0.78458 a 1.0686512,1.0684829 0 0 0 0.69289,-1.0016 v -12.50331 a 1.0686512,1.0684829 0 0 0 -0.69289,-0.99952 c -0.49421,-0.1856 -0.95498,-0.45153 -1.36282,-0.78667 a 1.0686512,1.0684829 0 0 0 -0.66157,-0.24206 z m 7.44432,0 a 1.0686512,1.0684829 0 0 0 -0.68037,0.24206 c -0.20318,0.16731 -0.41916,0.31885 -0.64695,0.45072 -0.22809,0.13172 -0.46512,0.24329 -0.71168,0.33595 a 1.0686512,1.0684829 0 0 0 -0.69288,0.99952 v 12.50543 a 1.0686512,1.0684829 0 0 0 0.69288,0.99951 c 0.49423,0.18557 0.95494,0.45155 1.36281,0.78667 a 1.0686512,1.0684829 0 0 0 1.21255,0.10011 l 10.82945,-6.25375 a 1.0686512,1.0684829 0 0 0 0.51967,-1.09968 c -0.0863,-0.52056 -0.0862,-1.05069 0,-1.57126 a 1.0686512,1.0684829 0 0 0 -0.51967,-1.10173 l -10.83154,-6.25166 a 1.0686512,1.0684829 0 0 0 -0.53427,-0.14191 z m -7.44641,2.29326 c 0.18881,0.12157 0.38256,0.23114 0.58227,0.33387 v 11.30558 c -0.19967,0.10267 -0.39349,0.21236 -0.58227,0.33387 l -9.79013,-5.6507 c 0.0109,-0.22451 0.0109,-0.44741 0,-0.67192 z m 7.49442,0.0355 9.72959,5.61523 c -0.0109,0.22442 -0.0109,0.4475 0,0.67192 l -9.79012,5.65278 c -0.18903,-0.12169 -0.38232,-0.23314 -0.58227,-0.33595 v -11.23047 c 0.11123,-0.0565 0.22999,-0.0982 0.3381,-0.16067 0.10745,-0.0622 0.20081,-0.14502 0.3047,-0.21284 z" />
    <path
       id="rect1475-9-6-4-8-9-38"
       style="color:#000000;font-style:normal;font-variant:normal;font-weight:normal;font-stretch:normal;font-size:medium;line-height:normal;font-family:sans-serif;font-variant-ligatures:normal;font-variant-position:normal;font-variant-caps:normal;font-variant-numeric:normal;font-variant-alternates:normal;font-variant-east-asian:normal;font-feature-settings:normal;font-variation-settings:normal;text-indent:0;text-align:start;text-decoration:none;text-decoration-line:none;text-decoration-style:solid;text-decoration-color:#000000;letter-spacing:normal;word-spacing:normal;text-transform:none;writing-mode:lr-tb;direction:ltr;text-orientation:mixed;dominant-baseline:auto;baseline-shift:baseline;text-anchor:start;white-space:normal;shape-padding:0;shape-margin:0;inline-size:0;clip-rule:nonzero;display:inline;overflow:visible;visibility:visible;opacity:0.95;isolation:auto;mix-blend-mode:normal;color-interpolation:sRGB;color-interpolation-filters:linearRGB;solid-color:#000000;solid-opacity:1;vector-effect:none;fill:#161817;fill-opacity:1;fill-rule:nonzero;stroke:none;stroke-width:1.06847;stroke-linecap:round;stroke-linejoin:round;stroke-miterlimit:4;stroke-dasharray:none;stroke-dashoffset:2.1875;stroke-opacity:1;color-rendering:auto;image-rendering:auto;shape-rendering:auto;text-rendering:auto;enable-background:accumulate;stop-color:#000000"
       d="m 32.000199,1.0000218 c -3.82292,4.8e-4 -6.94553,3.12213 -6.94553,6.94444 -2e-5,0.1245 0.0247,0.24722 0.0313,0.37144 l -9.66491,5.5797602 c -0.10449,-0.068 -0.19867,-0.15049 -0.30678,-0.21284 -3.31122,-1.91171 -7.5759197,-0.76936 -9.4875097,2.54156 -1.91192,3.31069 -0.76946,7.57476 2.54197,9.48601 a 1.0686512,1.0684829 0 0 0 0.002,0.002 c 0.10765,0.0619 0.22526,0.10257 0.336,0.15859 v 11.15744 c -0.11106,0.0564 -0.23016,0.0963 -0.33809,0.15859 -3.31079,1.91114 -4.45303,6.17552 -2.54196,9.486 1.91144,3.3102 6.1765197,4.45226 9.4875097,2.54157 0.10796,-0.0623 0.20238,-0.14484 0.30677,-0.21284 l 9.66492,5.57767 c -0.006,0.12491 -0.0312,0.24834 -0.0313,0.37352 5.3e-4,3.82228 3.12265,6.94444 6.94553,6.94444 3.82293,-4.8e-4 6.94555,-3.12211 6.94555,-6.94444 10e-6,-0.12448 -0.0247,-0.24721 -0.0313,-0.37142 l 9.6649,-5.57977 c 0.10438,0.0679 0.19879,0.15056 0.30678,0.21284 3.31119,1.91171 7.57589,0.76931 9.48751,-2.54157 1.912,-3.31068 0.76948,-7.5768 -2.54196,-9.4881 a 1.0686512,1.0684829 0 0 0 -0.002,0 c -0.10813,-0.0622 -0.22687,-0.10235 -0.3381,-0.15857 v -11.15522 c 0.11151,-0.0566 0.22972,-0.0981 0.3381,-0.16067 3.31083,-1.91111 4.45508,-6.17549 2.54405,-9.48602 -1.91144,-3.31025 -6.1765,-4.45441 -9.48751,-2.54365 a 1.0686512,1.0684829 0 0 0 0,0.002 c -0.10845,0.0626 -0.20403,0.1445 -0.30887,0.21284 l -9.66287,-5.5776802 c 0.006,-0.12488 0.0312,-0.24834 0.0313,-0.37352 a 1.0686512,1.0684829 0 0 0 0,-0.002 c -2.4e-4,-2.27078 -1.20107,-4.30377 -3.04076,-5.59641 a 1.0686512,1.0684829 0 0 0 -0.38401,-0.38812 c -1.06736,-0.62767 -2.28248,-0.95787 -3.52077,-0.95779 z m 0,2.13675 c 0.85738,-5e-5 1.69858,0.22898 2.43762,0.66357 1.46996,0.86453 2.37065,2.43899 2.37083,4.14412 -2.6e-4,0.26316 -0.0235,0.52711 -0.0668,0.78668 a 1.0686512,1.0684829 0 0 0 0.51967,1.09968 l 10.82945,6.2516702 a 1.0686512,1.0684829 0 0 0 1.21254,-0.10011 c 0.20382,-0.16758 0.42264,-0.31878 0.65114,-0.45072 2.31078,-1.33353 5.23378,-0.54911 6.5678,1.76115 1.33374,2.31044 0.54922,5.23298 -1.76143,6.56676 -0.22808,0.13172 -0.4672,0.24329 -0.71376,0.33595 a 1.0686512,1.0684829 0 0 0 -0.69289,1.0016 v 12.50335 a 1.0686512,1.0684829 0 0 0 0.69498,1.0016 c 0.24688,0.0922 0.48736,0.20458 0.71585,0.33595 2.30902,1.33462 3.09114,4.25708 1.75725,6.56675 -1.33415,2.31071 -4.25689,3.09328 -6.5678,1.75907 a 1.0686512,1.0684829 0 0 0 -0.002,0 c -0.22828,-0.13163 -0.44337,-0.28145 -0.647,-0.44863 a 1.0686512,1.0684829 0 0 0 -1.21255,-0.10011 l -10.82945,6.25167 a 1.0686512,1.0684829 0 0 0 -0.51967,1.09967 c 0.0431,0.25982 0.0647,0.52333 0.0647,0.78668 0,2.66763 -2.1404,4.80736 -4.80845,4.80769 -2.66731,0 -4.80693,-2.139 -4.80844,-4.8056 v -0.002 c 2.6e-4,-0.26314 0.0215,-0.5271 0.0647,-0.78668 a 1.0686512,1.0684829 0 0 0 -0.51966,-1.0997 l -10.82946,-6.25167 a 1.0686512,1.0684829 0 0 0 -1.21254,0.10011 c -0.20385,0.16759 -0.42053,0.3167 -0.64905,0.44863 -2.31076,1.33348 -5.2337797,0.55114 -6.5677997,-1.75907 -1.33375,-2.31042 -0.55128,-5.23295 1.75935,-6.56675 a 1.0686512,1.0684829 0 0 0 0.002,0 c 0.2281,-0.13172 0.46508,-0.24539 0.71165,-0.33805 a 1.0686512,1.0684829 0 0 0 0.6928997,-0.9995 v -12.50335 a 1.0686512,1.0684829 0 0 0 -0.6949797,-1.0016 c -0.24627,-0.092 -0.48371,-0.205 -0.71165,-0.33595 h -0.002 c -2.30998,-1.33426 -3.09342,-4.25667 -1.75934,-6.56676 1.33412,-2.31073 4.2589397,-3.09326 6.5698797,-1.75906 0.22825,0.13163 0.44538,0.28144 0.64905,0.44863 a 1.0686512,1.0684829 0 0 0 1.21254,0.10011 l 10.82946,-6.2516702 a 1.0686512,1.0684829 0 0 0 0.51967,-1.09968 c -0.0431,-0.25983 -0.0647,-0.5233 -0.0647,-0.78668 0,-2.66763 2.14039,-4.80735 4.80844,-4.80769 z m 3.73156,8.2778302 a 1.0686512,1.0684829 0 0 0 -0.67828,0.24415 c -0.40781,0.33492 -0.86662,0.59912 -1.36073,0.78458 a 1.0686512,1.0684829 0 0 0 -0.69287,1.0016 v 12.50543 a 1.0686512,1.0684829 0 0 0 0.69287,0.99952 c 0.49322,0.18539 0.95147,0.45021 1.35865,0.78458 a 1.0686512,1.0684829 0 0 0 1.21254,0.10011 l 10.83154,-6.25166 a 1.0686512,1.0684829 0 0 0 0.51967,-1.09969 c -0.0862,-0.52034 -0.0862,-1.05299 0,-1.57335 a 1.0686512,1.0684829 0 0 0 -0.51967,-1.09967 l -10.82945,-6.25166 a 1.0686512,1.0684829 0 0 0 -0.53427,-0.14399 z m -7.4485,0.002 a 1.0686512,1.0684829 0 0 0 -0.54888,0.1419 l -10.83154,6.25375 a 1.0686512,1.0684829 0 0 0 -0.51966,1.09968 c 0.0864,0.52055 0.0862,1.05069 0,1.57126 a 1.0686512,1.0684829 0 0 0 0.52175,1.09968 l 10.82945,6.25375 a 1.0686512,1.0684829 0 0 0 1.21462,-0.10224 c 0.20319,-0.16731 0.41918,-0.31676 0.64698,-0.44863 0.22828,-0.13217 0.46691,-0.24503 0.71376,-0.33805 a 1.0686512,1.0684829 0 0 0 0.69079,-0.99951 l 0.002,-12.50334 a 1.0686512,1.0684829 0 0 0 -0.69288,-0.99952 c -0.49423,-0.18559 -0.95496,-0.45153 -1.36282,-0.78667 a 1.0686512,1.0684829 0 0 0 -0.66363,-0.24192 z m 0,2.29326 c 0.18882,0.12157 0.38255,0.23115 0.58227,0.33387 l -0.002,11.23255 c -0.11133,0.0567 -0.22988,0.098 -0.33808,0.16068 -0.10746,0.0622 -0.20082,0.14502 -0.30471,0.21284 l -9.72752,-5.61524 c 0.0109,-0.2251 0.008,-0.44889 -0.002,-0.67399 z m 7.43389,0 9.79012,5.65071 c -0.0109,0.22452 -0.0109,0.44739 0,0.67191 l -9.79221,5.6507 c -0.18778,-0.12078 -0.37955,-0.23165 -0.57809,-0.33383 v -11.30558 c 0.19928,-0.10246 0.39174,-0.21263 0.58018,-0.33387 z m -20.34409,9.45888 a 1.0686512,1.0684829 0 0 0 -0.67826,0.24206 c -0.4078,0.33492 -0.86875,0.60121 -1.36281,0.78667 a 1.0686512,1.0684829 0 0 0 -0.69289,0.99952 v 12.50334 a 1.0686512,1.0684829 0 0 0 0.69289,1.0016 c 0.49423,0.18559 0.95493,0.45153 1.36281,0.78667 a 1.0686512,1.0684829 0 0 0 1.21254,0.0981 l 10.82945,-6.25167 a 1.0686512,1.0684829 0 0 0 0.51967,-1.09968 c -0.0862,-0.52032 -0.0862,-1.05094 0,-1.57126 a 1.0686512,1.0684829 0 0 0 -0.51967,-1.09968 l -10.82945,-6.25375 a 1.0686512,1.0684829 0 0 0 -0.53428,-0.1419 z m 33.27098,0 a 1.0686512,1.0684829 0 0 0 -0.55096,0.1419 l -10.82946,6.25375 a 1.0686512,1.0684829 0 0 0 -0.51967,1.09968 c 0.0864,0.52056 0.0862,1.05068 0,1.57126 a 1.0686512,1.0684829 0 0 0 0.51967,1.09968 l 10.82946,6.25375 a 1.0686512,1.0684829 0 0 0 1.21254,-0.10011 c 0.4078,-0.33492 0.86874,-0.60119 1.36281,-0.78666 a 1.0686512,1.0684829 0 0 0 0.69288,-0.99952 v -12.50539 a 1.0686512,1.0684829 0 0 0 -0.69288,-0.99952 c -0.49423,-0.18557 -0.95494,-0.45155 -1.36281,-0.78667 a 1.0686512,1.0684829 0 0 0 -0.66158,-0.24206 z m -33.28558,2.29326 9.79012,5.6507 c -0.0109,0.22451 -0.0109,0.44741 0,0.67192 l -9.79012,5.65278 c -0.18903,-0.12171 -0.38234,-0.23313 -0.58226,-0.33595 v -11.30555 c 0.19964,-0.10267 0.39348,-0.21238 0.58226,-0.33387 z m 33.28349,0 c 0.18903,0.1217 0.38233,0.23314 0.58227,0.33595 v 11.3035 c -0.2005,0.1031 -0.39483,0.21387 -0.58435,0.33595 l -9.78804,-5.6507 c 0.0109,-0.22511 0.011,-0.44889 0,-0.674 z m -20.3566,9.45888 a 1.0686512,1.0684829 0 0 0 -0.55097,0.1419 l -10.82945,6.25375 a 1.0686512,1.0684829 0 0 0 -0.51966,1.09968 c 0.0862,0.52032 0.0862,1.05094 0,1.57126 a 1.0686512,1.0684829 0 0 0 0.51966,1.09968 l 10.82945,6.25166 a 1.0686512,1.0684829 0 0 0 1.21254,-0.1001 c 0.40781,-0.33496 0.86872,-0.59911 1.36282,-0.78459 a 1.0686512,1.0684829 0 0 0 0.69289,-1.0016 v -12.50331 a 1.0686512,1.0684829 0 0 0 -0.69289,-0.99951 c -0.49421,-0.1856 -0.95498,-0.45153 -1.36282,-0.78667 a 1.0686512,1.0684829 0 0 0 -0.66157,-0.24206 z m 7.44432,0 a 1.0686512,1.0684829 0 0 0 -0.68037,0.24206 c -0.20318,0.16731 -0.41916,0.31884 -0.64695,0.45071 -0.22809,0.13172 -0.46512,0.24329 -0.71168,0.33595 a 1.0686512,1.0684829 0 0 0 -0.69288,0.99952 v 12.50543 a 1.0686512,1.0684829 0 0 0 0.69288,0.99952 c 0.49423,0.18557 0.95494,0.45155 1.36281,0.78667 a 1.0686512,1.0684829 0 0 0 1.21255,0.1001 l 10.82945,-6.25375 a 1.0686512,1.0684829 0 0 0 0.51967,-1.09968 c -0.0863,-0.52055 -0.0862,-1.05068 0,-1.57126 a 1.0686512,1.0684829 0 0 0 -0.51967,-1.10172 l -10.83154,-6.25167 a 1.0686512,1.0684829 0 0 0 -0.53427,-0.1419 z m -7.44641,2.29325 c 0.18881,0.12158 0.38256,0.23115 0.58227,0.33387 v 11.30559 c -0.19967,0.10267 -0.39349,0.21236 -0.58227,0.33387 l -9.79013,-5.65067 c 0.0109,-0.22451 0.0109,-0.4474 0,-0.67191 z m 7.49442,0.0355 9.72959,5.61524 c -0.0109,0.22441 -0.0109,0.4475 0,0.67191 l -9.79012,5.65279 c -0.18903,-0.1217 -0.38232,-0.23314 -0.58227,-0.33595 v -11.2304 c 0.11123,-0.0565 0.22999,-0.0982 0.3381,-0.16067 0.10745,-0.0622 0.20081,-0.14502 0.3047,-0.21285 z" />
    <path
       id="rect1475-9-6-4-8-0"
       style="display:inline;fill:#f1f0f1;fill-opacity:1;stroke-width:0.918135;stroke-linecap:round;stroke-linejoin:round;stroke-dashoffset:2.1875;stroke-opacity:0.74902"
       d="m 34.979399,2.8794818 a 5.8760686,5.8760686 0 0 0 -2.97936,-0.81108 5.8760686,5.8760686 0 0 0 -5.87533,5.87606 5.8760686,5.8760686 0 0 0 0.0789,0.96084 l -10.82749,6.2513002 a 5.8760686,5.8760686 0 0 0 -0.79308,-0.54877 5.8760686,5.8760686 0 0 0 -8.0273597,2.15092 5.8760686,5.8760686 0 0 0 2.15102,8.02726 5.8760686,5.8760686 0 0 0 0.87278,0.41059 v 12.50409 a 5.8760686,5.8760686 0 0 0 -0.87159,0.41206 5.8760686,5.8760686 0 0 0 -2.15119,8.02625 5.8760686,5.8760686 0 0 0 8.0261497,2.15119 5.8760686,5.8760686 0 0 0 0.79392,-0.55005 l 10.82738,6.25121 a 5.8760686,5.8760686 0 0 0 -0.0799,0.96248 5.8760686,5.8760686 0 0 0 5.87607,5.87525 5.8760686,5.8760686 0 0 0 5.87533,-5.87607 5.8760686,5.8760686 0 0 0 -0.079,-0.96074 l 10.82749,-6.25131 a 5.8760686,5.8760686 0 0 0 0.79299,0.54877 5.8760686,5.8760686 0 0 0 8.02735,-2.15082 5.8760686,5.8760686 0 0 0 -2.15092,-8.02735 5.8760686,5.8760686 0 0 0 -0.87286,-0.41059 v -12.50409 a 5.8760686,5.8760686 0 0 0 0.87148,-0.41206 5.8760686,5.8760686 0 0 0 2.1513,-8.02625 5.8760686,5.8760686 0 0 0 -8.02625,-2.1512 5.8760686,5.8760686 0 0 0 -0.79383,0.55007 L 37.795989,8.9062218 a 5.8760686,5.8760686 0 0 0 0.0799,-0.96249 5.8760686,5.8760686 0 0 0 -2.89681,-5.06416 z m 0.75149,9.6048002 10.82895,6.25204 a 5.8760686,5.8760686 0 0 0 0,1.92092 l -10.82996,6.25196 a 5.8760686,5.8760686 0 0 0 -1.66164,-0.95936 l -6.5e-4,-12.50501 a 5.8760686,5.8760686 0 0 0 1.66449,-0.96055 z m -7.46196,0 a 5.8760686,5.8760686 0 0 0 1.66485,0.9612 l -10e-5,12.50252 a 5.8760686,5.8760686 0 0 0 -0.8724,0.41353 5.8760686,5.8760686 0 0 0 -0.79135,0.54941 l -10.82903,-6.25204 a 5.8760686,5.8760686 0 0 0 -3.8e-4,-1.92175 z m 20.35653,11.75287 a 5.8760686,5.8760686 0 0 0 1.66486,0.96111 v 12.50408 a 5.8760686,5.8760686 0 0 0 -1.6644,0.96055 l -10.82904,-6.25204 a 5.8760686,5.8760686 0 0 0 -2.8e-4,-1.92175 z m -33.25038,-1.9e-4 10.82896,6.25214 a 5.8760686,5.8760686 0 0 0 0,1.92083 l -10.82832,6.25288 a 5.8760686,5.8760686 0 0 0 -1.66485,-0.9612 v -12.50409 a 5.8760686,5.8760686 0 0 0 1.6644,-0.96056 z m 20.35498,11.75196 10.82905,6.25214 a 5.8760686,5.8760686 0 0 0 2.7e-4,1.92175 l -10.8283,6.25278 a 5.8760686,5.8760686 0 0 0 -1.66486,-0.96112 v -12.50408 a 5.8760686,5.8760686 0 0 0 0.87149,-0.41206 5.8760686,5.8760686 0 0 0 0.79135,-0.54941 z m -7.46031,-2.8e-4 a 5.8760686,5.8760686 0 0 0 1.66477,0.9612 v 12.50399 a 5.8760686,5.8760686 0 0 0 -1.66449,0.96066 l -10.82895,-6.25214 a 5.8760686,5.8760686 0 0 0 0,-1.92083 z" />
    <circle
       style="fill:#161817;fill-opacity:1;stroke:none;stroke-width:6.05742;stroke-linecap:round;stroke-linejoin:round;stroke-miterlimit:4;stroke-dasharray:none;stroke-opacity:1;paint-order:stroke fill markers"
       id="path3739-03-5"
       cx="52.352779"
       cy="19.696581"
       r="6.9444447" />
    <circle
       style="opacity:0.875;fill:#f1f0f1;fill-opacity:1;stroke:none;stroke-width:4.68931;stroke-linecap:round;stroke-linejoin:round;stroke-miterlimit:4;stroke-dasharray:none;stroke-opacity:1;paint-order:stroke fill markers"
       id="path3739-5-0-8-6"
       cx="52.352474"
       cy="19.697008"
       r="5.3759999" />
    <circle
       style="fill:#161817;fill-opacity:1;stroke:none;stroke-width:6.05742;stroke-linecap:round;stroke-linejoin:round;stroke-miterlimit:4;stroke-dasharray:none;stroke-opacity:1;paint-order:stroke fill markers"
       id="path3739-03-4-6"
       cx="52.352779"
       cy="43.200851"
       r="6.9444447" />
    <circle
       style="opacity:0.875;fill:#f1f0f1;fill-opacity:1;stroke:none;stroke-width:4.68931;stroke-linecap:round;stroke-linejoin:round;stroke-miterlimit:4;stroke-dasharray:none;stroke-opacity:1;paint-order:stroke fill markers"
       id="path3739-5-0-2-4"
       cx="52.352779"
       cy="43.200409"
       r="5.3759999" />
    <circle
       style="fill:#161817;fill-opacity:1;stroke:none;stroke-width:6.05742;stroke-linecap:round;stroke-linejoin:round;stroke-miterlimit:4;stroke-dasharray:none;stroke-opacity:1;paint-order:stroke fill markers"
       id="path3739-03-0-0"
       cx="32.00024"
       cy="31.448717"
       r="6.9444447" />
    <circle
       style="opacity:0.875;fill:#f1f0f1;fill-opacity:1;stroke:none;stroke-width:4.68931;stroke-linecap:round;stroke-linejoin:round;stroke-miterlimit:4;stroke-dasharray:none;stroke-opacity:1;paint-order:stroke fill markers"
       id="path3739-5-0-6-0"
       cx="32.00024"
       cy="31.448275"
       r="5.3759999" />
    <circle
       style="fill:#161817;fill-opacity:1;stroke:none;stroke-width:6.05742;stroke-linecap:round;stroke-linejoin:round;stroke-miterlimit:4;stroke-dasharray:none;stroke-opacity:1;paint-order:stroke fill markers"
       id="path3739-03-0-9-4"
       cx="32.00024"
       cy="54.953003"
       r="6.9444447" />
    <circle
       style="opacity:0.875;fill:#f1f0f1;fill-opacity:1;stroke:none;stroke-width:4.68931;stroke-linecap:round;stroke-linejoin:round;stroke-miterlimit:4;stroke-dasharray:none;stroke-opacity:1;paint-order:stroke fill markers"
       id="path3739-5-0-6-1-6"
       cx="32.00024"
       cy="54.952545"
       r="5.3759999" />
    <circle
       style="fill:#161817;fill-opacity:1;stroke:none;stroke-width:6.05742;stroke-linecap:round;stroke-linejoin:round;stroke-miterlimit:4;stroke-dasharray:none;stroke-opacity:1;paint-order:stroke fill markers"
       id="path3739-03-3-2"
       cx="11.644469"
       cy="43.200851"
       r="6.9444447" />
    <circle
       style="opacity:0.875;fill:#f1f0f1;fill-opacity:1;stroke:none;stroke-width:4.68931;stroke-linecap:round;stroke-linejoin:round;stroke-miterlimit:4;stroke-dasharray:none;stroke-opacity:1;paint-order:stroke fill markers"
       id="path3739-5-0-9-6"
       cx="11.644532"
       cy="43.200409"
       r="5.3759999" />
    <circle
       style="fill:#161817;fill-opacity:1;stroke:none;stroke-width:6.05742;stroke-linecap:round;stroke-linejoin:round;stroke-miterlimit:4;stroke-dasharray:none;stroke-opacity:1;paint-order:stroke fill markers"
       id="path3739-03-9-7"
       cx="11.644469"
       cy="19.696581"
       r="6.9444447" />
    <circle
       style="opacity:0.875;fill:#f1f0f1;fill-opacity:1;stroke:none;stroke-width:4.68931;stroke-linecap:round;stroke-linejoin:round;stroke-miterlimit:4;stroke-dasharray:none;stroke-opacity:1;paint-order:stroke fill markers"
       id="path3739-5-0-1-5"
       cx="11.644532"
       cy="19.696138"
       r="5.3759999" />
    <circle
       style="fill:url(#linearGradient4049);fill-opacity:1;stroke:none;stroke-width:5.12551;stroke-linecap:round;stroke-linejoin:round;stroke-miterlimit:4;stroke-dasharray:none;stroke-opacity:1;paint-order:stroke fill markers"
       id="path3739-5-0-1-3"
       cx="11.644104"
       cy="19.696581"
       r="5.8760686" />
    <circle
       style="fill:#161817;fill-opacity:1;stroke:none;stroke-width:6.05742;stroke-linecap:round;stroke-linejoin:round;stroke-miterlimit:4;stroke-dasharray:none;stroke-opacity:1;paint-order:stroke fill markers"
       id="path3739-03-1-6"
       cx="32.00024"
       cy="7.9444447"
       r="6.9444447" />
    <circle
       style="opacity:0.875;fill:#f1f0f1;fill-opacity:1;stroke:none;stroke-width:4.68931;stroke-linecap:round;stroke-linejoin:round;stroke-miterlimit:4;stroke-dasharray:none;stroke-opacity:1;paint-order:stroke fill markers"
       id="path3739-5-0-98"
       cx="32.00024"
       cy="7.9440022"
       r="5.3759999" />
    <circle
       style="fill:url(#linearGradient3989);fill-opacity:1;stroke:none;stroke-width:5.12551;stroke-linecap:round;stroke-linejoin:round;stroke-miterlimit:4;stroke-dasharray:none;stroke-opacity:1;paint-order:stroke fill markers"
       id="path3739-5-0-8-67"
       cx="52.352413"
       cy="19.696581"
       r="5.8760686" />
    <circle
       style="fill:url(#linearGradient4004);fill-opacity:1;stroke:none;stroke-width:5.12551;stroke-linecap:round;stroke-linejoin:round;stroke-miterlimit:4;stroke-dasharray:none;stroke-opacity:1;paint-order:stroke fill markers"
       id="path3739-5-0-2-5"
       cx="52.352413"
       cy="43.200851"
       r="5.8760686" />
    <circle
       style="fill:url(#linearGradient4019);fill-opacity:1;stroke:none;stroke-width:5.12551;stroke-linecap:round;stroke-linejoin:round;stroke-miterlimit:4;stroke-dasharray:none;stroke-opacity:1;paint-order:stroke fill markers"
       id="path3739-5-0-6-3"
       cx="31.999876"
       cy="31.448717"
       r="5.8760686" />
    <circle
       style="fill:url(#linearGradient4079);fill-opacity:1;stroke:none;stroke-width:5.12551;stroke-linecap:round;stroke-linejoin:round;stroke-miterlimit:4;stroke-dasharray:none;stroke-opacity:1;paint-order:stroke fill markers"
       id="path3739-5-0-6-1-5"
       cx="31.999876"
       cy="54.953003"
       r="5.8760686" />
    <circle
       style="fill:url(#linearGradient4034);fill-opacity:1;stroke:none;stroke-width:5.12551;stroke-linecap:round;stroke-linejoin:round;stroke-miterlimit:4;stroke-dasharray:none;stroke-opacity:1;paint-order:stroke fill markers"
       id="path3739-5-0-9-62"
       cx="11.644104"
       cy="43.200851"
       r="5.8760686" />
    <circle
       style="fill:url(#linearGradient3954);fill-opacity:1;stroke:none;stroke-width:5.12551;stroke-linecap:round;stroke-linejoin:round;stroke-miterlimit:4;stroke-dasharray:none;stroke-opacity:1;paint-order:stroke fill markers"
       id="path3739-5-0-91"
       cx="31.999876"
       cy="7.9444447"
       r="5.8760686" />
  </g>
</svg>
