<?xml version="1.0" encoding="UTF-8" standalone="no"?>
<svg
   xmlns:dc="http://purl.org/dc/elements/1.1/"
   xmlns:cc="http://creativecommons.org/ns#"
   xmlns:rdf="http://www.w3.org/1999/02/22-rdf-syntax-ns#"
   xmlns:svg="http://www.w3.org/2000/svg"
   xmlns="http://www.w3.org/2000/svg"
   xmlns:xlink="http://www.w3.org/1999/xlink"
   xmlns:sodipodi="http://sodipodi.sourceforge.net/DTD/sodipodi-0.dtd"
   xmlns:inkscape="http://www.inkscape.org/namespaces/inkscape"
   width="64"
   height="64"
   viewBox="0 0 64 64"
   version="1.1"
   id="svg6374"
   inkscape:version="1.0.2 (e86c870879, 2021-01-15)"
   sodipodi:docname="text-x-cmake.svg">
  <defs
     id="defs6368">
    <linearGradient
       x1="102.48344"
       y1="103.26587"
       x2="238.25964"
       y2="231.90547"
       id="linearGradient-2"
       gradientTransform="matrix(0.11086626,0,0,0.11203135,188.08384,722.26635)"
       gradientUnits="userSpaceOnUse">
      <stop
         stop-color="#FFE052"
         offset="0%"
         id="stop119" />
      <stop
         stop-color="#FFC331"
         offset="100%"
         id="stop121" />
    </linearGradient>
    <linearGradient
       x1="24.714943"
       y1="22.898218"
       x2="151.13554"
       y2="148.33669"
       id="linearGradient-1"
       gradientTransform="matrix(0.11086626,0,0,0.11203134,188.08384,722.26635)"
       gradientUnits="userSpaceOnUse">
      <stop
         stop-color="#387EB8"
         offset="0%"
         id="stop114" />
      <stop
         stop-color="#366994"
         offset="100%"
         id="stop116" />
    </linearGradient>
    <linearGradient
       inkscape:collect="always"
       xlink:href="#linearGradient3881"
       id="linearGradient2436"
       x1="-108.17035"
       y1="502.9451"
       x2="-61.808067"
       y2="561.33618"
       gradientUnits="userSpaceOnUse"
       gradientTransform="translate(117,-500)" />
    <linearGradient
       inkscape:collect="always"
       id="linearGradient3881">
      <stop
         style="stop-color:#5780b7;stop-opacity:1"
         offset="0"
         id="stop3877" />
      <stop
         style="stop-color:#d94a72;stop-opacity:1"
         offset="1"
         id="stop3879" />
    </linearGradient>
  </defs>
  <sodipodi:namedview
     id="base"
     pagecolor="#cecece"
     bordercolor="#666666"
     borderopacity="1.0"
     inkscape:pageopacity="0"
     inkscape:pageshadow="2"
     inkscape:zoom="2.7426703"
     inkscape:cx="35.478521"
     inkscape:cy="52.549069"
     inkscape:document-units="px"
     inkscape:current-layer="layer1"
     inkscape:document-rotation="0"
     showgrid="false"
     units="px"
     inkscape:window-width="1024"
     inkscape:window-height="1080"
     inkscape:window-x="68"
     inkscape:window-y="56"
     inkscape:window-maximized="0" />
  <metadata
     id="metadata6371">
    <rdf:RDF>
      <cc:Work
         rdf:about="">
        <dc:format>image/svg+xml</dc:format>
        <dc:type
           rdf:resource="http://purl.org/dc/dcmitype/StillImage" />
        <dc:title></dc:title>
      </cc:Work>
    </rdf:RDF>
  </metadata>
  <g
     inkscape:label="Layer 1"
     inkscape:groupmode="layer"
     id="layer1">
    <path
       id="rect954-7-0-7-3-0-0-0-6-3-9-62-5-9-6"
       style="color:#000000;font-style:normal;font-variant:normal;font-weight:normal;font-stretch:normal;font-size:medium;line-height:normal;font-family:sans-serif;font-variant-ligatures:normal;font-variant-position:normal;font-variant-caps:normal;font-variant-numeric:normal;font-variant-alternates:normal;font-variant-east-asian:normal;font-feature-settings:normal;font-variation-settings:normal;text-indent:0;text-align:start;text-decoration:none;text-decoration-line:none;text-decoration-style:solid;text-decoration-color:#000000;letter-spacing:normal;word-spacing:normal;text-transform:none;writing-mode:lr-tb;direction:ltr;text-orientation:mixed;dominant-baseline:auto;baseline-shift:baseline;text-anchor:start;white-space:normal;shape-padding:0;shape-margin:0;inline-size:0;clip-rule:nonzero;display:inline;overflow:visible;visibility:visible;opacity:0.85;isolation:auto;mix-blend-mode:normal;color-interpolation:sRGB;color-interpolation-filters:linearRGB;solid-color:#000000;solid-opacity:1;vector-effect:none;fill:url(#linearGradient2436);fill-opacity:1;fill-rule:nonzero;stroke:none;stroke-linecap:round;stroke-linejoin:round;stroke-miterlimit:4;stroke-dasharray:none;stroke-dashoffset:2.1875;stroke-opacity:1;color-rendering:auto;image-rendering:auto;shape-rendering:auto;text-rendering:auto;enable-background:accumulate;stop-color:#000000"
       d="M 13,2.5 C 10.53295,2.5 8.5,4.53295 8.5,7 v 50.00001 c 0,2.467 2.03295,4.5 4.5,4.5 h 38 c 2.467,0 4.5,-2.033 4.5,-4.5 V 7 C 55.5,4.53295 53.467,2.5 51,2.5 Z m 0,3 h 38 c 0.8569,0 1.5,0.64306 1.5,1.5 v 50.00001 c 0,0.8569 -0.6431,1.5 -1.5,1.5 H 13 c -0.85695,0 -1.5,-0.6431 -1.5,-1.5 V 7 c 0,-0.85694 0.64305,-1.5 1.5,-1.5 z" />
    <rect
       style="fill:#4c4c4f;fill-opacity:1;stroke-width:0.495;stroke-linecap:round;stroke-linejoin:round;stroke-miterlimit:4;stroke-dasharray:none;stroke-dashoffset:2.1875"
       id="rect954-0-8-5"
       width="44"
       height="56"
       x="9.9999695"
       y="3.99997"
       rx="3"
       ry="3" />
    <path
       id="path1478-5-1"
       style="opacity:0.375;fill:#141415;fill-opacity:1;fill-rule:nonzero;stroke:none;stroke-width:0.24766px;stroke-linecap:butt;stroke-linejoin:miter;stroke-opacity:1"
       d="m 31.97606,16.5 v 0.004 L 14.187,52.38486 21.13231,46.39267 14.187,52.4122 l 35.62696,0.004 -4.54883,-1.88867 4.52539,1.86523 -17.8125,-35.88867 v -0.002 z m 1.63282,19.125 0.89062,10.43555 -8.76758,-3.63867 z" />
    <path
       id="path1478-5"
       style="fill:#5780b7;fill-opacity:1;fill-rule:nonzero;stroke:none;stroke-width:0.24766px;stroke-linecap:butt;stroke-linejoin:miter;stroke-opacity:1"
       d="M 31.97657,15 14.1865,50.88589 33.6101,34.12272 Z" />
    <path
       id="path530-4"
       style="fill:#d94a72;fill-opacity:1;fill-rule:nonzero;stroke:none;stroke-width:0.24766px;stroke-linecap:butt;stroke-linejoin:miter;stroke-opacity:1"
       d="M 31.97585,15 34.49969,44.59463 49.78887,50.892 Z" />
    <path
       id="path1483-8"
       style="fill:#8fa864;fill-opacity:1;fill-rule:nonzero;stroke:none;stroke-width:0.24766px;stroke-linecap:butt;stroke-linejoin:miter;stroke-opacity:1"
       d="m 25.71717,40.91619 -11.53055,9.99679 35.62688,0.004 z" />
  </g>
</svg>
