<?xml version="1.0" encoding="UTF-8" standalone="no"?>
<svg
   xmlns:dc="http://purl.org/dc/elements/1.1/"
   xmlns:cc="http://creativecommons.org/ns#"
   xmlns:rdf="http://www.w3.org/1999/02/22-rdf-syntax-ns#"
   xmlns:svg="http://www.w3.org/2000/svg"
   xmlns="http://www.w3.org/2000/svg"
   xmlns:sodipodi="http://sodipodi.sourceforge.net/DTD/sodipodi-0.dtd"
   xmlns:inkscape="http://www.inkscape.org/namespaces/inkscape"
   width="64"
   height="64"
   viewBox="0 0 64 64"
   version="1.1"
   id="svg6374"
   inkscape:version="1.0.2 (e86c870879, 2021-01-15)"
   sodipodi:docname="text-x-lua.svg">
  <defs
     id="defs6368" />
  <sodipodi:namedview
     id="base"
     pagecolor="#cecece"
     bordercolor="#666666"
     borderopacity="1.0"
     inkscape:pageopacity="0"
     inkscape:pageshadow="2"
     inkscape:zoom="2.7426703"
     inkscape:cx="35.478521"
     inkscape:cy="52.549069"
     inkscape:document-units="px"
     inkscape:current-layer="layer1"
     inkscape:document-rotation="0"
     showgrid="false"
     units="px"
     inkscape:window-width="1024"
     inkscape:window-height="1080"
     inkscape:window-x="68"
     inkscape:window-y="56"
     inkscape:window-maximized="0" />
  <metadata
     id="metadata6371">
    <rdf:RDF>
      <cc:Work
         rdf:about="">
        <dc:format>image/svg+xml</dc:format>
        <dc:type
           rdf:resource="http://purl.org/dc/dcmitype/StillImage" />
        <dc:title></dc:title>
      </cc:Work>
    </rdf:RDF>
  </metadata>
  <g
     inkscape:label="Layer 1"
     inkscape:groupmode="layer"
     id="layer1">
    <path
       id="rect954-7-0-7-3-0-0-0-6-3-3-6-7-8"
       style="color:#000000;font-style:normal;font-variant:normal;font-weight:normal;font-stretch:normal;font-size:medium;line-height:normal;font-family:sans-serif;font-variant-ligatures:normal;font-variant-position:normal;font-variant-caps:normal;font-variant-numeric:normal;font-variant-alternates:normal;font-variant-east-asian:normal;font-feature-settings:normal;font-variation-settings:normal;text-indent:0;text-align:start;text-decoration:none;text-decoration-line:none;text-decoration-style:solid;text-decoration-color:#000000;letter-spacing:normal;word-spacing:normal;text-transform:none;writing-mode:lr-tb;direction:ltr;text-orientation:mixed;dominant-baseline:auto;baseline-shift:baseline;text-anchor:start;white-space:normal;shape-padding:0;shape-margin:0;inline-size:0;clip-rule:nonzero;display:inline;overflow:visible;visibility:visible;opacity:0.85;isolation:auto;mix-blend-mode:normal;color-interpolation:sRGB;color-interpolation-filters:linearRGB;solid-color:#000000;solid-opacity:1;vector-effect:none;fill:#69696d;fill-opacity:1;fill-rule:nonzero;stroke:none;stroke-linecap:round;stroke-linejoin:round;stroke-miterlimit:4;stroke-dasharray:none;stroke-dashoffset:2.1875;stroke-opacity:1;color-rendering:auto;image-rendering:auto;shape-rendering:auto;text-rendering:auto;enable-background:accumulate;stop-color:#000000"
       d="M 13,2.5 C 10.53295,2.5 8.5,4.53295 8.5,7 v 49.99995 c 0,2.4671 2.03295,4.5 4.5,4.5 h 38 c 2.467,0 4.5,-2.0329 4.5,-4.5 V 7 C 55.5,4.53295 53.467,2.5 51,2.5 Z m 0,3 h 38 c 0.8569,0 1.5,0.64306 1.5,1.5 v 49.99995 c 0,0.857 -0.6431,1.5 -1.5,1.5 H 13 c -0.85695,0 -1.5,-0.643 -1.5,-1.5 V 7 c 0,-0.85694 0.64305,-1.5 1.5,-1.5 z" />
    <rect
       style="fill:#fcfcfa;fill-opacity:1;stroke-width:0.495;stroke-linecap:round;stroke-linejoin:round;stroke-miterlimit:4;stroke-dasharray:none;stroke-dashoffset:2.1875"
       id="rect954-7-0-7-3-1-8-4-0-6"
       width="44"
       height="56"
       x="10.000031"
       y="4"
       rx="3"
       ry="3" />
    <path
       id="rect1240-8-3-1-4"
       style="opacity:0.1;fill:#274168;fill-opacity:1;stroke:none;stroke-width:0.529695;stroke-linejoin:round;stroke-opacity:0.25"
       d="m 44.25,23.75 c -1.93206,0 -3.5,1.56794 -3.5,3.5 0,1.93206 1.56794,3.5 3.5,3.5 1.93206,0 3.5,-1.56794 3.5,-3.5 0,-1.93206 -1.56794,-3.5 -3.5,-3.5 z" />
    <path
       id="rect1240-8-3-1"
       style="fill:#3b619b;fill-opacity:1;stroke:none;stroke-width:0.529695;stroke-linejoin:round;stroke-opacity:0.25"
       d="m 44.25,22.75 c -1.93206,0 -3.5,1.56794 -3.5,3.5 0,1.93206 1.56794,3.5 3.5,3.5 1.93206,0 3.5,-1.56794 3.5,-3.5 0,-1.93206 -1.56794,-3.5 -3.5,-3.5 z" />
    <path
       id="rect1240-9-6-5-7"
       style="opacity:0.1;fill:#274168;fill-opacity:1;stroke:none;stroke-width:0.531901;stroke-linejoin:round;stroke-opacity:0.25"
       d="M 32.00024,27.5 C 25.37626,27.5 20,32.87623 20,39.50024 20,46.12421 25.37626,51.49996 32.00024,51.49996 38.62423,51.49996 44,46.12421 44,39.50024 44,32.87623 38.62423,27.5 32.00024,27.5 Z m 4.98497,3.50643 a 3.5557688,3.5557678 0 0 1 0.01,0 3.5557688,3.5557678 0 0 1 3.55576,3.55577 3.5557688,3.5557678 0 0 1 -3.55576,3.55577 3.5557688,3.5557678 0 0 1 -3.55577,-3.55577 3.5557688,3.5557678 0 0 1 3.54571,-3.55577 z" />
    <path
       id="rect1240-9-6-5"
       style="fill:#3b619b;fill-opacity:1;stroke:none;stroke-width:0.531901;stroke-linejoin:round;stroke-opacity:0.25"
       d="M 32.00024,26.5 C 25.37626,26.5 20,31.87623 20,38.50024 20,45.12421 25.37626,50.5 32.00024,50.5 38.62423,50.5 44,45.12421 44,38.50024 44,31.87623 38.62423,26.5 32.00024,26.5 Z m 4.98497,3.50643 a 3.5557688,3.5557678 0 0 1 0.01,0 3.5557688,3.5557678 0 0 1 3.55576,3.55577 3.5557688,3.5557678 0 0 1 -3.55576,3.55577 3.5557688,3.5557678 0 0 1 -3.55577,-3.55577 3.5557688,3.5557678 0 0 1 3.54571,-3.55577 z" />
    <path
       id="rect1240-1-5-6"
       style="opacity:0.1;fill:#274168;fill-opacity:1;stroke:none;stroke-width:0.534111;stroke-linejoin:round;stroke-opacity:0.25"
       d="m 31.42672,23.75 c -0.45712,0.0163 -0.91785,0.0531 -1.36974,0.10869 l 0.0442,0.35879 c 0.44153,-0.0544 0.89173,-0.0903 1.33847,-0.10629 z m 1.37502,0.0101 -0.0183,0.36119 c 0.44551,0.0227 0.89507,0.0651 1.33703,0.12648 l 0.05,-0.35782 c -0.45232,-0.0629 -0.91288,-0.10664 -1.36878,-0.12985 z m -4.10007,0.3256 c -0.44662,0.0953 -0.89461,0.21183 -1.33077,0.3458 l 0.10629,0.34532 c 0.42606,-0.13088 0.86321,-0.24409 1.29952,-0.33715 z m 6.82077,0.0529 -0.0808,0.35206 c 0.43476,0.0997 0.87069,0.22008 1.29519,0.35734 l 0.1111,-0.34387 C 36.41346,24.36367 35.9674,24.24062 35.52244,24.1386 Z m -9.44624,0.75365 c -0.4224,0.17161 -0.84259,0.36404 -1.24902,0.57232 l 0.16449,0.32176 c 0.39706,-0.20346 0.80799,-0.3917 1.22064,-0.55934 z m 12.06019,0.0914 -0.14092,0.33282 c 0.41078,0.17368 0.81918,0.36781 1.21341,0.57665 l 0.1693,-0.31982 c -0.40347,-0.21378 -0.82137,-0.41194 -1.24179,-0.58965 z m -14.50388,1.16053 c -0.38621,0.2426 -0.767,0.50547 -1.13117,0.78106 l 0.21834,0.28856 c 0.35586,-0.26929 0.72777,-0.52622 1.10522,-0.76325 z m -2.18975,1.65734 c -0.33875,0.30594 -0.6682,0.63068 -0.97919,0.96478 l 0.26452,0.24624 c 0.3039,-0.3265 0.62556,-0.64363 0.95659,-0.94265 z m -1.87135,2.01036 c -0.28112,0.36005 -0.54985,0.73647 -0.79837,1.11916 l 0.303,0.19718 c 0.24285,-0.3739 0.50541,-0.74181 0.78009,-1.09366 z m -1.49622,2.30421 c -0.21452,0.40343 -0.41387,0.82064 -0.59204,1.24084 l 0.33329,0.1414 c 0.17404,-0.41052 0.36855,-0.81877 0.5781,-1.21295 z m 27.96697,0.22893 -0.32223,0.164 c 0.20246,0.39735 0.38971,0.80834 0.55693,1.22209 l 0.33523,-0.13515 c -0.17112,-0.42346 -0.3627,-0.84428 -0.56993,-1.25094 z m -29.03948,2.30085 c -0.14058,0.43425 -0.26359,0.87999 -0.36552,1.32501 l 0.35254,0.0808 c 0.0995,-0.43472 0.21953,-0.87051 0.35686,-1.29471 z m 30.06822,0.24625 -0.34532,0.10532 c 0.13044,0.42656 0.2434,0.86407 0.33619,1.30048 l 0.35349,-0.0751 c -0.0949,-0.44667 -0.21084,-0.8942 -0.34436,-1.33078 z m -30.68143,2.4307 c -0.0625,0.45132 -0.1058,0.91129 -0.12889,1.36782 l 0.36071,0.0183 c 0.0226,-0.44613 0.065,-0.89555 0.12601,-1.33655 z m 31.2528,0.25586 -0.35878,0.0443 c 0.0544,0.44283 0.0899,0.89371 0.10532,1.33944 L 47.75,38.94942 C 47.734,38.49324 47.6979,38.032 47.64227,37.57872 Z m -31.03108,2.47351 -0.36119,0.013 c 0.0162,0.45702 0.0524,0.91768 0.10773,1.36974 l 0.35879,-0.0438 c -0.0542,-0.44173 -0.0897,-0.89239 -0.10533,-1.33896 z m 30.76608,0.25298 c -0.023,0.44613 -0.0655,0.89616 -0.12698,1.33703 l 0.35784,0.0495 c 0.0629,-0.4512 0.10679,-0.91131 0.13033,-1.36782 z m -30.43904,2.41002 -0.35349,0.0756 c 0.0949,0.44656 0.21104,0.89395 0.34484,1.33029 l 0.34532,-0.10581 c -0.1307,-0.42629 -0.24388,-0.86375 -0.33667,-1.29999 z m 30.06871,0.24721 c -0.10005,0.43475 -0.22058,0.8703 -0.3583,1.29422 l 0.34387,0.11159 c 0.14096,-0.43396 0.26407,-0.87947 0.36649,-1.32453 z m -29.28236,2.31816 -0.33474,0.13563 c 0.1715,0.42263 0.36383,0.84303 0.57185,1.24949 l 0.32175,-0.16448 c -0.20323,-0.39704 -0.39135,-0.80773 -0.55886,-1.22064 z m 28.45321,0.23422 c -0.1744,0.41032 -0.36957,0.81798 -0.57953,1.21199 l 0.31934,0.17025 c 0.21488,-0.40326 0.4144,-0.82087 0.593,-1.24084 z m -27.23113,2.15368 -0.30636,0.1919 c 0.24234,0.3863 0.50508,0.7673 0.78057,1.1317 l 0.28857,-0.2184 c -0.26916,-0.356 -0.52597,-0.7278 -0.76278,-1.1052 z m 25.96864,0.2155 c -0.24316,0.3736 -0.50598,0.741 -0.78105,1.0927 l 0.28472,0.2226 c 0.28151,-0.3598 0.55051,-0.7358 0.79933,-1.1182 z m -24.35026,1.9252 -0.26836,0.2419 c 0.30577,0.3389 0.62985,0.669 0.96381,0.9802 l 0.24673,-0.2645 c -0.32639,-0.3042 -0.64335,-0.6264 -0.94218,-0.9576 z m 22.69678,0.1885 c -0.30411,0.3261 -0.62662,0.6434 -0.95804,0.9422 l 0.24191,0.2684 c 0.33918,-0.3058 0.6689,-0.6302 0.98017,-0.9639 z m -20.73308,1.641 -0.22268,0.2852 c 0.36006,0.2814 0.73675,0.5498 1.11916,0.7984 l 0.19671,-0.303 c -0.3737,-0.2429 -0.74135,-0.5056 -1.09319,-0.7806 z m 18.73956,0.1563 c -0.35606,0.2689 -0.72845,0.525 -1.10617,0.7618 l 0.19237,0.3064 c 0.38655,-0.2424 0.76731,-0.5049 1.13167,-0.7801 z m -16.48922,1.3067 -0.16977,0.3189 c 0.40339,0.2147 0.82078,0.4142 1.24085,0.5925 l 0.14139,-0.3328 c -0.41038,-0.1742 -0.81839,-0.3688 -1.21247,-0.5786 z m 14.21531,0.1179 c -0.39733,0.2031 -0.80779,0.3911 -1.22063,0.5584 l 0.13563,0.3347 c 0.42252,-0.1711 0.8428,-0.363 1.24949,-0.5709 z m -11.74421,0.9311 -0.11158,0.3439 c 0.43439,0.1408 0.88028,0.2639 1.32501,0.366 l 0.0808,-0.3521 c -0.43442,-0.1 -0.86987,-0.2202 -1.29423,-0.3578 z m 9.2582,0.076 c -0.42616,0.1304 -0.86355,0.2436 -1.29999,0.3362 l 0.075,0.3535 c 0.44677,-0.095 0.89451,-0.2103 1.33078,-0.3439 z m -6.64329,0.5242 -0.05,0.3583 c 0.45134,0.063 0.91185,0.106 1.36829,0.1294 l 0.0183,-0.3607 c -0.44602,-0.023 -0.89551,-0.066 -1.33655,-0.127 z m 4.01877,0.033 c -0.4415,0.054 -0.89215,0.089 -1.33894,0.1044 l 0.0125,0.3617 c 0.45717,-0.016 0.91839,-0.052 1.3702,-0.1073 z" />
    <path
       id="rect1240-1-5"
       style="fill:#36588c;fill-opacity:1;stroke:none;stroke-width:0.534111;stroke-linejoin:round;stroke-opacity:0.25"
       d="m 31.42672,22.75 c -0.45712,0.0163 -0.91785,0.0531 -1.36974,0.10869 l 0.0442,0.35879 c 0.44153,-0.0544 0.89173,-0.0903 1.33847,-0.10629 z m 1.37502,0.0101 -0.0183,0.36119 c 0.44551,0.0227 0.89507,0.0651 1.33703,0.12648 l 0.05,-0.35782 c -0.45232,-0.0629 -0.91288,-0.10664 -1.36878,-0.12985 z m -4.10007,0.3256 c -0.44662,0.0953 -0.89461,0.21183 -1.33077,0.3458 l 0.10629,0.34532 c 0.42606,-0.13088 0.86321,-0.24409 1.29952,-0.33715 z m 6.82077,0.0529 -0.0808,0.35206 c 0.43476,0.0997 0.87069,0.22008 1.29519,0.35734 l 0.1111,-0.34387 C 36.41346,23.36367 35.9674,23.24062 35.52244,23.1386 Z m -9.44624,0.75365 c -0.4224,0.17161 -0.84259,0.36404 -1.24902,0.57232 l 0.16449,0.32176 c 0.39706,-0.20346 0.80799,-0.3917 1.22064,-0.55934 z m 12.06019,0.0914 -0.14092,0.33282 c 0.41078,0.17368 0.81918,0.36781 1.21341,0.57665 l 0.1693,-0.31982 c -0.40347,-0.21378 -0.82137,-0.41194 -1.24179,-0.58965 z m -14.50388,1.16053 c -0.38621,0.2426 -0.767,0.50547 -1.13117,0.78106 l 0.21834,0.28856 c 0.35586,-0.26929 0.72777,-0.52622 1.10522,-0.76325 z m -2.18975,1.65734 c -0.33875,0.30594 -0.6682,0.63068 -0.97919,0.96478 l 0.26452,0.24624 c 0.3039,-0.3265 0.62556,-0.64363 0.95659,-0.94265 z m -1.87135,2.01036 c -0.28112,0.36005 -0.54985,0.73647 -0.79837,1.11916 l 0.303,0.19718 c 0.24285,-0.3739 0.50541,-0.74181 0.78009,-1.09366 z m -1.49622,2.30421 c -0.21452,0.40343 -0.41387,0.82064 -0.59204,1.24084 l 0.33329,0.1414 c 0.17404,-0.41052 0.36855,-0.81877 0.5781,-1.21295 z m 27.96697,0.22893 -0.32223,0.164 c 0.20246,0.39735 0.38971,0.80834 0.55693,1.22209 l 0.33523,-0.13515 c -0.17112,-0.42346 -0.3627,-0.84428 -0.56993,-1.25094 z m -29.03948,2.30085 c -0.14058,0.43425 -0.26359,0.87999 -0.36552,1.32501 l 0.35254,0.0808 c 0.0995,-0.43472 0.21953,-0.87051 0.35686,-1.29471 z m 30.06822,0.24625 -0.34532,0.10532 c 0.13044,0.42656 0.2434,0.86407 0.33619,1.30048 l 0.35349,-0.0751 c -0.0949,-0.44667 -0.21084,-0.8942 -0.34436,-1.33078 z m -30.68143,2.4307 c -0.0625,0.45132 -0.1058,0.91129 -0.12889,1.36782 l 0.36071,0.0183 c 0.0226,-0.44613 0.065,-0.89555 0.12601,-1.33655 z m 31.2528,0.25586 -0.35878,0.0443 c 0.0544,0.44283 0.0899,0.89371 0.10532,1.33944 L 47.75,37.94942 C 47.734,37.49324 47.6979,37.032 47.64227,36.57872 Z m -31.03108,2.47351 -0.36119,0.013 c 0.0162,0.45702 0.0524,0.91768 0.10773,1.36974 l 0.35879,-0.0438 c -0.0542,-0.44173 -0.0897,-0.89239 -0.10533,-1.33896 z m 30.76608,0.25298 c -0.023,0.44613 -0.0655,0.89616 -0.12698,1.33703 l 0.35784,0.0495 c 0.0629,-0.4512 0.10679,-0.91131 0.13033,-1.36782 z m -30.43904,2.41002 -0.35349,0.0756 c 0.0949,0.44656 0.21104,0.89395 0.34484,1.33029 l 0.34532,-0.10581 c -0.1307,-0.42629 -0.24388,-0.86375 -0.33667,-1.29999 z m 30.06871,0.24721 c -0.10005,0.43475 -0.22058,0.8703 -0.3583,1.29422 l 0.34387,0.11159 c 0.14096,-0.43396 0.26407,-0.87947 0.36649,-1.32453 z m -29.28236,2.31816 -0.33474,0.13563 c 0.1715,0.42263 0.36383,0.84303 0.57185,1.24949 l 0.32175,-0.16448 c -0.20323,-0.39704 -0.39135,-0.80773 -0.55886,-1.22064 z m 28.45321,0.23422 c -0.1744,0.41032 -0.36957,0.81798 -0.57953,1.21199 l 0.31934,0.17025 c 0.21488,-0.40326 0.4144,-0.82087 0.593,-1.24084 z m -27.23113,2.15368 -0.30636,0.19189 c 0.24234,0.38629 0.50508,0.76729 0.78057,1.13167 l 0.28857,-0.21835 c -0.26916,-0.35604 -0.52597,-0.72778 -0.76278,-1.10521 z m 25.96864,0.21546 c -0.24316,0.37364 -0.50598,0.74107 -0.78105,1.09271 l 0.28472,0.22268 c 0.28151,-0.35983 0.55051,-0.73584 0.79933,-1.1182 z m -24.35026,1.92523 -0.26836,0.24192 c 0.30577,0.33893 0.62985,0.66897 0.96381,0.98017 l 0.24673,-0.26452 c -0.32639,-0.30411 -0.64335,-0.62639 -0.94218,-0.95757 z m 22.69678,0.18854 c -0.30411,0.3261 -0.62662,0.64335 -0.95804,0.94216 l 0.24191,0.26838 c 0.33918,-0.30575 0.6689,-0.63016 0.98017,-0.96382 z m -20.73308,1.64099 -0.22268,0.2852 c 0.36006,0.28137 0.73675,0.54974 1.11916,0.79837 l 0.19671,-0.303 c -0.3737,-0.24293 -0.74135,-0.50558 -1.09319,-0.78057 z m 18.73956,0.1563 c -0.35606,0.26886 -0.72845,0.52501 -1.10617,0.76182 l 0.19237,0.30636 c 0.38655,-0.24237 0.76731,-0.50494 1.13167,-0.78009 z m -16.48922,1.30673 -0.16977,0.31887 c 0.40339,0.21471 0.82078,0.41416 1.24085,0.59253 l 0.14139,-0.33282 c -0.41038,-0.17424 -0.81839,-0.36883 -1.21247,-0.57858 z m 14.21531,0.11783 c -0.39733,0.20309 -0.80779,0.39117 -1.22063,0.55839 l 0.13563,0.33473 c 0.42252,-0.17114 0.8428,-0.36303 1.24949,-0.57088 z m -11.74421,0.93112 -0.11158,0.34388 c 0.43439,0.14084 0.88028,0.26391 1.32501,0.36599 l 0.0808,-0.35205 c -0.43442,-0.0997 -0.86987,-0.22023 -1.29423,-0.35782 z m 9.2582,0.0759 c -0.42616,0.13044 -0.86355,0.24359 -1.29999,0.33618 l 0.075,0.35349 c 0.44677,-0.0949 0.89451,-0.21031 1.33078,-0.34387 z m -6.64329,0.52423 -0.05,0.3583 c 0.45134,0.0627 0.91185,0.10602 1.36829,0.12938 l 0.0183,-0.36071 c -0.44602,-0.0229 -0.89551,-0.0657 -1.33655,-0.12697 z m 4.01877,0.0332 c -0.4415,0.054 -0.89215,0.0888 -1.33894,0.10436 l 0.0125,0.36167 c 0.45717,-0.0159 0.91839,-0.0521 1.3702,-0.10725 z" />
  </g>
</svg>
