<?xml version="1.0" encoding="UTF-8" standalone="no"?>
<svg
   xmlns:dc="http://purl.org/dc/elements/1.1/"
   xmlns:cc="http://creativecommons.org/ns#"
   xmlns:rdf="http://www.w3.org/1999/02/22-rdf-syntax-ns#"
   xmlns:svg="http://www.w3.org/2000/svg"
   xmlns="http://www.w3.org/2000/svg"
   xmlns:xlink="http://www.w3.org/1999/xlink"
   xmlns:sodipodi="http://sodipodi.sourceforge.net/DTD/sodipodi-0.dtd"
   xmlns:inkscape="http://www.inkscape.org/namespaces/inkscape"
   width="64"
   height="64"
   viewBox="0 0 64 64"
   version="1.1"
   id="svg6374"
   inkscape:version="1.0.2 (e86c870879, 2021-01-15)"
   sodipodi:docname="x-office-document.svg">
  <defs
     id="defs6368">
    <linearGradient
       inkscape:collect="always"
       xlink:href="#linearGradient1515"
       id="linearGradient1517"
       x1="32"
       y1="504"
       x2="32"
       y2="560"
       gradientUnits="userSpaceOnUse"
       gradientTransform="translate(0,-500)" />
    <linearGradient
       inkscape:collect="always"
       id="linearGradient1515">
      <stop
         style="stop-color:#5780b7;stop-opacity:1;"
         offset="0"
         id="stop1511" />
      <stop
         style="stop-color:#4974ac;stop-opacity:1"
         offset="1"
         id="stop1513" />
    </linearGradient>
  </defs>
  <sodipodi:namedview
     id="base"
     pagecolor="#cecece"
     bordercolor="#666666"
     borderopacity="1.0"
     inkscape:pageopacity="0"
     inkscape:pageshadow="2"
     inkscape:zoom="16.904283"
     inkscape:cx="52.645956"
     inkscape:cy="53.533754"
     inkscape:document-units="px"
     inkscape:current-layer="layer1"
     inkscape:document-rotation="0"
     showgrid="false"
     units="px"
     inkscape:window-width="2048"
     inkscape:window-height="1080"
     inkscape:window-x="0"
     inkscape:window-y="0"
     inkscape:window-maximized="1" />
  <metadata
     id="metadata6371">
    <rdf:RDF>
      <cc:Work
         rdf:about="">
        <dc:format>image/svg+xml</dc:format>
        <dc:type
           rdf:resource="http://purl.org/dc/dcmitype/StillImage" />
        <dc:title />
      </cc:Work>
    </rdf:RDF>
  </metadata>
  <g
     inkscape:label="Layer 1"
     inkscape:groupmode="layer"
     id="layer1">
    <rect
       style="opacity:0.45;fill:#0c0c0c;fill-opacity:1;stroke-width:0.495;stroke-linecap:round;stroke-linejoin:round;stroke-miterlimit:4;stroke-dasharray:none;stroke-dashoffset:2.1875"
       id="rect954-6-3-29"
       width="44"
       height="56"
       x="9.9998779"
       y="5.4999962"
       rx="3"
       ry="3" />
    <path
       id="rect954-60-6-3"
       style="color:#000000;font-style:normal;font-variant:normal;font-weight:normal;font-stretch:normal;font-size:medium;line-height:normal;font-family:sans-serif;font-variant-ligatures:normal;font-variant-position:normal;font-variant-caps:normal;font-variant-numeric:normal;font-variant-alternates:normal;font-variant-east-asian:normal;font-feature-settings:normal;font-variation-settings:normal;text-indent:0;text-align:start;text-decoration:none;text-decoration-line:none;text-decoration-style:solid;text-decoration-color:#000000;letter-spacing:normal;word-spacing:normal;text-transform:none;writing-mode:lr-tb;direction:ltr;text-orientation:mixed;dominant-baseline:auto;baseline-shift:baseline;text-anchor:start;white-space:normal;shape-padding:0;shape-margin:0;inline-size:0;clip-rule:nonzero;display:inline;overflow:visible;visibility:visible;opacity:0.75;isolation:auto;mix-blend-mode:normal;color-interpolation:sRGB;color-interpolation-filters:linearRGB;solid-color:#000000;solid-opacity:1;vector-effect:none;fill:#2b4464;fill-opacity:1;fill-rule:nonzero;stroke:none;stroke-linecap:round;stroke-linejoin:round;stroke-miterlimit:4;stroke-dasharray:none;stroke-dashoffset:2.1875;stroke-opacity:1;color-rendering:auto;image-rendering:auto;shape-rendering:auto;text-rendering:auto;enable-background:accumulate;stop-color:#000000"
       d="M 13,3.5 C 11.0696,3.5 9.5,5.069651 9.5,7 v 50.000001 c 0,1.930349 1.5696,3.5 3.5,3.5 h 38 c 1.9304,0 3.5,-1.569651 3.5,-3.5 V 7 C 54.5,5.069651 52.9304,3.5 51,3.5 Z m 0,1 h 38 c 1.3936,0 2.5,1.106351 2.5,2.5 v 50.000001 c 0,1.393649 -1.1064,2.5 -2.5,2.5 H 13 c -1.3936,0 -2.5,-1.106351 -2.5,-2.5 V 7 c 0,-1.393649 1.1064,-2.5 2.5,-2.5 z" />
    <rect
       style="fill:url(#linearGradient1517);fill-opacity:1;stroke-width:0.495;stroke-linecap:round;stroke-linejoin:round;stroke-miterlimit:4;stroke-dasharray:none;stroke-dashoffset:2.1875"
       id="rect954-7-1"
       width="44"
       height="56"
       x="9.9998779"
       y="3.9999962"
       rx="3"
       ry="3" />
    <rect
       style="fill:#fdfcfb;fill-opacity:1;stroke:none;stroke-width:0;stroke-linecap:round;stroke-linejoin:round;stroke-miterlimit:4;stroke-dasharray:none;stroke-dashoffset:2.1875;stroke-opacity:1"
       id="rect3498-5-5-5-0-4"
       width="30"
       height="3"
       x="17"
       y="14.99999"
       rx="1.5"
       ry="1.5" />
    <rect
       style="fill:#fdfcfb;fill-opacity:1;stroke:none;stroke-width:0;stroke-linecap:round;stroke-linejoin:round;stroke-miterlimit:4;stroke-dasharray:none;stroke-dashoffset:2.1875;stroke-opacity:1"
       id="rect3498-7-4-56-3-2-9"
       width="30"
       height="3"
       x="17"
       y="22.249992"
       rx="1.5"
       ry="1.5" />
    <rect
       style="fill:#fdfcfb;fill-opacity:1;stroke:none;stroke-width:0;stroke-linecap:round;stroke-linejoin:round;stroke-miterlimit:4;stroke-dasharray:none;stroke-dashoffset:2.1875;stroke-opacity:1"
       id="rect3498-8-0-91-5-3-5"
       width="16"
       height="3"
       x="17"
       y="36.75"
       rx="1.5"
       ry="1.5" />
    <rect
       style="fill:#fdfcfb;fill-opacity:1;stroke:none;stroke-width:0;stroke-linecap:round;stroke-linejoin:round;stroke-miterlimit:4;stroke-dasharray:none;stroke-dashoffset:2.1875;stroke-opacity:1"
       id="rect3498-7-4-56-3-5-7-0"
       width="30"
       height="3"
       x="17"
       y="29.5"
       rx="1.5"
       ry="1.5" />
  </g>
</svg>
