<?xml version="1.0" encoding="UTF-8" standalone="no"?>
<svg
   xmlns:dc="http://purl.org/dc/elements/1.1/"
   xmlns:cc="http://creativecommons.org/ns#"
   xmlns:rdf="http://www.w3.org/1999/02/22-rdf-syntax-ns#"
   xmlns:svg="http://www.w3.org/2000/svg"
   xmlns="http://www.w3.org/2000/svg"
   xmlns:xlink="http://www.w3.org/1999/xlink"
   xmlns:sodipodi="http://sodipodi.sourceforge.net/DTD/sodipodi-0.dtd"
   xmlns:inkscape="http://www.inkscape.org/namespaces/inkscape"
   width="64"
   height="64"
   viewBox="0 0 64 64"
   version="1.1"
   id="svg6374"
   inkscape:version="1.0.2 (e86c870879, 2021-01-15)"
   sodipodi:docname="x-office-drawing.svg">
  <defs
     id="defs6368">
    <linearGradient
       inkscape:collect="always"
       xlink:href="#linearGradient2526"
       id="linearGradient2356"
       gradientUnits="userSpaceOnUse"
       gradientTransform="translate(0,-500)"
       x1="32"
       y1="504"
       x2="32"
       y2="560" />
    <linearGradient
       inkscape:collect="always"
       id="linearGradient2526">
      <stop
         style="stop-color:#fcd112;stop-opacity:1"
         offset="0"
         id="stop2522" />
      <stop
         style="stop-color:#f2c603;stop-opacity:1"
         offset="1"
         id="stop2524" />
    </linearGradient>
  </defs>
  <sodipodi:namedview
     id="base"
     pagecolor="#cecece"
     bordercolor="#666666"
     borderopacity="1.0"
     inkscape:pageopacity="0"
     inkscape:pageshadow="2"
     inkscape:zoom="3.4231059"
     inkscape:cx="-2.5614287"
     inkscape:cy="29.518825"
     inkscape:document-units="px"
     inkscape:current-layer="layer1"
     inkscape:document-rotation="0"
     showgrid="false"
     units="px"
     inkscape:window-width="2048"
     inkscape:window-height="1080"
     inkscape:window-x="0"
     inkscape:window-y="0"
     inkscape:window-maximized="1" />
  <metadata
     id="metadata6371">
    <rdf:RDF>
      <cc:Work
         rdf:about="">
        <dc:format>image/svg+xml</dc:format>
        <dc:type
           rdf:resource="http://purl.org/dc/dcmitype/StillImage" />
        <dc:title />
      </cc:Work>
    </rdf:RDF>
  </metadata>
  <g
     inkscape:label="Layer 1"
     inkscape:groupmode="layer"
     id="layer1">
    <rect
       style="opacity:0.45;fill:#0c0c0c;fill-opacity:1;stroke-width:0.495;stroke-linecap:round;stroke-linejoin:round;stroke-miterlimit:4;stroke-dasharray:none;stroke-dashoffset:2.1875"
       id="rect954-6-3-29-8"
       width="44"
       height="56"
       x="9.9998779"
       y="5.4999704"
       rx="3"
       ry="3" />
    <path
       id="rect954-60-6-3-4"
       style="color:#000000;font-style:normal;font-variant:normal;font-weight:normal;font-stretch:normal;font-size:medium;line-height:normal;font-family:sans-serif;font-variant-ligatures:normal;font-variant-position:normal;font-variant-caps:normal;font-variant-numeric:normal;font-variant-alternates:normal;font-variant-east-asian:normal;font-feature-settings:normal;font-variation-settings:normal;text-indent:0;text-align:start;text-decoration:none;text-decoration-line:none;text-decoration-style:solid;text-decoration-color:#000000;letter-spacing:normal;word-spacing:normal;text-transform:none;writing-mode:lr-tb;direction:ltr;text-orientation:mixed;dominant-baseline:auto;baseline-shift:baseline;text-anchor:start;white-space:normal;shape-padding:0;shape-margin:0;inline-size:0;clip-rule:nonzero;display:inline;overflow:visible;visibility:visible;opacity:0.75;isolation:auto;mix-blend-mode:normal;color-interpolation:sRGB;color-interpolation-filters:linearRGB;solid-color:#000000;solid-opacity:1;vector-effect:none;fill:#c09e02;fill-opacity:1;fill-rule:nonzero;stroke:none;stroke-linecap:round;stroke-linejoin:round;stroke-miterlimit:4;stroke-dasharray:none;stroke-dashoffset:2.1875;stroke-opacity:1;color-rendering:auto;image-rendering:auto;shape-rendering:auto;text-rendering:auto;enable-background:accumulate;stop-color:#000000"
       d="M 13,3.5 C 11.0696,3.5 9.5,5.06965 9.5,7 v 50 c 0,1.93035 1.5696,3.5 3.5,3.5 h 38 c 1.9304,0 3.5,-1.56965 3.5,-3.5 V 7 C 54.5,5.06965 52.9304,3.5 51,3.5 Z m 0,1 h 38 c 1.3936,0 2.5,1.10635 2.5,2.5 v 50 c 0,1.39365 -1.1064,2.5 -2.5,2.5 H 13 c -1.3936,0 -2.5,-1.10635 -2.5,-2.5 V 7 c 0,-1.39365 1.1064,-2.5 2.5,-2.5 z" />
    <rect
       style="fill:url(#linearGradient2356);fill-opacity:1;stroke-width:0.495;stroke-linecap:round;stroke-linejoin:round;stroke-miterlimit:4;stroke-dasharray:none;stroke-dashoffset:2.1875"
       id="rect954-7-1-3"
       width="44"
       height="56"
       x="9.9998779"
       y="3.9999704"
       rx="3"
       ry="3" />
    <path
       id="path1155-6-8-1-0-3"
       style="color:#000000;font-style:normal;font-variant:normal;font-weight:normal;font-stretch:normal;font-size:medium;line-height:normal;font-family:sans-serif;font-variant-ligatures:normal;font-variant-position:normal;font-variant-caps:normal;font-variant-numeric:normal;font-variant-alternates:normal;font-variant-east-asian:normal;font-feature-settings:normal;font-variation-settings:normal;text-indent:0;text-align:start;text-decoration:none;text-decoration-line:none;text-decoration-style:solid;text-decoration-color:#000000;letter-spacing:normal;word-spacing:normal;text-transform:none;writing-mode:lr-tb;direction:ltr;text-orientation:mixed;dominant-baseline:auto;baseline-shift:baseline;text-anchor:start;white-space:normal;shape-padding:0;shape-margin:0;inline-size:0;clip-rule:nonzero;display:inline;overflow:visible;visibility:visible;opacity:0.125;isolation:auto;mix-blend-mode:normal;color-interpolation:sRGB;color-interpolation-filters:linearRGB;solid-color:#000000;solid-opacity:1;vector-effect:none;fill:#0c0c10;fill-opacity:1;fill-rule:nonzero;stroke:none;stroke-width:0.999987;stroke-linecap:round;stroke-linejoin:round;stroke-miterlimit:4;stroke-dasharray:none;stroke-dashoffset:0;stroke-opacity:1;color-rendering:auto;image-rendering:auto;shape-rendering:auto;text-rendering:auto;enable-background:accumulate;stop-color:#000000"
       d="m 32,17 a 0.50005,0.50003679 0 0 0 -0.1934,0.0391 c -1.8082,0.10737 -3.2656,1.59937 -3.2656,3.44132 0,0.61764 0.2538,1.1529 0.5371,1.6562 L 17.8945,41.95446 c -0.2259,-0.0481 -0.4446,-0.11719 -0.6855,-0.11719 -1.9026,0 -3.459,1.56963 -3.459,3.48038 0,1.91075 1.5563,3.48233 3.459,3.48233 1.147,0 2.1137,-0.62157 2.7422,-1.49214 l 24.0898,-0.0117 c 0.6284,0.8774 1.5997,1.50386 2.752,1.50386 1.9026,0 3.457,-1.57197 3.457,-3.48233 0,-1.91035 -1.5545,-3.48038 -3.457,-3.48038 -0.2405,0 -0.4599,0.0673 -0.6856,0.11524 L 34.9121,22.15031 c 0.2883,-0.50679 0.5469,-1.04607 0.5469,-1.66987 0,-1.91035 -1.5568,-3.48038 -3.459,-3.48038 z m 0,0.99997 c 1.3538,0 2.459,1.11034 2.459,2.48041 0,0.54605 -0.1784,1.0461 -0.4785,1.45894 a 0.50005,0.50003679 0 0 0 -0.031,0.54101 l 11.457,20.26313 a 0.50005,0.50003679 0 0 0 0.5976,0.22656 c 0.2504,-0.0864 0.515,-0.13281 0.7891,-0.13281 1.3535,0 2.457,1.11034 2.457,2.4804 0,1.37008 -1.1036,2.48236 -2.457,2.48236 -0.909,0 -1.7038,-0.50544 -2.1308,-1.25192 a 0.50005,0.50003679 0 0 0 -0.4337,-0.25194 l -24.4628,0.0117 a 0.50005,0.50003679 0 0 0 -0.4336,0.24999 c -0.4279,0.74191 -1.2175,1.24215 -2.1231,1.24215 -1.3533,0 -2.459,-1.11268 -2.459,-2.48236 0,-1.36967 1.1055,-2.4804 2.459,-2.4804 0.2746,0 0.5384,0.0482 0.7891,0.13476 A 0.50005,0.50003679 0 0 0 18.5959,42.7454 L 30.0412,22.46469 a 0.50005,0.50003679 0 0 0 -0.029,-0.5371 c -0.2953,-0.41073 -0.4707,-0.90652 -0.4708,-1.44723 0,-1.36967 1.1053,-2.48041 2.459,-2.48041 z m -0.7578,4.8534 A 0.50005,0.50003679 0 0 0 30.791,23.10726 L 19.2812,43.50125 a 0.50005,0.50003679 0 0 0 0.01,0.50976 c 0.1645,0.26534 0.2807,0.56234 0.336,0.88083 a 0.50005,0.50003679 0 0 0 0.4922,0.41405 l 23.7636,-0.01 a 0.50005,0.50003679 0 0 0 0.4922,-0.41406 c 0.056,-0.31608 0.1716,-0.60897 0.336,-0.87301 a 0.50005,0.50003679 0 0 0 0.01,-0.51171 L 33.1953,23.11117 a 0.50005,0.50003679 0 0 0 -0.5664,-0.23633 c -0.2052,0.0553 -0.4147,0.0859 -0.6289,0.0859 -0.2191,0 -0.4316,-0.0322 -0.6406,-0.0898 a 0.50005,0.50003679 0 0 0 -0.1172,-0.0176 z m 0.2558,1.03903 c 0.1669,0.0262 0.3263,0.0684 0.502,0.0684 0.1707,0 0.3262,-0.0416 0.4883,-0.0664 l 11.2519,19.89986 c -0.08,0.15991 -0.1388,0.32918 -0.1933,0.50195 l -23.0918,0.01 c -0.054,-0.17483 -0.1134,-0.34595 -0.1934,-0.5078 z" />
    <path
       id="path1155-6-8-1-0"
       style="color:#000000;font-style:normal;font-variant:normal;font-weight:normal;font-stretch:normal;font-size:medium;line-height:normal;font-family:sans-serif;font-variant-ligatures:normal;font-variant-position:normal;font-variant-caps:normal;font-variant-numeric:normal;font-variant-alternates:normal;font-variant-east-asian:normal;font-feature-settings:normal;font-variation-settings:normal;text-indent:0;text-align:start;text-decoration:none;text-decoration-line:none;text-decoration-style:solid;text-decoration-color:#000000;letter-spacing:normal;word-spacing:normal;text-transform:none;writing-mode:lr-tb;direction:ltr;text-orientation:mixed;dominant-baseline:auto;baseline-shift:baseline;text-anchor:start;white-space:normal;shape-padding:0;shape-margin:0;inline-size:0;clip-rule:nonzero;display:inline;overflow:visible;visibility:visible;opacity:0.125;isolation:auto;mix-blend-mode:normal;color-interpolation:sRGB;color-interpolation-filters:linearRGB;solid-color:#000000;solid-opacity:1;vector-effect:none;fill:#0c0c10;fill-opacity:1;fill-rule:nonzero;stroke:none;stroke-width:0.999987;stroke-linecap:round;stroke-linejoin:round;stroke-miterlimit:4;stroke-dasharray:none;stroke-dashoffset:0;stroke-opacity:1;color-rendering:auto;image-rendering:auto;shape-rendering:auto;text-rendering:auto;enable-background:accumulate;stop-color:#000000"
       d="m 32,16.1 a 0.50005,0.50003679 0 0 0 -0.1934,0.0391 c -1.8082,0.10737 -3.2656,1.59937 -3.2656,3.44132 0,0.61764 0.2538,1.1529 0.5371,1.6562 L 17.8945,41.05446 c -0.2259,-0.0481 -0.4446,-0.11719 -0.6855,-0.11719 -1.9026,0 -3.459,1.56963 -3.459,3.48038 0,1.91075 1.5563,3.48233 3.459,3.48233 1.147,0 2.1137,-0.62157 2.7422,-1.49214 l 24.0898,-0.0117 c 0.6284,0.8774 1.5997,1.50386 2.752,1.50386 1.9026,0 3.457,-1.57197 3.457,-3.48233 0,-1.91035 -1.5545,-3.48038 -3.457,-3.48038 -0.2405,0 -0.4599,0.0673 -0.6856,0.11524 L 34.9121,21.25031 c 0.2883,-0.50679 0.5469,-1.04607 0.5469,-1.66987 0,-1.91035 -1.5568,-3.48038 -3.459,-3.48038 z m 0,0.99997 c 1.3538,0 2.459,1.11034 2.459,2.48041 0,0.54605 -0.1784,1.0461 -0.4785,1.45894 a 0.50005,0.50003679 0 0 0 -0.031,0.54101 l 11.457,20.26313 a 0.50005,0.50003679 0 0 0 0.5976,0.22656 c 0.2504,-0.0864 0.515,-0.13281 0.7891,-0.13281 1.3535,0 2.457,1.11034 2.457,2.4804 0,1.37008 -1.1036,2.48236 -2.457,2.48236 -0.909,0 -1.7038,-0.50544 -2.1308,-1.25192 a 0.50005,0.50003679 0 0 0 -0.4337,-0.25194 l -24.4628,0.0117 a 0.50005,0.50003679 0 0 0 -0.4336,0.24999 c -0.4279,0.74191 -1.2175,1.24215 -2.1231,1.24215 -1.3533,0 -2.459,-1.11268 -2.459,-2.48236 0,-1.36967 1.1055,-2.4804 2.459,-2.4804 0.2746,0 0.5384,0.0482 0.7891,0.13476 A 0.50005,0.50003679 0 0 0 18.5959,41.8454 L 30.0412,21.56469 a 0.50005,0.50003679 0 0 0 -0.029,-0.5371 c -0.2953,-0.41073 -0.4707,-0.90652 -0.4708,-1.44723 0,-1.36967 1.1053,-2.48041 2.459,-2.48041 z m -0.7578,4.8534 A 0.50005,0.50003679 0 0 0 30.791,22.20726 L 19.2812,42.60125 a 0.50005,0.50003679 0 0 0 0.01,0.50976 c 0.1645,0.26534 0.2807,0.56234 0.336,0.88083 a 0.50005,0.50003679 0 0 0 0.4922,0.41405 l 23.7636,-0.01 a 0.50005,0.50003679 0 0 0 0.4922,-0.41406 c 0.056,-0.31608 0.1716,-0.60897 0.336,-0.87301 a 0.50005,0.50003679 0 0 0 0.01,-0.51171 L 33.1953,22.21117 a 0.50005,0.50003679 0 0 0 -0.5664,-0.23633 c -0.2052,0.0553 -0.4147,0.0859 -0.6289,0.0859 -0.2191,0 -0.4316,-0.0322 -0.6406,-0.0898 a 0.50005,0.50003679 0 0 0 -0.1172,-0.0176 z m 0.2558,1.03903 c 0.1669,0.0262 0.3263,0.0684 0.502,0.0684 0.1707,0 0.3262,-0.0416 0.4883,-0.0664 l 11.2519,19.89986 c -0.08,0.15991 -0.1388,0.32918 -0.1933,0.50195 l -23.0918,0.01 c -0.054,-0.17483 -0.1134,-0.34595 -0.1934,-0.5078 z" />
    <path
       id="path1155-6-8"
       style="color:#000000;font-style:normal;font-variant:normal;font-weight:normal;font-stretch:normal;font-size:medium;line-height:normal;font-family:sans-serif;font-variant-ligatures:normal;font-variant-position:normal;font-variant-caps:normal;font-variant-numeric:normal;font-variant-alternates:normal;font-variant-east-asian:normal;font-feature-settings:normal;font-variation-settings:normal;text-indent:0;text-align:start;text-decoration:none;text-decoration-line:none;text-decoration-style:solid;text-decoration-color:#000000;letter-spacing:normal;word-spacing:normal;text-transform:none;writing-mode:lr-tb;direction:ltr;text-orientation:mixed;dominant-baseline:auto;baseline-shift:baseline;text-anchor:start;white-space:normal;shape-padding:0;shape-margin:0;inline-size:0;clip-rule:nonzero;display:inline;overflow:visible;visibility:visible;isolation:auto;mix-blend-mode:normal;color-interpolation:sRGB;color-interpolation-filters:linearRGB;solid-color:#000000;solid-opacity:1;vector-effect:none;fill:#fcfbfd;fill-opacity:1;fill-rule:nonzero;stroke:none;stroke-width:0.788224;stroke-linecap:square;stroke-linejoin:miter;stroke-miterlimit:4;stroke-dasharray:none;stroke-dashoffset:0;stroke-opacity:1;color-rendering:auto;image-rendering:auto;shape-rendering:auto;text-rendering:auto;enable-background:accumulate;stop-color:#000000"
       d="m 32.001,16.60002 c -1.628,0 -2.9593,1.33938 -2.9593,2.97963 0,0.64909 0.211,1.24927 0.5638,1.74014 l -11.4443,20.2796 c -0.2993,-0.10341 -0.6187,-0.16203 -0.9519,-0.16203 -1.628,0 -2.9593,1.34082 -2.9593,2.98108 0,1.64025 1.3313,2.98157 2.9593,2.98157 1.0899,0 2.0433,-0.60271 2.5563,-1.49225 l 24.463,-0.0102 c 0.5121,0.89516 1.47,1.50243 2.564,1.50243 1.628,0 2.9574,-1.34131 2.9574,-2.98157 0,-1.64025 -1.3294,-2.98108 -2.9574,-2.98108 -0.3326,0 -0.6519,0.0584 -0.9509,0.16155 L 34.3849,21.33383 c 0.3586,-0.49341 0.5734,-1.09887 0.5734,-1.7542 C 34.9583,17.93938 33.629,16.6 32.001,16.6 Z m -0.7748,5.8535 c 0.2475,0.0682 0.5065,0.1077 0.7748,0.1077 0.2624,0 0.5157,-0.038 0.7583,-0.10334 L 44.286,42.8447 c -0.197,0.31637 -0.3365,0.67104 -0.404,1.05126 l -23.7625,0.0107 c -0.066,-0.38262 -0.2054,-0.73975 -0.4026,-1.05806 z" />
  </g>
</svg>
