<?xml version="1.0" encoding="UTF-8" standalone="no"?>
<svg
   xmlns:dc="http://purl.org/dc/elements/1.1/"
   xmlns:cc="http://creativecommons.org/ns#"
   xmlns:rdf="http://www.w3.org/1999/02/22-rdf-syntax-ns#"
   xmlns:svg="http://www.w3.org/2000/svg"
   xmlns="http://www.w3.org/2000/svg"
   xmlns:xlink="http://www.w3.org/1999/xlink"
   xmlns:sodipodi="http://sodipodi.sourceforge.net/DTD/sodipodi-0.dtd"
   xmlns:inkscape="http://www.inkscape.org/namespaces/inkscape"
   width="64"
   height="64"
   viewBox="0 0 64 64"
   version="1.1"
   id="svg6374"
   inkscape:version="1.0.2 (e86c870879, 2021-01-15)"
   sodipodi:docname="folder-pictures.svg">
  <defs
     id="defs6368">
    <linearGradient
       inkscape:collect="always"
       xlink:href="#linearGradient1077"
       id="linearGradient2885"
       gradientUnits="userSpaceOnUse"
       x1="33.48571"
       y1="4.0123987"
       x2="33.594517"
       y2="23.910183" />
    <linearGradient
       inkscape:collect="always"
       id="linearGradient1077">
      <stop
         style="stop-color:#9e9ea4;stop-opacity:1"
         offset="0"
         id="stop1073" />
      <stop
         style="stop-color:#797984;stop-opacity:1"
         offset="1"
         id="stop1075" />
    </linearGradient>
    <linearGradient
       inkscape:collect="always"
       xlink:href="#linearGradient1083"
       id="linearGradient2887"
       gradientUnits="userSpaceOnUse"
       gradientTransform="translate(-5.70703,-71.2207)"
       x1="38.194393"
       y1="86.220306"
       x2="37.853539"
       y2="130.25267" />
    <linearGradient
       inkscape:collect="always"
       id="linearGradient1083">
      <stop
         style="stop-color:#c2c2d1;stop-opacity:1"
         offset="0"
         id="stop1079" />
      <stop
         style="stop-color:#6e6e76;stop-opacity:1"
         offset="1"
         id="stop1081" />
    </linearGradient>
    <linearGradient
       inkscape:collect="always"
       xlink:href="#linearGradient4914"
       id="linearGradient2889"
       gradientUnits="userSpaceOnUse"
       gradientTransform="matrix(0.49550647,0,0,0.48316924,-7.51826,-56.19919)"
       x1="49.481316"
       y1="172.19466"
       x2="110.02532"
       y2="220.57333" />
    <linearGradient
       inkscape:collect="always"
       id="linearGradient4914">
      <stop
         style="stop-color:#fafafa;stop-opacity:0"
         offset="0"
         id="stop4910" />
      <stop
         style="stop-color:#fafafa;stop-opacity:0.44999999"
         offset="1"
         id="stop4912" />
    </linearGradient>
  </defs>
  <sodipodi:namedview
     id="base"
     pagecolor="#cecece"
     bordercolor="#666666"
     borderopacity="1.0"
     inkscape:pageopacity="0"
     inkscape:pageshadow="2"
     inkscape:zoom="5.5639287"
     inkscape:cx="8.3100654"
     inkscape:cy="29.73153"
     inkscape:document-units="px"
     inkscape:current-layer="layer1"
     inkscape:document-rotation="0"
     showgrid="false"
     units="px"
     inkscape:window-width="1368"
     inkscape:window-height="846"
     inkscape:window-x="68"
     inkscape:window-y="56"
     inkscape:window-maximized="0" />
  <metadata
     id="metadata6371">
    <rdf:RDF>
      <cc:Work
         rdf:about="">
        <dc:format>image/svg+xml</dc:format>
        <dc:type
           rdf:resource="http://purl.org/dc/dcmitype/StillImage" />
        <dc:title></dc:title>
      </cc:Work>
    </rdf:RDF>
  </metadata>
  <g
     inkscape:label="Layer 1"
     inkscape:groupmode="layer"
     id="layer1">
    <path
       id="rect1006-9-7-43-5-2"
       style="isolation:isolate;fill:#797984;fill-opacity:1;stroke:none;stroke-width:0.611371;stroke-miterlimit:4;stroke-dasharray:none;stroke-opacity:1"
       d="M 7.01922,4.5 C 5.34662,4.5 4,5.8576 4,7.5437 v 4.9091 0.049 15.9546 c 0,1.6861 1.34662,3.0437 3.01922,3.0437 H 56.98077 C 58.65337,31.5001 60,30.1425 60,28.4564 V 12.4529 C 60,10.7667 58.65336,9.4092 56.98077,9.4092 H 28.5913 L 24.2087,4.5001 H 20.45903 7.16522 Z" />
    <path
       id="rect1006-9-9-5-1-9-2"
       style="color:#000000;font-style:normal;font-variant:normal;font-weight:normal;font-stretch:normal;font-size:medium;line-height:normal;font-family:sans-serif;font-variant-ligatures:normal;font-variant-position:normal;font-variant-caps:normal;font-variant-numeric:normal;font-variant-alternates:normal;font-variant-east-asian:normal;font-feature-settings:normal;font-variation-settings:normal;text-indent:0;text-align:start;text-decoration:none;text-decoration-line:none;text-decoration-style:solid;text-decoration-color:#000000;letter-spacing:normal;word-spacing:normal;text-transform:none;writing-mode:lr-tb;direction:ltr;text-orientation:mixed;dominant-baseline:auto;baseline-shift:baseline;text-anchor:start;white-space:normal;shape-padding:0;shape-margin:0;inline-size:0;clip-rule:nonzero;display:inline;overflow:visible;visibility:visible;isolation:isolate;mix-blend-mode:normal;color-interpolation:sRGB;color-interpolation-filters:linearRGB;solid-color:#000000;solid-opacity:1;vector-effect:none;fill:url(#linearGradient2885);fill-opacity:1;fill-rule:nonzero;stroke:none;stroke-linecap:butt;stroke-linejoin:miter;stroke-miterlimit:4;stroke-dasharray:none;stroke-dashoffset:0;stroke-opacity:1;color-rendering:auto;image-rendering:auto;shape-rendering:auto;text-rendering:auto;enable-background:accumulate;stop-color:#000000"
       d="M 7.01953,4.125 C 5.14402,4.125 3.625,5.6571 3.625,7.543 v 4.9101 0.049 15.9551 c 0,1.8858 1.51902,3.418 3.39453,3.418 h 49.96094 c 1.87551,0 3.39453,-1.5322 3.39453,-3.418 V 12.4533 c 0,-1.8858 -1.51902,-3.4199 -3.39453,-3.4199 H 28.75976 L 24.37695,4.1252 H 20.45898 7.16602 Z m 0,0.75 h 0.14649 13.29296 3.58203 l 4.38282,4.9082 h 28.55664 c 1.46969,0 2.64453,1.1834 2.64453,2.6699 V 28.457 c 0,1.4866 -1.17484,2.668 -2.64453,2.668 H 7.01953 C 5.54984,31.125 4.375,29.9436 4.375,28.457 V 12.502 12.453 7.5428 c 0,-1.4865 1.17484,-2.668 2.64453,-2.668 z" />
    <path
       id="rect880-1-9-6-9-4-7-2"
       style="opacity:0.125;isolation:isolate;fill:#313135;fill-opacity:1;stroke:none;stroke-width:0.609903;stroke-miterlimit:4;stroke-dasharray:none;stroke-opacity:1"
       d="m 32.32031,13.5 -0.11133,0.125 -4.27148,4.7637 H 7.01953 c -1.87467,0 -3.39453,1.5265 -3.39453,3.4062 v 33.0489 c 0,1.8797 1.51985,3.4062 3.39453,3.4062 h 49.96094 c 1.87467,0 3.39453,-1.5265 3.39453,-3.4062 v -22 -11.0489 -4.8887 C 60.375,15.0265 58.85514,13.5 56.98047,13.5 h -5.01563 -8.42382 z" />
    <path
       id="rect880-1-9-2-9-7-0"
       style="opacity:0.15;isolation:isolate;fill:#313135;fill-opacity:1;stroke:none;stroke-width:0.609903;stroke-miterlimit:4;stroke-dasharray:none;stroke-opacity:1"
       d="M 32.32031,16.125 32.20898,16.25 27.9375,21.0137 H 7.01953 c -1.87467,0 -3.39453,1.5265 -3.39453,3.4062 v 33.0489 c 0,1.8797 1.51985,3.4062 3.39453,3.4062 h 49.96094 c 1.87467,0 3.39453,-1.5265 3.39453,-3.4062 v -22 -11.0489 -4.8887 c 0,-1.8797 -1.51986,-3.4062 -3.39453,-3.4062 h -5.01563 -8.42382 z" />
    <path
       id="rect880-1-28-2-6-5"
       style="isolation:isolate;fill:#9e9ea4;fill-opacity:1;stroke:none;stroke-width:0.609904;stroke-miterlimit:4;stroke-dasharray:none;stroke-opacity:1"
       d="m 32.48697,15 -4.38261,4.8889 H 7.0192 C 5.3466,19.8889 4,21.2409 4,22.9201 V 55.9688 C 4,57.648 5.3466,59 7.0192,59 H 56.98078 C 58.65338,59 60,57.648 60,55.9688 V 33.9693 22.9201 18.0312 C 60,16.352 58.65338,15 56.98078,15 h -5.01555 -8.4243 z" />
    <path
       id="rect880-1-2-9-06-7-5"
       style="color:#000000;font-style:normal;font-variant:normal;font-weight:normal;font-stretch:normal;font-size:medium;line-height:normal;font-family:sans-serif;font-variant-ligatures:normal;font-variant-position:normal;font-variant-caps:normal;font-variant-numeric:normal;font-variant-alternates:normal;font-variant-east-asian:normal;font-feature-settings:normal;font-variation-settings:normal;text-indent:0;text-align:start;text-decoration:none;text-decoration-line:none;text-decoration-style:solid;text-decoration-color:#000000;letter-spacing:normal;word-spacing:normal;text-transform:none;writing-mode:lr-tb;direction:ltr;text-orientation:mixed;dominant-baseline:auto;baseline-shift:baseline;text-anchor:start;white-space:normal;shape-padding:0;shape-margin:0;inline-size:0;clip-rule:nonzero;display:inline;overflow:visible;visibility:visible;isolation:isolate;mix-blend-mode:normal;color-interpolation:sRGB;color-interpolation-filters:linearRGB;solid-color:#000000;solid-opacity:1;vector-effect:none;fill:url(#linearGradient2887);fill-opacity:1;fill-rule:nonzero;stroke:none;stroke-linecap:butt;stroke-linejoin:miter;stroke-miterlimit:4;stroke-dasharray:none;stroke-dashoffset:0;stroke-opacity:1;color-rendering:auto;image-rendering:auto;shape-rendering:auto;text-rendering:auto;enable-background:accumulate;stop-color:#000000"
       d="M 32.32031,14.625 32.20898,14.75 27.9375,19.5137 H 7.01953 c -1.87467,0 -3.39453,1.5265 -3.39453,3.4062 v 33.0488 c 0,1.8798 1.51985,3.4063 3.39453,3.4063 h 49.96094 c 1.87467,0 3.39453,-1.5265 3.39453,-3.4063 V 33.9688 22.9199 18.0312 c 0,-1.8797 -1.51986,-3.4062 -3.39453,-3.4062 h -5.01563 -8.42382 z m 0.33399,0.75 h 10.88672 8.42382 5.01563 c 1.47052,0 2.64453,1.1775 2.64453,2.6562 v 4.8887 11.0489 21.9999 c 0,1.4788 -1.17401,2.6563 -2.64453,2.6563 H 7.01953 C 5.54901,58.625 4.375,57.4475 4.375,55.9687 V 22.9199 c 0,-1.4787 1.17401,-2.6562 2.64453,-2.6562 h 21.25195 z" />
    <path
       id="rect4664-0-4-2"
       style="opacity:0.15;fill:#313135;fill-opacity:1;stroke:none;stroke-width:1.5;stroke-linecap:round;stroke-linejoin:round;stroke-miterlimit:4;stroke-dasharray:none;stroke-opacity:1"
       d="m 16,40.688 v 10.6875 c 0,1.108 0.892,2 2,2 h 28 c 1.108,0 2,-0.892 2,-2 V 40.688 h -2 v 9.6875 c 0,0.554 -0.446,1 -1,1 H 19 c -0.554,0 -1,-0.446 -1,-1 V 40.688 Z" />
    <rect
       style="fill:url(#linearGradient2889);fill-opacity:1;stroke:none;stroke-width:0.942419;stroke-linecap:square;stroke-miterlimit:4;stroke-dasharray:none;stroke-opacity:0.54902"
       id="rect2119-0-9-3-5-2-2-8-0-3-9"
       width="30"
       height="23.375"
       x="17"
       y="27"
       rx="1"
       ry="1" />
    <path
       id="rect4664-2-6-2-0-02"
       style="opacity:0.3;fill:#313135;fill-opacity:1;stroke:none;stroke-width:1.28779;stroke-linecap:round;stroke-linejoin:round;stroke-miterlimit:4;stroke-dasharray:none;stroke-opacity:1"
       d="m 19,28 c -0.554,0 -1,0.446 -1,1 v 19.375 c 0,0.554 0.446,1 1,1 h 26 c 0.55399,0 1,-0.446 1,-1 V 29 c 0,-0.554 -0.44601,-1 -1,-1 z m 0.5,1.5 h 25 c 0.27699,0 0.5,0.223 0.5,0.5 v 18.375 c 0,0.277 -0.22301,0.5 -0.5,0.5 h -25 c -0.277,0 -0.5,-0.223 -0.5,-0.5 V 30 c 0,-0.277 0.223,-0.5 0.5,-0.5 z" />
    <path
       id="rect4664-0-8-8"
       style="fill:#fafafa;fill-opacity:1;stroke:none;stroke-width:1.5;stroke-linecap:round;stroke-linejoin:round;stroke-miterlimit:4;stroke-dasharray:none;stroke-opacity:1"
       d="m 18,26 c -1.108,0 -2,0.892 -2,2 v 21.375 c 0,1.108 0.892,2 2,2 h 28 c 1.108,0 2,-0.892 2,-2 V 28 c 0,-1.108 -0.892,-2 -2,-2 z m 1,2 h 26 c 0.554,0 1,0.446 1,1 v 19.375 c 0,0.554 -0.446,1 -1,1 H 19 c -0.554,0 -1,-0.446 -1,-1 V 29 c 0,-0.554 0.446,-1 1,-1 z" />
  </g>
</svg>
