<?xml version="1.0" encoding="UTF-8" standalone="no"?>
<svg
   xmlns:dc="http://purl.org/dc/elements/1.1/"
   xmlns:cc="http://creativecommons.org/ns#"
   xmlns:rdf="http://www.w3.org/1999/02/22-rdf-syntax-ns#"
   xmlns:svg="http://www.w3.org/2000/svg"
   xmlns="http://www.w3.org/2000/svg"
   xmlns:xlink="http://www.w3.org/1999/xlink"
   xmlns:sodipodi="http://sodipodi.sourceforge.net/DTD/sodipodi-0.dtd"
   xmlns:inkscape="http://www.inkscape.org/namespaces/inkscape"
   width="64"
   height="64"
   viewBox="0 0 64 64"
   version="1.1"
   id="svg6374"
   inkscape:version="1.0.2 (e86c870879, 2021-01-15)"
   sodipodi:docname="folder-download.svg">
  <defs
     id="defs6368">
    <linearGradient
       inkscape:collect="always"
       xlink:href="#linearGradient1077"
       id="linearGradient2865"
       gradientUnits="userSpaceOnUse"
       x1="33.48571"
       y1="4.0123987"
       x2="33.594517"
       y2="23.910183" />
    <linearGradient
       inkscape:collect="always"
       id="linearGradient1077">
      <stop
         style="stop-color:#9e9ea4;stop-opacity:1"
         offset="0"
         id="stop1073" />
      <stop
         style="stop-color:#797984;stop-opacity:1"
         offset="1"
         id="stop1075" />
    </linearGradient>
    <linearGradient
       inkscape:collect="always"
       xlink:href="#linearGradient1083"
       id="linearGradient2867"
       gradientUnits="userSpaceOnUse"
       gradientTransform="translate(-5.70703,-71.2207)"
       x1="38.194393"
       y1="86.220306"
       x2="37.853539"
       y2="130.25267" />
    <linearGradient
       inkscape:collect="always"
       id="linearGradient1083">
      <stop
         style="stop-color:#c2c2d1;stop-opacity:1"
         offset="0"
         id="stop1079" />
      <stop
         style="stop-color:#6e6e76;stop-opacity:1"
         offset="1"
         id="stop1081" />
    </linearGradient>
  </defs>
  <sodipodi:namedview
     id="base"
     pagecolor="#cecece"
     bordercolor="#666666"
     borderopacity="1.0"
     inkscape:pageopacity="0"
     inkscape:pageshadow="2"
     inkscape:zoom="5.5639287"
     inkscape:cx="8.3100654"
     inkscape:cy="29.73153"
     inkscape:document-units="px"
     inkscape:current-layer="layer1"
     inkscape:document-rotation="0"
     showgrid="false"
     units="px"
     inkscape:window-width="1368"
     inkscape:window-height="846"
     inkscape:window-x="68"
     inkscape:window-y="56"
     inkscape:window-maximized="0" />
  <metadata
     id="metadata6371">
    <rdf:RDF>
      <cc:Work
         rdf:about="">
        <dc:format>image/svg+xml</dc:format>
        <dc:type
           rdf:resource="http://purl.org/dc/dcmitype/StillImage" />
        <dc:title></dc:title>
      </cc:Work>
    </rdf:RDF>
  </metadata>
  <g
     inkscape:label="Layer 1"
     inkscape:groupmode="layer"
     id="layer1">
    <path
       id="rect1006-9-7-4-2-3"
       style="isolation:isolate;fill:#797984;fill-opacity:1;stroke:none;stroke-width:0.611371;stroke-miterlimit:4;stroke-dasharray:none;stroke-opacity:1"
       d="M 7.01922,4.5 C 5.34662,4.5 4,5.85756 4,7.54373 v 4.9091 0.0489 15.95454 C 4,30.14244 5.34662,31.5 7.01922,31.5 H 56.98077 C 58.65337,31.5 60,30.14244 60,28.45627 V 12.45282 C 60,10.76665 58.65336,9.40909 56.98077,9.40909 H 28.5913 L 24.2087,4.5 H 20.45903 7.16522 Z" />
    <path
       id="rect1006-9-9-5-7-6-9"
       style="color:#000000;font-style:normal;font-variant:normal;font-weight:normal;font-stretch:normal;font-size:medium;line-height:normal;font-family:sans-serif;font-variant-ligatures:normal;font-variant-position:normal;font-variant-caps:normal;font-variant-numeric:normal;font-variant-alternates:normal;font-variant-east-asian:normal;font-feature-settings:normal;font-variation-settings:normal;text-indent:0;text-align:start;text-decoration:none;text-decoration-line:none;text-decoration-style:solid;text-decoration-color:#000000;letter-spacing:normal;word-spacing:normal;text-transform:none;writing-mode:lr-tb;direction:ltr;text-orientation:mixed;dominant-baseline:auto;baseline-shift:baseline;text-anchor:start;white-space:normal;shape-padding:0;shape-margin:0;inline-size:0;clip-rule:nonzero;display:inline;overflow:visible;visibility:visible;isolation:isolate;mix-blend-mode:normal;color-interpolation:sRGB;color-interpolation-filters:linearRGB;solid-color:#000000;solid-opacity:1;vector-effect:none;fill:url(#linearGradient2865);fill-opacity:1;fill-rule:nonzero;stroke:none;stroke-linecap:butt;stroke-linejoin:miter;stroke-miterlimit:4;stroke-dasharray:none;stroke-dashoffset:0;stroke-opacity:1;color-rendering:auto;image-rendering:auto;shape-rendering:auto;text-rendering:auto;enable-background:accumulate;stop-color:#000000"
       d="M 7.01953,4.125 C 5.14402,4.125 3.625,5.65714 3.625,7.54297 v 4.91016 0.0488 15.95507 c 0,1.88584 1.51902,3.41797 3.39453,3.41797 h 49.96094 c 1.87551,0 3.39453,-1.53213 3.39453,-3.41797 V 12.4531 c 0,-1.88584 -1.51902,-3.41992 -3.39453,-3.41992 H 28.75976 L 24.37695,4.125 H 20.45898 7.16602 Z m 0,0.75 h 0.14649 13.29296 3.58203 l 4.38282,4.90821 h 28.55664 c 1.46969,0 2.64453,1.1834 2.64453,2.66992 v 16.0039 c 0,1.48653 -1.17484,2.66797 -2.64453,2.66797 H 7.01953 C 5.54984,31.125 4.375,29.94356 4.375,28.45703 V 12.50196 12.45316 7.543 c 0,-1.48652 1.17484,-2.66797 2.64453,-2.66797 z" />
    <path
       id="rect880-1-9-6-9-8-6-1"
       style="opacity:0.125;isolation:isolate;fill:#313135;fill-opacity:1;stroke:none;stroke-width:0.609903;stroke-miterlimit:4;stroke-dasharray:none;stroke-opacity:1"
       d="m 32.32031,13.5 -0.11133,0.125 -4.27148,4.76367 H 7.01953 c -1.87467,0 -3.39453,1.52653 -3.39453,3.40625 v 33.04883 c 0,1.87971 1.51985,3.40625 3.39453,3.40625 h 49.96094 c 1.87467,0 3.39453,-1.52653 3.39453,-3.40625 v -22 -11.04883 -4.88867 C 60.375,15.02653 58.85514,13.5 56.98047,13.5 h -5.01563 -8.42382 z" />
    <path
       id="rect880-1-9-2-4-4-96"
       style="opacity:0.15;isolation:isolate;fill:#313135;fill-opacity:1;stroke:none;stroke-width:0.609903;stroke-miterlimit:4;stroke-dasharray:none;stroke-opacity:1"
       d="M 32.32031,16.125 32.20898,16.25 27.9375,21.01367 H 7.01953 c -1.87467,0 -3.39453,1.52653 -3.39453,3.40625 v 33.04883 c 0,1.87971 1.51985,3.40625 3.39453,3.40625 h 49.96094 c 1.87467,0 3.39453,-1.52653 3.39453,-3.40625 v -22 -11.04883 -4.88867 c 0,-1.87972 -1.51986,-3.40625 -3.39453,-3.40625 h -5.01563 -8.42382 z" />
    <path
       id="rect880-1-28-5-9-9"
       style="isolation:isolate;fill:#9e9ea4;fill-opacity:1;stroke:none;stroke-width:0.609904;stroke-miterlimit:4;stroke-dasharray:none;stroke-opacity:1"
       d="m 32.48697,15 -4.38261,4.88889 H 7.0192 C 5.3466,19.88889 4,21.24086 4,22.92009 v 33.0487 C 4,57.64803 5.3466,59 7.0192,59 H 56.98078 C 58.65338,59 60,57.64803 60,55.96879 V 33.96927 22.92009 18.03121 C 60,16.35197 58.65338,15 56.98078,15 h -5.01555 -8.4243 z" />
    <path
       id="rect880-1-2-9-0-5-3"
       style="color:#000000;font-style:normal;font-variant:normal;font-weight:normal;font-stretch:normal;font-size:medium;line-height:normal;font-family:sans-serif;font-variant-ligatures:normal;font-variant-position:normal;font-variant-caps:normal;font-variant-numeric:normal;font-variant-alternates:normal;font-variant-east-asian:normal;font-feature-settings:normal;font-variation-settings:normal;text-indent:0;text-align:start;text-decoration:none;text-decoration-line:none;text-decoration-style:solid;text-decoration-color:#000000;letter-spacing:normal;word-spacing:normal;text-transform:none;writing-mode:lr-tb;direction:ltr;text-orientation:mixed;dominant-baseline:auto;baseline-shift:baseline;text-anchor:start;white-space:normal;shape-padding:0;shape-margin:0;inline-size:0;clip-rule:nonzero;display:inline;overflow:visible;visibility:visible;isolation:isolate;mix-blend-mode:normal;color-interpolation:sRGB;color-interpolation-filters:linearRGB;solid-color:#000000;solid-opacity:1;vector-effect:none;fill:url(#linearGradient2867);fill-opacity:1;fill-rule:nonzero;stroke:none;stroke-linecap:butt;stroke-linejoin:miter;stroke-miterlimit:4;stroke-dasharray:none;stroke-dashoffset:0;stroke-opacity:1;color-rendering:auto;image-rendering:auto;shape-rendering:auto;text-rendering:auto;enable-background:accumulate;stop-color:#000000"
       d="M 32.32031,14.625 32.20898,14.75 27.9375,19.51367 H 7.01953 c -1.87467,0 -3.39453,1.52654 -3.39453,3.40625 v 33.04882 c 0,1.87971 1.51985,3.40625 3.39453,3.40625 h 49.96094 c 1.87467,0 3.39453,-1.52653 3.39453,-3.40625 V 33.96875 22.91992 18.03125 c 0,-1.87972 -1.51986,-3.40625 -3.39453,-3.40625 h -5.01563 -8.42382 z m 0.33399,0.75 h 10.88672 8.42382 5.01563 c 1.47052,0 2.64453,1.1775 2.64453,2.65625 v 4.88867 11.04883 21.99999 c 0,1.47875 -1.17401,2.65625 -2.64453,2.65625 H 7.01953 c -1.47052,0 -2.64453,-1.1775 -2.64453,-2.65625 V 22.91992 c 0,-1.47876 1.17401,-2.65625 2.64453,-2.65625 h 21.25195 z" />
    <path
       id="path1113-1-0-6-8-3-2-5-4-8-3-9-5-9"
       style="color:#000000;font-style:normal;font-variant:normal;font-weight:normal;font-stretch:normal;font-size:medium;line-height:normal;font-family:sans-serif;font-variant-ligatures:normal;font-variant-position:normal;font-variant-caps:normal;font-variant-numeric:normal;font-variant-alternates:normal;font-variant-east-asian:normal;font-feature-settings:normal;font-variation-settings:normal;text-indent:0;text-align:start;text-decoration:none;text-decoration-line:none;text-decoration-style:solid;text-decoration-color:#000000;letter-spacing:normal;word-spacing:normal;text-transform:none;writing-mode:lr-tb;direction:ltr;text-orientation:mixed;dominant-baseline:auto;baseline-shift:baseline;text-anchor:start;white-space:normal;shape-padding:0;shape-margin:0;inline-size:0;clip-rule:nonzero;display:inline;overflow:visible;visibility:visible;opacity:0.15;isolation:auto;mix-blend-mode:normal;color-interpolation:sRGB;color-interpolation-filters:linearRGB;solid-color:#000000;solid-opacity:1;vector-effect:none;fill:#313135;fill-opacity:1;fill-rule:nonzero;stroke:none;stroke-width:0;stroke-linecap:round;stroke-linejoin:round;stroke-miterlimit:4;stroke-dasharray:none;stroke-dashoffset:0;stroke-opacity:1;color-rendering:auto;image-rendering:auto;shape-rendering:auto;text-rendering:auto;enable-background:accumulate;stop-color:#000000"
       d="m 31.37456,29 c -0.20773,0 -0.37497,0.16724 -0.37497,0.37499 V 44.99952 H 29.24972 V 33.87485 c 0,-0.20774 -0.16724,-0.37499 -0.37498,-0.37499 h -1.2499 c -0.20774,0 -0.37498,0.16725 -0.37498,0.37499 v 11.12467 h -2.71464 a 0.53409618,0.45538072 0 0 0 -0.53512,0.4453 0.53409618,0.45538072 0 0 0 0.0977,0.27148 l 7.4643,9.08956 a 0.53409618,0.45538072 0 0 0 0.87493,0 l 7.46625,-9.08956 a 0.53409618,0.45538072 0 0 0 -0.43356,-0.71678 h -2.7205 V 33.87485 c 0,-0.20774 -0.16724,-0.37499 -0.37497,-0.37499 h -1.24991 c -0.20774,0 -0.37498,0.16725 -0.37498,0.37499 V 44.99952 H 32.99949 V 29.37499 C 32.99949,29.16724 32.83226,29 32.62452,29 Z" />
    <path
       id="rect2794-31-7-2-9"
       style="opacity:0.075;fill:#313135;fill-opacity:1;stroke:none;stroke-width:0.726276;stroke-linecap:round;stroke-linejoin:round;stroke-miterlimit:4;stroke-dasharray:none;stroke-opacity:1"
       d="m 31.37456,24 c -0.20775,10e-6 -0.375,0.16726 -0.375,0.375 v 16.25 c 0,0.20775 0.16725,0.375 0.375,0.375 h 1.25 c 0.20775,0 0.375,-0.16725 0.375,-0.375 v -16.25 c 0,-0.20774 -0.16725,-0.375 -0.375,-0.375 z m -3.75,4.5 c -0.20775,10e-6 -0.375,0.16726 -0.375,0.375 v 12.25 c 0,0.20775 0.16725,0.375 0.375,0.375 h 1.25 c 0.20775,0 0.375,-0.16725 0.375,-0.375 v -12.25 c 0,-0.20774 -0.16725,-0.375 -0.375,-0.375 z m 7.5,0 c -0.20775,10e-6 -0.375,0.16726 -0.375,0.375 v 12.25 c 0,0.20775 0.16725,0.375 0.375,0.375 h 1.25 c 0.20775,0 0.375,-0.16725 0.375,-0.375 v -12.25 c 0,-0.20774 -0.16725,-0.375 -0.375,-0.375 z" />
    <path
       id="rect2794-31-7-2-4-1"
       style="opacity:0.075;fill:#313135;fill-opacity:1;stroke:none;stroke-width:0.726276;stroke-linecap:round;stroke-linejoin:round;stroke-miterlimit:4;stroke-dasharray:none;stroke-opacity:1"
       d="m 32.125,26 c -0.20775,10e-6 -0.375,0.16726 -0.375,0.375 v 16.25 c 0,0.20775 0.16725,0.375 0.375,0.375 h 1.25 c 0.20775,0 0.375,-0.16725 0.375,-0.375 V 26.375 C 33.75,26.16726 33.58275,26 33.375,26 Z m -3.75,4.5 C 28.16725,30.50001 28,30.66726 28,30.875 v 12.25 c 0,0.20775 0.16725,0.375 0.375,0.375 h 1.25 C 29.83275,43.5 30,43.33275 30,43.125 V 30.875 C 30,30.66726 29.83275,30.5 29.625,30.5 Z m 7.5,0 c -0.20775,10e-6 -0.375,0.16726 -0.375,0.375 v 12.25 c 0,0.20775 0.16725,0.375 0.375,0.375 h 1.25 c 0.20775,0 0.375,-0.16725 0.375,-0.375 V 30.875 C 37.5,30.66726 37.33275,30.5 37.125,30.5 Z" />
    <path
       id="rect2794-31-7-2-4-0-4"
       style="opacity:0.075;fill:#313135;fill-opacity:1;stroke:none;stroke-width:0.726276;stroke-linecap:round;stroke-linejoin:round;stroke-miterlimit:4;stroke-dasharray:none;stroke-opacity:1"
       d="m 30.625,26 c -0.20775,10e-6 -0.375,0.16726 -0.375,0.375 v 16.25 c 0,0.20775 0.16725,0.375 0.375,0.375 h 1.25 c 0.20775,0 0.375,-0.16725 0.375,-0.375 V 26.375 C 32.25,26.16726 32.08275,26 31.875,26 Z m -3.75,4.5 c -0.20775,10e-6 -0.375,0.16726 -0.375,0.375 v 12.25 c 0,0.20775 0.16725,0.375 0.375,0.375 h 1.25 c 0.20775,0 0.375,-0.16725 0.375,-0.375 V 30.875 C 28.5,30.66726 28.33275,30.5 28.125,30.5 Z m 7.5,0 C 34.16725,30.50001 34,30.66726 34,30.875 v 12.25 c 0,0.20775 0.16725,0.375 0.375,0.375 h 1.25 C 35.83275,43.5 36,43.33275 36,43.125 V 30.875 C 36,30.66726 35.83275,30.5 35.625,30.5 Z" />
    <path
       id="path1113-1-0-6-8-3-2-5-4-8-3-9-9"
       style="color:#000000;font-style:normal;font-variant:normal;font-weight:normal;font-stretch:normal;font-size:medium;line-height:normal;font-family:sans-serif;font-variant-ligatures:normal;font-variant-position:normal;font-variant-caps:normal;font-variant-numeric:normal;font-variant-alternates:normal;font-variant-east-asian:normal;font-feature-settings:normal;font-variation-settings:normal;text-indent:0;text-align:start;text-decoration:none;text-decoration-line:none;text-decoration-style:solid;text-decoration-color:#000000;letter-spacing:normal;word-spacing:normal;text-transform:none;writing-mode:lr-tb;direction:ltr;text-orientation:mixed;dominant-baseline:auto;baseline-shift:baseline;text-anchor:start;white-space:normal;shape-padding:0;shape-margin:0;inline-size:0;clip-rule:nonzero;display:inline;overflow:visible;visibility:visible;isolation:auto;mix-blend-mode:normal;color-interpolation:sRGB;color-interpolation-filters:linearRGB;solid-color:#000000;solid-opacity:1;vector-effect:none;fill:#fafafa;fill-opacity:1;fill-rule:nonzero;stroke:none;stroke-width:0;stroke-linecap:round;stroke-linejoin:round;stroke-miterlimit:4;stroke-dasharray:none;stroke-dashoffset:0;stroke-opacity:1;color-rendering:auto;image-rendering:auto;shape-rendering:auto;text-rendering:auto;enable-background:accumulate;stop-color:#000000"
       d="m 31.37456,26 c -0.20773,0 -0.37497,0.16724 -0.37497,0.37499 V 41.99952 H 29.24972 V 30.87485 c 0,-0.20774 -0.16724,-0.37499 -0.37498,-0.37499 h -1.2499 c -0.20774,0 -0.37498,0.16725 -0.37498,0.37499 v 11.12467 h -2.71464 a 0.53409618,0.45538072 0 0 0 -0.53512,0.4453 0.53409618,0.45538072 0 0 0 0.0977,0.27148 l 7.4643,9.08956 a 0.53409618,0.45538072 0 0 0 0.87493,0 l 7.46625,-9.08956 a 0.53409618,0.45538072 0 0 0 -0.43356,-0.71678 h -2.7205 V 30.87485 c 0,-0.20774 -0.16724,-0.37499 -0.37497,-0.37499 h -1.24991 c -0.20774,0 -0.37498,0.16725 -0.37498,0.37499 V 41.99952 H 32.99949 V 26.37499 C 32.99949,26.16724 32.83226,26 32.62452,26 Z" />
  </g>
</svg>
