<?xml version="1.0" encoding="UTF-8" standalone="no"?>
<svg
   xmlns:dc="http://purl.org/dc/elements/1.1/"
   xmlns:cc="http://creativecommons.org/ns#"
   xmlns:rdf="http://www.w3.org/1999/02/22-rdf-syntax-ns#"
   xmlns:svg="http://www.w3.org/2000/svg"
   xmlns="http://www.w3.org/2000/svg"
   xmlns:xlink="http://www.w3.org/1999/xlink"
   xmlns:sodipodi="http://sodipodi.sourceforge.net/DTD/sodipodi-0.dtd"
   xmlns:inkscape="http://www.inkscape.org/namespaces/inkscape"
   width="64"
   height="64"
   viewBox="0 0 64 64"
   version="1.1"
   id="svg6374"
   inkscape:version="1.0.2 (e86c870879, 2021-01-15)"
   sodipodi:docname="user-home.svg">
  <defs
     id="defs6368">
    <linearGradient
       inkscape:collect="always"
       xlink:href="#linearGradient1077"
       id="linearGradient2899"
       gradientUnits="userSpaceOnUse"
       x1="33.48571"
       y1="4.0123987"
       x2="33.594517"
       y2="23.910183" />
    <linearGradient
       inkscape:collect="always"
       id="linearGradient1077">
      <stop
         style="stop-color:#9e9ea4;stop-opacity:1"
         offset="0"
         id="stop1073" />
      <stop
         style="stop-color:#797984;stop-opacity:1"
         offset="1"
         id="stop1075" />
    </linearGradient>
    <linearGradient
       inkscape:collect="always"
       xlink:href="#linearGradient1083"
       id="linearGradient2901"
       gradientUnits="userSpaceOnUse"
       gradientTransform="translate(-5.70703,-71.2207)"
       x1="38.194393"
       y1="86.220306"
       x2="37.853539"
       y2="130.25267" />
    <linearGradient
       inkscape:collect="always"
       id="linearGradient1083">
      <stop
         style="stop-color:#c2c2d1;stop-opacity:1"
         offset="0"
         id="stop1079" />
      <stop
         style="stop-color:#6e6e76;stop-opacity:1"
         offset="1"
         id="stop1081" />
    </linearGradient>
  </defs>
  <sodipodi:namedview
     id="base"
     pagecolor="#cecece"
     bordercolor="#666666"
     borderopacity="1.0"
     inkscape:pageopacity="0"
     inkscape:pageshadow="2"
     inkscape:zoom="5.5639287"
     inkscape:cx="8.3100654"
     inkscape:cy="29.73153"
     inkscape:document-units="px"
     inkscape:current-layer="layer1"
     inkscape:document-rotation="0"
     showgrid="false"
     units="px"
     inkscape:window-width="1368"
     inkscape:window-height="846"
     inkscape:window-x="68"
     inkscape:window-y="56"
     inkscape:window-maximized="0" />
  <metadata
     id="metadata6371">
    <rdf:RDF>
      <cc:Work
         rdf:about="">
        <dc:format>image/svg+xml</dc:format>
        <dc:type
           rdf:resource="http://purl.org/dc/dcmitype/StillImage" />
        <dc:title></dc:title>
      </cc:Work>
    </rdf:RDF>
  </metadata>
  <g
     inkscape:label="Layer 1"
     inkscape:groupmode="layer"
     id="layer1">
    <path
       id="rect1006-9-7-4-2-5-8-4-5"
       style="isolation:isolate;fill:#797984;fill-opacity:1;stroke:none;stroke-width:0.611371;stroke-miterlimit:4;stroke-dasharray:none;stroke-opacity:1"
       d="M 7.01922,4.5 C 5.34662,4.5 4,5.8576 4,7.5438 v 4.9091 0.049 15.9545 c 0,1.6862 1.34662,3.0437 3.01922,3.0437 H 56.98077 C 58.65337,31.5001 60,30.1426 60,28.4564 V 12.453 C 60,10.7668 58.65336,9.4092 56.98077,9.4092 H 28.5913 L 24.2087,4.5001 H 20.45903 7.16522 Z" />
    <path
       id="rect1006-9-9-5-7-6-6-8-8-1"
       style="color:#000000;font-style:normal;font-variant:normal;font-weight:normal;font-stretch:normal;font-size:medium;line-height:normal;font-family:sans-serif;font-variant-ligatures:normal;font-variant-position:normal;font-variant-caps:normal;font-variant-numeric:normal;font-variant-alternates:normal;font-variant-east-asian:normal;font-feature-settings:normal;font-variation-settings:normal;text-indent:0;text-align:start;text-decoration:none;text-decoration-line:none;text-decoration-style:solid;text-decoration-color:#000000;letter-spacing:normal;word-spacing:normal;text-transform:none;writing-mode:lr-tb;direction:ltr;text-orientation:mixed;dominant-baseline:auto;baseline-shift:baseline;text-anchor:start;white-space:normal;shape-padding:0;shape-margin:0;inline-size:0;clip-rule:nonzero;display:inline;overflow:visible;visibility:visible;isolation:isolate;mix-blend-mode:normal;color-interpolation:sRGB;color-interpolation-filters:linearRGB;solid-color:#000000;solid-opacity:1;vector-effect:none;fill:url(#linearGradient2899);fill-opacity:1;fill-rule:nonzero;stroke:none;stroke-linecap:butt;stroke-linejoin:miter;stroke-miterlimit:4;stroke-dasharray:none;stroke-dashoffset:0;stroke-opacity:1;color-rendering:auto;image-rendering:auto;shape-rendering:auto;text-rendering:auto;enable-background:accumulate;stop-color:#000000"
       d="M 7.01953,4.125 C 5.14402,4.125 3.625,5.6572 3.625,7.543 v 4.9102 0.049 15.955 c 0,1.8859 1.51902,3.418 3.39453,3.418 h 49.96094 c 1.87551,0 3.39453,-1.5321 3.39453,-3.418 V 12.4533 c 0,-1.8858 -1.51902,-3.4199 -3.39453,-3.4199 H 28.75976 L 24.37695,4.1252 H 20.45898 7.16602 Z m 0,0.75 h 0.14649 13.29296 3.58203 l 4.38282,4.9082 h 28.55664 c 1.46968,0 2.64453,1.1834 2.64453,2.67 v 16.0039 c 0,1.4865 -1.17484,2.6679 -2.64453,2.6679 H 7.01953 C 5.54984,31.125 4.375,29.9436 4.375,28.4571 V 12.502 12.453 7.5428 c 0,-1.4865 1.17484,-2.6679 2.64453,-2.6679 z" />
    <path
       id="rect880-1-9-6-9-8-6-3-5-7-7"
       style="opacity:0.125;isolation:isolate;fill:#313135;fill-opacity:1;stroke:none;stroke-width:0.609903;stroke-miterlimit:4;stroke-dasharray:none;stroke-opacity:1"
       d="m 32.32031,13.5 -0.11133,0.125 -4.27148,4.7637 H 7.01953 c -1.87467,0 -3.39453,1.5265 -3.39453,3.4063 v 33.0488 c 0,1.8797 1.51985,3.4062 3.39453,3.4062 h 49.96094 c 1.87467,0 3.39453,-1.5265 3.39453,-3.4062 v -22 V 21.795 16.9063 C 60.375,15.0266 58.85514,13.5 56.98047,13.5 h -5.01563 -8.42383 z" />
    <path
       id="rect880-1-9-2-4-4-9-0-0-4"
       style="opacity:0.15;isolation:isolate;fill:#313135;fill-opacity:1;stroke:none;stroke-width:0.609903;stroke-miterlimit:4;stroke-dasharray:none;stroke-opacity:1"
       d="M 32.32031,16.125 32.20898,16.25 27.9375,21.0137 H 7.01953 C 5.14486,21.0137 3.625,22.5402 3.625,24.42 v 33.0488 c 0,1.8797 1.51985,3.4062 3.39453,3.4062 h 49.96094 c 1.87467,0 3.39453,-1.5265 3.39453,-3.4062 v -22 V 24.42 19.5313 c 0,-1.8797 -1.51986,-3.4063 -3.39453,-3.4063 h -5.01563 -8.42383 z" />
    <path
       id="rect880-1-28-5-9-4-9-8-3"
       style="isolation:isolate;fill:#9e9ea4;fill-opacity:1;stroke:none;stroke-width:0.609904;stroke-miterlimit:4;stroke-dasharray:none;stroke-opacity:1"
       d="m 32.48697,15 -4.38261,4.8889 H 7.0192 C 5.3466,19.8889 4,21.2409 4,22.9201 V 55.9688 C 4,57.6481 5.3466,59 7.0192,59 H 56.98078 C 58.65338,59 60,57.6481 60,55.9688 V 33.9693 22.9201 18.0312 C 60,16.352 58.65338,15 56.98078,15 h -5.01555 -8.4243 z" />
    <path
       id="rect880-1-2-9-0-5-8-6-6-14"
       style="color:#000000;font-style:normal;font-variant:normal;font-weight:normal;font-stretch:normal;font-size:medium;line-height:normal;font-family:sans-serif;font-variant-ligatures:normal;font-variant-position:normal;font-variant-caps:normal;font-variant-numeric:normal;font-variant-alternates:normal;font-variant-east-asian:normal;font-feature-settings:normal;font-variation-settings:normal;text-indent:0;text-align:start;text-decoration:none;text-decoration-line:none;text-decoration-style:solid;text-decoration-color:#000000;letter-spacing:normal;word-spacing:normal;text-transform:none;writing-mode:lr-tb;direction:ltr;text-orientation:mixed;dominant-baseline:auto;baseline-shift:baseline;text-anchor:start;white-space:normal;shape-padding:0;shape-margin:0;inline-size:0;clip-rule:nonzero;display:inline;overflow:visible;visibility:visible;isolation:isolate;mix-blend-mode:normal;color-interpolation:sRGB;color-interpolation-filters:linearRGB;solid-color:#000000;solid-opacity:1;vector-effect:none;fill:url(#linearGradient2901);fill-opacity:1;fill-rule:nonzero;stroke:none;stroke-linecap:butt;stroke-linejoin:miter;stroke-miterlimit:4;stroke-dasharray:none;stroke-dashoffset:0;stroke-opacity:1;color-rendering:auto;image-rendering:auto;shape-rendering:auto;text-rendering:auto;enable-background:accumulate;stop-color:#000000"
       d="M 32.32031,14.625 32.20898,14.75 27.9375,19.5137 H 7.01953 C 5.14486,19.5137 3.625,21.0402 3.625,22.92 v 33.0488 c 0,1.8797 1.51985,3.4062 3.39453,3.4062 h 49.96094 c 1.87467,0 3.39453,-1.5265 3.39453,-3.4062 v -22 V 22.92 18.0313 c 0,-1.8797 -1.51986,-3.4063 -3.39453,-3.4063 h -5.01563 -8.42382 z m 0.33399,0.75 h 10.88671 8.42383 5.01563 c 1.47052,0 2.64453,1.1775 2.64453,2.6563 v 4.8887 11.0488 22 c 0,1.4787 -1.17401,2.6562 -2.64453,2.6562 H 7.01953 C 5.54901,58.625 4.375,57.4475 4.375,55.9688 V 22.92 c 0,-1.4788 1.17401,-2.6563 2.64453,-2.6563 h 21.25195 z" />
    <path
       id="path1305-3-0-7-7-9-2-8-6"
       style="color:#000000;font-style:normal;font-variant:normal;font-weight:normal;font-stretch:normal;font-size:medium;line-height:normal;font-family:sans-serif;font-variant-ligatures:normal;font-variant-position:normal;font-variant-caps:normal;font-variant-numeric:normal;font-variant-alternates:normal;font-variant-east-asian:normal;font-feature-settings:normal;font-variation-settings:normal;text-indent:0;text-align:start;text-decoration:none;text-decoration-line:none;text-decoration-style:solid;text-decoration-color:#000000;letter-spacing:normal;word-spacing:normal;text-transform:none;writing-mode:lr-tb;direction:ltr;text-orientation:mixed;dominant-baseline:auto;baseline-shift:baseline;text-anchor:start;white-space:normal;shape-padding:0;shape-margin:0;inline-size:0;clip-rule:nonzero;display:inline;overflow:visible;visibility:visible;opacity:0.15;isolation:auto;mix-blend-mode:normal;color-interpolation:sRGB;color-interpolation-filters:linearRGB;solid-color:#000000;solid-opacity:1;vector-effect:none;fill:#313135;fill-opacity:1;fill-rule:nonzero;stroke:none;stroke-linecap:round;stroke-linejoin:round;stroke-miterlimit:4;stroke-dasharray:none;stroke-dashoffset:0;stroke-opacity:1;color-rendering:auto;image-rendering:auto;shape-rendering:auto;text-rendering:auto;enable-background:accumulate;stop-color:#000000"
       d="m 31.93842,24.5 a 1.0001,1.0001 0 0 0 -0.36328,0.076 c -4.34204,0.2339 -7.82438,3.7862 -7.82422,8.1816 -4e-5,4.5483 3.70361,8.2578 8.24805,8.2578 4.54444,0 8.25004,-3.7095 8.25,-8.2578 4e-5,-4.4631 -3.58231,-8.0736 -8.00977,-8.209 a 1.0001,1.0001 0 0 0 -0.22461,-0.045 c -0.006,0 -0.01,0 -0.0156,0 h -0.0527 -0.002 -0.004 a 1.0001,1.0001 0 0 0 -0.002,0 z m 0.01,2 h 0.004 0.0449 a 1.0001,1.0001 0 0 0 0.002,0 c 3.46214,0 6.25003,2.789 6.25,6.2578 3e-5,3.4688 -2.78786,6.2578 -6.25,6.2578 -3.46214,0 -6.24808,-2.789 -6.24805,-6.2578 -1.3e-4,-3.4488 2.75571,-6.2296 6.19727,-6.2578 z m 0.0508,16.6777 c -2.58225,0 -5.16358,0.4432 -7.5293,1.3438 -4.74209,1.8052 -8.16986,5.4087 -8.16992,9.7695 7.2e-4,1.2068 0.99972,2.2084 2.20703,2.209 h 13.49219 13.49219 c 1.20798,4e-4 2.20826,-1.0016 2.20898,-2.209 -6e-5,-4.3607 -3.42582,-7.9643 -8.16797,-9.7695 -2.36578,-0.9006 -4.95091,-1.3438 -7.5332,-1.3438 z m 0,2 c 2.35185,0 4.70362,0.4072 6.82031,1.2129 4.22288,1.6076 6.88082,4.5981 6.88086,7.9004 -7e-5,0.1283 -0.0813,0.2091 -0.20703,0.209 a 1.0001,1.0001 0 0 0 -0.002,0 H 31.99917 18.50698 c -0.12565,0 -0.20695,-0.081 -0.20703,-0.209 4e-5,-3.3021 2.65795,-6.2928 6.88086,-7.9004 2.11678,-0.8058 4.46657,-1.2129 6.81836,-1.2129 z" />
    <path
       id="path1305-3-0-7-7-9-2-9"
       style="color:#000000;font-style:normal;font-variant:normal;font-weight:normal;font-stretch:normal;font-size:medium;line-height:normal;font-family:sans-serif;font-variant-ligatures:normal;font-variant-position:normal;font-variant-caps:normal;font-variant-numeric:normal;font-variant-alternates:normal;font-variant-east-asian:normal;font-feature-settings:normal;font-variation-settings:normal;text-indent:0;text-align:start;text-decoration:none;text-decoration-line:none;text-decoration-style:solid;text-decoration-color:#000000;letter-spacing:normal;word-spacing:normal;text-transform:none;writing-mode:lr-tb;direction:ltr;text-orientation:mixed;dominant-baseline:auto;baseline-shift:baseline;text-anchor:start;white-space:normal;shape-padding:0;shape-margin:0;inline-size:0;clip-rule:nonzero;display:inline;overflow:visible;visibility:visible;isolation:auto;mix-blend-mode:normal;color-interpolation:sRGB;color-interpolation-filters:linearRGB;solid-color:#000000;solid-opacity:1;vector-effect:none;fill:#fafafa;fill-opacity:1;fill-rule:nonzero;stroke:none;stroke-linecap:round;stroke-linejoin:round;stroke-miterlimit:4;stroke-dasharray:none;stroke-dashoffset:0;stroke-opacity:1;color-rendering:auto;image-rendering:auto;shape-rendering:auto;text-rendering:auto;enable-background:accumulate;stop-color:#000000"
       d="m 31.93842,22.5 a 1.0001,1.0001 0 0 0 -0.36328,0.076 c -4.34204,0.2339 -7.82438,3.7862 -7.82422,8.1816 -4e-5,4.5483 3.70361,8.2578 8.24805,8.2578 4.54444,0 8.25004,-3.7095 8.25,-8.2578 4e-5,-4.4631 -3.58231,-8.0736 -8.00977,-8.209 a 1.0001,1.0001 0 0 0 -0.22461,-0.045 c -0.006,0 -0.01,0 -0.0156,0 h -0.0527 -0.002 -0.004 a 1.0001,1.0001 0 0 0 -0.002,0 z m 0.01,2 h 0.004 0.0449 a 1.0001,1.0001 0 0 0 0.002,0 c 3.46214,0 6.25003,2.789 6.25,6.2578 3e-5,3.4688 -2.78786,6.2578 -6.25,6.2578 -3.46214,0 -6.24808,-2.789 -6.24805,-6.2578 -1.3e-4,-3.4488 2.75571,-6.2296 6.19727,-6.2578 z m 0.0508,16.6777 c -2.58225,0 -5.16358,0.4432 -7.5293,1.3438 -4.74209,1.8052 -8.16986,5.4087 -8.16992,9.7695 7.2e-4,1.2068 0.99972,2.2084 2.20703,2.209 h 13.49219 13.49219 c 1.20798,4e-4 2.20826,-1.0016 2.20898,-2.209 -6e-5,-4.3607 -3.42582,-7.9643 -8.16797,-9.7695 -2.36578,-0.9006 -4.95091,-1.3438 -7.5332,-1.3438 z m 0,2 c 2.35185,0 4.70362,0.4072 6.82031,1.2129 4.22288,1.6076 6.88082,4.5981 6.88086,7.9004 -7e-5,0.1283 -0.0813,0.2091 -0.20703,0.209 a 1.0001,1.0001 0 0 0 -0.002,0 H 31.99917 18.50698 c -0.12565,0 -0.20695,-0.081 -0.20703,-0.209 4e-5,-3.3021 2.65795,-6.2928 6.88086,-7.9004 2.11678,-0.8058 4.46657,-1.2129 6.81836,-1.2129 z" />
  </g>
</svg>
