<?xml version="1.0" encoding="UTF-8" standalone="no"?>
<svg
   xmlns:dc="http://purl.org/dc/elements/1.1/"
   xmlns:cc="http://creativecommons.org/ns#"
   xmlns:rdf="http://www.w3.org/1999/02/22-rdf-syntax-ns#"
   xmlns:svg="http://www.w3.org/2000/svg"
   xmlns="http://www.w3.org/2000/svg"
   xmlns:sodipodi="http://sodipodi.sourceforge.net/DTD/sodipodi-0.dtd"
   xmlns:inkscape="http://www.inkscape.org/namespaces/inkscape"
   width="64"
   height="64"
   viewBox="0 0 64 64"
   version="1.1"
   id="svg6374"
   inkscape:version="1.0.2 (e86c870879, 2021-01-15)"
   sodipodi:docname="media-playlist-repeat.svg">
  <defs
     id="defs6368" />
  <sodipodi:namedview
     id="base"
     pagecolor="#cecece"
     bordercolor="#666666"
     borderopacity="1.0"
     inkscape:pageopacity="0"
     inkscape:pageshadow="2"
     inkscape:zoom="6.8818909"
     inkscape:cx="20.896034"
     inkscape:cy="43.578666"
     inkscape:document-units="px"
     inkscape:current-layer="layer1"
     inkscape:document-rotation="0"
     showgrid="false"
     units="px"
     inkscape:window-width="1500"
     inkscape:window-height="970"
     inkscape:window-x="68"
     inkscape:window-y="56"
     inkscape:window-maximized="0" />
  <metadata
     id="metadata6371">
    <rdf:RDF>
      <cc:Work
         rdf:about="">
        <dc:format>image/svg+xml</dc:format>
        <dc:type
           rdf:resource="http://purl.org/dc/dcmitype/StillImage" />
        <dc:title></dc:title>
      </cc:Work>
    </rdf:RDF>
  </metadata>
  <g
     inkscape:label="Layer 1"
     inkscape:groupmode="layer"
     id="layer1">
    <path
       id="rect1112-8-8-4-3-3-3-0-9-8-2-6-9-2-5-8-2-1"
       style="color:#000000;font-style:normal;font-variant:normal;font-weight:normal;font-stretch:normal;font-size:medium;line-height:normal;font-family:sans-serif;font-variant-ligatures:normal;font-variant-position:normal;font-variant-caps:normal;font-variant-numeric:normal;font-variant-alternates:normal;font-variant-east-asian:normal;font-feature-settings:normal;font-variation-settings:normal;text-indent:0;text-align:start;text-decoration:none;text-decoration-line:none;text-decoration-style:solid;text-decoration-color:#000000;letter-spacing:normal;word-spacing:normal;text-transform:none;writing-mode:lr-tb;direction:ltr;text-orientation:mixed;dominant-baseline:auto;baseline-shift:baseline;text-anchor:start;white-space:normal;shape-padding:0;shape-margin:0;inline-size:0;clip-rule:nonzero;display:inline;overflow:visible;visibility:visible;opacity:0.075;isolation:auto;mix-blend-mode:normal;color-interpolation:sRGB;color-interpolation-filters:linearRGB;solid-color:#000000;solid-opacity:1;vector-effect:none;fill:#0c0c0c;fill-opacity:1;fill-rule:nonzero;stroke:none;stroke-width:1.00003;stroke-linecap:round;stroke-linejoin:round;stroke-miterlimit:4;stroke-dasharray:none;stroke-dashoffset:2.1875;stroke-opacity:1;color-rendering:auto;image-rendering:auto;shape-rendering:auto;text-rendering:auto;enable-background:accumulate;stop-color:#000000"
       d="m 46.602987,12.18201 c -0.90953,-0.003 -1.74605,0.63987 -1.94132,1.55859 l -1.00778,4.73828 c -0.22313,1.04996 0.46759,2.11079 1.51752,2.33399 l 0.47264,0.10156 c 6.56206,1.39459 10.69715,7.76198 9.30235,14.32422 -1.10441,5.19586 -5.37045,8.72641 -10.33551,9.33984 v -7.14453 a 1.0001191,1.0001404 0 0 0 -0.002,-0.041 v -0.77929 -0.19141 c 2e-5,-1.02435 -0.76439,-2.01751 -1.87296,-2.01758 -0.0838,1e-4 -0.13981,0.0206 -0.2129,0.0312 0.004,-6.8e-4 0.0342,-0.002 -0.0312,0 a 1.0001191,1.0001404 0 0 0 -0.26953,0.0449 c -0.0848,0.0264 -0.18782,0.0629 -0.30077,0.1211 a 1.0001191,1.0001404 0 0 0 -0.002,0.002 c -0.12768,0.066 -0.2325,0.13916 -0.32616,0.2168 l -15.35679,12.542973 c -0.52277,0.42674 -0.72343,1.04472 -0.72458,1.60351 a 1.0001191,1.0001404 0 0 0 0,0.002 c 1.1e-4,0.5614 0.202,1.18253 0.72458,1.60937 l 15.36851,12.55078 c 0.10369,0.0847 0.21437,0.15357 0.31249,0.20508 a 1.0001191,1.0001404 0 0 0 0.0156,0.008 c 0.11072,0.0555 0.21237,0.0928 0.30468,0.1211 a 1.0001191,1.0001404 0 0 0 0.26756,0.043 c 0.0615,0.0113 0.0732,0.0252 0.18164,0.0254 h 0.002 0.004 c 0.003,-1.8e-4 0.0282,-0.002 0.0527,-0.004 1.10418,-0.006 1.86328,-0.99312 1.8632,-2.01367 l 0.002,-0.71094 a 1.0001191,1.0001404 0 0 0 0.002,-0.0469 v -7.2754 c 8.99578,-0.62609 16.83308,-7.02001 18.87423,-16.251953 a 1.0001191,1.0001404 0 0 0 0.0508,-0.16406 c 2.39911,-11.28708 -4.78083,-22.3411 -16.0677,-24.74024 l -0.47459,-0.0996 c -0.13124,-0.0279 -0.26264,-0.0425 -0.39256,-0.043 z m -3.90999,51.349613 c -0.01,10e-5 -0.003,0 0.0449,0 l 0.002,-0.002 z m 3.91781,-49.345713 0.44334,0.0957 c 10.23688,2.17595 16.70072,12.13009 14.52479,22.36718 -1.86291,8.76444 -9.43719,14.754043 -17.99145,14.937503 a 1.0001191,1.0001404 0 0 0 -0.97457,1.07227 v 0.0137 1.94727 6.09179 a 1.0001191,1.0001404 0 0 0 -0.002,0.043 l -0.002,0.61328 -15.1068,-12.33789 c 0.0356,0.0291 0.0112,0.0155 0.01,-0.0566 1.7e-4,-0.0805 0.0281,-0.0894 -0.01,-0.0586 l 15.1068,-12.341803 v 0.86133 0.98047 h 0.002 v 6.87304 a 1.0001191,1.0001404 0 0 0 -0.002,0.043 v 0.45703 a 1.0001191,1.0001404 0 0 0 1.03317,1.000003 c 6.31391,-0.2157 11.88862,-4.675383 13.26117,-11.132813 1.61799,-7.61224 -3.23118,-15.0795 -10.84331,-16.69726 l -0.44333,-0.0937 z m -4.01742,47.351563 c -0.008,0.001 -0.0344,0.004 -0.0371,0.004 -0.003,4.7e-4 -0.004,-5.8e-4 0.006,-0.002 0.003,-3.3e-4 0.0192,-9.6e-4 0.0312,-0.002 z m 0.23046,1.92579 c -7.6e-4,2.9e-4 -0.008,0.004 -0.008,0.004 1.2e-4,-3e-5 -0.0598,0.008 -0.11522,0.0156 0.0607,-0.01 0.1229,-0.0195 0.12304,-0.0195 z m 0.004,0.0586 c -0.003,3.5e-4 -0.0331,0.002 -0.0488,0.004 0.0166,-10e-4 0.0357,-0.002 0.0391,-0.002 0.0112,-10e-4 0.0119,-0.002 0.01,-0.002 z" />
    <path
       id="rect1112-8-8-4-3-3-3-0-9-8-2-6-9-2-5-8-2-6-0"
       style="color:#000000;font-style:normal;font-variant:normal;font-weight:normal;font-stretch:normal;font-size:medium;line-height:normal;font-family:sans-serif;font-variant-ligatures:normal;font-variant-position:normal;font-variant-caps:normal;font-variant-numeric:normal;font-variant-alternates:normal;font-variant-east-asian:normal;font-feature-settings:normal;font-variation-settings:normal;text-indent:0;text-align:start;text-decoration:none;text-decoration-line:none;text-decoration-style:solid;text-decoration-color:#000000;letter-spacing:normal;word-spacing:normal;text-transform:none;writing-mode:lr-tb;direction:ltr;text-orientation:mixed;dominant-baseline:auto;baseline-shift:baseline;text-anchor:start;white-space:normal;shape-padding:0;shape-margin:0;inline-size:0;clip-rule:nonzero;display:inline;overflow:visible;visibility:visible;opacity:0.075;isolation:auto;mix-blend-mode:normal;color-interpolation:sRGB;color-interpolation-filters:linearRGB;solid-color:#000000;solid-opacity:1;vector-effect:none;fill:#0c0c0c;fill-opacity:1;fill-rule:nonzero;stroke:none;stroke-width:1.00003;stroke-linecap:round;stroke-linejoin:round;stroke-miterlimit:4;stroke-dasharray:none;stroke-dashoffset:2.1875;stroke-opacity:1;color-rendering:auto;image-rendering:auto;shape-rendering:auto;text-rendering:auto;enable-background:accumulate;stop-color:#000000"
       d="m 17.397017,52.818883 c 0.90953,0.003 1.74605,-0.63987 1.94132,-1.55859 l 1.00778,-4.73828 c 0.22313,-1.049963 -0.46759,-2.110793 -1.51752,-2.333993 l -0.47264,-0.10156 C 11.793897,42.69187 7.6588074,36.32448 9.0536074,29.76224 10.158017,24.56638 14.424057,21.03583 19.389117,20.4224 v 7.14453 a 1.0001191,1.0001404 0 0 0 0.002,0.041 v 0.77929 0.19141 c -2e-5,1.02435 0.76439,2.01751 1.87296,2.01758 0.0838,-10e-5 0.13981,-0.0206 0.2129,-0.0312 -0.004,6.8e-4 -0.0342,0.002 0.0312,0 a 1.0001191,1.0001404 0 0 0 0.26953,-0.0449 c 0.0848,-0.0264 0.18782,-0.0629 0.30077,-0.1211 a 1.0001191,1.0001404 0 0 0 0.002,-0.002 c 0.12768,-0.066 0.2325,-0.13916 0.32616,-0.2168 l 15.35679,-12.54297 c 0.52277,-0.42674 0.72343,-1.04472 0.72458,-1.60351 a 1.0001191,1.0001404 0 0 0 0,-0.002 c -1.1e-4,-0.5614 -0.202,-1.18253 -0.72458,-1.60937 L 22.394917,1.87158 c -0.10369,-0.0847 -0.21437,-0.15357 -0.31249,-0.20508 a 1.0001191,1.0001404 0 0 0 -0.0156,-0.008 C 21.956107,1.603 21.854457,1.5657 21.762147,1.5374 a 1.0001191,1.0001404 0 0 0 -0.26756,-0.043 c -0.0615,-0.0113 -0.0732,-0.0252 -0.18164,-0.0254 h -0.002 -0.004 c -0.003,1.8e-4 -0.0282,0.002 -0.0527,0.004 -1.10418,0.006 -1.86328,0.9931197 -1.8632,2.0136697 l -0.002,0.71094 a 1.0001191,1.0001404 0 0 0 -0.002,0.0469 V 11.51991 C 10.391267,12.146 2.5539674,18.53992 0.5128174,27.77186 a 1.0001191,1.0001404 0 0 0 -0.0508,0.16406 c -2.39911,11.28708 4.78083,22.341103 16.0676996,24.740243 l 0.47459,0.0996 c 0.13124,0.0279 0.26264,0.0425 0.39256,0.043 z M 21.307007,1.46927 c 0.01,-10e-5 0.003,0 -0.0449,0 l -0.002,0.002 z m -3.91781,49.345713 -0.44334,-0.0957 C 6.7089774,48.543333 0.2451374,38.58919 2.4210674,28.3521 4.2839774,19.58766 11.858257,13.598059 20.412517,13.414599 a 1.0001191,1.0001404 0 0 0 0.97457,-1.07227 v -0.0137 -1.94727 -6.0917893 a 1.0001191,1.0001404 0 0 0 0.002,-0.043 l 0.002,-0.61328 15.1068,12.3378903 c -0.0356,-0.0291 -0.0112,-0.0155 -0.01,0.0566 -1.7e-4,0.0805 -0.0281,0.0894 0.01,0.0586 l -15.1068,12.3418 v -0.86133 -0.98047 h -0.002 v -6.87304 a 1.0001191,1.0001404 0 0 0 0.002,-0.043 v -0.45703 a 1.0001191,1.0001404 0 0 0 -1.03317,-1 c -6.31391,0.2157 -11.8886196,4.67538 -13.2611696,11.13281 -1.61799,7.61224 3.2311796,15.0795 10.8433096,16.69726 l 0.44333,0.0937 z m 4.01742,-47.3515633 c 0.008,-0.001 0.0344,-0.004 0.0371,-0.004 0.003,-4.7e-4 0.004,5.8e-4 -0.006,0.002 -0.003,3.3e-4 -0.0192,9.6e-4 -0.0312,0.002 z M 21.176157,1.53763 c 7.6e-4,-2.9e-4 0.008,-0.004 0.008,-0.004 -1.2e-4,3e-5 0.0598,-0.008 0.11522,-0.0156 -0.0607,0.01 -0.1229,0.0195 -0.12304,0.0195 z m -0.004,-0.0586 c 0.003,-3.5e-4 0.0331,-0.002 0.0488,-0.004 -0.0166,10e-4 -0.0357,0.002 -0.0391,0.002 -0.0112,10e-4 -0.0119,0.002 -0.01,0.002 z" />
    <path
       id="rect1112-8-8-4-3-3-3-0-9-8-2"
       style="fill:#68bace;fill-opacity:1;stroke-width:4.35943;stroke-linecap:round;stroke-linejoin:round;stroke-dashoffset:2.1875"
       d="m 1.4416074,27.14199 c -2.28746,10.761851 4.53473,21.267276 15.2964096,23.554772 l 0.47379,0.100692 c 0.52496,0.111602 1.03741,-0.221234 1.14899,-0.746182 l 1.00708,-4.737975 c 0.11156,-0.524968 -0.22123,-1.037426 -0.74617,-1.149018 l -0.47379,-0.100691 C 11.060957,42.557444 6.5682974,35.638985 8.0746674,28.551914 9.3524274,22.540491 14.525817,18.411805 20.391217,18.211438 l -3.7e-4,0.456435 -0.002,-4.03e-4 2.4e-4,7.898168 0.002,4.03e-4 -3.1e-4,1.011621 c -2e-5,0.563956 0.38941,1.017279 0.87281,1.017311 0.0717,-9.4e-5 0.13939,-0.01282 0.20599,-0.03185 0.004,4.1e-5 0.007,5.9e-4 0.0113,4.65e-4 0.0481,-0.01502 0.095,-0.03259 0.13946,-0.05547 0.0524,-0.0271 0.1026,-0.06148 0.14891,-0.09988 L 37.129367,15.86147 c 0.24253,-0.197975 0.35783,-0.511379 0.35849,-0.83103 -6e-5,-0.320195 -0.11596,-0.634218 -0.35885,-0.832623 L 21.762847,1.6466831 c -0.0456,-0.037381 -0.0929,-0.067481 -0.14433,-0.094502 -0.0475,-0.0238 -0.0984,-0.042981 -0.14997,-0.058841 -0.002,2.6e-5 -0.002,0.0014 -0.004,0.0011 -0.0493,-0.01135 -0.1012,-0.0249 -0.15338,-0.0249 -7.4e-4,4e-6 -0.004,5.86e-4 -0.006,6.81e-4 -0.0147,-1.28e-4 -0.0275,-0.0014 -0.0424,-0.0012 -0.48339,3e-6 -0.87213,0.4539531 -0.87209,1.0178236 l -6e-4,0.758153 -0.002,-4.03e-4 -2.6e-4,8.1553343 0.002,4.03e-4 10e-4,0.01391 C 11.381997,11.607457 3.4004074,17.928206 1.4419874,27.141971 Z" />
    <path
       id="rect1112-8-8-4-3-3-3-0-9-8-2-6"
       style="fill:#68bace;fill-opacity:1;stroke-width:4.35944;stroke-linecap:round;stroke-linejoin:round;stroke-dashoffset:2.1875"
       d="m 62.558337,35.859459 c 2.28746,-10.76186 -4.53474,-21.267296 -15.29641,-23.554801 l -0.47379,-0.100691 c -0.52496,-0.111602 -1.03741,0.221228 -1.14899,0.746183 l -1.00708,4.737985 c -0.11156,0.524966 0.22123,1.037428 0.74617,1.149012 l 0.47379,0.10069 c 7.08696,1.506149 11.57962,8.42462 10.07324,15.511705 -1.27775,6.011427 -6.45114,10.140118 -12.31654,10.340492 l 3.7e-4,-0.456439 0.002,4e-4 -2.4e-4,-7.898174 -0.002,-4e-4 3.1e-4,-1.01163 c 1e-5,-0.563951 -0.38941,-1.01728 -0.87281,-1.01731 -0.0717,9e-5 -0.13939,0.0128 -0.20599,0.0319 -0.004,-4e-5 -0.007,-5.9e-4 -0.0113,-4.7e-4 -0.0482,0.015 -0.095,0.0326 -0.13947,0.0555 -0.0524,0.0271 -0.10259,0.0615 -0.14891,0.0999 L 26.870567,47.1401 c -0.24253,0.197974 -0.35783,0.51138 -0.35849,0.831036 6e-5,0.320196 0.11596,0.634212 0.35886,0.832616 l 15.36621,12.551145 c 0.0456,0.0374 0.0929,0.0675 0.14433,0.0945 0.0475,0.0238 0.0984,0.043 0.14997,0.0588 0.002,-3e-5 0.002,-0.001 0.004,-0.001 0.0493,0.0113 0.1012,0.0249 0.15338,0.0249 7.5e-4,0 0.004,-5.9e-4 0.006,-6.8e-4 0.0147,1.3e-4 0.0275,0.001 0.0424,0.001 0.48339,0 0.87213,-0.453949 0.87209,-1.01782 l 6e-4,-0.758155 0.002,4e-4 2.6e-4,-8.155349 -0.002,-4e-4 -10e-4,-0.0139 c 9.00884,-0.193224 16.99043,-6.513988 18.94885,-15.727768 z" />
    <path
       id="rect1112-8-8-4-3-3-3-0-9-8-2-6-9-2-5-8-2"
       style="color:#000000;font-style:normal;font-variant:normal;font-weight:normal;font-stretch:normal;font-size:medium;line-height:normal;font-family:sans-serif;font-variant-ligatures:normal;font-variant-position:normal;font-variant-caps:normal;font-variant-numeric:normal;font-variant-alternates:normal;font-variant-east-asian:normal;font-feature-settings:normal;font-variation-settings:normal;text-indent:0;text-align:start;text-decoration:none;text-decoration-line:none;text-decoration-style:solid;text-decoration-color:#000000;letter-spacing:normal;word-spacing:normal;text-transform:none;writing-mode:lr-tb;direction:ltr;text-orientation:mixed;dominant-baseline:auto;baseline-shift:baseline;text-anchor:start;white-space:normal;shape-padding:0;shape-margin:0;inline-size:0;clip-rule:nonzero;display:inline;overflow:visible;visibility:visible;opacity:0.95;isolation:auto;mix-blend-mode:normal;color-interpolation:sRGB;color-interpolation-filters:linearRGB;solid-color:#000000;solid-opacity:1;vector-effect:none;fill:#245d6b;fill-opacity:1;fill-rule:nonzero;stroke:none;stroke-width:1.00003;stroke-linecap:round;stroke-linejoin:round;stroke-miterlimit:4;stroke-dasharray:none;stroke-dashoffset:2.1875;stroke-opacity:1;color-rendering:auto;image-rendering:auto;shape-rendering:auto;text-rendering:auto;enable-background:accumulate;stop-color:#000000"
       d="m 46.602987,11.18201 c -0.90953,-0.003 -1.74605,0.63987 -1.94132,1.55859 l -1.00778,4.73828 c -0.22313,1.04996 0.46759,2.11079 1.51752,2.33399 l 0.47264,0.10156 c 6.56206,1.39459 10.69715,7.76198 9.30235,14.32422 -1.10441,5.19586 -5.37045,8.72641 -10.33551,9.33984 v -7.14453 a 1.0001191,1.0001404 0 0 0 -0.002,-0.041 v -0.77929 -0.19141 c 2e-5,-1.02435 -0.76439,-2.01751 -1.87296,-2.01758 -0.0838,1e-4 -0.13981,0.0206 -0.2129,0.0312 0.004,-6.8e-4 0.0342,-0.002 -0.0312,0 a 1.0001191,1.0001404 0 0 0 -0.26953,0.0449 c -0.0848,0.0264 -0.18782,0.0629 -0.30077,0.1211 a 1.0001191,1.0001404 0 0 0 -0.002,0.002 c -0.12768,0.066 -0.2325,0.13916 -0.32616,0.2168 l -15.35679,12.54297 c -0.52277,0.42674 -0.72343,1.04472 -0.72458,1.60351 a 1.0001191,1.0001404 0 0 0 0,0.002 c 1.1e-4,0.5614 0.202,1.18253 0.72458,1.60937 l 15.36851,12.55078 c 0.10369,0.0847 0.21437,0.15357 0.31249,0.20508 a 1.0001191,1.0001404 0 0 0 0.0156,0.008 c 0.11072,0.0555 0.21237,0.0928 0.30468,0.1211 a 1.0001191,1.0001404 0 0 0 0.26756,0.043 c 0.0615,0.0113 0.0732,0.0252 0.18164,0.0254 h 0.002 0.004 c 0.003,-1.8e-4 0.0282,-0.002 0.0527,-0.004 1.10418,-0.006 1.86328,-0.99312 1.8632,-2.01367 l 0.002,-0.71094 a 1.0001191,1.0001404 0 0 0 0.002,-0.0469 v -7.2754 c 8.99578,-0.62609 16.83308,-7.02001 18.87423,-16.25195 a 1.0001191,1.0001404 0 0 0 0.0508,-0.16406 c 2.39911,-11.28708 -4.78083,-22.3411 -16.0677,-24.74024 l -0.47459,-0.0996 c -0.13124,-0.0279 -0.26264,-0.0425 -0.39256,-0.043 z m -3.90999,51.34961 c -0.01,1e-4 -0.003,0 0.0449,0 l 0.002,-0.002 z m 3.91781,-49.34571 0.44334,0.0957 c 10.23688,2.17595 16.70072,12.13009 14.52479,22.36718 -1.86291,8.76444 -9.43719,14.75404 -17.99145,14.9375 a 1.0001191,1.0001404 0 0 0 -0.97457,1.07227 v 0.0137 1.94727 6.09179 a 1.0001191,1.0001404 0 0 0 -0.002,0.043 l -0.002,0.61328 -15.1068,-12.33789 c 0.0356,0.0291 0.0112,0.0155 0.01,-0.0566 1.7e-4,-0.0805 0.0281,-0.0894 -0.01,-0.0586 l 15.1068,-12.3418 v 0.86133 0.98047 h 0.002 v 6.87304 a 1.0001191,1.0001404 0 0 0 -0.002,0.043 v 0.45703 a 1.0001191,1.0001404 0 0 0 1.03317,1 c 6.31391,-0.2157 11.88862,-4.67538 13.26117,-11.13281 1.61799,-7.61224 -3.23118,-15.0795 -10.84331,-16.69726 l -0.44333,-0.0937 z m -4.01742,47.35156 c -0.008,10e-4 -0.0344,0.004 -0.0371,0.004 -0.003,4.7e-4 -0.004,-5.8e-4 0.006,-0.002 0.003,-3.3e-4 0.0192,-9.6e-4 0.0312,-0.002 z m 0.23046,1.92579 c -7.6e-4,2.9e-4 -0.008,0.004 -0.008,0.004 1.2e-4,-3e-5 -0.0598,0.008 -0.11522,0.0156 0.0607,-0.01 0.1229,-0.0195 0.12304,-0.0195 z m 0.004,0.0586 c -0.003,3.5e-4 -0.0331,0.002 -0.0488,0.004 0.0166,-0.001 0.0357,-0.002 0.0391,-0.002 0.0112,-10e-4 0.0119,-0.002 0.01,-0.002 z" />
    <path
       id="rect1112-8-8-4-3-3-3-0-9-8-2-6-9-2-5-8-2-6"
       style="color:#000000;font-style:normal;font-variant:normal;font-weight:normal;font-stretch:normal;font-size:medium;line-height:normal;font-family:sans-serif;font-variant-ligatures:normal;font-variant-position:normal;font-variant-caps:normal;font-variant-numeric:normal;font-variant-alternates:normal;font-variant-east-asian:normal;font-feature-settings:normal;font-variation-settings:normal;text-indent:0;text-align:start;text-decoration:none;text-decoration-line:none;text-decoration-style:solid;text-decoration-color:#000000;letter-spacing:normal;word-spacing:normal;text-transform:none;writing-mode:lr-tb;direction:ltr;text-orientation:mixed;dominant-baseline:auto;baseline-shift:baseline;text-anchor:start;white-space:normal;shape-padding:0;shape-margin:0;inline-size:0;clip-rule:nonzero;display:inline;overflow:visible;visibility:visible;opacity:0.95;isolation:auto;mix-blend-mode:normal;color-interpolation:sRGB;color-interpolation-filters:linearRGB;solid-color:#000000;solid-opacity:1;vector-effect:none;fill:#245d6b;fill-opacity:1;fill-rule:nonzero;stroke:none;stroke-width:1.00003;stroke-linecap:round;stroke-linejoin:round;stroke-miterlimit:4;stroke-dasharray:none;stroke-dashoffset:2.1875;stroke-opacity:1;color-rendering:auto;image-rendering:auto;shape-rendering:auto;text-rendering:auto;enable-background:accumulate;stop-color:#000000"
       d="m 17.397017,51.81888 c 0.90953,0.003 1.74605,-0.63987 1.94132,-1.55859 l 1.00778,-4.73828 c 0.22313,-1.04996 -0.46759,-2.11079 -1.51752,-2.33399 l -0.47264,-0.10156 C 11.793897,41.69187 7.6588074,35.32448 9.0536074,28.76224 10.158017,23.56638 14.424057,20.03583 19.389117,19.4224 v 7.14453 a 1.0001191,1.0001404 0 0 0 0.002,0.041 v 0.77929 0.19141 c -2e-5,1.02435 0.76439,2.01751 1.87296,2.01758 0.0838,-10e-5 0.13981,-0.0206 0.2129,-0.0312 -0.004,6.8e-4 -0.0342,0.002 0.0312,0 a 1.0001191,1.0001404 0 0 0 0.26953,-0.0449 c 0.0848,-0.0264 0.18782,-0.0629 0.30077,-0.1211 a 1.0001191,1.0001404 0 0 0 0.002,-0.002 c 0.12768,-0.066 0.2325,-0.13916 0.32616,-0.2168 l 15.35679,-12.54297 c 0.52277,-0.42674 0.72343,-1.04472 0.72458,-1.60351 a 1.0001191,1.0001404 0 0 0 0,-0.002 c -1.1e-4,-0.5614 -0.202,-1.18253 -0.72458,-1.60937 L 22.394917,0.87158 c -0.10369,-0.0847 -0.21437,-0.15357 -0.31249,-0.20508 a 1.0001191,1.0001404 0 0 0 -0.0156,-0.008 C 21.956107,0.603 21.854457,0.5657 21.762147,0.5374 a 1.0001191,1.0001404 0 0 0 -0.26756,-0.043 c -0.0615,-0.0113 -0.0732,-0.0252 -0.18164,-0.0254 h -0.002 -0.004 c -0.003,1.8e-4 -0.0282,0.002 -0.0527,0.004 -1.10418,0.006 -1.86328,0.99312 -1.8632,2.0136697 l -0.002,0.71094 a 1.0001191,1.0001404 0 0 0 -0.002,0.0469 V 10.51991 C 10.391267,11.146 2.5539674,17.53992 0.5128174,26.77186 a 1.0001191,1.0001404 0 0 0 -0.0508,0.16406 c -2.39911,11.28708 4.78083,22.3411 16.0676996,24.74024 l 0.47459,0.0996 c 0.13124,0.0279 0.26264,0.0425 0.39256,0.043 z m 3.90999,-51.34961 c 0.01,-1e-4 0.003,0 -0.0449,0 l -0.002,0.002 z m -3.91781,49.34571 -0.44334,-0.0957 C 6.7089774,47.54333 0.2451374,37.58919 2.4210674,27.3521 4.2839774,18.58766 11.858257,12.598059 20.412517,12.414599 a 1.0001191,1.0001404 0 0 0 0.97457,-1.07227 v -0.0137 -1.9472693 -6.09179 a 1.0001191,1.0001404 0 0 0 0.002,-0.043 l 0.002,-0.61328 15.1068,12.3378903 c -0.0356,-0.0291 -0.0112,-0.0155 -0.01,0.0566 -1.7e-4,0.0805 -0.0281,0.0894 0.01,0.0586 l -15.1068,12.3418 v -0.86133 -0.98047 h -0.002 v -6.87304 a 1.0001191,1.0001404 0 0 0 0.002,-0.043 v -0.45703 a 1.0001191,1.0001404 0 0 0 -1.03317,-1 c -6.31391,0.2157 -11.8886196,4.67538 -13.2611696,11.13281 -1.61799,7.61224 3.2311796,15.0795 10.8433096,16.69726 l 0.44333,0.0937 z m 4.01742,-47.3515603 c 0.008,-0.001 0.0344,-0.004 0.0371,-0.004 0.003,-4.7e-4 0.004,5.8e-4 -0.006,0.002 -0.003,3.3e-4 -0.0192,9.6e-4 -0.0312,0.002 z M 21.176157,0.53763 c 7.6e-4,-2.9e-4 0.008,-0.004 0.008,-0.004 -1.2e-4,3e-5 0.0598,-0.008 0.11522,-0.0156 -0.0607,0.01 -0.1229,0.0195 -0.12304,0.0195 z m -0.004,-0.0586 c 0.003,-3.5e-4 0.0331,-0.002 0.0488,-0.004 -0.0166,0.001 -0.0357,0.002 -0.0391,0.002 -0.0112,0.001 -0.0119,0.002 -0.01,0.002 z" />
  </g>
</svg>
