<?xml version="1.0" encoding="UTF-8" standalone="no"?>
<svg
   xmlns:dc="http://purl.org/dc/elements/1.1/"
   xmlns:cc="http://creativecommons.org/ns#"
   xmlns:rdf="http://www.w3.org/1999/02/22-rdf-syntax-ns#"
   xmlns:svg="http://www.w3.org/2000/svg"
   xmlns="http://www.w3.org/2000/svg"
   xmlns:sodipodi="http://sodipodi.sourceforge.net/DTD/sodipodi-0.dtd"
   xmlns:inkscape="http://www.inkscape.org/namespaces/inkscape"
   width="64"
   height="64"
   viewBox="0 0 16.933333 16.933334"
   version="1.1"
   id="svg841"
   inkscape:version="1.0.2 (e86c870879, 2021-01-15)"
   sodipodi:docname="security-low.svg">
  <defs
     id="defs835" />
  <sodipodi:namedview
     id="base"
     pagecolor="#c4c4c4"
     bordercolor="#666666"
     borderopacity="1.0"
     inkscape:pageopacity="0"
     inkscape:pageshadow="2"
     inkscape:zoom="3.8158708"
     inkscape:cx="-28.767032"
     inkscape:cy="55.914125"
     inkscape:document-units="px"
     inkscape:current-layer="layer1"
     inkscape:document-rotation="0"
     showgrid="false"
     units="px"
     inkscape:window-width="2048"
     inkscape:window-height="1080"
     inkscape:window-x="0"
     inkscape:window-y="0"
     inkscape:window-maximized="1" />
  <metadata
     id="metadata838">
    <rdf:RDF>
      <cc:Work
         rdf:about="">
        <dc:format>image/svg+xml</dc:format>
        <dc:type
           rdf:resource="http://purl.org/dc/dcmitype/StillImage" />
        <dc:title />
      </cc:Work>
    </rdf:RDF>
  </metadata>
  <g
     inkscape:label="Layer 1"
     inkscape:groupmode="layer"
     id="layer1">
    <path
       id="path1026-5-4"
       style="color:#000000;font-style:normal;font-variant:normal;font-weight:normal;font-stretch:normal;font-size:medium;line-height:normal;font-family:sans-serif;font-variant-ligatures:normal;font-variant-position:normal;font-variant-caps:normal;font-variant-numeric:normal;font-variant-alternates:normal;font-variant-east-asian:normal;font-feature-settings:normal;font-variation-settings:normal;text-indent:0;text-align:start;text-decoration:none;text-decoration-line:none;text-decoration-style:solid;text-decoration-color:#000000;letter-spacing:normal;word-spacing:normal;text-transform:none;writing-mode:lr-tb;direction:ltr;text-orientation:mixed;dominant-baseline:auto;baseline-shift:baseline;text-anchor:start;white-space:normal;shape-padding:0;shape-margin:0;inline-size:0;clip-rule:nonzero;display:inline;overflow:visible;visibility:visible;opacity:0.15;isolation:auto;mix-blend-mode:normal;color-interpolation:sRGB;color-interpolation-filters:linearRGB;solid-color:#000000;solid-opacity:1;vector-effect:none;fill:#0c0c0c;fill-opacity:1;fill-rule:nonzero;stroke:none;stroke-width:0.999948;stroke-linecap:round;stroke-linejoin:round;stroke-miterlimit:4;stroke-dasharray:none;stroke-dashoffset:2.1875;stroke-opacity:1;color-rendering:auto;image-rendering:auto;shape-rendering:auto;text-rendering:auto;enable-background:accumulate;stop-color:#000000"
       d="m 8.4664288,1.3229167 c -4.1597264,0 -7.54038712,3.3810364 -7.54038712,7.5406278 0,4.1595865 3.38066072,7.5406225 7.54038712,7.5406225 4.1597262,0 7.5408632,-3.381034 7.5408632,-7.5406225 0,-4.1595914 -3.381137,-7.5406278 -7.5408632,-7.5406278 z m 0,0.7931812 c 3.7307572,0 6.7461082,3.0168004 6.7461082,6.7474466 0,3.7306385 -3.015351,6.7453805 -6.7461082,6.7453805 -3.7307839,0 -6.7456317,-3.014739 -6.7456317,-6.7453805 0,-3.7306462 3.0148478,-6.7474466 6.7456317,-6.7474466 z" />
    <path
       id="path1026-5-2-5"
       style="color:#000000;font-style:normal;font-variant:normal;font-weight:normal;font-stretch:normal;font-size:medium;line-height:normal;font-family:sans-serif;font-variant-ligatures:normal;font-variant-position:normal;font-variant-caps:normal;font-variant-numeric:normal;font-variant-alternates:normal;font-variant-east-asian:normal;font-feature-settings:normal;font-variation-settings:normal;text-indent:0;text-align:start;text-decoration:none;text-decoration-line:none;text-decoration-style:solid;text-decoration-color:#000000;letter-spacing:normal;word-spacing:normal;text-transform:none;writing-mode:lr-tb;direction:ltr;text-orientation:mixed;dominant-baseline:auto;baseline-shift:baseline;text-anchor:start;white-space:normal;shape-padding:0;shape-margin:0;inline-size:0;clip-rule:nonzero;display:inline;overflow:visible;visibility:visible;opacity:0.85;isolation:auto;mix-blend-mode:normal;color-interpolation:sRGB;color-interpolation-filters:linearRGB;solid-color:#000000;solid-opacity:1;vector-effect:none;fill:#881b39;fill-opacity:1;fill-rule:nonzero;stroke:none;stroke-width:0.999948;stroke-linecap:round;stroke-linejoin:round;stroke-miterlimit:4;stroke-dasharray:none;stroke-dashoffset:2.1875;stroke-opacity:1;color-rendering:auto;image-rendering:auto;shape-rendering:auto;text-rendering:auto;enable-background:accumulate;stop-color:#000000"
       d="m 8.4664288,0.92604168 c -4.1597264,0 -7.54038712,3.38103642 -7.54038712,7.54062782 0,4.1595865 3.38066072,7.5406225 7.54038712,7.5406225 4.1597262,0 7.5408632,-3.381034 7.5408632,-7.5406225 0,-4.1595914 -3.381137,-7.54062782 -7.5408632,-7.54062782 z m 0,0.79318122 c 3.7307572,0 6.7461082,3.0168004 6.7461082,6.7474466 0,3.7306385 -3.015351,6.7453805 -6.7461082,6.7453805 -3.7307839,0 -6.7456317,-3.01474 -6.7456317,-6.7453805 0,-3.7306462 3.0148478,-6.7474466 6.7456317,-6.7474466 z" />
    <path
       id="path901-0"
       style="fill:#d4305d;fill-opacity:1;stroke-width:0;stroke-linecap:round;stroke-linejoin:round;stroke-dashoffset:2.1875"
       d="M 8.4594438,1.3229167 A 7.1437502,7.1437502 0 0 0 1.3229167,8.4666695 7.1437502,7.1437502 0 0 0 8.4666669,15.610417 V 1.3229167 a 7.1437502,7.1437502 0 0 0 -0.00714,0 z" />
    <path
       id="path901-6-36"
       style="fill:#dc567c;fill-opacity:1;stroke-width:0;stroke-linecap:round;stroke-linejoin:round;stroke-dashoffset:2.1875"
       d="M 8.4739165,1.3229167 A 7.1437502,7.1437502 0 0 1 15.610417,8.4666695 7.1437502,7.1437502 0 0 1 8.4666669,15.610414 V 1.3229167 a 7.1437502,7.1437502 0 0 1 0.00714,0 z" />
    <path
       id="path901-6-2-2-6-6"
       style="color:#000000;font-style:normal;font-variant:normal;font-weight:normal;font-stretch:normal;font-size:medium;line-height:normal;font-family:sans-serif;font-variant-ligatures:normal;font-variant-position:normal;font-variant-caps:normal;font-variant-numeric:normal;font-variant-alternates:normal;font-variant-east-asian:normal;font-feature-settings:normal;font-variation-settings:normal;text-indent:0;text-align:start;text-decoration:none;text-decoration-line:none;text-decoration-style:solid;text-decoration-color:#000000;letter-spacing:normal;word-spacing:normal;text-transform:none;writing-mode:lr-tb;direction:ltr;text-orientation:mixed;dominant-baseline:auto;baseline-shift:baseline;text-anchor:start;white-space:normal;shape-padding:0;shape-margin:0;inline-size:0;clip-rule:nonzero;display:inline;overflow:visible;visibility:visible;opacity:0.15;isolation:auto;mix-blend-mode:normal;color-interpolation:sRGB;color-interpolation-filters:linearRGB;solid-color:#000000;solid-opacity:1;vector-effect:none;fill:#66142b;fill-opacity:1;fill-rule:nonzero;stroke:none;stroke-width:0.264591;stroke-linecap:round;stroke-linejoin:round;stroke-miterlimit:4;stroke-dasharray:none;stroke-dashoffset:2.1875;stroke-opacity:1;color-rendering:auto;image-rendering:auto;shape-rendering:auto;text-rendering:auto;enable-background:accumulate;stop-color:#000000"
       d="M 8.4593776,0.92604168 C 4.3022257,0.93025168 0.92604168,4.309761 0.92604168,8.4666695 c 0,4.1515535 3.36761142,7.5266235 7.51629412,7.5401035 0.00794,2.4e-5 0.015875,5.3e-4 0.023813,5.3e-4 a 0.39693907,0.3969147 0 0 0 0.024871,-5.3e-4 C 12.639707,15.99328 16.007292,12.61822 16.007292,8.4666669 16.007319,4.309761 12.631135,0.93025118 8.4739562,0.92604168 h -0.00714 -0.00714 z M 8.0702311,1.7595824 V 15.173749 C 4.5282486,14.964868 1.7198393,12.06159 1.7198393,8.4666695 c 0,-3.5945313 2.8080389,-6.4980901 6.3503918,-6.7070871 z m 0.7937976,0 c 3.5423793,0.208997 6.3504183,3.1125558 6.3503913,6.7070871 0,3.5949205 -2.808382,6.4981985 -6.3503913,6.7070795 z" />
    <path
       id="rect1293-6-4-8-3-1-0"
       style="opacity:0.35;fill:#66142b;fill-opacity:1;stroke:none;stroke-width:0.264586;stroke-linecap:round;stroke-linejoin:round;stroke-miterlimit:4;stroke-dasharray:none;stroke-dashoffset:2.1875;stroke-opacity:1"
       d="m 7.6729169,4.1346439 c -0.1465792,0 -0.2645834,0.1180041 -0.2645834,0.2645833 v 5.6885418 c 0,0.146582 0.1180042,0.264583 0.2645834,0.264583 H 9.260417 c 0.146579,0 0.264583,-0.118001 0.264583,-0.264583 V 4.3992272 C 9.525,4.252648 9.406996,4.1346439 9.260417,4.1346439 Z m 0.79375,7.6057391 A 1.3229166,1.322932 0 0 0 7.1437502,13.0633 1.3229166,1.322932 0 0 0 8.4666669,14.386216 1.3229166,1.322932 0 0 0 9.789584,13.0633 1.3229166,1.322932 0 0 0 8.4666669,11.740383 Z" />
    <path
       id="rect1293-6-4-8-3-1-6"
       style="color:#000000;font-style:normal;font-variant:normal;font-weight:normal;font-stretch:normal;font-size:medium;line-height:normal;font-family:sans-serif;font-variant-ligatures:normal;font-variant-position:normal;font-variant-caps:normal;font-variant-numeric:normal;font-variant-alternates:normal;font-variant-east-asian:normal;font-feature-settings:normal;font-variation-settings:normal;text-indent:0;text-align:start;text-decoration:none;text-decoration-line:none;text-decoration-style:solid;text-decoration-color:#000000;letter-spacing:normal;word-spacing:normal;text-transform:none;writing-mode:lr-tb;direction:ltr;text-orientation:mixed;dominant-baseline:auto;baseline-shift:baseline;text-anchor:start;white-space:normal;shape-padding:0;shape-margin:0;inline-size:0;clip-rule:nonzero;display:inline;overflow:visible;visibility:visible;opacity:0.75;isolation:auto;mix-blend-mode:normal;color-interpolation:sRGB;color-interpolation-filters:linearRGB;solid-color:#000000;solid-opacity:1;vector-effect:none;fill:#66142b;fill-opacity:1;fill-rule:nonzero;stroke:none;stroke-width:1.00002;stroke-linecap:round;stroke-linejoin:round;stroke-miterlimit:4;stroke-dasharray:none;stroke-dashoffset:2.1875;stroke-opacity:1;color-rendering:auto;image-rendering:auto;shape-rendering:auto;text-rendering:auto;enable-background:accumulate;stop-color:#000000"
       d="m 7.6739514,3.2086022 c -0.2175801,0 -0.396875,0.1793028 -0.396875,0.3968935 V 9.294823 c 0,0.217588 0.1792949,0.396891 0.396875,0.396891 H 9.261451 c 0.217581,0 0.396875,-0.179303 0.396875,-0.396891 V 3.6054957 c 0,-0.2175907 -0.179294,-0.3968935 -0.396875,-0.3968935 z m 0,0.264078 H 9.261451 c 0.07558,0 0.132808,0.057232 0.132808,0.1328155 V 9.294823 c 0,0.07558 -0.05723,0.131263 -0.132808,0.131263 H 7.6739514 c -0.075581,0 -0.1328076,-0.05568 -0.1328076,-0.131263 V 3.6054957 c 0,-0.075581 0.057229,-0.1328155 0.1328076,-0.1328155 z m 0.7927155,7.3420158 c -0.8021162,0 -1.4551978,0.653116 -1.4552084,1.455277 1.06e-5,0.802158 0.6530922,1.454759 1.4552084,1.454759 0.8021191,0 1.4551981,-0.652601 1.4552081,-1.454759 -10e-6,-0.802161 -0.653089,-1.455277 -1.4552081,-1.455277 z m 0,0.265628 c 0.6591247,0 1.1916511,0.530482 1.1916591,1.189649 -8e-6,0.659167 -0.5325344,1.191197 -1.1916591,1.191197 -0.6591247,0 -1.1895826,-0.532033 -1.1895905,-1.191197 7.9e-6,-0.659167 0.5304658,-1.189646 1.1895905,-1.189649 z" />
    <path
       id="rect1293-6-4-8-3-1"
       style="fill:#fbfcfd;fill-opacity:1;stroke:none;stroke-width:0.264586;stroke-linecap:round;stroke-linejoin:round;stroke-miterlimit:4;stroke-dasharray:none;stroke-dashoffset:2.1875;stroke-opacity:1"
       d="m 7.6729169,3.3408806 c -0.1465792,0 -0.2645834,0.1180042 -0.2645834,0.2645833 V 9.294006 c 0,0.146582 0.1180042,0.264583 0.2645834,0.264583 H 9.260417 C 9.406996,9.558589 9.525,9.440588 9.525,9.294006 V 3.6054639 C 9.525,3.4588848 9.406996,3.3408806 9.260417,3.3408806 Z m 0.79375,7.6057394 A 1.3229166,1.322932 0 0 0 7.1437502,12.269534 1.3229166,1.322932 0 0 0 8.4666669,13.592453 1.3229166,1.322932 0 0 0 9.789584,12.269534 1.3229166,1.322932 0 0 0 8.4666669,10.94662 Z" />
  </g>
</svg>
