<?xml version="1.0" encoding="UTF-8" standalone="no"?>
<svg
   xmlns:dc="http://purl.org/dc/elements/1.1/"
   xmlns:cc="http://creativecommons.org/ns#"
   xmlns:rdf="http://www.w3.org/1999/02/22-rdf-syntax-ns#"
   xmlns:svg="http://www.w3.org/2000/svg"
   xmlns="http://www.w3.org/2000/svg"
   xmlns:xlink="http://www.w3.org/1999/xlink"
   xmlns:sodipodi="http://sodipodi.sourceforge.net/DTD/sodipodi-0.dtd"
   xmlns:inkscape="http://www.inkscape.org/namespaces/inkscape"
   width="64"
   height="64"
   viewBox="0 0 64 64"
   version="1.1"
   id="svg6374"
   inkscape:version="1.0.2 (e86c870879, 2021-01-15)"
   sodipodi:docname="software-update-available.svg">
  <defs
     id="defs6368">
    <linearGradient
       inkscape:collect="always"
       xlink:href="#linearGradient2607"
       id="linearGradient2280"
       gradientUnits="userSpaceOnUse"
       gradientTransform="matrix(1.0350877,0,0,1.0350877,-1.1227752,-1.1227942)"
       x1="32.021549"
       y1="3.5000002"
       x2="31.840481"
       y2="60.428127" />
    <linearGradient
       inkscape:collect="always"
       id="linearGradient2607">
      <stop
         style="stop-color:#fcc231;stop-opacity:1"
         offset="0"
         id="stop2603" />
      <stop
         style="stop-color:#f2ae03;stop-opacity:1"
         offset="1"
         id="stop2605" />
    </linearGradient>
    <linearGradient
       inkscape:collect="always"
       xlink:href="#linearGradient2417"
       id="linearGradient2411"
       x1="32.006084"
       y1="115"
       x2="31.907066"
       y2="148.53423"
       gradientUnits="userSpaceOnUse"
       gradientTransform="translate(2.0808829e-5,-99.999999)" />
    <linearGradient
       inkscape:collect="always"
       id="linearGradient2417">
      <stop
         style="stop-color:#785602;stop-opacity:0.44999999"
         offset="0"
         id="stop2413" />
      <stop
         style="stop-color:#785602;stop-opacity:0.1"
         offset="1"
         id="stop2415" />
    </linearGradient>
  </defs>
  <sodipodi:namedview
     id="base"
     pagecolor="#cecece"
     bordercolor="#666666"
     borderopacity="1.0"
     inkscape:pageopacity="0"
     inkscape:pageshadow="2"
     inkscape:zoom="5.5639287"
     inkscape:cx="8.3100654"
     inkscape:cy="29.73153"
     inkscape:document-units="px"
     inkscape:current-layer="layer1"
     inkscape:document-rotation="0"
     showgrid="false"
     units="px"
     inkscape:window-width="1500"
     inkscape:window-height="970"
     inkscape:window-x="68"
     inkscape:window-y="56"
     inkscape:window-maximized="0" />
  <metadata
     id="metadata6371">
    <rdf:RDF>
      <cc:Work
         rdf:about="">
        <dc:format>image/svg+xml</dc:format>
        <dc:type
           rdf:resource="http://purl.org/dc/dcmitype/StillImage" />
        <dc:title></dc:title>
      </cc:Work>
    </rdf:RDF>
  </metadata>
  <g
     inkscape:label="Layer 1"
     inkscape:groupmode="layer"
     id="layer1">
    <path
       id="path967-7-9-3-3-87-3-5-9-2-0-9-2-2"
       style="color:#000000;font-style:normal;font-variant:normal;font-weight:normal;font-stretch:normal;font-size:medium;line-height:normal;font-family:sans-serif;font-variant-ligatures:normal;font-variant-position:normal;font-variant-caps:normal;font-variant-numeric:normal;font-variant-alternates:normal;font-variant-east-asian:normal;font-feature-settings:normal;font-variation-settings:normal;text-indent:0;text-align:start;text-decoration:none;text-decoration-line:none;text-decoration-style:solid;text-decoration-color:#000000;letter-spacing:normal;word-spacing:normal;text-transform:none;writing-mode:lr-tb;direction:ltr;text-orientation:mixed;dominant-baseline:auto;baseline-shift:baseline;text-anchor:start;white-space:normal;shape-padding:0;shape-margin:0;inline-size:0;clip-rule:nonzero;display:inline;overflow:visible;visibility:visible;opacity:0.2;isolation:auto;mix-blend-mode:normal;color-interpolation:sRGB;color-interpolation-filters:linearRGB;solid-color:#000000;solid-opacity:1;vector-effect:none;fill:#0c0c0c;fill-opacity:1;fill-rule:nonzero;stroke:none;stroke-linecap:round;stroke-linejoin:round;stroke-miterlimit:4;stroke-dasharray:none;stroke-dashoffset:2.1875;stroke-opacity:1;color-rendering:auto;image-rendering:auto;shape-rendering:auto;text-rendering:auto;enable-background:accumulate;stop-color:#000000"
       d="m 32.023451,1.7500108 c -0.79559,-6.3e-4 -1.37694,0.35335 -1.84375,0.72461 -0.4668,0.37126 -0.85991,0.81461 -1.25,1.31055 -0.78017,0.99187 -1.53027,2.21238 -2.26757,3.4375 -0.7373,1.22511 -1.45627,2.45251 -2.08399,3.3769502 -0.50263,0.74021 -1.06459,1.24482 -1.16406,1.375 -0.16613,-0.0214 -0.91771,0.0163 -1.79297,-0.15234 -1.09736,-0.21143 -2.47407,-0.57297 -3.86133,-0.91992 -1.38726,-0.34696 -2.78031,-0.68246 -4.0332,-0.83399 -0.62645,-0.0758 -1.21784,-0.1115902 -1.81055,-0.0449 -0.5927,0.0667 -1.25534,0.22693 -1.81836,0.78906 -0.56299,0.56211 -0.72145,1.22382 -0.78906,1.81641 -0.0676,0.59258 -0.0337,1.184 0.041,1.81055 0.14953,1.25308 0.48142,2.64546 0.82617,4.0332 0.34475,1.38774 0.70438,2.76564 0.91406,3.86328 0.16725,0.87549 0.12904,1.62686 0.15039,1.79297 -0.13036,0.0993 -0.63589,0.66042 -1.37695,1.16211 -0.92549,0.62655 -2.1545402,1.34433 -3.3808602,2.08008 -1.22632,0.73574 -2.44831,1.48479 -3.4414,2.26367 -0.49655,0.38944 -0.94055,0.78178 -1.3125,1.24805 -0.37196,0.46626 -0.7279,1.04813 -0.72852,1.84375 -6.1999e-4,0.79559 0.3553,1.37695 0.72656,1.84375 0.37126,0.46679 0.81266,0.85991 1.3086,1.25 0.99187,0.78017 2.21238,1.53027 3.4375,2.26757 1.22511,0.7373 2.4544702,1.45627 3.3789002,2.08399 0.74021,0.50262 1.24336,1.06458 1.37305,1.16406 -0.0214,0.16613 0.0163,0.91771 -0.15234,1.79297 -0.21143,1.09735 -0.57297,2.47407 -0.91993,3.86133 -0.34696,1.38726 -0.6805,2.78031 -0.83203,4.0332 -0.0758,0.62645 -0.11159,1.21784 -0.0449,1.81055 0.0667,0.5927 0.22498,1.25534 0.78711,1.81836 0.56211,0.56299 1.22382,0.72145 1.81641,0.78906 0.59258,0.0676 1.184,0.0337 1.81054,-0.041 1.25309,-0.14953 2.64742,-0.48142 4.03516,-0.82617 1.38774,-0.34474 2.76565,-0.70438 3.86328,-0.91406 0.87549,-0.16724 1.62686,-0.12904 1.79297,-0.15039 0.0993,0.13037 0.66042,0.6359 1.16211,1.37695 0.62655,0.9255 1.34434,2.15454 2.08008,3.38086 0.73574,1.22632 1.48284,2.44832 2.26172,3.44141 0.38944,0.49654 0.78373,0.94054 1.25,1.3125 0.46626,0.37196 1.04618,0.72789 1.84179,0.72851 0.79563,7.1e-4 1.37694,-0.3553 1.84375,-0.72656 0.46682,-0.37125 0.85991,-0.81266 1.25,-1.30859 0.78018,-0.99188 1.53028,-2.21237 2.26758,-3.4375 0.7373,-1.22513 1.45822,-2.45446 2.08594,-3.37891 0.50181,-0.73901 1.06177,-1.24379 1.16211,-1.375 0.16663,0.0219 0.91966,-0.0143 1.79492,0.1543 1.09736,0.21143 2.47407,0.57296 3.86133,0.91992 1.38726,0.34696 2.78032,0.6805 4.03321,0.83203 0.62645,0.0758 1.21589,0.11159 1.80859,0.0449 0.59271,-0.0667 1.25535,-0.22497 1.81836,-0.78711 0.563,-0.56211 0.72341,-1.22577 0.79102,-1.81836 0.0676,-0.59258 0.0338,-1.18205 -0.041,-1.80859 -0.14954,-1.25309 -0.48338,-2.64741 -0.82813,-4.03516 -0.34474,-1.38774 -0.70243,-2.76564 -0.91211,-3.86328 -0.16724,-0.87549 -0.12903,-1.62685 -0.15039,-1.79297 0.13037,-0.0993 0.6359,-0.66041 1.37696,-1.16211 0.92549,-0.62655 2.15453,-1.34433 3.38086,-2.08007 1.22632,-0.73575 2.44831,-1.48479 3.4414,-2.26368 0.49655,-0.38944 0.93859,-0.78178 1.31055,-1.24804 0.37196,-0.46627 0.72789,-1.04618 0.72851,-1.8418 6.4e-4,-0.7956 -0.35334,-1.37695 -0.72461,-1.84375 -0.37126,-0.4668 -0.8146,-0.86187 -1.31054,-1.25195 -0.99188,-0.78018 -2.21239,-1.52833 -3.4375,-2.26563 -1.22512,-0.7373 -2.45252,-1.45821 -3.37696,-2.08594 -0.739,-0.5018 -1.24378,-1.06176 -1.375,-1.1621 0.0214,-0.16664 -0.0163,-0.91966 0.15235,-1.79493 0.21143,-1.09735 0.57296,-2.47406 0.91992,-3.86132 0.34696,-1.38727 0.68246,-2.78031 0.83398,-4.03321 0.0758,-0.62644 0.10964,-1.21784 0.043,-1.81054 -0.0667,-0.59271 -0.22497,-1.2534 -0.7871,-1.81641 -0.56211,-0.56299 -1.22382,-0.72341 -1.81641,-0.79102 -0.59259,-0.0676 -1.18401,-0.0337 -1.81055,0.041 -1.25308,0.14954 -2.64547,0.48338 -4.03321,0.82813 -1.38774,0.34475 -2.76564,0.70243 -3.86328,0.91211 -0.87548,0.16724 -1.62685,0.12904 -1.79297,0.15039 -0.0993,-0.13037 -0.66047,-0.6359 -1.16216,-1.37695 -0.62656,-0.9255002 -1.34434,-2.1545402 -2.08008,-3.3808602 -0.73574,-1.22633 -1.48479,-2.44832 -2.26367,-3.44141 -0.38944,-0.49655 -0.78178,-0.93859 -1.24805,-1.31055 -0.46626,-0.37195 -1.04813,-0.72789 -1.84375,-0.72851 z m -0.002,3.09961 c 0.17585,0.14459 0.43843,0.41617 0.73243,0.79102 0.60833,0.77564 1.33046,1.92895 2.05273,3.13281 0.72227,1.20386 1.45054,2.4598002 2.16797,3.5195302 0.71743,1.05973 1.22787,1.97724 2.48242,2.49805 1.25451,0.52078 2.26264,0.23424 3.51953,-0.006 1.25689,-0.2401 2.66112,-0.61079 4.02344,-0.94922 1.36232,-0.33843 2.68737,-0.64298 3.66602,-0.75977 0.47217,-0.0563 0.84951,-0.0594 1.07617,-0.0371 0.022,0.22671 0.018,0.60406 -0.0391,1.07618 -0.11835,0.97851 -0.42502,2.30416 -0.76563,3.66601 -0.3406,1.36185 -0.71297,2.76493 -0.95507,4.02149 -0.24211,1.25656 -0.52861,2.26416 -0.01,3.51953 0.51886,1.25544 1.43358,1.7675 2.49218,2.48633 1.05861,0.71882 2.31295,1.45003 3.51563,2.17383 1.20267,0.72378 2.35626,1.44541 3.13086,2.05468 0.37386,0.29407 0.64268,0.55644 0.78711,0.73242 -0.1446,0.17585 -0.41422,0.44039 -0.78907,0.73438 -0.77564,0.60834 -1.92895,1.32851 -3.13281,2.05078 -1.20386,0.72227 -2.4598,1.45054 -3.51953,2.16797 -1.05973,0.71743 -1.97724,1.22788 -2.49805,2.48242 -0.52078,1.25451 -0.23424,2.26459 0.006,3.52149 0.24011,1.25689 0.61079,2.65916 0.94922,4.02148 0.33843,1.36232 0.64298,2.68932 0.75977,3.66797 0.0563,0.47214 0.0594,0.84755 0.0371,1.07422 -0.22671,0.022 -0.60406,0.018 -1.07617,-0.0391 -0.97852,-0.11834 -2.30417,-0.42502 -3.66602,-0.76562 -1.36185,-0.3406 -2.76493,-0.71298 -4.02149,-0.95508 -1.25655,-0.2421 -2.26415,-0.5286 -3.51953,-0.01 -1.25546,0.51887 -1.7675,1.43552 -2.48632,2.49414 -0.71883,1.05862 -1.45004,2.31294 -2.17383,3.51562 -0.7238,1.20269 -1.44542,2.35432 -2.05469,3.12891 -0.29369,0.37337 -0.55644,0.64253 -0.73242,0.78711 -0.17587,-0.14477 -0.44076,-0.4147 -0.73438,-0.78906 -0.60834,-0.77565 -1.32851,-1.92896 -2.05078,-3.13282 -0.72227,-1.20386 -1.45054,-2.4598 -2.16797,-3.51953 -0.71743,-1.05973 -1.22787,-1.97529 -2.48242,-2.49609 -1.25451,-0.52079 -2.26459,-0.2362 -3.52148,0.004 -1.25689,0.24011 -2.65917,0.61079 -4.02149,0.94922 -1.36232,0.33843 -2.68932,0.64298 -3.66797,0.75977 -0.473,0.0564 -0.84969,0.0596 -1.07617,0.0371 -0.022,-0.22671 -0.0161,-0.60406 0.041,-1.07617 0.11835,-0.97852 0.42307,-2.30222 0.76367,-3.66407 0.34061,-1.36185 0.71298,-2.76492 0.95508,-4.02148 0.2421,-1.25656 0.53056,-2.26611 0.0117,-3.52149 -0.51886,-1.25543 -1.43554,-1.7675 -2.49414,-2.48632 -1.0586,-0.71883 -2.31295,-1.44808 -3.5156202,-2.17188 -1.20268,-0.72379 -2.35431,-1.44541 -3.12891,-2.05469 -0.3734,-0.2937 -0.64252,-0.55837 -0.78711,-0.73437 0.14476,-0.17586 0.4147,-0.44076 0.78906,-0.73438 0.77565,-0.60834 1.92895,-1.32851 3.13282,-2.05078 1.2038602,-0.72227 2.4598002,-1.45054 3.5195302,-2.16797 1.05973,-0.71742 1.97528,-1.22787 2.49609,-2.48242 0.52079,-1.25451 0.2362,-2.26264 -0.004,-3.51953 -0.2401,-1.25689 -0.61079,-2.66112 -0.94922,-4.02344 -0.33843,-1.36232 -0.64298,-2.68737 -0.75976,-3.66601 -0.0563,-0.47218 -0.0594,-0.84952 -0.0371,-1.07618 0.22671,-0.0219 0.60213,-0.018 1.07421,0.0391 0.97852,0.11835 2.30417,0.42502 3.66602,0.76563 1.36185,0.3406 2.76493,0.71298 4.02148,0.95508 1.25656,0.2421 2.26611,0.5286 3.52149,0.01 1.25544,-0.51887 1.76555,-1.43359 2.48437,-2.49219 0.71883,-1.0586 1.45004,-2.3129502 2.17383,-3.5156302 0.7238,-1.20267 1.44541,-2.35625 2.05469,-3.13086 0.29444,-0.37434 0.55841,-0.6448 0.73437,-0.78906 z" />
    <path
       id="path967-7-9-3-3-87-3-5-9-2-9-2"
       style="color:#000000;font-style:normal;font-variant:normal;font-weight:normal;font-stretch:normal;font-size:medium;line-height:normal;font-family:sans-serif;font-variant-ligatures:normal;font-variant-position:normal;font-variant-caps:normal;font-variant-numeric:normal;font-variant-alternates:normal;font-variant-east-asian:normal;font-feature-settings:normal;font-variation-settings:normal;text-indent:0;text-align:start;text-decoration:none;text-decoration-line:none;text-decoration-style:solid;text-decoration-color:#000000;letter-spacing:normal;word-spacing:normal;text-transform:none;writing-mode:lr-tb;direction:ltr;text-orientation:mixed;dominant-baseline:auto;baseline-shift:baseline;text-anchor:start;white-space:normal;shape-padding:0;shape-margin:0;inline-size:0;clip-rule:nonzero;display:inline;overflow:visible;visibility:visible;isolation:auto;mix-blend-mode:normal;color-interpolation:sRGB;color-interpolation-filters:linearRGB;solid-color:#000000;solid-opacity:1;vector-effect:none;fill:#785602;fill-opacity:1;fill-rule:nonzero;stroke:none;stroke-linecap:round;stroke-linejoin:round;stroke-miterlimit:4;stroke-dasharray:none;stroke-dashoffset:2.1875;stroke-opacity:1;color-rendering:auto;image-rendering:auto;shape-rendering:auto;text-rendering:auto;enable-background:accumulate;stop-color:#000000"
       d="m 32.023461,1.0000008 c -0.7956,-6.2996e-4 -1.37695,0.35335 -1.84375,0.72461 -0.46681,0.37126 -0.85992,0.81461 -1.25,1.31055 -0.78018,0.99187 -1.53028,2.21238 -2.26758,3.4375 -0.7373,1.22511 -1.45626,2.45251 -2.08399,3.37695 -0.50262,0.7402102 -1.06458,1.2448202 -1.16406,1.3750002 -0.16613,-0.0214 -0.91771,0.0163 -1.79297,-0.15234 -1.09735,-0.21143 -2.47407,-0.57297 -3.86133,-0.91993 -1.38726,-0.3469502 -2.78031,-0.6824502 -4.0332,-0.8339802 -0.62645,-0.0758 -1.21784,-0.11159 -1.81055,-0.0449 -0.5927,0.0667 -1.25534,0.22693 -1.81836,0.7890602 -0.56299,0.56211 -0.72145,1.22382 -0.78906,1.81641 -0.0676,0.59258 -0.0337,1.184 0.041,1.81054 0.14954,1.25309 0.48143,2.64547 0.82617,4.03321 0.34475,1.38774 0.70439,2.76564 0.91407,3.86328 0.16724,0.87549 0.12903,1.62686 0.15039,1.79297 -0.13037,0.0993 -0.6359,0.66042 -1.37696,1.16211 -0.92549,0.62655 -2.1545302,1.34433 -3.3808602,2.08008 -1.22632,0.73574 -2.44831,1.48479 -3.4414,2.26367 -0.49655,0.38944 -0.94054,0.78178 -1.3125,1.24805 -0.37196,0.46626 -0.72789,1.04813 -0.72852,1.84375 -6.1999e-4,0.79559 0.3553,1.37695 0.72656,1.84375 0.37127,0.46679 0.81266,0.85991 1.3086,1.25 0.99187,0.78017 2.21239,1.53027 3.4375,2.26757 1.22511,0.7373 2.4544702,1.45627 3.3789002,2.08399 0.74021,0.50262 1.24337,1.06458 1.37305,1.16406 -0.0214,0.16613 0.0163,0.91771 -0.15234,1.79297 -0.21143,1.09735 -0.57296,2.47407 -0.91992,3.86133 -0.34696,1.38726 -0.68051,2.78031 -0.83204,4.0332 -0.0758,0.62645 -0.11159,1.21784 -0.0449,1.81055 0.0667,0.5927 0.22498,1.25534 0.78711,1.81836 0.56211,0.56299 1.22382,0.72145 1.81641,0.78906 0.59259,0.0676 1.184,0.0337 1.81055,-0.041 1.25308,-0.14953 2.64741,-0.48142 4.03515,-0.82617 1.38774,-0.34474 2.76565,-0.70438 3.86328,-0.91406 0.87549,-0.16724 1.62686,-0.12904 1.79297,-0.15039 0.0993,0.13037 0.66042,0.6359 1.16211,1.37695 0.62656,0.9255 1.34434,2.15454 2.08008,3.38086 0.73574,1.22632 1.48284,2.44832 2.26172,3.44141 0.38944,0.49654 0.78373,0.94054 1.25,1.3125 0.46626,0.37196 1.04618,0.72789 1.8418,0.72851 0.79562,7.1e-4 1.37693,-0.3553 1.84375,-0.72656 0.46682,-0.37125 0.85991,-0.81266 1.25,-1.30859 0.78018,-0.99188 1.53027,-2.21237 2.26757,-3.4375 0.73731,-1.22513 1.45822,-2.45446 2.08594,-3.37891 0.50181,-0.73901 1.06177,-1.24379 1.16211,-1.375 0.16664,0.0219 0.91966,-0.0143 1.79492,0.1543 1.09736,0.21143 2.47407,0.57296 3.86133,0.91992 1.38726,0.34696 2.78032,0.6805 4.03321,0.83203 0.62645,0.0758 1.21589,0.11159 1.80859,0.0449 0.59271,-0.0667 1.25535,-0.22497 1.81836,-0.78711 0.563,-0.56211 0.72341,-1.22577 0.79102,-1.81836 0.0676,-0.59258 0.0338,-1.18205 -0.041,-1.80859 -0.14954,-1.25309 -0.48338,-2.64741 -0.82813,-4.03516 -0.34474,-1.38774 -0.70243,-2.76564 -0.91211,-3.86328 -0.16724,-0.87549 -0.12903,-1.62685 -0.15039,-1.79297 0.13037,-0.0993 0.6359,-0.66041 1.37696,-1.16211 0.92549,-0.62655 2.15453,-1.34433 3.38086,-2.08007 1.22632,-0.73575 2.44831,-1.48479 3.4414,-2.26368 0.49655,-0.38944 0.93859,-0.78178 1.31055,-1.24804 0.37196,-0.46627 0.72789,-1.04618 0.72851,-1.8418 6.4e-4,-0.7956 -0.35334,-1.37695 -0.72461,-1.84375 -0.37126,-0.4668 -0.8146,-0.86187 -1.31054,-1.25195 -0.99188,-0.78018 -2.21239,-1.52833 -3.4375,-2.26563 -1.22512,-0.7373 -2.45252,-1.45821 -3.37696,-2.08594 -0.739,-0.5018 -1.24378,-1.06176 -1.375,-1.1621 0.0214,-0.16664 -0.0163,-0.91966 0.15235,-1.79493 0.21143,-1.09735 0.57296,-2.47406 0.91992,-3.86133 0.34696,-1.38726 0.68246,-2.78031 0.83398,-4.0332 0.0758,-0.62645 0.10964,-1.21784 0.043,-1.81055 -0.0667,-0.5927 -0.22497,-1.25339 -0.7871,-1.8164 -0.56211,-0.5629902 -1.22382,-0.7234102 -1.81641,-0.7910202 -0.59259,-0.0676 -1.18401,-0.0337 -1.81055,0.041 -1.25308,0.14954 -2.64546,0.48338 -4.03321,0.8281302 -1.38774,0.34474 -2.76564,0.70243 -3.86328,0.91211 -0.87548,0.16724 -1.62685,0.12904 -1.79297,0.15039 -0.0993,-0.13037 -0.66047,-0.6359 -1.16216,-1.3769602 -0.62655,-0.92549 -1.34434,-2.15453 -2.08008,-3.38085 -0.73574,-1.22633 -1.48479,-2.44832 -2.26367,-3.44141 -0.38944,-0.49655 -0.78178,-0.93859 -1.24805,-1.31055 -0.46626,-0.37196 -1.04813,-0.72789 -1.84375,-0.72851 z m -0.002,3.09961 c 0.17584,0.14459 0.43842,0.41617 0.73242,0.79102 0.60834,0.77564 1.33046,1.92895 2.05273,3.13281 0.72227,1.20386 1.45054,2.4598002 2.16797,3.5195302 0.71743,1.05973 1.22787,1.97724 2.48242,2.49805 1.25451,0.52078 2.26264,0.23424 3.51953,-0.006 1.25689,-0.24011 2.66112,-0.61079 4.02344,-0.94922 1.36232,-0.33843 2.68737,-0.64298 3.66602,-0.75977 0.47217,-0.0564 0.84951,-0.0594 1.07617,-0.0371 0.022,0.22671 0.018,0.60406 -0.0391,1.07617 -0.11835,0.97852 -0.42502,2.30417 -0.76563,3.66602 -0.3406,1.36185 -0.71297,2.76493 -0.95507,4.02149 -0.24211,1.25656 -0.52861,2.26416 -0.01,3.51953 0.51886,1.25544 1.43358,1.7675 2.49218,2.48633 1.05861,0.71882 2.31295,1.45003 3.51563,2.17383 1.20267,0.72378 2.35626,1.44541 3.13086,2.05468 0.37386,0.29407 0.64268,0.55644 0.78711,0.73242 -0.1446,0.17585 -0.41422,0.44039 -0.78907,0.73438 -0.77564,0.60834 -1.92895,1.32851 -3.13281,2.05078 -1.20386,0.72227 -2.4598,1.45054 -3.51953,2.16797 -1.05973,0.71743 -1.97724,1.22788 -2.49805,2.48242 -0.52078,1.25451 -0.23424,2.26459 0.006,3.52149 0.24011,1.25689 0.61079,2.65916 0.94922,4.02148 0.33843,1.36232 0.64298,2.68932 0.75977,3.66797 0.0563,0.47214 0.0594,0.84755 0.0371,1.07422 -0.22671,0.022 -0.60406,0.018 -1.07617,-0.0391 -0.97852,-0.11834 -2.30417,-0.42502 -3.66602,-0.76562 -1.36185,-0.3406 -2.76493,-0.71298 -4.02148,-0.95508 -1.25656,-0.2421 -2.26416,-0.5286 -3.51953,-0.01 -1.25547,0.51887 -1.76751,1.43552 -2.48633,2.49414 -0.71883,1.05862 -1.45004,2.31294 -2.17383,3.51562 -0.72379,1.20269 -1.44542,2.35432 -2.05469,3.12891 -0.29369,0.37337 -0.55644,0.64253 -0.73242,0.78711 -0.17586,-0.14477 -0.44076,-0.4147 -0.73438,-0.78906 -0.60834,-0.77565 -1.32851,-1.92896 -2.05078,-3.13282 -0.72227,-1.20386 -1.45054,-2.4598 -2.16797,-3.51953 -0.71742,-1.05973 -1.22787,-1.97529 -2.48242,-2.49609 -1.25451,-0.52079 -2.26459,-0.2362 -3.52148,0.004 -1.25689,0.24011 -2.65917,0.61079 -4.02149,0.94922 -1.36232,0.33843 -2.68932,0.64298 -3.66796,0.75977 -0.47301,0.0564 -0.8497,0.0596 -1.07618,0.0371 -0.022,-0.22671 -0.0161,-0.60406 0.041,-1.07617 0.11835,-0.97852 0.42307,-2.30222 0.76367,-3.66407 0.34061,-1.36185 0.71298,-2.76492 0.95508,-4.02148 0.2421,-1.25656 0.53056,-2.26611 0.0117,-3.52149 -0.51886,-1.25543 -1.43554,-1.7675 -2.49414,-2.48632 -1.0586,-0.71883 -2.31295,-1.44808 -3.5156202,-2.17188 -1.20267,-0.72379 -2.3543,-1.44541 -3.12891,-2.05469 -0.3734,-0.2937 -0.64251,-0.55837 -0.78711,-0.73437 0.14477,-0.17586 0.4147,-0.44076 0.78907,-0.73438 0.77564,-0.60834 1.92895,-1.32851 3.13281,-2.05078 1.2038602,-0.72227 2.4598002,-1.45054 3.5195302,-2.16797 1.05973,-0.71742 1.97529,-1.22787 2.49609,-2.48242 0.52079,-1.25451 0.2362,-2.26264 -0.004,-3.51953 -0.2401,-1.25689 -0.61079,-2.66112 -0.94922,-4.02344 -0.33843,-1.36232 -0.64298,-2.68737 -0.75976,-3.66602 -0.0563,-0.47217 -0.0594,-0.84951 -0.0371,-1.07617 0.22671,-0.0219 0.60213,-0.018 1.07422,0.0391 0.97851,0.11835 2.30416,0.42502 3.66601,0.76563 1.36185,0.3406 2.76493,0.71297 4.02149,0.95508 1.25655,0.2421 2.26611,0.5286 3.52148,0.01 1.25544,-0.51887 1.76555,-1.43359 2.48438,-2.49219 0.71882,-1.05861 1.45003,-2.3129502 2.17382,-3.5156302 0.7238,-1.20267 1.44542,-2.35626 2.05469,-3.13086 0.29445,-0.37434 0.55842,-0.6448 0.73438,-0.78906 z" />
    <path
       id="path967-7-9-3-3-87-3-5-3-61"
       style="display:inline;fill:url(#linearGradient2280);fill-opacity:1;stroke:none;stroke-width:7.26318;stroke-linecap:round;stroke-linejoin:round;stroke-miterlimit:4;stroke-dasharray:none;stroke-dashoffset:2.1875"
       d="m 32.022341,2.5000108 c -2.26322,-0.002 -5.93018,9.2780302 -8.0218,10.1424802 -2.09162,0.86445 -11.24147,-3.1175602 -12.84306,-1.51849 -1.60159,1.59909 2.36578,10.75466 1.49805,12.84492 -0.86774,2.09026 -10.1537202,5.74556 -10.1555002,8.00878 -0.002,2.26322 9.2780302,5.93019 10.1424902,8.02181 0.86445,2.09162 -3.11758,11.24146 -1.51849,12.84305 1.59908,1.6016 10.75465,-2.36578 12.84491,-1.49804 2.09027,0.86773 5.74558,10.15371 8.00879,10.15549 2.26322,0.002 5.93018,-9.27803 8.0218,-10.14248 2.09162,-0.86446 11.24147,3.11757 12.84306,1.51849 1.60159,-1.59907 -2.36579,-10.75465 -1.49805,-12.84492 0.86774,-2.09026 10.15372,-5.74556 10.15549,-8.00878 0.002,-2.26322 -9.27802,-5.93018 -10.14248,-8.0218 -0.86446,-2.09163 3.11757,-11.24146 1.51849,-12.84306 -1.59908,-1.6015902 -10.75465,2.36578 -12.84491,1.49805 -2.09027,-0.86774 -5.74557,-10.1537202 -8.00879,-10.1555002 z" />
    <path
       id="path1113-1-0-6-8-3-2-5-4-8-3-92-8-3-6-5-69-5-1-7-6"
       style="color:#000000;font-style:normal;font-variant:normal;font-weight:normal;font-stretch:normal;font-size:medium;line-height:normal;font-family:sans-serif;font-variant-ligatures:normal;font-variant-position:normal;font-variant-caps:normal;font-variant-numeric:normal;font-variant-alternates:normal;font-variant-east-asian:normal;font-feature-settings:normal;font-variation-settings:normal;text-indent:0;text-align:start;text-decoration:none;text-decoration-line:none;text-decoration-style:solid;text-decoration-color:#000000;letter-spacing:normal;word-spacing:normal;text-transform:none;writing-mode:lr-tb;direction:ltr;text-orientation:mixed;dominant-baseline:auto;baseline-shift:baseline;text-anchor:start;white-space:normal;shape-padding:0;shape-margin:0;inline-size:0;clip-rule:nonzero;display:inline;overflow:visible;visibility:visible;opacity:0.3;isolation:auto;mix-blend-mode:normal;color-interpolation:sRGB;color-interpolation-filters:linearRGB;solid-color:#000000;solid-opacity:1;vector-effect:none;fill:#5a4102;fill-opacity:1;fill-rule:nonzero;stroke:none;stroke-width:1;stroke-linecap:round;stroke-linejoin:round;stroke-miterlimit:4;stroke-dasharray:none;stroke-dashoffset:0;stroke-opacity:1;color-rendering:auto;image-rendering:auto;shape-rendering:auto;text-rendering:auto;enable-background:accumulate;stop-color:#000000"
       d="m 32.006101,17.000001 c -0.5573,-5e-5 -1.09559,0.24151 -1.44984,0.70117 l -11.20406,14.54297 c -0.23097,0.3001 -0.36103,0.68006 -0.35171,1.06836 0.0244,0.9806 0.88167,1.68725 1.80156,1.6875 h 6.88187 0.32046 v 14.25 c 0,0.95218 0.79815,1.75 1.75075,1.75 h 4.50194 c 0.95261,0 1.75076,-0.79782 1.75076,-1.75 v -14.25 h 0.32045 6.88774 a 1.0005319,1.0001 0 0 0 0.01,0 c 0.66235,-0.006 1.2627,-0.36441 1.56708,-0.90235 0.30438,-0.53794 0.28468,-1.30881 -0.13482,-1.85351 l -11.20409,-14.54297 c -0.35425,-0.45966 -0.89058,-0.70122 -1.44789,-0.70117 z m -0.002,2.09765 10.71166,13.90235 h -6.38752 -1.32089 a 1.0005319,1.0001 0 0 0 -1.00043,1 v 15 h -4.00173 v -15 a 1.0005319,1.0001 0 0 0 -1.00043,-1 h -1.32088 -6.38948 z" />
    <path
       id="path1113-1-0-6-8-3-2-5-4-8-3-92-8-3-6-5-69-5-1"
       style="color:#000000;font-style:normal;font-variant:normal;font-weight:normal;font-stretch:normal;font-size:medium;line-height:normal;font-family:sans-serif;font-variant-ligatures:normal;font-variant-position:normal;font-variant-caps:normal;font-variant-numeric:normal;font-variant-alternates:normal;font-variant-east-asian:normal;font-feature-settings:normal;font-variation-settings:normal;text-indent:0;text-align:start;text-decoration:none;text-decoration-line:none;text-decoration-style:solid;text-decoration-color:#000000;letter-spacing:normal;word-spacing:normal;text-transform:none;writing-mode:lr-tb;direction:ltr;text-orientation:mixed;dominant-baseline:auto;baseline-shift:baseline;text-anchor:start;white-space:normal;shape-padding:0;shape-margin:0;inline-size:0;clip-rule:nonzero;display:inline;overflow:visible;visibility:visible;opacity:0.75;isolation:auto;mix-blend-mode:normal;color-interpolation:sRGB;color-interpolation-filters:linearRGB;solid-color:#000000;solid-opacity:1;vector-effect:none;fill:#5a4102;fill-opacity:0.85098;fill-rule:nonzero;stroke:none;stroke-width:1;stroke-linecap:round;stroke-linejoin:round;stroke-miterlimit:4;stroke-dasharray:none;stroke-dashoffset:0;stroke-opacity:1;color-rendering:auto;image-rendering:auto;shape-rendering:auto;text-rendering:auto;enable-background:accumulate;stop-color:#000000"
       d="m 32.006101,15.000001 c -0.5573,-5e-5 -1.09559,0.24151 -1.44984,0.70117 l -11.20406,14.54297 c -0.23097,0.3001 -0.36103,0.68006 -0.35171,1.06836 0.0244,0.9806 0.88167,1.68725 1.80156,1.6875 h 6.88187 0.32046 v 14.25 c 0,0.95218 0.79815,1.75 1.75075,1.75 h 4.50194 c 0.95261,0 1.75076,-0.79782 1.75076,-1.75 v -14.25 h 0.32045 6.88774 a 1.0005319,1.0001 0 0 0 0.01,0 c 0.66235,-0.006 1.2627,-0.36441 1.56708,-0.90235 0.30438,-0.53794 0.28468,-1.30881 -0.13482,-1.85351 l -11.20409,-14.54297 c -0.35425,-0.45966 -0.89058,-0.70122 -1.44789,-0.70117 z m -0.002,2.09765 10.71166,13.90235 h -6.38753 -1.32088 a 1.0005319,1.0001 0 0 0 -1.00043,1 v 15 h -4.00173 v -15 a 1.0005319,1.0001 0 0 0 -1.00043,-1 h -1.32088 -6.38948 z" />
    <path
       id="path1113-1-0-6-8-3-2-5-4-8-3-92-8-3-6-5-69-5"
       style="color:#000000;font-style:normal;font-variant:normal;font-weight:normal;font-stretch:normal;font-size:medium;line-height:normal;font-family:sans-serif;font-variant-ligatures:normal;font-variant-position:normal;font-variant-caps:normal;font-variant-numeric:normal;font-variant-alternates:normal;font-variant-east-asian:normal;font-feature-settings:normal;font-variation-settings:normal;text-indent:0;text-align:start;text-decoration:none;text-decoration-line:none;text-decoration-style:solid;text-decoration-color:#000000;letter-spacing:normal;word-spacing:normal;text-transform:none;writing-mode:lr-tb;direction:ltr;text-orientation:mixed;dominant-baseline:auto;baseline-shift:baseline;text-anchor:start;white-space:normal;shape-padding:0;shape-margin:0;inline-size:0;clip-rule:nonzero;display:inline;overflow:visible;visibility:visible;isolation:auto;mix-blend-mode:normal;color-interpolation:sRGB;color-interpolation-filters:linearRGB;solid-color:#000000;solid-opacity:1;vector-effect:none;fill:#fbfcfd;fill-opacity:1;fill-rule:nonzero;stroke:none;stroke-width:0;stroke-linecap:round;stroke-linejoin:round;stroke-miterlimit:4;stroke-dasharray:none;stroke-dashoffset:0;stroke-opacity:1;color-rendering:auto;image-rendering:auto;shape-rendering:auto;text-rendering:auto;enable-background:accumulate;stop-color:#000000"
       d="m 31.999951,16.000001 a 0.80118333,0.72863185 0 0 0 -0.65624,0.31055 l -11.19897,14.54297 a 0.80118333,0.72863185 0 0 0 -0.14453,0.43359 0.80118333,0.72863185 0 0 0 0.80076,0.71289 h 6.87876 1.32028 v 15.25 c 0,0.4155 0.3345,0.75 0.74999,0.75 h 4.4999 c 0.41549,0 0.74998,-0.3345 0.74998,-0.75 v -15.25 h 1.32029 6.88657 a 0.80118333,0.72863185 0 0 0 0.64842,-1.14648 l -11.19897,-14.54297 a 0.80118333,0.72863185 0 0 0 -0.65624,-0.31055 z" />
    <path
       id="path1113-1-0-6-8-3-2-5-4-8-3-92-8-3-6-5-69-5-1-7"
       style="color:#000000;font-style:normal;font-variant:normal;font-weight:normal;font-stretch:normal;font-size:medium;line-height:normal;font-family:sans-serif;font-variant-ligatures:normal;font-variant-position:normal;font-variant-caps:normal;font-variant-numeric:normal;font-variant-alternates:normal;font-variant-east-asian:normal;font-feature-settings:normal;font-variation-settings:normal;text-indent:0;text-align:start;text-decoration:none;text-decoration-line:none;text-decoration-style:solid;text-decoration-color:#000000;letter-spacing:normal;word-spacing:normal;text-transform:none;writing-mode:lr-tb;direction:ltr;text-orientation:mixed;dominant-baseline:auto;baseline-shift:baseline;text-anchor:start;white-space:normal;shape-padding:0;shape-margin:0;inline-size:0;clip-rule:nonzero;display:inline;overflow:visible;visibility:visible;isolation:auto;mix-blend-mode:normal;color-interpolation:sRGB;color-interpolation-filters:linearRGB;solid-color:#000000;solid-opacity:1;vector-effect:none;fill:url(#linearGradient2411);fill-opacity:1;fill-rule:nonzero;stroke:none;stroke-width:1;stroke-linecap:round;stroke-linejoin:round;stroke-miterlimit:4;stroke-dasharray:none;stroke-dashoffset:0;stroke-opacity:1;color-rendering:auto;image-rendering:auto;shape-rendering:auto;text-rendering:auto;enable-background:accumulate;stop-color:#000000"
       d="m 32.006101,15.000001 c -0.5573,-5e-5 -1.09559,0.24151 -1.44984,0.70117 l -11.20406,14.54297 c -0.23097,0.3001 -0.36103,0.68006 -0.35171,1.06836 0.0244,0.9806 0.88167,1.68725 1.80156,1.6875 h 6.88187 0.32046 v 14.25 c 0,0.95218 0.79815,1.75 1.75075,1.75 h 4.50194 c 0.95261,0 1.75076,-0.79782 1.75076,-1.75 v -14.25 h 0.32045 6.88774 a 1.0005319,1.0001 0 0 0 0.01,0 c 0.66235,-0.006 1.2627,-0.36441 1.56708,-0.90235 0.30438,-0.53794 0.28468,-1.30881 -0.13482,-1.85351 l -11.20409,-14.54297 c -0.35425,-0.45966 -0.89058,-0.70122 -1.44789,-0.70117 z m -0.002,2.09765 10.71166,13.90235 h -6.38752 -1.32089 a 1.0005319,1.0001 0 0 0 -1.00043,1 v 15 h -4.00173 v -15 a 1.0005319,1.0001 0 0 0 -1.00043,-1 h -1.32088 -6.38948 z" />
  </g>
</svg>
