<?xml version="1.0" encoding="UTF-8" standalone="no"?>
<svg
   xmlns:dc="http://purl.org/dc/elements/1.1/"
   xmlns:cc="http://creativecommons.org/ns#"
   xmlns:rdf="http://www.w3.org/1999/02/22-rdf-syntax-ns#"
   xmlns:svg="http://www.w3.org/2000/svg"
   xmlns="http://www.w3.org/2000/svg"
   xmlns:xlink="http://www.w3.org/1999/xlink"
   xmlns:sodipodi="http://sodipodi.sourceforge.net/DTD/sodipodi-0.dtd"
   xmlns:inkscape="http://www.inkscape.org/namespaces/inkscape"
   width="64"
   height="64"
   viewBox="0 0 64 64.000003"
   version="1.1"
   id="svg8"
   inkscape:version="1.0.2 (e86c870879, 2021-01-15)"
   sodipodi:docname="media-optical.svg">
  <defs
     id="defs2">
    <linearGradient
       inkscape:collect="always"
       xlink:href="#linearGradient1280"
       id="linearGradient2365"
       gradientUnits="userSpaceOnUse"
       gradientTransform="matrix(0.76604422,0.64279262,-0.64278742,0.76605042,79.476858,-74.37287)"
       x1="6.131248"
       y1="101.275"
       x2="15.900798"
       y2="115.72787" />
    <linearGradient
       inkscape:collect="always"
       id="linearGradient1280">
      <stop
         style="stop-color:#66666f;stop-opacity:0.25"
         offset="0"
         id="stop1276" />
      <stop
         style="stop-color:#66666f;stop-opacity:0.05"
         offset="1"
         id="stop1278" />
    </linearGradient>
    <linearGradient
       inkscape:collect="always"
       xlink:href="#linearGradient1288"
       id="linearGradient2367"
       gradientUnits="userSpaceOnUse"
       gradientTransform="matrix(0.76604422,0.64279262,-0.64278742,0.76605042,79.477158,-74.37433)"
       x1="51.406845"
       y1="105.72131"
       x2="60.902527"
       y2="120.013" />
    <linearGradient
       inkscape:collect="always"
       id="linearGradient1288">
      <stop
         style="stop-color:#f6f6f6;stop-opacity:0.2"
         offset="0"
         id="stop1284" />
      <stop
         style="stop-color:#66666f;stop-opacity:0.15000001"
         offset="1"
         id="stop1286" />
    </linearGradient>
  </defs>
  <sodipodi:namedview
     id="base"
     pagecolor="#c3c3c3"
     bordercolor="#666666"
     borderopacity="1.0"
     inkscape:pageopacity="0"
     inkscape:pageshadow="2"
     inkscape:zoom="3.376557"
     inkscape:cx="-74.883685"
     inkscape:cy="66.126694"
     inkscape:document-units="px"
     inkscape:current-layer="layer1"
     inkscape:document-rotation="0"
     showgrid="false"
     units="px"
     inkscape:window-width="2048"
     inkscape:window-height="1080"
     inkscape:window-x="0"
     inkscape:window-y="0"
     inkscape:window-maximized="1" />
  <metadata
     id="metadata5">
    <rdf:RDF>
      <cc:Work
         rdf:about="">
        <dc:format>image/svg+xml</dc:format>
        <dc:type
           rdf:resource="http://purl.org/dc/dcmitype/StillImage" />
        <dc:title />
      </cc:Work>
    </rdf:RDF>
  </metadata>
  <g
     inkscape:label="Layer 1"
     inkscape:groupmode="layer"
     id="layer1">
    <path
       id="path934-7-6"
       style="opacity:0.2;fill:#0c0c0c;fill-opacity:1;stroke-width:0.463386;stroke-linecap:round;stroke-linejoin:round;stroke-dashoffset:2.1875"
       d="m 49.998558,12.55082 a 27.999992,28.000217 0 0 0 -39.4473,3.45121 27.999992,28.000217 0 0 0 3.4512,39.44762 27.999992,28.000217 0 0 0 39.4473,-3.45123 27.999992,28.000217 0 0 0 -3.4512,-39.4476 z m -11.5851,13.77635 a 9.9999971,10.000078 0 0 1 0.016,0.0106 9.9999971,10.000078 0 0 1 1.2325,14.08842 9.9999971,10.000078 0 0 1 -14.0883,1.23259 9.9999971,10.000078 0 0 1 -1.2325,-14.08844 9.9999971,10.000078 0 0 1 14.0733,-1.24513 z" />
    <circle
       style="opacity:0.25;fill:#f6f6f6;fill-opacity:1;stroke-width:0.667996;stroke-linecap:round;stroke-linejoin:round;stroke-dashoffset:2.1875"
       id="path849-1"
       cx="32.000454"
       cy="31.999998"
       r="10" />
    <path
       id="path934-7"
       style="fill:#e3e3e9;fill-opacity:1;stroke-width:0.463386;stroke-linecap:round;stroke-linejoin:round;stroke-dashoffset:2.1875"
       d="m 49.998058,10.55082 a 27.999992,28.000217 0 0 0 -39.4473,3.45121 27.999992,28.000217 0 0 0 3.4512,39.44762 27.999992,28.000217 0 0 0 39.4473,-3.45123 27.999992,28.000217 0 0 0 -3.4512,-39.4476 z m -11.5851,13.77635 a 9.9999971,10.000078 0 0 1 0.016,0.0106 9.9999971,10.000078 0 0 1 1.2325,14.08842 9.9999971,10.000078 0 0 1 -14.0883,1.23259 9.9999971,10.000078 0 0 1 -1.2325,-14.08844 9.9999971,10.000078 0 0 1 14.0733,-1.24513 z" />
    <path
       style="fill:url(#linearGradient2365);fill-opacity:1;stroke-width:0.463386;stroke-linecap:round;stroke-linejoin:round;stroke-dashoffset:2.1875"
       d="M 19.075358,7.1499997 A 27.999992,28.000217 0 0 0 5.300458,23.56673 l 17.1678,5.41302 a 9.9999971,10.000078 0 0 1 4.9013,-5.85444 9.9999971,10.000078 0 0 1 0.017,-0.009 z"
       id="path934-20-9" />
    <path
       style="fill:url(#linearGradient2367);fill-opacity:1;stroke-width:0.463386;stroke-linecap:round;stroke-linejoin:round;stroke-dashoffset:2.1875"
       d="m 44.931658,56.81975 a 27.999992,28.000217 0 0 0 13.7748,-16.41676 L 41.538858,34.99 a 9.9999971,10.000078 0 0 1 -4.9014,5.85442 9.9999971,10.000078 0 0 1 -0.017,0.009 z"
       id="path934-20-2-3" />
    <path
       id="path1292-6"
       style="color:#000000;font-style:normal;font-variant:normal;font-weight:normal;font-stretch:normal;font-size:medium;line-height:normal;font-family:sans-serif;font-variant-ligatures:normal;font-variant-position:normal;font-variant-caps:normal;font-variant-numeric:normal;font-variant-alternates:normal;font-variant-east-asian:normal;font-feature-settings:normal;font-variation-settings:normal;text-indent:0;text-align:start;text-decoration:none;text-decoration-line:none;text-decoration-style:solid;text-decoration-color:#000000;letter-spacing:normal;word-spacing:normal;text-transform:none;writing-mode:lr-tb;direction:ltr;text-orientation:mixed;dominant-baseline:auto;baseline-shift:baseline;text-anchor:start;white-space:normal;shape-padding:0;shape-margin:0;inline-size:0;clip-rule:nonzero;display:inline;overflow:visible;visibility:visible;opacity:0.8;isolation:auto;mix-blend-mode:normal;color-interpolation:sRGB;color-interpolation-filters:linearRGB;solid-color:#000000;solid-opacity:1;vector-effect:none;fill:#4a4a5e;fill-opacity:1;fill-rule:nonzero;stroke:none;stroke-width:1.00008;stroke-linecap:round;stroke-linejoin:round;stroke-miterlimit:4;stroke-dasharray:none;stroke-dashoffset:2.1875;stroke-opacity:1;color-rendering:auto;image-rendering:auto;shape-rendering:auto;text-rendering:auto;enable-background:accumulate;stop-color:#000000"
       d="m 50.000058,10.54891 c -11.8425,-9.93709028 -29.5135,-8.3910803 -39.4506,3.45148 -9.93719999,11.84258 -8.3912,29.5136 3.4515,39.4507 11.8426,9.9371 29.5136,8.39106 39.4506,-3.4515 9.9371,-11.84258 8.3911,-29.51358 -3.4515,-39.45068 z m -0.6428,0.76611 c 11.4285,9.58969 12.9179,26.61319 3.3282,38.04174 -9.5897,11.42853 -26.6132,12.91792 -38.0417,3.32821 -11.4286,-9.58968 -12.9179,-26.61319 -3.3282,-38.04172 9.5896,-11.4285403 26.6132,-12.9179003 38.0417,-3.32822 z" />
    <path
       id="path1120-2"
       style="color:#000000;font-style:normal;font-variant:normal;font-weight:normal;font-stretch:normal;font-size:medium;line-height:normal;font-family:sans-serif;font-variant-ligatures:normal;font-variant-position:normal;font-variant-caps:normal;font-variant-numeric:normal;font-variant-alternates:normal;font-variant-east-asian:normal;font-feature-settings:normal;font-variation-settings:normal;text-indent:0;text-align:start;text-decoration:none;text-decoration-line:none;text-decoration-style:solid;text-decoration-color:#000000;letter-spacing:normal;word-spacing:normal;text-transform:none;writing-mode:lr-tb;direction:ltr;text-orientation:mixed;dominant-baseline:auto;baseline-shift:baseline;text-anchor:start;white-space:normal;shape-padding:0;shape-margin:0;inline-size:0;clip-rule:nonzero;display:inline;overflow:visible;visibility:visible;opacity:0.75;isolation:auto;mix-blend-mode:normal;color-interpolation:sRGB;color-interpolation-filters:linearRGB;solid-color:#000000;solid-opacity:1;vector-effect:none;fill:#4a4a5e;fill-opacity:1;fill-rule:nonzero;stroke:none;stroke-width:1;stroke-linecap:round;stroke-linejoin:round;stroke-miterlimit:4;stroke-dasharray:none;stroke-dashoffset:2.1875;stroke-opacity:1;color-rendering:auto;image-rendering:auto;shape-rendering:auto;text-rendering:auto;enable-background:accumulate;stop-color:#000000"
       d="m 32.000558,21.49515 c -5.7931,0 -10.5,4.70697 -10.5,10.50008 0,5.79312 4.7069,10.50008 10.5,10.50008 5.793,0 10.5,-4.70696 10.5,-10.50008 0,-5.79311 -4.707,-10.50008 -10.5,-10.50008 z m 0,1.00001 c 5.2526,0 9.5,4.2474 9.5,9.50007 0,5.25267 -4.2474,9.50008 -9.5,9.50008 -5.2527,0 -9.5,-4.24741 -9.5,-9.50008 0,-5.25267 4.2473,-9.50007 9.5,-9.50007 z" />
    <circle
       style="opacity:0.75;fill:#4a4a5e;fill-opacity:1;stroke:none;stroke-width:3.02207;stroke-linecap:round;stroke-linejoin:round"
       id="path2399"
       cx="32.000454"
       cy="31.999998"
       r="4" />
    <circle
       style="fill:#aeaeb5;fill-opacity:1;stroke:none;stroke-width:2.26656;stroke-linecap:round;stroke-linejoin:round"
       id="path2399-3"
       cx="31.999998"
       cy="31.999998"
       r="3" />
    <path
       id="path903-6-5"
       style="color:#000000;font-style:normal;font-variant:normal;font-weight:normal;font-stretch:normal;font-size:medium;line-height:normal;font-family:sans-serif;font-variant-ligatures:normal;font-variant-position:normal;font-variant-caps:normal;font-variant-numeric:normal;font-variant-alternates:normal;font-variant-east-asian:normal;font-feature-settings:normal;font-variation-settings:normal;text-indent:0;text-align:start;text-decoration:none;text-decoration-line:none;text-decoration-style:solid;text-decoration-color:#000000;letter-spacing:normal;word-spacing:normal;text-transform:none;writing-mode:lr-tb;direction:ltr;text-orientation:mixed;dominant-baseline:auto;baseline-shift:baseline;text-anchor:start;white-space:normal;shape-padding:0;shape-margin:0;inline-size:0;clip-rule:nonzero;display:inline;overflow:visible;visibility:visible;opacity:0.95;isolation:auto;mix-blend-mode:normal;color-interpolation:sRGB;color-interpolation-filters:linearRGB;solid-color:#000000;solid-opacity:1;vector-effect:none;fill:#f6f6f6;fill-opacity:1;fill-rule:nonzero;stroke:none;stroke-linecap:round;stroke-linejoin:round;stroke-miterlimit:4;stroke-dasharray:none;stroke-dashoffset:0;stroke-opacity:1;paint-order:markers stroke fill;color-rendering:auto;image-rendering:auto;shape-rendering:auto;text-rendering:auto;enable-background:accumulate;stop-color:#000000"
       d="m 37.963248,8.7831997 a 1,1 0 0 0 -0.97461,0.74024 1,1 0 0 0 0.70703,1.2246103 c 6.28209,1.68328 11.49558,6.05878 14.24414,11.95312 a 1,1 0 0 0 1.32813,0.48438 1,1 0 0 0 0.48437,-1.33008 C 50.754438,15.4265 45.065118,10.65236 38.213248,8.8164097 a 1,1 0 0 0 -0.25,-0.0332 z M 11.113638,40.7207 a 1,1 0 0 0 -0.38086,0.0918 1,1 0 0 0 -0.48242,1.33008 c 2.99788,6.42897 8.6872,11.20311 15.53906,13.03906 a 1,1 0 0 0 1.22461,-0.70703 1,1 0 0 0 -0.70703,-1.22461 c -6.28208,-1.68328 -11.49556,-6.05878 -14.24414,-11.95312 a 1,1 0 0 0 -0.94922,-0.57618 z" />
  </g>
</svg>
