<?xml version="1.0" encoding="UTF-8" standalone="no"?>
<svg
   xmlns:dc="http://purl.org/dc/elements/1.1/"
   xmlns:cc="http://creativecommons.org/ns#"
   xmlns:rdf="http://www.w3.org/1999/02/22-rdf-syntax-ns#"
   xmlns:svg="http://www.w3.org/2000/svg"
   xmlns="http://www.w3.org/2000/svg"
   xmlns:sodipodi="http://sodipodi.sourceforge.net/DTD/sodipodi-0.dtd"
   xmlns:inkscape="http://www.inkscape.org/namespaces/inkscape"
   width="64"
   height="64"
   viewBox="0 0 64 64"
   version="1.1"
   id="svg6374"
   inkscape:version="1.0.2 (e86c870879, 2021-01-15)"
   sodipodi:docname="folder-drag-accept.svg">
  <defs
     id="defs6368" />
  <sodipodi:namedview
     id="base"
     pagecolor="#cecece"
     bordercolor="#666666"
     borderopacity="1.0"
     inkscape:pageopacity="0"
     inkscape:pageshadow="2"
     inkscape:zoom="6.1144565"
     inkscape:cx="37.974162"
     inkscape:cy="36.060554"
     inkscape:document-units="px"
     inkscape:current-layer="layer1"
     inkscape:document-rotation="0"
     showgrid="false"
     units="px"
     inkscape:window-width="2048"
     inkscape:window-height="1080"
     inkscape:window-x="0"
     inkscape:window-y="0"
     inkscape:window-maximized="1" />
  <metadata
     id="metadata6371">
    <rdf:RDF>
      <cc:Work
         rdf:about="">
        <dc:format>image/svg+xml</dc:format>
        <dc:type
           rdf:resource="http://purl.org/dc/dcmitype/StillImage" />
        <dc:title></dc:title>
      </cc:Work>
    </rdf:RDF>
  </metadata>
  <g
     inkscape:label="Layer 1"
     inkscape:groupmode="layer"
     id="layer1">
    <path
       id="rect1006-9-4-25-42-9"
       style="color:#000000;font-style:normal;font-variant:normal;font-weight:normal;font-stretch:normal;font-size:medium;line-height:normal;font-family:sans-serif;font-variant-ligatures:normal;font-variant-position:normal;font-variant-caps:normal;font-variant-numeric:normal;font-variant-alternates:normal;font-variant-east-asian:normal;font-feature-settings:normal;font-variation-settings:normal;text-indent:0;text-align:start;text-decoration:none;text-decoration-line:none;text-decoration-style:solid;text-decoration-color:#000000;letter-spacing:normal;word-spacing:normal;text-transform:none;writing-mode:lr-tb;direction:ltr;text-orientation:mixed;dominant-baseline:auto;baseline-shift:baseline;text-anchor:start;white-space:normal;shape-padding:0;shape-margin:0;inline-size:0;clip-rule:nonzero;display:inline;overflow:visible;visibility:visible;isolation:isolate;mix-blend-mode:normal;color-interpolation:sRGB;color-interpolation-filters:linearRGB;solid-color:#000000;solid-opacity:1;vector-effect:none;fill:#444145;fill-opacity:1;fill-rule:nonzero;stroke:none;stroke-linecap:round;stroke-linejoin:round;stroke-miterlimit:4;stroke-dasharray:none;stroke-dashoffset:0;stroke-opacity:1;color-rendering:auto;image-rendering:auto;shape-rendering:auto;text-rendering:auto;enable-background:accumulate;stop-color:#000000"
       d="m 7.01958,0.75003043 c -3.25749,0 -6.01955,2.68845997 -6.01953,5.97069997 v 4.7929696 0.0488 8.11719 13.41797 8.53515 c 0,3.28225 2.76205,5.97071 6.01953,5.97071 h 49.96093 c 3.25748,0 6.01953,-2.68845 6.01954,-5.97071 V 33.09766 19.67969 11.51367 c 0,-3.2822596 -2.76205,-5.9706996 -6.01954,-5.9706996 h -27.0664 l -3.49024,-3.81836 A 3.0003,3.0003 0 0 0 24.20903,0.75000043 h -3.75 -13.29297 a 3.0003,3.0003 0 0 0 -0.002,0 z M 7.00008,6.7422204 c 0.006,0.003 -3.5e-4,0.008 0.0195,0.008 h 0.14648 13.29297 2.42773 L 26.377,10.56663 a 3.0003,3.0003 0 0 0 2.21484,0.97656 h 28.38867 c 0.0199,0 0.0131,-0.005 0.0195,-0.008 v 8.14453 13.41797 8.51367 c -0.006,-0.003 3.4e-4,-0.008 -0.0195,-0.008 H 7.01958 c -0.0199,0 -0.0131,0.005 -0.0195,0.008 v -8.51367 -13.41797 -8.11719 -0.0488 z" />
    <path
       id="rect1006-9-4-25-42-9-2"
       style="display:inline;isolation:isolate;fill:#8a8a8c;fill-opacity:1;stroke:none;stroke-width:0.603774;stroke-miterlimit:4;stroke-dasharray:none;stroke-opacity:1"
       d="m 7.01928,3.7500404 c -1.6726,0 -3.01923,1.32544 -3.01923,2.97172 v 4.7929396 0.0477 8.11804 13.41789 8.53509 c 0,1.64628 1.34663,2.97171 3.01923,2.97171 H 56.9809 c 1.6726,0 3.01924,-1.32543 3.01924,-2.97171 V 33.09833 19.68044 11.51466 c 0,-1.6462796 -1.34664,-2.9717196 -3.01924,-2.9717196 H 28.59139 l -4.38261,-4.79294 H 20.45912 7.16528 Z" />
    <path
       id="rect880-1-74-4-2-3-0-3-2-7-7"
       style="color:#000000;font-style:normal;font-variant:normal;font-weight:normal;font-stretch:normal;font-size:medium;line-height:normal;font-family:sans-serif;font-variant-ligatures:normal;font-variant-position:normal;font-variant-caps:normal;font-variant-numeric:normal;font-variant-alternates:normal;font-variant-east-asian:normal;font-feature-settings:normal;font-variation-settings:normal;text-indent:0;text-align:start;text-decoration:none;text-decoration-line:none;text-decoration-style:solid;text-decoration-color:#000000;letter-spacing:normal;word-spacing:normal;text-transform:none;writing-mode:lr-tb;direction:ltr;text-orientation:mixed;dominant-baseline:auto;baseline-shift:baseline;text-anchor:start;white-space:normal;shape-padding:0;shape-margin:0;inline-size:0;clip-rule:nonzero;display:inline;overflow:visible;visibility:visible;opacity:0.15;isolation:isolate;mix-blend-mode:normal;color-interpolation:sRGB;color-interpolation-filters:linearRGB;solid-color:#000000;solid-opacity:1;vector-effect:none;fill:#444145;fill-opacity:1;fill-rule:nonzero;stroke:none;stroke-linecap:round;stroke-linejoin:round;stroke-miterlimit:4;stroke-dasharray:none;stroke-dashoffset:0;stroke-opacity:1;color-rendering:auto;image-rendering:auto;shape-rendering:auto;text-rendering:auto;enable-background:accumulate;stop-color:#000000"
       d="m 32.48633,30.75002 a 3.0003,3.0003 0 0 0 -2.23437,0.99805 l -3.48828,3.89062 H 7.01954 C 3.73027,35.63869 1,38.38648 1,41.66993 v 6.08009 7.46875 c 0,3.28346 2.73027,6.03125 6.01954,6.03125 H 56.98047 C 60.26973,61.25002 63,58.50221 63,55.21877 v -7.46875 -6.08009 -4.88866 c 0,-3.28345 -2.73027,-6.03125 -6.01953,-6.03125 h -5.01562 -8.42383 z m 24.52539,5.98828 c -0.002,-0.002 -0.0117,0.005 -0.0117,0.043 v 4.88866 6.08008 7.46875 c 0,0.075 0.0364,0.0312 -0.0195,0.0312 H 7.01959 c -0.0559,0 -0.0195,0.0438 -0.0195,-0.0312 v -7.46877 -6.08009 c 0,-0.075 -0.0364,-0.0312 0.0195,-0.0312 h 21.08398 a 3.0003,3.0003 0 0 0 2.23242,-0.99805 l 3.48823,-3.89066 h 9.7168 8.42383 5.01562 c 0.028,0 0.0334,-0.0102 0.0312,-0.0117 z" />
    <path
       id="rect880-1-74-4-2-3-0-3-2-7"
       style="color:#000000;font-style:normal;font-variant:normal;font-weight:normal;font-stretch:normal;font-size:medium;line-height:normal;font-family:sans-serif;font-variant-ligatures:normal;font-variant-position:normal;font-variant-caps:normal;font-variant-numeric:normal;font-variant-alternates:normal;font-variant-east-asian:normal;font-feature-settings:normal;font-variation-settings:normal;text-indent:0;text-align:start;text-decoration:none;text-decoration-line:none;text-decoration-style:solid;text-decoration-color:#000000;letter-spacing:normal;word-spacing:normal;text-transform:none;writing-mode:lr-tb;direction:ltr;text-orientation:mixed;dominant-baseline:auto;baseline-shift:baseline;text-anchor:start;white-space:normal;shape-padding:0;shape-margin:0;inline-size:0;clip-rule:nonzero;display:inline;overflow:visible;visibility:visible;isolation:isolate;mix-blend-mode:normal;color-interpolation:sRGB;color-interpolation-filters:linearRGB;solid-color:#000000;solid-opacity:1;vector-effect:none;fill:#444145;fill-opacity:1;fill-rule:nonzero;stroke:none;stroke-linecap:round;stroke-linejoin:round;stroke-miterlimit:4;stroke-dasharray:none;stroke-dashoffset:0;stroke-opacity:1;color-rendering:auto;image-rendering:auto;shape-rendering:auto;text-rendering:auto;enable-background:accumulate;stop-color:#000000"
       d="m 32.48638,32.75 a 3.0003,3.0003 0 0 0 -2.23437,0.99805 l -3.48828,3.89062 H 7.01959 c -3.28927,0 -6.01954,2.74779 -6.01954,6.03124 V 49.75 57.21875 c 0,3.28346 2.73027,6.03125 6.01954,6.03125 h 49.96093 c 3.28926,0 6.01953,-2.74781 6.01953,-6.03125 V 49.75 43.66991 38.78125 C 63.00005,35.4978 60.26978,32.75 56.98052,32.75 H 51.9649 43.54107 Z m 24.52539,5.98828 c -0.002,-0.002 -0.0117,0.005 -0.0117,0.043 v 4.88866 6.08008 7.46875 c 0,0.075 0.0364,0.0312 -0.0195,0.0312 H 7.01964 c -0.0559,0 -0.0195,0.0438 -0.0195,-0.0312 V 49.75 43.66991 c 0,-0.075 -0.0364,-0.0312 0.0195,-0.0312 h 21.08398 a 3.0003,3.0003 0 0 0 2.23242,-0.99805 L 33.82427,38.75 h 9.7168 8.42383 5.01562 c 0.028,0 0.0334,-0.0102 0.0312,-0.0117 z" />
    <path
       id="rect880-1-74-4-2-3-0-3-2"
       style="isolation:isolate;fill:#bebabf;fill-opacity:1;stroke:none;stroke-width:0.609904;stroke-miterlimit:4;stroke-dasharray:none;stroke-opacity:1"
       d="m 32.48638,35.75 -4.38282,4.88867 H 7.01958 c -1.67259,0 -3.01953,1.35201 -3.01953,3.03125 V 49.75 57.21875 c 0,1.67924 1.34694,3.03125 3.01953,3.03125 h 49.96094 c 1.6726,0 3.01953,-1.35201 3.01953,-3.03125 V 49.75 43.66992 38.78125 c 0,-1.67924 -1.34693,-3.03125 -3.01953,-3.03125 h -5.01563 -8.42383 z" />
  </g>
</svg>
