<?xml version="1.0" encoding="UTF-8" standalone="no"?>
<svg
   xmlns:dc="http://purl.org/dc/elements/1.1/"
   xmlns:cc="http://creativecommons.org/ns#"
   xmlns:rdf="http://www.w3.org/1999/02/22-rdf-syntax-ns#"
   xmlns:svg="http://www.w3.org/2000/svg"
   xmlns="http://www.w3.org/2000/svg"
   xmlns:sodipodi="http://sodipodi.sourceforge.net/DTD/sodipodi-0.dtd"
   xmlns:inkscape="http://www.inkscape.org/namespaces/inkscape"
   width="64"
   height="64"
   viewBox="0 0 64 64"
   version="1.1"
   id="svg6374"
   inkscape:version="1.0.2 (e86c870879, 2021-01-15)"
   sodipodi:docname="audio-volume-muted-blocking-symbolic.svg">
  <defs
     id="defs6368" />
  <sodipodi:namedview
     id="base"
     pagecolor="#cecece"
     bordercolor="#666666"
     borderopacity="1.0"
     inkscape:pageopacity="0"
     inkscape:pageshadow="2"
     inkscape:zoom="8.7303855"
     inkscape:cx="48.427393"
     inkscape:cy="32.539962"
     inkscape:document-units="px"
     inkscape:current-layer="layer1"
     inkscape:document-rotation="0"
     showgrid="false"
     units="px"
     inkscape:window-width="1500"
     inkscape:window-height="970"
     inkscape:window-x="68"
     inkscape:window-y="56"
     inkscape:window-maximized="0" />
  <metadata
     id="metadata6371">
    <rdf:RDF>
      <cc:Work
         rdf:about="">
        <dc:format>image/svg+xml</dc:format>
        <dc:type
           rdf:resource="http://purl.org/dc/dcmitype/StillImage" />
        <dc:title></dc:title>
      </cc:Work>
    </rdf:RDF>
  </metadata>
  <g
     inkscape:label="Layer 1"
     inkscape:groupmode="layer"
     id="layer1">
    <path
       id="rect2877-4-9-6-9-5-9"
       style="opacity:0.5;fill:#808084;fill-opacity:1;stroke:none;stroke-width:5.50001;stroke-linecap:round;stroke-linejoin:round;stroke-miterlimit:4;stroke-dasharray:none;stroke-dashoffset:2.1875;stroke-opacity:1"
       d="m 24.855503,10 v 0.002 0.002 c -0.509291,-0.0257 -1.028787,0.143925 -1.439508,0.51368 L 10.664001,22.000102 h -8.664 C 0.891999,22.000102 0,22.8921 0,24.000103 v 15.999985 c 0,1.107999 0.891999,1.999997 2.000001,1.999997 h 8.660104 l 12.75589,11.486298 c 0.357165,0.3216 0.795023,0.4822 1.238324,0.504 l 0.01134,0.0098 h 2.650393 c 0.554003,0 0.999988,-0.445999 0.999988,-0.999999 V 11.000399 c 0,-0.553999 -0.445985,-0.999999 -0.999988,-0.999999 z" />
    <path
       id="rect1673-7-0-3-3-6"
       style="color:#000000;font-style:normal;font-variant:normal;font-weight:normal;font-stretch:normal;font-size:medium;line-height:normal;font-family:sans-serif;font-variant-ligatures:normal;font-variant-position:normal;font-variant-caps:normal;font-variant-numeric:normal;font-variant-alternates:normal;font-variant-east-asian:normal;font-feature-settings:normal;font-variation-settings:normal;text-indent:0;text-align:start;text-decoration:none;text-decoration-line:none;text-decoration-style:solid;text-decoration-color:#000000;letter-spacing:normal;word-spacing:normal;text-transform:none;writing-mode:lr-tb;direction:ltr;text-orientation:mixed;dominant-baseline:auto;baseline-shift:baseline;text-anchor:start;white-space:normal;shape-padding:0;shape-margin:0;inline-size:0;clip-rule:nonzero;display:inline;overflow:visible;visibility:visible;isolation:auto;mix-blend-mode:normal;color-interpolation:sRGB;color-interpolation-filters:linearRGB;solid-color:#000000;solid-opacity:1;vector-effect:none;fill:#808084;fill-opacity:1;fill-rule:nonzero;stroke:none;stroke-width:1.00111;stroke-linecap:round;stroke-linejoin:round;stroke-miterlimit:4;stroke-dasharray:none;stroke-dashoffset:2.1875;stroke-opacity:1;color-rendering:auto;image-rendering:auto;shape-rendering:auto;text-rendering:auto;enable-background:accumulate;stop-color:#000000;opacity:0.5"
       d="m 41.190807,17.332 c -0.77386,0 -1.54749,0.288205 -2.12353,0.86421 l -3.53923,3.538959 c -1.15207,1.151986 -1.15207,3.096721 0,4.248707 l 6.01668,6.01623 -6.01668,6.016232 c -1.15207,1.151986 -1.15207,3.096721 0,4.248707 l 3.53923,3.538959 c 1.15207,1.152009 3.09499,1.15198 4.24707,0 l 6.018633,-6.018186 6.01667,6.018186 c 1.15207,1.15198 3.09499,1.152009 4.24707,0 l 3.53922,-3.538959 c 1.15208,-1.151987 1.15208,-3.096721 0,-4.248707 l -6.01668,-6.016232 6.01668,-6.01623 c 1.15208,-1.151986 1.15208,-3.096721 0,-4.248707 L 59.59672,18.19621 c -1.15208,-1.152009 -3.095,-1.15198 -4.24707,0 l -6.01667,6.018186 -6.018633,-6.018186 c -0.57605,-0.57599 -1.34967,-0.864211 -2.12354,-0.86421 z m 0,4.403169 6.726473,6.725978 a 2.0025,2.0023519 0 0 0 2.83138,0 l 6.72453,-6.725978 2.12353,2.125331 -6.72453,6.724023 a 2.0025,2.0023519 0 0 0 0,2.831168 l 6.72453,6.724023 -2.12353,2.125331 -6.72453,-6.725978 a 2.0025,2.0023519 0 0 0 -2.83138,0 l -6.726473,6.725978 -2.12353,-2.123376 6.72452,-6.725978 a 2.0025,2.0023519 0 0 0 0,-2.831168 L 39.067277,23.8605 Z" />
    <path
       id="rect1673-7-0-3"
       style="display:inline;opacity:0.375;fill:#bc5b34;fill-opacity:1;stroke-width:0;stroke-dashoffset:2.1875"
       d="m 58.170655,19.625631 c -0.39173,-0.391737 -1.02247,-0.391737 -1.41421,0 l -7.42462,7.424622 -7.42462,-7.424622 c -0.39174,-0.391737 -1.02248,-0.391737 -1.41421,0 l -3.53554,3.535534 c -0.39174,0.391737 -0.39174,1.022477 0,1.414214 L 44.382075,32 l -7.42462,7.424621 c -0.39174,0.391737 -0.39174,1.022477 0,1.414214 l 3.53554,3.535534 c 0.39173,0.391737 1.02247,0.391737 1.41421,0 l 7.42462,-7.424622 7.42462,7.424622 c 0.39174,0.391737 1.02248,0.391737 1.41421,0 l 3.53554,-3.535534 c 0.39174,-0.391737 0.39174,-1.022477 0,-1.414214 L 54.281575,32 l 7.42462,-7.424621 c 0.39174,-0.391737 0.39174,-1.022477 0,-1.414214 z"
       class="warning" />
  </g>
</svg>
