<?xml version="1.0" encoding="UTF-8" standalone="no"?>
<svg
   xmlns:dc="http://purl.org/dc/elements/1.1/"
   xmlns:cc="http://creativecommons.org/ns#"
   xmlns:rdf="http://www.w3.org/1999/02/22-rdf-syntax-ns#"
   xmlns:svg="http://www.w3.org/2000/svg"
   xmlns="http://www.w3.org/2000/svg"
   xmlns:sodipodi="http://sodipodi.sourceforge.net/DTD/sodipodi-0.dtd"
   xmlns:inkscape="http://www.inkscape.org/namespaces/inkscape"
   width="64"
   height="64"
   viewBox="0 0 64 64.000003"
   version="1.1"
   id="svg8"
   inkscape:version="1.0.2 (e86c870879, 2021-01-15)"
   sodipodi:docname="checkbox-mixed-symbolic.svg">
  <defs
     id="defs2" />
  <sodipodi:namedview
     id="base"
     pagecolor="#c3c3c3"
     bordercolor="#666666"
     borderopacity="1.0"
     inkscape:pageopacity="0"
     inkscape:pageshadow="2"
     inkscape:zoom="3.8654026"
     inkscape:cx="-36.823812"
     inkscape:cy="52.827941"
     inkscape:document-units="px"
     inkscape:current-layer="layer1"
     inkscape:document-rotation="0"
     showgrid="false"
     units="px"
     inkscape:window-width="2048"
     inkscape:window-height="1080"
     inkscape:window-x="0"
     inkscape:window-y="0"
     inkscape:window-maximized="1" />
  <metadata
     id="metadata5">
    <rdf:RDF>
      <cc:Work
         rdf:about="">
        <dc:format>image/svg+xml</dc:format>
        <dc:type
           rdf:resource="http://purl.org/dc/dcmitype/StillImage" />
        <dc:title />
      </cc:Work>
    </rdf:RDF>
  </metadata>
  <g
     inkscape:label="Layer 1"
     inkscape:groupmode="layer"
     id="layer1">
    <path
       id="rect2599-4-0-7"
       style="fill:#808084;fill-opacity:1;stroke:none;stroke-width:7;stroke-miterlimit:4;stroke-dasharray:none;stroke-dashoffset:2.1875;stroke-opacity:1"
       d="M 9,2 C 5.122,2 2,5.122 2,9 v 46.00003 c 0,3.878 3.122,7 7,7 h 46 c 3.878,0 7,-3.122 7,-7 V 9 C 62,5.122 58.878,2 55,2 Z m 2,5.5 h 42 c 1.939,0 3.5,1.561 3.5,3.5 v 42.00003 c 0,1.939 -1.561,3.5 -3.5,3.5 H 11 c -1.939,0 -3.5,-1.561 -3.5,-3.5 V 11 C 7.5,9.061 9.061,7.5 11,7.5 Z" />
    <rect
       style="fill:#808084;stroke-width:7;stroke-dashoffset:2.1875;fill-opacity:1"
       id="rect1903-9"
       width="36"
       height="10"
       x="14.000001"
       y="27"
       rx="5"
       ry="5" />
  </g>
</svg>
