<?xml version="1.0" encoding="UTF-8" standalone="no"?>
<svg
   xmlns:dc="http://purl.org/dc/elements/1.1/"
   xmlns:cc="http://creativecommons.org/ns#"
   xmlns:rdf="http://www.w3.org/1999/02/22-rdf-syntax-ns#"
   xmlns:svg="http://www.w3.org/2000/svg"
   xmlns="http://www.w3.org/2000/svg"
   xmlns:sodipodi="http://sodipodi.sourceforge.net/DTD/sodipodi-0.dtd"
   xmlns:inkscape="http://www.inkscape.org/namespaces/inkscape"
   width="64"
   height="64"
   viewBox="0 0 64 64"
   version="1.1"
   id="svg6374"
   inkscape:version="1.0.2 (e86c870879, 2021-01-15)"
   sodipodi:docname="display-brightness-low-symbolic.svg">
  <defs
     id="defs6368" />
  <sodipodi:namedview
     id="base"
     pagecolor="#cecece"
     bordercolor="#666666"
     borderopacity="1.0"
     inkscape:pageopacity="0"
     inkscape:pageshadow="2"
     inkscape:zoom="2.4062168"
     inkscape:cx="46.822687"
     inkscape:cy="59.087536"
     inkscape:document-units="px"
     inkscape:current-layer="layer1"
     inkscape:document-rotation="0"
     showgrid="false"
     units="px"
     inkscape:window-width="1500"
     inkscape:window-height="970"
     inkscape:window-x="68"
     inkscape:window-y="56"
     inkscape:window-maximized="0" />
  <metadata
     id="metadata6371">
    <rdf:RDF>
      <cc:Work
         rdf:about="">
        <dc:format>image/svg+xml</dc:format>
        <dc:type
           rdf:resource="http://purl.org/dc/dcmitype/StillImage" />
        <dc:title></dc:title>
      </cc:Work>
    </rdf:RDF>
  </metadata>
  <g
     inkscape:label="Layer 1"
     inkscape:groupmode="layer"
     id="layer1">
    <path
       id="path1111-3-1-3-3"
       style="opacity:0.375;fill:#808084;fill-opacity:1;stroke:none;stroke-width:0.84665;stroke-linecap:round;stroke-linejoin:round;stop-color:#000000"
       d="m 31.994769,0.18200241 a 0.88508748,0.88508845 0 0 0 -0.82739,0.58135 l -2.6567,7.30067999 a 24.189974,24.189999 0 0 0 -10.96915,4.5431096 l -7.04025,-3.2830296 a 0.88508748,0.88508845 0 0 0 -0.40504,-0.0807 0.88508748,0.88508845 0 0 0 -0.7709199,1.2583596 l 3.2824599,7.03909 a 24.189974,24.189999 0 0 0 -4.5442619,10.9709 l -7.29837995,2.65615 a 0.88508748,0.88508845 0 0 0 0,1.66398 l 7.29778795,2.65615 a 24.189974,24.189999 0 0 0 4.5448539,10.97204 l -3.2824599,7.03967 a 0.88508748,0.88508845 0 0 0 1.1759599,1.17597 l 7.0391,-3.28245 a 24.189974,24.189999 0 0 0 10.97086,4.54426 l 2.65614,7.29895 a 0.88508748,0.88508845 0 0 0 1.66342,0 l 2.65615,-7.29895 a 24.189974,24.189999 0 0 0 10.97319,-4.54484 l 7.03908,3.28303 a 0.88508748,0.88508845 0 0 0 1.17596,-1.17597 l -3.28302,-7.03852 a 24.189974,24.189999 0 0 0 0,-5e-4 24.189974,24.189999 0 0 0 4.54485,-10.97261 l 7.29834,-2.65616 a 0.88508748,0.88508845 0 0 0 0,-1.66398 l -7.29834,-2.65622 a 24.189974,24.189999 0 0 0 -4.54371,-10.97032 l 3.28188,-7.03966 a 0.88508748,0.88508845 0 0 0 -0.86483,-1.2583596 0.88508748,0.88508845 0 0 0 -0.31113,0.0807 l -7.04024,3.2835996 A 24.189974,24.189999 0 0 0 35.487539,8.0640424 l -2.65674,-7.30067999 a 0.88508748,0.88508845 0 0 0 -0.83603,-0.58135 z m 0.006,12.34850959 a 19.469977,19.469999 0 0 1 19.46998,19.47 19.469977,19.469999 0 0 1 -19.46998,19.47 19.469977,19.469999 0 0 1 -19.46998,-19.47 19.469977,19.469999 0 0 1 19.46998,-19.47 z" />
    <path
       id="path1111-2-9-3"
       style="fill:#808084;fill-opacity:1;stroke:none;stroke-width:0.51625;stroke-linecap:round;stroke-linejoin:round;stop-color:#000000"
       d="m 21.570419,42.430062 20.85965,-20.85965 a 14.749991,14.749995 14.678923 0 0 -20.85965,0 14.749991,14.749995 14.678923 0 0 0,20.85965 z" />
  </g>
</svg>
