<?xml version="1.0" encoding="UTF-8" standalone="no"?>
<svg
   xmlns:dc="http://purl.org/dc/elements/1.1/"
   xmlns:cc="http://creativecommons.org/ns#"
   xmlns:rdf="http://www.w3.org/1999/02/22-rdf-syntax-ns#"
   xmlns:svg="http://www.w3.org/2000/svg"
   xmlns="http://www.w3.org/2000/svg"
   xmlns:sodipodi="http://sodipodi.sourceforge.net/DTD/sodipodi-0.dtd"
   xmlns:inkscape="http://www.inkscape.org/namespaces/inkscape"
   width="64"
   height="64"
   viewBox="0 0 16.933333 16.933334"
   version="1.1"
   id="svg841"
   inkscape:version="1.0.2 (e86c870879, 2021-01-15)"
   sodipodi:docname="network-wired-no-route-symbolic.svg">
  <defs
     id="defs835" />
  <sodipodi:namedview
     id="base"
     pagecolor="#c4c4c4"
     bordercolor="#666666"
     borderopacity="1.0"
     inkscape:pageopacity="0"
     inkscape:pageshadow="2"
     inkscape:zoom="4.4950457"
     inkscape:cx="41.945319"
     inkscape:cy="28.49246"
     inkscape:document-units="px"
     inkscape:current-layer="layer1"
     inkscape:document-rotation="0"
     showgrid="false"
     units="px"
     inkscape:window-width="2048"
     inkscape:window-height="1080"
     inkscape:window-x="0"
     inkscape:window-y="0"
     inkscape:window-maximized="1" />
  <metadata
     id="metadata838">
    <rdf:RDF>
      <cc:Work
         rdf:about="">
        <dc:format>image/svg+xml</dc:format>
        <dc:type
           rdf:resource="http://purl.org/dc/dcmitype/StillImage" />
        <dc:title />
      </cc:Work>
    </rdf:RDF>
  </metadata>
  <g
     inkscape:label="Layer 1"
     inkscape:groupmode="layer"
     id="layer1">
    <circle
       style="display:inline;fill:#808084;stroke:none;stroke-width:0;stroke-linecap:round;stroke-linejoin:round;stroke-dashoffset:2.1875;fill-opacity:1"
       id="path2193-6-6-3-4-8-20"
       cx="8.195837"
       cy="14.077419"
       r="1.0583334" />
    <path
       id="path1107-0-8-6-3-9-6"
       style="color:#000000;font-style:normal;font-variant:normal;font-weight:normal;font-stretch:normal;font-size:medium;line-height:normal;font-family:sans-serif;font-variant-ligatures:normal;font-variant-position:normal;font-variant-caps:normal;font-variant-numeric:normal;font-variant-alternates:normal;font-variant-east-asian:normal;font-feature-settings:normal;font-variation-settings:normal;text-indent:0;text-align:start;text-decoration:none;text-decoration-line:none;text-decoration-style:solid;text-decoration-color:#000000;letter-spacing:normal;word-spacing:normal;text-transform:none;writing-mode:lr-tb;direction:ltr;text-orientation:mixed;dominant-baseline:auto;baseline-shift:baseline;text-anchor:start;white-space:normal;shape-padding:0;shape-margin:0;inline-size:0;clip-rule:nonzero;display:inline;overflow:visible;visibility:visible;isolation:auto;mix-blend-mode:normal;color-interpolation:sRGB;color-interpolation-filters:linearRGB;solid-color:#000000;solid-opacity:1;vector-effect:none;fill:#808084;fill-opacity:1;fill-rule:nonzero;stroke:none;stroke-width:0.992188;stroke-linecap:round;stroke-linejoin:round;stroke-miterlimit:4;stroke-dasharray:none;stroke-dashoffset:0;stroke-opacity:1;color-rendering:auto;image-rendering:auto;shape-rendering:auto;text-rendering:auto;enable-background:accumulate;stop-color:#000000"
       d="m 8.4937241,4.0232548 c -1.51658,-2e-6 -2.77846,0.987962 -3.08005,2.508375 v 0 l -0.0469,0.192623 c -0.0261,0.106783 0.0385,0.213776 0.14533,0.239907 l 1.19762,0.293005 c 0.10677,0.02613 0.21377,-0.03856 0.23991,-0.14534 l 0.0473,-0.19301 c 0.13982,-0.936006 0.75837,-1.358057 1.49759,-1.358057 0.8547699,-2e-6 1.4824599,0.554345 1.4824599,1.498358 0,0.677024 -0.30126,1.116249 -0.95535,1.568897 -0.5004,0.339784 -0.9169799,0.6883805 -1.1987699,1.1882992 -0.256,0.45416 -0.3858,1.012284 -0.41161,1.747566 0,1.34e-4 1e-5,1.99e-4 0,3.98e-4 v 0.198051 c 0,0.109934 0.0885,0.198437 0.19843,0.198437 H 8.808074 c 0.10993,0 0.19844,-0.0885 0.19844,-0.198437 v -0.198438 c 0.0236,-0.405361 0.092,-0.697407 0.21742,-0.934051 0.14899,-0.281172 0.38846,-0.521878 0.80498,-0.813129 0.981561,-0.6812947 1.543331,-1.5604752 1.543331,-2.7149512 0,-1.429559 -0.872191,-2.584999 -2.169251,-2.954083 -0.0865,-0.02461 -0.17459,-0.04574 -0.2647,-0.06317 -0.20598,-0.03992 -0.42143,-0.06124 -0.6441499,-0.06124 z" />
    <path
       id="rect1677-6-2-1-1"
       style="opacity:0.375;fill:#808084;fill-opacity:1;stroke:none;stroke-width:0;stroke-linecap:round;stroke-linejoin:round;stroke-miterlimit:4;stroke-dasharray:none;stroke-dashoffset:2.1875;stroke-opacity:1"
       d="m 3.99342,4.0232846 c -0.22847,-0.002 -0.45582,0.09474 -0.61482,0.284221 l -3.06130801,3.648355 c -0.004,0.0053 -0.008,0.01093 -0.0123,0.01628 -0.003,0.0036 -0.005,0.0072 -0.008,0.01085 -0.0134,0.01739 -0.0263,0.03499 -0.038,0.0531 -0.002,0.0038 -0.005,0.0078 -0.007,0.01163 -0.0113,0.01805 -0.022,0.03626 -0.0316,0.05491 -0.003,0.0054 -0.005,0.01085 -0.008,0.01628 -0.009,0.01755 -0.0168,0.03513 -0.024,0.0531 -0.003,0.0069 -0.005,0.01388 -0.007,0.0208 -0.006,0.01712 -0.0125,0.03428 -0.0176,0.05168 -0.002,0.0068 -0.003,0.01378 -0.005,0.02067 -0.005,0.01777 -0.009,0.03552 -0.0125,0.05348 -0.002,0.0085 -0.003,0.01713 -0.004,0.02571 -0.002,0.01561 -0.005,0.03122 -0.006,0.0469 -0.001,0.01219 -0.001,0.02445 -0.002,0.03669 -6.2e-4,0.01297 -0.002,0.02591 -0.002,0.03889 -2e-5,0.01301 9.1e-4,0.026 0.002,0.03902 6.1e-4,0.01216 9e-4,0.02431 0.002,0.03643 0.001,0.01562 0.004,0.03109 0.006,0.04664 0.001,0.0088 0.002,0.01762 0.004,0.02636 0.003,0.01765 0.008,0.03512 0.0124,0.05258 0.002,0.0071 0.003,0.01426 0.005,0.02132 0.005,0.01854 0.0119,0.03681 0.0187,0.05503 0.002,0.0055 0.004,0.01107 0.006,0.01654 0.007,0.01825 0.0156,0.03618 0.0243,0.054 0.003,0.0055 0.005,0.011 0.008,0.01641 0.01,0.0186 0.0204,0.03677 0.0316,0.05478 0.002,0.0039 0.005,0.0078 0.007,0.01163 0.0117,0.01811 0.0246,0.03571 0.038,0.0531 0.003,0.0036 0.005,0.0073 0.008,0.01085 0.004,0.0053 0.008,0.01101 0.0123,0.01628 L 3.3789,12.626029 c 0.28266,0.336858 0.78142,0.380455 1.11828,0.0978 0.33686,-0.282659 0.38045,-0.781291 0.0978,-1.118149 L 1.961172,8.4668514 4.59498,5.3280248 C 4.87764,4.9911668 4.83405,4.4924048 4.49718,4.2097468 4.3498,4.0860838 4.17141,4.0248478 3.99372,4.0233248 Z" />
    <path
       id="rect1677-6-2-3-9-5"
       style="opacity:0.375;fill:#808084;fill-opacity:1;stroke:none;stroke-width:0;stroke-linecap:round;stroke-linejoin:round;stroke-miterlimit:4;stroke-dasharray:none;stroke-dashoffset:2.1875;stroke-opacity:1"
       d="m 12.939808,4.0232846 c 0.228476,-0.002 0.455832,0.09474 0.614837,0.284221 l 3.061391,3.648355 c 0.004,0.0053 0.008,0.01093 0.0123,0.01628 0.003,0.0036 0.005,0.0072 0.008,0.01085 0.0134,0.01739 0.0263,0.03499 0.038,0.0531 0.002,0.0038 0.005,0.0078 0.007,0.01163 0.0113,0.01805 0.022,0.03626 0.0316,0.05491 0.003,0.0054 0.005,0.01085 0.008,0.01628 0.009,0.01755 0.0168,0.03513 0.024,0.0531 0.003,0.0069 0.005,0.01388 0.007,0.0208 0.006,0.01712 0.0125,0.03428 0.0176,0.05168 0.002,0.0068 0.003,0.01378 0.005,0.02067 0.005,0.01777 0.009,0.03552 0.0125,0.05348 0.002,0.0085 0.003,0.01713 0.004,0.02571 0.002,0.01561 0.005,0.03122 0.006,0.0469 0.001,0.01219 0.001,0.02445 0.002,0.03669 6.2e-4,0.01297 0.002,0.02591 0.002,0.03889 2e-5,0.01301 -9.11e-4,0.026 -0.002,0.03902 -6.1e-4,0.01216 -9e-4,0.02431 -0.002,0.03643 -10e-4,0.01562 -0.004,0.03109 -0.006,0.04664 -10e-4,0.0088 -0.002,0.01762 -0.004,0.02636 -0.003,0.01765 -0.008,0.03512 -0.0124,0.05258 -0.002,0.0071 -0.003,0.01426 -0.005,0.02132 -0.005,0.01854 -0.0119,0.03681 -0.0187,0.05503 -0.002,0.0055 -0.004,0.01107 -0.006,0.01654 -0.007,0.01825 -0.0156,0.03618 -0.0243,0.054 -0.003,0.0055 -0.005,0.011 -0.008,0.01641 -0.01,0.0186 -0.0204,0.03677 -0.0316,0.05478 -0.002,0.0039 -0.005,0.0078 -0.007,0.01163 -0.0117,0.01811 -0.0246,0.03571 -0.038,0.0531 -0.003,0.0036 -0.005,0.0073 -0.008,0.01085 -0.004,0.0053 -0.008,0.01101 -0.0123,0.01628 l -3.061391,3.6482284 c -0.282668,0.336858 -0.781442,0.380455 -1.118311,0.0978 -0.336869,-0.282659 -0.38046,-0.781291 -0.0978,-1.118149 L 14.972114,8.4668526 12.338234,5.328026 C 12.055567,4.991169 12.099158,4.492407 12.436034,4.209748 12.583418,4.086086 12.761813,4.02485 12.939508,4.023326 Z" />
  </g>
</svg>
