<?xml version="1.0" encoding="UTF-8" standalone="no"?>
<svg
   xmlns:dc="http://purl.org/dc/elements/1.1/"
   xmlns:cc="http://creativecommons.org/ns#"
   xmlns:rdf="http://www.w3.org/1999/02/22-rdf-syntax-ns#"
   xmlns:svg="http://www.w3.org/2000/svg"
   xmlns="http://www.w3.org/2000/svg"
   xmlns:sodipodi="http://sodipodi.sourceforge.net/DTD/sodipodi-0.dtd"
   xmlns:inkscape="http://www.inkscape.org/namespaces/inkscape"
   width="64"
   height="64"
   viewBox="0 0 16.933333 16.933334"
   version="1.1"
   id="svg841"
   inkscape:version="1.0.2 (e86c870879, 2021-01-15)"
   sodipodi:docname="network-wireless-offline-symbolic.svg">
  <defs
     id="defs835" />
  <sodipodi:namedview
     id="base"
     pagecolor="#c4c4c4"
     bordercolor="#666666"
     borderopacity="1.0"
     inkscape:pageopacity="0"
     inkscape:pageshadow="2"
     inkscape:zoom="4.4950457"
     inkscape:cx="-28.764473"
     inkscape:cy="28.49246"
     inkscape:document-units="px"
     inkscape:current-layer="layer1"
     inkscape:document-rotation="0"
     showgrid="false"
     units="px"
     inkscape:window-width="2048"
     inkscape:window-height="1080"
     inkscape:window-x="0"
     inkscape:window-y="0"
     inkscape:window-maximized="1" />
  <metadata
     id="metadata838">
    <rdf:RDF>
      <cc:Work
         rdf:about="">
        <dc:format>image/svg+xml</dc:format>
        <dc:type
           rdf:resource="http://purl.org/dc/dcmitype/StillImage" />
        <dc:title />
      </cc:Work>
    </rdf:RDF>
  </metadata>
  <g
     inkscape:label="Layer 1"
     inkscape:groupmode="layer"
     id="layer1">
    <path
       id="rect2131-7"
       style="opacity:1;fill:#808084;fill-opacity:1;stroke:none;stroke-width:2.38119;stroke-linecap:butt;stroke-linejoin:miter;stroke-miterlimit:4;stroke-dasharray:none;stroke-dashoffset:2.1875;stroke-opacity:1"
       d="m 10.080067,9.1532432 c -0.2367054,0 -0.4733384,0.09043 -0.6547124,0.271815 -0.362752,0.362762 -0.362752,0.9472228 0,1.3099848 l 2.3082894,2.308365 -2.3082894,2.308367 c -0.362752,0.362762 -0.362752,0.946707 0,1.309469 0.362749,0.362762 0.9471934,0.362762 1.3099424,0 l 2.308289,-2.308366 2.30829,2.308366 c 0.36275,0.362762 0.946678,0.362762 1.309426,0 0.362752,-0.362762 0.362752,-0.946707 0,-1.309469 l -2.308289,-2.308367 2.308289,-2.308365 c 0.362752,-0.362762 0.362752,-0.9467078 0,-1.3094688 -0.362749,-0.362762 -0.946676,-0.362762 -1.309426,0 l -2.30829,2.3083648 -2.308289,-2.3088808 c -0.181374,-0.181381 -0.418525,-0.271815 -0.65523,-0.271815 z" />
    <path
       id="path990-7-9-9-7-6"
       style="color:#000000;font-style:normal;font-variant:normal;font-weight:normal;font-stretch:normal;font-size:medium;line-height:normal;font-family:sans-serif;font-variant-ligatures:normal;font-variant-position:normal;font-variant-caps:normal;font-variant-numeric:normal;font-variant-alternates:normal;font-variant-east-asian:normal;font-feature-settings:normal;font-variation-settings:normal;text-indent:0;text-align:start;text-decoration:none;text-decoration-line:none;text-decoration-style:solid;text-decoration-color:#000000;letter-spacing:normal;word-spacing:normal;text-transform:none;writing-mode:lr-tb;direction:ltr;text-orientation:mixed;dominant-baseline:auto;baseline-shift:baseline;text-anchor:start;white-space:normal;shape-padding:0;shape-margin:0;inline-size:0;clip-rule:nonzero;display:inline;overflow:visible;visibility:visible;opacity:0.375;isolation:auto;mix-blend-mode:normal;color-interpolation:sRGB;color-interpolation-filters:linearRGB;solid-color:#000000;solid-opacity:1;vector-effect:none;fill:#808084;fill-opacity:1;fill-rule:nonzero;stroke:none;stroke-width:0.69083;stroke-linecap:round;stroke-linejoin:miter;stroke-miterlimit:4;stroke-dasharray:none;stroke-dashoffset:0;stroke-opacity:1;color-rendering:auto;image-rendering:auto;shape-rendering:auto;text-rendering:auto;enable-background:accumulate;stop-color:#000000"
       d="m 8.4679066,1.5435792 c -2.8580213,0 -5.7166273,0.8351765 -8.14989131,2.5047566 a 0.7311469,0.7311142 0 0 0 -0.189651,1.0169923 0.7311469,0.7311142 0 0 0 1.01647401,0.1891358 c 4.358735,-2.990742 10.2853307,-2.990742 14.6440677,0 A 0.7311469,0.7311142 0 0 0 16.804864,5.0653281 0.7311469,0.7311142 0 0 0 16.615729,4.0483358 C 14.182462,2.3787557 11.325916,1.5435792 8.4679066,1.5435792 Z m 0,3.4530194 c -2.1387303,0 -4.2784743,0.6121286 -6.1029873,1.8376138 a 0.7311469,0.7311142 0 0 0 -0.198438,1.0149253 0.7311469,0.7311142 0 0 0 1.014926,0.199471 c 3.1418,-2.1102874 7.4311947,-2.1102874 10.5729987,0 A 0.7311469,0.7311142 0 0 0 14.768813,7.8491377 0.7311469,0.7311142 0 0 0 14.569341,6.8342124 C 12.744834,5.6087272 10.60663,4.9965986 8.4679066,4.9965986 Z m 0,3.4638711 c -1.4160953,0 -2.8325023,0.3893295 -4.0478153,1.1684045 a 0.73114362,0.73111089 0 0 0 -0.221692,1.0102738 0.73114362,0.73111089 0 0 0 1.010791,0.221692 c 0.971822,-0.622984 2.1314593,-0.9308108 3.2897203,-0.9250078 0.03214,-0.358542 0.183391,-0.708027 0.454237,-0.978752 0.196908,-0.196823 0.436536,-0.331523 0.68988,-0.403593 -0.388938,-0.06009 -0.781757,-0.093018 -1.175121,-0.093017 z m 2.7538374,0.5162475 1.566312,1.5663118 A 0.73114362,0.73111089 0 0 0 12.514173,9.6288742 C 12.103926,9.3658872 11.669855,9.1508952 11.221744,8.9767172 Z M 8.4679066,11.907804 c -0.677031,0 -1.3551083,0.159698 -1.9564693,0.480074 a 0.73122009,0.73118733 0 0 0 -0.175702,1.160653 l 1.6128233,1.62574 a 0.73122009,0.73118733 0 0 0 0.677476,0.197921 c 0.07641,-0.175884 0.1845,-0.340625 0.327113,-0.483174 L 10.794897,13.045719 9.9096766,12.160502 c -0.461568,-0.167992 -0.951312,-0.252698 -1.44177,-0.252698 z" />
  </g>
</svg>
