<?xml version="1.0" encoding="UTF-8" standalone="no"?>
<svg
   xmlns:dc="http://purl.org/dc/elements/1.1/"
   xmlns:cc="http://creativecommons.org/ns#"
   xmlns:rdf="http://www.w3.org/1999/02/22-rdf-syntax-ns#"
   xmlns:svg="http://www.w3.org/2000/svg"
   xmlns="http://www.w3.org/2000/svg"
   xmlns:sodipodi="http://sodipodi.sourceforge.net/DTD/sodipodi-0.dtd"
   xmlns:inkscape="http://www.inkscape.org/namespaces/inkscape"
   width="64"
   height="64"
   viewBox="0 0 16.933333 16.933334"
   version="1.1"
   id="svg841"
   inkscape:version="1.0.2 (e86c870879, 2021-01-15)"
   sodipodi:docname="network-cellular-signal-ok-secure-symbolic.svg">
  <defs
     id="defs835" />
  <sodipodi:namedview
     id="base"
     pagecolor="#c4c4c4"
     bordercolor="#666666"
     borderopacity="1.0"
     inkscape:pageopacity="0"
     inkscape:pageshadow="2"
     inkscape:zoom="4.4950457"
     inkscape:cx="-20.741752"
     inkscape:cy="28.49246"
     inkscape:document-units="px"
     inkscape:current-layer="layer1"
     inkscape:document-rotation="0"
     showgrid="false"
     units="px"
     inkscape:window-width="2048"
     inkscape:window-height="1080"
     inkscape:window-x="0"
     inkscape:window-y="0"
     inkscape:window-maximized="1" />
  <metadata
     id="metadata838">
    <rdf:RDF>
      <cc:Work
         rdf:about="">
        <dc:format>image/svg+xml</dc:format>
        <dc:type
           rdf:resource="http://purl.org/dc/dcmitype/StillImage" />
        <dc:title />
      </cc:Work>
    </rdf:RDF>
  </metadata>
  <g
     inkscape:label="Layer 1"
     inkscape:groupmode="layer"
     id="layer1">
    <path
       id="rect2746-36-6-3"
       style="fill:#808084;fill-opacity:1;stroke-width:0;stroke-linecap:round;stroke-linejoin:round;stroke-dashoffset:2.1875"
       d="m 12.964583,7.774781 c -1.35304,0 -2.44231,1.08926 -2.44231,2.44228 v 2.21332 H 9.4537634 c -0.2537,2e-5 -0.45793,0.20424 -0.45793,0.45793 v 3.5871 c 0,0.2537 0.20423,0.45792 0.45793,0.45792 h 7.0216296 c 0.2537,0 0.45794,-0.20422 0.45794,-0.45792 v -3.5871 c 0,-0.25369 -0.20424,-0.45793 -0.45794,-0.45793 h -1.06851 v -2.21332 c 0,-1.35302 -1.08926,-2.44228 -2.4423,-2.44228 z m 0,0.91586 c 0.84565,0 1.52644,0.6808 1.52644,1.52642 v 2.21332 h -3.05289 v -2.21332 c 0,-0.84562 0.6808,-1.52642 1.52645,-1.52642 z" />
    <path
       style="fill:#808084;stroke-width:0;stroke-linecap:round;stroke-linejoin:round;stroke-dashoffset:2.1875;fill-opacity:1"
       d="m 0.52916667,12.633854 c -0.2198688,0 -0.396875,0.177006 -0.396875,0.396875 v 3.373438 c 0,0.219869 0.1770062,0.396875 0.396875,0.396875 H 2.9104166 c 0.2198688,0 0.3968751,-0.177006 0.3968751,-0.396875 v -3.373438 c 0,-0.219869 -0.1770063,-0.396875 -0.3968751,-0.396875 z"
       id="path3500" />
    <path
       style="opacity:1;fill:#808084;stroke-width:0;stroke-linecap:round;stroke-linejoin:round;stroke-dashoffset:2.1875;fill-opacity:1"
       d="m 5.0270834,8.466667 c -0.2198688,0 -0.3968751,0.177006 -0.3968751,0.396875 v 7.540625 c 0,0.219869 0.1770063,0.396875 0.3968751,0.396875 h 2.3812505 c 0.219868,0 0.396875,-0.177006 0.396875,-0.396875 V 8.863542 c 0,-0.219869 -0.177007,-0.396875 -0.396875,-0.396875 z"
       id="path3498" />
    <path
       style="opacity:0.375;fill:#808084;stroke-width:0;stroke-linecap:round;stroke-linejoin:round;stroke-dashoffset:2.1875;fill-opacity:1"
       d="m 9.5249999,4.2994786 c -0.219869,0 -0.396875,0.177007 -0.396875,0.396875 V 11.78171 c 0.04356,-0.0062 0.08695,-0.01292 0.132292,-0.01292 h 0.60048 v -1.551843 c 0,-1.492104 1.0430161,-2.73007 2.4422281,-3.031856 V 4.6963536 c 0,-0.219868 -0.177006,-0.396875 -0.396875,-0.396875 z"
       id="path3496" />
    <path
       style="opacity:0.375;fill:#808084;stroke-width:0;stroke-linecap:round;stroke-linejoin:round;stroke-dashoffset:2.1875;fill-opacity:1"
       d="m 14.022917,0.13229167 c -0.219869,0 -0.396875,0.1770059 -0.396875,0.3968749 V 7.185091 c 1.399315,0.301786 2.442745,1.539752 2.442745,3.031857 v 1.551843 h 0.599963 c 0.04534,0 0.08873,0.0067 0.132292,0.01292 V 0.52916657 c 0,-0.219869 -0.177006,-0.3968749 -0.396875,-0.3968749 z"
       id="rect883-8-9-8" />
  </g>
</svg>
