<?xml version="1.0" encoding="UTF-8" standalone="no"?>
<svg
   xmlns:dc="http://purl.org/dc/elements/1.1/"
   xmlns:cc="http://creativecommons.org/ns#"
   xmlns:rdf="http://www.w3.org/1999/02/22-rdf-syntax-ns#"
   xmlns:svg="http://www.w3.org/2000/svg"
   xmlns="http://www.w3.org/2000/svg"
   xmlns:sodipodi="http://sodipodi.sourceforge.net/DTD/sodipodi-0.dtd"
   xmlns:inkscape="http://www.inkscape.org/namespaces/inkscape"
   width="64"
   height="64"
   viewBox="0 0 16.933333 16.933334"
   version="1.1"
   id="svg841"
   inkscape:version="1.0.2 (e86c870879, 2021-01-15)"
   sodipodi:docname="network-wireless-acquiring-symbolic.svg">
  <defs
     id="defs835" />
  <sodipodi:namedview
     id="base"
     pagecolor="#c4c4c4"
     bordercolor="#666666"
     borderopacity="1.0"
     inkscape:pageopacity="0"
     inkscape:pageshadow="2"
     inkscape:zoom="4.4950457"
     inkscape:cx="27.074781"
     inkscape:cy="28.49246"
     inkscape:document-units="px"
     inkscape:current-layer="layer1"
     inkscape:document-rotation="0"
     showgrid="false"
     units="px"
     inkscape:window-width="2048"
     inkscape:window-height="1080"
     inkscape:window-x="0"
     inkscape:window-y="0"
     inkscape:window-maximized="1" />
  <metadata
     id="metadata838">
    <rdf:RDF>
      <cc:Work
         rdf:about="">
        <dc:format>image/svg+xml</dc:format>
        <dc:type
           rdf:resource="http://purl.org/dc/dcmitype/StillImage" />
        <dc:title />
      </cc:Work>
    </rdf:RDF>
  </metadata>
  <g
     inkscape:label="Layer 1"
     inkscape:groupmode="layer"
     id="layer1">
    <path
       id="path990-7-9-4-5-0"
       style="color:#000000;font-style:normal;font-variant:normal;font-weight:normal;font-stretch:normal;font-size:medium;line-height:normal;font-family:sans-serif;font-variant-ligatures:normal;font-variant-position:normal;font-variant-caps:normal;font-variant-numeric:normal;font-variant-alternates:normal;font-variant-east-asian:normal;font-feature-settings:normal;font-variation-settings:normal;text-indent:0;text-align:start;text-decoration:none;text-decoration-line:none;text-decoration-style:solid;text-decoration-color:#000000;letter-spacing:normal;word-spacing:normal;text-transform:none;writing-mode:lr-tb;direction:ltr;text-orientation:mixed;dominant-baseline:auto;baseline-shift:baseline;text-anchor:start;white-space:normal;shape-padding:0;shape-margin:0;inline-size:0;clip-rule:nonzero;display:inline;overflow:visible;visibility:visible;opacity:0.375;isolation:auto;mix-blend-mode:normal;color-interpolation:sRGB;color-interpolation-filters:linearRGB;solid-color:#000000;solid-opacity:1;vector-effect:none;fill:#808084;fill-opacity:1;fill-rule:nonzero;stroke:none;stroke-width:0.690829;stroke-linecap:round;stroke-linejoin:miter;stroke-miterlimit:4;stroke-dasharray:none;stroke-dashoffset:0;stroke-opacity:1;color-rendering:auto;image-rendering:auto;shape-rendering:auto;text-rendering:auto;enable-background:accumulate;stop-color:#000000"
       d="m 8.4676078,1.5435792 c -2.857937,0 -5.716174,0.834585 -8.14937304,2.504199 a 0.73112613,0.73112955 0 0 0 -0.189653,1.017492 0.73112613,0.73112955 0 0 0 1.01647604,0.188616 c 4.358614,-2.990806 10.2849372,-2.990806 14.6435512,0 a 0.73112613,0.73112955 0 0 0 1.015959,-0.188616 0.73112613,0.73112955 0 0 0 -0.189136,-1.017492 C 14.182234,2.3781642 11.325536,1.5435792 8.4676078,1.5435792 Z m 0,3.452446 c -1.885024,0 -3.770917,0.476277 -5.441011,1.428313 a 2.2489585,2.2489216 0 0 1 0.912089,-0.206703 2.2489585,2.2489216 0 0 1 0.02997,0 2.2489585,2.2489216 0 0 1 1.617989,0.687286 c 0.561718,-0.174787 1.137605,-0.295258 1.720309,-0.36483 a 2.2489585,2.2489216 0 0 1 1.159619,-0.322456 2.2489585,2.2489216 0 0 1 1.158585,0.321939 c 0.5831092,0.06945 1.1597412,0.190024 1.7218592,0.36483 a 2.2489585,2.2489216 0 0 1 1.617473,-0.686769 2.2489585,2.2489216 0 0 1 0.942578,0.207736 c -1.66991,-0.952193 -3.554287,-1.429346 -5.4394622,-1.429346 z m -2.22622,3.796605 c -0.01684,0.0051 -0.03332,0.0113 -0.05013,0.01654 a 2.2489585,2.2489216 0 0 1 -1.950786,1.8897758 0.73112285,0.73112627 0 0 0 0.968417,0.161228 c 0.532697,-0.341501 1.122856,-0.584333 1.737361,-0.736894 A 2.2489585,2.2489216 0 0 1 6.2413878,8.7926342 Z m 4.4503742,0 A 2.2489585,2.2489216 0 0 1 9.9874118,10.123276 c 0.6145052,0.152561 1.2046652,0.395394 1.7373622,0.736894 a 0.73112285,0.73112627 0 0 0 0.9679,-0.161228 2.2489585,2.2489216 0 0 1 -1.950786,-1.8902928 c -0.01676,-0.0052 -0.03334,-0.01091 -0.05013,-0.01602 z M 8.4676078,11.907117 c -0.677008,0 -1.355127,0.159683 -1.956469,0.480066 a 0.73119929,0.73120273 0 0 0 -0.1757,1.161151 l 1.612821,1.625714 a 0.73119929,0.73120273 0 0 0 1.037146,0 l 1.6128222,-1.625714 a 0.73119929,0.73120273 0 0 0 -0.1757,-1.161151 C 9.8211828,12.0668 9.1446098,11.907117 8.4676078,11.907117 Z" />
    <circle
       style="fill:#808084;stroke:none;stroke-width:0;stroke-linecap:round;stroke-linejoin:round;stroke-miterlimit:4;stroke-dasharray:none;stroke-dashoffset:2.1875;stroke-opacity:1;fill-opacity:1"
       id="path1594"
       cx="8.4666557"
       cy="8.4666653"
       r="1.5875" />
    <circle
       style="fill:#808084;stroke:none;stroke-width:0;stroke-linecap:round;stroke-linejoin:round;stroke-miterlimit:4;stroke-dasharray:none;stroke-dashoffset:2.1875;stroke-opacity:1;fill-opacity:1"
       id="path1594-2"
       cx="3.9687381"
       cy="8.4666653"
       r="1.5875" />
    <circle
       style="fill:#808084;stroke:none;stroke-width:0;stroke-linecap:round;stroke-linejoin:round;stroke-miterlimit:4;stroke-dasharray:none;stroke-dashoffset:2.1875;stroke-opacity:1;fill-opacity:1"
       id="path1594-9"
       cx="12.964573"
       cy="8.4666653"
       r="1.5875" />
  </g>
</svg>
