<?xml version="1.0" encoding="UTF-8" standalone="no"?>
<svg
   xmlns:dc="http://purl.org/dc/elements/1.1/"
   xmlns:cc="http://creativecommons.org/ns#"
   xmlns:rdf="http://www.w3.org/1999/02/22-rdf-syntax-ns#"
   xmlns:svg="http://www.w3.org/2000/svg"
   xmlns="http://www.w3.org/2000/svg"
   xmlns:sodipodi="http://sodipodi.sourceforge.net/DTD/sodipodi-0.dtd"
   xmlns:inkscape="http://www.inkscape.org/namespaces/inkscape"
   width="64"
   height="64"
   viewBox="0 0 16.933333 16.933334"
   version="1.1"
   id="svg841"
   inkscape:version="1.0.2 (e86c870879, 2021-01-15)"
   sodipodi:docname="dialog-password-symbolic.svg">
  <defs
     id="defs835" />
  <sodipodi:namedview
     id="base"
     pagecolor="#c4c4c4"
     bordercolor="#666666"
     borderopacity="1.0"
     inkscape:pageopacity="0"
     inkscape:pageshadow="2"
     inkscape:zoom="4.4950457"
     inkscape:cx="-28.764473"
     inkscape:cy="28.49246"
     inkscape:document-units="px"
     inkscape:current-layer="layer1"
     inkscape:document-rotation="0"
     showgrid="false"
     units="px"
     inkscape:window-width="2048"
     inkscape:window-height="1080"
     inkscape:window-x="0"
     inkscape:window-y="0"
     inkscape:window-maximized="1" />
  <metadata
     id="metadata838">
    <rdf:RDF>
      <cc:Work
         rdf:about="">
        <dc:format>image/svg+xml</dc:format>
        <dc:type
           rdf:resource="http://purl.org/dc/dcmitype/StillImage" />
        <dc:title />
      </cc:Work>
    </rdf:RDF>
  </metadata>
  <g
     inkscape:label="Layer 1"
     inkscape:groupmode="layer"
     id="layer1">
    <path
       id="path2551-4-8-7-2"
       style="fill:#808084;fill-opacity:1;stroke:none;stroke-width:0;stroke-linecap:round;stroke-linejoin:round;stroke-miterlimit:4;stroke-dasharray:none;stroke-dashoffset:2.1875;stroke-opacity:1"
       d="m 4.6265917,5.1593755 a 3.3072918,3.3072918 0 0 0 -3.303675,3.3072918 3.3072918,3.3072918 0 0 0 3.307292,3.3072917 3.3072918,3.3072918 0 0 0 3.2308111,-2.6008748 c 0.02461,0.00752 0.04935,0.015502 0.07648,0.015502 H 12.303125 V 11.04067 c 0,0.146579 0.118004,0.264583 0.264583,0.264583 h 1.058333 c 0.14658,0 0.264584,-0.118004 0.264584,-0.264583 V 9.1885861 h 1.455208 c 0.146579,0 0.264584,-0.1180042 0.264584,-0.2645833 V 7.8656694 c 0,-0.1465792 -0.118005,-0.2645833 -0.264584,-0.2645833 H 7.9374998 c -0.03908,0 -0.07571,0.00972 -0.109038,0.024805 a 3.3072918,3.3072918 0 0 0 -3.1982541,-2.4665162 3.3072918,3.3072918 0 0 0 -0.0036,0 z m -0.03204,1.5875001 a 1.7197917,1.7197917 0 0 1 0.03514,0 1.7197917,1.7197917 0 0 1 1.7197921,1.7197917 1.7197917,1.7197917 0 0 1 -1.7197921,1.7197917 1.7197917,1.7197917 0 0 1 -1.719792,-1.7197917 1.7197917,1.7197917 0 0 1 1.684652,-1.7197917 z" />
  </g>
</svg>
