<?xml version="1.0" encoding="UTF-8" standalone="no"?>
<svg
   xmlns:dc="http://purl.org/dc/elements/1.1/"
   xmlns:cc="http://creativecommons.org/ns#"
   xmlns:rdf="http://www.w3.org/1999/02/22-rdf-syntax-ns#"
   xmlns:svg="http://www.w3.org/2000/svg"
   xmlns="http://www.w3.org/2000/svg"
   xmlns:sodipodi="http://sodipodi.sourceforge.net/DTD/sodipodi-0.dtd"
   xmlns:inkscape="http://www.inkscape.org/namespaces/inkscape"
   width="64"
   height="64"
   viewBox="0 0 16.933333 16.933334"
   version="1.1"
   id="svg841"
   inkscape:version="1.0.2 (e86c870879, 2021-01-15)"
   sodipodi:docname="network-cellular-hardware-disabled-symbolic.svg">
  <defs
     id="defs835" />
  <sodipodi:namedview
     id="base"
     pagecolor="#c4c4c4"
     bordercolor="#666666"
     borderopacity="1.0"
     inkscape:pageopacity="0"
     inkscape:pageshadow="2"
     inkscape:zoom="4.4950457"
     inkscape:cx="-25.608221"
     inkscape:cy="28.49246"
     inkscape:document-units="px"
     inkscape:current-layer="layer1"
     inkscape:document-rotation="0"
     showgrid="false"
     units="px"
     inkscape:window-width="2048"
     inkscape:window-height="1080"
     inkscape:window-x="0"
     inkscape:window-y="0"
     inkscape:window-maximized="1" />
  <metadata
     id="metadata838">
    <rdf:RDF>
      <cc:Work
         rdf:about="">
        <dc:format>image/svg+xml</dc:format>
        <dc:type
           rdf:resource="http://purl.org/dc/dcmitype/StillImage" />
        <dc:title />
      </cc:Work>
    </rdf:RDF>
  </metadata>
  <g
     inkscape:label="Layer 1"
     inkscape:groupmode="layer"
     id="layer1">
    <path
       id="rect1127-0-6"
       style="opacity:0.85;fill:#808084;stroke:none;stroke-width:1.19063;stroke-linecap:round;stroke-linejoin:round;stroke-dashoffset:2.1875;fill-opacity:1"
       d="M 0.52917005,7.9374996 C 0.2360101,7.9374996 0,8.1735076 0,8.4666666 v 2.1166664 c 0,0.293159 0.2360101,0.529168 0.52917005,0.529168 H 16.40417 c 0.29316,0 0.52917,-0.236009 0.52917,-0.529168 V 8.4666666 c 0,-0.293159 -0.23601,-0.529167 -0.52917,-0.529167 z" />
    <path
       id="rect883-36-2"
       style="opacity:0.375;fill:#808084;stroke-width:0;stroke-linecap:round;stroke-linejoin:round;stroke-dashoffset:2.1875;fill-opacity:1"
       d="m 14.02292,0.13229167 c -0.219869,0 -0.396875,0.177006 -0.396875,0.396875 V 6.6145836 h 3.175 V 0.52916667 c 0,-0.219869 -0.177007,-0.396875 -0.396875,-0.396875 z M 9.5250034,4.2994787 c -0.219869,0 -0.396875,0.177007 -0.396875,0.396875 V 6.6145836 H 12.303128 V 4.6963537 c 0,-0.219868 -0.177006,-0.396875 -0.396875,-0.396875 z M 4.6302113,12.435417 v 3.96875 c 0,0.219869 0.1770063,0.396875 0.3968751,0.396875 h 2.38125 c 0.2198688,0 0.396875,-0.177006 0.396875,-0.396875 v -3.96875 z m 4.4979171,0 v 3.96875 c 0,0.219869 0.177006,0.396875 0.396875,0.396875 h 2.3812496 c 0.219869,0 0.396875,-0.177006 0.396875,-0.396875 v -3.96875 z m 4.4979166,0 v 3.96875 c 0,0.219869 0.177006,0.396875 0.396875,0.396875 h 2.38125 c 0.219868,0 0.396875,-0.177006 0.396875,-0.396875 v -3.96875 z M 0.52916965,12.633854 c -0.2198688,0 -0.39687495,0.177007 -0.39687495,0.396875 v 3.373438 c 0,0.219869 0.17700615,0.396875 0.39687495,0.396875 H 2.9104196 c 0.2198688,0 0.396875,-0.177006 0.396875,-0.396875 v -3.373438 c 0,-0.219868 -0.1770062,-0.396875 -0.396875,-0.396875 z" />
  </g>
</svg>
