<?xml version="1.0" encoding="UTF-8" standalone="no"?>
<svg
   xmlns:dc="http://purl.org/dc/elements/1.1/"
   xmlns:cc="http://creativecommons.org/ns#"
   xmlns:rdf="http://www.w3.org/1999/02/22-rdf-syntax-ns#"
   xmlns:svg="http://www.w3.org/2000/svg"
   xmlns="http://www.w3.org/2000/svg"
   xmlns:sodipodi="http://sodipodi.sourceforge.net/DTD/sodipodi-0.dtd"
   xmlns:inkscape="http://www.inkscape.org/namespaces/inkscape"
   width="64"
   height="64"
   viewBox="0 0 16.933333 16.933334"
   version="1.1"
   id="svg841"
   inkscape:version="1.0.2 (e86c870879, 2021-01-15)"
   sodipodi:docname="rotation-locked-symbolic.svg">
  <defs
     id="defs835" />
  <sodipodi:namedview
     id="base"
     pagecolor="#c4c4c4"
     bordercolor="#666666"
     borderopacity="1.0"
     inkscape:pageopacity="0"
     inkscape:pageshadow="2"
     inkscape:zoom="1.3591296"
     inkscape:cx="-137.81717"
     inkscape:cy="53.686796"
     inkscape:document-units="px"
     inkscape:current-layer="layer1"
     inkscape:document-rotation="0"
     showgrid="false"
     units="px"
     inkscape:window-width="2048"
     inkscape:window-height="1080"
     inkscape:window-x="0"
     inkscape:window-y="0"
     inkscape:window-maximized="1" />
  <metadata
     id="metadata838">
    <rdf:RDF>
      <cc:Work
         rdf:about="">
        <dc:format>image/svg+xml</dc:format>
        <dc:type
           rdf:resource="http://purl.org/dc/dcmitype/StillImage" />
        <dc:title></dc:title>
      </cc:Work>
    </rdf:RDF>
  </metadata>
  <g
     inkscape:label="Layer 1"
     inkscape:groupmode="layer"
     id="layer1">
    <path
       id="rect1112-8-8-4-3-3-3-0-9-8-2-6-9-3-2"
       style="display:inline;fill:#808084;fill-opacity:1;stroke-width:1.19063;stroke-linecap:round;stroke-linejoin:round;stroke-dashoffset:2.1875;opacity:0.375"
       d="M 7.5406146,9.6e-5 C 4.5357477,1.09e-4 2.1166667,2.419175 2.1166667,5.424042 l 6e-6,0.132298 c -4e-6,0.146581 0.11801,0.264588 0.264587,0.264593 l 1.322911,-1.5e-5 c 0.14658,5e-6 0.264585,-0.117989 0.264584,-0.264573 l -7e-6,-0.132298 c -6.7e-5,-1.978786 1.593054,-3.571859 3.5718639,-3.571876 1.678484,8e-6 3.0752144,1.147646 3.4618024,2.703208 l -0.121956,0.02581 1.09e-4,-2.3e-5 -2.1099476,0.448537 -1.08e-4,2.4e-5 -0.2702713,0.05734 c -0.1506592,0.03202 -0.2496495,0.161804 -0.2222074,0.290947 0.00409,0.01915 0.011339,0.03651 0.020205,0.05321 -9.8e-6,2e-6 3.83e-4,0.0026 5.41e-4,0.0032 0.00676,0.01209 0.014097,0.02351 0.022744,0.03409 0.010209,0.01244 0.022259,0.02392 0.03514,0.03411 l 4.2240053,3.390957 c 0.06666,0.05356 0.156935,0.06657 0.242363,0.04859 0.08553,-0.01821 0.162847,-0.06699 0.202059,-0.143138 l 2.480409,-4.81778 c 0.0074,-0.01429 0.01276,-0.02868 0.01704,-0.04392 0.0037,-0.01404 0.0059,-0.02874 0.0072,-0.0434 -8e-6,2e-6 -2.58e-4,5.5e-5 -2.58e-4,5.5e-5 2.27e-4,-0.01384 9.09e-4,-0.02843 -0.0021,-0.04238 -4.4e-5,-2.08e-4 -1.56e-4,3.3e-5 -7.23e-4,-0.0025 -7.97e-4,-0.0039 -0.0013,-0.0073 -0.0022,-0.01144 -0.02745,-0.129141 -0.170797,-0.207221 -0.321433,-0.175203 l -0.202569,0.0429 1.06e-4,-2.2e-5 -2.178673,0.46301 -1.1e-4,2.4e-5 -0.0037,7.9e-4 C 12.254962,1.77338 10.113172,3e-6 7.5405472,0 Z" />
    <path
       id="rect1146-6-6"
       style="fill:#808084;fill-opacity:1;stroke-width:0.264583;stroke-linecap:round;stroke-linejoin:round;stroke-dashoffset:2.1875;stroke-opacity:0.74902"
       d="m 16.700246,10.339231 c -0.310941,-0.310941 -0.811591,-0.310941 -1.122532,0 l -2.057976,2.057975 -2.057975,-2.057975 c -0.310941,-0.310941 -0.811591,-0.310941 -1.122532,0 -0.310941,0.310941 -0.310941,0.811591 0,1.122532 l 2.057975,2.057975 -2.057975,2.057976 c -0.310941,0.310941 -0.310941,0.81159 0,1.122532 0.310941,0.310941 0.811591,0.310941 1.122532,0 l 2.057975,-2.057976 2.057976,2.057976 c 0.310941,0.310941 0.811591,0.310941 1.122532,0 0.310941,-0.310942 0.310941,-0.811591 0,-1.122532 l -2.057975,-2.057976 2.057975,-2.057975 c 0.310941,-0.310941 0.310941,-0.811591 0,-1.122532 z" />
    <path
       id="rect1112-8-8-4-3-3-3-0-9-8-2-64-6-9-6-5"
       style="display:inline;fill:#808084;fill-opacity:1;stroke-width:1.19063;stroke-linecap:round;stroke-linejoin:round;stroke-dashoffset:2.1875;opacity:0.375"
       d="m 4.2385456,7.9885852 c -0.04158,-0.0077 -0.08545,-0.0064 -0.128158,0.0026 -0.08554,0.01818 -0.162842,0.067 -0.202054,0.143145 l -2.480469,4.8177918 c -0.0074,0.01429 -0.01277,0.02869 -0.01705,0.04393 -0.0037,0.01405 -0.0059,0.02872 -0.0072,0.04341 h 5.16e-4 c -2.27e-4,0.01384 -9.34e-4,0.02846 0.0021,0.04238 4.7e-5,2.06e-4 -6.9e-5,-5e-5 5.16e-4,0.0026 7.97e-4,0.0039 0.0012,0.0072 0.0021,0.01138 0.02745,0.129143 0.170797,0.207227 0.321427,0.175183 l 0.202572,-0.04289 2.178678,-0.46302 0.0041,-0.0011 c 0.563189,2.395617 2.704579,4.16917 5.2772,4.169146 0.09549,0 0.190489,-0.0029 0.284737,-0.0078 -0.357502,-0.561665 -0.293391,-1.328216 0.193786,-1.81539 l 0.07597,-0.07597 c -0.181011,0.02804 -0.365379,0.04702 -0.554488,0.04702 -1.678488,-1e-5 -3.075214,-1.147633 -3.461805,-2.703195 l 0.121957,-0.02582 2.109948,-0.448553 0.270268,-0.05736 c 0.150659,-0.03202 0.249651,-0.161796 0.222209,-0.290939 -0.0041,-0.01916 -0.01127,-0.03651 -0.02015,-0.05323 10e-6,-3e-6 -3.71e-4,-0.0026 -5.3e-4,-0.0031 -0.0068,-0.01209 -0.01409,-0.0235 -0.02274,-0.03411 -0.01021,-0.01244 -0.02226,-0.02389 -0.03514,-0.03411 L 4.3528146,8.0395782 c -0.03333,-0.02677 -0.07263,-0.04346 -0.114205,-0.05116 z" />
  </g>
</svg>
