<?xml version="1.0" encoding="UTF-8" standalone="no"?>
<svg
   xmlns:dc="http://purl.org/dc/elements/1.1/"
   xmlns:cc="http://creativecommons.org/ns#"
   xmlns:rdf="http://www.w3.org/1999/02/22-rdf-syntax-ns#"
   xmlns:svg="http://www.w3.org/2000/svg"
   xmlns="http://www.w3.org/2000/svg"
   xmlns:sodipodi="http://sodipodi.sourceforge.net/DTD/sodipodi-0.dtd"
   xmlns:inkscape="http://www.inkscape.org/namespaces/inkscape"
   width="64"
   height="64"
   viewBox="0 0 64 64"
   version="1.1"
   id="svg6374"
   inkscape:version="1.0.2 (e86c870879, 2021-01-15)"
   sodipodi:docname="security-medium-symbolic.svg">
  <defs
     id="defs6368" />
  <sodipodi:namedview
     id="base"
     pagecolor="#cecece"
     bordercolor="#666666"
     borderopacity="1.0"
     inkscape:pageopacity="0"
     inkscape:pageshadow="2"
     inkscape:zoom="1.2622617"
     inkscape:cx="108.25178"
     inkscape:cy="80.048091"
     inkscape:document-units="px"
     inkscape:current-layer="layer1"
     inkscape:document-rotation="0"
     showgrid="false"
     units="px"
     inkscape:window-width="1500"
     inkscape:window-height="970"
     inkscape:window-x="68"
     inkscape:window-y="56"
     inkscape:window-maximized="0" />
  <metadata
     id="metadata6371">
    <rdf:RDF>
      <cc:Work
         rdf:about="">
        <dc:format>image/svg+xml</dc:format>
        <dc:type
           rdf:resource="http://purl.org/dc/dcmitype/StillImage" />
        <dc:title></dc:title>
      </cc:Work>
    </rdf:RDF>
  </metadata>
  <g
     inkscape:label="Layer 1"
     inkscape:groupmode="layer"
     id="layer1">
    <path
       id="path1246-6-6-7"
       style="display:inline;fill:#808084;fill-opacity:1;stroke:none;stroke-width:5.00001;stroke-linecap:round;stroke-linejoin:round;stroke-miterlimit:4;stroke-dasharray:none;stroke-dashoffset:2.1875;stroke-opacity:1"
       d="M 31.85352,2.0000488 A 30,30 0 0 0 1.9999999,32.000041 a 30,30 0 0 0 29.9999881,30 30,30 0 0 0 30.000012,-30 30,30 0 0 0 -30.000012,-29.9999922 30,30 0 0 0 -0.146494,0 z m -3.353522,8.5000032 h 7.000003 c 0.554007,0 0.999987,0.446018 0.999987,1.000028 v 24 c 0,0.553962 -0.44598,0.99998 -0.999987,0.99998 h -7.000003 c -0.55401,0 -1.00001,-0.446018 -1.00001,-0.99998 v -24 c 0,-0.55401 0.446,-1.000028 1.00001,-1.000028 z m 3.49999,32.000008 a 5.4999998,5.4999998 0 0 1 5.50001,5.50001 5.4999998,5.4999998 0 0 1 -5.50001,5.50001 5.4999998,5.4999998 0 0 1 -5.499987,-5.50001 5.4999998,5.4999998 0 0 1 5.499987,-5.50001 z" />
  </g>
</svg>
