<?xml version="1.0" encoding="UTF-8" standalone="no"?>
<svg
   xmlns:dc="http://purl.org/dc/elements/1.1/"
   xmlns:cc="http://creativecommons.org/ns#"
   xmlns:rdf="http://www.w3.org/1999/02/22-rdf-syntax-ns#"
   xmlns:svg="http://www.w3.org/2000/svg"
   xmlns="http://www.w3.org/2000/svg"
   xmlns:sodipodi="http://sodipodi.sourceforge.net/DTD/sodipodi-0.dtd"
   xmlns:inkscape="http://www.inkscape.org/namespaces/inkscape"
   width="64"
   height="64"
   viewBox="0 0 64 64"
   version="1.1"
   id="svg6374"
   inkscape:version="1.0.2 (e86c870879, 2021-01-15)"
   sodipodi:docname="user-trash-symbolic.svg">
  <defs
     id="defs6368" />
  <sodipodi:namedview
     id="base"
     pagecolor="#cecece"
     bordercolor="#666666"
     borderopacity="1.0"
     inkscape:pageopacity="0"
     inkscape:pageshadow="2"
     inkscape:zoom="3.127457"
     inkscape:cx="71.759934"
     inkscape:cy="61.516263"
     inkscape:document-units="px"
     inkscape:current-layer="layer1"
     inkscape:document-rotation="0"
     showgrid="false"
     units="px"
     inkscape:window-width="1500"
     inkscape:window-height="970"
     inkscape:window-x="68"
     inkscape:window-y="56"
     inkscape:window-maximized="0" />
  <metadata
     id="metadata6371">
    <rdf:RDF>
      <cc:Work
         rdf:about="">
        <dc:format>image/svg+xml</dc:format>
        <dc:type
           rdf:resource="http://purl.org/dc/dcmitype/StillImage" />
        <dc:title></dc:title>
      </cc:Work>
    </rdf:RDF>
  </metadata>
  <g
     inkscape:label="Layer 1"
     inkscape:groupmode="layer"
     id="layer1">
    <path
       id="path841-3-1-4-3"
       style="mix-blend-mode:normal;fill:#808084;fill-opacity:1;stroke:none;stroke-width:0;stroke-linecap:butt;stroke-linejoin:miter;stroke-miterlimit:4;stroke-dasharray:none;stroke-opacity:1"
       d="m 58.174435,5.6430676 c -1.19428,-1.074518 -3.66763,-0.883235 -7.31287,1.190094 -4.91005,2.792707 -11.94821,9.0049914 -18.86125,15.6923474 C 23.399898,14.184869 16.062605,7.7759186 11.021033,5.7331246 5.696264,3.5755906 2.930258,6.2843146 6.833342,13.145311 9.626581,18.055385 15.840443,25.093791 22.52917,32.006845 14.19833,40.60062 7.786328,47.933918 5.734684,52.973138 c -2.167707,5.324195 0.531547,8.086615 7.398271,4.182638 4.91293,-2.793168 11.9558,-8.998933 18.87406,-15.683035 8.59558,8.331217 15.93044,14.743675 20.97055,16.795295 5.32472,2.167507 8.0874,-0.53146 4.18302,-7.397605 -2.79309,-4.9119 -8.99828,-11.953128 -15.68213,-18.869987 8.3425,-8.600653 14.75281,-15.938401 16.79595,-20.979989 1.01144,-2.4957484 0.9538,-4.4292884 -0.1,-5.3773874 z" />
  </g>
</svg>
