<?xml version="1.0" encoding="UTF-8" standalone="no"?>
<svg
   xmlns:dc="http://purl.org/dc/elements/1.1/"
   xmlns:cc="http://creativecommons.org/ns#"
   xmlns:rdf="http://www.w3.org/1999/02/22-rdf-syntax-ns#"
   xmlns:svg="http://www.w3.org/2000/svg"
   xmlns="http://www.w3.org/2000/svg"
   xmlns:sodipodi="http://sodipodi.sourceforge.net/DTD/sodipodi-0.dtd"
   xmlns:inkscape="http://www.inkscape.org/namespaces/inkscape"
   width="64"
   height="64"
   viewBox="0 0 64 64"
   version="1.1"
   id="svg6374"
   inkscape:version="1.0.2 (e86c870879, 2021-01-15)"
   sodipodi:docname="user-trash-full-symbolic.svg">
  <defs
     id="defs6368" />
  <sodipodi:namedview
     id="base"
     pagecolor="#cecece"
     bordercolor="#666666"
     borderopacity="1.0"
     inkscape:pageopacity="0"
     inkscape:pageshadow="2"
     inkscape:zoom="2.1574755"
     inkscape:cx="-28.119764"
     inkscape:cy="78.746717"
     inkscape:document-units="px"
     inkscape:current-layer="layer1"
     inkscape:document-rotation="0"
     showgrid="false"
     units="px"
     inkscape:window-width="1500"
     inkscape:window-height="970"
     inkscape:window-x="68"
     inkscape:window-y="56"
     inkscape:window-maximized="0" />
  <metadata
     id="metadata6371">
    <rdf:RDF>
      <cc:Work
         rdf:about="">
        <dc:format>image/svg+xml</dc:format>
        <dc:type
           rdf:resource="http://purl.org/dc/dcmitype/StillImage" />
        <dc:title></dc:title>
      </cc:Work>
    </rdf:RDF>
  </metadata>
  <g
     inkscape:label="Layer 1"
     inkscape:groupmode="layer"
     id="layer1">
    <path
       id="path1200-8-9"
       style="fill:#808084;fill-opacity:1;stroke:none;stroke-width:1.58703;stroke-linecap:round;stroke-linejoin:round;stroke-miterlimit:4;stroke-dasharray:none;stroke-opacity:1;paint-order:stroke fill markers"
       d="M 31.85029,0.50105981 C 20.882432,0.55303481 9.924203,2.5187086 6.1170183,6.3620966 -1.4973509,14.048874 -1.325854,50.268853 6.36106,57.883085 14.047974,65.497317 50.268612,65.32582 57.882982,57.639044 65.497351,49.952267 65.325854,13.732299 57.63894,6.1180656 53.795478,2.3109446 42.818159,0.44905331 31.85029,0.50105981 Z M 54.827315,7.0655016 c 1.057899,-0.01775 1.821252,0.05355 2.110254,0.01638 -0.206808,0.726128 0.334342,5.1324954 -2.005673,9.3104034 -3.030099,5.410513 -10.900606,10.383229 -11.117316,15.608259 0.217183,5.224852 8.087291,10.197936 11.117316,15.608249 2.340015,4.177898 1.798865,8.582227 2.005673,9.308355 -0.289002,-0.03717 -1.052344,0.03643 -2.110254,0.01848 -1.763238,-0.02951 -4.342875,-0.306432 -6.907055,-1.728783 -5.50211,-3.052108 -10.894274,-11.39692 -16.022804,-11.40217 -5.128508,-0.0063 -9.99692,8.332768 -15.438319,11.379616 -3.313315,1.85514 -6.803252,1.747147 -8.48206,1.698007 -0.0031,-7.3e-5 -0.0063,0 -0.0084,0 -0.414425,-0.01228 -0.750122,-0.02079 -0.906446,0.0063 C 7.284937,56.16959 6.7711491,51.759905 9.129424,47.594608 12.184376,42.198858 20.050095,37.225522 20.267246,32.000712 20.050588,26.775703 12.184439,21.804761 9.129424,16.408864 6.7711491,12.243577 7.284958,7.8317916 7.062231,7.1128046 c 0.788185,0.133297 5.25434,-0.61404 9.394659,1.704181 5.44141,3.0468274 10.311869,11.3848564 15.440367,11.3796064 5.128529,-0.0063 10.520704,-8.350072 16.022803,-11.4021604 2.564181,-1.42234 5.143839,-1.699078 6.907056,-1.728793 z" />
  </g>
</svg>
