<?xml version="1.0" encoding="UTF-8" standalone="no"?>
<svg
   xmlns:dc="http://purl.org/dc/elements/1.1/"
   xmlns:cc="http://creativecommons.org/ns#"
   xmlns:rdf="http://www.w3.org/1999/02/22-rdf-syntax-ns#"
   xmlns:svg="http://www.w3.org/2000/svg"
   xmlns="http://www.w3.org/2000/svg"
   xmlns:sodipodi="http://sodipodi.sourceforge.net/DTD/sodipodi-0.dtd"
   xmlns:inkscape="http://www.inkscape.org/namespaces/inkscape"
   width="64"
   height="64"
   viewBox="0 0 16.933333 16.933334"
   version="1.1"
   id="svg841"
   inkscape:version="1.0.2 (e86c870879, 2021-01-15)"
   sodipodi:docname="weather-showers-night-symbolic.svg">
  <defs
     id="defs835" />
  <sodipodi:namedview
     id="base"
     pagecolor="#c4c4c4"
     bordercolor="#666666"
     borderopacity="1.0"
     inkscape:pageopacity="0"
     inkscape:pageshadow="2"
     inkscape:zoom="6.4614065"
     inkscape:cx="31.6529"
     inkscape:cy="47.22444"
     inkscape:document-units="px"
     inkscape:current-layer="layer1"
     inkscape:document-rotation="0"
     showgrid="false"
     units="px"
     inkscape:window-width="2048"
     inkscape:window-height="1080"
     inkscape:window-x="0"
     inkscape:window-y="0"
     inkscape:window-maximized="1" />
  <metadata
     id="metadata838">
    <rdf:RDF>
      <cc:Work
         rdf:about="">
        <dc:format>image/svg+xml</dc:format>
        <dc:type
           rdf:resource="http://purl.org/dc/dcmitype/StillImage" />
        <dc:title />
      </cc:Work>
    </rdf:RDF>
  </metadata>
  <g
     inkscape:label="Layer 1"
     inkscape:groupmode="layer"
     id="layer1">
    <path
       id="rect868"
       style="opacity:0.6;fill:#808080;stroke-width:1.5875;stroke-linecap:round;stroke-linejoin:round;stroke-dashoffset:2.1875;fill-opacity:1"
       d="m 3.9207138,10.96025 c -0.23187,-0.0087 -0.4566703,0.119987 -0.5612062,0.344166 l -1.8448483,3.95636 c -0.1393809,0.298904 -0.011065,0.651787 0.2878376,0.791168 0.2989031,0.139382 0.6517853,0.01106 0.7911662,-0.287839 L 4.4385115,11.807228 C 4.5778924,11.508325 4.4495765,11.155441 4.1506739,11.01606 4.0759479,10.98122 3.9980038,10.96314 3.9207138,10.96025 Z m 2.3812497,0 c -0.2318699,-0.0087 -0.4566702,0.119987 -0.561206,0.344166 l -1.8448484,3.95636 c -0.1393809,0.298904 -0.011065,0.651787 0.2878377,0.791168 0.298903,0.139382 0.6517852,0.01106 0.7911661,-0.287839 L 6.8197613,11.807228 C 6.9591422,11.508325 6.8308263,11.155441 6.5319238,11.01606 6.4571978,10.98122 6.3792536,10.96314 6.3019635,10.96025 Z m 2.3812499,0 c -0.2318699,-0.0087 -0.4566702,0.119987 -0.561206,0.344166 l -1.8448486,3.95636 c -0.1393808,0.298904 -0.011065,0.651787 0.2878379,0.791168 0.298903,0.139382 0.6517852,0.01106 0.7911661,-0.287839 L 9.2010112,11.807228 C 9.3403922,11.508325 9.2120762,11.155441 8.9131736,11.01606 8.8384476,10.98122 8.7605035,10.96314 8.6832134,10.96025 Z m 2.3812496,0 c -0.23187,-0.0087 -0.45667,0.119987 -0.561206,0.344166 l -1.8448483,3.95636 c -0.1393808,0.298904 -0.011065,0.651787 0.2878378,0.791168 0.298903,0.139382 0.6517857,0.01106 0.7911656,-0.287839 L 11.58226,11.807228 c 0.139381,-0.298903 0.01106,-0.651787 -0.287837,-0.791168 -0.07473,-0.03484 -0.15267,-0.05292 -0.22996,-0.05581 z m 2.381249,0 c -0.23187,-0.0087 -0.45667,0.119987 -0.561206,0.344166 l -1.844847,3.95636 c -0.139381,0.298904 -0.01107,0.651787 0.287837,0.791168 0.298902,0.139382 0.651785,0.01106 0.791165,-0.287839 l 1.844849,-3.956877 c 0.139381,-0.298903 0.01107,-0.651787 -0.287837,-0.791168 -0.07473,-0.03484 -0.152671,-0.05292 -0.229961,-0.05581 z" />
    <path
       id="path842-3-36-3-2-5-9"
       style="fill:#808080;fill-opacity:1;stroke:none;stroke-width:0;stroke-linecap:round;stroke-linejoin:round;stroke-miterlimit:4;stroke-dasharray:none;stroke-dashoffset:2.1875;opacity:0.45"
       d="m 6.4158037,0.82497084 a 3.1485418,3.1485418 0 0 0 -3.148536,3.14854196 3.1485418,3.1485418 0 0 0 0.136603,0.917153 c -0.98039,0.328435 -1.684079,1.250107 -1.684079,2.343836 0,1.370516 1.103334,2.473855 2.473848,2.473855 h 8.5460453 c 1.370514,0 2.473857,-1.103339 2.473857,-2.473855 0,-1.144117 -0.769752,-2.099426 -1.821133,-2.384686 a 2.2489583,2.2489583 0 0 0 0.02201,-0.312745 2.2489583,2.2489583 0 0 0 -2.248955,-2.248959 2.2489583,2.2489583 0 0 0 -1.7262573,0.80778 3.1485418,3.1485418 0 0 0 -3.023356,-2.27092096 z" />
  </g>
</svg>
