<?xml version="1.0" encoding="UTF-8" standalone="no"?>
<svg
   xmlns:dc="http://purl.org/dc/elements/1.1/"
   xmlns:cc="http://creativecommons.org/ns#"
   xmlns:rdf="http://www.w3.org/1999/02/22-rdf-syntax-ns#"
   xmlns:svg="http://www.w3.org/2000/svg"
   xmlns="http://www.w3.org/2000/svg"
   xmlns:xlink="http://www.w3.org/1999/xlink"
   xmlns:sodipodi="http://sodipodi.sourceforge.net/DTD/sodipodi-0.dtd"
   xmlns:inkscape="http://www.inkscape.org/namespaces/inkscape"
   width="64"
   height="64"
   viewBox="0 0 64 64"
   version="1.1"
   id="svg6374"
   inkscape:version="1.0.2 (e86c870879, 2021-01-15)"
   sodipodi:docname="applications-multimedia.svg">
  <defs
     id="defs6368">
    <linearGradient
       inkscape:collect="always"
       xlink:href="#linearGradient1142"
       id="linearGradient1144"
       x1="32.954777"
       y1="80.590294"
       x2="30.624084"
       y2="132.92216"
       gradientUnits="userSpaceOnUse"
       gradientTransform="translate(1.3760204,-74.922172)" />
    <linearGradient
       inkscape:collect="always"
       id="linearGradient1142">
      <stop
         style="stop-color:#e3e3e9;stop-opacity:1;"
         offset="0"
         id="stop1138" />
      <stop
         style="stop-color:#c6c6d2;stop-opacity:1"
         offset="1"
         id="stop1140" />
    </linearGradient>
  </defs>
  <sodipodi:namedview
     id="base"
     pagecolor="#cecece"
     bordercolor="#666666"
     borderopacity="1.0"
     inkscape:pageopacity="0"
     inkscape:pageshadow="2"
     inkscape:zoom="5.5639287"
     inkscape:cx="8.3100654"
     inkscape:cy="29.551801"
     inkscape:document-units="px"
     inkscape:current-layer="layer1"
     inkscape:document-rotation="0"
     showgrid="false"
     units="px"
     inkscape:window-width="1500"
     inkscape:window-height="970"
     inkscape:window-x="68"
     inkscape:window-y="56"
     inkscape:window-maximized="0" />
  <metadata
     id="metadata6371">
    <rdf:RDF>
      <cc:Work
         rdf:about="">
        <dc:format>image/svg+xml</dc:format>
        <dc:type
           rdf:resource="http://purl.org/dc/dcmitype/StillImage" />
        <dc:title></dc:title>
      </cc:Work>
    </rdf:RDF>
  </metadata>
  <g
     inkscape:label="Layer 1"
     inkscape:groupmode="layer"
     id="layer1">
    <path
       id="path2379-7-6-36-8-8-0"
       style="color:#000000;font-style:normal;font-variant:normal;font-weight:normal;font-stretch:normal;font-size:medium;line-height:normal;font-family:sans-serif;font-variant-ligatures:normal;font-variant-position:normal;font-variant-caps:normal;font-variant-numeric:normal;font-variant-alternates:normal;font-variant-east-asian:normal;font-feature-settings:normal;font-variation-settings:normal;text-indent:0;text-align:start;text-decoration:none;text-decoration-line:none;text-decoration-style:solid;text-decoration-color:#000000;letter-spacing:normal;word-spacing:normal;text-transform:none;writing-mode:lr-tb;direction:ltr;text-orientation:mixed;dominant-baseline:auto;baseline-shift:baseline;text-anchor:start;white-space:normal;shape-padding:0;shape-margin:0;inline-size:0;clip-rule:nonzero;display:inline;overflow:visible;visibility:visible;opacity:0.15;isolation:auto;mix-blend-mode:normal;color-interpolation:sRGB;color-interpolation-filters:linearRGB;solid-color:#000000;solid-opacity:1;vector-effect:none;fill:#0c0c0c;fill-opacity:1;fill-rule:nonzero;stroke:none;stroke-linecap:round;stroke-linejoin:round;stroke-miterlimit:4;stroke-dasharray:none;stroke-dashoffset:0;stroke-opacity:1;color-rendering:auto;image-rendering:auto;shape-rendering:auto;text-rendering:auto;enable-background:accumulate;stop-color:#000000"
       d="M 32,6.5 C 17.1001,6.5 5,18.600158 5,33.499988 c 0,14.89984 12.1001,27 27,27 14.8998,0 27,-12.10016 27,-27 C 59,18.600158 46.8998,6.5 32,6.5 Z m 0,2 c 13.8189,0 25,11.181038 25,24.999988 0,13.81896 -11.1811,25 -25,25 -13.819,0 -25.0000003,-11.18104 -25.0000003,-25 C 6.9999997,19.681038 18.181,8.5 32,8.5 Z" />
    <circle
       style="fill:url(#linearGradient1144);fill-opacity:1;stroke:none;stroke-width:1.81438;stroke-linecap:round;stroke-linejoin:round;stroke-miterlimit:4;stroke-dasharray:none;stroke-opacity:1"
       id="path2379-0-9-5-9"
       cx="31.99988"
       cy="32"
       r="26" />
    <path
       id="path2379-6-6-7-6-0"
       style="opacity:0.9;fill:#363645;fill-opacity:1;stroke:none;stroke-width:1.88416;stroke-linecap:round;stroke-linejoin:round;stroke-miterlimit:4;stroke-dasharray:none;stroke-opacity:1"
       d="M 31.972704,5.0000034 A 27,27 0 0 0 5,31.999998 a 27,27 0 0 0 27.000004,27 27,27 0 0 0 27,-27 27,27 0 0 0 -27,-26.9999946 27,27 0 0 0 -0.027,0 z m -0.08,1 a 26,26 0 0 1 0.1074,0 26,26 0 0 1 26,25.9999946 26,26 0 0 1 -26,26 26,26 0 0 1 -26.000004,-26 26,26 0 0 1 25.892604,-25.9999946 z" />
    <path
       id="rect1323-3-6-0-2-6"
       style="color:#000000;font-style:normal;font-variant:normal;font-weight:normal;font-stretch:normal;font-size:medium;line-height:normal;font-family:sans-serif;font-variant-ligatures:normal;font-variant-position:normal;font-variant-caps:normal;font-variant-numeric:normal;font-variant-alternates:normal;font-variant-east-asian:normal;font-feature-settings:normal;font-variation-settings:normal;text-indent:0;text-align:start;text-decoration:none;text-decoration-line:none;text-decoration-style:solid;text-decoration-color:#000000;letter-spacing:normal;word-spacing:normal;text-transform:none;writing-mode:lr-tb;direction:ltr;text-orientation:mixed;dominant-baseline:auto;baseline-shift:baseline;text-anchor:start;white-space:normal;shape-padding:0;shape-margin:0;inline-size:0;clip-rule:nonzero;display:inline;overflow:visible;visibility:visible;opacity:0.15;isolation:auto;mix-blend-mode:normal;color-interpolation:sRGB;color-interpolation-filters:linearRGB;solid-color:#000000;solid-opacity:1;vector-effect:none;fill:#2d2d39;fill-opacity:1;fill-rule:nonzero;stroke:none;stroke-width:0.659925;stroke-linecap:round;stroke-linejoin:round;stroke-miterlimit:4;stroke-dasharray:none;stroke-dashoffset:2.1875;stroke-opacity:1;color-rendering:auto;image-rendering:auto;shape-rendering:auto;text-rendering:auto;enable-background:accumulate;stop-color:#000000"
       d="m 24.006504,16.802017 a 0.65995639,0.66002213 0 0 0 -0.072,0.005 c -0.016,0.001 -0.061,0.003 -0.058,0.003 -0.047,0.001 -0.1062,0.002 -0.1779,0.008 -0.09,0.007 -0.1648,0.0193 -0.2204,0.0271 v -10e-4 c -0.028,0.004 -0.076,0.01 -0.1431,0.0219 -0.099,0.0176 -0.1872,0.0386 -0.2642,0.058 -0.01,0.001 -0.034,0.008 -0.076,0.0193 0,3.7e-4 0,6.6e-4 -0.01,0.001 0,6.6e-4 0,3.8e-4 -0.01,10e-4 -0.1,0.0277 -0.1945,0.0595 -0.2861,0.0928 -0.013,0.005 -0.027,0.01 -0.042,0.0154 -0.092,0.0347 -0.1798,0.0727 -0.2669,0.11344 v 0.001 10e-4 a 0.65995639,0.66002213 0 0 0 -0.059,0.0257 c -1.0931,0.53475 -1.8684,1.58348 -2.0699,2.82544 -0.025,0.10335 -0.05,0.22511 -0.05,0.23845 l 0.01,-0.0747 c -0.01,0.0732 -0.015,0.1577 -0.015,0.25135 l 0.01,-0.11472 c -0.02,0.11674 -0.02,0.20963 -0.02,0.27326 -10e-5,0.0155 0,0.0296 0,0.0361 v 25.342571 0.0374 c 0,0.14048 0.01,0.19362 0.01,0.15983 a 0.65995639,0.66002213 0 0 0 0.01,0.0748 c 0,0.008 0,0.0587 0.01,0.15209 0,0.13034 0.01,0.15399 0.01,0.0103 a 0.65995639,0.66002213 0 0 0 0.01,0.0889 c 0.1231,0.90162 0.5587,1.70301 1.1948,2.28922 0.093,0.0855 0.189,0.16541 0.2874,0.23976 0.095,0.072 0.1981,0.14423 0.308,0.21138 v -0.001 c 0.1031,0.0631 0.2095,0.12243 0.321,0.1766 0.1023,0.0497 0.2094,0.0972 0.3208,0.1392 a 0.65995639,0.66002213 0 0 0 0.013,0.005 c -0.01,-0.003 0.01,0.003 0.036,0.0129 0.089,0.0324 0.1839,0.0627 0.2835,0.0902 0.051,0.0144 0.084,0.0221 0.094,0.0245 0.076,0.0189 0.1581,0.0381 0.2486,0.0541 0.06,0.0109 0.1112,0.0174 0.1522,0.0232 0.062,0.009 0.126,0.0162 0.1933,0.0219 0.071,0.006 0.1399,0.009 0.2088,0.0116 0.013,5.3e-4 0.052,0.005 0.1199,0.005 0.099,0 0.1125,-0.003 0.04,-0.003 a 0.65995639,0.66002213 0 0 0 0.01,0 c 0.087,-6.6e-4 0.165,-0.007 0.2332,-0.0116 0.021,-0.001 0.07,-0.003 0.1483,-0.0116 v 10e-4 c 0.08,-0.009 0.1378,-0.021 0.1752,-0.0271 0.065,-0.0102 0.1436,-0.0208 0.2359,-0.0412 a 0.65995639,0.66002213 0 0 0 0.022,-0.007 0.65995639,0.66002213 0 0 0 0.067,-0.0206 c 0.01,-0.002 0.011,-0.002 0.015,-0.004 0.027,-0.0102 0.053,-0.02 0.099,-0.0464 v -0.001 c 0.3081,-0.0873 0.6106,-0.18951 0.8802,-0.34544 a 0.65995639,0.66002213 0 0 0 0.019,-0.0116 l 0.01,-0.004 21.6887,-12.52499 v 0.003 c 0.01,-0.002 0.01,-0.007 0.012,-0.009 l 0.019,-0.0116 a 0.65995639,0.66002213 0 0 0 0.011,-0.007 c 0,6.6e-4 -0.011,0.005 -0.015,0.007 0.011,-0.005 0.019,-0.01 0.026,-0.0129 a 0.65995639,0.66002213 0 0 0 0,-0.001 c 0.01,-0.003 0.024,-0.0116 0.024,-0.0116 0,0 0.016,-0.0143 0.019,-0.018 a 0.65995639,0.66002213 0 0 0 0.1107,-0.1057 c 0.4159,-0.24256 0.815,-0.5248 1.12,-0.91646 a 0.65995639,0.66002213 0 0 0 0,-10e-4 c 0.01,-0.005 0.026,-0.0308 0.054,-0.0683 l 0.01,-0.008 c 0.052,-0.0702 0.096,-0.13656 0.1341,-0.19592 a 0.65995639,0.66002213 0 0 0 0,-0.001 c 0.015,-0.0234 0.039,-0.0607 0.068,-0.10827 v -0.003 c -0.024,0.0389 -0.017,0.0339 0.03,-0.0426 a 0.65995639,0.66002213 0 0 0 0.01,-0.0142 c 0.048,-0.0843 0.063,-0.12355 0.059,-0.116 v -0.003 c 0.03,-0.0555 0.061,-0.11686 0.093,-0.18433 a 0.65995639,0.66002213 0 0 0 0.01,-0.009 c 0.027,-0.0589 0.042,-0.10102 0.053,-0.12504 a 0.65995639,0.66002213 0 0 0 0.01,-0.0116 c 0.019,-0.0461 0.048,-0.10994 0.077,-0.19463 a 0.65995639,0.66002213 0 0 0 0,-10e-4 c 0.02,-0.0569 0.04,-0.11594 0.058,-0.17789 a 0.65995639,0.66002213 0 0 0 0,-0.008 c 0.01,-0.0325 0.028,-0.0914 0.046,-0.16885 0.017,-0.0705 0.028,-0.12738 0.038,-0.17015 a 0.65995639,0.66002213 0 0 0 0,-0.005 c 0.01,-0.0465 0.022,-0.10992 0.035,-0.19206 a 0.65995639,0.66002213 0 0 0 0,-0.004 c 0.012,-0.084 0.014,-0.13024 0.016,-0.15209 v -0.0103 c 0.013,-0.091 0.013,-0.14212 0.013,-0.14179 v -0.005 c 0.012,-0.10315 0.011,-0.18338 0.011,-0.23588 0,-0.0428 0,-0.12134 -0.011,-0.20753 -0.01,-0.0732 -0.01,-0.14197 -0.012,-0.16757 a 0.65995639,0.66002213 0 0 0 0,-0.005 c 0,-0.0209 -0.01,-0.0761 -0.016,-0.16628 a 0.65995639,0.66002213 0 0 0 0,-10e-4 c -0.011,-0.075 -0.022,-0.13594 -0.032,-0.18693 v -0.0103 c -0.01,-0.0536 -0.022,-0.10988 -0.036,-0.17014 a 0.65995639,0.66002213 0 0 0 0,-10e-4 c -0.019,-0.0774 -0.038,-0.13434 -0.049,-0.17143 a 0.65995639,0.66002213 0 0 0 0,-0.003 c -0.015,-0.0517 -0.034,-0.11573 -0.061,-0.18819 v -10e-4 c -0.024,-0.0686 -0.048,-0.12574 -0.067,-0.17272 a 0.65995639,0.66002213 0 0 0 -0.01,-0.009 c -0.017,-0.0404 -0.038,-0.0918 -0.067,-0.15339 v -0.003 c -0.034,-0.0731 -0.066,-0.1337 -0.091,-0.18174 a 0.65995639,0.66002213 0 0 0 0,-0.001 c 0,-0.005 -0.023,-0.0475 -0.054,-0.10312 v -0.003 c -0.042,-0.0751 -0.058,-0.0945 -0.036,-0.058 v -0.001 c -0.029,-0.0487 -0.059,-0.0948 -0.089,-0.13922 v -0.005 c -0.03,-0.0463 -0.07,-0.10664 -0.1251,-0.18045 a 0.65995639,0.66002213 0 0 0 0,-0.003 c -0.034,-0.0445 -0.045,-0.0556 -0.047,-0.058 l -0.01,-0.0103 c -0.058,-0.0744 -0.1209,-0.15143 -0.192,-0.22944 a 0.65995639,0.66002213 0 0 0 0,-0.001 c -0.3168,-0.34616 -0.6904,-0.62433 -1.0956,-0.82881 l 0.034,0.0168 -21.7905,-12.580401 c -0.2637,-0.15253 -0.5592,-0.25523 -0.8623,-0.34029 l -0.097,-0.0361 c -0.026,-0.0114 -0.058,-0.0249 -0.066,-0.0284 0,3.8e-4 0.024,0.0111 0.043,0.0206 l -0.02,-0.008 c -0.018,-0.009 -0.036,-0.0174 -0.055,-0.0219 0,-6.3e-4 -0.01,-0.002 -0.01,-0.003 -0.01,-6.6e-4 -0.01,-0.003 -0.011,-0.004 v 0.003 l -0.011,-0.004 c -0.013,-0.003 -0.022,-0.004 -0.035,-0.007 0,-4.8e-4 -0.01,-6.6e-4 -0.01,-0.001 0,-3.8e-4 -0.01,-6.6e-4 -0.01,-10e-4 0,-3.3e-4 -6e-4,2.8e-4 0,0 -0.074,-0.0151 -0.1471,-0.0298 -0.2153,-0.04 v 0 c -0.022,-0.003 -0.064,-0.0111 -0.1237,-0.018 h -0.01 c -0.08,-0.009 -0.1407,-0.0115 -0.1817,-0.0142 v 0 c -0.053,-0.004 -0.1212,-0.009 -0.2062,-0.0103 a 0.65995639,0.66002213 0 0 0 -0.01,0 c 0.028,0 0.018,-10e-4 -0.041,-10e-4 a 0.65995639,0.66002213 0 0 0 -0.01,0 z m 0.8713,0.10053 c 0.011,0.003 0.031,0.008 0.031,0.008 0,-4.1e-4 -0.01,-0.004 -0.01,-0.004 0,-10e-6 -0.015,-0.003 -0.022,-0.004 z m -0.8468,1.21938 c 3e-4,3.9e-4 -0.01,0.001 0.027,0.001 0.028,5.8e-4 0.069,0.003 0.1263,0.007 a 0.65995639,0.66002213 0 0 0 0,0.001 c 0.06,0.004 0.1014,0.006 0.1185,0.008 0.01,6.6e-4 0.032,0.006 0.08,0.0129 0.065,0.01 0.1244,0.0206 0.1765,0.0322 v -0.003 a 0.65995639,0.66002213 0 0 0 0.01,0.003 c 0.2498,0.0558 0.4842,0.14966 0.7024,0.27585 l 21.7906,12.580411 a 0.65995639,0.66002213 0 0 0 0.032,0.018 c 0.265,0.13376 0.5079,0.31468 0.7153,0.54137 0.041,0.0446 0.084,0.098 0.1302,0.15725 a 0.65995639,0.66002213 0 0 0 0.01,0.009 c 0.033,0.0411 0.043,0.0529 0.031,0.0373 0.017,0.0232 0.042,0.0618 0.08,0.11859 a 0.65995639,0.66002213 0 0 0 0.01,0.005 c 0.021,0.0309 0.04,0.0607 0.057,0.0889 a 0.65995639,0.66002213 0 0 0 0,10e-4 c 0.041,0.0682 0.043,0.0719 0.011,0.0129 a 0.65995639,0.66002213 0 0 0 0.01,0.0142 c -0.01,-0.007 0.01,0.0177 0.038,0.0761 0.027,0.0508 0.049,0.0919 0.062,0.11987 a 0.65995639,0.66002213 0 0 0 0,0.003 c 0.011,0.0244 0.026,0.0584 0.045,0.1057 0.019,0.047 0.035,0.0869 0.045,0.11601 a 0.65995639,0.66002213 0 0 0 0,0.004 c 0.01,0.0276 0.021,0.0645 0.036,0.11472 0.016,0.0568 0.029,0.0954 0.034,0.11472 0.01,0.034 0.015,0.0703 0.023,0.11214 a 0.65995639,0.66002213 0 0 0 0,0.0103 c 0.011,0.0509 0.017,0.0896 0.02,0.11472 0,0.016 0.01,0.0653 0.015,0.14952 0.01,0.0467 0.01,0.0715 0.01,0.0541 a 0.65995639,0.66002213 0 0 0 0.01,0.0838 c -4e-4,-0.003 0,0.0212 0,0.0786 0,0.0537 0,0.0788 0,0.0799 a 0.65995639,0.66002213 0 0 0 0,0.005 c -0.011,0.0959 -0.013,0.13544 -0.011,0.11859 a 0.65995639,0.66002213 0 0 0 0,0.0116 c -0.01,0.0844 -0.014,0.13211 -0.015,0.14565 -0.01,0.0261 -0.012,0.0663 -0.023,0.12504 -0.011,0.0502 -0.018,0.089 -0.024,0.11342 a 0.65995639,0.66002213 0 0 0 0,0.0129 c 0,0.0119 -0.014,0.0506 -0.032,0.11344 -0.01,0.0338 -0.022,0.0681 -0.035,0.10569 -0.01,0.0246 -0.028,0.0678 -0.05,0.12245 -0.022,0.0523 -0.036,0.0877 -0.044,0.10441 -0.017,0.036 -0.037,0.0756 -0.061,0.11988 a 0.65995639,0.66002213 0 0 0 0,0.001 c -0.035,0.0657 -0.038,0.0777 -0.032,0.0683 0.019,-0.0323 0.019,-0.0357 -0.024,0.0348 a 0.65995639,0.66002213 0 0 0 0,0.003 c -0.01,0.0154 -0.027,0.0442 -0.053,0.0838 -0.034,0.0518 -0.063,0.0959 -0.089,0.13018 a 0.65995639,0.66002213 0 0 0 -0.01,0.007 c 0.01,-0.005 -0.01,0.0101 -0.032,0.0412 v 0 10e-4 c -0.2417,0.30995 -0.5387,0.54931 -0.8672,0.71022 a 0.65995639,0.66002213 0 0 0 -0.045,0.0245 0.65995639,0.66002213 0 0 0 0,10e-4 c 0,3.2e-4 -0.01,10e-4 -0.01,10e-4 l 0.01,-0.005 -21.7313,12.5481 a 0.65995639,0.66002213 0 0 0 -0.016,0.0103 c -0.2152,0.12443 -0.447,0.21716 -0.6947,0.27327 a 0.65995639,0.66002213 0 0 0 -0.022,0.007 c -0.036,0.008 -0.085,0.0156 -0.1494,0.0258 -0.059,0.009 -0.097,0.0164 -0.1122,0.018 0,2.6e-4 -0.037,0.002 -0.098,0.007 -0.059,0.004 -0.1069,0.007 -0.147,0.008 -0.067,5.1e-4 -0.098,0.003 -0.035,0.003 0.01,0 -0.014,-0.002 -0.063,-0.004 a 0.65995639,0.66002213 0 0 0 -0.01,0 c -0.052,-0.001 -0.1025,-0.005 -0.1508,-0.009 v 10e-4 c -0.041,-0.003 -0.082,-0.009 -0.1263,-0.0154 v 10e-4 c -0.044,-0.006 -0.077,-0.0113 -0.1005,-0.0154 -0.05,-0.009 -0.102,-0.0211 -0.1624,-0.0361 v 0 c -0.041,-0.0102 -0.062,-0.0154 -0.058,-0.0142 a 0.65995639,0.66002213 0 0 0 -0.01,-10e-4 c -0.061,-0.0167 -0.1236,-0.0366 -0.1894,-0.0606 a 0.65995639,0.66002213 0 0 0 -0.01,-0.003 c 0.01,10e-4 -0.012,-0.004 -0.022,-0.008 l -0.01,-0.003 c -0.01,-10e-4 0,-6.5e-4 -0.01,-0.003 -0.065,-0.0249 -0.1305,-0.0546 -0.1959,-0.0864 v 0 c -0.071,-0.0346 -0.1399,-0.0725 -0.2088,-0.11471 -0.065,-0.0402 -0.133,-0.0865 -0.201,-0.13793 -0.067,-0.0505 -0.129,-0.10264 -0.1882,-0.15725 -0.4121,-0.37978 -0.6923,-0.8925 -0.7772,-1.47588 0,-0.10989 -0.01,-0.13045 -0.01,0.005 a 0.65995639,0.66002213 0 0 0 0,-0.0541 c 0,-0.0209 -6e-4,-0.0869 -0.013,-0.19464 l 0.01,0.0748 c 0,-0.14045 -0.011,-0.19381 -0.011,-0.15983 v -0.0374 -25.342571 -0.0296 a 0.65995639,0.66002213 0 0 0 0,-0.007 c 0,-0.0416 0,-0.0565 0,-0.0451 a 0.65995639,0.66002213 0 0 0 0.011,-0.11343 c 0,-0.0247 0,-0.0583 0.01,-0.10054 2e-4,-0.001 0,-0.001 0,-0.003 a 0.65995639,0.66002213 0 0 0 0.01,-0.0438 c 0.1142,-0.84615 0.6433,-1.5484 1.3777,-1.90768 a 0.65995639,0.66002213 0 0 0 0.013,-0.007 c 0.066,-0.0319 0.1336,-0.0609 0.2011,-0.0864 a 0.65995639,0.66002213 0 0 0 0.012,-0.005 c -6e-4,1.8e-4 0,-4.2e-4 0.01,-10e-4 a 0.65995639,0.66002213 0 0 0 0,-0.001 0.65995639,0.66002213 0 0 0 0.01,-0.003 c 0.066,-0.024 0.1305,-0.0459 0.1933,-0.0632 a 0.65995639,0.66002213 0 0 0 0.011,-0.003 c -0.012,0.003 -2e-4,3.7e-4 0.038,-0.009 0.068,-0.0171 0.1251,-0.03 0.174,-0.0387 a 0.65995639,0.66002213 0 0 0 0,-10e-4 c 0.01,-0.002 0.04,-0.005 0.089,-0.0116 0.063,-0.009 0.1089,-0.0158 0.1393,-0.018 a 0.65995639,0.66002213 0 0 0 0.01,0 c 0.025,-0.002 0.063,-0.004 0.1134,-0.005 a 0.65995639,0.66002213 0 0 0 0.01,0 c 0.083,-0.003 0.1111,-0.005 0.09,-0.005 a 0.65995639,0.66002213 0 0 0 0.018,-0.001 z m 0.6818,30.279341 c -0.019,0 -0.044,6.6e-4 -0.072,0.004 0,-2.7e-4 0.01,-10e-4 0.01,-10e-4 z m -0.6406,0.56329 a 0.65995639,0.66002213 0 0 0 -0.01,0.0554 c 2e-4,-0.007 0,-0.0168 0,-0.0168 z m 0.6534,0.0928 c 0,0 0.01,-1e-5 0.01,0 v 10e-4 c 0,-10e-6 0,-10e-4 0,-10e-4 z m 0.1173,0.64449 c -0.02,0.005 -0.037,0.0115 -0.047,0.0129 -0.01,5.4e-4 -0.01,6.6e-4 -0.01,10e-4 0.022,-0.003 0.038,-0.0103 0.057,-0.0142 z" />
    <path
       id="path2379-7-6-36-8-8"
       style="color:#000000;font-style:normal;font-variant:normal;font-weight:normal;font-stretch:normal;font-size:medium;line-height:normal;font-family:sans-serif;font-variant-ligatures:normal;font-variant-position:normal;font-variant-caps:normal;font-variant-numeric:normal;font-variant-alternates:normal;font-variant-east-asian:normal;font-feature-settings:normal;font-variation-settings:normal;text-indent:0;text-align:start;text-decoration:none;text-decoration-line:none;text-decoration-style:solid;text-decoration-color:#000000;letter-spacing:normal;word-spacing:normal;text-transform:none;writing-mode:lr-tb;direction:ltr;text-orientation:mixed;dominant-baseline:auto;baseline-shift:baseline;text-anchor:start;white-space:normal;shape-padding:0;shape-margin:0;inline-size:0;clip-rule:nonzero;display:inline;overflow:visible;visibility:visible;opacity:0.15;isolation:auto;mix-blend-mode:normal;color-interpolation:sRGB;color-interpolation-filters:linearRGB;solid-color:#000000;solid-opacity:1;vector-effect:none;fill:#363645;fill-opacity:1;fill-rule:nonzero;stroke:none;stroke-linecap:round;stroke-linejoin:round;stroke-miterlimit:4;stroke-dasharray:none;stroke-dashoffset:0;stroke-opacity:1;color-rendering:auto;image-rendering:auto;shape-rendering:auto;text-rendering:auto;enable-background:accumulate;stop-color:#000000"
       d="M 32.000004,5.0000034 C 17.1001,5.0000034 5,17.100163 5,31.999998 c 0,14.89984 12.1001,27 27.000004,27 14.8998,0 27,-12.10016 27,-27 0,-14.899835 -12.1002,-26.9999946 -27,-26.9999946 z m 0,2 c 13.8189,0 25,11.1810396 25,24.9999946 0,13.81896 -11.1811,25 -25,25 -13.819004,0 -25.0000043,-11.18104 -25.0000043,-25 0,-13.818955 11.1810003,-24.9999946 25.0000043,-24.9999946 z" />
    <path
       id="rect1323-3-4-9"
       style="fill:#fdfcfb;fill-opacity:1;stroke:none;stroke-width:1.31964;stroke-linecap:round;stroke-linejoin:round;stroke-miterlimit:4;stroke-dasharray:none;stroke-dashoffset:2.1875;stroke-opacity:1"
       d="m 24.012504,16.160643 v 0.001 c -0.038,0 -0.075,0.005 -0.1134,0.007 -0.049,0.001 -0.099,0.003 -0.1481,0.007 -0.061,0.005 -0.1217,0.0135 -0.1817,0.0219 -0.038,0.005 -0.078,0.01 -0.116,0.0168 -0.075,0.0132 -0.1474,0.0306 -0.2202,0.049 -0.021,0.005 -0.042,0.01 -0.062,0.0154 -0.083,0.0228 -0.1647,0.0494 -0.2448,0.0786 -0.012,0.004 -0.024,0.008 -0.035,0.0129 -0.087,0.0327 -0.1722,0.0696 -0.2551,0.10957 -0.01,0.003 -0.01,0.005 -0.016,0.008 -0.9282,0.45426 -1.5967,1.3467 -1.7406,2.41308 -0.01,0.0193 -0.01,0.0387 -0.01,0.058 -0.01,0.0585 -0.011,0.11713 -0.011,0.17659 -0.01,0.0527 -0.011,0.10596 -0.011,0.15856 -2e-4,0.0125 0,0.0236 0,0.0361 v 25.343795 0.0374 c 0,0.0533 0.011,0.10651 0.011,0.15984 0.01,0.0581 0.01,0.11687 0.011,0.17403 0,0.0214 0.01,0.0418 0.01,0.0632 0.102,0.74723 0.4617,1.40812 0.9882,1.89359 0.076,0.0702 0.1556,0.13601 0.2384,0.19851 0.082,0.0617 0.1661,0.12037 0.2537,0.17402 0.086,0.0527 0.174,0.10118 0.2655,0.14566 0.086,0.0418 0.1751,0.0807 0.2654,0.11473 0.011,0.004 0.024,0.009 0.035,0.0129 0.079,0.0286 0.1584,0.0549 0.2396,0.0773 0.026,0.007 0.052,0.0127 0.079,0.0193 0.069,0.0171 0.1369,0.0327 0.2074,0.0452 0.042,0.008 0.084,0.0134 0.1263,0.0193 0.053,0.007 0.1057,0.0134 0.1598,0.018 0.061,0.005 0.1216,0.008 0.183,0.0103 0.03,10e-4 0.061,0.004 0.091,0.004 0.013,0 0.027,-0.003 0.04,-0.003 0.064,-5.3e-4 0.1267,-0.005 0.1907,-0.009 0.041,-0.003 0.083,-0.005 0.1237,-0.009 0.048,-0.005 0.096,-0.0142 0.1443,-0.0219 0.066,-0.0104 0.1312,-0.0205 0.1958,-0.0348 0,0 -3e-4,-10e-4 0.01,-10e-4 0.01,-6.6e-4 0.012,-0.003 0.012,-0.004 0.3139,-0.0712 0.6083,-0.18905 0.8786,-0.34547 l 0.016,-0.0103 21.7236,-12.5488 c 0,-6.6e-4 0.01,-6e-4 0.01,-0.001 0.4207,-0.20604 0.796,-0.51083 1.0978,-0.89845 0.015,-0.0196 0.032,-0.0393 0.046,-0.0593 0.04,-0.054 0.078,-0.11042 0.1147,-0.16758 0.02,-0.0318 0.042,-0.0642 0.062,-0.0967 0.01,-0.015 0.021,-0.0274 0.03,-0.0425 0.019,-0.0321 0.032,-0.0656 0.049,-0.098 0.028,-0.0519 0.055,-0.10401 0.08,-0.15727 0.017,-0.0378 0.032,-0.0766 0.049,-0.11472 0.022,-0.0546 0.046,-0.10923 0.066,-0.165 0.017,-0.0486 0.033,-0.0966 0.047,-0.14566 0.014,-0.0489 0.03,-0.0987 0.041,-0.14824 0.012,-0.048 0.021,-0.0961 0.031,-0.14437 0.01,-0.0535 0.022,-0.10579 0.03,-0.15984 0.01,-0.0516 0.01,-0.10308 0.016,-0.15469 0.01,-0.0457 0.01,-0.092 0.012,-0.13792 0.01,-0.0538 0.01,-0.10747 0.01,-0.16113 0,-0.0542 4e-4,-0.10804 -0.01,-0.16242 0,-0.0452 -0.01,-0.0903 -0.012,-0.13535 -0.01,-0.0529 -0.01,-0.10569 -0.016,-0.15855 -0.01,-0.0521 -0.018,-0.10429 -0.028,-0.15598 -0.01,-0.0494 -0.019,-0.0978 -0.031,-0.14694 -0.012,-0.0486 -0.027,-0.0965 -0.041,-0.14438 -0.015,-0.0515 -0.03,-0.10238 -0.049,-0.15339 -0.018,-0.0501 -0.038,-0.1003 -0.058,-0.14954 -0.019,-0.0442 -0.036,-0.0878 -0.057,-0.13147 -0.024,-0.0514 -0.051,-0.10202 -0.077,-0.15211 -0.017,-0.0323 -0.032,-0.0648 -0.05,-0.0967 -0.01,-0.0133 -0.016,-0.0242 -0.024,-0.0374 -0.024,-0.0396 -0.049,-0.0787 -0.075,-0.11731 -0.034,-0.0521 -0.067,-0.10403 -0.1044,-0.1534 -0.014,-0.0183 -0.029,-0.0348 -0.043,-0.0529 -0.053,-0.0683 -0.1075,-0.13555 -0.1649,-0.19851 -0.262,-0.28645 -0.5694,-0.51665 -0.9045,-0.68577 l -21.7827,-12.580955 c -0.2731,-0.15798 -0.5701,-0.27709 -0.8877,-0.34804 0,-6.6e-4 -0.01,-5.9e-4 -0.01,-10e-4 -0.073,-0.0161 -0.147,-0.0289 -0.2216,-0.04 -0.035,-0.005 -0.069,-0.0115 -0.1043,-0.0154 -0.05,-0.006 -0.1025,-0.008 -0.1533,-0.0116 -0.057,-0.004 -0.114,-0.008 -0.1714,-0.009 -0.014,0 -0.028,-0.001 -0.041,-0.001 z" />
    <path
       id="rect1323-3-6-0-2"
       style="color:#000000;font-style:normal;font-variant:normal;font-weight:normal;font-stretch:normal;font-size:medium;line-height:normal;font-family:sans-serif;font-variant-ligatures:normal;font-variant-position:normal;font-variant-caps:normal;font-variant-numeric:normal;font-variant-alternates:normal;font-variant-east-asian:normal;font-feature-settings:normal;font-variation-settings:normal;text-indent:0;text-align:start;text-decoration:none;text-decoration-line:none;text-decoration-style:solid;text-decoration-color:#000000;letter-spacing:normal;word-spacing:normal;text-transform:none;writing-mode:lr-tb;direction:ltr;text-orientation:mixed;dominant-baseline:auto;baseline-shift:baseline;text-anchor:start;white-space:normal;shape-padding:0;shape-margin:0;inline-size:0;clip-rule:nonzero;display:inline;overflow:visible;visibility:visible;isolation:auto;mix-blend-mode:normal;color-interpolation:sRGB;color-interpolation-filters:linearRGB;solid-color:#000000;solid-opacity:1;vector-effect:none;fill:#363645;fill-opacity:1;fill-rule:nonzero;stroke:none;stroke-width:0.659925;stroke-linecap:round;stroke-linejoin:round;stroke-miterlimit:4;stroke-dasharray:none;stroke-dashoffset:2.1875;stroke-opacity:1;color-rendering:auto;image-rendering:auto;shape-rendering:auto;text-rendering:auto;enable-background:accumulate;stop-color:#000000"
       d="m 24.006504,15.502193 a 0.65995639,0.66002213 0 0 0 -0.072,0.005 c -0.016,0.001 -0.061,0.003 -0.058,0.003 -0.047,0.001 -0.1062,0.002 -0.1779,0.008 -0.09,0.007 -0.1648,0.0193 -0.2204,0.0271 v -10e-4 c -0.028,0.004 -0.076,0.01 -0.1431,0.0219 -0.099,0.0176 -0.1872,0.0386 -0.2642,0.058 -0.01,10e-4 -0.034,0.008 -0.076,0.0193 0,3.7e-4 0,6.6e-4 -0.01,0.001 0,6.6e-4 0,3.8e-4 -0.01,10e-4 -0.1,0.0277 -0.1945,0.0595 -0.2861,0.0928 -0.013,0.005 -0.027,0.01 -0.042,0.0154 -0.092,0.0347 -0.1798,0.0727 -0.2669,0.11344 v 10e-4 10e-4 a 0.65995639,0.66002213 0 0 0 -0.059,0.0257 c -1.0931,0.53475 -1.8684,1.58348 -2.0699,2.82544 -0.025,0.10335 -0.05,0.22511 -0.05,0.23845 l 0.01,-0.0747 c -0.01,0.0732 -0.015,0.1577 -0.015,0.25135 l 0.01,-0.11472 c -0.02,0.11674 -0.02,0.20963 -0.02,0.27326 -10e-5,0.0155 0,0.0296 0,0.0361 v 25.342575 0.0374 c 0,0.14048 0.01,0.19362 0.01,0.15983 a 0.65995639,0.66002213 0 0 0 0.01,0.0748 c 0,0.008 0,0.0587 0.01,0.15209 0,0.13034 0.01,0.15399 0.01,0.0103 a 0.65995639,0.66002213 0 0 0 0.01,0.0889 c 0.1231,0.90162 0.5587,1.70301 1.1948,2.28922 0.093,0.0855 0.189,0.16541 0.2874,0.23976 0.095,0.072 0.1981,0.14423 0.308,0.21138 v -10e-4 c 0.1031,0.0631 0.2095,0.12243 0.321,0.1766 0.1023,0.0497 0.2094,0.0972 0.3208,0.1392 a 0.65995639,0.66002213 0 0 0 0.013,0.005 c -0.01,-0.003 0.01,0.003 0.036,0.0129 0.089,0.0324 0.1839,0.0627 0.2835,0.0902 0.051,0.0144 0.084,0.0221 0.094,0.0245 0.076,0.0189 0.1581,0.0381 0.2486,0.0541 0.06,0.0109 0.1112,0.0174 0.1522,0.0232 0.062,0.009 0.126,0.0162 0.1933,0.0219 0.071,0.006 0.1399,0.009 0.2088,0.0116 0.013,5.3e-4 0.052,0.005 0.1199,0.005 0.099,0 0.1125,-0.003 0.04,-0.003 a 0.65995639,0.66002213 0 0 0 0.01,0 c 0.087,-6.6e-4 0.165,-0.007 0.2332,-0.0116 0.021,-10e-4 0.07,-0.003 0.1483,-0.0116 v 0.001 c 0.08,-0.009 0.1378,-0.021 0.1752,-0.0271 0.065,-0.0102 0.1436,-0.0208 0.2359,-0.0412 a 0.65995639,0.66002213 0 0 0 0.022,-0.007 0.65995639,0.66002213 0 0 0 0.067,-0.0206 c 0.01,-0.002 0.011,-0.002 0.015,-0.004 0.027,-0.0102 0.053,-0.02 0.099,-0.0464 v -10e-4 c 0.3081,-0.0873 0.6106,-0.18951 0.8802,-0.34544 a 0.65995639,0.66002213 0 0 0 0.019,-0.0116 l 0.01,-0.004 21.6887,-12.52499 v 0.003 c 0.01,-0.002 0.01,-0.007 0.012,-0.009 l 0.019,-0.0116 a 0.65995639,0.66002213 0 0 0 0.011,-0.007 c 0,6.6e-4 -0.011,0.005 -0.015,0.007 0.011,-0.005 0.019,-0.01 0.026,-0.0129 a 0.65995639,0.66002213 0 0 0 0,-10e-4 c 0.01,-0.003 0.024,-0.0116 0.024,-0.0116 0,0 0.016,-0.0143 0.019,-0.018 a 0.65995639,0.66002213 0 0 0 0.1107,-0.1057 c 0.4159,-0.24256 0.815,-0.5248 1.12,-0.91646 a 0.65995639,0.66002213 0 0 0 0,-10e-4 c 0.01,-0.005 0.026,-0.0308 0.054,-0.0683 l 0.01,-0.008 c 0.052,-0.0702 0.096,-0.13656 0.1341,-0.19592 a 0.65995639,0.66002213 0 0 0 0,-10e-4 c 0.015,-0.0234 0.039,-0.0607 0.068,-0.10827 v -0.003 c -0.024,0.0389 -0.017,0.0339 0.03,-0.0426 a 0.65995639,0.66002213 0 0 0 0.01,-0.0142 c 0.048,-0.0843 0.063,-0.12355 0.059,-0.116 v -0.003 c 0.03,-0.0555 0.061,-0.11686 0.093,-0.18433 a 0.65995639,0.66002213 0 0 0 0.01,-0.009 c 0.027,-0.0589 0.042,-0.10102 0.053,-0.12504 a 0.65995639,0.66002213 0 0 0 0.01,-0.0116 c 0.019,-0.0461 0.048,-0.10994 0.077,-0.19463 a 0.65995639,0.66002213 0 0 0 0,-10e-4 c 0.02,-0.0569 0.04,-0.11594 0.058,-0.17789 a 0.65995639,0.66002213 0 0 0 0,-0.008 c 0.01,-0.0325 0.028,-0.0914 0.046,-0.16885 0.017,-0.0705 0.028,-0.12738 0.038,-0.17015 a 0.65995639,0.66002213 0 0 0 0,-0.005 c 0.01,-0.0465 0.022,-0.10992 0.035,-0.19206 a 0.65995639,0.66002213 0 0 0 0,-0.004 c 0.012,-0.084 0.014,-0.13024 0.016,-0.15209 v -0.0103 c 0.013,-0.091 0.013,-0.14212 0.013,-0.14179 v -0.005 c 0.012,-0.10315 0.011,-0.18338 0.011,-0.23588 0,-0.0428 0,-0.12134 -0.011,-0.20753 -0.01,-0.0732 -0.01,-0.14197 -0.012,-0.16757 a 0.65995639,0.66002213 0 0 0 0,-0.005 c 0,-0.0209 -0.01,-0.0761 -0.016,-0.16628 a 0.65995639,0.66002213 0 0 0 0,-0.001 c -0.011,-0.075 -0.022,-0.13594 -0.032,-0.18693 v -0.0103 c -0.01,-0.0536 -0.022,-0.10988 -0.036,-0.17014 a 0.65995639,0.66002213 0 0 0 0,-0.001 c -0.019,-0.0774 -0.038,-0.13434 -0.049,-0.17143 a 0.65995639,0.66002213 0 0 0 0,-0.003 c -0.015,-0.0517 -0.034,-0.11573 -0.061,-0.18819 v -0.001 c -0.024,-0.0686 -0.048,-0.12574 -0.067,-0.17272 a 0.65995639,0.66002213 0 0 0 -0.01,-0.009 c -0.017,-0.0404 -0.038,-0.0918 -0.067,-0.15339 v -0.003 c -0.034,-0.0731 -0.066,-0.1337 -0.091,-0.18174 a 0.65995639,0.66002213 0 0 0 0,-0.001 c 0,-0.005 -0.023,-0.0475 -0.054,-0.10312 v -0.003 c -0.042,-0.0751 -0.058,-0.0945 -0.036,-0.058 v -10e-4 c -0.029,-0.0487 -0.059,-0.0948 -0.089,-0.13922 v -0.005 c -0.03,-0.0463 -0.07,-0.10664 -0.1251,-0.18045 a 0.65995639,0.66002213 0 0 0 0,-0.003 c -0.034,-0.0445 -0.045,-0.0556 -0.047,-0.058 l -0.01,-0.0103 c -0.058,-0.0744 -0.1209,-0.15143 -0.192,-0.22944 a 0.65995639,0.66002213 0 0 0 0,-10e-4 c -0.3168,-0.34616 -0.6904,-0.62433 -1.0956,-0.82881 l 0.034,0.0168 -21.7905,-12.580405 c -0.2637,-0.15253 -0.5592,-0.25523 -0.8623,-0.34029 l -0.097,-0.0361 c -0.026,-0.0114 -0.058,-0.0249 -0.066,-0.0284 0,3.8e-4 0.024,0.0111 0.043,0.0206 l -0.02,-0.008 c -0.018,-0.009 -0.036,-0.0174 -0.055,-0.0219 0,-6.3e-4 -0.01,-0.002 -0.01,-0.003 -0.01,-6.6e-4 -0.01,-0.003 -0.011,-0.004 v 0.003 l -0.011,-0.004 c -0.013,-0.003 -0.022,-0.004 -0.035,-0.007 0,-4.8e-4 -0.01,-6.6e-4 -0.01,-10e-4 0,-3.8e-4 -0.01,-6.6e-4 -0.01,-10e-4 0,-3.3e-4 -6e-4,2.8e-4 0,0 -0.074,-0.0151 -0.1471,-0.0298 -0.2153,-0.04 v 0 c -0.022,-0.003 -0.064,-0.0111 -0.1237,-0.018 h -0.01 c -0.08,-0.009 -0.1407,-0.0115 -0.1817,-0.0142 v 0 c -0.053,-0.004 -0.1212,-0.009 -0.2062,-0.0103 a 0.65995639,0.66002213 0 0 0 -0.01,0 c 0.028,0 0.018,-10e-4 -0.041,-10e-4 a 0.65995639,0.66002213 0 0 0 -0.01,0 z m 0.8713,0.10053 c 0.011,0.003 0.031,0.008 0.031,0.008 0,-4.1e-4 -0.01,-0.004 -0.01,-0.004 0,-1e-5 -0.015,-0.003 -0.022,-0.004 z m -0.8468,1.21938 c 3e-4,3.9e-4 -0.01,0.001 0.027,0.001 0.028,5.8e-4 0.069,0.003 0.1263,0.007 a 0.65995639,0.66002213 0 0 0 0,10e-4 c 0.06,0.004 0.1014,0.006 0.1185,0.008 0.01,6.6e-4 0.032,0.006 0.08,0.0129 0.065,0.01 0.1244,0.0206 0.1765,0.0322 v -0.003 a 0.65995639,0.66002213 0 0 0 0.01,0.003 c 0.2498,0.0558 0.4842,0.14966 0.7024,0.27585 l 21.7906,12.580415 a 0.65995639,0.66002213 0 0 0 0.032,0.018 c 0.265,0.13376 0.5079,0.31468 0.7153,0.54137 0.041,0.0446 0.084,0.098 0.1302,0.15725 a 0.65995639,0.66002213 0 0 0 0.01,0.009 c 0.033,0.0411 0.043,0.0529 0.031,0.0373 0.017,0.0232 0.042,0.0618 0.08,0.11859 a 0.65995639,0.66002213 0 0 0 0.01,0.005 c 0.021,0.0309 0.04,0.0607 0.057,0.0889 a 0.65995639,0.66002213 0 0 0 0,0.001 c 0.041,0.0682 0.043,0.0719 0.011,0.0129 a 0.65995639,0.66002213 0 0 0 0.01,0.0142 c -0.01,-0.007 0.01,0.0177 0.038,0.0761 0.027,0.0508 0.049,0.0919 0.062,0.11987 a 0.65995639,0.66002213 0 0 0 0,0.003 c 0.011,0.0244 0.026,0.0584 0.045,0.1057 0.019,0.047 0.035,0.0869 0.045,0.11601 a 0.65995639,0.66002213 0 0 0 0,0.004 c 0.01,0.0276 0.021,0.0645 0.036,0.11472 0.016,0.0568 0.029,0.0954 0.034,0.11472 0.01,0.034 0.015,0.0703 0.023,0.11214 a 0.65995639,0.66002213 0 0 0 0,0.0103 c 0.011,0.0509 0.017,0.0896 0.02,0.11472 0,0.016 0.01,0.0653 0.015,0.14952 0.01,0.0467 0.01,0.0715 0.01,0.0541 a 0.65995639,0.66002213 0 0 0 0.01,0.0838 c -4e-4,-0.003 0,0.0212 0,0.0786 0,0.0537 0,0.0788 0,0.0799 a 0.65995639,0.66002213 0 0 0 0,0.005 c -0.011,0.0959 -0.013,0.13544 -0.011,0.11859 a 0.65995639,0.66002213 0 0 0 0,0.0116 c -0.01,0.0844 -0.014,0.13211 -0.015,0.14565 -0.01,0.0261 -0.012,0.0663 -0.023,0.12504 -0.011,0.0502 -0.018,0.089 -0.024,0.11342 a 0.65995639,0.66002213 0 0 0 0,0.0129 c 0,0.0119 -0.014,0.0506 -0.032,0.11344 -0.01,0.0338 -0.022,0.0681 -0.035,0.10569 -0.01,0.0246 -0.028,0.0678 -0.05,0.12245 -0.022,0.0523 -0.036,0.0877 -0.044,0.10441 -0.017,0.036 -0.037,0.0756 -0.061,0.11988 a 0.65995639,0.66002213 0 0 0 0,10e-4 c -0.035,0.0657 -0.038,0.0777 -0.032,0.0683 0.019,-0.0323 0.019,-0.0357 -0.024,0.0348 a 0.65995639,0.66002213 0 0 0 0,0.003 c -0.01,0.0154 -0.027,0.0442 -0.053,0.0838 -0.034,0.0518 -0.063,0.0959 -0.089,0.13018 a 0.65995639,0.66002213 0 0 0 -0.01,0.007 c 0.01,-0.005 -0.01,0.0101 -0.032,0.0412 v 0 0.001 c -0.2417,0.30995 -0.5387,0.54931 -0.8672,0.71022 a 0.65995639,0.66002213 0 0 0 -0.045,0.0245 0.65995639,0.66002213 0 0 0 0,0.001 c 0,3.2e-4 -0.01,10e-4 -0.01,10e-4 l 0.01,-0.005 -21.7313,12.5481 a 0.65995639,0.66002213 0 0 0 -0.016,0.0103 c -0.2152,0.12443 -0.447,0.21716 -0.6947,0.27327 a 0.65995639,0.66002213 0 0 0 -0.022,0.007 c -0.036,0.008 -0.085,0.0156 -0.1494,0.0258 -0.059,0.009 -0.097,0.0164 -0.1122,0.018 0,2.6e-4 -0.037,0.002 -0.098,0.007 -0.059,0.004 -0.1069,0.007 -0.147,0.008 -0.067,5.1e-4 -0.098,0.003 -0.035,0.003 0.01,0 -0.014,-0.002 -0.063,-0.004 a 0.65995639,0.66002213 0 0 0 -0.01,0 c -0.052,-10e-4 -0.1025,-0.005 -0.1508,-0.009 v 0.001 c -0.041,-0.003 -0.082,-0.009 -0.1263,-0.0154 v 10e-4 c -0.044,-0.006 -0.077,-0.0113 -0.1005,-0.0154 -0.05,-0.009 -0.102,-0.0211 -0.1624,-0.0361 v 0 c -0.041,-0.0102 -0.062,-0.0154 -0.058,-0.0142 a 0.65995639,0.66002213 0 0 0 -0.01,-0.001 c -0.061,-0.0167 -0.1236,-0.0366 -0.1894,-0.0606 a 0.65995639,0.66002213 0 0 0 -0.01,-0.003 c 0.01,10e-4 -0.012,-0.004 -0.022,-0.008 l -0.01,-0.003 c -0.01,-10e-4 0,-6.5e-4 -0.01,-0.003 -0.065,-0.0249 -0.1305,-0.0546 -0.1959,-0.0864 v 0 c -0.071,-0.0346 -0.1399,-0.0725 -0.2088,-0.11471 -0.065,-0.0402 -0.133,-0.0865 -0.201,-0.13793 -0.067,-0.0505 -0.129,-0.10264 -0.1882,-0.15725 -0.4121,-0.37978 -0.6923,-0.8925 -0.7772,-1.47588 0,-0.10989 -0.01,-0.13045 -0.01,0.005 a 0.65995639,0.66002213 0 0 0 0,-0.0541 c 0,-0.0209 -6e-4,-0.0869 -0.013,-0.19464 l 0.01,0.0748 c 0,-0.14045 -0.011,-0.19381 -0.011,-0.15983 v -0.0374 -25.342575 -0.0296 a 0.65995639,0.66002213 0 0 0 0,-0.007 c 0,-0.0416 0,-0.0565 0,-0.0451 a 0.65995639,0.66002213 0 0 0 0.011,-0.11343 c 0,-0.0247 0,-0.0583 0.01,-0.10054 2e-4,-0.001 0,-0.001 0,-0.003 a 0.65995639,0.66002213 0 0 0 0.01,-0.0438 c 0.1142,-0.84615 0.6433,-1.5484 1.3777,-1.90768 a 0.65995639,0.66002213 0 0 0 0.013,-0.007 c 0.066,-0.0319 0.1336,-0.0609 0.2011,-0.0864 a 0.65995639,0.66002213 0 0 0 0.012,-0.005 c -6e-4,1.8e-4 0,-4.2e-4 0.01,-0.001 a 0.65995639,0.66002213 0 0 0 0,-0.001 0.65995639,0.66002213 0 0 0 0.01,-0.003 c 0.066,-0.024 0.1305,-0.0459 0.1933,-0.0632 a 0.65995639,0.66002213 0 0 0 0.011,-0.003 c -0.012,0.003 -2e-4,3.7e-4 0.038,-0.009 0.068,-0.0171 0.1251,-0.03 0.174,-0.0387 a 0.65995639,0.66002213 0 0 0 0,-0.001 c 0.01,-0.002 0.04,-0.005 0.089,-0.0116 0.063,-0.009 0.1089,-0.0158 0.1393,-0.018 a 0.65995639,0.66002213 0 0 0 0.01,0 c 0.025,-0.002 0.063,-0.004 0.1134,-0.005 a 0.65995639,0.66002213 0 0 0 0.01,0 c 0.083,-0.003 0.1111,-0.005 0.09,-0.005 a 0.65995639,0.66002213 0 0 0 0.018,-0.001 z m 0.6818,30.279345 c -0.019,0 -0.044,6.6e-4 -0.072,0.004 0,-2.7e-4 0.01,-0.001 0.01,-0.001 z m -0.6406,0.56329 a 0.65995639,0.66002213 0 0 0 -0.01,0.0554 c 2e-4,-0.007 0,-0.0168 0,-0.0168 z m 0.6534,0.0928 c 0,0 0.01,-10e-6 0.01,0 v 0.001 c 0,-1e-5 0,-0.001 0,-0.001 z m 0.1173,0.64449 c -0.02,0.005 -0.037,0.0115 -0.047,0.0129 -0.01,5.4e-4 -0.01,6.6e-4 -0.01,10e-4 0.022,-0.003 0.038,-0.0103 0.057,-0.0142 z" />
  </g>
</svg>
