<?xml version="1.0" encoding="UTF-8" standalone="no"?>
<svg
   xmlns:dc="http://purl.org/dc/elements/1.1/"
   xmlns:cc="http://creativecommons.org/ns#"
   xmlns:rdf="http://www.w3.org/1999/02/22-rdf-syntax-ns#"
   xmlns:svg="http://www.w3.org/2000/svg"
   xmlns="http://www.w3.org/2000/svg"
   xmlns:xlink="http://www.w3.org/1999/xlink"
   xmlns:sodipodi="http://sodipodi.sourceforge.net/DTD/sodipodi-0.dtd"
   xmlns:inkscape="http://www.inkscape.org/namespaces/inkscape"
   width="64"
   height="64"
   viewBox="0 0 64 64"
   version="1.1"
   id="svg6374"
   inkscape:version="1.0.2 (e86c870879, 2021-01-15)"
   sodipodi:docname="playlist-queue.svg">
  <defs
     id="defs6368">
    <linearGradient
       inkscape:collect="always"
       id="linearGradient3476-9">
      <stop
         style="stop-color:#bc6296;stop-opacity:1"
         offset="0"
         id="stop3472-3" />
      <stop
         style="stop-color:#b4508a;stop-opacity:1"
         offset="1"
         id="stop3474-7" />
    </linearGradient>
    <linearGradient
       inkscape:collect="always"
       xlink:href="#linearGradient3476-9"
       id="linearGradient4741-9"
       gradientUnits="userSpaceOnUse"
       gradientTransform="translate(7.4999799,2.50005)"
       x1="32"
       y1="16"
       x2="32"
       y2="58" />
  </defs>
  <sodipodi:namedview
     id="base"
     pagecolor="#cecece"
     bordercolor="#666666"
     borderopacity="1.0"
     inkscape:pageopacity="0"
     inkscape:pageshadow="2"
     inkscape:zoom="3.2406617"
     inkscape:cx="-7.5875934"
     inkscape:cy="84.099328"
     inkscape:document-units="px"
     inkscape:current-layer="layer1"
     inkscape:document-rotation="0"
     showgrid="false"
     units="px"
     inkscape:window-width="2048"
     inkscape:window-height="1080"
     inkscape:window-x="0"
     inkscape:window-y="0"
     inkscape:window-maximized="1" />
  <metadata
     id="metadata6371">
    <rdf:RDF>
      <cc:Work
         rdf:about="">
        <dc:format>image/svg+xml</dc:format>
        <dc:type
           rdf:resource="http://purl.org/dc/dcmitype/StillImage" />
        <dc:title />
      </cc:Work>
    </rdf:RDF>
  </metadata>
  <g
     inkscape:label="Layer 1"
     inkscape:groupmode="layer"
     id="layer1">
    <path
       id="rect1208-1-9-7-7-98-3-2-7-52-4-8-2-6-4-2-7-5-0"
       style="opacity:0.25;fill:#5a450c;fill-opacity:1;stroke-width:0;stroke-linecap:round;stroke-linejoin:round;stroke-dashoffset:2.1875"
       d="m 5.5,4.5 c -1.662,0 -3,1.338 -3,3 v 36 c 0,1.662 1.338,3 3,3 h 38 c 1.662,0 3,-1.338 3,-3 v -36 c 0,-1.662 -1.338,-3 -3,-3 z m 0,1.5 h 38 C 44.331,6 45,6.669 45,7.5 v 36 C 45,44.331 44.331,45 43.5,45 H 5.5 C 4.669,45 4,44.331 4,43.5 V 7.5 C 4,6.669 4.669,6 5.5,6 Z" />
    <rect
       style="fill:#e6ba42;fill-opacity:1;stroke-width:0;stroke-linecap:round;stroke-linejoin:round;stroke-dashoffset:2.1875"
       id="rect1208-1-9-7-7-98-3-2-7-52-4-9-7-6-6"
       width="44"
       height="42"
       x="2.5000005"
       y="3.5"
       rx="3"
       ry="3" />
    <path
       id="rect1208-1-9-7-7-98-3-2-7-52-4-8-2-6-4-2-7-2"
       style="opacity:0.9;fill:#7e6111;fill-opacity:1;stroke-width:0;stroke-linecap:round;stroke-linejoin:round;stroke-dashoffset:2.1875"
       d="m 5.5000099,3.50003 c -1.6619999,0 -2.9999999,1.338 -2.9999999,3 v 36 c 0,1.662 1.338,3 2.9999999,3 H 43.50001 c 1.662,0 3,-1.338 3,-3 v -36 c 0,-1.662 -1.338,-3 -3,-3 z m 0,1.5 H 43.50001 c 0.831,0 1.5,0.669 1.5,1.5 v 36 c 0,0.831 -0.669,1.5 -1.5,1.5 H 5.5000099 c -0.831,0 -1.4999999,-0.669 -1.4999999,-1.5 v -36 c 0,-0.831 0.6689999,-1.5 1.4999999,-1.5 z" />
    <path
       id="rect1208-1-9-7-7-98-3-2-7-52-4-8-2-6-4-0-5-6-7-6"
       style="opacity:0.25;fill:#1f3f47;fill-opacity:1;stroke-width:0;stroke-linecap:round;stroke-linejoin:round;stroke-dashoffset:2.1875"
       d="m 13,12 c -1.662,0 -3,1.338 -3,3 v 36 c 0,1.66199 1.338,3 3,3 h 38 c 1.662,0 3,-1.33801 3,-3 V 15 c 0,-1.662 -1.338,-3 -3,-3 z m 0,1.5 h 38 c 0.831,0 1.5,0.669 1.5,1.5 v 36 c 0,0.83099 -0.669,1.5 -1.5,1.5 H 13 c -0.831,0 -1.5,-0.66901 -1.5,-1.5 V 15 c 0,-0.831 0.669,-1.5 1.5,-1.5 z" />
    <rect
       style="fill:#64aab9;fill-opacity:1;stroke-width:0;stroke-linecap:round;stroke-linejoin:round;stroke-dashoffset:2.1875"
       id="rect1208-1-9-7-7-98-3-2-7-52-4-5-1-5-1"
       width="44"
       height="42"
       x="10"
       y="11"
       rx="3"
       ry="3" />
    <path
       id="rect1208-1-9-7-7-98-3-2-7-52-4-8-2-6-49-8-6-8"
       style="opacity:0.25;fill:#471f36;fill-opacity:1;stroke-width:0;stroke-linecap:round;stroke-linejoin:round;stroke-dashoffset:2.1875"
       d="m 20.5,19.5 c -1.662,0 -3,1.338 -3,3 v 36 c 0,1.662 1.338,3 3,3 h 38 c 1.662,0 3,-1.338 3,-3 v -36 c 0,-1.662 -1.338,-3 -3,-3 z m 0,1.5 h 38 c 0.831,0 1.5,0.669 1.5,1.5 v 36 c 0,0.831 -0.669,1.5 -1.5,1.5 h -38 C 19.669,60 19,59.331 19,58.5 v -36 C 19,21.669 19.669,21 20.5,21 Z" />
    <path
       id="rect1208-1-9-7-7-98-3-2-7-52-4-8-2-6-4-0-5-6-79"
       style="opacity:0.95;fill:#2c5863;fill-opacity:1;stroke-width:0;stroke-linecap:round;stroke-linejoin:round;stroke-dashoffset:2.1875"
       d="m 13.00001,11.00003 c -1.662,0 -3,1.338 -3,3 v 36 c 0,1.66199 1.338,3 3,3 h 38 c 1.662,0 3,-1.33801 3,-3 v -36 c 0,-1.662 -1.338,-3 -3,-3 z m 0,1.5 h 38 c 0.831,0 1.5,0.669 1.5,1.5 v 36 c 0,0.83099 -0.669,1.5 -1.5,1.5 h -38 c -0.831,0 -1.5,-0.66901 -1.5,-1.5 v -36 c 0,-0.831 0.669,-1.5 1.5,-1.5 z" />
    <rect
       style="fill:url(#linearGradient4741-9);fill-opacity:1;stroke-width:0;stroke-linecap:round;stroke-linejoin:round;stroke-dashoffset:2.1875"
       id="rect1208-1-9-7-7-98-3-2-7-52-9-9-2"
       width="44"
       height="42"
       x="17.5"
       y="18.5"
       rx="3"
       ry="3" />
    <path
       id="rect1208-1-9-7-7-98-3-2-7-52-4-8-2-6-49-8-0"
       style="opacity:0.9;fill:#642b4c;fill-opacity:1;stroke-width:0;stroke-linecap:round;stroke-linejoin:round;stroke-dashoffset:2.1875"
       d="m 20.50001,18.50003 c -1.662,0 -3,1.338 -3,3 v 36 c 0,1.662 1.338,3 3,3 h 38 c 1.662,0 3,-1.338 3,-3 v -36 c 0,-1.662 -1.338,-3 -3,-3 z m 0,1.5 h 38 c 0.831,0 1.5,0.669 1.5,1.5 v 36 c 0,0.831 -0.669,1.5 -1.5,1.5 h -38 c -0.831,0 -1.5,-0.669 -1.5,-1.5 v -36 c 0,-0.831 0.669,-1.5 1.5,-1.5 z" />
    <path
       id="rect1323-3-5-2-5-4-8-9"
       style="display:inline;opacity:0.25;fill:#562541;fill-opacity:1;stroke:none;stroke-width:1.0003;stroke-linecap:round;stroke-linejoin:round;stroke-miterlimit:4;stroke-dasharray:none;stroke-dashoffset:2.1875;stroke-opacity:1"
       d="m 33.175684,30 v 0.001 c -0.029,0 -0.057,0.004 -0.0861,0.005 -0.0375,0.001 -0.0748,0.002 -0.11237,0.005 -0.0465,0.003 -0.0923,0.0102 -0.13778,0.0166 -0.029,0.004 -0.0589,0.007 -0.088,0.0127 -0.0566,0.01 -0.11182,0.0232 -0.16705,0.0371 -0.016,0.004 -0.0315,0.007 -0.047,0.0117 -0.0629,0.0173 -0.12493,0.0375 -0.18567,0.0596 -0.009,0.003 -0.018,0.006 -0.0265,0.01 -0.0658,0.0248 -0.13063,0.0528 -0.19347,0.083 -0.005,0.002 -0.008,0.004 -0.0125,0.006 -0.704,0.34413 -1.21102,1.02022 -1.3202,1.82807 -0.007,0.0146 -0.007,0.0293 -0.007,0.0439 -0.005,0.0444 -0.009,0.0887 -0.009,0.13379 -0.007,0.0399 -0.008,0.0803 -0.008,0.12012 -10e-5,0.01 0,0.0179 0,0.0274 v 19.19965 0.0283 c 0,0.0404 0.008,0.0807 0.008,0.12109 0.005,0.044 0.005,0.0885 0.009,0.13183 0,0.0162 0.007,0.0317 0.007,0.0478 0.0774,0.56608 0.35018,1.06674 0.74953,1.43453 0.0577,0.0532 0.11798,0.10303 0.18077,0.15038 0.062,0.0468 0.12593,0.0912 0.19247,0.13182 0.0653,0.0399 0.13199,0.0767 0.20133,0.11036 0.0653,0.0317 0.13278,0.0611 0.20127,0.0869 0.009,0.003 0.018,0.007 0.0265,0.01 0.0595,0.0216 0.12013,0.0416 0.18171,0.0586 0.0195,0.005 0.0395,0.01 0.0596,0.0147 0.0521,0.013 0.10377,0.0247 0.1573,0.0342 0.0315,0.006 0.0638,0.0101 0.0958,0.0147 0.04,0.005 0.0802,0.0101 0.12117,0.0136 0.046,0.004 0.0923,0.006 0.1388,0.008 0.023,0.001 0.046,0.003 0.0693,0.003 0.01,0 0.0205,-0.002 0.0305,-0.002 0.0485,-4e-4 0.0962,-0.004 0.14464,-0.007 0.031,-0.002 0.0632,-0.004 0.0938,-0.007 0.0365,-0.004 0.0729,-0.0108 0.10942,-0.0166 0.0501,-0.008 0.0996,-0.0155 0.14854,-0.0263 0,0 -2e-4,-0.001 0.005,-0.001 0.005,-5e-4 0.009,-0.002 0.009,-0.003 0.23811,-0.0539 0.4614,-0.14322 0.66648,-0.26171 l 0.0125,-0.008 16.47633,-9.50656 c 0,-5e-4 0.006,-4.6e-4 0.006,-0.001 0.31905,-0.1561 0.60369,-0.38699 0.83258,-0.68065 0.0115,-0.0148 0.024,-0.0297 0.035,-0.0449 0.0305,-0.0409 0.0589,-0.0837 0.087,-0.12695 0.0155,-0.0241 0.032,-0.0487 0.047,-0.0732 0.007,-0.0113 0.0155,-0.0207 0.0225,-0.0322 0.014,-0.0243 0.024,-0.0496 0.037,-0.0742 0.021,-0.0393 0.0415,-0.0788 0.0606,-0.11914 0.013,-0.0287 0.0245,-0.058 0.037,-0.0869 0.017,-0.0414 0.035,-0.0828 0.05,-0.12499 0.013,-0.0369 0.025,-0.0732 0.036,-0.11035 0.0105,-0.0371 0.0225,-0.0747 0.031,-0.1123 0.009,-0.0364 0.016,-0.0728 0.0235,-0.10937 0.008,-0.0405 0.0165,-0.0802 0.0225,-0.1211 0.005,-0.0391 0.007,-0.0781 0.0125,-0.11717 0.005,-0.0346 0.005,-0.0697 0.009,-0.10449 0.005,-0.0408 0.005,-0.0814 0.005,-0.12207 0,-0.0411 3e-4,-0.0819 -0.005,-0.12305 0,-0.0343 -0.005,-0.0684 -0.009,-0.10253 -0.005,-0.0401 -0.007,-0.0801 -0.0125,-0.12011 -0.006,-0.0395 -0.0135,-0.079 -0.0215,-0.11817 -0.007,-0.0374 -0.0145,-0.0741 -0.0235,-0.11132 -0.009,-0.0368 -0.0205,-0.0731 -0.031,-0.10938 -0.0115,-0.039 -0.023,-0.0776 -0.037,-0.11619 -0.0135,-0.038 -0.029,-0.076 -0.044,-0.11329 -0.014,-0.0335 -0.0275,-0.0665 -0.043,-0.0996 -0.018,-0.0389 -0.0385,-0.0773 -0.0586,-0.11523 -0.013,-0.0245 -0.024,-0.0491 -0.038,-0.0732 -0.005,-0.0101 -0.0125,-0.0183 -0.0185,-0.0283 -0.018,-0.03 -0.037,-0.0596 -0.0566,-0.0889 -0.026,-0.0395 -0.0511,-0.0788 -0.0791,-0.11621 -0.0105,-0.0139 -0.022,-0.0263 -0.033,-0.0401 -0.04,-0.0518 -0.0815,-0.10269 -0.12507,-0.15038 -0.19873,-0.217 -0.43188,-0.3914 -0.68599,-0.51952 l -16.5212,-9.53098 c -0.20718,-0.11969 -0.43242,-0.20992 -0.67328,-0.26367 0,-5e-4 -0.006,-4.5e-4 -0.006,-0.001 -0.0552,-0.0122 -0.11152,-0.0218 -0.16805,-0.0302 -0.0265,-0.004 -0.0526,-0.009 -0.0791,-0.0117 -0.038,-0.005 -0.0778,-0.006 -0.11627,-0.009 -0.0435,-0.003 -0.0865,-0.006 -0.12998,-0.007 -0.0105,0 -0.0215,-10e-4 -0.031,-10e-4 z" />
    <path
       id="rect1323-3-5-4-7-6-7-7-3"
       style="color:#000000;font-style:normal;font-variant:normal;font-weight:normal;font-stretch:normal;font-size:medium;line-height:normal;font-family:sans-serif;font-variant-ligatures:normal;font-variant-position:normal;font-variant-caps:normal;font-variant-numeric:normal;font-variant-alternates:normal;font-variant-east-asian:normal;font-feature-settings:normal;font-variation-settings:normal;text-indent:0;text-align:start;text-decoration:none;text-decoration-line:none;text-decoration-style:solid;text-decoration-color:#000000;letter-spacing:normal;word-spacing:normal;text-transform:none;writing-mode:lr-tb;direction:ltr;text-orientation:mixed;dominant-baseline:auto;baseline-shift:baseline;text-anchor:start;white-space:normal;shape-padding:0;shape-margin:0;inline-size:0;clip-rule:nonzero;display:inline;overflow:visible;visibility:visible;opacity:0.75;isolation:auto;mix-blend-mode:normal;color-interpolation:sRGB;color-interpolation-filters:linearRGB;solid-color:#000000;solid-opacity:1;vector-effect:none;fill:#562541;fill-opacity:1;fill-rule:nonzero;stroke:none;stroke-width:0.999944;stroke-linecap:round;stroke-linejoin:round;stroke-miterlimit:4;stroke-dasharray:none;stroke-dashoffset:2.1875;stroke-opacity:1;color-rendering:auto;image-rendering:auto;shape-rendering:auto;text-rendering:auto;enable-background:accumulate;stop-color:#000000"
       d="m 32.665602,27.25105 a 0.75002665,0.75003959 0 0 0 -0.0723,0.006 c -4.6e-4,1.1e-4 -0.006,-8e-5 -0.006,0 -4.9e-4,3.4e-4 -0.0283,0.002 -0.0234,0.002 l 0.006,-0.002 c -0.0347,9.3e-4 -0.0837,0.004 -0.14062,0.008 -0.0919,0.006 -0.15593,0.0162 -0.19334,0.0215 -0.011,0.001 -0.0545,0.005 -0.12891,0.0195 -0.0789,0.0145 -0.14782,0.0325 -0.20505,0.0469 v -0.002 c 0.007,-0.002 -0.0266,0.008 -0.0625,0.0176 -0.0853,0.0234 -0.16721,0.0501 -0.24412,0.0781 -0.0149,0.005 -0.0385,0.0113 -0.0859,0.0332 -0.002,0.001 -0.002,8.7e-4 -0.004,0.002 -0.0518,0.0207 -0.10298,0.0417 -0.15234,0.0645 -0.069,0.0276 -0.0911,0.0407 -0.0391,0.0176 -0.003,0.001 -0.005,0.003 -0.008,0.004 a 0.75002665,0.75003959 0 0 0 -0.0156,0.008 c -0.89349,0.43676 -1.52335,1.29499 -1.6952,2.30654 -0.0221,0.10195 -0.0527,0.23071 -0.0527,0.24022 l 0.004,-0.084 c -0.006,0.0553 -0.0137,0.12734 -0.0137,0.21679 l 0.0117,-0.1289 c -0.0198,0.11279 -0.0195,0.19761 -0.0195,0.24998 -5e-5,0.0122 0,0.024 0,0.0273 v 19.19831 0.0273 c 0,0.1394 0.008,0.17972 0.008,0.12109 a 0.75002665,0.75003959 0 0 0 0.006,0.0859 c -10e-4,-0.0124 -0.002,0.0251 0.006,0.11522 l -0.002,-0.0684 c 0,0.23224 0.006,0.24816 0.006,0.0469 a 0.75002665,0.75003959 0 0 0 0.008,0.10156 c 0.10139,0.74158 0.4607,1.40244 0.9843,1.88468 0.0775,0.0715 0.15581,0.13654 0.23632,0.19726 0.0778,0.0587 0.16225,0.11787 0.25389,0.17382 0.0841,0.0514 0.17304,0.0996 0.26561,0.14452 0.084,0.0408 0.17135,0.0805 0.26366,0.11523 a 0.75002665,0.75003959 0 0 0 0.0273,0.01 c -0.0384,-0.0128 -0.0354,-0.0134 0.0137,0.004 0.072,0.026 0.14921,0.0512 0.2324,0.0742 a 0.75002665,0.75003959 0 0 0 0.0137,0.004 c 0.0225,0.006 0.0467,0.0131 0.0742,0.0195 l -0.01,-0.004 c 0.0626,0.0156 0.13093,0.0314 0.20701,0.0449 h -0.01 c 0.0624,0.0119 0.10513,0.0161 0.1289,0.0195 a 0.75002665,0.75003959 0 0 0 0.0137,0.002 c 0.0391,0.005 0.0893,0.0104 0.15039,0.0156 0.067,0.006 0.12362,0.01 0.16991,0.0117 10e-4,6e-5 0.0373,0.002 0.10351,0.002 0.10999,0 0.11929,-0.002 0.0293,-0.002 a 0.75002665,0.75003959 0 0 0 0.006,0 c 0.0816,-6.7e-4 0.14374,-0.005 0.18554,-0.008 a 0.75002665,0.75003959 0 0 0 0.002,0 c 0.0298,-0.002 0.0699,-0.005 0.11913,-0.01 a 0.75002665,0.75003959 0 0 0 0.008,0 c 0.0743,-0.008 0.1234,-0.0178 0.14647,-0.0215 0.0274,-0.004 0.0734,-0.0144 0.11329,-0.0215 0.023,-0.002 0.0499,-0.0134 0.0723,-0.0176 -0.0206,0.005 -0.034,0.0114 -0.0469,0.0137 0.0198,-0.004 0.0303,-0.005 0.0527,-0.01 a 0.75002665,0.75003959 0 0 0 0.0176,-0.004 0.75002665,0.75003959 0 0 0 0.004,-0.002 0.75002665,0.75003959 0 0 0 0.0606,-0.0176 c 0.005,-0.002 0.008,-1e-5 0.0137,-0.002 0.005,-0.002 0.0137,-0.008 0.0215,-0.0117 0.002,-8.5e-4 0.004,-0.001 0.006,-0.002 0.006,-0.002 0.009,-0.003 0.0156,-0.006 a 0.75002665,0.75003959 0 0 0 0.01,-0.006 0.75002665,0.75003959 0 0 0 0.0547,-0.0254 0.75002665,0.75003959 0 0 0 0.002,-0.002 c 0.23978,-0.0712 0.47887,-0.14787 0.6894,-0.26951 a 0.75002665,0.75003959 0 0 0 0.0273,-0.0176 l 16.42081,-9.47416 0.004,-0.004 0.0352,-0.0195 a 0.75002665,0.75003959 0 0 0 0.0234,-0.0156 c 0.006,-0.003 0.0254,-0.0117 0.0254,-0.0117 l -0.002,-0.002 a 0.75002665,0.75003959 0 0 0 0.16406,-0.15039 c 0.30823,-0.19344 0.61444,-0.39529 0.84369,-0.68942 a 0.75002665,0.75003959 0 0 0 0.002,-0.002 c -3.7e-4,4.8e-4 0.0174,-0.022 0.043,-0.0566 0.047,-0.063 0.0845,-0.11872 0.11522,-0.16601 a 0.75002665,0.75003959 0 0 0 0.002,-0.002 c 0.01,-0.0151 0.0282,-0.0442 0.0527,-0.084 l 0.002,-0.004 c -0.0263,0.0433 -0.0225,0.0455 0.0254,-0.0332 a 0.75002665,0.75003959 0 0 0 0.008,-0.0156 c 0.0474,-0.0822 0.0585,-0.11319 0.0488,-0.0957 l 0.002,-0.004 c 0.0233,-0.0437 0.05,-0.0931 0.0762,-0.14843 a 0.75002665,0.75003959 0 0 0 0.004,-0.0117 c 0.0236,-0.052 0.0373,-0.0844 0.043,-0.0977 a 0.75002665,0.75003959 0 0 0 0.006,-0.0137 c 0.0131,-0.0318 0.0359,-0.0835 0.0625,-0.15819 a 0.75002665,0.75003959 0 0 0 0,-0.002 c 0.0162,-0.0459 0.0334,-0.0945 0.0488,-0.14648 a 0.75002665,0.75003959 0 0 0 0.002,-0.01 c 0.005,-0.0186 0.0211,-0.0681 0.0371,-0.13476 l 0.002,-0.008 c 0.0137,-0.0564 0.0234,-0.102 0.0293,-0.13085 a 0.75002665,0.75003959 0 0 0 0,-0.006 c 0.006,-0.0328 0.0186,-0.0856 0.0293,-0.1582 a 0.75002665,0.75003959 0 0 0 0.002,-0.0137 c 0.01,-0.0764 0.0123,-0.11171 0.0117,-0.10742 l -0.002,0.002 c 0.0146,-0.10074 0.014,-0.13446 0.0117,-0.11913 v -0.006 c 0.0112,-0.0962 0.01,-0.16941 0.01,-0.20897 0,-0.0311 -5.4e-4,-0.10209 -0.008,-0.18163 -0.004,-0.0552 -0.008,-0.11723 -0.01,-0.13086 a 0.75002665,0.75003959 0 0 0 -0.002,-0.006 c -4.6e-4,-0.004 -0.002,-0.0464 -0.0137,-0.1289 a 0.75002665,0.75003959 0 0 0 0,-0.01 c -0.008,-0.0535 -0.0186,-0.10117 -0.0273,-0.14452 l -0.002,-0.0117 c -0.008,-0.0425 -0.0172,-0.0868 -0.0293,-0.13671 a 0.75002665,0.75003959 0 0 0 0,-0.002 c -0.017,-0.0694 -0.0321,-0.11648 -0.0391,-0.14061 a 0.75002665,0.75003959 0 0 0 -0.002,-0.004 c -0.0115,-0.0388 -0.0265,-0.092 -0.0488,-0.15429 v -0.002 c -0.021,-0.059 -0.0408,-0.10601 -0.0547,-0.14062 a 0.75002665,0.75003959 0 0 0 -0.004,-0.01 c -0.0123,-0.0295 -0.0297,-0.0714 -0.0547,-0.125 l -0.002,-0.002 c -0.0296,-0.0637 -0.0551,-0.11244 -0.0742,-0.14843 a 0.75002665,0.75003959 0 0 0 0,-0.002 c 0.001,0.002 -0.0192,-0.033 -0.0293,-0.0527 -0.0657,-0.13269 -0.0897,-0.15336 -0.0469,-0.082 -0.0258,-0.043 -0.0513,-0.084 -0.0762,-0.12108 l 0.002,0.006 c -0.0223,-0.0338 -0.0534,-0.0873 -0.10351,-0.15429 a 0.75002665,0.75003959 0 0 0 -0.004,-0.002 c -0.0337,-0.0447 -0.0395,-0.0506 -0.0371,-0.0469 l -0.008,-0.008 c -0.0466,-0.0601 -0.0962,-0.12368 -0.15624,-0.18945 a 0.75002665,0.75003959 0 0 0 -0.002,0 c -0.26087,-0.28488 -0.56661,-0.5153 -0.90033,-0.68356 l 0.0371,0.0195 -16.52042,-9.5308 v 0.002 c -0.23458,-0.13461 -0.49765,-0.22928 -0.76948,-0.30181 0.006,0.003 0.007,0.005 0.0137,0.008 l -0.0449,-0.0176 -0.041,-0.0234 c -5e-5,-1e-5 -0.0194,-0.004 -0.0293,-0.006 -0.005,-0.001 -0.009,-0.005 -0.0137,-0.006 l 0.002,0.004 0.002,0.002 -0.0117,-0.004 a 0.75002665,0.75003959 0 0 0 0,-0.002 c -0.0113,-0.003 -0.0202,-0.004 -0.0312,-0.006 -0.008,-0.002 -0.014,-0.002 -0.0215,-0.004 -0.002,-4.2e-4 -0.004,-10e-4 -0.006,-0.002 -0.007,-8.8e-4 -0.003,5.5e-4 -0.008,0 -0.0521,-0.01 -0.10415,-0.0224 -0.15038,-0.0293 h -0.002 c -0.007,-0.001 -0.0454,-0.008 -0.0918,-0.0137 l -0.0215,-0.002 c -0.0701,-0.008 -0.12495,-0.009 -0.13476,-0.01 a 0.75002665,0.75003959 0 0 0 -0.006,-0.002 c -0.0431,-0.003 -0.0994,-0.006 -0.166,-0.008 a 0.75002665,0.75003959 0 0 0 -0.0156,0 0.75002665,0.75003959 0 0 0 -0.0449,-0.002 z m 0.73237,0.0879 c 0.005,0.001 0.0118,0.003 0.0156,0.004 v 0.002 c -0.005,-0.001 -0.0101,-0.005 -0.0156,-0.006 z m -0.70308,1.41205 c 0.006,2.5e-4 -0.0135,0.002 0.0156,0.002 h -0.0176 c 0.0204,4.6e-4 0.0518,0.003 0.0957,0.006 l -0.008,-0.002 c 0.0656,0.005 0.0945,0.008 0.0781,0.006 a 0.75002665,0.75003959 0 0 0 0.0215,0.002 c -0.017,-0.002 -0.003,8.9e-4 0.043,0.008 a 0.75002665,0.75003959 0 0 0 0.002,0 c 0.046,0.007 0.0841,0.0146 0.11523,0.0215 l -0.004,-0.004 -0.008,-0.01 0.0137,0.002 a 0.75002665,0.75003959 0 0 0 0.004,0.01 0.75002665,0.75003959 0 0 0 0,0.002 c 0.16374,0.0366 0.31624,0.0981 0.46091,0.18163 l 16.52042,9.5308 a 0.75002665,0.75003959 0 0 0 0.0371,0.0195 c 0.17447,0.088 0.3341,0.20633 0.47067,0.35545 0.0244,0.0267 0.0521,0.0623 0.084,0.10351 a 0.75002665,0.75003959 0 0 0 0.008,0.008 c 0.0333,0.0418 0.0404,0.0505 0.0215,0.0254 0.006,0.009 0.0219,0.0323 0.0508,0.0762 a 0.75002665,0.75003959 0 0 0 0.002,0.004 c 0.0144,0.0214 0.0269,0.0416 0.0371,0.0586 0.0548,0.0913 0.0459,0.0871 -0.01,-0.0254 a 0.75002665,0.75003959 0 0 0 0.0234,0.0449 c -0.0116,-0.02 -0.005,-0.006 0.0234,0.0469 0.0208,0.0393 0.0352,0.0674 0.041,0.0801 a 0.75002665,0.75003959 0 0 0 0.002,0.002 c 0.005,0.0112 0.0139,0.0334 0.0293,0.0703 0.0136,0.0339 0.0242,0.0617 0.0293,0.0762 a 0.75002665,0.75003959 0 0 0 0.002,0.004 c 0.004,0.0116 0.0123,0.0365 0.0234,0.0742 0.0127,0.0437 0.0205,0.0703 0.0215,0.0742 0.005,0.0199 0.008,0.0436 0.0137,0.0723 a 0.75002665,0.75003959 0 0 0 0.004,0.0117 c 0.007,0.0324 0.0105,0.0589 0.0137,0.0801 1.2e-4,0.004 10e-4,0.03 0.01,0.0996 0.002,0.0189 0.004,0.0382 0.004,0.01 a 0.75002665,0.75003959 0 0 0 0.006,0.0957 c -0.003,-0.0247 -0.002,-0.0174 -0.002,0.0273 0,0.0407 -3.5e-4,0.0501 0.002,0.0312 a 0.75002665,0.75003959 0 0 0 -0.002,0.006 c -0.0105,0.0917 -0.0111,0.11849 -0.006,0.082 a 0.75002665,0.75003959 0 0 0 0,0.004 c -0.0116,0.0824 -0.0134,0.12513 -0.0137,0.12695 -0.002,0.0127 -0.006,0.0299 -0.0137,0.0703 -0.008,0.0374 -0.013,0.0637 -0.0156,0.0742 a 0.75002665,0.75003959 0 0 0 -0.004,0.0153 c 0.001,-0.006 -0.006,0.0189 -0.0215,0.0723 -0.006,0.0203 -0.0127,0.0414 -0.0215,0.0664 -0.004,0.0102 -0.0166,0.0398 -0.0371,0.0898 -0.013,0.0305 -0.0234,0.0562 -0.0254,0.0606 -0.0107,0.0222 -0.0229,0.0459 -0.0391,0.0762 a 0.75002665,0.75003959 0 0 0 -0.002,0.002 c -0.0338,0.064 -0.0349,0.0676 -0.0215,0.0449 0.002,-0.003 -0.004,0.01 -0.002,0.006 -0.005,0.007 0.0138,-0.0263 -0.01,0.0117 a 0.75002665,0.75003959 0 0 0 -0.004,0.004 c -0.004,0.006 -0.0162,0.0261 -0.0371,0.0586 -0.0245,0.0377 -0.043,0.0657 -0.0566,0.084 a 0.75002665,0.75003959 0 0 0 -0.008,0.01 c 0.0107,-0.0148 0.004,-0.007 -0.0195,0.0234 -0.16053,0.20558 -0.35575,0.36181 -0.57027,0.46677 a 0.75002665,0.75003959 0 0 0 -0.0488,0.0273 l -0.002,-0.002 -0.0215,0.0137 -16.45402,9.4937 a 0.75002665,0.75003959 0 0 0 -0.0156,0.01 c -0.14116,0.0811 -0.29197,0.14125 -0.45309,0.17772 a 0.75002665,0.75003959 0 0 0 -0.01,0.002 c -0.0164,0.004 -0.0515,0.0109 -0.10546,0.0195 -0.0445,0.007 -0.0605,0.009 -0.0644,0.01 -0.012,0.001 -0.0361,0.004 -0.0684,0.006 -0.0533,0.003 -0.0884,0.004 -0.10351,0.004 -0.0563,5.1e-4 -0.0955,0.002 -0.0234,0.002 0.0196,0 0.008,-10e-6 -0.0371,-0.002 -0.0464,-0.002 -0.0832,-0.004 -0.10741,-0.006 -0.0177,-0.001 -0.046,-0.004 -0.0781,-0.008 l -0.0137,-0.002 c -0.0249,-0.004 -0.0483,-0.008 -0.0488,-0.008 a 0.75002665,0.75003959 0 0 0 -0.01,-0.002 c -0.031,-0.005 -0.0658,-0.0131 -0.10742,-0.0234 a 0.75002665,0.75003959 0 0 0 -0.01,-0.002 c -0.009,-0.002 -0.0205,-0.005 -0.0312,-0.008 l -0.006,-0.002 c -0.003,-7e-4 -0.005,-0.001 -0.008,-0.002 -0.0346,-0.01 -0.0708,-0.0224 -0.11133,-0.0371 a 0.75002665,0.75003959 0 0 0 -0.006,-0.002 c 0.01,0.003 -0.0131,-0.004 -0.0117,-0.004 l -0.002,-0.002 c -0.044,-0.0167 -0.0909,-0.0364 -0.13671,-0.0586 -0.0461,-0.0224 -0.0922,-0.0458 -0.13866,-0.0742 a 0.75002665,0.75003959 0 0 0 0,-0.002 c -0.0414,-0.0253 -0.0847,-0.055 -0.13085,-0.0898 -0.0451,-0.034 -0.0871,-0.0686 -0.12499,-0.1035 -0.27503,-0.25331 -0.46024,-0.5938 -0.51364,-0.98433 l 0.006,0.10155 c 0,-0.23348 -0.006,-0.24671 -0.006,-0.0469 a 0.75002665,0.75003959 0 0 0 -0.004,-0.0703 c 3.2e-4,0.004 0.002,-0.0461 -0.01,-0.14647 l 0.004,0.084 c 0,-0.13943 -0.008,-0.1797 -0.008,-0.1211 v -0.0273 -19.19831 c 0,-0.0148 -10e-6,-0.0204 0,-0.0215 a 0.75002665,0.75003959 0 0 0 0,-0.006 c 0,-0.0273 0.002,-0.0252 -0.004,0.008 a 0.75002665,0.75003959 0 0 0 0.0121,-0.12871 c 0,-5.8e-4 0.002,-0.0178 0.004,-0.0391 a 0.75002665,0.75003959 0 0 0 0.006,-0.0391 c 0.0753,-0.55746 0.42278,-1.01754 0.90619,-1.25384 a 0.75002665,0.75003959 0 0 0 0.008,-0.004 c 0.0444,-0.0214 0.0892,-0.0402 0.1328,-0.0566 a 0.75002665,0.75003959 0 0 0 0.0195,-0.008 c 0.0445,-0.0162 0.0864,-0.0299 0.12696,-0.041 a 0.75002665,0.75003959 0 0 0 0.0195,-0.006 c -0.0326,0.01 -0.0293,0.008 0.0117,-0.002 0.0495,-0.0125 0.0877,-0.0205 0.11523,-0.0254 a 0.75002665,0.75003959 0 0 0 0.0137,-0.002 c -0.0173,0.003 -9.6e-4,7.4e-4 0.0469,-0.006 a 0.75002665,0.75003959 0 0 0 0.002,0 c 0.0535,-0.007 0.0789,-0.0117 0.0801,-0.0117 a 0.75002665,0.75003959 0 0 0 0.0117,0 c 0.0115,-9.2e-4 0.0348,-0.003 0.0723,-0.004 a 0.75002665,0.75003959 0 0 0 0.006,0 c 0.0812,-0.003 0.1005,-0.004 0.0605,-0.004 a 0.75002665,0.75003959 0 0 0 0.0176,0 0.75002665,0.75003959 0 0 0 0.002,-0.002 z m -0.15428,22.86414 a 0.75002665,0.75003959 0 0 0 -0.008,0.0156 c 8e-5,-3.8e-4 0.002,-0.008 0.002,-0.008 -1e-5,1e-5 0.005,-0.007 0.006,-0.008 z" />
    <path
       id="rect1323-3-5-4-7-6-7"
       style="display:inline;fill:#fbfdfc;fill-opacity:1;stroke:none;stroke-width:1.0003;stroke-linecap:round;stroke-linejoin:round;stroke-miterlimit:4;stroke-dasharray:none;stroke-dashoffset:2.1875;stroke-opacity:1"
       d="m 32.675684,28.00001 v 0.001 c -0.029,0 -0.057,0.004 -0.0861,0.005 -0.0375,0.001 -0.0748,0.002 -0.11237,0.005 -0.0465,0.003 -0.0923,0.0102 -0.13778,0.0166 -0.029,0.004 -0.0589,0.007 -0.088,0.0127 -0.0566,0.01 -0.11182,0.0232 -0.16705,0.0371 -0.016,0.004 -0.0315,0.007 -0.047,0.0117 -0.0629,0.0173 -0.12493,0.0375 -0.18567,0.0596 -0.009,0.003 -0.018,0.006 -0.0265,0.01 -0.0658,0.0248 -0.13063,0.0528 -0.19347,0.083 -0.005,0.002 -0.008,0.004 -0.0125,0.006 -0.704,0.34413 -1.21102,1.02022 -1.3202,1.82807 -0.007,0.0146 -0.007,0.0293 -0.007,0.0439 -0.005,0.0444 -0.009,0.0887 -0.009,0.13379 -0.007,0.0399 -0.008,0.0803 -0.008,0.12012 -10e-5,0.01 0,0.0179 0,0.0274 v 19.19965 0.0283 c 0,0.0404 0.008,0.0807 0.008,0.12109 0.005,0.044 0.005,0.0885 0.009,0.13183 0,0.0162 0.007,0.0317 0.007,0.0478 0.0774,0.56608 0.35018,1.06674 0.74953,1.43453 0.0577,0.0532 0.11798,0.10303 0.18077,0.15038 0.062,0.0468 0.12593,0.0912 0.19247,0.13182 0.0653,0.0399 0.13199,0.0767 0.20133,0.11036 0.0653,0.0317 0.13278,0.0611 0.20127,0.0869 0.009,0.003 0.018,0.007 0.0265,0.01 0.0595,0.0216 0.12013,0.0416 0.18171,0.0586 0.0195,0.005 0.0395,0.01 0.0596,0.0147 0.0521,0.013 0.10377,0.0247 0.1573,0.0342 0.0315,0.006 0.0638,0.0101 0.0958,0.0147 0.04,0.005 0.0802,0.0101 0.12117,0.0136 0.046,0.004 0.0923,0.006 0.1388,0.008 0.023,10e-4 0.046,0.003 0.0693,0.003 0.01,0 0.0205,-0.002 0.0305,-0.002 0.0485,-4e-4 0.0962,-0.004 0.14464,-0.007 0.031,-0.002 0.0632,-0.004 0.0938,-0.007 0.0365,-0.004 0.0729,-0.0108 0.10942,-0.0166 0.0501,-0.008 0.0996,-0.0155 0.14854,-0.0263 0,0 -2e-4,-10e-4 0.005,-10e-4 0.005,-5e-4 0.009,-0.002 0.009,-0.003 0.23811,-0.0539 0.4614,-0.14322 0.66648,-0.26171 l 0.0125,-0.008 16.47633,-9.50656 c 0,-5e-4 0.006,-4.6e-4 0.006,-10e-4 0.31905,-0.1561 0.60369,-0.38699 0.83258,-0.68065 0.0115,-0.0148 0.024,-0.0297 0.035,-0.0449 0.0305,-0.0409 0.0589,-0.0837 0.087,-0.12695 0.0155,-0.0241 0.032,-0.0487 0.047,-0.0732 0.007,-0.0113 0.0155,-0.0207 0.0225,-0.0322 0.014,-0.0243 0.024,-0.0496 0.037,-0.0742 0.021,-0.0393 0.0415,-0.0788 0.0606,-0.11914 0.013,-0.0287 0.0245,-0.058 0.037,-0.0869 0.017,-0.0414 0.035,-0.0828 0.05,-0.12499 0.013,-0.0369 0.025,-0.0732 0.036,-0.11035 0.0105,-0.0371 0.0225,-0.0747 0.031,-0.1123 0.009,-0.0364 0.016,-0.0728 0.0235,-0.10937 0.008,-0.0405 0.0165,-0.0802 0.0225,-0.1211 0.005,-0.0391 0.007,-0.0781 0.0125,-0.11717 0.005,-0.0346 0.005,-0.0697 0.009,-0.10449 0.005,-0.0408 0.005,-0.0814 0.005,-0.12207 0,-0.0411 3e-4,-0.0819 -0.005,-0.12305 0,-0.0343 -0.005,-0.0684 -0.009,-0.10253 -0.005,-0.0401 -0.007,-0.0801 -0.0125,-0.12011 -0.006,-0.0395 -0.0135,-0.079 -0.0215,-0.11817 -0.007,-0.0374 -0.0145,-0.0741 -0.0235,-0.11132 -0.009,-0.0368 -0.0205,-0.0731 -0.031,-0.10938 -0.0115,-0.039 -0.023,-0.0776 -0.037,-0.11619 -0.0135,-0.038 -0.029,-0.076 -0.044,-0.11328 -0.014,-0.0335 -0.0275,-0.0665 -0.043,-0.0996 -0.018,-0.0389 -0.0385,-0.0773 -0.0586,-0.11523 -0.013,-0.0245 -0.024,-0.0491 -0.038,-0.0732 -0.005,-0.0101 -0.0125,-0.0183 -0.0185,-0.0283 -0.018,-0.03 -0.037,-0.0596 -0.0566,-0.0889 -0.026,-0.0395 -0.0511,-0.0788 -0.0791,-0.11622 -0.0105,-0.0139 -0.022,-0.0263 -0.033,-0.0401 -0.04,-0.0518 -0.0815,-0.10268 -0.12507,-0.15037 -0.19873,-0.21701 -0.43188,-0.3914 -0.68599,-0.51952 l -16.5212,-9.53098 c -0.20718,-0.11969 -0.43242,-0.20992 -0.67328,-0.26368 0,-4.9e-4 -0.006,-4.5e-4 -0.006,-10e-4 -0.0552,-0.0122 -0.11152,-0.0218 -0.16805,-0.0302 -0.0265,-0.004 -0.0526,-0.009 -0.0791,-0.0117 -0.038,-0.005 -0.0778,-0.006 -0.11627,-0.009 -0.0435,-0.003 -0.0865,-0.006 -0.12998,-0.007 -0.0105,0 -0.0215,-0.001 -0.031,-0.001 z" />
  </g>
</svg>
