<?xml version="1.0" encoding="UTF-8" standalone="no"?>
<svg
   xmlns:dc="http://purl.org/dc/elements/1.1/"
   xmlns:cc="http://creativecommons.org/ns#"
   xmlns:rdf="http://www.w3.org/1999/02/22-rdf-syntax-ns#"
   xmlns:svg="http://www.w3.org/2000/svg"
   xmlns="http://www.w3.org/2000/svg"
   xmlns:sodipodi="http://sodipodi.sourceforge.net/DTD/sodipodi-0.dtd"
   xmlns:inkscape="http://www.inkscape.org/namespaces/inkscape"
   width="64"
   height="64"
   viewBox="0 0 64 64"
   version="1.1"
   id="svg6374"
   inkscape:version="1.0.2 (e86c870879, 2021-01-15)"
   sodipodi:docname="text-x-qml.svg">
  <defs
     id="defs6368" />
  <sodipodi:namedview
     id="base"
     pagecolor="#cecece"
     bordercolor="#666666"
     borderopacity="1.0"
     inkscape:pageopacity="0"
     inkscape:pageshadow="2"
     inkscape:zoom="1.5340798"
     inkscape:cx="32.673374"
     inkscape:cy="72.435551"
     inkscape:document-units="px"
     inkscape:current-layer="layer1"
     inkscape:document-rotation="0"
     showgrid="false"
     units="px"
     inkscape:window-width="1024"
     inkscape:window-height="1080"
     inkscape:window-x="68"
     inkscape:window-y="56"
     inkscape:window-maximized="0" />
  <metadata
     id="metadata6371">
    <rdf:RDF>
      <cc:Work
         rdf:about="">
        <dc:format>image/svg+xml</dc:format>
        <dc:type
           rdf:resource="http://purl.org/dc/dcmitype/StillImage" />
        <dc:title></dc:title>
      </cc:Work>
    </rdf:RDF>
  </metadata>
  <g
     inkscape:label="Layer 1"
     inkscape:groupmode="layer"
     id="layer1">
    <rect
       style="opacity:0.45;fill:#0c0c0c;fill-opacity:1;stroke-width:0.495;stroke-linecap:round;stroke-linejoin:round;stroke-miterlimit:4;stroke-dasharray:none;stroke-dashoffset:2.1875"
       id="rect954-6-3-2-2-6-4-06-0"
       width="44"
       height="56"
       x="10"
       y="5.49997"
       rx="3"
       ry="3" />
    <path
       id="rect954-60-6-7-3-1-91-8-4"
       style="color:#000000;font-style:normal;font-variant:normal;font-weight:normal;font-stretch:normal;font-size:medium;line-height:normal;font-family:sans-serif;font-variant-ligatures:normal;font-variant-position:normal;font-variant-caps:normal;font-variant-numeric:normal;font-variant-alternates:normal;font-variant-east-asian:normal;font-feature-settings:normal;font-variation-settings:normal;text-indent:0;text-align:start;text-decoration:none;text-decoration-line:none;text-decoration-style:solid;text-decoration-color:#000000;letter-spacing:normal;word-spacing:normal;text-transform:none;writing-mode:lr-tb;direction:ltr;text-orientation:mixed;dominant-baseline:auto;baseline-shift:baseline;text-anchor:start;white-space:normal;shape-padding:0;shape-margin:0;inline-size:0;clip-rule:nonzero;display:inline;overflow:visible;visibility:visible;isolation:auto;mix-blend-mode:normal;color-interpolation:sRGB;color-interpolation-filters:linearRGB;solid-color:#000000;solid-opacity:1;vector-effect:none;fill:#3a8d46;fill-opacity:1;fill-rule:nonzero;stroke:none;stroke-linecap:round;stroke-linejoin:round;stroke-miterlimit:4;stroke-dasharray:none;stroke-dashoffset:2.1875;stroke-opacity:1;color-rendering:auto;image-rendering:auto;shape-rendering:auto;text-rendering:auto;enable-background:accumulate;stop-color:#000000"
       d="M 13,3.5 C 11.0696,3.5 9.5,5.06965 9.5,7 v 50 c 0,1.93035 1.5696,3.5 3.5,3.5 h 38 c 1.9304,0 3.5,-1.56965 3.5,-3.5 V 7 C 54.5,5.06965 52.9304,3.5 51,3.5 Z m 0,1 h 38 c 1.3936,0 2.5,1.10635 2.5,2.5 v 50 c 0,1.39365 -1.1064,2.5 -2.5,2.5 H 13 c -1.3936,0 -2.5,-1.10635 -2.5,-2.5 V 7 c 0,-1.39365 1.1064,-2.5 2.5,-2.5 z" />
    <rect
       style="fill:#48b157;fill-opacity:1;stroke-width:0.495;stroke-linecap:round;stroke-linejoin:round;stroke-miterlimit:4;stroke-dasharray:none;stroke-dashoffset:2.1875"
       id="rect954-7-0-7-3-0-4-4-9-3-4"
       width="44"
       height="56"
       x="10"
       y="4.0000005"
       rx="3"
       ry="3" />
    <path
       id="rect1072-2-6-3-9-6-2"
       style="opacity:0.15;fill:#0c0c0c;fill-opacity:1;stroke:none;stroke-width:0.804285;stroke-linecap:round;stroke-linejoin:round;stroke-miterlimit:4;stroke-dasharray:none"
       d="m 19.0531,31.75 c -3.27696,0 -5.8781,2.92691 -5.8781,6.39976 0,3.47284 2.60114,6.39829 5.8781,6.39829 1.40497,0 2.68334,-0.54 3.68816,-1.42826 l 1.56658,1.13834 1.52678,-2.26163 -1.49306,-1.08346 c 0.37433,-0.84252 0.59011,-1.77865 0.59011,-2.76328 0,-3.47285 -2.60161,-6.39976 -5.87857,-6.39976 z m 7.80016,0 v 12.8 h 2.66202 V 35.54139 L 32.6775,44.55 h 0.0103 2.82173 0.0103 l 3.16222,-9.00861 V 44.55 h 2.66156 V 31.75 H 40.01306 38.68205 37.17962 L 34.0989,40.52939 31.01677,31.75 h -1.50149 -1.33101 z m 16.83157,0 v 4.29014 2.75989 2.99008 V 44.55 H 46.34639 51.825 V 41.79011 H 46.34639 V 38.80003 36.04014 33.52792 31.75 Z M 19.0531,34.50891 c 1.74549,0 3.21606,1.56909 3.21607,3.64085 0,0.40293 -0.0568,0.78567 -0.15923,1.14271 l -1.3624,-0.98925 -1.52631,2.26065 1.20691,0.8756 c -0.41968,0.22303 -0.8858,0.35064 -1.37504,0.35064 -1.74549,0 -3.21561,-1.5686 -3.21561,-3.64035 0,-2.07176 1.47012,-3.64085 3.21561,-3.64085 z" />
    <path
       id="rect1072-2-6-3-9-6"
       style="fill:#fcfcfa;fill-opacity:1;stroke:none;stroke-width:0.804285;stroke-linecap:round;stroke-linejoin:round;stroke-miterlimit:4;stroke-dasharray:none"
       d="m 18.5531,30.75 c -3.27696,0 -5.8781,2.92691 -5.8781,6.39976 0,3.47284 2.60114,6.39829 5.8781,6.39829 1.40497,0 2.68334,-0.54 3.68816,-1.42826 l 1.56658,1.13834 1.52678,-2.26163 -1.49306,-1.08346 c 0.37433,-0.84252 0.59011,-1.77865 0.59011,-2.76328 0,-3.47285 -2.60161,-6.39976 -5.87857,-6.39976 z m 7.80016,0 v 12.8 h 2.66202 V 34.54139 L 32.1775,43.55 h 0.0103 2.82173 0.0103 l 3.16222,-9.00861 V 43.55 h 2.66156 V 30.75 H 39.51306 38.18205 36.67962 L 33.5989,39.52939 30.51677,30.75 h -1.50149 -1.33101 z m 16.83157,0 v 4.29014 2.75989 2.99008 V 43.55 H 45.84639 51.325 V 40.79011 H 45.84639 V 37.80003 35.04014 32.52792 30.75 Z M 18.5531,33.50891 c 1.74549,0 3.21606,1.56909 3.21607,3.64085 0,0.40293 -0.0568,0.78567 -0.15923,1.14271 l -1.3624,-0.98925 -1.52631,2.26065 1.20691,0.8756 c -0.41968,0.22303 -0.8858,0.35064 -1.37504,0.35064 -1.74549,0 -3.21561,-1.5686 -3.21561,-3.64035 0,-2.07176 1.47012,-3.64085 3.21561,-3.64085 z" />
  </g>
</svg>
