<?xml version="1.0" encoding="UTF-8" standalone="no"?>
<svg
   xmlns:dc="http://purl.org/dc/elements/1.1/"
   xmlns:cc="http://creativecommons.org/ns#"
   xmlns:rdf="http://www.w3.org/1999/02/22-rdf-syntax-ns#"
   xmlns:svg="http://www.w3.org/2000/svg"
   xmlns="http://www.w3.org/2000/svg"
   xmlns:xlink="http://www.w3.org/1999/xlink"
   xmlns:sodipodi="http://sodipodi.sourceforge.net/DTD/sodipodi-0.dtd"
   xmlns:inkscape="http://www.inkscape.org/namespaces/inkscape"
   width="64"
   height="64"
   viewBox="0 0 64 64"
   version="1.1"
   id="svg6374"
   inkscape:version="1.0.2 (e86c870879, 2021-01-15)"
   sodipodi:docname="text-x-python.svg">
  <defs
     id="defs6368">
    <linearGradient
       inkscape:collect="always"
       xlink:href="#linearGradient4033"
       id="linearGradient4035"
       x1="109.99995"
       y1="704"
       x2="153.99994"
       y2="760"
       gradientUnits="userSpaceOnUse"
       gradientTransform="translate(-100,-700)" />
    <linearGradient
       inkscape:collect="always"
       id="linearGradient4033">
      <stop
         style="stop-color:#ffc331;stop-opacity:1"
         offset="0"
         id="stop4029" />
      <stop
         style="stop-color:#387eb8;stop-opacity:1"
         offset="1"
         id="stop4031" />
    </linearGradient>
    <linearGradient
       inkscape:collect="always"
       xlink:href="#linearGradient-2"
       id="linearGradient3979"
       gradientUnits="userSpaceOnUse"
       gradientTransform="matrix(0.11086626,0,0,0.11203135,17.70916,22.74192)"
       x1="102.48344"
       y1="103.26587"
       x2="238.25964"
       y2="231.90547" />
    <linearGradient
       x1="102.48344"
       y1="103.26587"
       x2="238.25964"
       y2="231.90547"
       id="linearGradient-2"
       gradientTransform="matrix(0.11086626,0,0,0.11203135,188.08384,722.26635)"
       gradientUnits="userSpaceOnUse">
      <stop
         stop-color="#FFE052"
         offset="0%"
         id="stop119" />
      <stop
         stop-color="#FFC331"
         offset="100%"
         id="stop121" />
    </linearGradient>
    <linearGradient
       inkscape:collect="always"
       xlink:href="#linearGradient-1"
       id="linearGradient3981"
       gradientUnits="userSpaceOnUse"
       gradientTransform="matrix(0.11086626,0,0,0.11203134,17.70916,22.74192)"
       x1="24.714943"
       y1="22.898218"
       x2="151.13554"
       y2="148.33669" />
    <linearGradient
       x1="24.714943"
       y1="22.898218"
       x2="151.13554"
       y2="148.33669"
       id="linearGradient-1"
       gradientTransform="matrix(0.11086626,0,0,0.11203134,188.08384,722.26635)"
       gradientUnits="userSpaceOnUse">
      <stop
         stop-color="#387EB8"
         offset="0%"
         id="stop114" />
      <stop
         stop-color="#366994"
         offset="100%"
         id="stop116" />
    </linearGradient>
  </defs>
  <sodipodi:namedview
     id="base"
     pagecolor="#cecece"
     bordercolor="#666666"
     borderopacity="1.0"
     inkscape:pageopacity="0"
     inkscape:pageshadow="2"
     inkscape:zoom="3.2975144"
     inkscape:cx="0.78419257"
     inkscape:cy="32.951385"
     inkscape:document-units="px"
     inkscape:current-layer="layer1"
     inkscape:document-rotation="0"
     showgrid="false"
     units="px"
     inkscape:window-width="2048"
     inkscape:window-height="1080"
     inkscape:window-x="0"
     inkscape:window-y="0"
     inkscape:window-maximized="1" />
  <metadata
     id="metadata6371">
    <rdf:RDF>
      <cc:Work
         rdf:about="">
        <dc:format>image/svg+xml</dc:format>
        <dc:type
           rdf:resource="http://purl.org/dc/dcmitype/StillImage" />
        <dc:title></dc:title>
      </cc:Work>
    </rdf:RDF>
  </metadata>
  <g
     inkscape:label="Layer 1"
     inkscape:groupmode="layer"
     id="layer1">
    <rect
       style="opacity:0.45;fill:#0c0c0c;fill-opacity:1;stroke-width:0.495;stroke-linecap:round;stroke-linejoin:round;stroke-miterlimit:4;stroke-dasharray:none;stroke-dashoffset:2.1875"
       id="rect954-6-9-9-9-8"
       width="44"
       height="56"
       x="9.999939"
       y="5.5"
       rx="3"
       ry="3" />
    <path
       id="rect954-60-2-4-6-1"
       style="color:#000000;font-style:normal;font-variant:normal;font-weight:normal;font-stretch:normal;font-size:medium;line-height:normal;font-family:sans-serif;font-variant-ligatures:normal;font-variant-position:normal;font-variant-caps:normal;font-variant-numeric:normal;font-variant-alternates:normal;font-variant-east-asian:normal;font-feature-settings:normal;font-variation-settings:normal;text-indent:0;text-align:start;text-decoration:none;text-decoration-line:none;text-decoration-style:solid;text-decoration-color:#000000;letter-spacing:normal;word-spacing:normal;text-transform:none;writing-mode:lr-tb;direction:ltr;text-orientation:mixed;dominant-baseline:auto;baseline-shift:baseline;text-anchor:start;white-space:normal;shape-padding:0;shape-margin:0;inline-size:0;clip-rule:nonzero;display:inline;overflow:visible;visibility:visible;opacity:0.8;isolation:auto;mix-blend-mode:normal;color-interpolation:sRGB;color-interpolation-filters:linearRGB;solid-color:#000000;solid-opacity:1;vector-effect:none;fill:url(#linearGradient4035);fill-opacity:1;fill-rule:nonzero;stroke:none;stroke-linecap:round;stroke-linejoin:round;stroke-miterlimit:4;stroke-dasharray:none;stroke-dashoffset:2.1875;stroke-opacity:1;color-rendering:auto;image-rendering:auto;shape-rendering:auto;text-rendering:auto;enable-background:accumulate;stop-color:#000000"
       d="M 13,3.5 C 11.06965,3.5 9.5,5.06965 9.5,7 v 50 c 0,1.93035 1.56965,3.5 3.5,3.5 h 37.99999 c 1.93036,0 3.5,-1.56965 3.5,-3.5 V 7 c 0,-1.93035 -1.56964,-3.5 -3.5,-3.5 z m 0,1 h 37.99999 c 1.39366,0 2.5,1.10635 2.5,2.5 v 50 c 0,1.39365 -1.10634,2.5 -2.5,2.5 H 13 c -1.39365,0 -2.5,-1.10635 -2.5,-2.5 V 7 c 0,-1.39365 1.10635,-2.5 2.5,-2.5 z" />
    <rect
       style="fill:#4d4d53;fill-opacity:1;stroke-width:0.495;stroke-linecap:round;stroke-linejoin:round;stroke-miterlimit:4;stroke-dasharray:none;stroke-dashoffset:2.1875"
       id="rect954-0-8-3-0"
       width="44"
       height="56"
       x="9.999939"
       y="3.9999998"
       rx="3"
       ry="3" />
    <path
       d="m 31.99989,52.18033 c 7.19573,0 6.74637,-3.14628 6.74637,-3.14628 l -0.008,-3.25951 h -6.86672 v -0.97866 h 9.59414 c 0,0 4.60453,0.52651 4.60453,-6.79402 10e-6,-7.32052 -4.01894,-7.06092 -4.01894,-7.06092 h -2.39853 v 3.39701 c 0,0 0.12929,4.05214 -3.95477,4.05214 h -6.81055 c 0,0 -3.82643,-0.0624 -3.82643,3.72863 V 48.387 c 0,0 -0.58096,3.79333 6.93891,3.79333 z m 3.78631,-2.19188 c -0.68318,0 -1.23536,-0.55674 -1.23536,-1.24557 0,-0.68883 0.55218,-1.24557 1.23536,-1.24557 0.68319,0 1.23536,0.55674 1.23536,1.24557 10e-6,0.68883 -0.55217,1.24557 -1.23536,1.24557 z"
       id="path127-0-5"
       fill="url(#linearGradient-2)"
       style="opacity:0.375;fill:#141415;fill-opacity:1;fill-rule:nonzero;stroke:none;stroke-width:0.111448" />
    <path
       d="m 31.99989,51.18033 c 7.19573,0 6.74637,-3.14628 6.74637,-3.14628 l -0.008,-3.25951 h -6.86672 v -0.97866 h 9.59414 c 0,0 4.60453,0.52651 4.60453,-6.79402 10e-6,-7.32052 -4.01894,-7.06092 -4.01894,-7.06092 h -2.39853 v 3.39701 c 0,0 0.12929,4.05214 -3.95477,4.05214 h -6.81055 c 0,0 -3.82643,-0.0624 -3.82643,3.72863 V 47.387 c 0,0 -0.58096,3.79333 6.93891,3.79333 z m 3.78631,-2.19188 c -0.68318,0 -1.23536,-0.55674 -1.23536,-1.24557 0,-0.68883 0.55218,-1.24557 1.23536,-1.24557 0.68319,0 1.23536,0.55674 1.23536,1.24557 10e-6,0.68883 -0.55217,1.24557 -1.23536,1.24557 z"
       id="path127-0"
       fill="url(#linearGradient-2)"
       style="fill:url(#linearGradient3979);fill-rule:nonzero;stroke:none;stroke-width:0.111448" />
    <path
       d="m 31.79553,23.75 c -7.19573,0 -6.74638,3.14628 -6.74638,3.14628 l 0.008,3.25951 h 6.8667 v 0.97866 h -9.59411 c 0,0 -4.60455,-0.52651 -4.60455,6.79402 0,7.32052 4.01895,7.06092 4.01895,7.06092 h 2.39853 v -3.39701 c 0,0 -0.12928,-4.05214 3.95477,-4.05214 h 6.81055 c 0,0 3.82642,0.0624 3.82642,-3.72863 v -6.26828 c 0,0 0.58096,-3.79333 -6.93889,-3.79333 z m -3.78631,2.19188 c 0.68318,0 1.23536,0.55674 1.23536,1.24557 0,0.68883 -0.55218,1.24557 -1.23536,1.24557 -0.68318,0 -1.23537,-0.55674 -1.23537,-1.24557 0,-0.68883 0.55219,-1.24557 1.23537,-1.24557 z"
       id="Shape-5-0"
       fill="url(#linearGradient-1)"
       style="opacity:0.375;fill:#141415;fill-opacity:1;fill-rule:nonzero;stroke:none;stroke-width:0.111448" />
    <path
       d="m 31.79553,22.75 c -7.19573,0 -6.74638,3.14628 -6.74638,3.14628 l 0.008,3.25951 h 6.8667 v 0.97866 h -9.59411 c 0,0 -4.60455,-0.52651 -4.60455,6.79402 0,7.32052 4.01895,7.06092 4.01895,7.06092 h 2.39853 v -3.39701 c 0,0 -0.12928,-4.05214 3.95477,-4.05214 h 6.81055 c 0,0 3.82642,0.0624 3.82642,-3.72863 v -6.26828 c 0,0 0.58096,-3.79333 -6.93889,-3.79333 z m -3.78631,2.19188 c 0.68318,0 1.23536,0.55674 1.23536,1.24557 0,0.68883 -0.55218,1.24557 -1.23536,1.24557 -0.68318,0 -1.23537,-0.55674 -1.23537,-1.24557 0,-0.68883 0.55219,-1.24557 1.23537,-1.24557 z"
       id="Shape-5"
       fill="url(#linearGradient-1)"
       style="fill:url(#linearGradient3981);fill-rule:nonzero;stroke:none;stroke-width:0.111448" />
  </g>
</svg>
