<?xml version="1.0" encoding="UTF-8" standalone="no"?>
<svg
   xmlns:dc="http://purl.org/dc/elements/1.1/"
   xmlns:cc="http://creativecommons.org/ns#"
   xmlns:rdf="http://www.w3.org/1999/02/22-rdf-syntax-ns#"
   xmlns:svg="http://www.w3.org/2000/svg"
   xmlns="http://www.w3.org/2000/svg"
   xmlns:xlink="http://www.w3.org/1999/xlink"
   xmlns:sodipodi="http://sodipodi.sourceforge.net/DTD/sodipodi-0.dtd"
   xmlns:inkscape="http://www.inkscape.org/namespaces/inkscape"
   width="64"
   height="64"
   viewBox="0 0 64 64"
   version="1.1"
   id="svg6374"
   inkscape:version="1.0.2 (e86c870879, 2021-01-15)"
   sodipodi:docname="playlist-queue.svg">
  <defs
     id="defs6368">
    <linearGradient
       inkscape:collect="always"
       xlink:href="#linearGradient3476-9"
       id="linearGradient6963"
       gradientUnits="userSpaceOnUse"
       gradientTransform="matrix(1.1363634,0,0,1.1428545,2.6363499,-2.7855001)"
       x1="32"
       y1="16"
       x2="32"
       y2="58" />
    <linearGradient
       inkscape:collect="always"
       id="linearGradient3476-9">
      <stop
         style="stop-color:#bc6296;stop-opacity:1"
         offset="0"
         id="stop3472-3" />
      <stop
         style="stop-color:#b4508a;stop-opacity:1"
         offset="1"
         id="stop3474-7" />
    </linearGradient>
  </defs>
  <sodipodi:namedview
     id="base"
     pagecolor="#cecece"
     bordercolor="#666666"
     borderopacity="1.0"
     inkscape:pageopacity="0"
     inkscape:pageshadow="2"
     inkscape:zoom="4.0902725"
     inkscape:cx="26.692978"
     inkscape:cy="50.834052"
     inkscape:document-units="px"
     inkscape:current-layer="layer1"
     inkscape:document-rotation="0"
     showgrid="false"
     units="px"
     inkscape:window-width="1500"
     inkscape:window-height="970"
     inkscape:window-x="68"
     inkscape:window-y="56"
     inkscape:window-maximized="0" />
  <metadata
     id="metadata6371">
    <rdf:RDF>
      <cc:Work
         rdf:about="">
        <dc:format>image/svg+xml</dc:format>
        <dc:type
           rdf:resource="http://purl.org/dc/dcmitype/StillImage" />
        <dc:title></dc:title>
      </cc:Work>
    </rdf:RDF>
  </metadata>
  <g
     inkscape:label="Layer 1"
     inkscape:groupmode="layer"
     id="layer1">
    <rect
       style="fill:#e6ba42;fill-opacity:1;stroke-width:0;stroke-linecap:round;stroke-linejoin:round;stroke-dashoffset:2.1875"
       id="rect1208-1-9-7-7-98-3-2-7-52-4-9-7-6-6-3"
       width="49.999989"
       height="47.999996"
       x="0"
       y="0.5"
       rx="3.40909"
       ry="3.4285712" />
    <path
       id="rect1208-1-9-7-7-98-3-2-7-52-4-8-2-6-4-2-7-2-3"
       style="fill:#6b530f;fill-opacity:1;stroke-width:0;stroke-linecap:round;stroke-linejoin:round;stroke-dashoffset:2.1875"
       d="M 3.4090999,0.50009995 C 1.5204699,0.50009995 9.8894348e-6,2.0291999 9.8894348e-6,3.9286999 V 45.0715 c 0,1.8995 1.5204600105652,3.4286 3.4090900105652,3.4286 H 46.59091 C 48.47954,48.5001 50,46.971 50,45.0715 V 3.9286999 c 0,-1.8995 -1.52046,-3.42859995 -3.40909,-3.42859995 z m 0,1.71429995 H 46.59091 c 0.94432,0 1.70454,0.7646 1.70454,1.7143 V 45.0715 c 0,0.9497 -0.76022,1.7143 -1.70454,1.7143 H 3.4090999 c -0.94432,0 -1.70454,-0.7646 -1.70454,-1.7143 V 3.9286999 c 0,-0.9497 0.76022,-1.7143 1.70454,-1.7143 z" />
    <rect
       style="fill:#64aab9;fill-opacity:1;stroke-width:0;stroke-linecap:round;stroke-linejoin:round;stroke-dashoffset:2.1875"
       id="rect1208-1-9-7-7-98-3-2-7-52-4-5-1-5-1-8"
       width="49.999989"
       height="47.999973"
       x="6.9999995"
       y="7.9999995"
       rx="3.40909"
       ry="3.4285696" />
    <path
       id="rect1208-1-9-7-7-98-3-2-7-52-4-8-2-6-4-0-5-6-79-0"
       style="fill:#2c5863;fill-opacity:1;stroke-width:0;stroke-linecap:round;stroke-linejoin:round;stroke-dashoffset:2.1875"
       d="m 10.4091,7.9999999 c -1.8886301,0 -3.4090901,1.5291 -3.4090901,3.4286001 v 41.1428 c 0,1.8994 1.52046,3.4286 3.4090901,3.4286 H 53.59091 C 55.47955,56 57,54.4708 57,52.5714 V 11.4286 C 57,9.5290999 55.47955,7.9999999 53.59091,7.9999999 Z m 0,1.7143 h 43.18181 c 0.94432,0 1.70454,0.7646001 1.70454,1.7143001 v 41.1428 c 0,0.9497 -0.76022,1.7143 -1.70454,1.7143 H 10.4091 c -0.9443101,0 -1.7045401,-0.7646 -1.7045401,-1.7143 V 11.4286 c 0,-0.9497 0.76023,-1.7143001 1.7045401,-1.7143001 z" />
    <rect
       style="fill:url(#linearGradient6963);fill-opacity:1;stroke-width:0;stroke-linecap:round;stroke-linejoin:round;stroke-dashoffset:2.1875"
       id="rect1208-1-9-7-7-98-3-2-7-52-9-9-2-6"
       width="49.999989"
       height="47.999886"
       x="14"
       y="15.500122"
       rx="3.40909"
       ry="3.4285634" />
    <path
       id="rect1208-1-9-7-7-98-3-2-7-52-4-8-2-6-49-8-0-8"
       style="fill:#642b4c;fill-opacity:1;stroke-width:0;stroke-linecap:round;stroke-linejoin:round;stroke-dashoffset:2.1875"
       d="m 17.4091,15.5 c -1.88863,0 -3.40909,1.5291 -3.40909,3.4286 v 41.1427 c 0,1.8994 1.52046,3.4286 3.40909,3.4286 H 60.59091 C 62.47955,63.4999 64,61.9707 64,60.0713 V 18.9286 C 64,17.0291 62.47955,15.5 60.59091,15.5 Z m 0,1.7143 h 43.18181 c 0.94432,0 1.70454,0.7646 1.70454,1.7143 v 41.1427 c 0,0.9497 -0.76022,1.7143 -1.70454,1.7143 H 17.4091 c -0.94432,0 -1.70454,-0.7646 -1.70454,-1.7143 V 18.9286 c 0,-0.9497 0.76022,-1.7143 1.70454,-1.7143 z" />
    <path
       id="rect1323-3-5-2-5-4-8-9-2-3"
       style="display:inline;opacity:0.25;fill:#562541;fill-opacity:1;stroke:none;stroke-width:1.13994;stroke-linecap:round;stroke-linejoin:round;stroke-miterlimit:4;stroke-dasharray:none;stroke-dashoffset:2.1875;stroke-opacity:1"
       d="m 31.81328,28.6428 v 0 c -0.0329,0 -0.0648,0 -0.0978,0.011 -0.0426,0 -0.085,0 -0.12769,0 -0.0528,0 -0.10489,0.011 -0.15657,0.019 -0.033,0 -0.0669,0.012 -0.1,0.015 -0.0643,0.011 -0.12707,0.026 -0.18983,0.042 -0.0182,0 -0.0358,0.011 -0.0534,0.014 -0.0715,0.019 -0.14197,0.042 -0.21099,0.069 -0.0102,0 -0.0205,0.011 -0.0301,0.011 -0.0748,0.029 -0.14845,0.061 -0.21986,0.095 -0.006,0 -0.009,0 -0.0142,0.012 -0.8,0.3932 -1.37616,1.1659 -1.50023,2.0892 -0.008,0.017 -0.008,0.033 -0.008,0.05 -0.006,0.05 -0.0102,0.1017 -0.0102,0.1529 -0.008,0.046 -0.009,0.091 -0.009,0.1373 -1.1e-4,0.011 0,0.021 0,0.031 v 21.9424 0.032 c 0,0.046 0.009,0.093 0.009,0.1384 0.006,0.05 0.006,0.1017 0.0102,0.1507 0,0.018 0.008,0.037 0.008,0.055 0.088,0.6468 0.39794,1.2191 0.85174,1.6394 0.0656,0.061 0.13407,0.1177 0.20542,0.1719 0.0705,0.054 0.1431,0.104 0.21872,0.1506 0.0742,0.046 0.14999,0.088 0.22878,0.1261 0.0742,0.036 0.15089,0.07 0.22872,0.099 0.0102,0 0.0205,0.011 0.0301,0.011 0.0676,0.025 0.13651,0.048 0.20649,0.068 0.0222,0.011 0.0449,0.011 0.0677,0.017 0.0592,0.015 0.11792,0.029 0.17875,0.039 0.0358,0.011 0.0725,0.011 0.10886,0.017 0.0455,0.011 0.0911,0.011 0.13769,0.016 0.0523,0 0.10489,0.011 0.15773,0.011 0.0261,0 0.0523,0 0.0788,0 0.0114,0 0.0233,0 0.0347,0 0.0551,-4e-4 0.10932,0 0.16436,-0.011 0.0352,0 0.0718,0 0.10659,-0.011 0.0415,0 0.0829,-0.013 0.12435,-0.02 0.0569,-0.011 0.11318,-0.017 0.16879,-0.03 0,0 -2.3e-4,0 0.006,0 0.006,-6e-4 0.0102,0 0.0102,0 0.27058,-0.062 0.52432,-0.1637 0.75736,-0.2991 l 0.0142,-0.011 18.7231,-10.8646 c 0,-5e-4 0.007,-5e-4 0.007,0 0.36256,-0.1784 0.68602,-0.4423 0.94612,-0.7779 0.0131,-0.017 0.0273,-0.034 0.0398,-0.051 0.0347,-0.047 0.0669,-0.096 0.0989,-0.1451 0.0176,-0.027 0.0364,-0.056 0.0534,-0.083 0.008,-0.013 0.0176,-0.024 0.0256,-0.037 0.0159,-0.027 0.0273,-0.057 0.0421,-0.085 0.0239,-0.045 0.0472,-0.09 0.0689,-0.1363 0.0148,-0.033 0.0278,-0.066 0.042,-0.099 0.0193,-0.047 0.0398,-0.095 0.0568,-0.1429 0.0148,-0.042 0.0284,-0.083 0.0409,-0.126 0.0119,-0.042 0.0256,-0.086 0.0352,-0.1284 0.0102,-0.041 0.0182,-0.083 0.0267,-0.125 0.009,-0.047 0.0188,-0.091 0.0256,-0.1384 0.006,-0.044 0.008,-0.089 0.0142,-0.1338 0.006,-0.04 0.006,-0.08 0.0102,-0.1194 0.006,-0.047 0.006,-0.093 0.006,-0.1396 0,-0.047 3.4e-4,-0.094 -0.006,-0.1407 0,-0.039 -0.006,-0.078 -0.0102,-0.1171 -0.006,-0.046 -0.008,-0.091 -0.0142,-0.1373 -0.007,-0.046 -0.0153,-0.09 -0.0244,-0.135 -0.008,-0.042 -0.0165,-0.085 -0.0267,-0.1272 -0.0102,-0.042 -0.0233,-0.083 -0.0352,-0.1251 -0.0131,-0.044 -0.0261,-0.089 -0.042,-0.1328 -0.0153,-0.043 -0.0329,-0.087 -0.05,-0.1293 -0.0159,-0.039 -0.0312,-0.077 -0.0489,-0.1143 -0.0205,-0.045 -0.0438,-0.088 -0.0666,-0.1318 -0.0148,-0.027 -0.0273,-0.056 -0.0432,-0.083 -0.006,-0.012 -0.0142,-0.021 -0.021,-0.032 -0.0205,-0.034 -0.042,-0.069 -0.0643,-0.1017 -0.0296,-0.046 -0.0581,-0.09 -0.0899,-0.1328 -0.0119,-0.016 -0.025,-0.03 -0.0375,-0.046 -0.0454,-0.059 -0.0926,-0.1173 -0.14212,-0.1718 -0.22583,-0.248 -0.49078,-0.4474 -0.77954,-0.5938 L 33.18534,29.017 c -0.23544,-0.1368 -0.49139,-0.2399 -0.7651,-0.3013 0,-5e-4 -0.007,-5e-4 -0.007,0 -0.0627,-0.014 -0.12673,-0.025 -0.19097,-0.034 -0.0301,0 -0.0598,-0.011 -0.0899,-0.014 -0.0432,0 -0.0884,-0.011 -0.13212,-0.011 -0.0494,0 -0.0983,-0.011 -0.14771,-0.011 -0.0119,0 -0.0244,0 -0.0352,0 z" />
    <path
       id="rect1323-3-5-4-7-6-7-7-3-8-8"
       style="color:#000000;font-style:normal;font-variant:normal;font-weight:normal;font-stretch:normal;font-size:medium;line-height:normal;font-family:sans-serif;font-variant-ligatures:normal;font-variant-position:normal;font-variant-caps:normal;font-variant-numeric:normal;font-variant-alternates:normal;font-variant-east-asian:normal;font-feature-settings:normal;font-variation-settings:normal;text-indent:0;text-align:start;text-decoration:none;text-decoration-line:none;text-decoration-style:solid;text-decoration-color:#000000;letter-spacing:normal;word-spacing:normal;text-transform:none;writing-mode:lr-tb;direction:ltr;text-orientation:mixed;dominant-baseline:auto;baseline-shift:baseline;text-anchor:start;white-space:normal;shape-padding:0;shape-margin:0;inline-size:0;clip-rule:nonzero;display:inline;overflow:visible;visibility:visible;opacity:0.75;isolation:auto;mix-blend-mode:normal;color-interpolation:sRGB;color-interpolation-filters:linearRGB;solid-color:#000000;solid-opacity:1;vector-effect:none;fill:#562541;fill-opacity:1;fill-rule:nonzero;stroke:none;stroke-width:1.13954;stroke-linecap:round;stroke-linejoin:round;stroke-miterlimit:4;stroke-dasharray:none;stroke-dashoffset:2.1875;stroke-opacity:1;color-rendering:auto;image-rendering:auto;shape-rendering:auto;text-rendering:auto;enable-background:accumulate;stop-color:#000000"
       d="m 31.23363,25.5012 a 0.85230281,0.85718609 0 0 0 -0.0822,0.012 c -5.2e-4,2e-4 -0.007,0 -0.007,0 -5.7e-4,4e-4 -0.0322,0 -0.0266,0 h 0.007 c -0.0394,0 -0.0951,0 -0.15979,0.011 -0.10443,0.011 -0.17718,0.018 -0.2197,0.025 -0.0125,0 -0.0619,0 -0.14648,0.022 -0.0897,0.016 -0.16798,0.038 -0.23302,0.054 v 0 c 0.008,0 -0.0302,0.011 -0.071,0.019 -0.0969,0.027 -0.19001,0.057 -0.27741,0.089 -0.0169,0.011 -0.0438,0.013 -0.0976,0.038 -0.002,0 -0.002,0 -0.005,0 -0.0589,0.024 -0.11702,0.048 -0.17312,0.074 -0.0784,0.032 -0.10352,0.047 -0.0444,0.021 -0.003,0 -0.006,0 -0.009,0 a 0.85230281,0.85718609 0 0 0 -0.0177,0.011 c -1.01533,0.4992 -1.73109,1.48 -1.92636,2.6361 -0.0251,0.1165 -0.0599,0.2637 -0.0599,0.2746 l 0.005,-0.096 c -0.007,0.063 -0.0156,0.1456 -0.0156,0.2477 l 0.0133,-0.1473 c -0.0225,0.1289 -0.0222,0.2258 -0.0222,0.2857 -5e-5,0.014 0,0.028 0,0.031 v 21.9408 0.031 c 0,0.1593 0.009,0.2054 0.009,0.1384 a 0.85230281,0.85718609 0 0 0 0.007,0.098 c -0.001,-0.014 -0.002,0.029 0.007,0.1316 l -0.002,-0.078 c 0,0.2654 0.007,0.2837 0.007,0.054 a 0.85230281,0.85718609 0 0 0 0.009,0.1162 c 0.11521,0.8474 0.52352,1.6027 1.11852,2.1538 0.0881,0.082 0.17706,0.1561 0.26853,0.2255 0.0884,0.067 0.18438,0.1347 0.28853,0.1986 0.0956,0.058 0.19662,0.1143 0.30182,0.1651 0.0955,0.047 0.19472,0.093 0.29962,0.1318 a 0.85230281,0.85718609 0 0 0 0.031,0.011 c -0.0436,-0.015 -0.0402,-0.015 0.0156,0 0.0818,0.03 0.16956,0.058 0.26409,0.085 a 0.85230281,0.85718609 0 0 0 0.0156,0 c 0.0256,0.011 0.0531,0.015 0.0843,0.023 h -0.0114 c 0.0711,0.018 0.14878,0.035 0.23524,0.051 h -0.0114 c 0.0709,0.014 0.11946,0.018 0.14649,0.022 a 0.85230281,0.85718609 0 0 0 0.0156,0 c 0.0444,0 0.10148,0.011 0.17089,0.018 0.0761,0.011 0.14049,0.011 0.19309,0.014 10e-4,0 0.0424,0 0.11763,0 0.12499,0 0.13555,0 0.0333,0 a 0.85230281,0.85718609 0 0 0 0.007,0 c 0.0927,-8e-4 0.16334,-0.011 0.21084,-0.011 a 0.85230281,0.85718609 0 0 0 0.002,0 c 0.0339,0 0.0794,-0.011 0.13538,-0.011 a 0.85230281,0.85718609 0 0 0 0.009,0 c 0.0844,-0.011 0.14023,-0.021 0.16644,-0.025 0.0311,0 0.0834,-0.016 0.12874,-0.025 0.0261,0 0.0567,-0.015 0.0822,-0.021 -0.0234,0.011 -0.0386,0.013 -0.0533,0.016 0.0225,0 0.0344,0 0.0599,-0.011 a 0.85230281,0.85718609 0 0 0 0.02,0 0.85230281,0.85718609 0 0 0 0.005,0 0.85230281,0.85718609 0 0 0 0.0689,-0.021 c 0.006,0 0.009,0 0.0156,0 0.006,0 0.0156,-0.011 0.0244,-0.014 0.002,0 0.005,0 0.007,0 0.007,0 0.0102,0 0.0177,-0.011 a 0.85230281,0.85718609 0 0 0 0.0114,-0.012 0.85230281,0.85718609 0 0 0 0.0622,-0.028 0.85230281,0.85718609 0 0 0 0.002,0 c 0.27248,-0.081 0.54417,-0.1691 0.78341,-0.308 a 0.85230281,0.85718609 0 0 0 0.031,-0.021 l 18.66,-10.8277 h 0.005 l 0.04,-0.022 a 0.85230281,0.85718609 0 0 0 0.0266,-0.018 c 0.007,0 0.0289,-0.014 0.0289,-0.014 h -0.002 a 0.85230281,0.85718609 0 0 0 0.18643,-0.1719 c 0.35026,-0.221 0.69822,-0.4517 0.95874,-0.7878 a 0.85230281,0.85718609 0 0 0 0.002,0 c -4.2e-4,5e-4 0.0198,-0.025 0.0489,-0.065 0.0534,-0.072 0.096,-0.1356 0.13093,-0.1897 a 0.85230281,0.85718609 0 0 0 0.002,0 c 0.0114,-0.017 0.032,-0.05 0.0599,-0.096 h 0.002 c -0.0299,0.049 -0.0256,0.051 0.0289,-0.038 a 0.85230281,0.85718609 0 0 0 0.009,-0.018 c 0.0539,-0.094 0.0665,-0.1294 0.0555,-0.1097 h 0.002 c 0.0265,-0.05 0.0568,-0.1063 0.0866,-0.1697 a 0.85230281,0.85718609 0 0 0 0.005,-0.014 c 0.0268,-0.059 0.0424,-0.096 0.0489,-0.112 a 0.85230281,0.85718609 0 0 0 0.007,-0.016 c 0.0149,-0.037 0.0408,-0.096 0.071,-0.1808 0.0184,-0.053 0.038,-0.1075 0.0555,-0.1675 a 0.85230281,0.85718609 0 0 0 0.002,-0.011 c 0.006,-0.022 0.024,-0.078 0.0421,-0.154 l 0.002,-0.012 c 0.0156,-0.064 0.0266,-0.1165 0.0333,-0.1495 a 0.85230281,0.85718609 0 0 0 0,-0.011 c 0.007,-0.038 0.0211,-0.098 0.0333,-0.1808 a 0.85230281,0.85718609 0 0 0 0.002,-0.016 c 0.0114,-0.087 0.014,-0.1276 0.0133,-0.1227 h -0.002 c 0.0166,-0.1152 0.0159,-0.1537 0.0133,-0.1363 v -0.011 c 0.0127,-0.1097 0.0114,-0.1936 0.0114,-0.2387 0,-0.035 -6.1e-4,-0.1167 -0.009,-0.2077 -0.005,-0.063 -0.009,-0.1339 -0.0114,-0.1495 a 0.85230281,0.85718609 0 0 0 -0.002,-0.011 c -5.3e-4,0 -0.002,-0.053 -0.0156,-0.1473 a 0.85230281,0.85718609 0 0 0 0,-0.011 c -0.009,-0.061 -0.0211,-0.1157 -0.031,-0.1653 l -0.002,-0.014 c -0.009,-0.048 -0.0195,-0.099 -0.0333,-0.1562 -0.0193,-0.079 -0.0365,-0.1331 -0.0444,-0.1607 a 0.85230281,0.85718609 0 0 0 -0.002,0 c -0.0131,-0.045 -0.0301,-0.1052 -0.0555,-0.1764 v 0 c -0.0239,-0.067 -0.0464,-0.1211 -0.0622,-0.1607 a 0.85230281,0.85718609 0 0 0 -0.005,-0.011 c -0.014,-0.034 -0.0337,-0.081 -0.0622,-0.1428 h -0.002 c -0.0336,-0.073 -0.0626,-0.1285 -0.0843,-0.1696 10e-4,0 -0.0218,-0.038 -0.0333,-0.061 -0.0747,-0.1517 -0.10193,-0.1753 -0.0533,-0.094 -0.0293,-0.049 -0.0583,-0.096 -0.0866,-0.1384 l 0.002,0.011 c -0.0253,-0.039 -0.0607,-0.099 -0.11762,-0.1763 a 0.85230281,0.85718609 0 0 0 -0.005,0 c -0.0383,-0.052 -0.0449,-0.058 -0.0422,-0.054 l -0.009,-0.011 c -0.053,-0.069 -0.10931,-0.1414 -0.17755,-0.2164 a 0.85230281,0.85718609 0 0 0 -0.002,0 c -0.29644,-0.3256 -0.64387,-0.589 -1.0231,-0.7813 l 0.0422,0.022 -18.77319,-10.8923 v 0 c -0.26657,-0.1538 -0.56551,-0.2621 -0.87441,-0.3449 0.007,0 0.008,0.011 0.0156,0.011 l -0.051,-0.021 -0.0466,-0.026 c -6e-5,0 -0.0221,0 -0.0333,-0.011 -0.006,0 -0.0102,0 -0.0156,-0.011 h 0.002 0.002 -0.0133 c -0.0128,0 -0.023,0 -0.0355,-0.011 -0.009,0 -0.0159,0 -0.0244,0 -0.002,-5e-4 -0.005,0 -0.007,0 -0.008,0 -0.003,5e-4 -0.009,0 -0.0592,-0.012 -0.11835,-0.025 -0.17089,-0.033 h -0.002 c -0.008,0 -0.0516,-0.011 -0.10432,-0.016 h -0.0244 c -0.0797,-0.011 -0.14199,-0.011 -0.15314,-0.011 a 0.85230281,0.85718609 0 0 0 -0.007,0 c -0.049,0 -0.11296,-0.011 -0.18864,-0.011 a 0.85230281,0.85718609 0 0 0 -0.0177,0 0.85230281,0.85718609 0 0 0 -0.051,0 z m 0.83224,0.1006 c 0.006,0 0.0134,0 0.0177,0 v 0 c -0.006,-0.001 -0.0115,0 -0.0177,-0.011 z m -0.79895,1.6137 c 0.007,4e-4 -0.0153,0 0.0177,0 h -0.02 c 0.0232,6e-4 0.0589,0 0.10875,0.011 h -0.009 c 0.0746,0 0.10739,0.011 0.0888,0.011 a 0.85230281,0.85718609 0 0 0 0.0244,0 c -0.0193,0 -0.003,10e-4 0.0489,0.011 a 0.85230281,0.85718609 0 0 0 0.002,0 c 0.0523,0.011 0.0956,0.017 0.13094,0.024 h -0.005 l -0.009,-0.011 h 0.0156 a 0.85230281,0.85718609 0 0 0 0.005,0.011 c 0.18608,0.042 0.35938,0.112 0.52376,0.2075 l 18.7732,10.8924 a 0.85230281,0.85718609 0 0 0 0.0422,0.022 c 0.19826,0.1005 0.37966,0.2359 0.53485,0.4063 0.0277,0.031 0.0592,0.071 0.0955,0.1182 a 0.85230281,0.85718609 0 0 0 0.009,0.011 c 0.0378,0.048 0.0459,0.058 0.0244,0.029 0.007,0.012 0.0249,0.037 0.0577,0.087 a 0.85230281,0.85718609 0 0 0 0.002,0 c 0.0164,0.024 0.0306,0.048 0.0422,0.067 0.0623,0.104 0.0522,0.1 -0.0114,-0.028 a 0.85230281,0.85718609 0 0 0 0.0266,0.051 c -0.0132,-0.023 -0.006,-0.011 0.0266,0.054 0.0236,0.045 0.04,0.077 0.0466,0.091 a 0.85230281,0.85718609 0 0 0 0.002,0 c 0.006,0.013 0.0158,0.038 0.0333,0.08 0.0154,0.039 0.0275,0.071 0.0333,0.087 a 0.85230281,0.85718609 0 0 0 0.002,0 c 0.005,0.014 0.014,0.042 0.0266,0.085 0.0144,0.05 0.0233,0.08 0.0244,0.085 0.006,0.023 0.009,0.05 0.0156,0.082 a 0.85230281,0.85718609 0 0 0 0.005,0.014 c 0.008,0.037 0.0119,0.067 0.0156,0.091 1.4e-4,0 10e-4,0.034 0.0114,0.1142 0.002,0.022 0.005,0.043 0.005,0.011 a 0.85230281,0.85718609 0 0 0 0.007,0.1097 c -0.003,-0.029 -0.002,-0.019 -0.002,0.031 0,0.047 -3.9e-4,0.057 0.002,0.036 a 0.85230281,0.85718609 0 0 0 -0.002,0.011 c -0.0119,0.1051 -0.0126,0.1354 -0.007,0.094 -0.0132,0.094 -0.0152,0.143 -0.0156,0.145 -0.002,0.015 -0.007,0.034 -0.0156,0.08 -0.009,0.042 -0.0148,0.073 -0.0177,0.085 a 0.85230281,0.85718609 0 0 0 -0.005,0.017 c 0.001,-0.011 -0.007,0.022 -0.0244,0.082 -0.007,0.023 -0.0144,0.047 -0.0244,0.076 -0.005,0.011 -0.0189,0.046 -0.0422,0.1028 -0.0148,0.035 -0.0266,0.064 -0.0289,0.07 -0.0122,0.025 -0.026,0.053 -0.0444,0.087 a 0.85230281,0.85718609 0 0 0 -0.002,0 c -0.0384,0.073 -0.0397,0.078 -0.0244,0.051 0.002,0 -0.005,0.011 -0.002,0.011 -0.006,0.011 0.0157,-0.03 -0.0114,0.014 a 0.85230281,0.85718609 0 0 0 -0.005,0 c -0.005,0.011 -0.0184,0.03 -0.0422,0.067 -0.0278,0.043 -0.0489,0.075 -0.0643,0.096 a 0.85230281,0.85718609 0 0 0 -0.009,0.011 c 0.0122,-0.017 0.005,-0.011 -0.0222,0.026 -0.18242,0.235 -0.40427,0.4136 -0.64804,0.5335 a 0.85230281,0.85718609 0 0 0 -0.0554,0.031 h -0.002 l -0.0244,0.016 -18.69773,10.8499 a 0.85230281,0.85718609 0 0 0 -0.0177,0.011 c -0.16041,0.093 -0.33177,0.1615 -0.51487,0.2031 a 0.85230281,0.85718609 0 0 0 -0.0114,0 c -0.0186,0 -0.0585,0.013 -0.11985,0.022 -0.0506,0.011 -0.0687,0.011 -0.0732,0.011 -0.0136,0 -0.041,0 -0.0777,0.012 -0.0606,0 -0.10045,0 -0.11762,0 -0.064,5e-4 -0.10853,0 -0.0266,0 0.0223,0 0.009,0 -0.0422,0 -0.0527,0 -0.0945,0 -0.12205,-0.012 -0.0201,0 -0.0523,0 -0.0888,-0.011 h -0.0156 c -0.0283,0 -0.0549,-0.011 -0.0555,-0.011 a 0.85230281,0.85718609 0 0 0 -0.0114,0 c -0.0352,-0.012 -0.0748,-0.015 -0.12207,-0.026 a 0.85230281,0.85718609 0 0 0 -0.0114,0 c -0.0102,0 -0.0233,-0.011 -0.0354,-0.011 h -0.007 c -0.003,-8e-4 -0.006,0 -0.009,0 -0.0393,-0.012 -0.0805,-0.025 -0.12651,-0.042 a 0.85230281,0.85718609 0 0 0 -0.007,0 c 0.0114,0 -0.0149,0 -0.0133,0 h -0.002 c -0.05,-0.019 -0.1033,-0.041 -0.15535,-0.067 -0.0524,-0.025 -0.10477,-0.053 -0.15757,-0.084 -0.047,-0.029 -0.0962,-0.063 -0.14869,-0.1029 -0.0513,-0.039 -0.099,-0.079 -0.14203,-0.1183 -0.31254,-0.2895 -0.523,-0.6786 -0.58369,-1.1249 l 0.007,0.1161 c 0,-0.2668 -0.007,-0.282 -0.007,-0.054 a 0.85230281,0.85718609 0 0 0 -0.005,-0.08 c 3.5e-4,0 0.002,-0.053 -0.0114,-0.1674 l 0.005,0.096 c 0,-0.1593 -0.009,-0.2054 -0.009,-0.1384 v -0.031 -21.9408 c 0,-0.017 -10e-6,-0.023 0,-0.025 a 0.85230281,0.85718609 0 0 0 0,-0.011 c 0,-0.031 0.002,-0.029 -0.005,0.011 a 0.85230281,0.85718609 0 0 0 0.0137,-0.1471 c 0,-6e-4 0.002,-0.021 0.005,-0.045 a 0.85230281,0.85718609 0 0 0 0.007,-0.045 c 0.0856,-0.6371 0.48044,-1.163 1.02977,-1.433 a 0.85230281,0.85718609 0 0 0 0.009,0 c 0.0504,-0.024 0.10136,-0.046 0.15091,-0.065 a 0.85230281,0.85718609 0 0 0 0.0222,-0.011 c 0.0506,-0.018 0.0982,-0.034 0.14428,-0.047 a 0.85230281,0.85718609 0 0 0 0.0222,-0.011 c -0.037,0.011 -0.0333,0.011 0.0133,0 0.0562,-0.015 0.0997,-0.024 0.13095,-0.029 a 0.85230281,0.85718609 0 0 0 0.0156,0 c -0.0197,0 -10e-4,0.001 0.0533,-0.011 a 0.85230281,0.85718609 0 0 0 0.002,0 c 0.0608,-0.011 0.0897,-0.014 0.091,-0.014 a 0.85230281,0.85718609 0 0 0 0.0133,0 c 0.0131,-10e-4 0.0395,0 0.0822,0 a 0.85230281,0.85718609 0 0 0 0.007,0 c 0.0923,0 0.1142,0 0.0687,0 a 0.85230281,0.85718609 0 0 0 0.02,0 0.85230281,0.85718609 0 0 0 0.002,0 z M 31.0916,53.3459 a 0.85230281,0.85718609 0 0 0 -0.009,0.018 c 9e-5,-3e-4 0.002,-0.011 0.002,-0.011 -10e-6,1e-4 0.006,-0.011 0.007,-0.011 z" />
    <path
       id="rect1323-3-5-4-7-6-7-8-3"
       style="display:inline;fill:#fbfdfc;fill-opacity:1;stroke:none;stroke-width:1.13994;stroke-linecap:round;stroke-linejoin:round;stroke-miterlimit:4;stroke-dasharray:none;stroke-dashoffset:2.1875;stroke-opacity:1"
       d="m 31.2451,26.3571 v 0 c -0.033,0 -0.0648,0 -0.0978,0.011 -0.0426,0 -0.085,0 -0.1277,0 -0.0528,0 -0.10488,0.011 -0.15656,0.019 -0.033,0 -0.0669,0.011 -0.1,0.015 -0.0643,0.011 -0.12707,0.026 -0.18983,0.042 -0.0182,0 -0.0358,0.011 -0.0534,0.014 -0.0715,0.019 -0.14197,0.042 -0.21099,0.069 -0.0102,0 -0.0205,0.011 -0.0301,0.011 -0.0748,0.029 -0.14845,0.061 -0.21986,0.095 -0.006,0 -0.009,0 -0.0142,0.012 -0.8,0.3932 -1.37616,1.1659 -1.50023,2.0892 -0.008,0.017 -0.008,0.033 -0.008,0.05 -0.006,0.05 -0.0102,0.1017 -0.0102,0.1529 -0.008,0.046 -0.009,0.091 -0.009,0.1373 -1.1e-4,0.011 0,0.021 0,0.031 v 21.9424 0.032 c 0,0.046 0.009,0.092 0.009,0.1384 0.006,0.05 0.006,0.1017 0.0102,0.1507 0,0.018 0.008,0.037 0.008,0.055 0.088,0.6468 0.39793,1.2191 0.85174,1.6394 0.0656,0.061 0.13407,0.1177 0.20542,0.1719 0.0705,0.054 0.1431,0.104 0.21872,0.1506 0.0742,0.046 0.14998,0.088 0.22878,0.1262 0.0742,0.037 0.15089,0.07 0.22872,0.099 0.0102,0 0.0205,0.011 0.0301,0.011 0.0676,0.025 0.13651,0.048 0.20649,0.068 0.0222,0.011 0.0449,0.011 0.0677,0.017 0.0592,0.015 0.11792,0.029 0.17875,0.039 0.0358,0.011 0.0725,0.011 0.10886,0.017 0.0455,0 0.0911,0.011 0.13769,0.016 0.0523,0 0.10489,0.011 0.15773,0.011 0.0261,0 0.0523,0 0.0787,0 0.0114,0 0.0233,0 0.0347,0 0.0551,-5e-4 0.10932,0 0.16436,-0.011 0.0352,0 0.0718,0 0.10659,-0.011 0.0415,0 0.0828,-0.013 0.12434,-0.018 0.0569,-0.011 0.11319,-0.017 0.1688,-0.03 0,0 -2.3e-4,0 0.006,0 0.006,-6e-4 0.0102,0 0.0102,0 0.27058,-0.062 0.52432,-0.1637 0.75736,-0.2992 l 0.0142,-0.011 18.72309,-10.8645 c 0,-6e-4 0.007,-6e-4 0.007,0 0.36256,-0.1784 0.68601,-0.4423 0.94612,-0.778 0.0131,-0.017 0.0273,-0.034 0.0398,-0.051 0.0347,-0.047 0.0669,-0.096 0.0989,-0.145 0.0176,-0.027 0.0364,-0.056 0.0534,-0.083 0.008,-0.013 0.0176,-0.024 0.0256,-0.036 0.0159,-0.028 0.0273,-0.057 0.042,-0.085 0.0239,-0.045 0.0472,-0.09 0.0689,-0.1362 0.0148,-0.033 0.0278,-0.066 0.042,-0.1 0.0193,-0.047 0.0398,-0.095 0.0568,-0.1427 0.0148,-0.042 0.0284,-0.083 0.0409,-0.1262 0.0119,-0.042 0.0256,-0.086 0.0352,-0.1283 0.0102,-0.041 0.0182,-0.083 0.0267,-0.125 0.009,-0.047 0.0187,-0.091 0.0256,-0.1384 0.006,-0.045 0.008,-0.089 0.0142,-0.1339 0.006,-0.04 0.006,-0.08 0.0102,-0.1194 0.006,-0.047 0.006,-0.093 0.006,-0.1395 0,-0.047 3.4e-4,-0.094 -0.006,-0.1406 0,-0.039 -0.006,-0.078 -0.0102,-0.1173 -0.006,-0.046 -0.008,-0.091 -0.0142,-0.1372 -0.007,-0.046 -0.0153,-0.09 -0.0244,-0.1351 -0.008,-0.042 -0.0165,-0.085 -0.0267,-0.1272 -0.0102,-0.042 -0.0233,-0.083 -0.0352,-0.125 -0.0131,-0.045 -0.0261,-0.089 -0.042,-0.1327 -0.0153,-0.043 -0.0329,-0.087 -0.05,-0.1295 -0.0159,-0.039 -0.0312,-0.075 -0.0489,-0.1143 -0.0205,-0.045 -0.0437,-0.088 -0.0666,-0.1318 -0.0148,-0.027 -0.0273,-0.056 -0.0432,-0.083 -0.006,-0.011 -0.0142,-0.021 -0.021,-0.032 -0.0205,-0.034 -0.042,-0.069 -0.0643,-0.1017 -0.0296,-0.046 -0.0581,-0.09 -0.0899,-0.1328 -0.0119,-0.016 -0.025,-0.03 -0.0375,-0.046 -0.0455,-0.059 -0.0926,-0.1174 -0.14213,-0.1718 -0.22583,-0.2481 -0.49077,-0.4473 -0.77953,-0.5938 L 32.61694,26.7335 c -0.23543,-0.1368 -0.49138,-0.24 -0.76509,-0.3013 0,-6e-4 -0.007,-6e-4 -0.007,0 -0.0627,-0.014 -0.12672,-0.025 -0.19096,-0.034 -0.0301,0 -0.0598,-0.011 -0.0899,-0.014 -0.0432,0 -0.0884,-0.012 -0.13212,-0.012 -0.0494,0 -0.0983,-0.011 -0.14771,-0.011 -0.0119,0 -0.0244,0 -0.0352,0 z" />
  </g>
</svg>
