<?xml version="1.0" encoding="UTF-8" standalone="no"?>
<svg
   xmlns:dc="http://purl.org/dc/elements/1.1/"
   xmlns:cc="http://creativecommons.org/ns#"
   xmlns:rdf="http://www.w3.org/1999/02/22-rdf-syntax-ns#"
   xmlns:svg="http://www.w3.org/2000/svg"
   xmlns="http://www.w3.org/2000/svg"
   xmlns:xlink="http://www.w3.org/1999/xlink"
   xmlns:sodipodi="http://sodipodi.sourceforge.net/DTD/sodipodi-0.dtd"
   xmlns:inkscape="http://www.inkscape.org/namespaces/inkscape"
   width="64"
   height="64"
   viewBox="0 0 16.933333 16.933334"
   version="1.1"
   id="svg841"
   inkscape:version="1.0.2 (e86c870879, 2021-01-15)"
   sodipodi:docname="drive-harddisk.svg">
  <defs
     id="defs835">
    <linearGradient
       inkscape:collect="always"
       xlink:href="#linearGradient2273-6"
       id="linearGradient3596"
       gradientUnits="userSpaceOnUse"
       x1="-9.6086082"
       y1="27.455952"
       x2="-9.6086092"
       y2="42.272617"
       gradientTransform="translate(17.810693,-26.529908)" />
    <linearGradient
       inkscape:collect="always"
       id="linearGradient2273-6">
      <stop
         style="stop-color:#e4e4e8;stop-opacity:1"
         offset="0"
         id="stop2269-4" />
      <stop
         style="stop-color:#d6d6db;stop-opacity:1"
         offset="1"
         id="stop2271-9" />
    </linearGradient>
  </defs>
  <sodipodi:namedview
     id="base"
     pagecolor="#c4c4c4"
     bordercolor="#666666"
     borderopacity="1.0"
     inkscape:pageopacity="0"
     inkscape:pageshadow="2"
     inkscape:zoom="3.119936"
     inkscape:cx="-77.756856"
     inkscape:cy="54.659166"
     inkscape:document-units="px"
     inkscape:current-layer="layer1"
     inkscape:document-rotation="0"
     showgrid="false"
     units="px"
     inkscape:window-width="2048"
     inkscape:window-height="1080"
     inkscape:window-x="0"
     inkscape:window-y="0"
     inkscape:window-maximized="1" />
  <metadata
     id="metadata838">
    <rdf:RDF>
      <cc:Work
         rdf:about="">
        <dc:format>image/svg+xml</dc:format>
        <dc:type
           rdf:resource="http://purl.org/dc/dcmitype/StillImage" />
        <dc:title />
      </cc:Work>
    </rdf:RDF>
  </metadata>
  <g
     inkscape:label="Layer 1"
     inkscape:groupmode="layer"
     id="layer1">
    <path
       id="rect3559-1-9-6-2-7"
       style="color:#000000;font-style:normal;font-variant:normal;font-weight:normal;font-stretch:normal;font-size:medium;line-height:normal;font-family:sans-serif;font-variant-ligatures:normal;font-variant-position:normal;font-variant-caps:normal;font-variant-numeric:normal;font-variant-alternates:normal;font-variant-east-asian:normal;font-feature-settings:normal;font-variation-settings:normal;text-indent:0;text-align:start;text-decoration:none;text-decoration-line:none;text-decoration-style:solid;text-decoration-color:#000000;letter-spacing:normal;word-spacing:normal;text-transform:none;writing-mode:lr-tb;direction:ltr;text-orientation:mixed;dominant-baseline:auto;baseline-shift:baseline;text-anchor:start;white-space:normal;shape-padding:0;shape-margin:0;inline-size:0;clip-rule:nonzero;display:inline;overflow:visible;visibility:visible;opacity:0.15;isolation:auto;mix-blend-mode:normal;color-interpolation:sRGB;color-interpolation-filters:linearRGB;solid-color:#000000;solid-opacity:1;vector-effect:none;fill:#0c0c0c;fill-opacity:1;fill-rule:nonzero;stroke:none;stroke-width:1.00001;stroke-linecap:round;stroke-linejoin:round;stroke-miterlimit:4;stroke-dasharray:none;stroke-dashoffset:2.1875;stroke-opacity:1;paint-order:normal;color-rendering:auto;image-rendering:auto;shape-rendering:auto;text-rendering:auto;enable-background:accumulate;stop-color:#000000"
       d="m 3.7051322,0.52916634 c -0.945862,0 -1.720757,0.77497596 -1.720757,1.72093396 V 14.949882 c 0,0.945959 0.774895,1.718867 1.720757,1.718867 H 13.23027 c 0.945862,0 1.71869,-0.772908 1.71869,-1.718867 V 2.2501003 c 0,-0.945958 -0.772828,-1.72093396 -1.71869,-1.72093396 z m 0,0.79328396 H 13.23027 c 0.519871,0 0.925488,0.407726 0.925488,0.92765 V 14.949882 c 0,0.519924 -0.405617,0.926101 -0.925488,0.926101 H 3.7051322 c -0.519871,0 -0.925488,-0.406177 -0.925488,-0.926101 V 2.2501003 c 0,-0.519924 0.405617,-0.92765 0.925488,-0.92765 z" />
    <path
       id="rect3559-1-9-6"
       style="color:#000000;font-style:normal;font-variant:normal;font-weight:normal;font-stretch:normal;font-size:medium;line-height:normal;font-family:sans-serif;font-variant-ligatures:normal;font-variant-position:normal;font-variant-caps:normal;font-variant-numeric:normal;font-variant-alternates:normal;font-variant-east-asian:normal;font-feature-settings:normal;font-variation-settings:normal;text-indent:0;text-align:start;text-decoration:none;text-decoration-line:none;text-decoration-style:solid;text-decoration-color:#000000;letter-spacing:normal;word-spacing:normal;text-transform:none;writing-mode:lr-tb;direction:ltr;text-orientation:mixed;dominant-baseline:auto;baseline-shift:baseline;text-anchor:start;white-space:normal;shape-padding:0;shape-margin:0;inline-size:0;clip-rule:nonzero;display:inline;overflow:visible;visibility:visible;opacity:0.75;isolation:auto;mix-blend-mode:normal;color-interpolation:sRGB;color-interpolation-filters:linearRGB;solid-color:#000000;solid-opacity:1;vector-effect:none;fill:#43434c;fill-opacity:1;fill-rule:nonzero;stroke:none;stroke-width:1.00001;stroke-linecap:round;stroke-linejoin:round;stroke-miterlimit:4;stroke-dasharray:none;stroke-dashoffset:2.1875;stroke-opacity:1;paint-order:normal;color-rendering:auto;image-rendering:auto;shape-rendering:auto;text-rendering:auto;enable-background:accumulate;stop-color:#000000"
       d="m 3.7051321,0.26458334 c -0.945862,0 -1.720757,0.77497596 -1.720757,1.72093396 V 14.685299 c 0,0.945959 0.774895,1.718867 1.720757,1.718867 H 13.23027 c 0.945862,0 1.71869,-0.772908 1.71869,-1.718867 V 1.9855173 c 0,-0.945958 -0.772828,-1.72093396 -1.71869,-1.72093396 z m 0,0.79328396 H 13.23027 c 0.519871,0 0.925488,0.407726 0.925488,0.92765 V 14.685299 c 0,0.519924 -0.405617,0.926101 -0.925488,0.926101 H 3.7051321 c -0.519871,0 -0.925488,-0.406177 -0.925488,-0.926101 V 1.9855173 c 0,-0.519924 0.405617,-0.92765 0.925488,-0.92765 z" />
    <rect
       style="fill:url(#linearGradient3596);fill-opacity:1;stroke:none;stroke-width:0.79375;stroke-linecap:round;stroke-linejoin:round;stroke-miterlimit:4;stroke-dasharray:none;stroke-dashoffset:2.1875;stroke-opacity:1;paint-order:normal"
       id="rect3559-1"
       width="12.170834"
       height="15.345834"
       x="2.3812501"
       y="0.66145724"
       rx="1.3229167"
       ry="1.3229167" />
    <path
       id="rect3559-1-9-6-2"
       style="color:#000000;font-style:normal;font-variant:normal;font-weight:normal;font-stretch:normal;font-size:medium;line-height:normal;font-family:sans-serif;font-variant-ligatures:normal;font-variant-position:normal;font-variant-caps:normal;font-variant-numeric:normal;font-variant-alternates:normal;font-variant-east-asian:normal;font-feature-settings:normal;font-variation-settings:normal;text-indent:0;text-align:start;text-decoration:none;text-decoration-line:none;text-decoration-style:solid;text-decoration-color:#000000;letter-spacing:normal;word-spacing:normal;text-transform:none;writing-mode:lr-tb;direction:ltr;text-orientation:mixed;dominant-baseline:auto;baseline-shift:baseline;text-anchor:start;white-space:normal;shape-padding:0;shape-margin:0;inline-size:0;clip-rule:nonzero;display:inline;overflow:visible;visibility:visible;opacity:0.15;isolation:auto;mix-blend-mode:normal;color-interpolation:sRGB;color-interpolation-filters:linearRGB;solid-color:#000000;solid-opacity:1;vector-effect:none;fill:#0c0c0c;fill-opacity:1;fill-rule:nonzero;stroke:none;stroke-width:1.00001;stroke-linecap:round;stroke-linejoin:round;stroke-miterlimit:4;stroke-dasharray:none;stroke-dashoffset:2.1875;stroke-opacity:1;paint-order:normal;color-rendering:auto;image-rendering:auto;shape-rendering:auto;text-rendering:auto;enable-background:accumulate;stop-color:#000000"
       d="m 3.705132,0.26458334 c -0.945862,0 -1.720757,0.77497596 -1.720757,1.72093396 V 14.685299 c 0,0.945959 0.774895,1.718867 1.720757,1.718867 h 9.525138 c 0.945862,0 1.71869,-0.772908 1.71869,-1.718867 V 1.9855173 c 0,-0.945958 -0.772828,-1.72093396 -1.71869,-1.72093396 z m 0,0.79328396 h 9.525138 c 0.519871,0 0.925488,0.407726 0.925488,0.92765 V 14.685299 c 0,0.519924 -0.405617,0.926101 -0.925488,0.926101 H 3.705132 c -0.519871,0 -0.925488,-0.406177 -0.925488,-0.926101 V 1.9855173 c 0,-0.519924 0.405617,-0.92765 0.925488,-0.92765 z" />
    <path
       id="path1010-8-0-6-2-5-2-8"
       style="fill:#9c969c;fill-opacity:1;stroke-width:1.24024;stroke-linecap:round;stroke-linejoin:round;stroke-dashoffset:2.1875"
       d="M 8.4366965,5.9531523 A 3.9687501,3.9687501 0 0 0 4.4979145,9.9219018 3.9687501,3.9687501 0 0 0 8.4666675,13.890649 3.9687501,3.9687501 0 0 0 12.43542,9.9219018 3.9687501,3.9687501 0 0 0 8.4666675,5.9531523 a 3.9687501,3.9687501 0 0 0 -0.029971,0 z m 0.01394,2.9104145 a 1.0583334,1.0583334 0 0 1 0.01601,0 1.0583334,1.0583334 0 0 1 1.0583334,1.058337 A 1.0583334,1.0583334 0 0 1 8.4666466,10.980234 1.0583334,1.0583334 0 0 1 7.4083119,9.9219038 1.0583334,1.0583334 0 0 1 8.4506265,8.8635668 Z" />
    <path
       style="color:#000000;font-style:normal;font-variant:normal;font-weight:normal;font-stretch:normal;font-size:medium;line-height:normal;font-family:sans-serif;font-variant-ligatures:normal;font-variant-position:normal;font-variant-caps:normal;font-variant-numeric:normal;font-variant-alternates:normal;font-variant-east-asian:normal;font-feature-settings:normal;font-variation-settings:normal;text-indent:0;text-align:start;text-decoration:none;text-decoration-line:none;text-decoration-style:solid;text-decoration-color:#000000;letter-spacing:normal;word-spacing:normal;text-transform:none;writing-mode:lr-tb;direction:ltr;text-orientation:mixed;dominant-baseline:auto;baseline-shift:baseline;text-anchor:start;white-space:normal;shape-padding:0;shape-margin:0;inline-size:0;clip-rule:nonzero;display:inline;overflow:visible;visibility:visible;opacity:0.65;isolation:auto;mix-blend-mode:normal;color-interpolation:sRGB;color-interpolation-filters:linearRGB;solid-color:#000000;solid-opacity:1;vector-effect:none;fill:#43434c;fill-opacity:1;fill-rule:nonzero;stroke:none;stroke-width:0.999718;stroke-linecap:round;stroke-linejoin:round;stroke-miterlimit:4;stroke-dasharray:none;stroke-dashoffset:2.1875;stroke-opacity:1;color-rendering:auto;image-rendering:auto;shape-rendering:auto;text-rendering:auto;enable-background:accumulate;stop-color:#000000"
       d="M 8.4480635,11.337359 C 7.7992008,11.327289 7.2759668,10.79514 7.2760418,10.146662 c 0,-0.04496 0.0085,-0.08748 0.01344,-0.131155 0.06645,0.585853 0.555328,1.04812 1.1585857,1.057482 h 5.171e-4 a 0.13232157,0.13221466 0 0 0 0.0021,0 c 0.006,4.5e-5 0.01157,4.5e-5 0.01757,0 0.6099067,-9.83e-4 1.1087563,-0.466159 1.1756383,-1.058512 0.005,0.044 0.01344,0.08687 0.01344,0.132185 0,0.6549 -0.5338836,1.189643 -1.1890743,1.190697 -0.006,4.5e-5 -0.01157,4.5e-5 -0.01757,0 a 0.13232157,0.13221466 0 0 1 -0.0021,0 z"
       id="path2103-5-5" />
    <path
       style="color:#000000;font-style:normal;font-variant:normal;font-weight:normal;font-stretch:normal;font-size:medium;line-height:normal;font-family:sans-serif;font-variant-ligatures:normal;font-variant-position:normal;font-variant-caps:normal;font-variant-numeric:normal;font-variant-alternates:normal;font-variant-east-asian:normal;font-feature-settings:normal;font-variation-settings:normal;text-indent:0;text-align:start;text-decoration:none;text-decoration-line:none;text-decoration-style:solid;text-decoration-color:#000000;letter-spacing:normal;word-spacing:normal;text-transform:none;writing-mode:lr-tb;direction:ltr;text-orientation:mixed;dominant-baseline:auto;baseline-shift:baseline;text-anchor:start;white-space:normal;shape-padding:0;shape-margin:0;inline-size:0;clip-rule:nonzero;display:inline;overflow:visible;visibility:visible;opacity:0.65;isolation:auto;mix-blend-mode:normal;color-interpolation:sRGB;color-interpolation-filters:linearRGB;solid-color:#000000;solid-opacity:1;vector-effect:none;fill:#43434c;fill-opacity:1;fill-rule:nonzero;stroke:none;stroke-width:0.999956;stroke-linecap:round;stroke-linejoin:round;stroke-miterlimit:4;stroke-dasharray:none;stroke-dashoffset:2.1875;stroke-opacity:1;color-rendering:auto;image-rendering:auto;shape-rendering:auto;text-rendering:auto;enable-background:accumulate;stop-color:#000000"
       d="m 4.6369087,10.040936 c -0.0015,-0.04478 -0.0067,-0.08866 -0.0067,-0.1338192 1e-6,-1.9853385 1.503842,-3.6151675 3.4357882,-3.8147805 0.131658,-0.01277 0.2649002,-0.02015 0.3998967,-0.02015 0.134821,0 0.2678717,0.0074 0.3993777,0.02015 1.9321757,0.199613 3.4378547,1.829442 3.4378557,3.8147805 0,0.04464 -0.0052,0.088 -0.0067,0.1322722 -0.07023,-2.0584727 -1.754934,-3.7036887 -3.8305164,-3.7036857 -2.0761089,-3e-6 -3.7596209,1.646039 -3.8289679,3.7052327 z"
       id="path2105-2-1" />
    <path
       style="color:#000000;font-style:normal;font-variant:normal;font-weight:normal;font-stretch:normal;font-size:medium;line-height:normal;font-family:sans-serif;font-variant-ligatures:normal;font-variant-position:normal;font-variant-caps:normal;font-variant-numeric:normal;font-variant-alternates:normal;font-variant-east-asian:normal;font-feature-settings:normal;font-variation-settings:normal;text-indent:0;text-align:start;text-decoration:none;text-decoration-line:none;text-decoration-style:solid;text-decoration-color:#000000;letter-spacing:normal;word-spacing:normal;text-transform:none;writing-mode:lr-tb;direction:ltr;text-orientation:mixed;dominant-baseline:auto;baseline-shift:baseline;text-anchor:start;white-space:normal;shape-padding:0;shape-margin:0;inline-size:0;clip-rule:nonzero;display:inline;overflow:visible;visibility:visible;opacity:0.85;isolation:auto;mix-blend-mode:normal;color-interpolation:sRGB;color-interpolation-filters:linearRGB;solid-color:#000000;solid-opacity:1;vector-effect:none;fill:#fcfcfc;fill-opacity:1;fill-rule:nonzero;stroke:none;stroke-width:0.999995;stroke-linecap:round;stroke-linejoin:round;stroke-miterlimit:4;stroke-dasharray:none;stroke-dashoffset:2.1875;stroke-opacity:1;color-rendering:auto;image-rendering:auto;shape-rendering:auto;text-rendering:auto;enable-background:accumulate;stop-color:#000000"
       d="m 8.4346276,14.194877 c -2.2515943,-0.017 -4.0690673,-1.849964 -4.0690023,-4.101049 0,-0.04413 0.0053,-0.08692 0.0067,-0.1307082 0.06653,2.0555572 1.644127,3.7333652 3.6638586,3.9439912 0.131359,0.0146 0.2649042,0.02326 0.3999767,0.02428 0.0097,3.6e-5 0.0198,3.6e-5 0.02945,0 0.136482,0 0.2707987,-0.0073 0.4035937,-0.02119 2.0308247,-0.198978 3.6255547,-1.882426 3.6917657,-3.9486422 0.0014,0.04431 0.0067,0.08761 0.0067,0.1322592 1e-6,2.262424 -1.837263,4.099968 -4.1000094,4.101049 -0.01032,3.6e-5 -0.02119,3.6e-5 -0.03152,0 a 0.13232157,0.13228801 0 0 1 -0.0016,0 z"
       id="path1010-8-0-6-2-5-2-3-6-6-5-7" />
    <path
       id="path1010-8-0-6-2-5-2-3-4"
       style="color:#000000;font-style:normal;font-variant:normal;font-weight:normal;font-stretch:normal;font-size:medium;line-height:normal;font-family:sans-serif;font-variant-ligatures:normal;font-variant-position:normal;font-variant-caps:normal;font-variant-numeric:normal;font-variant-alternates:normal;font-variant-east-asian:normal;font-feature-settings:normal;font-variation-settings:normal;text-indent:0;text-align:start;text-decoration:none;text-decoration-line:none;text-decoration-style:solid;text-decoration-color:#000000;letter-spacing:normal;word-spacing:normal;text-transform:none;writing-mode:lr-tb;direction:ltr;text-orientation:mixed;dominant-baseline:auto;baseline-shift:baseline;text-anchor:start;white-space:normal;shape-padding:0;shape-margin:0;inline-size:0;clip-rule:nonzero;display:inline;overflow:visible;visibility:visible;opacity:0.9;isolation:auto;mix-blend-mode:normal;color-interpolation:sRGB;color-interpolation-filters:linearRGB;solid-color:#000000;solid-opacity:1;vector-effect:none;fill:#43434c;fill-opacity:1;fill-rule:nonzero;stroke:none;stroke-width:1.00012;stroke-linecap:round;stroke-linejoin:round;stroke-miterlimit:4;stroke-dasharray:none;stroke-dashoffset:2.1875;stroke-opacity:1;color-rendering:auto;image-rendering:auto;shape-rendering:auto;text-rendering:auto;enable-background:accumulate;stop-color:#000000"
       d="m 8.4346226,5.8208603 c -2.2515933,0.017 -4.0690623,1.850412 -4.0689973,4.1020615 1e-6,2.2636512 1.836346,4.0999952 4.1000083,4.0999922 2.2636594,0 4.1020744,-1.836341 4.1020754,-4.0999922 10e-7,-2.2629895 -1.837263,-4.1009825 -4.1000084,-4.1020615 -0.01032,-3.7e-5 -0.0212,-3.7e-5 -0.03153,0 a 0.13232157,0.13232111 0 0 0 -0.0016,0 z m 0.0015,0.263583 c 0.0097,-3.7e-5 0.0198,-3.7e-5 0.02946,0 2.1206514,-3e-6 3.8384934,1.717832 3.8384924,3.8384785 -10e-7,2.1206422 -1.717842,3.8364102 -3.8384924,3.8364082 -2.1206523,2e-6 -3.8364243,-1.715766 -3.8364253,-3.8364082 -6.1e-5,-2.1093455 1.697674,-3.8225515 3.8069653,-3.8384785 z m 0.01189,2.646672 c -0.6491037,0.0098 -1.1722448,0.5426305 -1.1721697,1.1918065 1e-6,0.6560762 0.533662,1.1892182 1.1897416,1.1892182 0.6560787,0 1.1912901,-0.533141 1.1912911,-1.1892182 0,-0.655429 -0.5340333,-1.1907495 -1.1892241,-1.1918065 -0.006,-4.5e-5 -0.01157,-4.5e-5 -0.01757,0 a 0.13232157,0.13232111 0 0 0 -0.0021,0 z m 0.0021,0.2656505 h 0.0021 c 0.0047,-3.4e-5 0.0088,-3.4e-5 0.01344,0 0.5130707,0 0.9256417,0.413084 0.9256407,0.926156 0,0.5130642 -0.41257,0.9256352 -0.9256407,0.9256352 -0.5130697,0 -0.9261577,-0.412571 -0.9261587,-0.9256352 -5.91e-5,-0.506925 0.4040499,-0.917453 0.9106547,-0.926156 z" />
    <path
       id="path912-6-2-6-8-7-9-6-9"
       style="opacity:0.95;fill:#fcfcfc;fill-opacity:1;stroke-width:1.32292;stroke-linecap:round;stroke-linejoin:round;stroke-dashoffset:2.1875"
       d="m 5.0121018,2.7781252 a 0.59531249,0.59531249 0 0 1 -0.580326,0.463022 0.59531249,0.59531249 0 0 1 -0.580327,-0.462505 0.59531249,0.59531249 0 0 0 -0.01499,0.131775 0.59531249,0.59531249 0 0 0 0.595313,0.595314 0.59531249,0.59531249 0 0 0 0.595312,-0.595314 0.59531249,0.59531249 0 0 0 -0.01499,-0.132292 z" />
    <path
       id="path912-6-2-6-8-2-2-3-7-4"
       style="opacity:0.95;fill:#fcfcfc;fill-opacity:1;stroke-width:1.32292;stroke-linecap:round;stroke-linejoin:round;stroke-dashoffset:2.1875"
       d="m 13.081896,2.7781252 a 0.59531249,0.59531249 0 0 1 -0.580326,0.463022 0.59531249,0.59531249 0 0 1 -0.580327,-0.462505 0.59531249,0.59531249 0 0 0 -0.01499,0.131775 0.59531249,0.59531249 0 0 0 0.595313,0.595314 0.59531249,0.59531249 0 0 0 0.595312,-0.595314 0.59531249,0.59531249 0 0 0 -0.01499,-0.132292 z" />
    <circle
       style="fill:#222222;fill-opacity:1;stroke-width:1.03871;stroke-linecap:round;stroke-linejoin:round;stroke-dashoffset:2.1875"
       id="path859-6"
       cx="12.501563"
       cy="2.7119792"
       r="0.59531248" />
    <circle
       style="fill:#222222;fill-opacity:1;stroke-width:1.03871;stroke-linecap:round;stroke-linejoin:round;stroke-dashoffset:2.1875"
       id="path859-7-92"
       cx="4.4317713"
       cy="2.7119792"
       r="0.59531248" />
  </g>
</svg>
