<?xml version="1.0" encoding="UTF-8" standalone="no"?>
<svg
   xmlns:dc="http://purl.org/dc/elements/1.1/"
   xmlns:cc="http://creativecommons.org/ns#"
   xmlns:rdf="http://www.w3.org/1999/02/22-rdf-syntax-ns#"
   xmlns:svg="http://www.w3.org/2000/svg"
   xmlns="http://www.w3.org/2000/svg"
   xmlns:sodipodi="http://sodipodi.sourceforge.net/DTD/sodipodi-0.dtd"
   xmlns:inkscape="http://www.inkscape.org/namespaces/inkscape"
   width="64"
   height="64"
   viewBox="0 0 64 64"
   version="1.1"
   id="svg6374"
   inkscape:version="1.0.2 (e86c870879, 2021-01-15)"
   sodipodi:docname="application-vnd.debian.binary-package.svg">
  <defs
     id="defs6368" />
  <sodipodi:namedview
     id="base"
     pagecolor="#cecece"
     bordercolor="#666666"
     borderopacity="1.0"
     inkscape:pageopacity="0"
     inkscape:pageshadow="2"
     inkscape:zoom="2.7426703"
     inkscape:cx="35.478521"
     inkscape:cy="52.549069"
     inkscape:document-units="px"
     inkscape:current-layer="layer1"
     inkscape:document-rotation="0"
     showgrid="false"
     units="px"
     inkscape:window-width="1024"
     inkscape:window-height="1080"
     inkscape:window-x="68"
     inkscape:window-y="56"
     inkscape:window-maximized="0" />
  <metadata
     id="metadata6371">
    <rdf:RDF>
      <cc:Work
         rdf:about="">
        <dc:format>image/svg+xml</dc:format>
        <dc:type
           rdf:resource="http://purl.org/dc/dcmitype/StillImage" />
        <dc:title></dc:title>
      </cc:Work>
    </rdf:RDF>
  </metadata>
  <g
     inkscape:label="Layer 1"
     inkscape:groupmode="layer"
     id="layer1">
    <path
       id="rect954-7-0-7-3-0-0-0-6-3-9-6-1-9-9"
       style="color:#000000;font-style:normal;font-variant:normal;font-weight:normal;font-stretch:normal;font-size:medium;line-height:normal;font-family:sans-serif;font-variant-ligatures:normal;font-variant-position:normal;font-variant-caps:normal;font-variant-numeric:normal;font-variant-alternates:normal;font-variant-east-asian:normal;font-feature-settings:normal;font-variation-settings:normal;text-indent:0;text-align:start;text-decoration:none;text-decoration-line:none;text-decoration-style:solid;text-decoration-color:#000000;letter-spacing:normal;word-spacing:normal;text-transform:none;writing-mode:lr-tb;direction:ltr;text-orientation:mixed;dominant-baseline:auto;baseline-shift:baseline;text-anchor:start;white-space:normal;shape-padding:0;shape-margin:0;inline-size:0;clip-rule:nonzero;display:inline;overflow:visible;visibility:visible;opacity:0.85;isolation:auto;mix-blend-mode:normal;color-interpolation:sRGB;color-interpolation-filters:linearRGB;solid-color:#000000;solid-opacity:1;vector-effect:none;fill:#69696d;fill-opacity:1;fill-rule:nonzero;stroke:none;stroke-linecap:round;stroke-linejoin:round;stroke-miterlimit:4;stroke-dasharray:none;stroke-dashoffset:2.1875;stroke-opacity:1;color-rendering:auto;image-rendering:auto;shape-rendering:auto;text-rendering:auto;enable-background:accumulate;stop-color:#000000"
       d="M 13,2.5 C 10.53295,2.5 8.5,4.5329 8.5,7 v 49.9999 c 0,2.4671 2.03295,4.5 4.5,4.5 h 38 c 2.467,0 4.5,-2.0329 4.5,-4.5 V 7 C 55.5,4.5329 53.467,2.5 51,2.5 Z m 0,3 h 38 c 0.8569,0 1.5,0.643 1.5,1.5 v 49.9999 c 0,0.857 -0.6431,1.5 -1.5,1.5 H 13 c -0.85695,0 -1.5,-0.643 -1.5,-1.5 V 7 c 0,-0.857 0.64305,-1.5 1.5,-1.5 z" />
    <rect
       style="fill:#fcfcfa;fill-opacity:1;stroke-width:0.495;stroke-linecap:round;stroke-linejoin:round;stroke-miterlimit:4;stroke-dasharray:none;stroke-dashoffset:2.1875"
       id="rect954-7-0-7-3-1-8-4-0-1"
       width="44"
       height="56"
       x="10"
       y="3.9998991"
       rx="3"
       ry="3" />
    <path
       id="rect1000-1"
       style="opacity:0.075;fill:#0c0c10;fill-opacity:1;stroke:none;stroke-width:0.749991;stroke-linecap:round;stroke-linejoin:round"
       d="m 34.36015,13.1649 c -0.62996,0.053 -1.25726,0.084 -1.87635,0.1641 l 0.27245,0.038 c 0.45559,-0.1669 1.12056,-0.092 1.6039,-0.2022 z m -2.75081,0.29 c -1.02444,0.062 -2.4469,0.5956 -2.00817,0.1099 -1.6709,0.7455 -4.63757,1.7931 -6.30285,3.3546 l -0.0527,-0.3501 c -0.76308,0.9162 -3.32716,2.7365 -3.53152,3.923 l -0.20507,0.047 c -0.3971,0.6724 -0.65322,1.4351 -0.9682,2.127 -0.51935,0.8851 -0.76085,0.3403 -0.68697,0.4791 -1.02144,2.0712 -1.52882,3.8111 -1.96717,5.2384 0.31236,0.4669 0.008,2.8119 0.12597,4.6877 -0.51297,9.2644 6.49996,18.2589 14.16711,20.3357 1.12382,0.4021 2.79549,0.3865 4.21703,0.4278 -1.67727,-0.4797 -1.89335,-0.2536 -3.52713,-0.8233 -1.17855,-0.555 -1.43713,-1.1901 -2.27183,-1.9146 l 0.32956,0.5845 c -1.63715,-0.5794 -0.95163,-0.7163 -2.28355,-1.1382 l 0.35301,-0.4615 c -0.53059,-0.04 -1.40568,-0.8938 -1.64492,-1.3667 l -0.58004,0.022 c -0.69746,-0.8607 -1.06845,-1.4811 -1.04145,-1.9615 l -0.18749,0.334 c -0.2126,-0.3649 -2.56703,-3.2271 -1.3461,-2.5607 -0.22687,-0.2074 -0.52844,-0.3376 -0.85542,-0.9316 l 0.249,-0.2842 c -0.58758,-0.7561 -1.08186,-1.7251 -1.04437,-2.048 0.31349,0.4234 0.53179,0.5019 0.74703,0.5743 -1.48378,-3.6819 -1.56695,-0.2022 -2.69075,-3.7472 l 0.23729,-0.019 C 18.6574,37.8188 18.54683,37.52 18.4002,37.2275 l 0.10401,-1.0313 c -1.06831,-1.2353 -0.29912,-5.2516 -0.14501,-7.4549 0.10687,-0.8959 0.89122,-1.8502 1.48819,-3.3458 l -0.36326,-0.062 c 0.69521,-1.2128 3.9691,-4.8715 5.48551,-4.6832 0.73457,-0.923 -0.14641,0 -0.29002,-0.2359 1.61352,-1.6699 2.12181,-1.1792 3.21074,-1.4795 1.17443,-0.6972 -1.00799,0.2711 -0.45114,-0.2667 2.03013,-0.5186 1.4382,-1.1782 4.08666,-1.4414 0.27937,0.159 -0.64746,0.2449 -0.88031,0.4512 1.69151,-0.8277 5.35286,-0.6388 7.73097,0.46 2.75946,1.2896 5.85983,5.1013 5.98207,8.6883 l 0.13914,0.038 c -0.0705,1.4258 0.21753,3.0748 -0.28269,4.5895 l 0.33982,-0.7178 c 0.0401,1.0898 -0.31795,1.6187 -0.64156,2.5548 l -0.58298,0.2915 c -0.47659,0.9255 0.0468,0.5866 -0.29441,1.3228 -0.74396,0.6615 -2.25756,2.0702 -2.74203,2.1988 -0.3536,-0.01 0.23878,-0.4167 0.31639,-0.5772 -0.99594,0.6841 -0.79847,1.026 -2.32163,1.4415 l -0.0455,-0.098 c -3.75653,1.7675 -8.97434,-1.7352 -8.90572,-6.5144 -0.0401,0.3034 -0.11303,0.2275 -0.19627,0.3501 -0.19387,-2.4589 1.13426,-4.9288 3.37625,-5.9372 2.19287,-1.0857 4.76429,-0.6408 6.33507,0.8233 -0.86282,-1.1303 -2.58006,-2.3286 -4.61544,-2.2164 -1.99376,0.032 -3.85969,1.2993 -4.48215,2.6749 -1.02144,0.6431 -1.13977,2.4795 -1.58487,2.8155 -0.59885,4.4015 1.12721,6.3034 4.04565,8.5404 0.45935,0.3097 0.12964,0.3559 0.19189,0.5918 -0.96969,-0.4542 -1.85815,-1.1398 -2.58823,-1.9791 0.38735,0.567 0.80578,1.1182 1.34611,1.5513 -0.91419,-0.3097 -2.13641,-2.2149 -2.49301,-2.2925 1.57603,2.8219 6.39458,4.949 8.91743,3.8937 -1.1673,0.043 -2.65049,0.024 -3.96216,-0.4615 -0.55084,-0.2835 -1.29982,-0.8701 -1.16595,-0.98 3.44304,1.2863 7.00019,0.9734 9.97937,-1.4151 0.75784,-0.5903 1.58586,-1.5931 1.82509,-1.607 -0.36034,0.5419 0.0614,0.2598 -0.21531,0.7383 0.75519,-1.218 -0.3281,-0.4959 0.78071,-2.1036 l 0.40866,0.564 c -0.15224,-1.011 1.25609,-2.239 1.11322,-3.838 0.32286,-0.489 0.36031,0.5259 0.0175,1.6509 0.47547,-1.248 0.1253,-1.4473 0.24754,-2.4771 0.13199,0.3461 0.30515,0.7129 0.39403,1.0782 -0.30973,-1.2061 0.31787,-2.0312 0.47311,-2.7321 -0.15299,-0.068 -0.47797,0.534 -0.55222,-0.8906 0.0109,-0.6188 0.17212,-0.3253 0.23437,-0.4776 -0.12149,-0.07 -0.44038,-0.5434 -0.63424,-1.4532 0.14062,-0.2137 0.37562,0.5545 0.56685,0.586 -0.12299,-0.7234 -0.33559,-1.2747 -0.34421,-1.8297 -0.55871,-1.1678 -0.197,0.1546 -0.65036,-0.5024 -0.59471,-1.8552 0.49337,-0.43 0.56687,-1.273 0.90144,1.3061 1.41638,3.3305 1.65225,4.1691 -0.17999,-1.0223 -0.47102,-2.0127 -0.82613,-2.9709 0.27374,0.1152 -0.4409,-2.1036 0.35594,-0.6343 -0.8512,-3.1321 -3.64381,-6.0581 -6.21203,-7.4314 0.31423,0.2877 0.71081,0.648 0.56832,0.7046 -1.27718,-0.7605 -1.0518,-0.8197 -1.23479,-1.1411 -1.04056,-0.4234 -1.10951,0.035 -1.79872,0 -1.96113,-1.0403 -2.33902,-0.9303 -4.14379,-1.5821 l 0.082,0.3838 c -1.29931,-0.4327 -1.51351,0.1642 -2.91781,0.001 -0.0854,-0.067 0.44878,-0.2419 0.88912,-0.3062 -1.25448,0.1652 -1.19701,-0.2462 -2.42565,0.047 0.30299,-0.2126 0.62448,-0.3539 0.9477,-0.5347 z m 1.01508,0.2344 c 0.3596,0.065 0.77623,0.1148 0.71773,0.2007 0.39335,-0.086 0.48332,-0.1665 -0.71773,-0.2007 z m 0.71773,0.2007 -0.2534,0.053 0.23582,-0.022 z m -16.57957,7.9823 c 0.105,0.972 -0.73188,1.3499 0.18456,0.709 0.49122,-1.1067 -0.19131,-0.3063 -0.18456,-0.709 z m -0.74702,3.0865 c -0.58347,0.7459 -0.26808,0.9048 -0.32957,1.4122 0.21111,-0.6481 0.24894,-1.0372 0.32957,-1.4122 z m 24.0132,4.506 c -0.0833,0 -0.19081,0.2138 -0.24462,0.4454 0.12562,0.065 0.22419,0.8548 0.34568,0.3662 0.0407,-0.6068 -0.0177,-0.8138 -0.10106,-0.8116 z m 7.36771,2.045 -0.0996,0.2476 c -0.18149,1.2893 -0.57255,2.5659 -1.17327,3.7487 0.66371,-1.2481 1.0929,-2.6132 1.27287,-3.9963 z m -7.80421,0.4541 c -0.09,0.4471 -0.33263,0.8321 -0.561,1.2393 -1.25954,0.7932 -0.11774,-0.4703 0,-0.9507 -1.35442,1.7048 -0.18671,1.0224 -0.23583,1.4986 0.40123,-0.5539 0.69371,-1.1601 0.79683,-1.7872 z m -2.74642,2.6017 c -0.54784,0.1343 -1.10517,0.1378 -1.66689,0.086 -0.67383,0.01 0.12805,0.348 1.00775,0.4834 0.24299,-0.1897 0.46265,-0.383 0.65914,-0.5698 z m -8.50291,0.088 c 0.1485,0.5464 0.45221,1.0168 0.73531,1.4942 L 28.87171,35.537 c -0.23435,-0.2592 -0.37354,-0.5725 -0.52878,-0.8834 z m -0.51851,0.9244 -0.0952,0.4717 c 0.44285,0.6015 0.7953,1.2539 1.36077,1.7242 -0.40686,-0.7943 -0.70946,-1.1223 -1.26555,-2.1959 z" />
    <path
       id="rect1000"
       style="fill:#d53460;fill-opacity:1;stroke:none;stroke-width:0.749991;stroke-linecap:round;stroke-linejoin:round"
       d="m 34.36015,11.6649 c -0.62996,0.053 -1.25726,0.084 -1.87635,0.1641 l 0.27245,0.038 c 0.45559,-0.1669 1.12056,-0.092 1.6039,-0.2022 z m -2.75081,0.29 c -1.02444,0.062 -2.4469,0.5956 -2.00817,0.1099 -1.6709,0.7455 -4.63757,1.7931 -6.30285,3.3546 l -0.0527,-0.3501 c -0.76308,0.9162 -3.32716,2.7365 -3.53152,3.923 l -0.20507,0.047 c -0.3971,0.6724 -0.65322,1.4351 -0.9682,2.127 -0.51935,0.8851 -0.76085,0.3403 -0.68697,0.4791 -1.02144,2.0712 -1.52882,3.8111 -1.96717,5.2384 0.31236,0.4669 0.008,2.8119 0.12597,4.6877 -0.51297,9.2644 6.49996,18.2589 14.16711,20.3357 1.12382,0.4021 2.79549,0.3865 4.21703,0.4278 -1.67727,-0.4797 -1.89335,-0.2536 -3.52713,-0.8233 -1.17855,-0.555 -1.43713,-1.1901 -2.27183,-1.9146 l 0.32956,0.5845 c -1.63715,-0.5794 -0.95163,-0.7163 -2.28355,-1.1382 l 0.35301,-0.4615 c -0.53059,-0.04 -1.40568,-0.8938 -1.64492,-1.3667 l -0.58004,0.022 c -0.69746,-0.8607 -1.06845,-1.4811 -1.04145,-1.9615 l -0.18749,0.334 c -0.2126,-0.3649 -2.56703,-3.2271 -1.3461,-2.5607 -0.22687,-0.2074 -0.52844,-0.3376 -0.85542,-0.9316 l 0.249,-0.2842 c -0.58758,-0.7561 -1.08186,-1.7251 -1.04437,-2.048 0.31349,0.4234 0.53179,0.5019 0.74703,0.5743 -1.48378,-3.6819 -1.56695,-0.2022 -2.69075,-3.7472 l 0.23729,-0.019 C 18.6574,36.3188 18.54683,36.02 18.4002,35.7275 l 0.10401,-1.0313 c -1.06831,-1.2353 -0.29912,-5.2516 -0.14501,-7.4549 0.10687,-0.8959 0.89122,-1.8502 1.48819,-3.3458 l -0.36326,-0.062 c 0.69521,-1.2128 3.9691,-4.8715 5.48551,-4.6832 0.73457,-0.923 -0.14641,0 -0.29002,-0.2359 1.61352,-1.6699 2.12181,-1.1792 3.21074,-1.4795 1.17443,-0.6972 -1.00799,0.2711 -0.45114,-0.2667 2.03013,-0.5186 1.4382,-1.1782 4.08666,-1.4414 0.27937,0.159 -0.64746,0.2449 -0.88031,0.4512 1.69151,-0.8277 5.35286,-0.6388 7.73097,0.46 2.75946,1.2896 5.85983,5.1013 5.98207,8.6883 l 0.13914,0.038 c -0.0705,1.4258 0.21753,3.0748 -0.28269,4.5895 l 0.33982,-0.7178 c 0.0401,1.0898 -0.31795,1.6187 -0.64156,2.5548 l -0.58298,0.2915 c -0.47659,0.9255 0.0468,0.5866 -0.29441,1.3228 -0.74396,0.6615 -2.25756,2.0702 -2.74203,2.1988 -0.3536,-0.01 0.23878,-0.4167 0.31639,-0.5772 -0.99594,0.6841 -0.79847,1.026 -2.32163,1.4415 l -0.0455,-0.098 c -3.75653,1.7675 -8.97434,-1.7352 -8.90572,-6.5144 -0.0401,0.3034 -0.11303,0.2275 -0.19627,0.3501 -0.19387,-2.4589 1.13426,-4.9288 3.37625,-5.9372 2.19287,-1.0857 4.76429,-0.6408 6.33507,0.8233 -0.86282,-1.1303 -2.58006,-2.3286 -4.61544,-2.2164 -1.99376,0.032 -3.85969,1.2993 -4.48215,2.6749 -1.02144,0.6431 -1.13977,2.4795 -1.58487,2.8155 -0.59885,4.4015 1.12721,6.3034 4.04565,8.5404 0.45935,0.3097 0.12964,0.3559 0.19189,0.5918 -0.96969,-0.4542 -1.85815,-1.1398 -2.58823,-1.9791 0.38735,0.567 0.80578,1.1182 1.34611,1.5513 -0.91419,-0.3097 -2.13641,-2.2149 -2.49301,-2.2925 1.57603,2.8219 6.39458,4.949 8.91743,3.8937 -1.1673,0.043 -2.65049,0.024 -3.96216,-0.4615 -0.55084,-0.2835 -1.29982,-0.8701 -1.16595,-0.98 3.44304,1.2863 7.00019,0.9734 9.97937,-1.4151 0.75784,-0.5903 1.58586,-1.5931 1.82509,-1.607 -0.36034,0.5419 0.0614,0.2598 -0.21531,0.7383 0.75519,-1.218 -0.3281,-0.4959 0.78071,-2.1036 l 0.40866,0.564 c -0.15224,-1.011 1.25609,-2.239 1.11322,-3.838 0.32286,-0.489 0.36031,0.5259 0.0175,1.6509 0.47547,-1.248 0.1253,-1.4473 0.24754,-2.4771 0.13199,0.3461 0.30515,0.7129 0.39403,1.0782 -0.30973,-1.2061 0.31787,-2.0312 0.47311,-2.7321 -0.15299,-0.068 -0.47797,0.534 -0.55222,-0.8906 0.0109,-0.6188 0.17212,-0.3253 0.23437,-0.4776 -0.12149,-0.07 -0.44038,-0.5434 -0.63424,-1.4532 0.14062,-0.2137 0.37562,0.5545 0.56685,0.586 -0.12299,-0.7234 -0.33559,-1.2747 -0.34421,-1.8297 -0.55871,-1.1678 -0.197,0.1546 -0.65036,-0.5024 -0.59471,-1.8552 0.49337,-0.43 0.56687,-1.273 0.90144,1.3061 1.41638,3.3305 1.65225,4.1691 -0.17999,-1.0223 -0.47102,-2.0127 -0.82613,-2.9709 0.27374,0.1152 -0.4409,-2.1036 0.35594,-0.6343 -0.8512,-3.1321 -3.64381,-6.0581 -6.21203,-7.4314 0.31423,0.2877 0.71081,0.648 0.56832,0.7046 -1.27718,-0.7605 -1.0518,-0.8197 -1.23479,-1.1411 -1.04056,-0.4234 -1.10951,0.035 -1.79872,0 -1.96113,-1.0403 -2.33902,-0.9303 -4.14379,-1.5821 l 0.082,0.3838 c -1.29931,-0.4327 -1.51351,0.1642 -2.91781,0.001 -0.0854,-0.067 0.44878,-0.2419 0.88912,-0.3062 -1.25448,0.1652 -1.19701,-0.2462 -2.42565,0.047 0.30299,-0.2126 0.62448,-0.3539 0.9477,-0.5347 z m 1.01508,0.2344 c 0.3596,0.065 0.77623,0.1148 0.71773,0.2007 0.39335,-0.086 0.48332,-0.1665 -0.71773,-0.2007 z m 0.71773,0.2007 -0.2534,0.053 0.23582,-0.022 z m -16.57957,7.9823 c 0.105,0.972 -0.73188,1.3499 0.18456,0.709 0.49122,-1.1067 -0.19131,-0.3063 -0.18456,-0.709 z m -0.74702,3.0865 c -0.58347,0.7459 -0.26808,0.9048 -0.32957,1.4122 0.21111,-0.6481 0.24894,-1.0372 0.32957,-1.4122 z m 24.0132,4.506 c -0.0833,0 -0.19081,0.2138 -0.24462,0.4454 0.12562,0.065 0.22419,0.8548 0.34568,0.3662 0.0407,-0.6068 -0.0177,-0.8138 -0.10106,-0.8116 z m 7.36771,2.045 -0.0996,0.2476 c -0.18149,1.2893 -0.57255,2.5659 -1.17327,3.7487 0.66371,-1.2481 1.0929,-2.6132 1.27287,-3.9963 z m -7.80421,0.4541 c -0.09,0.4471 -0.33263,0.8321 -0.561,1.2393 -1.25954,0.7932 -0.11774,-0.4703 0,-0.9507 -1.35442,1.7048 -0.18671,1.0224 -0.23583,1.4986 0.40123,-0.5539 0.69371,-1.1601 0.79683,-1.7872 z m -2.74642,2.6017 c -0.54784,0.1343 -1.10517,0.1378 -1.66689,0.086 -0.67383,0.01 0.12805,0.348 1.00775,0.4834 0.24299,-0.1897 0.46265,-0.383 0.65914,-0.5698 z m -8.50291,0.088 c 0.1485,0.5464 0.45221,1.0168 0.73531,1.4942 L 28.87171,34.037 c -0.23435,-0.2592 -0.37354,-0.5725 -0.52878,-0.8834 z m -0.51851,0.9244 -0.0952,0.4717 c 0.44285,0.6015 0.7953,1.2539 1.36077,1.7242 -0.40686,-0.7943 -0.70946,-1.1223 -1.26555,-2.1959 z" />
  </g>
</svg>
