<?xml version="1.0" encoding="UTF-8" standalone="no"?>
<svg
   xmlns:dc="http://purl.org/dc/elements/1.1/"
   xmlns:cc="http://creativecommons.org/ns#"
   xmlns:rdf="http://www.w3.org/1999/02/22-rdf-syntax-ns#"
   xmlns:svg="http://www.w3.org/2000/svg"
   xmlns="http://www.w3.org/2000/svg"
   xmlns:sodipodi="http://sodipodi.sourceforge.net/DTD/sodipodi-0.dtd"
   xmlns:inkscape="http://www.inkscape.org/namespaces/inkscape"
   width="64"
   height="64"
   viewBox="0 0 64 64"
   version="1.1"
   id="svg6374"
   inkscape:version="1.0.2 (e86c870879, 2021-01-15)"
   sodipodi:docname="application-x-shellscript.svg">
  <defs
     id="defs6368">
    <linearGradient
       x1="102.48344"
       y1="103.26587"
       x2="238.25964"
       y2="231.90547"
       id="linearGradient-2"
       gradientTransform="matrix(0.11086626,0,0,0.11203135,188.08384,722.26635)"
       gradientUnits="userSpaceOnUse">
      <stop
         stop-color="#FFE052"
         offset="0%"
         id="stop119" />
      <stop
         stop-color="#FFC331"
         offset="100%"
         id="stop121" />
    </linearGradient>
    <linearGradient
       x1="24.714943"
       y1="22.898218"
       x2="151.13554"
       y2="148.33669"
       id="linearGradient-1"
       gradientTransform="matrix(0.11086626,0,0,0.11203134,188.08384,722.26635)"
       gradientUnits="userSpaceOnUse">
      <stop
         stop-color="#387EB8"
         offset="0%"
         id="stop114" />
      <stop
         stop-color="#366994"
         offset="100%"
         id="stop116" />
    </linearGradient>
  </defs>
  <sodipodi:namedview
     id="base"
     pagecolor="#cecece"
     bordercolor="#666666"
     borderopacity="1.0"
     inkscape:pageopacity="0"
     inkscape:pageshadow="2"
     inkscape:zoom="2.7426703"
     inkscape:cx="32.197047"
     inkscape:cy="49.267595"
     inkscape:document-units="px"
     inkscape:current-layer="layer1"
     inkscape:document-rotation="0"
     showgrid="false"
     units="px"
     inkscape:window-width="1024"
     inkscape:window-height="1080"
     inkscape:window-x="68"
     inkscape:window-y="56"
     inkscape:window-maximized="0" />
  <metadata
     id="metadata6371">
    <rdf:RDF>
      <cc:Work
         rdf:about="">
        <dc:format>image/svg+xml</dc:format>
        <dc:type
           rdf:resource="http://purl.org/dc/dcmitype/StillImage" />
        <dc:title></dc:title>
      </cc:Work>
    </rdf:RDF>
  </metadata>
  <g
     inkscape:label="Layer 1"
     inkscape:groupmode="layer"
     id="layer1">
    <path
       id="rect954-7-0-7-3-0-0-0-6-3-0-7-2-3"
       style="color:#000000;font-style:normal;font-variant:normal;font-weight:normal;font-stretch:normal;font-size:medium;line-height:normal;font-family:sans-serif;font-variant-ligatures:normal;font-variant-position:normal;font-variant-caps:normal;font-variant-numeric:normal;font-variant-alternates:normal;font-variant-east-asian:normal;font-feature-settings:normal;font-variation-settings:normal;text-indent:0;text-align:start;text-decoration:none;text-decoration-line:none;text-decoration-style:solid;text-decoration-color:#000000;letter-spacing:normal;word-spacing:normal;text-transform:none;writing-mode:lr-tb;direction:ltr;text-orientation:mixed;dominant-baseline:auto;baseline-shift:baseline;text-anchor:start;white-space:normal;shape-padding:0;shape-margin:0;inline-size:0;clip-rule:nonzero;display:inline;overflow:visible;visibility:visible;opacity:0.85;isolation:auto;mix-blend-mode:normal;color-interpolation:sRGB;color-interpolation-filters:linearRGB;solid-color:#000000;solid-opacity:1;vector-effect:none;fill:#9ec17b;fill-opacity:1;fill-rule:nonzero;stroke:none;stroke-linecap:round;stroke-linejoin:round;stroke-miterlimit:4;stroke-dasharray:none;stroke-dashoffset:2.1875;stroke-opacity:1;color-rendering:auto;image-rendering:auto;shape-rendering:auto;text-rendering:auto;enable-background:accumulate;stop-color:#000000"
       d="M 13,2.5 C 10.53295,2.5 8.5,4.53295 8.5,7 v 50 c 0,2.46705 2.03295,4.5 4.5,4.5 h 38 c 2.467,0 4.5,-2.03295 4.5,-4.5 V 7 C 55.5,4.53295 53.467,2.5 51,2.5 Z m 0,3 h 38 c 0.8569,0 1.5,0.64306 1.5,1.5 v 50 c 0,0.85695 -0.6431,1.5 -1.5,1.5 H 13 c -0.85695,0 -1.5,-0.64305 -1.5,-1.5 V 7 c 0,-0.85694 0.64305,-1.5 1.5,-1.5 z" />
    <rect
       style="fill:#303032;fill-opacity:1;stroke-width:0.495;stroke-linecap:round;stroke-linejoin:round;stroke-miterlimit:4;stroke-dasharray:none;stroke-dashoffset:2.1875"
       id="rect954-0-8-0-6"
       width="44"
       height="56"
       x="9.9999695"
       y="3.9999688"
       rx="3"
       ry="3" />
    <path
       id="rect3491-4"
       style="opacity:0.375;fill:#141415;fill-opacity:1;stroke:none;stroke-width:0.999982;stroke-linecap:round;stroke-linejoin:round;stroke-dashoffset:2.1875"
       d="m 42.83278,27.75 c -0.92379,0 -1.66797,0.74414 -1.66797,1.66791 v 11.66364 c 0,0.92377 0.74418,1.66791 1.66797,1.66791 0.9238,0 1.66797,-0.74414 1.66797,-1.66791 V 29.41791 c 0,-0.92377 -0.74417,-1.66791 -1.66797,-1.66791 z m -0.006,16.96423 a 2.4175,2.4174135 0 0 0 -2.41211,2.41789 2.4175,2.4174135 0 0 0 2.41797,2.41788 2.4175,2.4174135 0 0 0 2.41797,-2.41788 2.4175,2.4174135 0 0 0 -2.41797,-2.41789 2.4175,2.4174135 0 0 0 -0.006,0 z" />
    <path
       id="rect3491"
       style="fill:#9ec17b;fill-opacity:1;stroke:none;stroke-width:0.999982;stroke-linecap:round;stroke-linejoin:round;stroke-dashoffset:2.1875"
       d="m 42.83278,26.75 c -0.92379,0 -1.66797,0.74414 -1.66797,1.66791 v 11.66364 c 0,0.92377 0.74418,1.66791 1.66797,1.66791 0.9238,0 1.66797,-0.74414 1.66797,-1.66791 V 28.41791 c 0,-0.92377 -0.74417,-1.66791 -1.66797,-1.66791 z m -0.006,16.96423 a 2.4175,2.4174135 0 0 0 -2.41211,2.41789 2.4175,2.4174135 0 0 0 2.41797,2.41788 2.4175,2.4174135 0 0 0 2.41797,-2.41788 2.4175,2.4174135 0 0 0 -2.41797,-2.41789 2.4175,2.4174135 0 0 0 -0.006,0 z" />
    <path
       id="rect3557-0-6-7"
       style="opacity:0.375;fill:#141415;fill-opacity:1;stroke:none;stroke-linecap:round;stroke-linejoin:round;stroke-dashoffset:2.1875"
       d="m 33.71289,27.85308 c -0.77539,-0.0473 -1.49978,0.4536 -1.70899,1.23438 L 31,32.8316 h -3.44531 l 0.77148,-2.88086 c 0.2391,-0.89232 -0.28737,-1.80387 -1.17969,-2.04297 -0.89231,-0.23909 -1.80387,0.28737 -2.04297,1.17969 l -1.0039,3.74414 h -2.15625 c -0.9238,0 -1.66797,0.74417 -1.66797,1.66797 0,0.92379 0.74417,1.66601 1.66797,1.66601 h 1.26367 l -1.26758,4.73438 h -1.52148 c -0.9238,0 -1.66797,0.74222 -1.66797,1.66602 0,0.92379 0.74417,1.66796 1.66797,1.66796 h 0.62695 l -0.77148,2.88282 c -0.2391,0.89231 0.28737,1.80387 1.17968,2.04296 0.89232,0.2391 1.80192,-0.28737 2.04102,-1.17968 l 1.00391,-3.7461 h 3.44726 l -0.77148,2.88282 c -0.2391,0.89231 0.28541,1.80387 1.17773,2.04296 0.89232,0.2391 1.80387,-0.28737 2.04297,-1.17968 l 1.00391,-3.7461 h 2.68359 c 0.9238,0 1.66797,-0.74417 1.66797,-1.66796 0,-0.9238 -0.74417,-1.66602 -1.66797,-1.66602 h -1.79102 l 1.26954,-4.73438 h 2.04687 c 0.9238,0 1.66797,-0.74222 1.66797,-1.66601 0,-0.9238 -0.74417,-1.66797 -1.66797,-1.66797 h -1.1543 l 0.77149,-2.88086 c 0.23909,-0.89232 -0.28542,-1.80387 -1.17774,-2.04297 -0.11154,-0.0299 -0.22321,-0.0479 -0.33398,-0.0547 z m -7.05273,8.3125 h 3.44726 l -1.26758,4.73438 h -3.44726 z" />
    <path
       id="rect3557-0-6"
       style="fill:#9ec17b;fill-opacity:1;stroke:none;stroke-linecap:round;stroke-linejoin:round;stroke-dashoffset:2.1875"
       d="m 33.71289,26.85308 c -0.77539,-0.0473 -1.49978,0.4536 -1.70899,1.23438 L 31,31.8316 h -3.44531 l 0.77148,-2.88086 c 0.2391,-0.89232 -0.28737,-1.80387 -1.17969,-2.04297 -0.89231,-0.23909 -1.80387,0.28737 -2.04297,1.17969 l -1.0039,3.74414 h -2.15625 c -0.9238,0 -1.66797,0.74417 -1.66797,1.66797 0,0.92379 0.74417,1.66601 1.66797,1.66601 h 1.26367 l -1.26758,4.73438 h -1.52148 c -0.9238,0 -1.66797,0.74222 -1.66797,1.66602 0,0.92379 0.74417,1.66796 1.66797,1.66796 h 0.62695 l -0.77148,2.88282 c -0.2391,0.89231 0.28737,1.80387 1.17968,2.04296 0.89232,0.2391 1.80192,-0.28737 2.04102,-1.17968 l 1.00391,-3.7461 h 3.44726 l -0.77148,2.88282 c -0.2391,0.89231 0.28541,1.80387 1.17773,2.04296 0.89232,0.2391 1.80387,-0.28737 2.04297,-1.17968 l 1.00391,-3.7461 h 2.68359 c 0.9238,0 1.66797,-0.74417 1.66797,-1.66796 0,-0.9238 -0.74417,-1.66602 -1.66797,-1.66602 h -1.79102 l 1.26954,-4.73438 h 2.04687 c 0.9238,0 1.66797,-0.74222 1.66797,-1.66601 0,-0.9238 -0.74417,-1.66797 -1.66797,-1.66797 h -1.1543 l 0.77149,-2.88086 c 0.23909,-0.89232 -0.28542,-1.80387 -1.17774,-2.04297 -0.11154,-0.0299 -0.22321,-0.0479 -0.33398,-0.0547 z m -7.05273,8.3125 h 3.44726 l -1.26758,4.73438 h -3.44726 z" />
  </g>
</svg>
