<?xml version="1.0" encoding="UTF-8" standalone="no"?>
<svg
   xmlns:dc="http://purl.org/dc/elements/1.1/"
   xmlns:cc="http://creativecommons.org/ns#"
   xmlns:rdf="http://www.w3.org/1999/02/22-rdf-syntax-ns#"
   xmlns:svg="http://www.w3.org/2000/svg"
   xmlns="http://www.w3.org/2000/svg"
   xmlns:xlink="http://www.w3.org/1999/xlink"
   xmlns:sodipodi="http://sodipodi.sourceforge.net/DTD/sodipodi-0.dtd"
   xmlns:inkscape="http://www.inkscape.org/namespaces/inkscape"
   width="64"
   height="64"
   viewBox="0 0 64 64"
   version="1.1"
   id="svg6374"
   inkscape:version="1.0.2 (e86c870879, 2021-01-15)"
   sodipodi:docname="preferences-color.svg">
  <defs
     id="defs6368">
    <linearGradient
       inkscape:collect="always"
       xlink:href="#linearGradient5148"
       id="linearGradient5222"
       gradientUnits="userSpaceOnUse"
       x1="97.981995"
       y1="66.344177"
       x2="98.003677"
       y2="44.795059"
       gradientTransform="translate(-75.7388,-17.88867)" />
    <linearGradient
       inkscape:collect="always"
       id="linearGradient5148">
      <stop
         style="stop-color:#f6f6f6;stop-opacity:0"
         offset="0"
         id="stop5144" />
      <stop
         style="stop-color:#f6f6f6;stop-opacity:0.15000001"
         offset="1"
         id="stop5146" />
    </linearGradient>
    <linearGradient
       inkscape:collect="always"
       xlink:href="#linearGradient5148"
       id="linearGradient5207"
       gradientUnits="userSpaceOnUse"
       x1="97.981995"
       y1="66.344177"
       x2="98.003677"
       y2="44.795059"
       gradientTransform="translate(-55.73879,-17.88867)" />
    <linearGradient
       inkscape:collect="always"
       xlink:href="#linearGradient1210"
       id="linearGradient4127"
       gradientUnits="userSpaceOnUse"
       gradientTransform="translate(-2.29779,1.43335)"
       x1="34.297787"
       y1="5.0666542"
       x2="33.692303"
       y2="35.969635" />
    <linearGradient
       inkscape:collect="always"
       id="linearGradient1210">
      <stop
         style="stop-color:#fdfbfc;stop-opacity:0.54901963"
         offset="0"
         id="stop1206" />
      <stop
         style="stop-color:#fdfbfc;stop-opacity:0"
         offset="1"
         id="stop1208" />
    </linearGradient>
    <linearGradient
       inkscape:collect="always"
       xlink:href="#linearGradient5148"
       id="linearGradient5177"
       gradientUnits="userSpaceOnUse"
       x1="97.981995"
       y1="66.344177"
       x2="98.003677"
       y2="44.795059"
       gradientTransform="translate(-65.73879,-37.88867)" />
    <linearGradient
       inkscape:collect="always"
       xlink:href="#linearGradient1152"
       id="linearGradient4887"
       gradientUnits="userSpaceOnUse"
       gradientTransform="translate(7.70221,21.43335)"
       x1="34.297787"
       y1="5.0666542"
       x2="33.692303"
       y2="35.969635" />
    <linearGradient
       inkscape:collect="always"
       id="linearGradient1152">
      <stop
         style="stop-color:#fdfcfb;stop-opacity:0.55000001"
         offset="0"
         id="stop1148" />
      <stop
         style="stop-color:#fdfcfb;stop-opacity:0"
         offset="1"
         id="stop1150" />
    </linearGradient>
    <linearGradient
       inkscape:collect="always"
       xlink:href="#linearGradient1266"
       id="linearGradient4921"
       gradientUnits="userSpaceOnUse"
       gradientTransform="translate(-12.29779,21.43335)"
       x1="34.297787"
       y1="5.0666542"
       x2="33.692303"
       y2="35.969635" />
    <linearGradient
       inkscape:collect="always"
       id="linearGradient1266">
      <stop
         style="stop-color:#fbfcfd;stop-opacity:0.55000001"
         offset="0"
         id="stop1262" />
      <stop
         style="stop-color:#fbfcfd;stop-opacity:0"
         offset="1"
         id="stop1264" />
    </linearGradient>
  </defs>
  <sodipodi:namedview
     id="base"
     pagecolor="#cecece"
     bordercolor="#666666"
     borderopacity="1.0"
     inkscape:pageopacity="0"
     inkscape:pageshadow="2"
     inkscape:zoom="5.5639287"
     inkscape:cx="8.3100654"
     inkscape:cy="29.73153"
     inkscape:document-units="px"
     inkscape:current-layer="layer1"
     inkscape:document-rotation="0"
     showgrid="false"
     units="px"
     inkscape:window-width="1500"
     inkscape:window-height="970"
     inkscape:window-x="68"
     inkscape:window-y="56"
     inkscape:window-maximized="0" />
  <metadata
     id="metadata6371">
    <rdf:RDF>
      <cc:Work
         rdf:about="">
        <dc:format>image/svg+xml</dc:format>
        <dc:type
           rdf:resource="http://purl.org/dc/dcmitype/StillImage" />
        <dc:title></dc:title>
      </cc:Work>
    </rdf:RDF>
  </metadata>
  <g
     inkscape:label="Layer 1"
     inkscape:groupmode="layer"
     id="layer1">
    <path
       id="path952-7-5-2-9-4"
       style="color:#000000;font-style:normal;font-variant:normal;font-weight:normal;font-stretch:normal;font-size:medium;line-height:normal;font-family:sans-serif;font-variant-ligatures:normal;font-variant-position:normal;font-variant-caps:normal;font-variant-numeric:normal;font-variant-alternates:normal;font-variant-east-asian:normal;font-feature-settings:normal;font-variation-settings:normal;text-indent:0;text-align:start;text-decoration:none;text-decoration-line:none;text-decoration-style:solid;text-decoration-color:#000000;letter-spacing:normal;word-spacing:normal;text-transform:none;writing-mode:lr-tb;direction:ltr;text-orientation:mixed;dominant-baseline:auto;baseline-shift:baseline;text-anchor:start;white-space:normal;shape-padding:0;shape-margin:0;inline-size:0;clip-rule:nonzero;display:inline;overflow:visible;visibility:visible;opacity:0.15;isolation:auto;mix-blend-mode:normal;color-interpolation:sRGB;color-interpolation-filters:linearRGB;solid-color:#000000;solid-opacity:1;vector-effect:none;fill:#0c0c0c;fill-opacity:1;fill-rule:nonzero;stroke:none;stroke-linecap:square;stroke-linejoin:round;stroke-miterlimit:4;stroke-dasharray:none;stroke-dashoffset:0;stroke-opacity:1;color-rendering:auto;image-rendering:auto;shape-rendering:auto;text-rendering:auto;enable-background:accumulate;stop-color:#000000"
       d="m 42,27 c -9.37108,0 -17,7.62892 -17,17 0,9.37108 7.62892,17 17,17 9.37107,0 17,-7.62892 17,-17 0,-9.37108 -7.62893,-17 -17,-17 z m 0,3 c 7.74975,0 14,6.25025 14,14 0,7.74975 -6.25025,14 -14,14 -7.74975,0 -14,-6.25025 -14,-14 0,-7.74975 6.25025,-14 14,-14 z" />
    <path
       id="path952-7-5-2-9-49"
       style="color:#000000;font-style:normal;font-variant:normal;font-weight:normal;font-stretch:normal;font-size:medium;line-height:normal;font-family:sans-serif;font-variant-ligatures:normal;font-variant-position:normal;font-variant-caps:normal;font-variant-numeric:normal;font-variant-alternates:normal;font-variant-east-asian:normal;font-feature-settings:normal;font-variation-settings:normal;text-indent:0;text-align:start;text-decoration:none;text-decoration-line:none;text-decoration-style:solid;text-decoration-color:#000000;letter-spacing:normal;word-spacing:normal;text-transform:none;writing-mode:lr-tb;direction:ltr;text-orientation:mixed;dominant-baseline:auto;baseline-shift:baseline;text-anchor:start;white-space:normal;shape-padding:0;shape-margin:0;inline-size:0;clip-rule:nonzero;display:inline;overflow:visible;visibility:visible;opacity:0.15;isolation:auto;mix-blend-mode:normal;color-interpolation:sRGB;color-interpolation-filters:linearRGB;solid-color:#000000;solid-opacity:1;vector-effect:none;fill:#0c0c0c;fill-opacity:1;fill-rule:nonzero;stroke:none;stroke-linecap:square;stroke-linejoin:round;stroke-miterlimit:4;stroke-dasharray:none;stroke-dashoffset:0;stroke-opacity:1;color-rendering:auto;image-rendering:auto;shape-rendering:auto;text-rendering:auto;enable-background:accumulate;stop-color:#000000"
       d="M 22,27 C 12.62892,27 5,34.62892 5,44 5,53.37108 12.62892,61 22,61 31.37107,61 39,53.37108 39,44 39,34.62892 31.37107,27 22,27 Z m 0,3 c 7.74975,0 14,6.25025 14,14 0,7.74975 -6.25025,14 -14,14 C 14.25025,58 8,51.74975 8,44 8,36.25025 14.25025,30 22,30 Z" />
    <path
       id="path952-6-89-3-9-8-9-8-6-96-6"
       style="fill:#d53460;fill-opacity:1;stroke-width:2.54465;stroke-linecap:square;stroke-linejoin:round;stroke-miterlimit:0"
       d="m 17.40209,27.2 a 15.499304,15.499105 0 0 0 9.99687,9.60131 15.499304,15.499105 0 0 0 -0.0352,0.0957 15.499304,15.499105 0 0 0 -0.0176,0.0508 15.499304,15.499105 0 0 0 -0.0176,0.0527 15.499304,15.499105 0 0 0 -0.0859,0.26171 15.499304,15.499105 0 0 0 -0.082,0.26366 15.499304,15.499105 0 0 0 -0.0156,0.0527 15.499304,15.499105 0 0 0 -0.004,0.0156 15.499304,15.499105 0 0 0 -0.0879,0.30272 15.499304,15.499105 0 0 0 -0.0703,0.26758 15.499304,15.499105 0 0 0 -0.0137,0.0527 15.499304,15.499105 0 0 0 -0.0156,0.0644 15.499304,15.499105 0 0 0 -0.0625,0.25781 15.499304,15.499105 0 0 0 -0.0586,0.26952 15.499304,15.499105 0 0 0 -0.0117,0.0547 15.499304,15.499105 0 0 0 -0.0527,0.26952 15.499304,15.499105 0 0 0 -0.01,0.0547 15.499304,15.499105 0 0 0 -0.0566,0.32616 15.499304,15.499105 0 0 0 -0.043,0.27149 15.499304,15.499105 0 0 0 -0.008,0.0547 15.499304,15.499105 0 0 0 -0.0117,0.0977 15.499304,15.499105 0 0 0 -0.0293,0.23242 15.499304,15.499105 0 0 0 -0.0313,0.27343 15.499304,15.499105 0 0 0 -0.006,0.0547 15.499304,15.499105 0 0 0 -0.0234,0.27538 15.499304,15.499105 0 0 0 -0.004,0.0547 15.499304,15.499105 0 0 0 0,0.004 15.499304,15.499105 0 0 0 -0.0215,0.32616 15.499304,15.499105 0 0 0 -0.0137,0.27538 15.499304,15.499105 0 0 0 -0.002,0.0547 15.499304,15.499105 0 0 0 -0.002,0.10938 15.499304,15.499105 0 0 0 -0.004,0.22264 15.499304,15.499105 0 0 0 -0.002,0.17969 15.499304,15.499105 0 0 0 0.0137,0.66209 15.499304,15.499105 0 0 0 0.11329,1.31833 15.499304,15.499105 0 0 0 0.15822,0.98044 15.499304,15.499105 0 0 0 0.50394,1.91987 15.499304,15.499105 0 0 0 0.10743,0.3125 15.499304,15.499105 0 0 0 0,0.002 15.499304,15.499105 0 0 0 0.1133,0.30859 15.499304,15.499105 0 0 0 0.1211,0.30858 15.499304,15.499105 0 0 0 0.26174,0.60936 15.499304,15.499105 0 0 0 0.28713,0.59569 15.499304,15.499105 0 0 0 0.15235,0.29296 15.499304,15.499105 0 0 0 0.32619,0.57811 15.499304,15.499105 0 0 0 0.34769,0.56248 15.499304,15.499105 0 0 0 0.76959,1.0781 15.499304,15.499105 0 0 0 0.20705,0.25781 15.499304,15.499105 0 0 0 0,0.002 15.499304,15.499105 0 0 0 0.21095,0.25195 15.499304,15.499105 0 0 0 0,0.002 15.499304,15.499105 0 0 0 0.21682,0.24804 15.499304,15.499105 0 0 0 0.4512,0.48631 15.499304,15.499105 0 0 0 0.23244,0.23438 15.499304,15.499105 0 0 0 0.48051,0.45701 15.499304,15.499105 0 0 0 0.42581,0.37304 A 15.499304,15.499105 0 0 1 21.99925,57.50021 15.499304,15.499105 0 0 1 6.5,42.00061 15.499304,15.499105 0 0 1 17.39927,27.20216 Z m -3.75614,0.0137 c -0.29312,0.16635 -0.5794,0.34245 -0.86139,0.52538 0.28217,-0.18305 0.56807,-0.35893 0.86139,-0.52538 z m -1.26963,0.791 c -0.34234,0.23623 -0.67449,0.488 -0.99812,0.74802 0.32386,-0.26024 0.65551,-0.5116 0.99812,-0.74802 z m -1.21298,0.91404 c -0.38822,0.32217 -0.76116,0.66075 -1.11923,1.01559 0.35789,-0.35466 0.73122,-0.69356 1.11923,-1.01559 z M 9.798,30.19604 C 9.53469,30.46816 9.27913,30.74677 9.03427,31.03587 9.27918,30.74671 9.53463,30.46822 9.798,30.19604 Z m -1.08797,1.2363 C 8.49318,31.70446 8.28514,31.98493 8.08498,32.27021 8.28539,31.98454 8.4929,31.70481 8.71003,31.43234 Z M 7.8076,32.6745 C 7.6093,32.97524 7.42439,33.28471 7.24506,33.59831 7.42429,33.28486 7.60939,32.9751 7.8076,32.6745 Z m 23.06623,23.79626 c -0.0592,0.0366 -0.11808,0.0735 -0.17775,0.10937 0.0597,-0.0358 0.11849,-0.0729 0.17775,-0.10937 z m -1.28525,0.71873 c -0.10343,0.0522 -0.20792,0.10221 -0.31253,0.15234 0.10465,-0.0499 0.20907,-0.10041 0.31253,-0.15234 z" />
    <circle
       style="fill:url(#linearGradient5222);fill-opacity:1;stroke:none;stroke-width:2.96927;stroke-linecap:square;stroke-linejoin:round;stroke-miterlimit:4;stroke-dasharray:none;stroke-opacity:1"
       id="path5134-2"
       cx="22"
       cy="42"
       r="15.5" />
    <path
       style="fill:#d5a55b;fill-opacity:1;stroke-width:2.54467;stroke-linecap:square;stroke-linejoin:round;stroke-miterlimit:0"
       d="m 22.00015,25 c 4.2898,0 8.20232,1.60942 11.19727,4.24185 a 15.5,15.498752 0 0 0 -1.19727,0.91593 15.5,15.498752 0 0 0 -0.043,0.0352 15.5,15.498752 0 0 0 -0.20898,0.17968 15.5,15.498752 0 0 0 -0.041,0.0371 15.5,15.498752 0 0 0 -0.20508,0.18553 15.5,15.498752 0 0 0 -0.0391,0.0371 15.5,15.498752 0 0 0 -0.20117,0.18944 15.5,15.498752 0 0 0 -0.0391,0.0391 15.5,15.498752 0 0 0 -0.19727,0.19334 15.5,15.498752 0 0 0 -0.0391,0.0391 15.5,15.498752 0 0 0 -0.19141,0.19725 15.5,15.498752 0 0 0 -0.0391,0.041 15.5,15.498752 0 0 0 -0.1875,0.20115 15.5,15.498752 0 0 0 -0.0371,0.041 15.5,15.498752 0 0 0 -0.18359,0.20506 15.5,15.498752 0 0 0 -0.0371,0.041 15.5,15.498752 0 0 0 -0.17969,0.21092 15.5,15.498752 0 0 0 -0.0352,0.041 15.5,15.498752 0 0 0 -0.17382,0.21482 15.5,15.498752 0 0 0 -0.0352,0.043 15.5,15.498752 0 0 0 -0.16992,0.21678 15.5,15.498752 0 0 0 -0.0332,0.043 15.5,15.498752 0 0 0 -0.16601,0.22069 15.5,15.498752 0 0 0 -0.0332,0.0449 15.5,15.498752 0 0 0 -0.16016,0.22459 15.5,15.498752 0 0 0 -0.0312,0.0449 15.5,15.498752 0 0 0 -0.15625,0.22654 15.5,15.498752 0 0 0 -0.0312,0.0469 15.5,15.498752 0 0 0 -0.15039,0.23046 15.5,15.498752 0 0 0 -0.0293,0.0469 15.5,15.498752 0 0 0 -0.14648,0.23436 15.5,15.498752 0 0 0 -0.0293,0.0469 15.5,15.498752 0 0 0 -0.14062,0.23631 15.5,15.498752 0 0 0 -0.082,0.14452 15.5,15.498752 0 0 0 -0.082,0.14452 15.5,15.498752 0 0 0 -0.12304,0.2285 15.5,15.498752 0 0 0 -0.0352,0.0625 15.5,15.498752 0 0 0 -0.0254,0.0488 15.5,15.498752 0 0 0 -0.125,0.24412 15.5,15.498752 0 0 0 -0.0254,0.0508 15.5,15.498752 0 0 0 -0.11914,0.24802 15.5,15.498752 0 0 0 -0.0234,0.0508 15.5,15.498752 0 0 0 -0.11523,0.24998 15.5,15.498752 0 0 0 -0.0234,0.0508 15.5,15.498752 0 0 0 -0.10938,0.25193 15.5,15.498752 0 0 0 -0.0215,0.0508 15.5,15.498752 0 0 0 -0.10352,0.25584 15.5,15.498752 0 0 0 -0.0195,0.0508 15.5,15.498752 0 0 0 -0.0996,0.25779 15.5,15.498752 0 0 0 -0.0195,0.0527 15.5,15.498752 0 0 0 -0.0586,0.16405 A 15.5,15.498752 0 0 1 16.965,25.7619 C 18.55683,25.26679 20.24803,25 22.00015,25 Z"
       id="path952-6-89-3-9-8-0-3-3" />
    <path
       id="path952-6-89-3-9-8-9-8-9-0"
       style="fill:#6570d7;fill-opacity:1;stroke-width:2.54465;stroke-linecap:square;stroke-linejoin:round;stroke-miterlimit:0"
       d="m 46.59792,27.2 a 15.499304,15.499105 0 0 1 -9.99687,9.60131 15.499304,15.499105 0 0 1 0.0352,0.0957 15.499304,15.499105 0 0 1 0.0176,0.0508 15.499304,15.499105 0 0 1 0.0176,0.0527 15.499304,15.499105 0 0 1 0.0859,0.26171 15.499304,15.499105 0 0 1 0.082,0.26366 15.499304,15.499105 0 0 1 0.0156,0.0527 15.499304,15.499105 0 0 1 0.004,0.0156 15.499304,15.499105 0 0 1 0.0879,0.30272 15.499304,15.499105 0 0 1 0.0703,0.26758 15.499304,15.499105 0 0 1 0.0137,0.0527 15.499304,15.499105 0 0 1 0.0156,0.0644 15.499304,15.499105 0 0 1 0.0625,0.25781 15.499304,15.499105 0 0 1 0.0586,0.26952 15.499304,15.499105 0 0 1 0.0117,0.0547 15.499304,15.499105 0 0 1 0.0527,0.26952 15.499304,15.499105 0 0 1 0.01,0.0547 15.499304,15.499105 0 0 1 0.0566,0.32616 15.499304,15.499105 0 0 1 0.043,0.27149 15.499304,15.499105 0 0 1 0.008,0.0547 15.499304,15.499105 0 0 1 0.0117,0.0977 15.499304,15.499105 0 0 1 0.0293,0.23242 15.499304,15.499105 0 0 1 0.0313,0.27343 15.499304,15.499105 0 0 1 0.006,0.0547 15.499304,15.499105 0 0 1 0.0234,0.27538 15.499304,15.499105 0 0 1 0.004,0.0547 15.499304,15.499105 0 0 1 0,0.004 15.499304,15.499105 0 0 1 0.0215,0.32616 15.499304,15.499105 0 0 1 0.0137,0.27538 15.499304,15.499105 0 0 1 0.002,0.0547 15.499304,15.499105 0 0 1 0.002,0.10938 15.499304,15.499105 0 0 1 0.004,0.22264 15.499304,15.499105 0 0 1 0.002,0.17969 15.499304,15.499105 0 0 1 -0.0137,0.66209 15.499304,15.499105 0 0 1 -0.11329,1.31833 15.499304,15.499105 0 0 1 -0.15822,0.98044 15.499304,15.499105 0 0 1 -0.50394,1.91987 15.499304,15.499105 0 0 1 -0.10743,0.3125 15.499304,15.499105 0 0 1 0,0.002 15.499304,15.499105 0 0 1 -0.1133,0.30859 15.499304,15.499105 0 0 1 -0.1211,0.30858 15.499304,15.499105 0 0 1 -0.26174,0.60936 15.499304,15.499105 0 0 1 -0.28713,0.59569 15.499304,15.499105 0 0 1 -0.15235,0.29296 15.499304,15.499105 0 0 1 -0.32619,0.57811 15.499304,15.499105 0 0 1 -0.34769,0.56248 15.499304,15.499105 0 0 1 -0.76959,1.0781 15.499304,15.499105 0 0 1 -0.20705,0.25781 15.499304,15.499105 0 0 1 0,0.002 15.499304,15.499105 0 0 1 -0.21095,0.25195 15.499304,15.499105 0 0 1 0,0.002 15.499304,15.499105 0 0 1 -0.21682,0.24804 15.499304,15.499105 0 0 1 -0.4512,0.48631 15.499304,15.499105 0 0 1 -0.23244,0.23438 15.499304,15.499105 0 0 1 -0.48051,0.45701 A 15.499304,15.499105 0 0 1 32,53.8421 15.499304,15.499105 0 0 0 42.00076,57.50021 15.499304,15.499105 0 0 0 57.5,42.00061 15.499304,15.499105 0 0 0 46.60073,27.20216 Z m 3.75614,0.0137 c 0.29312,0.16635 0.5794,0.34245 0.86139,0.52538 -0.28217,-0.18305 -0.56807,-0.35893 -0.86139,-0.52538 z m 1.26963,0.791 c 0.34234,0.23623 0.67449,0.488 0.99812,0.74802 -0.32386,-0.26024 -0.65551,-0.5116 -0.99812,-0.74802 z m 1.21298,0.91404 c 0.38822,0.32217 0.76116,0.66075 1.11923,1.01559 -0.35789,-0.35466 -0.73122,-0.69356 -1.11923,-1.01559 z m 1.36534,1.2773 c 0.26331,0.27212 0.51887,0.55073 0.76373,0.83983 -0.24491,-0.28916 -0.50036,-0.56765 -0.76373,-0.83983 z m 1.08797,1.2363 c 0.21685,0.27212 0.42489,0.55259 0.62505,0.83787 -0.20041,-0.28567 -0.40792,-0.5654 -0.62505,-0.83787 z m 0.90242,1.24216 c 0.19831,0.30074 0.38322,0.61021 0.56254,0.92381 C 56.57571,33.28486 56.39061,32.9751 56.1924,32.6745 Z M 33.12618,56.47076 c 0.0592,0.0366 0.11808,0.0735 0.17775,0.10937 -0.0597,-0.0358 -0.11849,-0.0729 -0.17775,-0.10937 z m 1.28525,0.71873 c 0.10343,0.0522 0.20792,0.10221 0.31253,0.15234 -0.10465,-0.0499 -0.20907,-0.10041 -0.31253,-0.15234 z" />
    <circle
       style="fill:url(#linearGradient5207);fill-opacity:1;stroke:none;stroke-width:2.96927;stroke-linecap:square;stroke-linejoin:round;stroke-miterlimit:4;stroke-dasharray:none;stroke-opacity:1"
       id="path5134-6"
       cx="42"
       cy="42"
       r="15.5" />
    <path
       id="path952-8-9-0-1-6"
       style="fill:#d5a5d7;fill-opacity:1;stroke-width:2.54477;stroke-linecap:square;stroke-linejoin:round;stroke-miterlimit:0"
       d="m 27.4064,36.80678 a 15.5,15.498752 0 0 0 -0.002,0.004 15.499304,15.499105 0 0 0 -0.0352,0.0957 15.499304,15.499105 0 0 0 -0.0176,0.0508 15.499304,15.499105 0 0 0 -0.0176,0.0527 15.499304,15.499105 0 0 0 -0.0859,0.26171 15.499304,15.499105 0 0 0 -0.082,0.26368 15.499304,15.499105 0 0 0 -0.0156,0.0527 15.499304,15.499105 0 0 0 -0.004,0.0156 15.499304,15.499105 0 0 0 -0.0879,0.30273 15.499304,15.499105 0 0 0 -0.0703,0.26758 15.499304,15.499105 0 0 0 -0.0137,0.0527 15.499304,15.499105 0 0 0 -0.0156,0.0645 15.499304,15.499105 0 0 0 -0.0625,0.25781 15.499304,15.499105 0 0 0 -0.0586,0.26953 15.499304,15.499105 0 0 0 -0.0117,0.0547 15.499304,15.499105 0 0 0 -0.0527,0.26953 15.499304,15.499105 0 0 0 -0.01,0.0547 15.499304,15.499105 0 0 0 -0.0566,0.32617 15.499304,15.499105 0 0 0 -0.043,0.27148 15.499304,15.499105 0 0 0 -0.008,0.0547 15.499304,15.499105 0 0 0 -0.0117,0.0977 15.499304,15.499105 0 0 0 -0.0293,0.23242 15.499304,15.499105 0 0 0 -0.0313,0.27344 15.499304,15.499105 0 0 0 -0.006,0.0547 15.499304,15.499105 0 0 0 -0.0234,0.27539 15.499304,15.499105 0 0 0 -0.004,0.0547 15.499304,15.499105 0 0 0 0,0.004 15.499304,15.499105 0 0 0 -0.0215,0.32617 15.499304,15.499105 0 0 0 -0.0137,0.27539 15.499304,15.499105 0 0 0 -0.002,0.0547 15.499304,15.499105 0 0 0 -0.002,0.10937 15.499304,15.499105 0 0 0 -0.004,0.22266 15.499304,15.499105 0 0 0 -0.002,0.17969 15.499304,15.499105 0 0 0 0.0137,0.66211 15.499304,15.499105 0 0 0 0.11328,1.31836 15.499304,15.499105 0 0 0 0.15821,0.98046 15.499304,15.499105 0 0 0 0.5039,1.91993 15.499304,15.499105 0 0 0 0.10742,0.3125 15.499304,15.499105 0 0 0 0,0.002 15.499304,15.499105 0 0 0 0.11329,0.30859 15.499304,15.499105 0 0 0 0.12109,0.3086 15.499304,15.499105 0 0 0 0.26172,0.60937 15.499304,15.499105 0 0 0 0.28711,0.5957 15.499304,15.499105 0 0 0 0.15234,0.29297 15.499304,15.499105 0 0 0 0.32617,0.57813 15.499304,15.499105 0 0 0 0.34766,0.5625 15.499304,15.499105 0 0 0 0.76953,1.07812 15.499304,15.499105 0 0 0 0.20703,0.25782 15.499304,15.499105 0 0 0 0,0.002 15.499304,15.499105 0 0 0 0.21094,0.25195 15.499304,15.499105 0 0 0 0,0.002 15.499304,15.499105 0 0 0 0.2168,0.24804 15.499304,15.499105 0 0 0 0.45117,0.48633 15.499304,15.499105 0 0 0 0.23242,0.23437 15.499304,15.499105 0 0 0 0.48047,0.45704 15.499304,15.499105 0 0 0 0.42578,0.37304 15.499304,15.499105 0 0 0 0.42578,-0.37304 15.499304,15.499105 0 0 0 0.48047,-0.45704 15.499304,15.499105 0 0 0 0.23242,-0.23437 15.499304,15.499105 0 0 0 0.45117,-0.48633 15.499304,15.499105 0 0 0 0.2168,-0.24804 15.499304,15.499105 0 0 1 0,-0.002 15.499304,15.499105 0 0 0 0.21094,-0.25195 15.499304,15.499105 0 0 1 0,-0.002 15.499304,15.499105 0 0 0 0.20703,-0.25782 15.499304,15.499105 0 0 0 0.76953,-1.07812 15.499304,15.499105 0 0 0 0.34766,-0.5625 15.499304,15.499105 0 0 0 0.32617,-0.57813 15.499304,15.499105 0 0 0 0.15234,-0.29297 15.499304,15.499105 0 0 0 0.28711,-0.5957 15.499304,15.499105 0 0 0 0.26172,-0.60937 15.499304,15.499105 0 0 0 0.12109,-0.3086 15.499304,15.499105 0 0 0 0.11329,-0.30859 15.499304,15.499105 0 0 1 0,-0.002 15.499304,15.499105 0 0 0 0.10742,-0.3125 15.499304,15.499105 0 0 0 0.5039,-1.91993 15.499304,15.499105 0 0 0 0.15821,-0.98046 15.499304,15.499105 0 0 0 0.11328,-1.31836 15.499304,15.499105 0 0 0 0.0137,-0.66211 15.499304,15.499105 0 0 0 -0.002,-0.17969 15.499304,15.499105 0 0 0 -0.004,-0.22266 15.499304,15.499105 0 0 0 -0.002,-0.10937 15.499304,15.499105 0 0 0 -0.002,-0.0547 15.499304,15.499105 0 0 0 -0.0137,-0.27539 15.499304,15.499105 0 0 0 -0.0215,-0.32617 15.499304,15.499105 0 0 0 0,-0.004 15.499304,15.499105 0 0 0 -0.004,-0.0547 15.499304,15.499105 0 0 0 -0.0234,-0.27539 15.499304,15.499105 0 0 0 -0.006,-0.0547 15.499304,15.499105 0 0 0 -0.0313,-0.27344 15.499304,15.499105 0 0 0 -0.0293,-0.23242 15.499304,15.499105 0 0 0 -0.0117,-0.0977 15.499304,15.499105 0 0 0 -0.008,-0.0547 15.499304,15.499105 0 0 0 -0.043,-0.27148 15.499304,15.499105 0 0 0 -0.0566,-0.32617 15.499304,15.499105 0 0 0 -0.01,-0.0547 15.499304,15.499105 0 0 0 -0.0527,-0.26953 15.499304,15.499105 0 0 0 -0.0117,-0.0547 15.499304,15.499105 0 0 0 -0.0586,-0.26953 15.499304,15.499105 0 0 0 -0.0625,-0.25781 15.499304,15.499105 0 0 0 -0.0156,-0.0645 15.499304,15.499105 0 0 0 -0.0137,-0.0527 15.499304,15.499105 0 0 0 -0.0703,-0.26758 15.499304,15.499105 0 0 0 -0.0879,-0.30273 15.499304,15.499105 0 0 0 -0.004,-0.0156 15.499304,15.499105 0 0 0 -0.0156,-0.0527 15.499304,15.499105 0 0 0 -0.082,-0.26368 15.499304,15.499105 0 0 0 -0.0859,-0.26171 15.499304,15.499105 0 0 0 -0.0176,-0.0527 15.499304,15.499105 0 0 0 -0.0176,-0.0508 15.499304,15.499105 0 0 0 -0.0352,-0.0957 15.5,15.498752 0 0 0 -0.002,-0.004 15.5,15.5 0 0 1 -4.59765,0.69922 15.5,15.5 0 0 1 -4.59961,-0.69922 z" />
    <path
       id="path952-8-9-0-0"
       style="fill:#dfe1e1;fill-opacity:1;stroke-width:2.54477;stroke-linecap:square;stroke-linejoin:round;stroke-miterlimit:0"
       d="m 32,30.1582 a 15.5,15.498752 0 0 0 -0.043,0.0352 15.5,15.498752 0 0 0 -0.20898,0.17969 15.5,15.498752 0 0 0 -0.041,0.0371 15.5,15.498752 0 0 0 -0.20508,0.18554 15.5,15.498752 0 0 0 -0.0391,0.0371 15.5,15.498752 0 0 0 -0.20117,0.18946 15.5,15.498752 0 0 0 -0.0391,0.0391 15.5,15.498752 0 0 0 -0.19727,0.19336 15.5,15.498752 0 0 0 -0.0391,0.0391 15.5,15.498752 0 0 0 -0.19141,0.19727 15.5,15.498752 0 0 0 -0.0391,0.041 15.5,15.498752 0 0 0 -0.1875,0.20117 15.5,15.498752 0 0 0 -0.0371,0.041 15.5,15.498752 0 0 0 -0.18359,0.20508 15.5,15.498752 0 0 0 -0.0371,0.041 15.5,15.498752 0 0 0 -0.17969,0.21094 15.5,15.498752 0 0 0 -0.0352,0.041 15.5,15.498752 0 0 0 -0.17382,0.21484 15.5,15.498752 0 0 0 -0.0352,0.043 15.5,15.498752 0 0 0 -0.16992,0.2168 15.5,15.498752 0 0 0 -0.0332,0.043 15.5,15.498752 0 0 0 -0.16601,0.22071 15.5,15.498752 0 0 0 -0.0332,0.0449 15.5,15.498752 0 0 0 -0.16016,0.22461 15.5,15.498752 0 0 0 -0.0312,0.0449 15.5,15.498752 0 0 0 -0.15625,0.22656 15.5,15.498752 0 0 0 -0.0312,0.0469 15.5,15.498752 0 0 0 -0.15039,0.23047 15.5,15.498752 0 0 0 -0.0293,0.0469 15.5,15.498752 0 0 0 -0.14648,0.23438 15.5,15.498752 0 0 0 -0.0293,0.0469 15.5,15.498752 0 0 0 -0.14062,0.23633 15.5,15.498752 0 0 0 -0.082,0.14453 15.5,15.498752 0 0 0 -0.082,0.14453 15.5,15.498752 0 0 0 -0.12304,0.22852 15.5,15.498752 0 0 0 -0.0352,0.0625 15.5,15.498752 0 0 0 -0.0254,0.0488 15.5,15.498752 0 0 0 -0.125,0.24414 15.5,15.498752 0 0 0 -0.0254,0.0508 15.5,15.498752 0 0 0 -0.11914,0.24804 15.5,15.498752 0 0 0 -0.0234,0.0508 15.5,15.498752 0 0 0 -0.11523,0.25 15.5,15.498752 0 0 0 -0.0234,0.0508 15.5,15.498752 0 0 0 -0.10938,0.25195 15.5,15.498752 0 0 0 -0.0215,0.0508 15.5,15.498752 0 0 0 -0.10352,0.25586 15.5,15.498752 0 0 0 -0.0195,0.0508 15.5,15.498752 0 0 0 -0.0996,0.25781 15.5,15.498752 0 0 0 -0.0195,0.0527 15.5,15.498752 0 0 0 -0.0586,0.16406 15.499304,15.499105 0 0 0 -0.002,0.006 h 0.002 a 15.499304,15.499105 0 0 1 0,-0.002 15.5,15.498752 0 0 1 0.002,-0.004 A 15.5,15.5 0 0 0 32,37.5 a 15.5,15.5 0 0 0 4.59766,-0.69922 15.5,15.498752 0 0 1 0.002,0.004 15.499304,15.499105 0 0 1 0,0.002 h 0.004 a 15.499304,15.499105 0 0 0 -0.002,-0.006 15.5,15.498752 0 0 0 -0.0586,-0.16406 15.5,15.498752 0 0 0 -0.0195,-0.0527 15.5,15.498752 0 0 0 -0.0996,-0.25781 15.5,15.498752 0 0 0 -0.0195,-0.0508 15.5,15.498752 0 0 0 -0.10352,-0.25586 15.5,15.498752 0 0 0 -0.0215,-0.0508 15.5,15.498752 0 0 0 -0.10938,-0.25195 15.5,15.498752 0 0 0 -0.0234,-0.0508 15.5,15.498752 0 0 0 -0.11523,-0.25 15.5,15.498752 0 0 0 -0.0234,-0.0508 15.5,15.498752 0 0 0 -0.11914,-0.24804 15.5,15.498752 0 0 0 -0.0254,-0.0508 15.5,15.498752 0 0 0 -0.125,-0.24414 15.5,15.498752 0 0 0 -0.0254,-0.0488 15.5,15.498752 0 0 0 -0.0352,-0.0625 15.5,15.498752 0 0 0 -0.12304,-0.22852 15.5,15.498752 0 0 0 -0.082,-0.14453 15.5,15.498752 0 0 0 -0.082,-0.14453 15.5,15.498752 0 0 0 -0.14062,-0.23633 15.5,15.498752 0 0 0 -0.0293,-0.0469 15.5,15.498752 0 0 0 -0.14648,-0.23438 15.5,15.498752 0 0 0 -0.0293,-0.0469 15.5,15.498752 0 0 0 -0.15039,-0.23047 15.5,15.498752 0 0 0 -0.0312,-0.0469 15.5,15.498752 0 0 0 -0.15625,-0.22656 15.5,15.498752 0 0 0 -0.0312,-0.0449 15.5,15.498752 0 0 0 -0.16016,-0.22461 15.5,15.498752 0 0 0 -0.0332,-0.0449 15.5,15.498752 0 0 0 -0.16601,-0.22071 15.5,15.498752 0 0 0 -0.0332,-0.043 15.5,15.498752 0 0 0 -0.16992,-0.2168 15.5,15.498752 0 0 0 -0.0352,-0.043 15.5,15.498752 0 0 0 -0.17382,-0.21484 15.5,15.498752 0 0 0 -0.0352,-0.041 15.5,15.498752 0 0 0 -0.17969,-0.21094 15.5,15.498752 0 0 0 -0.0371,-0.041 15.5,15.498752 0 0 0 -0.18359,-0.20508 15.5,15.498752 0 0 0 -0.0371,-0.041 15.5,15.498752 0 0 0 -0.1875,-0.20117 15.5,15.498752 0 0 0 -0.0391,-0.041 15.5,15.498752 0 0 0 -0.19141,-0.19727 15.5,15.498752 0 0 0 -0.0391,-0.0391 15.5,15.498752 0 0 0 -0.19727,-0.19336 15.5,15.498752 0 0 0 -0.0391,-0.0391 15.5,15.498752 0 0 0 -0.20117,-0.18946 15.5,15.498752 0 0 0 -0.0391,-0.0371 15.5,15.498752 0 0 0 -0.20508,-0.18554 15.5,15.498752 0 0 0 -0.041,-0.0371 15.5,15.498752 0 0 0 -0.20898,-0.17969 15.5,15.498752 0 0 0 -0.043,-0.0352 z" />
    <path
       style="fill:#67bed7;fill-opacity:1;stroke-width:2.54467;stroke-linecap:square;stroke-linejoin:round;stroke-miterlimit:0"
       d="m 41.99927,25 c -4.2898,0 -8.20232,1.60942 -11.19727,4.24185 a 15.5,15.498752 0 0 1 1.19727,0.91593 15.5,15.498752 0 0 1 0.043,0.0352 15.5,15.498752 0 0 1 0.20898,0.17968 15.5,15.498752 0 0 1 0.041,0.0371 15.5,15.498752 0 0 1 0.20508,0.18553 15.5,15.498752 0 0 1 0.0391,0.0371 15.5,15.498752 0 0 1 0.20117,0.18944 15.5,15.498752 0 0 1 0.0391,0.0391 15.5,15.498752 0 0 1 0.19727,0.19334 15.5,15.498752 0 0 1 0.0391,0.0391 15.5,15.498752 0 0 1 0.19141,0.19725 15.5,15.498752 0 0 1 0.0391,0.041 15.5,15.498752 0 0 1 0.1875,0.20115 15.5,15.498752 0 0 1 0.0371,0.041 15.5,15.498752 0 0 1 0.18359,0.20506 15.5,15.498752 0 0 1 0.0371,0.041 15.5,15.498752 0 0 1 0.17969,0.21092 15.5,15.498752 0 0 1 0.0352,0.041 15.5,15.498752 0 0 1 0.17382,0.21482 15.5,15.498752 0 0 1 0.0352,0.043 15.5,15.498752 0 0 1 0.16992,0.21678 15.5,15.498752 0 0 1 0.0332,0.043 15.5,15.498752 0 0 1 0.16601,0.22069 15.5,15.498752 0 0 1 0.0332,0.0449 15.5,15.498752 0 0 1 0.16016,0.22459 15.5,15.498752 0 0 1 0.0312,0.0449 15.5,15.498752 0 0 1 0.15625,0.22654 15.5,15.498752 0 0 1 0.0312,0.0469 15.5,15.498752 0 0 1 0.15039,0.23046 15.5,15.498752 0 0 1 0.0293,0.0469 15.5,15.498752 0 0 1 0.14648,0.23436 15.5,15.498752 0 0 1 0.0293,0.0469 15.5,15.498752 0 0 1 0.14062,0.23631 15.5,15.498752 0 0 1 0.082,0.14452 15.5,15.498752 0 0 1 0.082,0.14452 15.5,15.498752 0 0 1 0.12304,0.2285 15.5,15.498752 0 0 1 0.0352,0.0625 15.5,15.498752 0 0 1 0.0254,0.0488 15.5,15.498752 0 0 1 0.125,0.24412 15.5,15.498752 0 0 1 0.0254,0.0508 15.5,15.498752 0 0 1 0.11914,0.24802 15.5,15.498752 0 0 1 0.0234,0.0508 15.5,15.498752 0 0 1 0.11523,0.24998 15.5,15.498752 0 0 1 0.0234,0.0508 15.5,15.498752 0 0 1 0.10938,0.25193 15.5,15.498752 0 0 1 0.0215,0.0508 15.5,15.498752 0 0 1 0.10352,0.25584 15.5,15.498752 0 0 1 0.0195,0.0508 15.5,15.498752 0 0 1 0.0996,0.25779 15.5,15.498752 0 0 1 0.0195,0.0527 15.5,15.498752 0 0 1 0.0586,0.16405 15.5,15.498752 0 0 0 10.4336,-11.03817 C 45.44259,25.26679 43.75139,25 41.99927,25 Z"
       id="path952-6-89-3-9-8-91-8" />
    <path
       id="path952-8-3-4"
       style="fill:#69a555;fill-opacity:1;stroke-width:2.54477;stroke-linecap:square;stroke-linejoin:round;stroke-miterlimit:0"
       d="M 32,6.5 A 15.5,15.5 0 0 0 16.5,22 15.5,15.5 0 0 0 16.96484,25.76172 C 18.55667,25.26661 20.24788,25 22,25 c 3.73944,0 7.1918,1.22573 10,3.2832 C 34.8082,26.22573 38.26056,25 42,25 c 1.75212,0 3.44333,0.26661 5.03516,0.76172 A 15.5,15.5 0 0 0 47.5,22 15.5,15.5 0 0 0 32,6.5 Z M 17.05078,26.08984 a 15.5,15.5 0 0 0 0.0879,0.31055 15.5,15.498752 0 0 1 -0.0879,-0.31055 z m 29.8457,0.1836 a 15.5,15.5 0 0 1 -0.0684,0.23633 15.5,15.498752 0 0 0 0.0684,-0.23633 z m -29.60351,0.61523 a 15.5,15.5 0 0 0 0.10547,0.31445 l 0.002,-0.002 a 15.5,15.498752 0 0 1 -0.10742,-0.3125 z m 29.41406,0 a 15.5,15.498752 0 0 1 -0.10742,0.3125 l 0.002,0.002 a 15.5,15.5 0 0 0 0.10547,-0.31445 z" />
    <path
       id="path952-7-5-6-3-5-2"
       style="color:#000000;font-style:normal;font-variant:normal;font-weight:normal;font-stretch:normal;font-size:medium;line-height:normal;font-family:sans-serif;font-variant-ligatures:normal;font-variant-position:normal;font-variant-caps:normal;font-variant-numeric:normal;font-variant-alternates:normal;font-variant-east-asian:normal;font-feature-settings:normal;font-variation-settings:normal;text-indent:0;text-align:start;text-decoration:none;text-decoration-line:none;text-decoration-style:solid;text-decoration-color:#000000;letter-spacing:normal;word-spacing:normal;text-transform:none;writing-mode:lr-tb;direction:ltr;text-orientation:mixed;dominant-baseline:auto;baseline-shift:baseline;text-anchor:start;white-space:normal;shape-padding:0;shape-margin:0;inline-size:0;clip-rule:nonzero;display:inline;overflow:visible;visibility:visible;isolation:auto;mix-blend-mode:normal;color-interpolation:sRGB;color-interpolation-filters:linearRGB;solid-color:#000000;solid-opacity:1;vector-effect:none;fill:url(#linearGradient4127);fill-opacity:1;fill-rule:nonzero;stroke:none;stroke-linecap:square;stroke-linejoin:round;stroke-miterlimit:4;stroke-dasharray:none;stroke-dashoffset:0;stroke-opacity:1;color-rendering:auto;image-rendering:auto;shape-rendering:auto;text-rendering:auto;enable-background:accumulate;stop-color:#000000"
       d="M 32,6.5 A 15.5,15.5 0 0 0 16.5,22 15.5,15.5 0 0 0 32,37.5 15.5,15.5 0 0 0 47.50001,22 15.5,15.5 0 0 0 32,6.5 Z M 32,8 c 7.74976,0 14.00001,6.25025 14.00001,14 0,7.74975 -6.25025,14 -14.00001,14 C 24.25025,36 18,29.74975 18,22 18,14.25025 24.25025,8 32,8 Z" />
    <path
       id="path952-7-3-2-7-9-8-8-1-9-8-9-0-2-1-5-0"
       style="color:#000000;font-style:normal;font-variant:normal;font-weight:normal;font-stretch:normal;font-size:medium;line-height:normal;font-family:sans-serif;font-variant-ligatures:normal;font-variant-position:normal;font-variant-caps:normal;font-variant-numeric:normal;font-variant-alternates:normal;font-variant-east-asian:normal;font-feature-settings:normal;font-variation-settings:normal;text-indent:0;text-align:start;text-decoration:none;text-decoration-line:none;text-decoration-style:solid;text-decoration-color:#000000;letter-spacing:normal;word-spacing:normal;text-transform:none;writing-mode:lr-tb;direction:ltr;text-orientation:mixed;dominant-baseline:auto;baseline-shift:baseline;text-anchor:start;white-space:normal;shape-padding:0;shape-margin:0;inline-size:0;clip-rule:nonzero;display:inline;overflow:visible;visibility:visible;opacity:0.6;isolation:auto;mix-blend-mode:normal;color-interpolation:sRGB;color-interpolation-filters:linearRGB;solid-color:#000000;solid-opacity:1;vector-effect:none;fill:#45454a;fill-opacity:1;fill-rule:nonzero;stroke:none;stroke-linecap:square;stroke-linejoin:round;stroke-miterlimit:4;stroke-dasharray:none;stroke-dashoffset:0;stroke-opacity:1;color-rendering:auto;image-rendering:auto;shape-rendering:auto;text-rendering:auto;enable-background:accumulate;stop-color:#000000"
       d="m 22,25 c 9.37107,0 17,7.62893 17,17 0,5.64222 -2.77718,10.63817 -7.02344,13.73242 A 17,17 0 0 1 30.78125,54.77148 15.5,15.5 0 0 0 37.5,42 15.5,15.5 0 0 0 22,26.5 15.5,15.5 0 0 0 15.99023,27.71289 17,17 0 0 1 15.54883,26.2793 C 17.54014,25.45862 19.71668,25 22,25 Z" />
    <path
       id="path952-7-3-2-7-9-8-8-1-9-8-9-0-2-14-9"
       style="color:#000000;font-style:normal;font-variant:normal;font-weight:normal;font-stretch:normal;font-size:medium;line-height:normal;font-family:sans-serif;font-variant-ligatures:normal;font-variant-position:normal;font-variant-caps:normal;font-variant-numeric:normal;font-variant-alternates:normal;font-variant-east-asian:normal;font-feature-settings:normal;font-variation-settings:normal;text-indent:0;text-align:start;text-decoration:none;text-decoration-line:none;text-decoration-style:solid;text-decoration-color:#000000;letter-spacing:normal;word-spacing:normal;text-transform:none;writing-mode:lr-tb;direction:ltr;text-orientation:mixed;dominant-baseline:auto;baseline-shift:baseline;text-anchor:start;white-space:normal;shape-padding:0;shape-margin:0;inline-size:0;clip-rule:nonzero;display:inline;overflow:visible;visibility:visible;opacity:0.6;isolation:auto;mix-blend-mode:normal;color-interpolation:sRGB;color-interpolation-filters:linearRGB;solid-color:#000000;solid-opacity:1;vector-effect:none;fill:#45454a;fill-opacity:1;fill-rule:nonzero;stroke:none;stroke-linecap:square;stroke-linejoin:round;stroke-miterlimit:4;stroke-dasharray:none;stroke-dashoffset:0;stroke-opacity:1;color-rendering:auto;image-rendering:auto;shape-rendering:auto;text-rendering:auto;enable-background:accumulate;stop-color:#000000"
       d="m 15.36524,25.5 c 1.61887,7.69862 8.46119,13.5 16.63281,13.5 8.17162,0 15.0159,-5.80137 16.63477,-13.5 h -1.53516 a 15.5,15.5 0 0 1 -15.09961,12 15.5,15.5 0 0 1 -15.09766,-12 z" />
    <path
       id="path952-7-3-2-7-9-8-8-1-9-8-9-0-2-1"
       style="color:#000000;font-style:normal;font-variant:normal;font-weight:normal;font-stretch:normal;font-size:medium;line-height:normal;font-family:sans-serif;font-variant-ligatures:normal;font-variant-position:normal;font-variant-caps:normal;font-variant-numeric:normal;font-variant-alternates:normal;font-variant-east-asian:normal;font-feature-settings:normal;font-variation-settings:normal;text-indent:0;text-align:start;text-decoration:none;text-decoration-line:none;text-decoration-style:solid;text-decoration-color:#000000;letter-spacing:normal;word-spacing:normal;text-transform:none;writing-mode:lr-tb;direction:ltr;text-orientation:mixed;dominant-baseline:auto;baseline-shift:baseline;text-anchor:start;white-space:normal;shape-padding:0;shape-margin:0;inline-size:0;clip-rule:nonzero;display:inline;overflow:visible;visibility:visible;opacity:0.95;isolation:auto;mix-blend-mode:normal;color-interpolation:sRGB;color-interpolation-filters:linearRGB;solid-color:#000000;solid-opacity:1;vector-effect:none;fill:#202a79;fill-opacity:1;fill-rule:nonzero;stroke:none;stroke-linecap:square;stroke-linejoin:round;stroke-miterlimit:4;stroke-dasharray:none;stroke-dashoffset:0;stroke-opacity:1;color-rendering:auto;image-rendering:auto;shape-rendering:auto;text-rendering:auto;enable-background:accumulate;stop-color:#000000"
       d="M 48.45118,26.2793 A 17,17 0 0 1 48.00977,27.71289 15.5,15.5 0 0 1 57.5,42 15.5,15.5 0 0 1 42,57.5 15.5,15.5 0 0 1 33.21875,54.77148 17,17 0 0 1 32.02344,55.73242 C 34.82974,57.77737 38.27114,59 42,59 51.37108,59 59,51.37108 59,42 59,34.91225 54.63248,28.8268 48.45118,26.2793 Z" />
    <circle
       style="fill:url(#linearGradient5177);fill-opacity:1;stroke:none;stroke-width:2.96927;stroke-linecap:square;stroke-linejoin:round;stroke-miterlimit:4;stroke-dasharray:none;stroke-opacity:1"
       id="path5134-3"
       cx="32"
       cy="22"
       r="15.5" />
    <path
       id="path952-7-3-2-7-9-8-8-1-9-2-9-2-4-9-7-2"
       style="color:#000000;font-style:normal;font-variant:normal;font-weight:normal;font-stretch:normal;font-size:medium;line-height:normal;font-family:sans-serif;font-variant-ligatures:normal;font-variant-position:normal;font-variant-caps:normal;font-variant-numeric:normal;font-variant-alternates:normal;font-variant-east-asian:normal;font-feature-settings:normal;font-variation-settings:normal;text-indent:0;text-align:start;text-decoration:none;text-decoration-line:none;text-decoration-style:solid;text-decoration-color:#000000;letter-spacing:normal;word-spacing:normal;text-transform:none;writing-mode:lr-tb;direction:ltr;text-orientation:mixed;dominant-baseline:auto;baseline-shift:baseline;text-anchor:start;white-space:normal;shape-padding:0;shape-margin:0;inline-size:0;clip-rule:nonzero;display:inline;overflow:visible;visibility:visible;isolation:auto;mix-blend-mode:normal;color-interpolation:sRGB;color-interpolation-filters:linearRGB;solid-color:#000000;solid-opacity:1;vector-effect:none;fill:#3c5e31;fill-opacity:1;fill-rule:nonzero;stroke:none;stroke-linecap:square;stroke-linejoin:round;stroke-miterlimit:4;stroke-dasharray:none;stroke-dashoffset:0;stroke-opacity:1;color-rendering:auto;image-rendering:auto;shape-rendering:auto;text-rendering:auto;enable-background:accumulate;stop-color:#000000"
       d="m 32,5 c -9.37108,0 -17,7.62893 -17,17 0,1.47504 0.20743,2.89987 0.5625,4.26562 A 17,17 0 0 1 16.96484,25.76367 15.5,15.5 0 0 1 16.5,22 15.5,15.5 0 0 1 32,6.5 15.5,15.5 0 0 1 47.5,22 a 15.5,15.5 0 0 1 -0.46484,3.76367 17,17 0 0 1 1.40039,0.50195 C 48.7907,24.89972 49,23.47521 49,22 49,12.62893 41.37107,5 32,5 Z" />
    <path
       id="path952-7-3-2-7-9-9"
       style="color:#000000;font-style:normal;font-variant:normal;font-weight:normal;font-stretch:normal;font-size:medium;line-height:normal;font-family:sans-serif;font-variant-ligatures:normal;font-variant-position:normal;font-variant-caps:normal;font-variant-numeric:normal;font-variant-alternates:normal;font-variant-east-asian:normal;font-feature-settings:normal;font-variation-settings:normal;text-indent:0;text-align:start;text-decoration:none;text-decoration-line:none;text-decoration-style:solid;text-decoration-color:#000000;letter-spacing:normal;word-spacing:normal;text-transform:none;writing-mode:lr-tb;direction:ltr;text-orientation:mixed;dominant-baseline:auto;baseline-shift:baseline;text-anchor:start;white-space:normal;shape-padding:0;shape-margin:0;inline-size:0;clip-rule:nonzero;display:inline;overflow:visible;visibility:visible;opacity:0.15;isolation:auto;mix-blend-mode:normal;color-interpolation:sRGB;color-interpolation-filters:linearRGB;solid-color:#000000;solid-opacity:1;vector-effect:none;fill:#456b38;fill-opacity:1;fill-rule:nonzero;stroke:none;stroke-linecap:square;stroke-linejoin:round;stroke-miterlimit:4;stroke-dasharray:none;stroke-dashoffset:0;stroke-opacity:1;color-rendering:auto;image-rendering:auto;shape-rendering:auto;text-rendering:auto;enable-background:accumulate;stop-color:#000000"
       d="m 32,5 c -9.37108,0 -17,7.62892 -17,17 0,9.37107 7.62892,16.99999 17,16.99999 9.37107,0 17,-7.62892 17,-16.99999 C 49,12.62892 41.37107,5 32,5 Z m 0,3 c 7.74975,0 14,6.25024 14,14 0,7.74974 -6.25025,13.99999 -14,13.99999 C 24.25025,35.99999 18,29.74974 18,22 18,14.25024 24.25025,8 32,8 Z" />
    <path
       id="path952-7-3-2-7-9-8-8-1-9-8-9-0-2-1-5"
       style="color:#000000;font-style:normal;font-variant:normal;font-weight:normal;font-stretch:normal;font-size:medium;line-height:normal;font-family:sans-serif;font-variant-ligatures:normal;font-variant-position:normal;font-variant-caps:normal;font-variant-numeric:normal;font-variant-alternates:normal;font-variant-east-asian:normal;font-feature-settings:normal;font-variation-settings:normal;text-indent:0;text-align:start;text-decoration:none;text-decoration-line:none;text-decoration-style:solid;text-decoration-color:#000000;letter-spacing:normal;word-spacing:normal;text-transform:none;writing-mode:lr-tb;direction:ltr;text-orientation:mixed;dominant-baseline:auto;baseline-shift:baseline;text-anchor:start;white-space:normal;shape-padding:0;shape-margin:0;inline-size:0;clip-rule:nonzero;display:inline;overflow:visible;visibility:visible;opacity:0.6;isolation:auto;mix-blend-mode:normal;color-interpolation:sRGB;color-interpolation-filters:linearRGB;solid-color:#000000;solid-opacity:1;vector-effect:none;fill:#45454a;fill-opacity:1;fill-rule:nonzero;stroke:none;stroke-linecap:square;stroke-linejoin:round;stroke-miterlimit:4;stroke-dasharray:none;stroke-dashoffset:0;stroke-opacity:1;color-rendering:auto;image-rendering:auto;shape-rendering:auto;text-rendering:auto;enable-background:accumulate;stop-color:#000000"
       d="m 42,25 c -9.37107,0 -17,7.62893 -17,17 0,5.64222 2.77718,10.63817 7.02344,13.73242 A 17,17 0 0 0 33.21875,54.77148 15.5,15.5 0 0 1 26.5,42 15.5,15.5 0 0 1 42,26.5 a 15.5,15.5 0 0 1 6.00977,1.21289 17,17 0 0 0 0.4414,-1.43359 C 46.45986,25.45862 44.28332,25 42,25 Z" />
    <path
       id="path952-7-3-2-7-9-8-8-1-9-8-9-0-2-1-8"
       style="color:#000000;font-style:normal;font-variant:normal;font-weight:normal;font-stretch:normal;font-size:medium;line-height:normal;font-family:sans-serif;font-variant-ligatures:normal;font-variant-position:normal;font-variant-caps:normal;font-variant-numeric:normal;font-variant-alternates:normal;font-variant-east-asian:normal;font-feature-settings:normal;font-variation-settings:normal;text-indent:0;text-align:start;text-decoration:none;text-decoration-line:none;text-decoration-style:solid;text-decoration-color:#000000;letter-spacing:normal;word-spacing:normal;text-transform:none;writing-mode:lr-tb;direction:ltr;text-orientation:mixed;dominant-baseline:auto;baseline-shift:baseline;text-anchor:start;white-space:normal;shape-padding:0;shape-margin:0;inline-size:0;clip-rule:nonzero;display:inline;overflow:visible;visibility:visible;opacity:0.95;isolation:auto;mix-blend-mode:normal;color-interpolation:sRGB;color-interpolation-filters:linearRGB;solid-color:#000000;solid-opacity:1;vector-effect:none;fill:#781732;fill-opacity:1;fill-rule:nonzero;stroke:none;stroke-linecap:square;stroke-linejoin:round;stroke-miterlimit:4;stroke-dasharray:none;stroke-dashoffset:0;stroke-opacity:1;color-rendering:auto;image-rendering:auto;shape-rendering:auto;text-rendering:auto;enable-background:accumulate;stop-color:#000000"
       d="M 15.54882,26.2793 A 17,17 0 0 0 15.99023,27.71289 15.5,15.5 0 0 0 6.5,42 15.5,15.5 0 0 0 22,57.5 a 15.5,15.5 0 0 0 8.78125,-2.72852 17,17 0 0 0 1.19531,0.96094 C 29.17026,57.77737 25.72886,59 22,59 12.62892,59 5,51.37108 5,42 5,34.91225 9.36752,28.8268 15.54882,26.2793 Z" />
    <path
       id="path952-7-5-6-1"
       style="color:#000000;font-style:normal;font-variant:normal;font-weight:normal;font-stretch:normal;font-size:medium;line-height:normal;font-family:sans-serif;font-variant-ligatures:normal;font-variant-position:normal;font-variant-caps:normal;font-variant-numeric:normal;font-variant-alternates:normal;font-variant-east-asian:normal;font-feature-settings:normal;font-variation-settings:normal;text-indent:0;text-align:start;text-decoration:none;text-decoration-line:none;text-decoration-style:solid;text-decoration-color:#000000;letter-spacing:normal;word-spacing:normal;text-transform:none;writing-mode:lr-tb;direction:ltr;text-orientation:mixed;dominant-baseline:auto;baseline-shift:baseline;text-anchor:start;white-space:normal;shape-padding:0;shape-margin:0;inline-size:0;clip-rule:nonzero;display:inline;overflow:visible;visibility:visible;isolation:auto;mix-blend-mode:normal;color-interpolation:sRGB;color-interpolation-filters:linearRGB;solid-color:#000000;solid-opacity:1;vector-effect:none;fill:url(#linearGradient4887);fill-opacity:1;fill-rule:nonzero;stroke:none;stroke-linecap:square;stroke-linejoin:round;stroke-miterlimit:4;stroke-dasharray:none;stroke-dashoffset:0;stroke-opacity:1;color-rendering:auto;image-rendering:auto;shape-rendering:auto;text-rendering:auto;enable-background:accumulate;stop-color:#000000"
       d="M 42,26.5 A 15.5,15.5 0 0 0 26.5,42 15.5,15.5 0 0 0 42,57.5 15.5,15.5 0 0 0 57.5,42 15.5,15.5 0 0 0 42,26.5 Z m 0,1.5 c 7.74975,0 14,6.25025 14,14 0,7.74975 -6.25025,14 -14,14 -7.74975,0 -14,-6.25025 -14,-14 0,-7.74975 6.25025,-14 14,-14 z" />
    <path
       id="path952-7-5-2-9"
       style="color:#000000;font-style:normal;font-variant:normal;font-weight:normal;font-stretch:normal;font-size:medium;line-height:normal;font-family:sans-serif;font-variant-ligatures:normal;font-variant-position:normal;font-variant-caps:normal;font-variant-numeric:normal;font-variant-alternates:normal;font-variant-east-asian:normal;font-feature-settings:normal;font-variation-settings:normal;text-indent:0;text-align:start;text-decoration:none;text-decoration-line:none;text-decoration-style:solid;text-decoration-color:#000000;letter-spacing:normal;word-spacing:normal;text-transform:none;writing-mode:lr-tb;direction:ltr;text-orientation:mixed;dominant-baseline:auto;baseline-shift:baseline;text-anchor:start;white-space:normal;shape-padding:0;shape-margin:0;inline-size:0;clip-rule:nonzero;display:inline;overflow:visible;visibility:visible;opacity:0.15;isolation:auto;mix-blend-mode:normal;color-interpolation:sRGB;color-interpolation-filters:linearRGB;solid-color:#000000;solid-opacity:1;vector-effect:none;fill:#2b37a1;fill-opacity:1;fill-rule:nonzero;stroke:none;stroke-linecap:square;stroke-linejoin:round;stroke-miterlimit:4;stroke-dasharray:none;stroke-dashoffset:0;stroke-opacity:1;color-rendering:auto;image-rendering:auto;shape-rendering:auto;text-rendering:auto;enable-background:accumulate;stop-color:#000000"
       d="m 42,25 c -9.37108,0 -17,7.62892 -17,17 0,9.37108 7.62892,17 17,17 9.37107,0 17,-7.62892 17,-17 0,-9.37108 -7.62893,-17 -17,-17 z m 0,3 c 7.74975,0 14,6.25025 14,14 0,7.74975 -6.25025,14 -14,14 -7.74975,0 -14,-6.25025 -14,-14 0,-7.74975 6.25025,-14 14,-14 z" />
    <path
       id="path952-7-5-6-2-5"
       style="color:#000000;font-style:normal;font-variant:normal;font-weight:normal;font-stretch:normal;font-size:medium;line-height:normal;font-family:sans-serif;font-variant-ligatures:normal;font-variant-position:normal;font-variant-caps:normal;font-variant-numeric:normal;font-variant-alternates:normal;font-variant-east-asian:normal;font-feature-settings:normal;font-variation-settings:normal;text-indent:0;text-align:start;text-decoration:none;text-decoration-line:none;text-decoration-style:solid;text-decoration-color:#000000;letter-spacing:normal;word-spacing:normal;text-transform:none;writing-mode:lr-tb;direction:ltr;text-orientation:mixed;dominant-baseline:auto;baseline-shift:baseline;text-anchor:start;white-space:normal;shape-padding:0;shape-margin:0;inline-size:0;clip-rule:nonzero;display:inline;overflow:visible;visibility:visible;isolation:auto;mix-blend-mode:normal;color-interpolation:sRGB;color-interpolation-filters:linearRGB;solid-color:#000000;solid-opacity:1;vector-effect:none;fill:url(#linearGradient4921);fill-opacity:1;fill-rule:nonzero;stroke:none;stroke-linecap:square;stroke-linejoin:round;stroke-miterlimit:4;stroke-dasharray:none;stroke-dashoffset:0;stroke-opacity:1;color-rendering:auto;image-rendering:auto;shape-rendering:auto;text-rendering:auto;enable-background:accumulate;stop-color:#000000"
       d="M 22,26.5 A 15.5,15.5 0 0 0 6.5,42 15.5,15.5 0 0 0 22,57.5 15.5,15.5 0 0 0 37.5,42 15.5,15.5 0 0 0 22,26.5 Z m 0,1.5 c 7.74975,0 14,6.25025 14,14 0,7.74975 -6.25025,14 -14,14 C 14.25025,56 8,49.74975 8,42 8,34.25025 14.25025,28 22,28 Z" />
    <path
       id="path952-7-3-6-2"
       style="color:#000000;font-style:normal;font-variant:normal;font-weight:normal;font-stretch:normal;font-size:medium;line-height:normal;font-family:sans-serif;font-variant-ligatures:normal;font-variant-position:normal;font-variant-caps:normal;font-variant-numeric:normal;font-variant-alternates:normal;font-variant-east-asian:normal;font-feature-settings:normal;font-variation-settings:normal;text-indent:0;text-align:start;text-decoration:none;text-decoration-line:none;text-decoration-style:solid;text-decoration-color:#000000;letter-spacing:normal;word-spacing:normal;text-transform:none;writing-mode:lr-tb;direction:ltr;text-orientation:mixed;dominant-baseline:auto;baseline-shift:baseline;text-anchor:start;white-space:normal;shape-padding:0;shape-margin:0;inline-size:0;clip-rule:nonzero;display:inline;overflow:visible;visibility:visible;opacity:0.15;isolation:auto;mix-blend-mode:normal;color-interpolation:sRGB;color-interpolation-filters:linearRGB;solid-color:#000000;solid-opacity:1;vector-effect:none;fill:#9a1e40;fill-opacity:1;fill-rule:nonzero;stroke:none;stroke-linecap:square;stroke-linejoin:round;stroke-miterlimit:4;stroke-dasharray:none;stroke-dashoffset:0;stroke-opacity:1;color-rendering:auto;image-rendering:auto;shape-rendering:auto;text-rendering:auto;enable-background:accumulate;stop-color:#000000"
       d="M 22,25 C 12.62893,25 5,32.62893 5,42 5,51.37108 12.62892,59 22,59 31.37107,59 39,51.37108 39,42 39,32.62893 31.37107,25 22,25 Z m 0,3 c 7.74975,0 14,6.25025 14,14 0,7.74975 -6.25025,14 -14,14 C 14.25025,56 8,49.74975 8,42 8,34.25025 14.25025,28 22,28 Z" />
  </g>
</svg>
