<?xml version="1.0" encoding="UTF-8" standalone="no"?>
<svg
   xmlns:dc="http://purl.org/dc/elements/1.1/"
   xmlns:cc="http://creativecommons.org/ns#"
   xmlns:rdf="http://www.w3.org/1999/02/22-rdf-syntax-ns#"
   xmlns:svg="http://www.w3.org/2000/svg"
   xmlns="http://www.w3.org/2000/svg"
   xmlns:xlink="http://www.w3.org/1999/xlink"
   xmlns:sodipodi="http://sodipodi.sourceforge.net/DTD/sodipodi-0.dtd"
   xmlns:inkscape="http://www.inkscape.org/namespaces/inkscape"
   width="64"
   height="64"
   viewBox="0 0 64 64"
   version="1.1"
   id="svg6374"
   inkscape:version="1.0.2 (e86c870879, 2021-01-15)"
   sodipodi:docname="audio-x-mpeg.svg">
  <defs
     id="defs6368">
    <linearGradient
       inkscape:collect="always"
       xlink:href="#linearGradient935"
       id="linearGradient7286"
       gradientUnits="userSpaceOnUse"
       gradientTransform="translate(-302.70322,-103.41541)"
       x1="334.70322"
       y1="107.41542"
       x2="334.70322"
       y2="163.41542" />
    <linearGradient
       inkscape:collect="always"
       id="linearGradient935">
      <stop
         style="stop-color:#a583bf;stop-opacity:1"
         offset="0"
         id="stop931" />
      <stop
         style="stop-color:#946bb3;stop-opacity:1"
         offset="1"
         id="stop933" />
    </linearGradient>
  </defs>
  <sodipodi:namedview
     id="base"
     pagecolor="#cecece"
     bordercolor="#666666"
     borderopacity="1.0"
     inkscape:pageopacity="0"
     inkscape:pageshadow="2"
     inkscape:zoom="5.4956309"
     inkscape:cx="30.590924"
     inkscape:cy="51.448844"
     inkscape:document-units="px"
     inkscape:current-layer="layer1"
     inkscape:document-rotation="0"
     showgrid="false"
     units="px"
     inkscape:window-width="2048"
     inkscape:window-height="1080"
     inkscape:window-x="0"
     inkscape:window-y="0"
     inkscape:window-maximized="1" />
  <metadata
     id="metadata6371">
    <rdf:RDF>
      <cc:Work
         rdf:about="">
        <dc:format>image/svg+xml</dc:format>
        <dc:type
           rdf:resource="http://purl.org/dc/dcmitype/StillImage" />
        <dc:title></dc:title>
      </cc:Work>
    </rdf:RDF>
  </metadata>
  <g
     inkscape:label="Layer 1"
     inkscape:groupmode="layer"
     id="layer1">
    <rect
       style="opacity:0.45;fill:#0c0c0c;fill-opacity:1;stroke-width:0.495;stroke-linecap:round;stroke-linejoin:round;stroke-miterlimit:4;stroke-dasharray:none;stroke-dashoffset:2.1875"
       id="rect954-6-3-2-2-6-4-06-5-5"
       width="44"
       height="56"
       x="10"
       y="5.4999771"
       rx="3"
       ry="3" />
    <path
       id="rect954-60-6-7-3-1-91-8-0-0"
       style="color:#000000;font-style:normal;font-variant:normal;font-weight:normal;font-stretch:normal;font-size:medium;line-height:normal;font-family:sans-serif;font-variant-ligatures:normal;font-variant-position:normal;font-variant-caps:normal;font-variant-numeric:normal;font-variant-alternates:normal;font-variant-east-asian:normal;font-feature-settings:normal;font-variation-settings:normal;text-indent:0;text-align:start;text-decoration:none;text-decoration-line:none;text-decoration-style:solid;text-decoration-color:#000000;letter-spacing:normal;word-spacing:normal;text-transform:none;writing-mode:lr-tb;direction:ltr;text-orientation:mixed;dominant-baseline:auto;baseline-shift:baseline;text-anchor:start;white-space:normal;shape-padding:0;shape-margin:0;inline-size:0;clip-rule:nonzero;display:inline;overflow:visible;visibility:visible;isolation:auto;mix-blend-mode:normal;color-interpolation:sRGB;color-interpolation-filters:linearRGB;solid-color:#000000;solid-opacity:1;vector-effect:none;fill:#946bb3;fill-opacity:1;fill-rule:nonzero;stroke:none;stroke-linecap:round;stroke-linejoin:round;stroke-miterlimit:4;stroke-dasharray:none;stroke-dashoffset:2.1875;stroke-opacity:1;color-rendering:auto;image-rendering:auto;shape-rendering:auto;text-rendering:auto;enable-background:accumulate;stop-color:#000000"
       d="M 13,3.5 C 11.0696,3.5 9.5,5.06965 9.5,7 v 50 c 0,1.93035 1.5696,3.5 3.5,3.5 h 38 c 1.9304,0 3.5,-1.56965 3.5,-3.5 V 7 C 54.5,5.06965 52.9304,3.5 51,3.5 Z m 0,1 h 38 c 1.3936,0 2.5,1.10636 2.5,2.5 v 50 c 0,1.39365 -1.1064,2.5 -2.5,2.5 H 13 c -1.3936,0 -2.5,-1.10635 -2.5,-2.5 V 7 c 0,-1.39364 1.1064,-2.5 2.5,-2.5 z" />
    <rect
       style="fill:url(#linearGradient7286);fill-opacity:1;stroke-width:0.495;stroke-linecap:round;stroke-linejoin:round;stroke-miterlimit:4;stroke-dasharray:none;stroke-dashoffset:2.1875"
       id="rect954-7-0-7-3-0-4-4-9-3-8-6"
       width="44"
       height="56"
       x="10"
       y="4.0000229"
       rx="3"
       ry="3" />
    <path
       id="rect2877-4-9-6-9-5-9-4-3-3-7-5"
       style="display:inline;opacity:0.15;fill:#0c0c0c;fill-opacity:1;stroke:none;stroke-width:2.77297;stroke-linecap:round;stroke-linejoin:round;stroke-miterlimit:4;stroke-dasharray:none;stroke-dashoffset:2.1875;stroke-opacity:1"
       d="m 44.39587,22.75085 c -0.35411,-0.0123 -0.71356,0.1113 -0.99437,0.37328 l -7.557,7.05013 c -0.56168,0.52396 -0.59167,1.39812 -0.0679,1.96 0.52372,0.56189 1.39752,0.59291 1.95915,0.069 l 7.55704,-7.0511 c 0.56163,-0.52396 0.59167,-1.39813 0.0679,-1.96001 -0.26191,-0.28094 -0.61073,-0.42887 -0.96483,-0.44125 z m -15.36708,2.35497 v 10e-4 9.9e-4 c -0.25672,-0.013 -0.51858,0.0726 -0.7256,0.25904 l -6.42779,5.7904 h -4.36727 c -0.5585,0 -1.00813,0.44982 -1.00813,1.00856 v 8.06854 c 0,0.55875 0.44963,1.00857 1.00813,1.00857 h 4.3653 l 6.42976,5.79236 c 0.18005,0.16219 0.40073,0.24312 0.62418,0.25412 l 0.006,0.005 h 1.33597 c 0.27926,0 0.50407,-0.22492 0.50407,-0.50429 V 25.61018 c 0,-0.27938 -0.22481,-0.50429 -0.50407,-0.50429 z m 7.75983,9.70745 c -0.76795,0 -1.38618,0.61851 -1.38618,1.38678 0,0.76828 0.61823,1.38678 1.38618,1.38678 h 9.3252 c 0.76794,0 1.38618,-0.6185 1.38618,-1.38678 0,-0.76827 -0.61824,-1.38678 -1.38618,-1.38678 z m -0.0474,5.01132 c -0.35416,0.0124 -0.70297,0.16031 -0.96484,0.44125 -0.52372,0.56188 -0.49368,1.43604 0.068,1.96001 l 7.55705,7.05012 c 0.56163,0.52396 1.43542,0.49392 1.95915,-0.068 0.52372,-0.56188 0.49368,-1.43605 -0.0679,-1.96001 l -7.55705,-7.0511 c -0.28081,-0.26198 -0.64021,-0.38468 -0.99431,-0.3723 z" />
    <path
       id="rect2877-4-9-6-9-5-9-4-3-3-0"
       style="display:inline;fill:#fcfcfa;fill-opacity:1;stroke:none;stroke-width:2.77297;stroke-linecap:round;stroke-linejoin:round;stroke-miterlimit:4;stroke-dasharray:none;stroke-dashoffset:2.1875;stroke-opacity:1"
       d="m 44.39587,20.75085 c -0.35411,-0.0123 -0.71356,0.1113 -0.99437,0.37328 l -7.557,7.05013 c -0.56168,0.52396 -0.59167,1.39812 -0.0679,1.96 0.52372,0.56189 1.39752,0.59291 1.95915,0.069 l 7.55704,-7.0511 c 0.56163,-0.52396 0.59167,-1.39813 0.0679,-1.96001 -0.26191,-0.28094 -0.61073,-0.42887 -0.96483,-0.44125 z m -15.36708,2.35497 v 10e-4 9.9e-4 c -0.25672,-0.013 -0.51858,0.0726 -0.7256,0.25904 l -6.42779,5.7904 h -4.36727 c -0.5585,0 -1.00813,0.44982 -1.00813,1.00857 v 8.06853 c 0,0.55875 0.44963,1.00857 1.00813,1.00857 h 4.3653 l 6.42976,5.79236 c 0.18005,0.16219 0.40073,0.24312 0.62418,0.25412 l 0.006,0.005 h 1.33597 c 0.27926,0 0.50407,-0.22492 0.50407,-0.50429 V 23.61018 c 0,-0.27938 -0.22481,-0.50429 -0.50407,-0.50429 z m 7.75983,9.70745 c -0.76795,0 -1.38618,0.61851 -1.38618,1.38678 0,0.76828 0.61823,1.38678 1.38618,1.38678 h 9.3252 c 0.76794,0 1.38618,-0.6185 1.38618,-1.38678 0,-0.76827 -0.61824,-1.38678 -1.38618,-1.38678 z m -0.0474,5.01132 c -0.35416,0.0124 -0.70297,0.16031 -0.96484,0.44125 -0.52372,0.56188 -0.49368,1.43604 0.068,1.96001 l 7.55705,7.05012 c 0.56163,0.52396 1.43542,0.49392 1.95915,-0.068 0.52372,-0.56188 0.49368,-1.43605 -0.0679,-1.96001 l -7.55705,-7.0511 c -0.28081,-0.26198 -0.64021,-0.38468 -0.99431,-0.3723 z" />
  </g>
</svg>
