<?xml version="1.0" encoding="UTF-8" standalone="no"?>
<svg
   xmlns:dc="http://purl.org/dc/elements/1.1/"
   xmlns:cc="http://creativecommons.org/ns#"
   xmlns:rdf="http://www.w3.org/1999/02/22-rdf-syntax-ns#"
   xmlns:svg="http://www.w3.org/2000/svg"
   xmlns="http://www.w3.org/2000/svg"
   xmlns:sodipodi="http://sodipodi.sourceforge.net/DTD/sodipodi-0.dtd"
   xmlns:inkscape="http://www.inkscape.org/namespaces/inkscape"
   width="64"
   height="64"
   viewBox="0 0 64 64"
   version="1.1"
   id="svg6374"
   inkscape:version="1.0.2 (e86c870879, 2021-01-15)"
   sodipodi:docname="folder.svg">
  <defs
     id="defs6368" />
  <sodipodi:namedview
     id="base"
     pagecolor="#cecece"
     bordercolor="#666666"
     borderopacity="1.0"
     inkscape:pageopacity="0"
     inkscape:pageshadow="2"
     inkscape:zoom="6.1144565"
     inkscape:cx="37.974162"
     inkscape:cy="36.060554"
     inkscape:document-units="px"
     inkscape:current-layer="layer1"
     inkscape:document-rotation="0"
     showgrid="false"
     units="px"
     inkscape:window-width="2048"
     inkscape:window-height="1080"
     inkscape:window-x="0"
     inkscape:window-y="0"
     inkscape:window-maximized="1" />
  <metadata
     id="metadata6371">
    <rdf:RDF>
      <cc:Work
         rdf:about="">
        <dc:format>image/svg+xml</dc:format>
        <dc:type
           rdf:resource="http://purl.org/dc/dcmitype/StillImage" />
        <dc:title />
      </cc:Work>
    </rdf:RDF>
  </metadata>
  <g
     inkscape:label="Layer 1"
     inkscape:groupmode="layer"
     id="layer1">
    <path
       id="rect1006-9-62-6-0-7-4-6"
       style="color:#000000;font-style:normal;font-variant:normal;font-weight:normal;font-stretch:normal;font-size:medium;line-height:normal;font-family:sans-serif;font-variant-ligatures:normal;font-variant-position:normal;font-variant-caps:normal;font-variant-numeric:normal;font-variant-alternates:normal;font-variant-east-asian:normal;font-feature-settings:normal;font-variation-settings:normal;text-indent:0;text-align:start;text-decoration:none;text-decoration-line:none;text-decoration-style:solid;text-decoration-color:#000000;letter-spacing:normal;word-spacing:normal;text-transform:none;writing-mode:lr-tb;direction:ltr;text-orientation:mixed;dominant-baseline:auto;baseline-shift:baseline;text-anchor:start;white-space:normal;shape-padding:0;shape-margin:0;inline-size:0;clip-rule:nonzero;display:inline;overflow:visible;visibility:visible;isolation:isolate;mix-blend-mode:normal;color-interpolation:sRGB;color-interpolation-filters:linearRGB;solid-color:#000000;solid-opacity:1;vector-effect:none;fill:#444145;fill-opacity:1;fill-rule:nonzero;stroke:none;stroke-linecap:round;stroke-linejoin:round;stroke-miterlimit:4;stroke-dasharray:none;stroke-dashoffset:0;stroke-opacity:1;color-rendering:auto;image-rendering:auto;shape-rendering:auto;text-rendering:auto;enable-background:accumulate;stop-color:#000000"
       d="M 7.01953,0.75000002 C 3.72364,0.75000002 1,3.511499 1,6.7949216 v 4.9082034 0.04883 15.955078 c 0,3.283424 2.72365,6.042969 6.01953,6.042969 H 56.98047 C 60.27635,33.750002 63,30.99048 63,27.707033 V 11.703125 C 63,8.4196776 60.27636,5.6601556 56.98047,5.6601556 H 29.93555 L 26.44726,1.751953 A 3.0003,3.0003 0 0 0 24.20898,0.75000002 h -3.75 H 7.16601 Z M 6.99223,6.7382806 c -0.001,-1.16e-4 0.003,0.01172 0.0273,0.01172 h 0.14648 13.29297 2.40625 l 3.48828,3.9082034 a 3.0003,3.0003 0 0 0 2.23828,1.001953 h 28.38868 c 0.0493,0 0.0195,-0.04592 0.0195,0.04297 v 16.003906 c 0,0.08891 0.0298,0.04297 -0.0195,0.04297 H 7.01953 c -0.0493,0 -0.0195,0.04597 -0.0195,-0.04297 v -15.95508 -0.04883 -4.9082034 c 0,-0.04446 -0.007,-0.05652 -0.008,-0.05664 z" />
    <path
       id="rect1006-9-62-6-0-7-4"
       style="isolation:isolate;fill:#8a8a8c;fill-opacity:1;stroke:none;stroke-width:0.611371;stroke-miterlimit:4;stroke-dasharray:none;stroke-opacity:1"
       d="M 7.01922,3.75006 C 5.34662,3.75006 4,5.1076196 4,6.7937896 v 4.9091004 0.0489 15.95454 c 0,1.68618 1.34662,3.04373 3.01922,3.04373 H 56.98077 C 58.65336,30.75006 60,29.39251 60,27.70633 V 11.70288 C 60,10.01671 58.65336,8.6591496 56.98077,8.6591496 H 28.59129 L 24.2087,3.75006 H 20.45903 7.16522 Z" />
    <path
       id="rect880-1-74-4-2-3-0-8"
       style="color:#000000;font-style:normal;font-variant:normal;font-weight:normal;font-stretch:normal;font-size:medium;line-height:normal;font-family:sans-serif;font-variant-ligatures:normal;font-variant-position:normal;font-variant-caps:normal;font-variant-numeric:normal;font-variant-alternates:normal;font-variant-east-asian:normal;font-feature-settings:normal;font-variation-settings:normal;text-indent:0;text-align:start;text-decoration:none;text-decoration-line:none;text-decoration-style:solid;text-decoration-color:#000000;letter-spacing:normal;word-spacing:normal;text-transform:none;writing-mode:lr-tb;direction:ltr;text-orientation:mixed;dominant-baseline:auto;baseline-shift:baseline;text-anchor:start;white-space:normal;shape-padding:0;shape-margin:0;inline-size:0;clip-rule:nonzero;display:inline;overflow:visible;visibility:visible;isolation:isolate;mix-blend-mode:normal;color-interpolation:sRGB;color-interpolation-filters:linearRGB;solid-color:#000000;solid-opacity:1;vector-effect:none;fill:#444145;fill-opacity:1;fill-rule:nonzero;stroke:none;stroke-linecap:round;stroke-linejoin:round;stroke-miterlimit:4;stroke-dasharray:none;stroke-dashoffset:0;stroke-opacity:1;color-rendering:auto;image-rendering:auto;shape-rendering:auto;text-rendering:auto;enable-background:accumulate;stop-color:#000000"
       d="m 32.48633,13.25 a 3.0003,3.0003 0 0 0 -2.23438,0.998047 l -3.48828,3.890624 H 7.01758 C 3.72837,18.138671 1,20.886861 1,24.169921 v 33.048828 c 0,3.28306 2.72837,6.03125 6.01758,6.03125 h 49.96289 c 3.28921,0 6.01953,-2.74815 6.01953,-6.03125 v -22 V 24.169921 19.28125 C 63,15.998153 60.26968,13.25 56.98047,13.25 h -5.01563 -8.42382 z m 24.52539,5.988281 c -0.002,-0.0016 -0.0117,0.0053 -0.0117,0.04297 v 4.888671 11.048828 22 c 0,0.07538 0.0365,0.03125 -0.0195,0.03125 H 7.01763 c -0.056,0 -0.0176,0.04417 -0.0176,-0.03125 V 24.169921 c 0,-0.07542 -0.0384,-0.03125 0.0176,-0.03125 h 21.08594 a 3.0003,3.0003 0 0 0 2.23437,-0.998046 L 33.82617,19.25 h 9.71485 8.42382 5.01563 c 0.028,0 0.0334,-0.01011 0.0312,-0.01172 z" />
    <path
       id="rect880-1-74-4-2-3-0"
       style="isolation:isolate;fill:#bebabf;fill-opacity:1;stroke:none;stroke-width:0.609904;stroke-miterlimit:4;stroke-dasharray:none;stroke-opacity:1"
       d="m 32.48696,16.25006 -4.38261,4.88889 H 7.01919 C 5.3466,21.13895 4,22.49092 4,24.17016 v 33.04869 c 0,1.67924 1.3466,3.03121 3.01919,3.03121 H 56.98077 C 58.65337,60.25006 60,58.89809 60,57.21885 V 35.21933 24.17016 19.28127 c 0,-1.67924 -1.34663,-3.03121 -3.01923,-3.03121 h -5.01555 -8.42429 z" />
  </g>
</svg>
