<?xml version="1.0" encoding="UTF-8" standalone="no"?>
<svg
   xmlns:dc="http://purl.org/dc/elements/1.1/"
   xmlns:cc="http://creativecommons.org/ns#"
   xmlns:rdf="http://www.w3.org/1999/02/22-rdf-syntax-ns#"
   xmlns:svg="http://www.w3.org/2000/svg"
   xmlns="http://www.w3.org/2000/svg"
   xmlns:sodipodi="http://sodipodi.sourceforge.net/DTD/sodipodi-0.dtd"
   xmlns:inkscape="http://www.inkscape.org/namespaces/inkscape"
   width="64"
   height="64"
   viewBox="0 0 64 64"
   version="1.1"
   id="svg6374"
   inkscape:version="1.0.2 (e86c870879, 2021-01-15)"
   sodipodi:docname="text-css.svg">
  <defs
     id="defs6368">
    <linearGradient
       x1="102.48344"
       y1="103.26587"
       x2="238.25964"
       y2="231.90547"
       id="linearGradient-2"
       gradientTransform="matrix(0.11086626,0,0,0.11203135,188.08384,722.26635)"
       gradientUnits="userSpaceOnUse">
      <stop
         stop-color="#FFE052"
         offset="0%"
         id="stop119" />
      <stop
         stop-color="#FFC331"
         offset="100%"
         id="stop121" />
    </linearGradient>
    <linearGradient
       x1="24.714943"
       y1="22.898218"
       x2="151.13554"
       y2="148.33669"
       id="linearGradient-1"
       gradientTransform="matrix(0.11086626,0,0,0.11203134,188.08384,722.26635)"
       gradientUnits="userSpaceOnUse">
      <stop
         stop-color="#387EB8"
         offset="0%"
         id="stop114" />
      <stop
         stop-color="#366994"
         offset="100%"
         id="stop116" />
    </linearGradient>
  </defs>
  <sodipodi:namedview
     id="base"
     pagecolor="#cecece"
     bordercolor="#666666"
     borderopacity="1.0"
     inkscape:pageopacity="0"
     inkscape:pageshadow="2"
     inkscape:zoom="2.7426703"
     inkscape:cx="32.197047"
     inkscape:cy="49.267595"
     inkscape:document-units="px"
     inkscape:current-layer="layer1"
     inkscape:document-rotation="0"
     showgrid="false"
     units="px"
     inkscape:window-width="1024"
     inkscape:window-height="1080"
     inkscape:window-x="68"
     inkscape:window-y="56"
     inkscape:window-maximized="0" />
  <metadata
     id="metadata6371">
    <rdf:RDF>
      <cc:Work
         rdf:about="">
        <dc:format>image/svg+xml</dc:format>
        <dc:type
           rdf:resource="http://purl.org/dc/dcmitype/StillImage" />
        <dc:title></dc:title>
      </cc:Work>
    </rdf:RDF>
  </metadata>
  <g
     inkscape:label="Layer 1"
     inkscape:groupmode="layer"
     id="layer1">
    <path
       id="rect954-7-0-7-3-0-0-0-6-3-3-2-6-5"
       style="color:#000000;font-style:normal;font-variant:normal;font-weight:normal;font-stretch:normal;font-size:medium;line-height:normal;font-family:sans-serif;font-variant-ligatures:normal;font-variant-position:normal;font-variant-caps:normal;font-variant-numeric:normal;font-variant-alternates:normal;font-variant-east-asian:normal;font-feature-settings:normal;font-variation-settings:normal;text-indent:0;text-align:start;text-decoration:none;text-decoration-line:none;text-decoration-style:solid;text-decoration-color:#000000;letter-spacing:normal;word-spacing:normal;text-transform:none;writing-mode:lr-tb;direction:ltr;text-orientation:mixed;dominant-baseline:auto;baseline-shift:baseline;text-anchor:start;white-space:normal;shape-padding:0;shape-margin:0;inline-size:0;clip-rule:nonzero;display:inline;overflow:visible;visibility:visible;opacity:0.85;isolation:auto;mix-blend-mode:normal;color-interpolation:sRGB;color-interpolation-filters:linearRGB;solid-color:#000000;solid-opacity:1;vector-effect:none;fill:#e78dae;fill-opacity:1;fill-rule:nonzero;stroke:none;stroke-linecap:round;stroke-linejoin:round;stroke-miterlimit:4;stroke-dasharray:none;stroke-dashoffset:2.1875;stroke-opacity:1;color-rendering:auto;image-rendering:auto;shape-rendering:auto;text-rendering:auto;enable-background:accumulate;stop-color:#000000"
       d="M 13,2.5 C 10.53295,2.5 8.5,4.53295 8.5,7 v 49.99999 c 0,2.46706 2.03295,4.5 4.5,4.5 h 38 c 2.467,0 4.5,-2.03294 4.5,-4.5 V 7 C 55.5,4.53295 53.467,2.5 51,2.5 Z m 0,3 h 38 c 0.8569,0 1.5,0.64306 1.5,1.5 v 49.99999 c 0,0.85695 -0.6431,1.5 -1.5,1.5 H 13 c -0.85695,0 -1.5,-0.64305 -1.5,-1.5 V 7 c 0,-0.85694 0.64305,-1.5 1.5,-1.5 z" />
    <rect
       style="fill:#505053;fill-opacity:1;stroke-width:0.495;stroke-linecap:round;stroke-linejoin:round;stroke-miterlimit:4;stroke-dasharray:none;stroke-dashoffset:2.1875"
       id="rect954-0-8-0"
       width="44"
       height="56"
       x="9.9999695"
       y="3.9999695"
       rx="3"
       ry="3" />
    <path
       id="path963-38-1"
       style="color:#000000;font-style:normal;font-variant:normal;font-weight:normal;font-stretch:normal;font-size:medium;line-height:normal;font-family:sans-serif;font-variant-ligatures:normal;font-variant-position:normal;font-variant-caps:normal;font-variant-numeric:normal;font-variant-alternates:normal;font-variant-east-asian:normal;font-feature-settings:normal;font-variation-settings:normal;text-indent:0;text-align:start;text-decoration:none;text-decoration-line:none;text-decoration-style:solid;text-decoration-color:#000000;letter-spacing:normal;word-spacing:normal;text-transform:none;writing-mode:lr-tb;direction:ltr;text-orientation:mixed;dominant-baseline:auto;baseline-shift:baseline;text-anchor:start;white-space:normal;shape-padding:0;shape-margin:0;inline-size:0;clip-rule:nonzero;display:inline;overflow:visible;visibility:visible;opacity:0.375;isolation:auto;mix-blend-mode:normal;color-interpolation:sRGB;color-interpolation-filters:linearRGB;solid-color:#000000;solid-opacity:1;vector-effect:none;fill:#141415;fill-opacity:1;fill-rule:nonzero;stroke:none;stroke-width:0.557238;stroke-linecap:round;stroke-linejoin:round;stroke-miterlimit:4;stroke-dasharray:none;stroke-dashoffset:0;stroke-opacity:1;color-rendering:auto;image-rendering:auto;shape-rendering:auto;text-rendering:auto;enable-background:accumulate;stop-color:#000000"
       d="m 24.10107,21.75071 c -0.99239,0 -1.95451,0.13044 -2.87302,0.37302 a 0.27750352,0.27979575 0 0 0 -0.0101,0.001 c -1.36179,0.41178 -2.33782,1.67771 -2.33782,3.1906 0,0.0484 0.003,0.0891 0.006,0.12483 a 0.27750352,0.27979575 0 0 0 0,0.007 c 4e-5,4.9e-4 -4e-5,0.001 0,0.002 v 1.91271 1.93699 0.34145 a 0.27750352,0.27979575 0 0 0 0,0.003 c 4.9e-4,0.0538 0,0.0545 0,0.004 v 0.82035 a 0.27750352,0.27979575 0 0 0 0.002,0.0243 c 0.001,0.0163 0,0.0183 0,0.005 a 0.27750352,0.27979575 0 0 0 -0.002,0.0277 v 2.0322 c 0,0.59179 -0.46253,1.05953 -1.04873,1.06273 H 14.77844 A 0.27750352,0.27979575 0 0 0 14.5,33.89838 v 0.90681 0.0185 0.90681 a 0.27750352,0.27979575 0 0 0 0.27844,0.27928 h 3.06089 c 0.58535,0.004 1.0468,0.47155 1.0468,1.06273 v 2.03219 a 0.27750352,0.27979575 0 0 0 0.002,0.0219 c 0.001,0.0155 0,0.0184 0,0.006 a 0.27750352,0.27979575 0 0 0 -0.002,0.0291 v 0.82084 0.007 0.3434 1.93457 1.90931 0.004 a 0.27750352,0.27979575 0 0 0 0,0.002 c -0.001,0.0305 -0.002,0.0358 0,0.004 a 0.27750352,0.27979575 0 0 0 0,0.002 c -0.001,0.0282 -0.006,0.0702 -0.006,0.12677 0,1.51288 0.97604,2.77834 2.33782,3.19011 a 0.27750352,0.27979575 0 0 0 0.0101,0.004 c 0.91851,0.24258 1.88063,0.3706 2.87302,0.3706 h 1.35076 a 0.27750352,0.27979575 0 0 0 0.277,-0.2788 v -0.0627 a 0.27750352,0.27979575 0 0 0 0.001,-0.0219 v -1.86365 a 0.27750352,0.27979575 0 0 0 -0.27847,-0.27887 h -2.8075 c -0.58896,0 -1.05402,-0.46889 -1.05402,-1.06272 v -1.0705 -1.46489 a 0.27750352,0.27979575 0 0 0 -0.002,-0.0219 v -3.84776 c 0.0101,-0.10046 0.0162,-0.2021 0.0163,-0.30308 -1.3e-4,-1.3732 -0.98252,-2.39945 -2.23761,-2.78843 1.25455,-0.38935 2.2375,-1.41565 2.23761,-2.78844 -1.3e-4,-0.10153 -0.006,-0.20207 -0.0163,-0.30308 v -3.84193 a 0.27750352,0.27979575 0 0 0 0.002,-0.0277 V 26.391 25.3205 c 0,-0.59384 0.46505,-1.06272 1.05402,-1.06272 h 2.8075 a 0.27750352,0.27979575 0 0 0 0.27699,-0.28074 v -1.86171 -0.086 A 0.27750352,0.27979575 0 0 0 25.45135,21.75 Z" />
    <path
       id="path963-38"
       style="color:#000000;font-style:normal;font-variant:normal;font-weight:normal;font-stretch:normal;font-size:medium;line-height:normal;font-family:sans-serif;font-variant-ligatures:normal;font-variant-position:normal;font-variant-caps:normal;font-variant-numeric:normal;font-variant-alternates:normal;font-variant-east-asian:normal;font-feature-settings:normal;font-variation-settings:normal;text-indent:0;text-align:start;text-decoration:none;text-decoration-line:none;text-decoration-style:solid;text-decoration-color:#000000;letter-spacing:normal;word-spacing:normal;text-transform:none;writing-mode:lr-tb;direction:ltr;text-orientation:mixed;dominant-baseline:auto;baseline-shift:baseline;text-anchor:start;white-space:normal;shape-padding:0;shape-margin:0;inline-size:0;clip-rule:nonzero;display:inline;overflow:visible;visibility:visible;isolation:auto;mix-blend-mode:normal;color-interpolation:sRGB;color-interpolation-filters:linearRGB;solid-color:#000000;solid-opacity:1;vector-effect:none;fill:#e78dae;fill-opacity:1;fill-rule:nonzero;stroke:none;stroke-width:0.557238;stroke-linecap:round;stroke-linejoin:round;stroke-miterlimit:4;stroke-dasharray:none;stroke-dashoffset:0;stroke-opacity:1;color-rendering:auto;image-rendering:auto;shape-rendering:auto;text-rendering:auto;enable-background:accumulate;stop-color:#000000"
       d="m 24.10107,20.75071 c -0.99239,0 -1.95451,0.13044 -2.87302,0.37302 a 0.27750352,0.27979575 0 0 0 -0.0101,0.001 c -1.36179,0.41178 -2.33782,1.67771 -2.33782,3.1906 0,0.0484 0.003,0.0891 0.006,0.12483 a 0.27750352,0.27979575 0 0 0 0,0.007 c 4e-5,4.9e-4 -4e-5,0.001 0,0.002 v 1.91271 1.93699 0.34145 a 0.27750352,0.27979575 0 0 0 0,0.003 c 4.9e-4,0.0538 0,0.0545 0,0.004 v 0.82035 a 0.27750352,0.27979575 0 0 0 0.002,0.0243 c 0.001,0.0163 0,0.0183 0,0.005 a 0.27750352,0.27979575 0 0 0 -0.002,0.0277 v 2.0322 c 0,0.59179 -0.46253,1.05953 -1.04873,1.06273 H 14.77844 A 0.27750352,0.27979575 0 0 0 14.5,32.89838 v 0.90681 0.0185 0.90681 a 0.27750352,0.27979575 0 0 0 0.27844,0.27928 h 3.06089 c 0.58535,0.004 1.0468,0.47155 1.0468,1.06273 v 2.03219 a 0.27750352,0.27979575 0 0 0 0.002,0.0219 c 0.001,0.0155 0,0.0184 0,0.006 a 0.27750352,0.27979575 0 0 0 -0.002,0.0291 v 0.82084 0.007 0.3434 1.93457 1.90931 0.004 a 0.27750352,0.27979575 0 0 0 0,0.002 c -0.001,0.0305 -0.002,0.0358 0,0.004 a 0.27750352,0.27979575 0 0 0 0,0.002 c -0.001,0.0282 -0.006,0.0702 -0.006,0.12677 0,1.51288 0.97604,2.77834 2.33782,3.19011 a 0.27750352,0.27979575 0 0 0 0.0101,0.004 c 0.91851,0.24258 1.88063,0.3706 2.87302,0.3706 h 1.35076 a 0.27750352,0.27979575 0 0 0 0.277,-0.2788 v -0.0627 a 0.27750352,0.27979575 0 0 0 0.001,-0.0219 v -1.86365 a 0.27750352,0.27979575 0 0 0 -0.27847,-0.27887 h -2.8075 c -0.58896,0 -1.05402,-0.46889 -1.05402,-1.06272 v -1.0705 -1.46489 a 0.27750352,0.27979575 0 0 0 -0.002,-0.0219 v -3.84776 c 0.0101,-0.10046 0.0162,-0.2021 0.0163,-0.30308 -1.3e-4,-1.3732 -0.98252,-2.39945 -2.23761,-2.78843 1.25455,-0.38935 2.2375,-1.41565 2.23761,-2.78844 -1.3e-4,-0.10153 -0.006,-0.20207 -0.0163,-0.30308 v -3.84193 a 0.27750352,0.27979575 0 0 0 0.002,-0.0277 V 25.391 24.3205 c 0,-0.59384 0.46505,-1.06272 1.05402,-1.06272 h 2.8075 a 0.27750352,0.27979575 0 0 0 0.27699,-0.28074 v -1.86171 -0.086 A 0.27750352,0.27979575 0 0 0 25.45135,20.75 Z" />
    <path
       id="path969-8-8"
       style="color:#000000;font-style:normal;font-variant:normal;font-weight:normal;font-stretch:normal;font-size:medium;line-height:normal;font-family:sans-serif;font-variant-ligatures:normal;font-variant-position:normal;font-variant-caps:normal;font-variant-numeric:normal;font-variant-alternates:normal;font-variant-east-asian:normal;font-feature-settings:normal;font-variation-settings:normal;text-indent:0;text-align:start;text-decoration:none;text-decoration-line:none;text-decoration-style:solid;text-decoration-color:#000000;letter-spacing:normal;word-spacing:normal;text-transform:none;writing-mode:lr-tb;direction:ltr;text-orientation:mixed;dominant-baseline:auto;baseline-shift:baseline;text-anchor:start;white-space:normal;shape-padding:0;shape-margin:0;inline-size:0;clip-rule:nonzero;display:inline;overflow:visible;visibility:visible;opacity:0.375;isolation:auto;mix-blend-mode:normal;color-interpolation:sRGB;color-interpolation-filters:linearRGB;solid-color:#000000;solid-opacity:1;vector-effect:none;fill:#141415;fill-opacity:1;fill-rule:nonzero;stroke:none;stroke-width:0.557238;stroke-linecap:round;stroke-linejoin:round;stroke-miterlimit:4;stroke-dasharray:none;stroke-dashoffset:0;stroke-opacity:1;color-rendering:auto;image-rendering:auto;shape-rendering:auto;text-rendering:auto;enable-background:accumulate;stop-color:#000000"
       d="m 38.55047,21.75 a 0.27750352,0.27979575 0 0 0 -0.27843,0.27928 v 0.0767 a 0.27750352,0.27979575 0 0 0 0,0.009 v 1.86171 a 0.27750352,0.27979575 0 0 0 0.27652,0.28074 h 2.80942 c 0.58896,0 1.05403,0.46937 1.05402,1.06321 v 1.07001 1.46489 a 0.27750352,0.27979575 0 0 0 0.002,0.0423 v 3.82542 c -0.0101,0.10101 -0.0177,0.20154 -0.0178,0.30308 10e-5,1.37295 0.98426,2.39923 2.23906,2.78843 -1.25509,0.38898 -2.23893,1.41524 -2.23906,2.78844 1.5e-4,0.10098 0.006,0.20262 0.0164,0.30308 v 3.84194 a 0.27750352,0.27979575 0 0 0 -0.002,0.0277 v 1.46489 1.07049 c 0,0.59384 -0.46553,1.06272 -1.0545,1.06272 h -2.8075 a 0.27750352,0.27979575 0 0 0 -0.27652,0.27929 v 1.86316 0.0845 a 0.27750352,0.27979575 0 0 0 0.27652,0.2788 h 1.35124 c 0.9924,0 1.95643,-0.12802 2.87495,-0.3706 a 0.27750352,0.27979575 0 0 0 0.009,-0.004 c 1.36179,-0.41177 2.33782,-1.67771 2.33782,-3.1906 0,-0.0557 -0.006,-0.0967 -0.008,-0.12482 a 0.27750352,0.27979575 0 0 0 0,-0.002 0.27750352,0.27979575 0 0 0 0,-10e-4 c 0.002,0.031 9.9e-4,0.0251 0,-0.004 a 0.27750352,0.27979575 0 0 0 0,-0.002 v -0.003 c 5e-4,0.006 9.9e-4,0.002 0,-0.0165 v -1.8928 -1.93505 -0.3434 -0.007 -0.82035 a 0.27750352,0.27979575 0 0 0 -0.001,-0.0296 c 0,0.0126 1.3e-4,0.0121 0.001,-0.003 a 0.27750352,0.27979575 0 0 0 0,-0.0238 v -2.03203 c 0,-0.59118 0.46193,-1.05902 1.04727,-1.06321 h 3.06234 a 0.27750352,0.27979575 0 0 0 0.27652,-0.27879 v -0.90682 -0.0185 -0.90681 a 0.27750352,0.27979575 0 0 0 -0.27652,-0.27879 h -3.06089 -10e-4 C 45.576,33.61731 45.11405,33.14926 45.11405,32.55809 V 30.5259 a 0.27750352,0.27979575 0 0 0 -0.002,-0.0272 c 0,0.013 4.9e-4,0.0105 0.002,-0.006 a 0.27750352,0.27979575 0 0 0 0,-0.0238 v -0.82041 c 0,0.0514 -4.9e-4,0.0506 0,-0.004 a 0.27750352,0.27979575 0 0 0 0,-0.004 v -0.34146 -1.9365 -1.88891 -0.0238 -0.002 c 0.003,-0.0371 0.008,-0.0809 0.008,-0.13212 0,-1.51289 -0.97603,-2.77882 -2.3378,-3.1906 a 0.27750352,0.27979575 0 0 0 -0.009,-0.002 c -0.91844,-0.24256 -1.88249,-0.37252 -2.87488,-0.37252 z" />
    <path
       id="path969-8"
       style="color:#000000;font-style:normal;font-variant:normal;font-weight:normal;font-stretch:normal;font-size:medium;line-height:normal;font-family:sans-serif;font-variant-ligatures:normal;font-variant-position:normal;font-variant-caps:normal;font-variant-numeric:normal;font-variant-alternates:normal;font-variant-east-asian:normal;font-feature-settings:normal;font-variation-settings:normal;text-indent:0;text-align:start;text-decoration:none;text-decoration-line:none;text-decoration-style:solid;text-decoration-color:#000000;letter-spacing:normal;word-spacing:normal;text-transform:none;writing-mode:lr-tb;direction:ltr;text-orientation:mixed;dominant-baseline:auto;baseline-shift:baseline;text-anchor:start;white-space:normal;shape-padding:0;shape-margin:0;inline-size:0;clip-rule:nonzero;display:inline;overflow:visible;visibility:visible;isolation:auto;mix-blend-mode:normal;color-interpolation:sRGB;color-interpolation-filters:linearRGB;solid-color:#000000;solid-opacity:1;vector-effect:none;fill:#e78dae;fill-opacity:1;fill-rule:nonzero;stroke:none;stroke-width:0.557238;stroke-linecap:round;stroke-linejoin:round;stroke-miterlimit:4;stroke-dasharray:none;stroke-dashoffset:0;stroke-opacity:1;color-rendering:auto;image-rendering:auto;shape-rendering:auto;text-rendering:auto;enable-background:accumulate;stop-color:#000000"
       d="m 38.55047,20.75 a 0.27750352,0.27979575 0 0 0 -0.27843,0.27928 v 0.0767 a 0.27750352,0.27979575 0 0 0 0,0.009 v 1.86171 a 0.27750352,0.27979575 0 0 0 0.27652,0.28074 h 2.80942 c 0.58896,0 1.05403,0.46937 1.05402,1.06321 v 1.07001 1.46489 a 0.27750352,0.27979575 0 0 0 0.002,0.0423 v 3.82542 c -0.0101,0.10101 -0.0177,0.20154 -0.0178,0.30308 10e-5,1.37295 0.98426,2.39923 2.23906,2.78843 -1.25509,0.38898 -2.23893,1.41524 -2.23906,2.78844 1.5e-4,0.10098 0.006,0.20262 0.0164,0.30308 v 3.84194 a 0.27750352,0.27979575 0 0 0 -0.002,0.0277 v 1.46489 1.07049 c 0,0.59384 -0.46553,1.06272 -1.0545,1.06272 h -2.8075 a 0.27750352,0.27979575 0 0 0 -0.27652,0.27929 v 1.86316 0.0845 a 0.27750352,0.27979575 0 0 0 0.27652,0.2788 h 1.35124 c 0.9924,0 1.95643,-0.12802 2.87495,-0.3706 a 0.27750352,0.27979575 0 0 0 0.009,-0.004 c 1.36179,-0.41177 2.33782,-1.67771 2.33782,-3.1906 0,-0.0557 -0.006,-0.0967 -0.008,-0.12482 a 0.27750352,0.27979575 0 0 0 0,-0.002 0.27750352,0.27979575 0 0 0 0,-10e-4 c 0.002,0.031 9.9e-4,0.0251 0,-0.004 a 0.27750352,0.27979575 0 0 0 0,-0.002 v -0.003 c 5e-4,0.006 9.9e-4,0.002 0,-0.0165 v -1.8928 -1.93505 -0.3434 -0.007 -0.82035 a 0.27750352,0.27979575 0 0 0 -0.001,-0.0296 c 0,0.0126 1.3e-4,0.0121 0.001,-0.003 a 0.27750352,0.27979575 0 0 0 0,-0.0238 v -2.03203 c 0,-0.59118 0.46193,-1.05902 1.04727,-1.06321 h 3.06234 a 0.27750352,0.27979575 0 0 0 0.27652,-0.27879 v -0.90682 -0.0185 -0.90681 a 0.27750352,0.27979575 0 0 0 -0.27652,-0.27879 h -3.06089 -10e-4 C 45.576,32.61731 45.11405,32.14926 45.11405,31.55809 V 29.5259 a 0.27750352,0.27979575 0 0 0 -0.002,-0.0272 c 0,0.013 4.9e-4,0.0105 0.002,-0.006 a 0.27750352,0.27979575 0 0 0 0,-0.0238 v -0.82041 c 0,0.0514 -4.9e-4,0.0506 0,-0.004 a 0.27750352,0.27979575 0 0 0 0,-0.004 v -0.34146 -1.9365 -1.88891 -0.0238 -0.002 c 0.003,-0.0371 0.008,-0.0809 0.008,-0.13212 0,-1.51289 -0.97603,-2.77882 -2.3378,-3.1906 a 0.27750352,0.27979575 0 0 0 -0.009,-0.002 c -0.91844,-0.24256 -1.88249,-0.37252 -2.87488,-0.37252 z" />
    <path
       id="path1112-3-9"
       style="color:#000000;font-style:normal;font-variant:normal;font-weight:normal;font-stretch:normal;font-size:medium;line-height:normal;font-family:sans-serif;font-variant-ligatures:normal;font-variant-position:normal;font-variant-caps:normal;font-variant-numeric:normal;font-variant-alternates:normal;font-variant-east-asian:normal;font-feature-settings:normal;font-variation-settings:normal;text-indent:0;text-align:start;text-decoration:none;text-decoration-line:none;text-decoration-style:solid;text-decoration-color:#000000;letter-spacing:normal;word-spacing:normal;text-transform:none;writing-mode:lr-tb;direction:ltr;text-orientation:mixed;dominant-baseline:auto;baseline-shift:baseline;text-anchor:start;white-space:normal;shape-padding:0;shape-margin:0;inline-size:0;clip-rule:nonzero;display:inline;overflow:visible;visibility:visible;opacity:0.375;isolation:auto;mix-blend-mode:normal;color-interpolation:sRGB;color-interpolation-filters:linearRGB;solid-color:#000000;solid-opacity:1;vector-effect:none;fill:#141415;fill-opacity:1;fill-rule:nonzero;stroke:none;stroke-width:0.325044;stroke-linecap:round;stroke-linejoin:round;stroke-miterlimit:4;stroke-dasharray:none;stroke-dashoffset:0;stroke-opacity:1;color-rendering:auto;image-rendering:auto;shape-rendering:auto;text-rendering:auto;enable-background:accumulate;stop-color:#000000"
       d="m 32.66493,29.27346 c -0.74901,9.9e-4 -1.36057,0.61664 -1.36056,1.37187 -10e-6,0.75598 0.61081,1.37105 1.36056,1.37102 0.74974,10e-6 1.36058,-0.61505 1.36057,-1.37102 10e-6,-0.75596 -0.61083,-1.37188 -1.36057,-1.37187 z m -0.98459,9.70511 a 0.16186684,0.16321271 0 0 0 -0.15594,0.12494 l -1.54519,6.25503 a 0.16186684,0.16321271 0 0 0 0.15596,0.2023 h 1.3791 a 0.16186684,0.16321271 0 0 0 0.15342,-0.10626 l 2.25916,-6.25757 a 0.16186684,0.16321271 0 0 0 -0.15341,-0.21845 z" />
    <path
       id="path1112-3"
       style="color:#000000;font-style:normal;font-variant:normal;font-weight:normal;font-stretch:normal;font-size:medium;line-height:normal;font-family:sans-serif;font-variant-ligatures:normal;font-variant-position:normal;font-variant-caps:normal;font-variant-numeric:normal;font-variant-alternates:normal;font-variant-east-asian:normal;font-feature-settings:normal;font-variation-settings:normal;text-indent:0;text-align:start;text-decoration:none;text-decoration-line:none;text-decoration-style:solid;text-decoration-color:#000000;letter-spacing:normal;word-spacing:normal;text-transform:none;writing-mode:lr-tb;direction:ltr;text-orientation:mixed;dominant-baseline:auto;baseline-shift:baseline;text-anchor:start;white-space:normal;shape-padding:0;shape-margin:0;inline-size:0;clip-rule:nonzero;display:inline;overflow:visible;visibility:visible;isolation:auto;mix-blend-mode:normal;color-interpolation:sRGB;color-interpolation-filters:linearRGB;solid-color:#000000;solid-opacity:1;vector-effect:none;fill:#e78dae;fill-opacity:1;fill-rule:nonzero;stroke:none;stroke-width:0.325044;stroke-linecap:round;stroke-linejoin:round;stroke-miterlimit:4;stroke-dasharray:none;stroke-dashoffset:0;stroke-opacity:1;color-rendering:auto;image-rendering:auto;shape-rendering:auto;text-rendering:auto;enable-background:accumulate;stop-color:#000000"
       d="m 32.66493,28.27346 c -0.74901,9.9e-4 -1.36057,0.61664 -1.36056,1.37187 -10e-6,0.75598 0.61081,1.37105 1.36056,1.37102 0.74974,10e-6 1.36058,-0.61505 1.36057,-1.37102 10e-6,-0.75596 -0.61083,-1.37188 -1.36057,-1.37187 z m -0.98459,9.70511 a 0.16186684,0.16321271 0 0 0 -0.15594,0.12494 l -1.54519,6.25503 a 0.16186684,0.16321271 0 0 0 0.15596,0.2023 h 1.3791 a 0.16186684,0.16321271 0 0 0 0.15342,-0.10626 l 2.25916,-6.25757 a 0.16186684,0.16321271 0 0 0 -0.15341,-0.21845 z" />
  </g>
</svg>
