<?xml version="1.0" encoding="UTF-8" standalone="no"?>
<svg
   xmlns:dc="http://purl.org/dc/elements/1.1/"
   xmlns:cc="http://creativecommons.org/ns#"
   xmlns:rdf="http://www.w3.org/1999/02/22-rdf-syntax-ns#"
   xmlns:svg="http://www.w3.org/2000/svg"
   xmlns="http://www.w3.org/2000/svg"
   xmlns:xlink="http://www.w3.org/1999/xlink"
   xmlns:sodipodi="http://sodipodi.sourceforge.net/DTD/sodipodi-0.dtd"
   xmlns:inkscape="http://www.inkscape.org/namespaces/inkscape"
   width="64"
   height="64"
   viewBox="0 0 64 64"
   version="1.1"
   id="svg6374"
   inkscape:version="1.0.2 (e86c870879, 2021-01-15)"
   sodipodi:docname="text-x-c.svg">
  <defs
     id="defs6368">
    <linearGradient
       inkscape:collect="always"
       xlink:href="#linearGradient5153"
       id="linearGradient5155"
       x1="509.81665"
       y1="3.8460948"
       x2="554.40594"
       y2="60.320145"
       gradientUnits="userSpaceOnUse"
       gradientTransform="translate(-500)" />
    <linearGradient
       inkscape:collect="always"
       id="linearGradient5153">
      <stop
         style="stop-color:#797984;stop-opacity:1;"
         offset="0"
         id="stop5149" />
      <stop
         style="stop-color:#bbbbcc;stop-opacity:1"
         offset="1"
         id="stop5151" />
    </linearGradient>
  </defs>
  <sodipodi:namedview
     id="base"
     pagecolor="#cecece"
     bordercolor="#666666"
     borderopacity="1.0"
     inkscape:pageopacity="0"
     inkscape:pageshadow="2"
     inkscape:zoom="3.2975144"
     inkscape:cx="0.78419257"
     inkscape:cy="32.951385"
     inkscape:document-units="px"
     inkscape:current-layer="layer1"
     inkscape:document-rotation="0"
     showgrid="false"
     units="px"
     inkscape:window-width="2048"
     inkscape:window-height="1080"
     inkscape:window-x="0"
     inkscape:window-y="0"
     inkscape:window-maximized="1" />
  <metadata
     id="metadata6371">
    <rdf:RDF>
      <cc:Work
         rdf:about="">
        <dc:format>image/svg+xml</dc:format>
        <dc:type
           rdf:resource="http://purl.org/dc/dcmitype/StillImage" />
        <dc:title></dc:title>
      </cc:Work>
    </rdf:RDF>
  </metadata>
  <g
     inkscape:label="Layer 1"
     inkscape:groupmode="layer"
     id="layer1">
    <rect
       style="opacity:0.45;fill:#0c0c0c;fill-opacity:1;stroke-width:0.495;stroke-linecap:round;stroke-linejoin:round;stroke-miterlimit:4;stroke-dasharray:none;stroke-dashoffset:2.1875"
       id="rect954-6-3-2-2-6-9-7-4-7"
       width="44"
       height="56"
       x="10"
       y="5.5"
       rx="3"
       ry="3" />
    <path
       id="rect954-60-6-7-3-1-0-4-1"
       style="color:#000000;font-style:normal;font-variant:normal;font-weight:normal;font-stretch:normal;font-size:medium;line-height:normal;font-family:sans-serif;font-variant-ligatures:normal;font-variant-position:normal;font-variant-caps:normal;font-variant-numeric:normal;font-variant-alternates:normal;font-variant-east-asian:normal;font-feature-settings:normal;font-variation-settings:normal;text-indent:0;text-align:start;text-decoration:none;text-decoration-line:none;text-decoration-style:solid;text-decoration-color:#000000;letter-spacing:normal;word-spacing:normal;text-transform:none;writing-mode:lr-tb;direction:ltr;text-orientation:mixed;dominant-baseline:auto;baseline-shift:baseline;text-anchor:start;white-space:normal;shape-padding:0;shape-margin:0;inline-size:0;clip-rule:nonzero;display:inline;overflow:visible;visibility:visible;opacity:0.8;isolation:auto;mix-blend-mode:normal;color-interpolation:sRGB;color-interpolation-filters:linearRGB;solid-color:#000000;solid-opacity:1;vector-effect:none;fill:url(#linearGradient5155);fill-opacity:1;fill-rule:nonzero;stroke:none;stroke-linecap:round;stroke-linejoin:round;stroke-miterlimit:4;stroke-dasharray:none;stroke-dashoffset:2.1875;stroke-opacity:1;color-rendering:auto;image-rendering:auto;shape-rendering:auto;text-rendering:auto;enable-background:accumulate;stop-color:#000000"
       d="M 13,3.5 C 11.0696,3.5 9.5,5.06965 9.5,7 v 50 c 0,1.93035 1.5696,3.5 3.5,3.5 h 38 c 1.9304,0 3.5,-1.56965 3.5,-3.5 V 7 C 54.5,5.06965 52.9304,3.5 51,3.5 Z m 0,1 h 38 c 1.3936,0 2.5,1.10635 2.5,2.5 v 50 c 0,1.393651 -1.1064,2.5 -2.5,2.5 H 13 c -1.3936,0 -2.5,-1.106349 -2.5,-2.5 V 7 c 0,-1.39365 1.1064,-2.5 2.5,-2.5 z" />
    <path
       id="rect954-7-0-7-9-8-4-9"
       style="fill:#bbbbcc;fill-opacity:1;stroke-width:0.495;stroke-linecap:round;stroke-linejoin:round;stroke-miterlimit:4;stroke-dasharray:none;stroke-dashoffset:2.1875"
       d="m 52.81575,4.6246 c 0.7149,0.54739 1.18191,1.40189 1.18191,2.37586 l -0.001,49.999921 c 1e-5,1.661999 -1.33608,3.00049 -2.99809,3.00049 l -38.00082,-0.002 c -0.68735,0 -1.31104,-0.23664 -1.81583,-0.622599 z" />
    <path
       id="rect954-7-0-7-9-8-4-1-4"
       style="fill:#797984;fill-opacity:1;stroke-width:0.495;stroke-linecap:round;stroke-linejoin:round;stroke-miterlimit:4;stroke-dasharray:none;stroke-dashoffset:2.1875"
       d="M 11.18192,59.37627 C 10.46701,58.828879 10,57.974379 10,57.00041 L 10.001,7.0004898 C 10.001,5.33849 11.33709,4 12.99909,4 l 38.00082,0.002 c 0.68735,0 1.31105,0.23664 1.81583,0.6226 z" />
    <path
       id="path169-3-8-9-9-8"
       style="color:#000000;font-style:normal;font-variant:normal;font-weight:normal;font-stretch:normal;font-size:medium;line-height:normal;font-family:sans-serif;font-variant-ligatures:normal;font-variant-position:normal;font-variant-caps:normal;font-variant-numeric:normal;font-variant-alternates:normal;font-variant-east-asian:normal;font-feature-settings:normal;font-variation-settings:normal;text-indent:0;text-align:start;text-decoration:none;text-decoration-line:none;text-decoration-style:solid;text-decoration-color:#000000;letter-spacing:normal;word-spacing:normal;text-transform:none;writing-mode:lr-tb;direction:ltr;text-orientation:mixed;dominant-baseline:auto;baseline-shift:baseline;text-anchor:start;white-space:normal;shape-padding:0;shape-margin:0;inline-size:0;clip-rule:nonzero;display:inline;overflow:visible;visibility:visible;opacity:0.25;isolation:auto;mix-blend-mode:normal;color-interpolation:sRGB;color-interpolation-filters:linearRGB;solid-color:#000000;solid-opacity:1;vector-effect:none;fill:#0c0c0c;fill-opacity:1;fill-rule:nonzero;stroke:none;stroke-width:0.93692;stroke-linecap:butt;stroke-linejoin:round;stroke-miterlimit:4;stroke-dasharray:none;stroke-dashoffset:0;stroke-opacity:1;color-rendering:auto;image-rendering:auto;shape-rendering:auto;text-rendering:auto;enable-background:accumulate;stop-color:#000000"
       d="m 31.92308,18.75056 c -0.43379,-0.0038 -0.86749,0.01169 -1.29961,0.047 -3.45686,0.282559 -6.8125,1.815022 -9.31689,4.535801 -5.00877,5.441558 -5.00877,13.891545 0,19.333099 5.00878,5.441562 13.41964,6.129261 19.24342,1.573142 l -3.6593,-4.69132 c -3.4268,2.680892 -8.26439,2.286213 -11.21163,-0.915688 -2.94724,-3.201895 -2.94724,-8.061531 0,-11.26343 2.94724,-3.201896 7.78483,-3.598033 11.21163,-0.917138 L 40.55,21.760704 c -2.5479,-1.993302 -5.59037,-2.98314 -8.62692,-3.010137 z" />
    <path
       id="path169-3-8-9-9"
       style="color:#000000;font-style:normal;font-variant:normal;font-weight:normal;font-stretch:normal;font-size:medium;line-height:normal;font-family:sans-serif;font-variant-ligatures:normal;font-variant-position:normal;font-variant-caps:normal;font-variant-numeric:normal;font-variant-alternates:normal;font-variant-east-asian:normal;font-feature-settings:normal;font-variation-settings:normal;text-indent:0;text-align:start;text-decoration:none;text-decoration-line:none;text-decoration-style:solid;text-decoration-color:#000000;letter-spacing:normal;word-spacing:normal;text-transform:none;writing-mode:lr-tb;direction:ltr;text-orientation:mixed;dominant-baseline:auto;baseline-shift:baseline;text-anchor:start;white-space:normal;shape-padding:0;shape-margin:0;inline-size:0;clip-rule:nonzero;display:inline;overflow:visible;visibility:visible;isolation:auto;mix-blend-mode:normal;color-interpolation:sRGB;color-interpolation-filters:linearRGB;solid-color:#000000;solid-opacity:1;vector-effect:none;fill:#fdfdfb;fill-opacity:1;fill-rule:nonzero;stroke:none;stroke-width:0.93692;stroke-linecap:butt;stroke-linejoin:round;stroke-miterlimit:4;stroke-dasharray:none;stroke-dashoffset:0;stroke-opacity:1;color-rendering:auto;image-rendering:auto;shape-rendering:auto;text-rendering:auto;enable-background:accumulate;stop-color:#000000"
       d="m 31.92308,17.75056 c -0.43379,-0.0038 -0.86749,0.01169 -1.29961,0.047 -3.45686,0.282559 -6.8125,1.815022 -9.31689,4.535801 -5.00877,5.441558 -5.00877,13.891545 0,19.333099 5.00878,5.441562 13.41964,6.129261 19.24342,1.573142 l -3.6593,-4.69132 c -3.4268,2.680892 -8.26439,2.286213 -11.21163,-0.915688 -2.94724,-3.201895 -2.94724,-8.061531 0,-11.26343 2.94724,-3.201896 7.78483,-3.598033 11.21163,-0.917138 L 40.55,20.760704 c -2.5479,-1.993302 -5.59037,-2.98314 -8.62692,-3.010137 z" />
  </g>
</svg>
