<?xml version="1.0" encoding="UTF-8" standalone="no"?>
<svg
   xmlns:dc="http://purl.org/dc/elements/1.1/"
   xmlns:cc="http://creativecommons.org/ns#"
   xmlns:rdf="http://www.w3.org/1999/02/22-rdf-syntax-ns#"
   xmlns:svg="http://www.w3.org/2000/svg"
   xmlns="http://www.w3.org/2000/svg"
   xmlns:sodipodi="http://sodipodi.sourceforge.net/DTD/sodipodi-0.dtd"
   xmlns:inkscape="http://www.inkscape.org/namespaces/inkscape"
   width="64"
   height="64"
   viewBox="0 0 64 64"
   version="1.1"
   id="svg6374"
   inkscape:version="1.0.2 (e86c870879, 2021-01-15)"
   sodipodi:docname="text-org.svg">
  <defs
     id="defs6368" />
  <sodipodi:namedview
     id="base"
     pagecolor="#cecece"
     bordercolor="#666666"
     borderopacity="1.0"
     inkscape:pageopacity="0"
     inkscape:pageshadow="2"
     inkscape:zoom="2.7426703"
     inkscape:cx="8.6798192"
     inkscape:cy="52.549069"
     inkscape:document-units="px"
     inkscape:current-layer="layer1"
     inkscape:document-rotation="0"
     showgrid="false"
     units="px"
     inkscape:window-width="1024"
     inkscape:window-height="1080"
     inkscape:window-x="68"
     inkscape:window-y="56"
     inkscape:window-maximized="0" />
  <metadata
     id="metadata6371">
    <rdf:RDF>
      <cc:Work
         rdf:about="">
        <dc:format>image/svg+xml</dc:format>
        <dc:type
           rdf:resource="http://purl.org/dc/dcmitype/StillImage" />
        <dc:title />
      </cc:Work>
    </rdf:RDF>
  </metadata>
  <g
     inkscape:label="Layer 1"
     inkscape:groupmode="layer"
     id="layer1">
    <path
       id="rect954-7-0-7-3-0-0-0-6-3-3-6-9"
       style="color:#000000;font-style:normal;font-variant:normal;font-weight:normal;font-stretch:normal;font-size:medium;line-height:normal;font-family:sans-serif;font-variant-ligatures:normal;font-variant-position:normal;font-variant-caps:normal;font-variant-numeric:normal;font-variant-alternates:normal;font-variant-east-asian:normal;font-feature-settings:normal;font-variation-settings:normal;text-indent:0;text-align:start;text-decoration:none;text-decoration-line:none;text-decoration-style:solid;text-decoration-color:#000000;letter-spacing:normal;word-spacing:normal;text-transform:none;writing-mode:lr-tb;direction:ltr;text-orientation:mixed;dominant-baseline:auto;baseline-shift:baseline;text-anchor:start;white-space:normal;shape-padding:0;shape-margin:0;inline-size:0;clip-rule:nonzero;display:inline;overflow:visible;visibility:visible;opacity:0.85;isolation:auto;mix-blend-mode:normal;color-interpolation:sRGB;color-interpolation-filters:linearRGB;solid-color:#000000;solid-opacity:1;vector-effect:none;fill:#69696d;fill-opacity:1;fill-rule:nonzero;stroke:none;stroke-linecap:round;stroke-linejoin:round;stroke-miterlimit:4;stroke-dasharray:none;stroke-dashoffset:2.1875;stroke-opacity:1;color-rendering:auto;image-rendering:auto;shape-rendering:auto;text-rendering:auto;enable-background:accumulate;stop-color:#000000"
       d="M 13,2.5 C 10.53295,2.5 8.5,4.53295 8.5,7 v 49.99999 c 0,2.46706 2.03295,4.5 4.5,4.5 h 38 c 2.467,0 4.5,-2.03294 4.5,-4.5 V 7 C 55.5,4.53295 53.467,2.5 51,2.5 Z m 0,3 h 38 c 0.8569,0 1.5,0.64306 1.5,1.5 v 49.99999 c 0,0.85695 -0.6431,1.5 -1.5,1.5 H 13 c -0.85695,0 -1.5,-0.64305 -1.5,-1.5 V 7 c 0,-0.85694 0.64305,-1.5 1.5,-1.5 z" />
    <rect
       style="fill:#fcfcfa;fill-opacity:1;stroke-width:0.495;stroke-linecap:round;stroke-linejoin:round;stroke-miterlimit:4;stroke-dasharray:none;stroke-dashoffset:2.1875"
       id="rect954-7-0-7-3-0-6"
       width="44"
       height="56"
       x="10.000023"
       y="4.000001"
       rx="3"
       ry="3" />
    <path
       id="path943-4-6-7-7"
       style="color:#000000;font-style:normal;font-variant:normal;font-weight:normal;font-stretch:normal;font-size:medium;line-height:normal;font-family:sans-serif;font-variant-ligatures:normal;font-variant-position:normal;font-variant-caps:normal;font-variant-numeric:normal;font-variant-alternates:normal;font-variant-east-asian:normal;font-feature-settings:normal;font-variation-settings:normal;text-indent:0;text-align:start;text-decoration:none;text-decoration-line:none;text-decoration-style:solid;text-decoration-color:#000000;letter-spacing:normal;word-spacing:normal;text-transform:none;writing-mode:lr-tb;direction:ltr;text-orientation:mixed;dominant-baseline:auto;baseline-shift:baseline;text-anchor:start;white-space:normal;shape-padding:0;shape-margin:0;inline-size:0;clip-rule:nonzero;display:inline;overflow:visible;visibility:visible;opacity:0.45;isolation:auto;mix-blend-mode:normal;color-interpolation:sRGB;color-interpolation-filters:linearRGB;solid-color:#000000;solid-opacity:1;vector-effect:none;fill:#0c0c0c;fill-opacity:1;fill-rule:nonzero;stroke:none;stroke-width:0.999933;stroke-linecap:round;stroke-linejoin:round;stroke-miterlimit:4;stroke-dasharray:none;stroke-dashoffset:0;stroke-opacity:1;color-rendering:auto;image-rendering:auto;shape-rendering:auto;text-rendering:auto;enable-background:accumulate;stop-color:#000000"
       d="m 40.29009,13.50058 c -0.0402,6.3e-4 -0.0748,0.0127 -0.11131,0.0195 v -0.004 h -0.002 a 0.50000391,0.50002887 0 0 0 -0.0391,0.0117 c -0.0181,0.005 -0.039,0.004 -0.0566,0.01 -0.0646,0.0211 -0.12192,0.0486 -0.17577,0.082 -0.25714,0.15892 -0.41784,0.39962 -0.56245,0.72849 l 0.0176,-0.0391 c -0.17517,0.32176 -0.37976,0.5603 -0.57807,0.82808 -0.17672,0.23863 -0.32526,0.56065 -0.3613,0.92965 -0.003,0.003 0.009,-0.0129 -0.0117,0.006 -0.0772,0.0698 -0.24943,0.19522 -0.42964,0.35741 -0.0454,0.0409 -0.0916,0.0846 -0.13671,0.13085 -0.15961,0.16406 -0.32374,0.37368 -0.40621,0.65622 -0.0451,0.15449 0.0326,0.33726 0.0566,0.51365 -0.14656,0.15763 -0.36699,0.35671 -0.58979,0.64841 -0.13053,0.17094 -0.25391,0.36938 -0.32028,0.61521 -0.0363,0.13439 0.0172,0.29262 0.0312,0.4453 -0.01,0.006 -0.0458,0.0609 -0.13671,0.166 -0.11145,0.12885 -0.2561,0.29184 -0.39059,0.48631 -0.13448,0.19447 -0.26434,0.42248 -0.32224,0.70309 -0.0254,0.1229 0.0549,0.26313 0.0703,0.40038 -0.0351,0.0251 -0.0768,0.0537 -0.10937,0.0781 -0.10233,0.0767 -0.19307,0.14972 -0.27342,0.22265 -0.24303,0.22074 -0.42707,0.50303 -0.44918,0.80661 -0.011,0.15094 0.0439,0.25132 0.0742,0.37107 -0.014,0.0128 -0.0378,0.0358 -0.0371,0.0352 -0.0236,0.0203 -0.0521,0.0489 -0.0781,0.0723 -0.006,-0.0159 -0.0135,-0.0284 -0.0195,-0.0449 a 0.50000391,0.50002887 0 0 0 -0.002,-0.002 c -0.0118,-0.032 -0.0203,-0.0588 -0.0293,-0.0859 -0.0248,-0.0749 -0.0479,-0.15638 -0.0684,-0.24218 -0.006,-0.0258 -0.0143,-0.063 -0.0234,-0.10936 a 0.50000391,0.50002887 0 0 0 0,-0.002 c -0.0136,-0.068 -0.025,-0.1426 -0.0352,-0.22069 v -0.002 c -0.008,-0.0627 -0.0164,-0.10803 -0.0195,-0.14453 a 0.50000391,0.50002887 0 0 0 0,-0.0137 c 2e-5,1.1e-4 -0.003,-0.0197 -0.004,-0.0332 v -0.004 c -0.007,-0.0976 -0.0101,-0.19031 -0.01,-0.28124 a 0.50000391,0.50002887 0 0 0 0,-0.004 c 0,-0.18009 -0.0423,-0.37717 -0.17772,-0.54295 -0.0655,-0.0802 -0.15463,-0.15198 -0.25388,-0.19725 a 0.50000391,0.50002887 0 0 0 -0.18749,-0.043 c -0.0313,-0.005 -0.0662,-0.0222 -0.0957,-0.0234 a 0.50000391,0.50002887 0 0 0 -0.008,0 c -0.0834,-0.002 -0.16434,0.008 -0.24411,0.0273 a 0.50000391,0.50002887 0 0 0 -0.004,0 c -0.0755,0.0187 -0.14617,0.0452 -0.21678,0.0781 -0.0675,0.0314 -0.13453,0.0691 -0.20115,0.11327 -0.0663,0.044 -0.12885,0.0924 -0.18944,0.14453 -0.0606,0.0521 -0.12245,0.1102 -0.18162,0.17382 -0.39541,0.42505 -0.70124,1.0971 -0.72064,1.90226 -0.0502,0.007 -0.0987,0.0129 -0.15233,0.0215 -0.0806,0.0128 -0.1627,0.0259 -0.24803,0.041 -0.11473,0.0202 -0.23332,0.0428 -0.35347,0.0664 -0.0801,0.0157 -0.16129,0.0319 -0.25194,0.0508 -0.067,0.0141 -0.14332,0.0336 -0.21287,0.0488 -0.0146,-0.0601 -0.0279,-0.12011 -0.0469,-0.17968 a 0.50000391,0.50002887 0 0 0 -0.0195,-0.0781 c -0.0451,-0.12888 -0.10351,-0.25385 -0.166,-0.37694 -9.3e-4,-0.002 -9.5e-4,-0.004 -0.002,-0.006 a 0.50000391,0.50002887 0 0 0 -0.0273,-0.0605 0.50000391,0.50002887 0 0 0 0,-0.002 c -0.0314,-0.0583 -0.0659,-0.11241 -0.0996,-0.166 a 0.50000391,0.50002887 0 0 0 -0.0254,-0.043 c -0.13285,-0.20403 -0.2888,-0.39046 -0.49018,-0.53709 -0.0676,-0.0492 -0.14072,-0.0946 -0.22068,-0.13085 a 0.50000391,0.50002887 0 0 0 -0.002,0 c -0.0756,-0.0342 -0.16066,-0.0605 -0.25388,-0.0762 0,0 0,-0.002 0,-0.002 -0.003,-5.8e-4 -0.008,-9.5e-4 -0.0117,-0.002 a 0.50000391,0.50002887 0 0 0 -0.006,0 0.50000391,0.50002887 0 0 0 0,-0.002 c -0.002,-3.6e-4 -0.005,3.4e-4 -0.008,0 a 0.50000391,0.50002887 0 0 0 -0.0645,-0.004 c -0.002,-1.4e-4 -0.01,0 -0.01,0 0,0 -10e-6,0.0112 0,0.0117 -0.10766,-0.006 -0.21933,-0.008 -0.3281,0.0273 a 0.50000391,0.50002887 0 0 0 -0.006,0 c 0.0478,-0.0159 0.0425,-0.0154 -0.0195,0.006 a 0.50000391,0.50002887 0 0 0 -0.0371,0.0156 c -0.0391,0.0167 -0.0347,0.0139 -0.0195,0.008 0,0 -0.002,0 -0.002,0 0,0 -0.002,0.002 -0.002,0.002 -0.0669,0.0289 -0.12279,0.0845 -0.18358,0.1289 a 0.50000391,0.50002887 0 0 0 -0.14647,0.0996 c -0.011,0.011 0.003,-0.001 -0.006,0.008 -0.0681,0.0715 -0.0914,0.10839 -0.0488,0.0586 -0.0321,0.0372 -0.0857,0.10037 -0.13866,0.18554 0,0 -0.002,0.002 -0.002,0.002 a 0.50000391,0.50002887 0 0 0 -0.0293,0.0566 c -0.005,0.0112 -0.0267,0.0489 -0.0234,0.043 a 0.50000391,0.50002887 0 0 0 0,0.002 c -0.081,0.14943 -0.15729,0.32603 -0.22068,0.54099 -0.22317,0.53655 -0.37737,0.93397 -0.50386,1.28705 -0.0175,0.0111 -0.0115,0.009 -0.0371,0.0254 v -0.002 c -0.0638,0.0397 -0.12083,0.0844 -0.17381,0.12891 v -0.002 c -0.0543,0.0454 -0.10309,0.0921 -0.14842,0.13867 -0.32174,0.33058 -0.52688,0.69082 -0.90812,1.0605 -0.0554,0.0537 -0.11303,0.10789 -0.17382,0.16015 -0.0599,0.0515 -0.12708,0.10387 -0.19919,0.15819 -0.072,0.0542 -0.14691,0.10807 -0.22655,0.16016 -0.0798,0.0522 -0.1678,0.10533 -0.26169,0.15819 -0.27921,0.1572 -0.61475,0.31106 -1.02725,0.45115 -0.18563,0.063 -0.38684,0.12277 -0.60541,0.17968 -0.10884,0.0284 -0.22372,0.0573 -0.34177,0.084 -0.11848,0.0266 -0.24051,0.0518 -0.36715,0.0762 -0.12741,0.0244 -0.25847,0.0483 -0.39449,0.0703 -0.13616,0.022 -0.27932,0.041 -0.42575,0.0606 -0.14679,0.0195 -0.2989,0.0381 -0.45503,0.0547 -0.1568,0.0167 -0.31751,0.0333 -0.48434,0.0469 -0.18081,0.0147 -0.36325,0.0463 -0.54877,0.0937 a 0.50000391,0.50002887 0 0 0 -0.002,0 c -0.0918,0.0235 -0.18572,0.0506 -0.28123,0.082 -0.0964,0.0317 -0.19053,0.0679 -0.28513,0.10547 -0.19206,0.0762 -0.38689,0.16578 -0.58393,0.26756 -1.28151,0.66218 -2.67176,1.83785 -3.80043,3.27526 -1.12866,1.43741 -1.99872,3.1383 -2.13261,4.87869 a 0.50000391,0.50002887 0 0 0 0,0.004 c -0.0761,1.07592 0.0777,3.4559 0.88859,5.65992 0,0 0.002,0.002 0.002,0.002 0.003,0.008 9.1e-4,0.0156 0.004,0.0234 0.007,0.0185 0.007,0.0362 0.0137,0.0547 a 0.50000391,0.50002887 0 0 0 0.004,0.0176 c 0.002,0.004 0.002,0.008 0.004,0.0117 a 0.50000391,0.50002887 0 0 0 0.002,0.008 c -10e-4,-0.004 0.01,0.0228 0.0156,0.0371 0.0116,0.0302 0.023,0.0622 0.0371,0.0977 0.0729,0.18846 0.15136,0.36858 0.23435,0.54295 0.42881,0.92494 1.00096,1.7786 1.78108,2.4081 a 0.50000391,0.50002887 0 0 0 0.002,0 0.50000391,0.50002887 0 0 0 0.0488,0.0371 c 0.0966,0.0759 0.19407,0.15022 0.29684,0.21874 0.10134,0.0788 0.2007,0.15284 0.29489,0.21875 0.0436,0.0305 0.0749,0.0491 0.0977,0.0645 0.0558,0.0376 0.11499,0.0776 0.17772,0.11718 0.15865,0.10016 0.29931,0.18136 0.42574,0.24804 0.003,0.002 0.005,0.002 0.008,0.004 0.0579,0.0939 0.11755,0.18659 0.17966,0.28124 0.0275,0.0419 0.0545,0.0851 0.084,0.12889 a 0.50000391,0.50002887 0 0 0 0.002,0 c 0.0815,0.12053 0.1665,0.24178 0.25584,0.36326 0.0173,0.0238 0.0401,0.0555 0.0703,0.0957 a 0.50000391,0.50002887 0 0 0 0,0.002 c 0.11146,0.14807 0.22842,0.29323 0.34958,0.43748 0.0414,0.0494 0.0781,0.0894 0.10546,0.12109 0.0958,0.11054 0.19542,0.21919 0.2988,0.32811 0.0458,0.0483 0.0918,0.0952 0.13671,0.14062 0.10323,0.10441 0.21022,0.20718 0.31833,0.30662 0.0451,0.0414 0.097,0.0915 0.1621,0.14844 0.025,0.0218 0.0487,0.0417 0.0684,0.0586 0.11171,0.0959 0.22769,0.19062 0.34762,0.2832 0.005,0.004 0.0183,0.0157 0.041,0.0332 a 0.50000391,0.50002887 0 0 0 0.002,0 c 0.12951,0.0986 0.26173,0.19446 0.39645,0.28515 a 0.50000391,0.50002887 0 0 0 0.002,0 c 0.0301,0.0201 0.0596,0.0409 0.0898,0.0605 0.28163,0.18418 0.58179,0.35484 0.89836,0.5078 0.0304,0.0146 0.0643,0.0303 0.0996,0.0469 0.15659,0.0729 0.31861,0.1436 0.48823,0.20898 a 0.50000391,0.50002887 0 0 0 0.008,0.004 c 0.0247,0.009 0.0414,0.0136 0.0469,0.0156 0.15538,0.0586 0.31166,0.11148 0.47065,0.16015 0.0329,0.0101 0.0724,0.0222 0.11718,0.0352 0.17709,0.0513 0.35931,0.0986 0.54682,0.13866 0.11531,0.0247 0.23594,0.0477 0.35935,0.0684 a 0.50000391,0.50002887 0 0 0 0.002,0 c 0.0138,0.002 0.0269,0.004 0.0371,0.006 0.11022,0.0179 0.21937,0.0335 0.3281,0.0469 a 0.50000391,0.50002887 0 0 0 0.004,0 c 0.0535,0.006 0.10784,0.012 0.16209,0.0176 0.0833,0.008 0.16675,0.0152 0.25194,0.0215 a 0.50000391,0.50002887 0 0 0 0.004,0 c 0.0358,0.002 0.0827,0.009 0.13866,0.0117 0.10894,0.006 0.21994,0.0119 0.332,0.0137 0.0162,2.8e-4 0.0459,0.002 0.0918,0.002 0.13313,9.9e-4 0.26864,-0.003 0.40621,-0.008 a 0.50000391,0.50002887 0 0 0 0.004,0 c 0.0575,-0.002 0.10891,-0.006 0.15427,-0.008 a 0.50000391,0.50002887 0 0 0 0.004,0 c 0.0887,-0.004 0.17953,-0.01 0.27342,-0.0176 l -0.006,0.002 c 0.0623,-0.004 0.12501,-0.01 0.18553,-0.0156 0.10405,-0.01 0.20594,-0.0227 0.30661,-0.0352 a 0.50000391,0.50002887 0 0 0 0.004,0 c 0.0336,-0.004 0.0789,-0.009 0.13867,-0.0176 0.14684,-0.0201 0.29727,-0.0433 0.44917,-0.0703 0.0587,-0.0104 0.105,-0.0206 0.14062,-0.0273 a 0.50000391,0.50002887 0 0 0 0.002,0 c 0.11119,-0.0212 0.22508,-0.0427 0.34176,-0.0684 0.0583,-0.0129 0.11491,-0.0276 0.17186,-0.041 0.11264,-0.0264 0.22454,-0.0542 0.33786,-0.084 a 0.50000391,0.50002887 0 0 0 0.002,0 c 0.0503,-0.0133 0.10242,-0.0269 0.16013,-0.043 0.16027,-0.0443 0.32476,-0.0918 0.49215,-0.14452 4.0727,-1.16699 7.23687,-0.50597 9.54014,0.55856 2.30334,1.06469 3.7032,2.51663 4.25351,3.04284 a 0.50000391,0.50002887 0 0 0 0.0449,0.0391 c 0.0329,0.0313 0.068,0.0617 0.10155,0.0898 0.0727,0.0741 0.12903,0.19392 0.41988,0.21092 0.14543,0.009 0.34815,-0.0788 0.44137,-0.19139 0.0932,-0.11266 0.11163,-0.20827 0.12303,-0.27734 a 0.50000391,0.50002887 0 0 0 0,-0.006 c 0.0264,-0.17448 0.002,-0.27382 -0.0254,-0.40623 -0.0413,-0.19616 -0.11459,-0.42803 -0.21873,-0.7109 -0.13874,-0.37695 -0.33286,-0.8373 -0.58588,-1.35933 -0.44289,-0.91368 -1.06265,-2.01631 -1.85529,-3.16978 -0.22645,-0.32954 -0.46575,-0.66354 -0.72064,-0.99801 -1.40183,-1.83939 -3.23399,-3.70448 -5.49559,-5.02908 a 0.50000391,0.50002887 0 0 0 -0.01,-0.006 c -0.9758,-0.53804 -1.44721,-1.13801 -1.67562,-1.75578 -0.22841,-0.61778 -0.21088,-1.28547 -0.0742,-1.94719 0.0608,-0.29439 0.14588,-0.58689 0.23826,-0.86519 0.15672,-0.47213 0.28997,-0.83439 0.42575,-1.21675 0.4166,0.20651 0.98763,0.47001 1.76937,0.49998 0.88369,0.0339 1.94031,-0.25005 2.86302,-1.17573 0.1607,-0.16124 0.31676,-0.33971 0.4687,-0.53904 0.009,-0.0113 0.0168,-0.0238 0.0254,-0.0352 0.0187,0.004 0.0381,0.0102 0.0566,0.0137 a 0.50000391,0.50002887 0 0 0 0.0586,0.008 c 1.6572,0.28968 2.82337,-0.20318 3.95081,0 a 0.50000391,0.50002887 0 0 0 0.004,0 c 0.17516,0.0316 0.3517,0.0795 0.53511,0.14648 l -0.0312,-0.0137 c 0.39338,0.17421 0.88157,0.22643 1.45104,0.22655 0.56946,1.2e-4 1.19693,-0.07 1.76936,-0.24998 0.57243,-0.17996 1.12258,-0.4683 1.41589,-1.01168 0.22456,-0.41602 0.15178,-0.93927 -0.0684,-1.47455 0.0773,-0.0453 0.17765,-0.10935 0.24412,-0.14647 0.47307,-0.26429 0.8218,-0.51366 1.22058,-1.31441 a 0.50000391,0.50002887 0 0 0 0.0391,-0.11522 c 0.0192,-0.0872 0.0366,-0.17109 0.0488,-0.2539 0.0245,-0.16411 0.0339,-0.31727 0.0312,-0.46091 -0.003,-0.1421 -0.0185,-0.27619 -0.0449,-0.40038 v -0.002 c -0.0396,-0.1852 -0.10485,-0.3481 -0.17968,-0.48435 -0.05,-0.0911 -0.10268,-0.17 -0.15427,-0.23827 a 0.50000391,0.50002887 0 0 0 -0.002,-0.002 l -0.006,-0.006 a 0.50000391,0.50002887 0 0 0 -0.0312,-0.0371 0.50000391,0.50002887 0 0 0 -0.006,-0.008 c -0.10697,-0.13483 -0.18354,-0.22245 -0.21091,-0.25585 -0.0781,-0.45578 -0.3317,-0.86364 -0.74993,-1.0273 -0.41173,-0.16112 -0.87088,-0.0646 -1.29871,0.18749 -1.78563,-0.29264 -3.49687,-0.16526 -4.22227,-0.2246 -1.66102,-0.23799 -3.01372,-1.0635 -3.15401,-1.15034 -0.015,-0.20436 0.12237,-0.39571 -0.0273,-0.56833 -0.31185,-0.3595 -0.82816,-0.53902 -1.58383,-0.57615 -0.0768,-0.0262 -0.15444,-0.0528 -0.23436,-0.084 a 0.50000391,0.50002887 0 0 0 -0.002,0 c -0.004,-10e-4 -0.008,-0.003 -0.0117,-0.004 -0.0576,-0.0226 -0.11881,-0.0487 -0.18553,-0.0762 -0.0397,-0.0164 -0.0711,-0.0306 -0.0957,-0.041 -0.0816,-0.0344 -0.16693,-0.0697 -0.24998,-0.10547 -4.2e-4,-0.0278 -4.3e-4,-0.0587 -0.006,-0.10741 a 0.50000391,0.50002887 0 0 0 0,-0.002 c -10e-4,-0.0126 -0.004,-0.0276 -0.006,-0.041 0.0136,-0.011 0.0339,-0.0139 0.0469,-0.0254 0.28738,-0.25391 0.41483,-0.59821 0.44916,-0.92574 0.0147,-0.14037 -0.0526,-0.2674 -0.0703,-0.40428 0.21326,-0.1402 0.38963,-0.32649 0.46285,-0.52342 0.16388,-0.44075 0.074,-0.79804 0.0156,-1.13276 0.17656,-0.13586 0.35192,-0.27963 0.43941,-0.46678 0.0922,-0.19684 0.13555,-0.40611 0.14451,-0.6113 0.005,-0.10705 5.8e-4,-0.20744 -0.01,-0.30078 a 0.50000391,0.50002887 0 0 0 -0.002,-0.004 c -0.005,-0.0449 -0.0269,-0.0864 -0.0351,-0.13085 0.0206,-0.0148 0.0508,-0.0173 0.0703,-0.0332 a 0.50000391,0.50002887 0 0 0 0.002,0 c 0.0326,-0.0267 0.0565,-0.0546 0.084,-0.082 0.003,-0.003 0.007,-0.003 0.01,-0.006 a 0.50000391,0.50002887 0 0 0 0.043,-0.043 c 0.25196,-0.27789 0.34989,-0.61337 0.39059,-0.92184 a 0.50000391,0.50002887 0 0 0 0,-0.002 c 0.0135,-0.10231 0.0207,-0.2016 0.0234,-0.30077 0.002,-0.0565 -0.005,-0.10191 -0.006,-0.15624 0.0324,-0.0204 0.0579,-0.044 0.0859,-0.0664 a 0.50000391,0.50002887 0 0 0 0.0606,-0.0449 0.50000391,0.50002887 0 0 0 0.0156,-0.0137 0.50000391,0.50002887 0 0 0 0.002,-0.002 c 0.35205,-0.33549 0.41266,-0.75801 0.44721,-1.10737 0.0243,-0.24547 0.0132,-0.38109 0.01,-0.52146 0.0579,-0.0531 0.13024,-0.0979 0.17772,-0.15624 0.23243,-0.28586 0.31506,-0.61472 0.34957,-0.8906 0.0328,-0.26196 0.0354,-0.48874 0.0645,-0.69919 0.0371,-0.0863 0.0769,-0.1726 0.0996,-0.25585 0.0642,-0.23518 0.0937,-0.46392 -0.0332,-0.71872 -0.0207,-0.0415 -0.0927,-0.0399 -0.12694,-0.0781 A 0.50000391,0.50002887 0 0 0 40.2893,13.50006 Z m -0.59174,2.06827 c -0.0218,0.0773 -0.0333,0.17093 -0.0801,0.22851 -0.0237,0.0292 -0.0686,0.063 -0.10937,0.0957 0.032,-0.0552 0.0164,-0.0795 0.0762,-0.16015 0.0283,-0.0382 0.0798,-0.12086 0.11327,-0.16406 z m -0.39254,0.35155 0.0332,0.12109 a 0.50000391,0.50002887 0 0 0 -0.0312,0.0449 c -0.0113,-0.0608 0.0292,-0.11366 -0.002,-0.16601 z m -0.0879,0.73044 c 10e-4,0.1187 0.008,0.2184 -0.006,0.35741 -0.0247,0.24972 -0.11827,0.45825 -0.14062,0.48044 a 0.50000391,0.50002887 0 0 0 0,0.002 0.50000391,0.50002887 0 0 0 -0.002,0 l -0.002,0.002 c 0.003,-9.6e-4 -0.003,8.4e-4 -0.0195,0.002 a 0.50000391,0.50002887 0 0 0 -0.46481,0.54881 c 0.0139,0.139 0.0236,0.28714 0.0195,0.42381 a 0.50000391,0.50002887 0 0 0 0,0.002 c -0.002,0.0691 -0.007,0.13592 -0.0156,0.19921 -0.0248,0.1883 -0.0822,0.31858 -0.13865,0.38085 -0.0114,0.0126 -0.0219,0.0233 -0.0293,0.0293 -0.0302,0.0246 -0.067,0.0448 -0.13476,0.0606 a 0.50000391,0.50002887 0 0 0 -0.34567,0.68551 c 0.0428,0.0985 0.0721,0.2052 0.084,0.30663 0.006,0.0549 0.008,0.1023 0.006,0.14062 a 0.50000391,0.50002887 0 0 0 -0.002,0.006 c -0.004,0.0925 -0.0236,0.17237 -0.0508,0.23046 -0.0342,0.0732 -0.0735,0.11796 -0.14452,0.15625 -0.0136,0.007 -0.0295,0.0148 -0.0469,0.0215 a 0.50000391,0.50002887 0 0 0 -0.30661,0.58981 c 0.0445,0.17463 0.0783,0.72908 0.0117,0.90817 -0.0266,0.0715 -0.0329,0.0609 -0.0234,0.0566 0.006,-0.003 0.004,-0.002 -0.004,0 0.003,-5.1e-4 -0.007,0.002 -0.0273,0.002 a 0.50000391,0.50002887 0 0 0 -0.457,0.72653 c 0.0443,0.0871 0.0769,0.24696 0.0625,0.38475 -0.0145,0.13779 -0.0667,0.23855 -0.11717,0.28319 -0.0223,0.0197 -0.0472,0.033 -0.0898,0.0449 a 0.50000391,0.50002887 0 0 0 -0.33981,0.6406 c 0,0 0.002,0.003 0.004,0.008 8.5e-4,0.003 0.002,0.006 0.004,0.01 4.7e-4,0.001 0.004,0.0109 0.008,0.0195 -0.0163,-0.0419 -5.7e-4,4.7e-4 0.0117,0.043 a 0.50000391,0.50002887 0 0 0 0.002,0.0117 c 0.007,0.0217 0.006,0.0172 0.0176,0.0723 0.002,0.0106 0.006,0.032 0.006,0.0332 0.002,0.0122 0.002,0.0254 0.004,0.0449 -2e-4,-0.001 9.5e-4,0.0108 0.002,0.0391 8.9e-4,0.0497 -0.007,0.0684 -0.002,0.0566 a 0.50000391,0.50002887 0 0 0 0.26365,0.67575 l 0.01,0.004 c 0.003,0.001 0.009,0.003 0.0117,0.004 0.18272,0.0758 0.37579,0.16079 0.57806,0.24609 0.0421,0.0178 0.0764,0.0318 0.10351,0.043 0.0669,0.0276 0.13949,0.0578 0.21677,0.0879 0.10824,0.0422 0.21693,0.0822 0.3281,0.11914 a 0.50000391,0.50002887 0 0 0 0.14257,0.0254 c 0.66258,0.0206 0.91445,0.1935 0.95498,0.24022 0.002,0.003 1e-5,-2.2e-4 0.002,0.002 a 0.50000391,0.50002887 0 0 0 0.14257,0.70115 c 0,0 1.63633,1.06512 3.65981,1.3515 a 0.50000391,0.50002887 0 0 0 0.0293,0.002 c 0.97649,0.083 2.64577,-0.0696 4.3414,0.23827 a 0.50000391,0.50002887 0 0 0 0.38081,-0.0859 c 0.29989,-0.21553 0.47713,-0.20314 0.53706,-0.17968 0.0599,0.0235 0.13174,0.0767 0.14843,0.33593 a 0.50000391,0.50002887 0 0 0 0.0625,0.21092 c 0.13505,0.24204 0.27348,0.34702 0.3613,0.46287 0.0292,0.0387 0.0563,0.0755 0.0781,0.11523 0.033,0.06 0.0576,0.1254 0.0762,0.21289 0.0123,0.0576 0.02,0.12705 0.0215,0.21093 10e-4,0.083 -0.004,0.17992 -0.0215,0.2949 a 0.50000391,0.50002887 0 0 0 0,0.002 c -0.004,0.0298 -0.0115,0.0651 -0.0176,0.0977 -0.328,0.65599 -0.3149,0.59448 -0.78899,0.85933 -0.16272,0.0909 -0.37533,0.21239 -0.64252,0.38867 a 0.50000391,0.50002887 0 0 0 -0.14062,0.69137 c 0.3438,0.52254 0.31344,0.75672 0.21483,0.93941 -0.0986,0.18269 -0.39509,0.39327 -0.83391,0.53123 -0.43881,0.13795 -0.9876,0.20517 -1.47057,0.20507 -0.48296,-1e-4 -0.92465,-0.0865 -1.04678,-0.14062 a 0.50000391,0.50002887 0 0 0 -0.0293,-0.0117 c -0.23983,-0.0877 -0.4763,-0.15023 -0.70501,-0.1914 -1.48959,-0.26821 -2.6153,0.25158 -4.00549,-0.006 -0.10701,-0.0198 -0.21688,-0.0452 -0.32809,-0.0742 a 0.50000391,0.50002887 0 0 0 -0.54097,0.20508 c -0.063,0.094 -0.12631,0.18286 -0.18943,0.26561 -0.12703,0.16666 -0.25335,0.31349 -0.38083,0.44139 -0.73422,0.73658 -1.45776,0.90609 -2.11699,0.88082 -0.65923,-0.0253 -1.2486,-0.27755 -1.56431,-0.44724 a 0.50000391,0.50002887 0 0 0 -0.002,0 c -0.005,-0.003 -0.003,-9.1e-4 -0.008,-0.004 -0.15412,-0.0837 -0.2324,-0.13867 -0.2324,-0.13867 a 0.50000391,0.50002887 0 0 0 -0.77727,0.30272 c -0.0578,0.27046 -0.34684,0.92803 -0.59955,1.68939 -0.1012,0.30485 -0.19655,0.63261 -0.26756,0.97652 -0.15991,0.7744 -0.20002,1.64335 0.11522,2.49598 0.31524,0.85264 0.98976,1.65706 2.12872,2.28507 2.10608,1.23584 3.85033,3.00577 5.19288,4.76737 0.24446,0.32077 0.47567,0.64031 0.69329,0.95699 0.76161,1.10831 1.358,2.1721 1.77913,3.04089 0.0916,0.18899 0.134,0.31351 0.20897,0.48241 -0.79202,-0.69458 -1.84654,-1.51977 -3.44304,-2.25773 a 0.50000391,0.50002887 0 0 0 -0.16015,-0.043 C 36.55108,48.06062 33.17031,47.38824 28.94398,48.59978 a 0.50000391,0.50002887 0 0 0 -0.0137,0.004 c -0.1569,0.0496 -0.31102,0.0956 -0.46675,0.13866 a 0.50000391,0.50002887 0 0 0 -0.002,0 c -0.0465,0.0129 -0.0955,0.0251 -0.14843,0.0391 -0.10597,0.0278 -0.20988,0.0541 -0.31247,0.0781 -0.0539,0.0127 -0.10672,0.0258 -0.1582,0.0371 -0.10408,0.0229 -0.20915,0.0425 -0.31442,0.0625 -0.0551,0.0104 -0.0996,0.0198 -0.13084,0.0254 -0.13775,0.0245 -0.27311,0.046 -0.40817,0.0645 -0.0322,0.004 -0.0769,0.008 -0.13475,0.0156 -0.0945,0.0117 -0.18612,0.0231 -0.27341,0.0312 a 0.50000391,0.50002887 0 0 0 -0.002,0 c -0.0549,0.005 -0.10658,0.0101 -0.15818,0.0137 a 0.50000391,0.50002887 0 0 0 -0.006,0 c -0.0792,0.006 -0.1591,0.0118 -0.24021,0.0156 -0.0563,0.002 -0.10658,0.004 -0.15038,0.006 -0.12346,0.004 -0.2466,0.007 -0.36715,0.006 a 0.50000391,0.50002887 0 0 0 -0.004,0 c -0.0105,0 -0.034,-9.5e-4 -0.0742,-0.002 -0.0973,-0.002 -0.19559,-0.006 -0.29098,-0.0117 a 0.50000391,0.50002887 0 0 0 -0.006,0 c -0.0299,-10e-4 -0.071,-0.004 -0.12109,-0.008 h -0.004 c -0.0736,-0.005 -0.14811,-0.0122 -0.22068,-0.0195 h -0.002 c -0.0485,-0.005 -0.0984,-0.0119 -0.14646,-0.0176 l 0.004,0.002 c -0.10014,-0.0123 -0.19791,-0.0259 -0.29099,-0.041 -0.0131,-0.002 -0.0253,-0.004 -0.0352,-0.006 h -0.004 c -0.10274,-0.0172 -0.20465,-0.0384 -0.30858,-0.0606 a 0.50000391,0.50002887 0 0 0 -0.002,0 c -0.16326,-0.0349 -0.32194,-0.0758 -0.47847,-0.12108 -0.0285,-0.008 -0.0619,-0.0191 -0.10155,-0.0312 -0.14224,-0.0435 -0.28021,-0.0889 -0.41207,-0.13868 -0.0237,-0.009 -0.0374,-0.0142 -0.0469,-0.0176 l -0.008,-0.002 c -0.14098,-0.0546 -0.27827,-0.11559 -0.41597,-0.17968 h -0.002 c -0.0271,-0.0127 -0.0565,-0.0279 -0.0879,-0.043 v 0.002 c -0.27666,-0.13367 -0.53629,-0.28385 -0.78313,-0.44529 a 0.50000391,0.50002887 0 0 0 -0.002,0 c -0.0271,-0.0176 -0.0536,-0.035 -0.0801,-0.0527 -0.1205,-0.0811 -0.23684,-0.16377 -0.34763,-0.24802 l -0.002,-0.002 c -0.005,-0.004 -0.0174,-0.0141 -0.0371,-0.0293 l -0.002,-0.002 c -0.1033,-0.0798 -0.20591,-0.16334 -0.30466,-0.24803 l -0.002,-0.002 c -0.0224,-0.0192 -0.0435,-0.0359 -0.0606,-0.0508 -0.0406,-0.0355 -0.087,-0.08 -0.14452,-0.13281 -0.0983,-0.0904 -0.19282,-0.18205 -0.28317,-0.27342 -0.0423,-0.0428 -0.0821,-0.0839 -0.12109,-0.125 -0.0925,-0.0974 -0.18114,-0.19516 -0.26756,-0.29491 -0.0391,-0.0452 -0.0723,-0.0815 -0.0957,-0.10937 -0.11158,-0.13286 -0.21745,-0.26504 -0.31637,-0.39646 -0.0157,-0.0208 -0.0364,-0.0496 -0.0645,-0.0879 a 0.50000391,0.50002887 0 0 0 0,-0.002 c -0.0812,-0.11046 -0.15809,-0.2201 -0.2324,-0.33007 -0.0261,-0.0386 -0.0518,-0.0771 -0.0781,-0.11718 -0.0669,-0.10196 -0.13093,-0.20164 -0.19139,-0.30077 a 0.50000391,0.50002887 0 0 0 0,-0.002 c -0.0229,-0.0372 -0.0387,-0.0613 -0.043,-0.0684 a 0.50000391,0.50002887 0 0 0 -0.20701,-0.18945 c -4.8e-4,-2.4e-4 -0.0272,-0.0151 -0.0625,-0.0332 h -0.002 c -0.0198,-0.0102 -0.0327,-0.0187 -0.0488,-0.0273 a 0.50000391,0.50002887 0 0 0 -0.002,0 c -0.10393,-0.0548 -0.22244,-0.12255 -0.35934,-0.20898 -0.0435,-0.0274 -0.0954,-0.0612 -0.15233,-0.0996 a 0.50000391,0.50002887 0 0 0 0,-0.004 c -0.0388,-0.0261 -0.0644,-0.041 -0.084,-0.0547 -0.0916,-0.0641 -0.18343,-0.13154 -0.27927,-0.20702 a 0.50000391,0.50002887 0 0 0 -0.0332,-0.0215 c -0.094,-0.0627 -0.1846,-0.12958 -0.27342,-0.20116 -0.62168,-0.50165 -1.12164,-1.22519 -1.50572,-2.05461 a 0.50000391,0.50002887 0 0 0 -0.002,-0.008 c -0.0722,-0.15164 -0.14025,-0.31075 -0.20506,-0.47849 a 0.50000391,0.50002887 0 0 0 -0.002,-0.004 c -0.0111,-0.0278 -0.0235,-0.0605 -0.0371,-0.0957 a 0.50000391,0.50002887 0 0 0 -0.0117,-0.0254 0.50000391,0.50002887 0 0 0 0,-0.004 0.50000391,0.50002887 0 0 0 0,-0.002 0.50000391,0.50002887 0 0 0 -0.004,-0.006 c -0.007,-0.0179 -0.0136,-0.037 -0.0137,-0.0371 l 0.0176,0.043 c -0.77237,-2.03631 -0.91765,-4.46468 -0.85539,-5.34548 0.11282,-1.45272 0.87865,-3.00739 1.9217,-4.33575 1.0439,-1.32946 2.36427,-2.43022 3.47429,-3.00378 0.1706,-0.0881 0.33467,-0.16412 0.49213,-0.22655 a 0.50000391,0.50002887 0 0 0 0.002,0 c 0.08,-0.0318 0.15591,-0.0601 0.22849,-0.084 0.0734,-0.0241 0.14621,-0.0464 0.21678,-0.0644 0.13989,-0.0358 0.26873,-0.0571 0.38278,-0.0664 0.17539,-0.0142 0.34499,-0.0313 0.50972,-0.0488 a 0.50000391,0.50002887 0 0 0 0.002,0 c 0.16532,-0.0176 0.32567,-0.0362 0.48043,-0.0566 0.15508,-0.0206 0.30495,-0.0428 0.45112,-0.0664 0.14628,-0.0236 0.28931,-0.048 0.42574,-0.0742 0.13724,-0.0264 0.26876,-0.0553 0.39646,-0.084 a 0.50000391,0.50002887 0 0 0 0.002,0 c 0.12809,-0.0289 0.25264,-0.0584 0.37301,-0.0898 0.24042,-0.0626 0.46366,-0.1298 0.67377,-0.20116 0.46644,-0.15841 0.86099,-0.33805 1.19715,-0.52732 0.11103,-0.0625 0.21754,-0.12543 0.31833,-0.1914 0.10094,-0.066 0.19445,-0.13385 0.28123,-0.19921 0.0866,-0.0652 0.17067,-0.13095 0.24997,-0.19921 0.0787,-0.0676 0.14974,-0.13414 0.21678,-0.19921 0.47616,-0.4617 0.74233,-0.88956 0.92961,-1.08199 0.0271,-0.0279 0.0512,-0.0507 0.0723,-0.0684 a 0.50000391,0.50002887 0 0 0 0.002,0 c 0.0222,-0.0187 0.0438,-0.0345 0.0606,-0.0449 0.12132,-0.0758 0.16838,-0.10833 0.19335,-0.125 a 0.50000391,0.50002887 0 0 0 0.19529,-0.25194 c 0.12837,-0.36867 0.30279,-0.82253 0.56441,-1.44915 a 0.50000391,0.50002887 0 0 0 0.0176,-0.0508 c 0.0453,-0.15367 0.0924,-0.25868 0.14061,-0.34765 0.034,-0.0626 0.05,-0.0903 0.0254,-0.0508 a 0.50000391,0.50002887 0 0 0 0,-0.002 l 0.002,-0.004 c 0.007,-0.0109 0.0166,-0.0216 0.0469,-0.0566 a 0.50000391,0.50002887 0 0 0 0,-0.002 c 0.0387,-0.0452 0.005,-0.0104 0,-0.006 0,0 0.002,0 0.002,0 0.008,0.005 0.013,0.008 0.0234,0.0156 0.0617,0.0448 0.1559,0.14394 0.24021,0.27342 0.0278,0.0427 0.0543,0.0871 0.0781,0.13086 0.001,0.003 0.003,0.005 0.004,0.008 0.0519,0.0965 0.0977,0.20027 0.13281,0.30077 0.0351,0.10079 0.058,0.19801 0.0703,0.27928 l -0.004,-0.0332 c 0.0133,0.16154 0.0435,0.31033 0.0781,0.44529 a 0.50000391,0.50002887 0 0 0 0.002,0.0117 c 0.0164,0.0584 0.0201,0.0653 0.008,0.0215 a 0.50000391,0.50002887 0 0 0 0.24802,0.30467 0.50000391,0.50002887 0 0 0 0.0449,0.39648 c -0.005,-0.008 0.01,0.0145 0.0137,0.0215 a 0.50000391,0.50002887 0 0 0 0.004,0.006 c 0.005,0.009 -0.002,5.9e-4 0.01,0.0176 0.0339,0.0565 0.0685,0.1126 0.10546,0.16601 0.0106,0.0154 0.0256,0.0374 0.0469,0.0664 0.0385,0.0527 0.0763,0.10017 0.11132,0.14258 a 0.50000391,0.50002887 0 0 0 0,0.002 c 0.009,0.0104 0.0179,0.0205 0.0156,0.0176 a 0.50000391,0.50002887 0 0 0 0.0156,0.0195 c 0.0555,0.0642 0.0836,0.0894 0.10155,0.10741 0.003,0.003 0.015,0.0169 0.0156,0.0176 0.005,0.006 0.009,0.009 0.0117,0.0117 -4.5e-4,-4.6e-4 0.007,0.009 0.006,0.008 a 0.50000391,0.50002887 0 0 0 0.004,0.006 0.50000391,0.50002887 0 0 0 0.002,0.002 c 0.003,0.003 0.002,0.003 0.008,0.008 a 0.50000391,0.50002887 0 0 0 0.0293,0.0234 0.50000391,0.50002887 0 0 0 0.002,0.002 c 0.003,0.002 0.01,0.008 0.01,0.008 a 0.50000391,0.50002887 0 0 0 0.5644,0.0332 0.50000391,0.50002887 0 0 0 0.17186,-0.0371 c 0.0624,-0.0261 0.0718,-0.0341 0.0391,-0.0195 a 0.50000391,0.50002887 0 0 0 0.28903,-0.54099 c -2.2e-4,-0.001 -0.002,-0.006 -0.002,-0.008 a 0.50000391,0.50002887 0 0 0 0,-0.004 0.50000391,0.50002887 0 0 0 -0.002,-0.008 c -10e-4,-0.006 -0.002,-0.008 -0.004,-0.0176 0,0 0,-0.002 0,-0.002 a 0.50000391,0.50002887 0 0 0 -0.004,-0.0137 0.50000391,0.50002887 0 0 0 -0.57027,-0.36521 c -0.0487,-0.0642 -0.0987,-0.12782 -0.14647,-0.19921 a 0.50000391,0.50002887 0 0 0 -0.006,-0.008 c 0.0449,-0.01 0.0948,-0.0222 0.13866,-0.0312 0.0808,-0.0169 0.15733,-0.0306 0.24022,-0.0469 0.11683,-0.023 0.2294,-0.0441 0.33395,-0.0625 0.0799,-0.0141 0.15741,-0.0271 0.2324,-0.0391 0.0826,-0.0133 0.16174,-0.0259 0.24216,-0.0371 a 0.50000391,0.50002887 0 0 0 0.002,0 c 0.0807,-0.0114 0.15766,-0.0234 0.22264,-0.0312 0.0372,-0.004 0.0517,-0.006 0.0332,-0.004 a 0.50000391,0.50002887 0 0 0 0.42354,-0.38124 c 0.013,-0.0553 0.0151,-0.0775 0.008,-0.0371 a 0.50000391,0.50002887 0 0 0 0.002,-0.0137 c 0.009,-0.0549 0.0156,-0.1097 0.0215,-0.16601 a 0.50000391,0.50002887 0 0 0 0,-0.0117 c 0.006,-0.0702 0.0156,-0.15992 0.0156,-0.26952 0,-0.56859 0.23742,-1.0227 0.47651,-1.27925 a 0.50000391,0.50002887 0 0 0 0,-0.002 c 0.0135,-0.0146 0.0273,-0.0257 0.041,-0.0391 a 0.50000391,0.50002887 0 0 0 0,0.004 c 1.1e-4,9.9e-4 0.002,0.0199 0.006,0.0566 0.007,0.0718 0.0159,0.13132 0.0215,0.17577 a 0.50000391,0.50002887 0 0 0 0,0.002 c 0.0126,0.0969 0.0276,0.19305 0.0469,0.28905 0.008,0.0407 0.0174,0.0904 0.0312,0.14843 0.0266,0.11179 0.0572,0.21974 0.0918,0.3242 0.0146,0.0439 0.0277,0.0831 0.041,0.11914 0.0323,0.0876 0.0669,0.17239 0.10546,0.25584 0.0206,0.0448 0.0406,0.0839 0.0586,0.11914 0.0339,0.0662 0.0688,0.12967 0.1035,0.18749 0.0137,0.0228 0.0335,0.0568 0.0645,0.10352 0.0515,0.0782 0.10699,0.15507 0.1699,0.23046 a 0.50000391,0.50002887 0 0 0 0.80071,-0.0469 c -0.006,0.009 8.1e-4,0.003 0.0215,-0.0312 a 0.50000391,0.50002887 0 0 0 0.008,-0.0137 c 0.0209,-0.0374 0.0479,-0.0803 0.082,-0.12694 a 0.50000391,0.50002887 0 0 0 0.004,-0.002 c 0.0225,-0.0313 0.0276,-0.0403 0.0176,-0.0273 0.0356,-0.0461 0.074,-0.0917 0.11718,-0.13672 0.007,-0.008 0.0132,-0.0126 0.0195,-0.0195 0.0312,-0.0318 0.0697,-0.0665 0.11718,-0.10741 0.0395,-0.0341 0.0535,-0.0498 0.0449,-0.043 0.0552,-0.0446 0.10938,-0.0843 0.16014,-0.11718 a 0.50000391,0.50002887 0 0 0 0.20115,-0.58005 c -0.0789,-0.23038 -0.0979,-0.34845 -0.0977,-0.35156 2.3e-4,-0.003 -0.0264,-0.003 0.12304,-0.13866 0.0504,-0.0458 0.1179,-0.0997 0.20115,-0.1621 0.0831,-0.0623 0.18501,-0.13427 0.30466,-0.21483 a 0.50000391,0.50002887 0 0 0 0.14452,-0.67966 c -0.0472,-0.0758 -0.0459,-0.10295 -0.0293,-0.18359 0.0166,-0.0806 0.0729,-0.20414 0.16405,-0.33592 0.0911,-0.13179 0.20997,-0.26833 0.32419,-0.40038 0.11423,-0.13204 0.22401,-0.22808 0.32224,-0.44529 a 0.50000391,0.50002887 0 0 0 0.002,-0.40623 c -0.0288,-0.066 -0.0266,-0.0911 -0.01,-0.15429 0.0171,-0.0632 0.0668,-0.15819 0.15038,-0.26757 0.16708,-0.21877 0.44755,-0.45505 0.67766,-0.74216 a 0.50000391,0.50002887 0 0 0 0.0566,-0.53904 c -0.0606,-0.11985 -0.0513,-0.15182 -0.0351,-0.20702 0.0161,-0.0552 0.0674,-0.1429 0.1621,-0.24022 0.0276,-0.0283 0.0584,-0.0556 0.0898,-0.084 0.12751,-0.11474 0.28183,-0.22401 0.4316,-0.35935 0.0447,-0.0404 0.0907,-0.10817 0.13671,-0.16406 z m -9.60654,5.63648 c 7e-5,0 0.0356,0.498 0.0352,0.49803 -4e-4,3e-5 -0.0255,0.002 -0.0254,0.002 10e-6,0 -0.008,1.4e-4 -0.01,0 -0.006,-5.2e-4 -0.0181,-0.002 -0.0352,-0.004 0.003,-0.002 0.004,-0.006 0.004,-0.006 l 0.004,-0.002 a 0.50000391,0.50002887 0 0 0 0.002,0 c 0.0458,-0.0199 0.0527,-0.0238 0.0195,-0.01 l -0.0312,0.0117 c 0,0 -0.002,0 -0.002,0 -0.007,0.001 -0.0115,0.002 -0.0176,0.002 a 0.50000391,0.50002887 0 0 0 0.0332,-0.17382 l -0.0508,0.17382 c -0.002,-1.8e-4 -0.004,1.4e-4 -0.006,0 -0.002,-1.4e-4 -0.005,10e-5 -0.006,0 l -0.043,-0.01 z m 0.71672,1.45111 c -0.002,0.002 -0.007,0.011 -0.01,0.0137 -0.003,0.004 -0.0203,0.0196 -0.0215,0.0215 -0.003,0.004 0.0258,-0.0266 0.0312,-0.0352 z m -0.0625,0.0762 c -0.005,0.008 -0.002,0.01 -0.006,0.0176 -0.006,0.0101 -0.006,0.002 -0.0117,0.0137 z m 1.51744,1.54486 0.0449,0.0723 -0.0644,-0.0215 a 0.50000391,0.50002887 0 0 0 0.0195,-0.0508 z m -0.54682,0.33592 a 0.50000391,0.50002887 0 0 0 0.0273,0.004 l -0.0273,-0.002 c 0,0 0,-0.002 0,-0.002 z" />
    <path
       id="path943-4-6-7"
       style="color:#000000;font-style:normal;font-variant:normal;font-weight:normal;font-stretch:normal;font-size:medium;line-height:normal;font-family:sans-serif;font-variant-ligatures:normal;font-variant-position:normal;font-variant-caps:normal;font-variant-numeric:normal;font-variant-alternates:normal;font-variant-east-asian:normal;font-feature-settings:normal;font-variation-settings:normal;text-indent:0;text-align:start;text-decoration:none;text-decoration-line:none;text-decoration-style:solid;text-decoration-color:#000000;letter-spacing:normal;word-spacing:normal;text-transform:none;writing-mode:lr-tb;direction:ltr;text-orientation:mixed;dominant-baseline:auto;baseline-shift:baseline;text-anchor:start;white-space:normal;shape-padding:0;shape-margin:0;inline-size:0;clip-rule:nonzero;display:inline;overflow:visible;visibility:visible;isolation:auto;mix-blend-mode:normal;color-interpolation:sRGB;color-interpolation-filters:linearRGB;solid-color:#000000;solid-opacity:1;vector-effect:none;fill:#721d1d;fill-opacity:1;fill-rule:nonzero;stroke:none;stroke-width:0.999933;stroke-linecap:round;stroke-linejoin:round;stroke-miterlimit:4;stroke-dasharray:none;stroke-dashoffset:0;stroke-opacity:1;color-rendering:auto;image-rendering:auto;shape-rendering:auto;text-rendering:auto;enable-background:accumulate;stop-color:#000000"
       d="m 40.29009,13.00058 c -0.0402,6.3e-4 -0.0748,0.0127 -0.11131,0.0195 v -0.004 h -0.002 a 0.50000391,0.50002887 0 0 0 -0.0391,0.0117 c -0.0181,0.005 -0.039,0.004 -0.0566,0.01 -0.0646,0.0211 -0.12192,0.0486 -0.17577,0.082 -0.25714,0.15892 -0.41784,0.39962 -0.56245,0.72849 l 0.0176,-0.0391 c -0.17517,0.32176 -0.37976,0.5603 -0.57807,0.82808 -0.17672,0.23863 -0.32526,0.56065 -0.3613,0.92965 -0.003,0.003 0.009,-0.0129 -0.0117,0.006 -0.0772,0.0698 -0.24943,0.19522 -0.42964,0.35741 -0.0454,0.0409 -0.0916,0.0846 -0.13671,0.13085 -0.15961,0.16406 -0.32374,0.37368 -0.40621,0.65622 -0.0451,0.15449 0.0326,0.33726 0.0566,0.51365 -0.14656,0.15763 -0.36699,0.35671 -0.58979,0.64841 -0.13053,0.17094 -0.25391,0.36938 -0.32028,0.61521 -0.0363,0.13439 0.0172,0.29262 0.0312,0.4453 -0.01,0.006 -0.0458,0.0609 -0.13671,0.166 -0.11145,0.12885 -0.2561,0.29184 -0.39059,0.48631 -0.13448,0.19447 -0.26434,0.42248 -0.32224,0.70309 -0.0254,0.1229 0.0549,0.26313 0.0703,0.40038 -0.0351,0.0251 -0.0768,0.0537 -0.10937,0.0781 -0.10233,0.0767 -0.19307,0.14972 -0.27342,0.22265 -0.24303,0.22074 -0.42707,0.50303 -0.44918,0.80661 -0.011,0.15094 0.0439,0.25132 0.0742,0.37107 -0.014,0.0128 -0.0378,0.0358 -0.0371,0.0352 -0.0236,0.0203 -0.0521,0.0489 -0.0781,0.0723 -0.006,-0.0159 -0.0135,-0.0284 -0.0195,-0.0449 a 0.50000391,0.50002887 0 0 0 -0.002,-0.002 c -0.0118,-0.032 -0.0203,-0.0588 -0.0293,-0.0859 -0.0248,-0.0749 -0.0479,-0.15638 -0.0684,-0.24218 -0.006,-0.0258 -0.0143,-0.063 -0.0234,-0.10936 a 0.50000391,0.50002887 0 0 0 0,-0.002 c -0.0136,-0.068 -0.025,-0.1426 -0.0352,-0.22069 v -0.002 c -0.008,-0.0627 -0.0164,-0.10803 -0.0195,-0.14453 a 0.50000391,0.50002887 0 0 0 0,-0.0137 c 2e-5,1.1e-4 -0.003,-0.0197 -0.004,-0.0332 v -0.004 c -0.007,-0.0976 -0.0101,-0.19031 -0.01,-0.28124 a 0.50000391,0.50002887 0 0 0 0,-0.004 c 0,-0.18009 -0.0423,-0.37717 -0.17772,-0.54295 -0.0655,-0.0802 -0.15463,-0.15198 -0.25388,-0.19725 a 0.50000391,0.50002887 0 0 0 -0.18749,-0.043 c -0.0313,-0.005 -0.0662,-0.0222 -0.0957,-0.0234 a 0.50000391,0.50002887 0 0 0 -0.008,0 c -0.0834,-0.002 -0.16434,0.008 -0.24411,0.0273 a 0.50000391,0.50002887 0 0 0 -0.004,0 c -0.0755,0.0187 -0.14617,0.0452 -0.21678,0.0781 -0.0675,0.0314 -0.13453,0.0691 -0.20115,0.11327 -0.0663,0.044 -0.12885,0.0924 -0.18944,0.14453 -0.0606,0.0521 -0.12245,0.1102 -0.18162,0.17382 -0.39541,0.42505 -0.70124,1.0971 -0.72064,1.90226 -0.0502,0.007 -0.0987,0.0129 -0.15233,0.0215 -0.0806,0.0128 -0.1627,0.0259 -0.24803,0.041 -0.11473,0.0202 -0.23332,0.0428 -0.35347,0.0664 -0.0801,0.0157 -0.16129,0.0319 -0.25194,0.0508 -0.067,0.0141 -0.14332,0.0336 -0.21287,0.0488 -0.0146,-0.0601 -0.0279,-0.12011 -0.0469,-0.17968 a 0.50000391,0.50002887 0 0 0 -0.0195,-0.0781 c -0.0451,-0.12888 -0.10351,-0.25385 -0.166,-0.37694 -9.3e-4,-0.002 -9.5e-4,-0.004 -0.002,-0.006 a 0.50000391,0.50002887 0 0 0 -0.0273,-0.0605 0.50000391,0.50002887 0 0 0 0,-0.002 c -0.0314,-0.0583 -0.0659,-0.11241 -0.0996,-0.166 a 0.50000391,0.50002887 0 0 0 -0.0254,-0.043 c -0.13285,-0.20403 -0.2888,-0.39046 -0.49018,-0.53709 -0.0676,-0.0492 -0.14072,-0.0946 -0.22068,-0.13085 a 0.50000391,0.50002887 0 0 0 -0.002,0 c -0.0756,-0.0342 -0.16066,-0.0605 -0.25388,-0.0762 0,0 0,-0.002 0,-0.002 -0.003,-5.8e-4 -0.008,-9.5e-4 -0.0117,-0.002 a 0.50000391,0.50002887 0 0 0 -0.006,0 0.50000391,0.50002887 0 0 0 0,-0.002 c -0.002,-3.6e-4 -0.005,3.4e-4 -0.008,0 a 0.50000391,0.50002887 0 0 0 -0.0645,-0.004 c -0.002,-1.4e-4 -0.01,0 -0.01,0 0,0 -10e-6,0.0112 0,0.0117 -0.10766,-0.006 -0.21933,-0.008 -0.3281,0.0273 a 0.50000391,0.50002887 0 0 0 -0.006,0 c 0.0478,-0.0159 0.0425,-0.0154 -0.0195,0.006 a 0.50000391,0.50002887 0 0 0 -0.0371,0.0156 c -0.0391,0.0167 -0.0347,0.0139 -0.0195,0.008 0,0 -0.002,0 -0.002,0 0,0 -0.002,0.002 -0.002,0.002 -0.0669,0.0289 -0.12279,0.0845 -0.18358,0.1289 a 0.50000391,0.50002887 0 0 0 -0.14647,0.0996 c -0.011,0.011 0.003,-0.001 -0.006,0.008 -0.0681,0.0715 -0.0914,0.10839 -0.0488,0.0586 -0.0321,0.0372 -0.0857,0.10037 -0.13866,0.18554 0,0 -0.002,0.002 -0.002,0.002 a 0.50000391,0.50002887 0 0 0 -0.0293,0.0566 c -0.005,0.0112 -0.0267,0.0489 -0.0234,0.043 a 0.50000391,0.50002887 0 0 0 0,0.002 c -0.081,0.14943 -0.15729,0.32603 -0.22068,0.54099 -0.22317,0.53655 -0.37737,0.93397 -0.50386,1.28705 -0.0175,0.0111 -0.0115,0.009 -0.0371,0.0254 v -0.002 c -0.0638,0.0397 -0.12083,0.0844 -0.17381,0.12891 v -0.002 c -0.0543,0.0454 -0.10309,0.0921 -0.14842,0.13867 -0.32174,0.33058 -0.52688,0.69082 -0.90812,1.0605 -0.0554,0.0537 -0.11303,0.10789 -0.17382,0.16015 -0.0599,0.0515 -0.12708,0.10387 -0.19919,0.15819 -0.072,0.0542 -0.14691,0.10807 -0.22655,0.16016 -0.0798,0.0522 -0.1678,0.10533 -0.26169,0.15819 -0.27921,0.1572 -0.61475,0.31106 -1.02725,0.45115 -0.18563,0.063 -0.38684,0.12277 -0.60541,0.17968 -0.10884,0.0284 -0.22372,0.0573 -0.34177,0.084 -0.11848,0.0266 -0.24051,0.0518 -0.36715,0.0762 -0.12741,0.0244 -0.25847,0.0483 -0.39449,0.0703 -0.13616,0.022 -0.27932,0.041 -0.42575,0.0606 -0.14679,0.0195 -0.2989,0.0381 -0.45503,0.0547 -0.1568,0.0167 -0.31751,0.0333 -0.48434,0.0469 -0.18081,0.0147 -0.36325,0.0463 -0.54877,0.0937 a 0.50000391,0.50002887 0 0 0 -0.002,0 c -0.0918,0.0235 -0.18572,0.0506 -0.28123,0.082 -0.0964,0.0317 -0.19053,0.0679 -0.28513,0.10547 -0.19206,0.0762 -0.38689,0.16578 -0.58393,0.26756 -1.28151,0.66218 -2.67176,1.83785 -3.80043,3.27526 -1.12866,1.43741 -1.99872,3.1383 -2.13261,4.87869 a 0.50000391,0.50002887 0 0 0 0,0.004 c -0.0761,1.07592 0.0777,3.4559 0.88859,5.65992 0,0 0.002,0.002 0.002,0.002 0.003,0.008 9.1e-4,0.0156 0.004,0.0234 0.007,0.0185 0.007,0.0362 0.0137,0.0547 a 0.50000391,0.50002887 0 0 0 0.004,0.0176 c 0.002,0.004 0.002,0.008 0.004,0.0117 a 0.50000391,0.50002887 0 0 0 0.002,0.008 c -10e-4,-0.004 0.01,0.0228 0.0156,0.0371 0.0116,0.0302 0.023,0.0622 0.0371,0.0977 0.0729,0.18846 0.15136,0.36858 0.23435,0.54295 0.42881,0.92494 1.00096,1.7786 1.78108,2.4081 a 0.50000391,0.50002887 0 0 0 0.002,0 0.50000391,0.50002887 0 0 0 0.0488,0.0371 c 0.0966,0.0759 0.19407,0.15022 0.29684,0.21874 0.10134,0.0788 0.2007,0.15284 0.29489,0.21875 0.0436,0.0305 0.0749,0.0491 0.0977,0.0645 0.0558,0.0376 0.11499,0.0776 0.17772,0.11718 0.15865,0.10016 0.29931,0.18136 0.42574,0.24804 0.003,0.002 0.005,0.002 0.008,0.004 0.0579,0.0939 0.11755,0.18659 0.17966,0.28124 0.0275,0.0419 0.0545,0.0851 0.084,0.12889 a 0.50000391,0.50002887 0 0 0 0.002,0 c 0.0815,0.12053 0.1665,0.24178 0.25584,0.36326 0.0173,0.0238 0.0401,0.0555 0.0703,0.0957 a 0.50000391,0.50002887 0 0 0 0,0.002 c 0.11146,0.14807 0.22842,0.29323 0.34958,0.43748 0.0414,0.0494 0.0781,0.0894 0.10546,0.12109 0.0958,0.11054 0.19542,0.21919 0.2988,0.32811 0.0458,0.0483 0.0918,0.0952 0.13671,0.14062 0.10323,0.10441 0.21022,0.20718 0.31833,0.30662 0.0451,0.0414 0.097,0.0915 0.1621,0.14844 0.025,0.0218 0.0487,0.0417 0.0684,0.0586 0.11171,0.0959 0.22769,0.19062 0.34762,0.2832 0.005,0.004 0.0183,0.0157 0.041,0.0332 a 0.50000391,0.50002887 0 0 0 0.002,0 c 0.12951,0.0986 0.26173,0.19446 0.39645,0.28515 a 0.50000391,0.50002887 0 0 0 0.002,0 c 0.0301,0.0201 0.0596,0.0409 0.0898,0.0605 0.28163,0.18418 0.58179,0.35484 0.89836,0.5078 0.0304,0.0146 0.0643,0.0303 0.0996,0.0469 0.15659,0.0729 0.31861,0.1436 0.48823,0.20898 a 0.50000391,0.50002887 0 0 0 0.008,0.004 c 0.0247,0.009 0.0414,0.0136 0.0469,0.0156 0.15538,0.0586 0.31166,0.11148 0.47065,0.16015 0.0329,0.0101 0.0724,0.0222 0.11718,0.0352 0.17709,0.0513 0.35931,0.0986 0.54682,0.13866 0.11531,0.0247 0.23594,0.0477 0.35935,0.0684 a 0.50000391,0.50002887 0 0 0 0.002,0 c 0.0138,0.002 0.0269,0.004 0.0371,0.006 0.11022,0.0179 0.21937,0.0335 0.3281,0.0469 a 0.50000391,0.50002887 0 0 0 0.004,0 c 0.0535,0.006 0.10784,0.012 0.16209,0.0176 0.0833,0.008 0.16675,0.0152 0.25194,0.0215 a 0.50000391,0.50002887 0 0 0 0.004,0 c 0.0358,0.002 0.0827,0.009 0.13866,0.0117 0.10894,0.006 0.21994,0.0119 0.332,0.0137 0.0162,2.8e-4 0.0459,0.002 0.0918,0.002 0.13313,9.9e-4 0.26864,-0.003 0.40621,-0.008 a 0.50000391,0.50002887 0 0 0 0.004,0 c 0.0575,-0.002 0.10891,-0.006 0.15427,-0.008 a 0.50000391,0.50002887 0 0 0 0.004,0 c 0.0887,-0.004 0.17953,-0.01 0.27342,-0.0176 l -0.006,0.002 c 0.0623,-0.004 0.12501,-0.01 0.18553,-0.0156 0.10405,-0.01 0.20594,-0.0227 0.30661,-0.0352 a 0.50000391,0.50002887 0 0 0 0.004,0 c 0.0336,-0.004 0.0789,-0.009 0.13867,-0.0176 0.14684,-0.0201 0.29727,-0.0433 0.44917,-0.0703 0.0587,-0.0104 0.105,-0.0206 0.14062,-0.0273 a 0.50000391,0.50002887 0 0 0 0.002,0 c 0.11119,-0.0212 0.22508,-0.0427 0.34176,-0.0684 0.0583,-0.0129 0.11491,-0.0276 0.17186,-0.041 0.11264,-0.0264 0.22454,-0.0542 0.33786,-0.084 a 0.50000391,0.50002887 0 0 0 0.002,0 c 0.0503,-0.0133 0.10242,-0.0269 0.16013,-0.043 0.16027,-0.0443 0.32476,-0.0918 0.49215,-0.14452 4.0727,-1.16699 7.23687,-0.50597 9.54014,0.55856 2.30334,1.06469 3.7032,2.51663 4.25351,3.04284 a 0.50000391,0.50002887 0 0 0 0.0449,0.0391 c 0.0329,0.0313 0.068,0.0617 0.10155,0.0898 0.0727,0.0741 0.12903,0.19392 0.41988,0.21092 0.14543,0.009 0.34815,-0.0788 0.44137,-0.19139 0.0932,-0.11266 0.11163,-0.20827 0.12303,-0.27734 a 0.50000391,0.50002887 0 0 0 0,-0.006 c 0.0264,-0.17448 0.002,-0.27382 -0.0254,-0.40623 -0.0413,-0.19616 -0.11459,-0.42803 -0.21873,-0.7109 -0.13874,-0.37695 -0.33286,-0.8373 -0.58588,-1.35933 -0.44289,-0.91368 -1.06265,-2.01631 -1.85529,-3.16978 -0.22645,-0.32954 -0.46575,-0.66354 -0.72064,-0.99801 -1.40183,-1.83939 -3.23399,-3.70448 -5.49559,-5.02908 a 0.50000391,0.50002887 0 0 0 -0.01,-0.006 c -0.9758,-0.53804 -1.44721,-1.13801 -1.67562,-1.75578 -0.22841,-0.61778 -0.21088,-1.28547 -0.0742,-1.94719 0.0608,-0.29439 0.14588,-0.58689 0.23826,-0.86519 0.15672,-0.47213 0.28997,-0.83439 0.42575,-1.21675 0.4166,0.20651 0.98763,0.47001 1.76937,0.49998 0.88369,0.0339 1.94031,-0.25005 2.86302,-1.17573 0.1607,-0.16124 0.31676,-0.33971 0.4687,-0.53904 0.009,-0.0113 0.0168,-0.0238 0.0254,-0.0352 0.0187,0.004 0.0381,0.0102 0.0566,0.0137 a 0.50000391,0.50002887 0 0 0 0.0586,0.008 c 1.6572,0.28968 2.82337,-0.20318 3.95081,0 a 0.50000391,0.50002887 0 0 0 0.004,0 c 0.17516,0.0316 0.3517,0.0795 0.53511,0.14648 l -0.0312,-0.0137 c 0.39338,0.17421 0.88157,0.22643 1.45104,0.22655 0.56946,1.2e-4 1.19693,-0.07 1.76936,-0.24998 0.57243,-0.17996 1.12258,-0.4683 1.41589,-1.01168 0.22456,-0.41602 0.15178,-0.93927 -0.0684,-1.47455 0.0773,-0.0453 0.17765,-0.10935 0.24412,-0.14647 0.47307,-0.26429 0.8218,-0.51366 1.22058,-1.31441 a 0.50000391,0.50002887 0 0 0 0.0391,-0.11522 c 0.0192,-0.0872 0.0366,-0.17109 0.0488,-0.2539 0.0245,-0.16411 0.0339,-0.31727 0.0312,-0.46091 -0.003,-0.1421 -0.0185,-0.27619 -0.0449,-0.40038 v -0.002 c -0.0396,-0.1852 -0.10485,-0.3481 -0.17968,-0.48435 -0.05,-0.0911 -0.10268,-0.17 -0.15427,-0.23827 a 0.50000391,0.50002887 0 0 0 -0.002,-0.002 l -0.006,-0.006 a 0.50000391,0.50002887 0 0 0 -0.0312,-0.0371 0.50000391,0.50002887 0 0 0 -0.006,-0.008 c -0.10697,-0.13483 -0.18354,-0.22245 -0.21091,-0.25585 -0.0781,-0.45578 -0.3317,-0.86364 -0.74993,-1.0273 -0.41173,-0.16112 -0.87088,-0.0646 -1.29871,0.18749 -1.78563,-0.29264 -3.49687,-0.16526 -4.22227,-0.2246 -1.66102,-0.23799 -3.01372,-1.0635 -3.15401,-1.15034 -0.015,-0.20436 0.12237,-0.39571 -0.0273,-0.56833 -0.31185,-0.3595 -0.82816,-0.53902 -1.58383,-0.57615 -0.0768,-0.0262 -0.15444,-0.0528 -0.23436,-0.084 a 0.50000391,0.50002887 0 0 0 -0.002,0 c -0.004,-10e-4 -0.008,-0.003 -0.0117,-0.004 -0.0576,-0.0226 -0.11881,-0.0487 -0.18553,-0.0762 -0.0397,-0.0164 -0.0711,-0.0306 -0.0957,-0.041 -0.0816,-0.0344 -0.16693,-0.0697 -0.24998,-0.10547 -4.2e-4,-0.0278 -4.3e-4,-0.0587 -0.006,-0.10741 a 0.50000391,0.50002887 0 0 0 0,-0.002 c -10e-4,-0.0126 -0.004,-0.0276 -0.006,-0.041 0.0136,-0.011 0.0339,-0.0139 0.0469,-0.0254 0.28738,-0.25391 0.41483,-0.59821 0.44916,-0.92574 0.0147,-0.14037 -0.0526,-0.2674 -0.0703,-0.40428 0.21326,-0.1402 0.38963,-0.32649 0.46285,-0.52342 0.16388,-0.44075 0.074,-0.79804 0.0156,-1.13276 0.17656,-0.13586 0.35192,-0.27963 0.43941,-0.46678 0.0922,-0.19684 0.13555,-0.40611 0.14451,-0.6113 0.005,-0.10705 5.8e-4,-0.20744 -0.01,-0.30078 a 0.50000391,0.50002887 0 0 0 -0.002,-0.004 c -0.005,-0.0449 -0.0269,-0.0864 -0.0351,-0.13085 0.0206,-0.0148 0.0508,-0.0173 0.0703,-0.0332 a 0.50000391,0.50002887 0 0 0 0.002,0 c 0.0326,-0.0267 0.0565,-0.0546 0.084,-0.082 0.003,-0.003 0.007,-0.003 0.01,-0.006 a 0.50000391,0.50002887 0 0 0 0.043,-0.043 c 0.25196,-0.27789 0.34989,-0.61337 0.39059,-0.92184 a 0.50000391,0.50002887 0 0 0 0,-0.002 c 0.0135,-0.10231 0.0207,-0.2016 0.0234,-0.30077 0.002,-0.0565 -0.005,-0.10191 -0.006,-0.15624 0.0324,-0.0204 0.0579,-0.044 0.0859,-0.0664 a 0.50000391,0.50002887 0 0 0 0.0606,-0.0449 0.50000391,0.50002887 0 0 0 0.0156,-0.0137 0.50000391,0.50002887 0 0 0 0.002,-0.002 c 0.35205,-0.33549 0.41266,-0.75801 0.44721,-1.10737 0.0243,-0.24547 0.0132,-0.38109 0.01,-0.52146 0.0579,-0.0531 0.13024,-0.0979 0.17772,-0.15624 0.23243,-0.28586 0.31506,-0.61472 0.34957,-0.8906 0.0328,-0.26196 0.0354,-0.48874 0.0645,-0.69919 0.0371,-0.0863 0.0769,-0.1726 0.0996,-0.25585 0.0642,-0.23518 0.0937,-0.46392 -0.0332,-0.71872 -0.0207,-0.0415 -0.0927,-0.0399 -0.12694,-0.0781 A 0.50000391,0.50002887 0 0 0 40.2893,13.00006 Z m -0.59174,2.06827 c -0.0218,0.0773 -0.0333,0.17093 -0.0801,0.22851 -0.0237,0.0292 -0.0686,0.063 -0.10937,0.0957 0.032,-0.0552 0.0164,-0.0795 0.0762,-0.16015 0.0283,-0.0382 0.0798,-0.12086 0.11327,-0.16406 z m -0.39254,0.35155 0.0332,0.12109 a 0.50000391,0.50002887 0 0 0 -0.0312,0.0449 c -0.0113,-0.0608 0.0292,-0.11366 -0.002,-0.16601 z m -0.0879,0.73044 c 10e-4,0.1187 0.008,0.2184 -0.006,0.35741 -0.0247,0.24972 -0.11827,0.45825 -0.14062,0.48044 a 0.50000391,0.50002887 0 0 0 0,0.002 0.50000391,0.50002887 0 0 0 -0.002,0 l -0.002,0.002 c 0.003,-9.6e-4 -0.003,8.4e-4 -0.0195,0.002 a 0.50000391,0.50002887 0 0 0 -0.46481,0.54881 c 0.0139,0.139 0.0236,0.28714 0.0195,0.42381 a 0.50000391,0.50002887 0 0 0 0,0.002 c -0.002,0.0691 -0.007,0.13592 -0.0156,0.19921 -0.0248,0.1883 -0.0822,0.31858 -0.13865,0.38085 -0.0114,0.0126 -0.0219,0.0233 -0.0293,0.0293 -0.0302,0.0246 -0.067,0.0448 -0.13476,0.0606 a 0.50000391,0.50002887 0 0 0 -0.34567,0.68551 c 0.0428,0.0985 0.0721,0.2052 0.084,0.30663 0.006,0.0549 0.008,0.1023 0.006,0.14062 a 0.50000391,0.50002887 0 0 0 -0.002,0.006 c -0.004,0.0925 -0.0236,0.17237 -0.0508,0.23046 -0.0342,0.0732 -0.0735,0.11796 -0.14452,0.15625 -0.0136,0.007 -0.0295,0.0148 -0.0469,0.0215 a 0.50000391,0.50002887 0 0 0 -0.30661,0.58981 c 0.0445,0.17463 0.0783,0.72908 0.0117,0.90817 -0.0266,0.0715 -0.0329,0.0609 -0.0234,0.0566 0.006,-0.003 0.004,-0.002 -0.004,0 0.003,-5.1e-4 -0.007,0.002 -0.0273,0.002 a 0.50000391,0.50002887 0 0 0 -0.457,0.72653 c 0.0443,0.0871 0.0769,0.24696 0.0625,0.38475 -0.0145,0.13779 -0.0667,0.23855 -0.11717,0.28319 -0.0223,0.0197 -0.0472,0.033 -0.0898,0.0449 a 0.50000391,0.50002887 0 0 0 -0.33981,0.6406 c 0,0 0.002,0.003 0.004,0.008 8.5e-4,0.003 0.002,0.006 0.004,0.01 4.7e-4,0.001 0.004,0.0109 0.008,0.0195 -0.0163,-0.0419 -5.7e-4,4.7e-4 0.0117,0.043 a 0.50000391,0.50002887 0 0 0 0.002,0.0117 c 0.007,0.0217 0.006,0.0172 0.0176,0.0723 0.002,0.0106 0.006,0.032 0.006,0.0332 0.002,0.0122 0.002,0.0254 0.004,0.0449 -2e-4,-0.001 9.5e-4,0.0108 0.002,0.0391 8.9e-4,0.0497 -0.007,0.0684 -0.002,0.0566 a 0.50000391,0.50002887 0 0 0 0.26365,0.67575 l 0.01,0.004 c 0.003,0.001 0.009,0.003 0.0117,0.004 0.18272,0.0758 0.37579,0.16079 0.57806,0.24609 0.0421,0.0178 0.0764,0.0318 0.10351,0.043 0.0669,0.0276 0.13949,0.0578 0.21677,0.0879 0.10824,0.0422 0.21693,0.0822 0.3281,0.11914 a 0.50000391,0.50002887 0 0 0 0.14257,0.0254 c 0.66258,0.0206 0.91445,0.1935 0.95498,0.24022 0.002,0.003 1e-5,-2.2e-4 0.002,0.002 a 0.50000391,0.50002887 0 0 0 0.14257,0.70115 c 0,0 1.63633,1.06512 3.65981,1.3515 a 0.50000391,0.50002887 0 0 0 0.0293,0.002 c 0.97649,0.083 2.64577,-0.0696 4.3414,0.23827 a 0.50000391,0.50002887 0 0 0 0.38081,-0.0859 c 0.29989,-0.21553 0.47713,-0.20314 0.53706,-0.17968 0.0599,0.0235 0.13174,0.0767 0.14843,0.33593 a 0.50000391,0.50002887 0 0 0 0.0625,0.21092 c 0.13505,0.24204 0.27348,0.34702 0.3613,0.46287 0.0292,0.0387 0.0563,0.0755 0.0781,0.11523 0.033,0.06 0.0576,0.1254 0.0762,0.21289 0.0123,0.0576 0.02,0.12705 0.0215,0.21093 10e-4,0.083 -0.004,0.17992 -0.0215,0.2949 a 0.50000391,0.50002887 0 0 0 0,0.002 c -0.004,0.0298 -0.0115,0.0651 -0.0176,0.0977 -0.328,0.65599 -0.3149,0.59448 -0.78899,0.85933 -0.16272,0.0909 -0.37533,0.21239 -0.64252,0.38867 a 0.50000391,0.50002887 0 0 0 -0.14062,0.69137 c 0.3438,0.52254 0.31344,0.75672 0.21483,0.93941 -0.0986,0.18269 -0.39509,0.39327 -0.83391,0.53123 -0.43881,0.13795 -0.9876,0.20517 -1.47057,0.20507 -0.48296,-1e-4 -0.92465,-0.0865 -1.04678,-0.14062 a 0.50000391,0.50002887 0 0 0 -0.0293,-0.0117 c -0.23983,-0.0877 -0.4763,-0.15023 -0.70501,-0.1914 -1.48959,-0.26821 -2.6153,0.25158 -4.00549,-0.006 -0.10701,-0.0198 -0.21688,-0.0452 -0.32809,-0.0742 a 0.50000391,0.50002887 0 0 0 -0.54097,0.20508 c -0.063,0.094 -0.12631,0.18286 -0.18943,0.26561 -0.12703,0.16666 -0.25335,0.31349 -0.38083,0.44139 -0.73422,0.73658 -1.45776,0.90609 -2.11699,0.88082 -0.65923,-0.0253 -1.2486,-0.27755 -1.56431,-0.44724 a 0.50000391,0.50002887 0 0 0 -0.002,0 c -0.005,-0.003 -0.003,-9.1e-4 -0.008,-0.004 -0.15412,-0.0837 -0.2324,-0.13867 -0.2324,-0.13867 a 0.50000391,0.50002887 0 0 0 -0.77727,0.30272 c -0.0578,0.27046 -0.34684,0.92803 -0.59955,1.68939 -0.1012,0.30485 -0.19655,0.63261 -0.26756,0.97652 -0.15991,0.7744 -0.20002,1.64335 0.11522,2.49598 0.31524,0.85264 0.98976,1.65706 2.12872,2.28507 2.10608,1.23584 3.85033,3.00577 5.19288,4.76737 0.24446,0.32077 0.47567,0.64031 0.69329,0.95699 0.76161,1.10831 1.358,2.1721 1.77913,3.04089 0.0916,0.18899 0.134,0.31351 0.20897,0.48241 -0.79202,-0.69458 -1.84654,-1.51977 -3.44304,-2.25773 a 0.50000391,0.50002887 0 0 0 -0.16015,-0.043 C 36.55108,47.56062 33.17031,46.88824 28.94398,48.09978 a 0.50000391,0.50002887 0 0 0 -0.0137,0.004 c -0.1569,0.0496 -0.31102,0.0956 -0.46675,0.13866 a 0.50000391,0.50002887 0 0 0 -0.002,0 c -0.0465,0.0129 -0.0955,0.0251 -0.14843,0.0391 -0.10597,0.0278 -0.20988,0.0541 -0.31247,0.0781 -0.0539,0.0127 -0.10672,0.0258 -0.1582,0.0371 -0.10408,0.0229 -0.20915,0.0425 -0.31442,0.0625 -0.0551,0.0104 -0.0996,0.0198 -0.13084,0.0254 -0.13775,0.0245 -0.27311,0.046 -0.40817,0.0645 -0.0322,0.004 -0.0769,0.008 -0.13475,0.0156 -0.0945,0.0117 -0.18612,0.0231 -0.27341,0.0312 a 0.50000391,0.50002887 0 0 0 -0.002,0 c -0.0549,0.005 -0.10658,0.0101 -0.15818,0.0137 a 0.50000391,0.50002887 0 0 0 -0.006,0 c -0.0792,0.006 -0.1591,0.0118 -0.24021,0.0156 -0.0563,0.002 -0.10658,0.004 -0.15038,0.006 -0.12346,0.004 -0.2466,0.007 -0.36715,0.006 a 0.50000391,0.50002887 0 0 0 -0.004,0 c -0.0105,0 -0.034,-9.5e-4 -0.0742,-0.002 -0.0973,-0.002 -0.19559,-0.006 -0.29098,-0.0117 a 0.50000391,0.50002887 0 0 0 -0.006,0 c -0.0299,-10e-4 -0.071,-0.004 -0.12109,-0.008 h -0.004 c -0.0736,-0.005 -0.14811,-0.0122 -0.22068,-0.0195 h -0.002 c -0.0485,-0.005 -0.0984,-0.0119 -0.14646,-0.0176 l 0.004,0.002 c -0.10014,-0.0123 -0.19791,-0.0259 -0.29099,-0.041 -0.0131,-0.002 -0.0253,-0.004 -0.0352,-0.006 h -0.004 c -0.10274,-0.0172 -0.20465,-0.0384 -0.30858,-0.0606 a 0.50000391,0.50002887 0 0 0 -0.002,0 c -0.16326,-0.0349 -0.32194,-0.0758 -0.47847,-0.12108 -0.0285,-0.008 -0.0619,-0.0191 -0.10155,-0.0312 -0.14224,-0.0435 -0.28021,-0.0889 -0.41207,-0.13868 -0.0237,-0.009 -0.0374,-0.0142 -0.0469,-0.0176 l -0.008,-0.002 c -0.14098,-0.0546 -0.27827,-0.11559 -0.41597,-0.17968 h -0.002 c -0.0271,-0.0127 -0.0565,-0.0279 -0.0879,-0.043 v 0.002 c -0.27666,-0.13367 -0.53629,-0.28385 -0.78313,-0.44529 a 0.50000391,0.50002887 0 0 0 -0.002,0 c -0.0271,-0.0176 -0.0536,-0.035 -0.0801,-0.0527 -0.1205,-0.0811 -0.23684,-0.16377 -0.34763,-0.24802 l -0.002,-0.002 c -0.005,-0.004 -0.0174,-0.0141 -0.0371,-0.0293 l -0.002,-0.002 c -0.1033,-0.0798 -0.20591,-0.16334 -0.30466,-0.24803 l -0.002,-0.002 c -0.0224,-0.0192 -0.0435,-0.0359 -0.0606,-0.0508 -0.0406,-0.0355 -0.087,-0.08 -0.14452,-0.13281 -0.0983,-0.0904 -0.19282,-0.18205 -0.28317,-0.27342 -0.0423,-0.0428 -0.0821,-0.0839 -0.12109,-0.125 -0.0925,-0.0974 -0.18114,-0.19516 -0.26756,-0.29491 -0.0391,-0.0452 -0.0723,-0.0815 -0.0957,-0.10937 -0.11158,-0.13286 -0.21745,-0.26504 -0.31637,-0.39646 -0.0157,-0.0208 -0.0364,-0.0496 -0.0645,-0.0879 a 0.50000391,0.50002887 0 0 0 0,-0.002 c -0.0812,-0.11046 -0.15809,-0.2201 -0.2324,-0.33007 -0.0261,-0.0386 -0.0518,-0.0771 -0.0781,-0.11718 -0.0669,-0.10196 -0.13093,-0.20164 -0.19139,-0.30077 a 0.50000391,0.50002887 0 0 0 0,-0.002 c -0.0229,-0.0372 -0.0387,-0.0613 -0.043,-0.0684 a 0.50000391,0.50002887 0 0 0 -0.20701,-0.18945 c -4.8e-4,-2.4e-4 -0.0272,-0.0151 -0.0625,-0.0332 h -0.002 c -0.0198,-0.0102 -0.0327,-0.0187 -0.0488,-0.0273 a 0.50000391,0.50002887 0 0 0 -0.002,0 c -0.10393,-0.0548 -0.22244,-0.12255 -0.35934,-0.20898 -0.0435,-0.0274 -0.0954,-0.0612 -0.15233,-0.0996 a 0.50000391,0.50002887 0 0 0 0,-0.004 c -0.0388,-0.0261 -0.0644,-0.041 -0.084,-0.0547 -0.0916,-0.0641 -0.18343,-0.13154 -0.27927,-0.20702 a 0.50000391,0.50002887 0 0 0 -0.0332,-0.0215 c -0.094,-0.0627 -0.1846,-0.12958 -0.27342,-0.20116 -0.62168,-0.50165 -1.12164,-1.22519 -1.50572,-2.05461 a 0.50000391,0.50002887 0 0 0 -0.002,-0.008 c -0.0722,-0.15164 -0.14025,-0.31075 -0.20506,-0.47849 a 0.50000391,0.50002887 0 0 0 -0.002,-0.004 c -0.0111,-0.0278 -0.0235,-0.0605 -0.0371,-0.0957 a 0.50000391,0.50002887 0 0 0 -0.0117,-0.0254 0.50000391,0.50002887 0 0 0 0,-0.004 0.50000391,0.50002887 0 0 0 0,-0.002 0.50000391,0.50002887 0 0 0 -0.004,-0.006 c -0.007,-0.0179 -0.0136,-0.037 -0.0137,-0.0371 l 0.0176,0.043 c -0.77237,-2.03631 -0.91765,-4.46468 -0.85539,-5.34548 0.11282,-1.45272 0.87865,-3.00739 1.9217,-4.33575 1.0439,-1.32946 2.36427,-2.43022 3.47429,-3.00378 0.1706,-0.0881 0.33467,-0.16412 0.49213,-0.22655 a 0.50000391,0.50002887 0 0 0 0.002,0 c 0.08,-0.0318 0.15591,-0.0601 0.22849,-0.084 0.0734,-0.0241 0.14621,-0.0464 0.21678,-0.0644 0.13989,-0.0358 0.26873,-0.0571 0.38278,-0.0664 0.17539,-0.0142 0.34499,-0.0313 0.50972,-0.0488 a 0.50000391,0.50002887 0 0 0 0.002,0 c 0.16532,-0.0176 0.32567,-0.0362 0.48043,-0.0566 0.15508,-0.0206 0.30495,-0.0428 0.45112,-0.0664 0.14628,-0.0236 0.28931,-0.048 0.42574,-0.0742 0.13724,-0.0264 0.26876,-0.0553 0.39646,-0.084 a 0.50000391,0.50002887 0 0 0 0.002,0 c 0.12809,-0.0289 0.25264,-0.0584 0.37301,-0.0898 0.24042,-0.0626 0.46366,-0.1298 0.67377,-0.20116 0.46644,-0.15841 0.86099,-0.33805 1.19715,-0.52732 0.11103,-0.0625 0.21754,-0.12543 0.31833,-0.1914 0.10094,-0.066 0.19445,-0.13385 0.28123,-0.19921 0.0866,-0.0652 0.17067,-0.13095 0.24997,-0.19921 0.0787,-0.0676 0.14974,-0.13414 0.21678,-0.19921 0.47616,-0.4617 0.74233,-0.88956 0.92961,-1.08199 0.0271,-0.0279 0.0512,-0.0507 0.0723,-0.0684 a 0.50000391,0.50002887 0 0 0 0.002,0 c 0.0222,-0.0187 0.0438,-0.0345 0.0606,-0.0449 0.12132,-0.0758 0.16838,-0.10833 0.19335,-0.125 a 0.50000391,0.50002887 0 0 0 0.19529,-0.25194 c 0.12837,-0.36867 0.30279,-0.82253 0.56441,-1.44915 a 0.50000391,0.50002887 0 0 0 0.0176,-0.0508 c 0.0453,-0.15367 0.0924,-0.25868 0.14061,-0.34765 0.034,-0.0626 0.05,-0.0903 0.0254,-0.0508 a 0.50000391,0.50002887 0 0 0 0,-0.002 l 0.002,-0.004 c 0.007,-0.0109 0.0166,-0.0216 0.0469,-0.0566 a 0.50000391,0.50002887 0 0 0 0,-0.002 c 0.0387,-0.0452 0.005,-0.0104 0,-0.006 0,0 0.002,0 0.002,0 0.008,0.005 0.013,0.008 0.0234,0.0156 0.0617,0.0448 0.1559,0.14394 0.24021,0.27342 0.0278,0.0427 0.0543,0.0871 0.0781,0.13086 0.001,0.003 0.003,0.005 0.004,0.008 0.0519,0.0965 0.0977,0.20027 0.13281,0.30077 0.0351,0.10079 0.058,0.19801 0.0703,0.27928 l -0.004,-0.0332 c 0.0133,0.16154 0.0435,0.31033 0.0781,0.44529 a 0.50000391,0.50002887 0 0 0 0.002,0.0117 c 0.0164,0.0584 0.0201,0.0653 0.008,0.0215 a 0.50000391,0.50002887 0 0 0 0.24802,0.30467 0.50000391,0.50002887 0 0 0 0.0449,0.39648 c -0.005,-0.008 0.01,0.0145 0.0137,0.0215 a 0.50000391,0.50002887 0 0 0 0.004,0.006 c 0.005,0.009 -0.002,5.9e-4 0.01,0.0176 0.0339,0.0565 0.0685,0.1126 0.10546,0.16601 0.0106,0.0154 0.0256,0.0374 0.0469,0.0664 0.0385,0.0527 0.0763,0.10017 0.11132,0.14258 a 0.50000391,0.50002887 0 0 0 0,0.002 c 0.009,0.0104 0.0179,0.0205 0.0156,0.0176 a 0.50000391,0.50002887 0 0 0 0.0156,0.0195 c 0.0555,0.0642 0.0836,0.0894 0.10155,0.10741 0.003,0.003 0.015,0.0169 0.0156,0.0176 0.005,0.006 0.009,0.009 0.0117,0.0117 -4.5e-4,-4.6e-4 0.007,0.009 0.006,0.008 a 0.50000391,0.50002887 0 0 0 0.004,0.006 0.50000391,0.50002887 0 0 0 0.002,0.002 c 0.003,0.003 0.002,0.003 0.008,0.008 a 0.50000391,0.50002887 0 0 0 0.0293,0.0234 0.50000391,0.50002887 0 0 0 0.002,0.002 c 0.003,0.002 0.01,0.008 0.01,0.008 a 0.50000391,0.50002887 0 0 0 0.5644,0.0332 0.50000391,0.50002887 0 0 0 0.17186,-0.0371 c 0.0624,-0.0261 0.0718,-0.0341 0.0391,-0.0195 a 0.50000391,0.50002887 0 0 0 0.28903,-0.54099 c -2.2e-4,-0.001 -0.002,-0.006 -0.002,-0.008 a 0.50000391,0.50002887 0 0 0 0,-0.004 0.50000391,0.50002887 0 0 0 -0.002,-0.008 c -10e-4,-0.006 -0.002,-0.008 -0.004,-0.0176 0,0 0,-0.002 0,-0.002 a 0.50000391,0.50002887 0 0 0 -0.004,-0.0137 0.50000391,0.50002887 0 0 0 -0.57027,-0.36521 c -0.0487,-0.0642 -0.0987,-0.12782 -0.14647,-0.19921 a 0.50000391,0.50002887 0 0 0 -0.006,-0.008 c 0.0449,-0.01 0.0948,-0.0222 0.13866,-0.0312 0.0808,-0.0169 0.15733,-0.0306 0.24022,-0.0469 0.11683,-0.023 0.2294,-0.0441 0.33395,-0.0625 0.0799,-0.0141 0.15741,-0.0271 0.2324,-0.0391 0.0826,-0.0133 0.16174,-0.0259 0.24216,-0.0371 a 0.50000391,0.50002887 0 0 0 0.002,0 c 0.0807,-0.0114 0.15766,-0.0234 0.22264,-0.0312 0.0372,-0.004 0.0517,-0.006 0.0332,-0.004 a 0.50000391,0.50002887 0 0 0 0.42354,-0.38124 c 0.013,-0.0553 0.0151,-0.0775 0.008,-0.0371 a 0.50000391,0.50002887 0 0 0 0.002,-0.0137 c 0.009,-0.0549 0.0156,-0.1097 0.0215,-0.16601 a 0.50000391,0.50002887 0 0 0 0,-0.0117 c 0.006,-0.0702 0.0156,-0.15992 0.0156,-0.26952 0,-0.56859 0.23742,-1.0227 0.47651,-1.27925 a 0.50000391,0.50002887 0 0 0 0,-0.002 c 0.0135,-0.0146 0.0273,-0.0257 0.041,-0.0391 a 0.50000391,0.50002887 0 0 0 0,0.004 c 1.1e-4,9.9e-4 0.002,0.0199 0.006,0.0566 0.007,0.0718 0.0159,0.13132 0.0215,0.17577 a 0.50000391,0.50002887 0 0 0 0,0.002 c 0.0126,0.0969 0.0276,0.19305 0.0469,0.28905 0.008,0.0407 0.0174,0.0904 0.0312,0.14843 0.0266,0.11179 0.0572,0.21974 0.0918,0.3242 0.0146,0.0439 0.0277,0.0831 0.041,0.11914 0.0323,0.0876 0.0669,0.17239 0.10546,0.25584 0.0206,0.0448 0.0406,0.0839 0.0586,0.11914 0.0339,0.0662 0.0688,0.12967 0.1035,0.18749 0.0137,0.0228 0.0335,0.0568 0.0645,0.10352 0.0515,0.0782 0.10699,0.15507 0.1699,0.23046 a 0.50000391,0.50002887 0 0 0 0.80071,-0.0469 c -0.006,0.009 8.1e-4,0.003 0.0215,-0.0312 a 0.50000391,0.50002887 0 0 0 0.008,-0.0137 c 0.0209,-0.0374 0.0479,-0.0803 0.082,-0.12694 a 0.50000391,0.50002887 0 0 0 0.004,-0.002 c 0.0225,-0.0313 0.0276,-0.0403 0.0176,-0.0273 0.0356,-0.0461 0.074,-0.0917 0.11718,-0.13672 0.007,-0.008 0.0132,-0.0126 0.0195,-0.0195 0.0312,-0.0318 0.0697,-0.0665 0.11718,-0.10741 0.0395,-0.0341 0.0535,-0.0498 0.0449,-0.043 0.0552,-0.0446 0.10938,-0.0843 0.16014,-0.11718 a 0.50000391,0.50002887 0 0 0 0.20115,-0.58005 c -0.0789,-0.23038 -0.0979,-0.34845 -0.0977,-0.35156 2.3e-4,-0.003 -0.0264,-0.003 0.12304,-0.13866 0.0504,-0.0458 0.1179,-0.0997 0.20115,-0.1621 0.0831,-0.0623 0.18501,-0.13427 0.30466,-0.21483 a 0.50000391,0.50002887 0 0 0 0.14452,-0.67966 c -0.0472,-0.0758 -0.0459,-0.10295 -0.0293,-0.18359 0.0166,-0.0806 0.0729,-0.20414 0.16405,-0.33592 0.0911,-0.13179 0.20997,-0.26833 0.32419,-0.40038 0.11423,-0.13204 0.22401,-0.22808 0.32224,-0.44529 a 0.50000391,0.50002887 0 0 0 0.002,-0.40623 c -0.0288,-0.066 -0.0266,-0.0911 -0.01,-0.15429 0.0171,-0.0632 0.0668,-0.15819 0.15038,-0.26757 0.16708,-0.21877 0.44755,-0.45505 0.67766,-0.74216 a 0.50000391,0.50002887 0 0 0 0.0566,-0.53904 c -0.0606,-0.11985 -0.0513,-0.15182 -0.0351,-0.20702 0.0161,-0.0552 0.0674,-0.1429 0.1621,-0.24022 0.0276,-0.0283 0.0584,-0.0556 0.0898,-0.084 0.12751,-0.11474 0.28183,-0.22401 0.4316,-0.35935 0.0447,-0.0404 0.0907,-0.10817 0.13671,-0.16406 z m -9.60654,5.63648 c 7e-5,0 0.0356,0.498 0.0352,0.49803 -4e-4,3e-5 -0.0255,0.002 -0.0254,0.002 10e-6,0 -0.008,1.4e-4 -0.01,0 -0.006,-5.2e-4 -0.0181,-0.002 -0.0352,-0.004 0.003,-0.002 0.004,-0.006 0.004,-0.006 l 0.004,-0.002 a 0.50000391,0.50002887 0 0 0 0.002,0 c 0.0458,-0.0199 0.0527,-0.0238 0.0195,-0.01 l -0.0312,0.0117 c 0,0 -0.002,0 -0.002,0 -0.007,0.001 -0.0115,0.002 -0.0176,0.002 a 0.50000391,0.50002887 0 0 0 0.0332,-0.17382 l -0.0508,0.17382 c -0.002,-1.8e-4 -0.004,1.4e-4 -0.006,0 -0.002,-1.4e-4 -0.005,10e-5 -0.006,0 l -0.043,-0.01 z m 0.71672,1.45111 c -0.002,0.002 -0.007,0.011 -0.01,0.0137 -0.003,0.004 -0.0203,0.0196 -0.0215,0.0215 -0.003,0.004 0.0258,-0.0266 0.0312,-0.0352 z m -0.0625,0.0762 c -0.005,0.008 -0.002,0.01 -0.006,0.0176 -0.006,0.0101 -0.006,0.002 -0.0117,0.0137 z m 1.51744,1.54486 0.0449,0.0723 -0.0644,-0.0215 a 0.50000391,0.50002887 0 0 0 0.0195,-0.0508 z m -0.54682,0.33592 a 0.50000391,0.50002887 0 0 0 0.0273,0.004 l -0.0273,-0.002 c 0,0 0,-0.002 0,-0.002 z" />
    <path
       id="path943-4"
       d="m 40.29662,13 c -0.0192,3e-4 -0.0403,0.004 -0.0616,0.0112 -0.0214,0.007 -0.0444,0.0178 -0.0675,0.0322 -0.11619,0.0718 -0.25025,0.23447 -0.36879,0.50405 -0.40698,0.74756 -0.92907,1.07422 -0.9244,1.62649 0.093,0.15675 -0.25362,0.35018 -0.56137,0.62713 -0.0384,0.0346 -0.0763,0.0707 -0.11265,0.10802 -0.25432,0.2614 -0.43301,0.59118 -0.2157,1.02122 -0.35201,0.43918 -1.17946,1.00424 -0.88538,1.67757 -0.14938,0.33031 -1.20493,1.10431 -0.74963,1.83617 -0.12402,0.0835 -0.23203,0.15906 -0.32498,0.22867 -0.0928,0.0696 -0.1715,0.13381 -0.23688,0.19316 -0.39251,0.35648 -0.31958,0.56201 -0.16224,1.02123 -0.068,0.044 -0.13578,0.0938 -0.20269,0.14791 -0.0199,0.0161 -0.0382,0.0347 -0.0578,0.0516 -0.0505,0.0435 -0.10035,0.0875 -0.14779,0.13574 -0.007,0.008 -0.0148,0.0166 -0.0227,0.0248 -0.0544,0.0567 -0.10559,0.11558 -0.15309,0.1771 -0.0102,0.0132 -0.0187,0.0269 -0.0284,0.0404 -0.0424,0.0579 -0.0816,0.11651 -0.11555,0.1771 -0.003,0.005 -0.007,0.0105 -0.0106,0.016 -0.0459,-0.055 -0.0913,-0.11831 -0.13578,-0.18586 -0.0179,-0.027 -0.0351,-0.0571 -0.0525,-0.0861 -0.0297,-0.0495 -0.059,-0.1016 -0.0872,-0.15666 -0.0169,-0.0331 -0.0335,-0.0662 -0.0496,-0.1012 -0.032,-0.0692 -0.0622,-0.14307 -0.0905,-0.21992 -0.0126,-0.034 -0.0248,-0.0676 -0.0366,-0.10314 -0.0297,-0.0897 -0.0564,-0.18436 -0.0799,-0.28316 -0.01,-0.0419 -0.0183,-0.0859 -0.0269,-0.12942 -0.0165,-0.0823 -0.03,-0.16753 -0.0414,-0.25543 -0.007,-0.0557 -0.0153,-0.11049 -0.0202,-0.16834 -0.002,-0.0183 -0.003,-0.0369 -0.005,-0.0555 -0.007,-0.10406 -0.0126,-0.2108 -0.012,-0.32159 0,-0.10198 -0.0239,-0.17725 -0.0651,-0.2277 -0.0205,-0.0251 -0.0452,-0.0444 -0.0737,-0.0574 0,0 -5e-4,0 -5e-4,0 -0.0285,-0.013 -0.0612,-0.0199 -0.0962,-0.0214 -0.0351,-10e-4 -0.0735,0.003 -0.11362,0.0126 -0.0403,0.01 -0.0832,0.0253 -0.12711,0.0458 -0.0439,0.0204 -0.0896,0.0458 -0.13576,0.0764 -0.0461,0.0306 -0.0932,0.0667 -0.1401,0.10705 -0.0469,0.0403 -0.094,0.0852 -0.14011,0.13476 -0.32374,0.34738 -0.61144,0.91547 -0.61144,1.62016 0,0.0807 -0.007,0.15577 -0.013,0.23013 -0.005,0.0481 -0.0111,0.0952 -0.0183,0.14109 -7.4e-4,0.004 -9.2e-4,0.008 -0.002,0.0126 -0.008,0.001 -0.0188,0.003 -0.0275,0.004 -0.0744,0.009 -0.15565,0.0209 -0.23543,0.0322 -0.0819,0.0114 -0.16544,0.0234 -0.25324,0.0375 -0.0778,0.0124 -0.15761,0.0258 -0.24025,0.0404 -0.10965,0.0193 -0.22525,0.0414 -0.34376,0.0647 -0.0815,0.016 -0.16076,0.0312 -0.2465,0.0491 -0.19086,0.0401 -0.39137,0.0846 -0.6047,0.13526 -0.0142,0.003 -0.0262,0.006 -0.0405,0.009 -0.006,0.004 -0.007,0.01 -0.012,0.0141 -0.007,0.007 -0.014,0.013 -0.0183,0.0214 -0.007,0.0115 -0.0109,0.0249 -0.014,0.0389 -0.002,-0.007 -0.005,-0.0133 -0.007,-0.0204 -0.0292,-0.11377 -0.052,-0.23361 -0.0626,-0.36199 -0.0179,-0.11787 -0.0504,-0.24372 -0.0943,-0.36976 0,0 0,-5e-4 0,-5e-4 -0.0441,-0.12605 -0.0998,-0.25242 -0.16418,-0.3722 0,0 0,-4.9e-4 0,-4.9e-4 -0.0322,-0.0598 -0.0669,-0.11766 -0.10303,-0.17321 0,0 0,-5e-4 0,-5e-4 -0.10873,-0.16697 -0.23407,-0.31046 -0.3659,-0.40626 -0.044,-0.032 -0.0884,-0.0584 -0.13336,-0.0788 -0.0451,-0.0204 -0.0902,-0.0348 -0.13578,-0.0419 0,0 -4.8e-4,0 -4.8e-4,0 -2.5e-4,-5e-5 -7.4e-4,5e-5 -9.3e-4,0 -0.0617,-0.009 -0.12353,-0.005 -0.1844,0.0146 -0.006,0.002 -0.0124,0.003 -0.0183,0.005 -0.007,0.003 -0.0138,0.007 -0.0207,0.01 -0.0598,0.0255 -0.11844,0.0653 -0.17524,0.12407 0,0 -5e-4,0 -5e-4,0 -0.01,0.01 -0.0185,0.0259 -0.028,0.037 -0.0322,0.0373 -0.0647,0.075 -0.0953,0.12455 0,0 0,4.9e-4 0,4.9e-4 -0.0135,0.0217 -0.0259,0.0521 -0.0391,0.0764 -0.0646,0.1192 -0.12572,0.26133 -0.18007,0.44566 -0.26414,0.63264 -0.44292,1.09547 -0.57581,1.47712 -0.0289,0.0193 -0.0638,0.0432 -0.18152,0.11677 -0.0403,0.0251 -0.0794,0.0541 -0.11699,0.0857 -0.0377,0.0315 -0.0745,0.0664 -0.11073,0.10363 -0.25453,0.26151 -0.49037,0.65514 -0.91911,1.07085 -0.0612,0.0594 -0.1262,0.11958 -0.19594,0.17954 -0.0696,0.0599 -0.14454,0.11974 -0.22388,0.17952 -0.0794,0.0598 -0.1639,0.11999 -0.2542,0.17905 -0.0903,0.0591 -0.18689,0.11746 -0.28936,0.17515 -0.30771,0.17324 -0.67311,0.33922 -1.11262,0.48848 -0.19789,0.0672 -0.41082,0.13095 -0.64034,0.19072 -0.11461,0.0299 -0.23416,0.0589 -0.35724,0.0867 -0.1231,0.0276 -0.25081,0.0544 -0.38276,0.0798 -0.13194,0.0253 -0.26903,0.0497 -0.41019,0.0725 -0.14118,0.0228 -0.28735,0.0442 -0.43812,0.0642 -0.15079,0.02 -0.30723,0.0389 -0.46797,0.056 -0.16078,0.0171 -0.3267,0.0328 -0.49782,0.0467 -0.14745,0.012 -0.30333,0.0396 -0.46605,0.0812 -0.0812,0.0208 -0.16495,0.0451 -0.24939,0.0729 -0.0845,0.0278 -0.17076,0.0597 -0.25806,0.0944 -0.17478,0.0693 -0.35539,0.1522 -0.53923,0.24716 -2.39175,1.23579 -5.41855,4.55473 -5.66429,7.74901 -0.0698,0.98745 0.0763,3.42209 0.88636,5.55767 4.9e-4,10e-4 7.5e-4,0.003 9.3e-4,0.005 0.004,0.0104 0.007,0.0199 0.012,0.0302 0.0129,0.0334 0.0255,0.0666 0.0385,0.0993 0.0691,0.17886 0.14261,0.35013 0.2205,0.51378 0.40658,0.87798 0.94311,1.66714 1.64464,2.23319 0,0 5e-4,0 5e-4,0 0.10013,0.0807 0.2036,0.15689 0.31054,0.22819 0.10437,0.0822 0.20541,0.15627 0.30331,0.22477 0.0316,0.0221 0.0603,0.0401 0.0911,0.0608 0.0564,0.038 0.11106,0.075 0.16418,0.1085 0.14779,0.0933 0.27863,0.16792 0.39382,0.22867 0.0209,0.0111 0.0367,0.0191 0.0564,0.0292 0.0223,0.0114 0.0488,0.0263 0.0693,0.0365 0.0143,0.0238 0.0311,0.0486 0.0458,0.0725 0.0636,0.10428 0.13014,0.20914 0.1998,0.31528 0.0269,0.041 0.0536,0.0814 0.0814,0.12261 0.0779,0.11525 0.1593,0.23092 0.2446,0.3469 0.0228,0.0311 0.0441,0.0619 0.0674,0.0929 0.10521,0.13976 0.21679,0.27889 0.33317,0.41745 0.0324,0.0386 0.0669,0.0764 0.10014,0.11483 0.0911,0.10515 0.18518,0.20919 0.2831,0.31235 0.0424,0.0447 0.0854,0.0887 0.12902,0.13283 0.0968,0.0979 0.19721,0.19407 0.30042,0.289 0.0513,0.0471 0.10077,0.0949 0.1536,0.14109 0.0213,0.0186 0.043,0.037 0.0645,0.0555 0.10592,0.0909 0.21452,0.17988 0.32689,0.26662 0.0138,0.0106 0.027,0.0215 0.0409,0.0322 0.12048,0.0917 0.24561,0.18045 0.37361,0.26661 0.0285,0.0191 0.0573,0.0381 0.0862,0.0569 0.26426,0.17281 0.54445,0.33251 0.84109,0.47583 0.0312,0.015 0.0624,0.0301 0.0938,0.0448 0.14864,0.0692 0.3005,0.13513 0.45738,0.1956 0.0164,0.006 0.0336,0.0118 0.0501,0.018 0.14364,0.0542 0.29133,0.10374 0.44196,0.14985 0.0363,0.0111 0.0722,0.0225 0.10882,0.0331 0.16712,0.0484 0.33797,0.0919 0.51371,0.12942 0.11026,0.0236 0.22186,0.0457 0.33557,0.0647 0.0125,0.002 0.0255,0.004 0.038,0.006 0.10166,0.0165 0.20465,0.0305 0.30909,0.0433 0.0511,0.006 0.10282,0.0117 0.15454,0.017 0.0789,0.008 0.1584,0.015 0.2388,0.0209 0.0451,0.003 0.0902,0.007 0.13577,0.009 0.10218,0.006 0.20586,0.01 0.31054,0.0117 0.0282,5e-4 0.0556,0.002 0.0838,0.002 0.1278,10e-4 0.2575,-5.1e-4 0.38902,-0.005 0.0512,-0.002 0.10332,-0.005 0.15503,-0.007 0.0849,-0.004 0.17056,-0.009 0.2571,-0.016 0.0573,-0.004 0.11482,-0.009 0.17284,-0.0146 0.0963,-0.009 0.19395,-0.0204 0.29223,-0.0326 0.0457,-0.006 0.0907,-0.0102 0.13673,-0.0165 0.14096,-0.0193 0.28366,-0.0414 0.4285,-0.0671 0.045,-0.008 0.0909,-0.0181 0.13625,-0.0267 0.10824,-0.0206 0.21746,-0.0424 0.32786,-0.0667 0.0549,-0.0121 0.11022,-0.0249 0.16563,-0.038 0.10762,-0.0252 0.21628,-0.0524 0.32594,-0.0812 0.0516,-0.0136 0.10292,-0.0269 0.15502,-0.0414 0.15994,-0.0442 0.32152,-0.0911 0.48579,-0.14303 4.18922,-1.20084 7.49821,-0.51984 9.89047,0.58578 0,0 5e-4,0 5e-4,0 2.39202,1.10562 3.86709,2.63623 4.38844,3.13473 0,0 5e-4,0 5e-4,0 0.0694,0.0663 0.12198,0.11433 0.15743,0.14061 0.0786,0.0801 0.12339,0.0799 0.13481,0.0107 0.007,-0.0462 2.4e-4,-0.12301 -0.0217,-0.2272 -0.0329,-0.15631 -0.0987,-0.37415 -0.1974,-0.64223 -0.13157,-0.35743 -0.32123,-0.80385 -0.5681,-1.31315 -0.43205,-0.89127 -1.03934,-1.97412 -1.81654,-3.10506 -0.22205,-0.32312 -0.45802,-0.6503 -0.70772,-0.97793 -1.37336,-1.80196 -3.16316,-3.6214 -5.34942,-4.90181 -2.11495,-1.16609 -2.29317,-2.8059 -1.99658,-4.24208 0.0659,-0.31916 0.155,-0.62845 0.2518,-0.92004 0.24198,-0.72898 0.53061,-1.34871 0.61481,-1.74276 0,0 0.10565,0.0748 0.29225,0.17515 0,0 4.8e-4,0 4.8e-4,0 0.7155,0.38455 2.61534,1.14175 4.27242,-0.52059 0.14411,-0.14457 0.28609,-0.30742 0.42559,-0.49042 0.0698,-0.0915 0.13878,-0.18818 0.20703,-0.28998 0.12331,0.0322 0.24406,0.0588 0.36253,0.0807 0,0 5e-4,0 5e-4,0 1.53997,0.285 2.69261,-0.22885 4.00809,0.008 0,0 5e-4,0 5e-4,0 0.20225,0.0364 0.40863,0.0904 0.62058,0.16785 1.03112,0.45661 5.36648,0.18097 3.75533,-2.26773 0.25329,-0.16709 0.45006,-0.27869 0.61048,-0.36831 0.48094,-0.26866 0.63635,-0.33852 1.01635,-1.1015 0.017,-0.0771 0.0306,-0.15014 0.0409,-0.21992 0.0208,-0.13955 0.0289,-0.2652 0.0269,-0.37852 -0.002,-0.11333 -0.0138,-0.21436 -0.0333,-0.30554 -0.0291,-0.13676 -0.075,-0.25095 -0.12903,-0.34933 -0.0359,-0.0654 -0.0756,-0.1241 -0.11603,-0.17758 0,0 -5e-4,-5e-4 -5e-4,-5e-4 -0.12173,-0.16058 -0.2525,-0.27692 -0.32304,-0.40334 -0.0505,-0.78468 -0.70036,-1.0876 -1.4771,-0.52935 -1.77951,-0.32309 -3.52643,-0.171 -4.38796,-0.24424 -1.88871,-0.26729 -3.46116,-1.27764 -3.46116,-1.27764 0.22974,-0.30863 0.11979,-0.97588 -1.35528,-1.02171 -0.10129,-0.0337 -0.20313,-0.0711 -0.30525,-0.11093 0,0 -5e-4,0 -5e-4,0 -0.0689,-0.0268 -0.13769,-0.0557 -0.20653,-0.0841 -0.0334,-0.0138 -0.0668,-0.0268 -0.10015,-0.0409 -0.20346,-0.0858 -0.40553,-0.17538 -0.60181,-0.2564 -4.9e-4,-1.9e-4 -9.3e-4,-2.9e-4 -0.002,-4.9e-4 0.0404,-0.0859 0.0518,-0.18235 0.0501,-0.27781 -5e-4,-0.0291 -9.4e-4,-0.0579 -0.004,-0.0861 -0.003,-0.0271 -0.006,-0.0511 -0.0101,-0.0764 -0.003,-0.0168 -0.006,-0.0294 -0.008,-0.0453 -0.0119,-0.0585 -0.0176,-0.0834 -0.0294,-0.12114 -0.0138,-0.0476 -0.0226,-0.0751 -0.0265,-0.0851 -4.9e-4,-10e-4 -0.005,-0.0146 -0.005,-0.0146 0.11234,-0.0315 0.20713,-0.0844 0.28502,-0.15326 0.33794,-0.29856 0.3627,-0.89101 0.17043,-1.26888 0.0477,0.001 0.0923,-0.002 0.13336,-0.01 0.041,-0.008 0.0794,-0.0198 0.1141,-0.0355 0.13926,-0.0631 0.23022,-0.18656 0.28695,-0.33911 0.14195,-0.38175 0.07,-0.94623 0.004,-1.20514 0.0374,-0.0143 0.0731,-0.0307 0.10641,-0.0487 0.1674,-0.0903 0.2857,-0.22514 0.36013,-0.38436 0.0597,-0.12747 0.0912,-0.271 0.0977,-0.41987 0.004,-0.0744 2.3e-4,-0.15024 -0.008,-0.22624 -0.0178,-0.15201 -0.0592,-0.30451 -0.12132,-0.44761 0.13578,-0.0313 0.24707,-0.0869 0.33749,-0.16056 0.03,-0.0245 0.0577,-0.0515 0.0833,-0.0798 0,0 5e-4,0 5e-4,0 0.15422,-0.17008 0.23105,-0.40404 0.26383,-0.65244 0.0109,-0.0828 0.017,-0.16691 0.0193,-0.25105 0.005,-0.16829 -0.006,-0.33592 -0.0212,-0.48751 0.0464,-0.003 0.0899,-0.01 0.12999,-0.0219 0.04,-0.012 0.0777,-0.0285 0.1117,-0.0487 0.0341,-0.0202 0.0653,-0.0447 0.0938,-0.072 0,0 5e-4,0 5e-4,0 0.37399,-0.35638 0.30572,-1.26777 0.30572,-1.4888 0.12018,-0.0783 0.21277,-0.16181 0.28454,-0.25007 0.31129,-0.38283 0.23104,-0.8554 0.31294,-1.38711 0.0495,-0.10119 0.0845,-0.19329 0.10689,-0.27538 0.0448,-0.16416 0.0397,-0.28824 0.002,-0.36392 -0.0283,-0.0568 -0.075,-0.086 -0.13288,-0.0851 z m -9.37531,10.69984 c 0.0788,0.11776 0.15979,0.22437 0.23013,0.31429 0.008,0.0111 0.0184,0.0256 0.0265,0.036 0.0753,0.0952 0.12538,0.15387 0.12904,0.15812 -2.5e-4,-3.2e-4 -0.007,-0.008 -0.008,-0.008 -0.008,-0.008 -0.0476,-0.0458 -0.10977,-0.11774 -0.007,-0.009 -0.0166,-0.0205 -0.0251,-0.0307 -0.0284,-0.0344 -0.0602,-0.0751 -0.0928,-0.1197 -0.0128,-0.0174 -0.0254,-0.0361 -0.0385,-0.055 -0.033,-0.0477 -0.067,-0.10171 -0.10062,-0.15861 -0.004,-0.006 -0.007,-0.0123 -0.0106,-0.0185 z m 0.64851,0.41112 c 5e-4,0.003 9.3e-4,0.008 0.002,0.0102 -0.009,0.004 -0.0203,0.0105 -0.0289,0.0141 0.009,-0.008 0.0177,-0.015 0.0269,-0.0243 z"
       style="fill:#d96868;fill-opacity:1;stroke:none;stroke-width:0.2478" />
  </g>
</svg>
