<?xml version="1.0" encoding="UTF-8" standalone="no"?>
<svg
   xmlns:dc="http://purl.org/dc/elements/1.1/"
   xmlns:cc="http://creativecommons.org/ns#"
   xmlns:rdf="http://www.w3.org/1999/02/22-rdf-syntax-ns#"
   xmlns:svg="http://www.w3.org/2000/svg"
   xmlns="http://www.w3.org/2000/svg"
   xmlns:xlink="http://www.w3.org/1999/xlink"
   xmlns:sodipodi="http://sodipodi.sourceforge.net/DTD/sodipodi-0.dtd"
   xmlns:inkscape="http://www.inkscape.org/namespaces/inkscape"
   width="64"
   height="64"
   viewBox="0 0 64 64"
   version="1.1"
   id="svg6374"
   inkscape:version="1.0.2 (e86c870879, 2021-01-15)"
   sodipodi:docname="software-properties.svg">
  <defs
     id="defs6368">
    <linearGradient
       inkscape:collect="always"
       xlink:href="#linearGradient994-9"
       id="linearGradient5086"
       gradientUnits="userSpaceOnUse"
       gradientTransform="matrix(1.1568627,0,0,1.1568627,-19.588687,-75.21482)"
       x1="44.592453"
       y1="67.342995"
       x2="44.093658"
       y2="92.677246" />
    <linearGradient
       inkscape:collect="always"
       id="linearGradient994-9">
      <stop
         style="stop-color:#f9f9f7;stop-opacity:0.1"
         offset="0"
         id="stop992" />
      <stop
         style="stop-color:#f9f9f7;stop-opacity:0"
         offset="1"
         id="stop990" />
    </linearGradient>
    <linearGradient
       inkscape:collect="always"
       xlink:href="#linearGradient5145"
       id="linearGradient5135"
       gradientUnits="userSpaceOnUse"
       x1="32.006084"
       y1="115"
       x2="31.907066"
       y2="148.53423"
       gradientTransform="translate(-4e-7,-101)" />
    <linearGradient
       inkscape:collect="always"
       id="linearGradient5145">
      <stop
         style="stop-color:#1e2771;stop-opacity:0.25"
         offset="0"
         id="stop5141" />
      <stop
         style="stop-color:#1e2771;stop-opacity:0.10196079"
         offset="1"
         id="stop5143" />
    </linearGradient>
  </defs>
  <sodipodi:namedview
     id="base"
     pagecolor="#cecece"
     bordercolor="#666666"
     borderopacity="1.0"
     inkscape:pageopacity="0"
     inkscape:pageshadow="2"
     inkscape:zoom="5.5639287"
     inkscape:cx="8.3100654"
     inkscape:cy="29.73153"
     inkscape:document-units="px"
     inkscape:current-layer="layer1"
     inkscape:document-rotation="0"
     showgrid="false"
     units="px"
     inkscape:window-width="1500"
     inkscape:window-height="970"
     inkscape:window-x="68"
     inkscape:window-y="56"
     inkscape:window-maximized="0" />
  <metadata
     id="metadata6371">
    <rdf:RDF>
      <cc:Work
         rdf:about="">
        <dc:format>image/svg+xml</dc:format>
        <dc:type
           rdf:resource="http://purl.org/dc/dcmitype/StillImage" />
        <dc:title></dc:title>
      </cc:Work>
    </rdf:RDF>
  </metadata>
  <g
     inkscape:label="Layer 1"
     inkscape:groupmode="layer"
     id="layer1">
    <path
       id="path895-9-7-2-9-7-5"
       style="color:#000000;font-style:normal;font-variant:normal;font-weight:normal;font-stretch:normal;font-size:medium;line-height:normal;font-family:sans-serif;font-variant-ligatures:normal;font-variant-position:normal;font-variant-caps:normal;font-variant-numeric:normal;font-variant-alternates:normal;font-variant-east-asian:normal;font-feature-settings:normal;font-variation-settings:normal;text-indent:0;text-align:start;text-decoration:none;text-decoration-line:none;text-decoration-style:solid;text-decoration-color:#000000;letter-spacing:normal;word-spacing:normal;text-transform:none;writing-mode:lr-tb;direction:ltr;text-orientation:mixed;dominant-baseline:auto;baseline-shift:baseline;text-anchor:start;white-space:normal;shape-padding:0;shape-margin:0;inline-size:0;clip-rule:nonzero;display:inline;overflow:visible;visibility:visible;opacity:0.15;isolation:auto;mix-blend-mode:normal;color-interpolation:sRGB;color-interpolation-filters:linearRGB;solid-color:#000000;solid-opacity:1;vector-effect:none;fill:#0c0c0c;fill-opacity:1;fill-rule:nonzero;stroke:none;stroke-linecap:round;stroke-linejoin:round;stroke-miterlimit:4;stroke-dasharray:none;stroke-dashoffset:0;stroke-opacity:1;color-rendering:auto;image-rendering:auto;shape-rendering:auto;text-rendering:auto;enable-background:accumulate;stop-color:#000000"
       d="M 31.999994,1.75 C 14.896942,1.75 1,15.64694 1,32.75 c 0,17.10306 13.896942,31 30.999994,31 17.10306,0 31.00001,-13.89694 31.00001,-31 0,-17.10306 -13.89695,-31 -31.00001,-31 z m 0,3 c 15.48174,0 28.00001,12.51826 28.00001,28 0,15.48174 -12.51827,28 -28.00001,28 -15.481736,0 -27.9999942,-12.51826 -27.9999942,-28 0,-15.48174 12.5182582,-28 27.9999942,-28 z" />
    <path
       id="path895-9-7-2-99"
       style="color:#000000;font-style:normal;font-variant:normal;font-weight:normal;font-stretch:normal;font-size:medium;line-height:normal;font-family:sans-serif;font-variant-ligatures:normal;font-variant-position:normal;font-variant-caps:normal;font-variant-numeric:normal;font-variant-alternates:normal;font-variant-east-asian:normal;font-feature-settings:normal;font-variation-settings:normal;text-indent:0;text-align:start;text-decoration:none;text-decoration-line:none;text-decoration-style:solid;text-decoration-color:#000000;letter-spacing:normal;word-spacing:normal;text-transform:none;writing-mode:lr-tb;direction:ltr;text-orientation:mixed;dominant-baseline:auto;baseline-shift:baseline;text-anchor:start;white-space:normal;shape-padding:0;shape-margin:0;inline-size:0;clip-rule:nonzero;display:inline;overflow:visible;visibility:visible;isolation:auto;mix-blend-mode:normal;color-interpolation:sRGB;color-interpolation-filters:linearRGB;solid-color:#000000;solid-opacity:1;vector-effect:none;fill:#2b37a1;fill-opacity:1;fill-rule:nonzero;stroke:none;stroke-linecap:round;stroke-linejoin:round;stroke-miterlimit:4;stroke-dasharray:none;stroke-dashoffset:0;stroke-opacity:1;color-rendering:auto;image-rendering:auto;shape-rendering:auto;text-rendering:auto;enable-background:accumulate;stop-color:#000000"
       d="M 31.999998,1 C 14.896942,1 1,14.89694 1,32 c 0,17.10306 13.896942,31 30.999998,31 17.10306,0 31,-13.89694 31,-31 0,-17.10306 -13.89694,-31 -31,-31 z m 0,3 c 15.48174,0 28,12.51826 28,28 0,15.48174 -12.51826,28 -28,28 C 16.518258,60 3.9999998,47.48174 3.9999998,32 3.9999998,16.51826 16.518258,4 31.999998,4 Z" />
    <circle
       style="fill:#6570d7;fill-opacity:1;stroke:none;stroke-width:0;stroke-linecap:round;stroke-linejoin:round;stroke-miterlimit:4;stroke-dasharray:none"
       id="path895-9-7-1"
       cx="32"
       cy="32"
       r="29.5" />
    <circle
       style="fill:url(#linearGradient5086);fill-opacity:1;stroke:none;stroke-width:0;stroke-linecap:round;stroke-linejoin:round;stroke-miterlimit:4;stroke-dasharray:none"
       id="path895-5-0-3-9"
       cx="32"
       cy="32"
       r="29.5" />
    <path
       id="path1113-1-0-6-8-3-2-5-4-8-3-92-8-3-6-5-69-5-1-7-6-0"
       style="color:#000000;font-style:normal;font-variant:normal;font-weight:normal;font-stretch:normal;font-size:medium;line-height:normal;font-family:sans-serif;font-variant-ligatures:normal;font-variant-position:normal;font-variant-caps:normal;font-variant-numeric:normal;font-variant-alternates:normal;font-variant-east-asian:normal;font-feature-settings:normal;font-variation-settings:normal;text-indent:0;text-align:start;text-decoration:none;text-decoration-line:none;text-decoration-style:solid;text-decoration-color:#000000;letter-spacing:normal;word-spacing:normal;text-transform:none;writing-mode:lr-tb;direction:ltr;text-orientation:mixed;dominant-baseline:auto;baseline-shift:baseline;text-anchor:start;white-space:normal;shape-padding:0;shape-margin:0;inline-size:0;clip-rule:nonzero;display:inline;overflow:visible;visibility:visible;opacity:0.35;isolation:auto;mix-blend-mode:normal;color-interpolation:sRGB;color-interpolation-filters:linearRGB;solid-color:#000000;solid-opacity:1;vector-effect:none;fill:#1e2771;fill-opacity:1;fill-rule:nonzero;stroke:none;stroke-width:1;stroke-linecap:round;stroke-linejoin:round;stroke-miterlimit:4;stroke-dasharray:none;stroke-dashoffset:0;stroke-opacity:1;color-rendering:auto;image-rendering:auto;shape-rendering:auto;text-rendering:auto;enable-background:accumulate;stop-color:#000000"
       d="m 32.006083,16 c -0.557304,-5e-5 -1.09559,0.24151 -1.449845,0.70117 L 19.352183,31.24414 c -0.230974,0.3001 -0.361031,0.68006 -0.351714,1.06836 0.02442,0.9806 0.881667,1.68725 1.801559,1.6875 h 6.881876 0.320452 v 14.25 c 0,0.95218 0.798155,1.75 1.750756,1.75 h 4.501938 c 0.9526,0 1.75076,-0.79782 1.75076,-1.75 V 34 h 0.32045 6.88774 a 1.0005319,1.0001 0 0 0 0.01,0 c 0.66235,-0.006 1.2627,-0.36441 1.56708,-0.90235 0.30438,-0.53794 0.28468,-1.30881 -0.13482,-1.85351 L 33.45397,16.70117 C 33.09972,16.24151 32.563385,15.99995 32.006083,16 Z m -0.002,2.09765 L 42.71574,32 H 36.32822 35.00733 A 1.0005319,1.0001 0 0 0 34.0069,33 V 48 H 30.005174 V 33 a 1.0005319,1.0001 0 0 0 -1.000432,-1 h -1.320883 -6.389476 z" />
    <path
       id="path1113-1-0-6-8-3-2-5-4-8-3-92-8-3-6-5-69-5-1-4"
       style="color:#000000;font-style:normal;font-variant:normal;font-weight:normal;font-stretch:normal;font-size:medium;line-height:normal;font-family:sans-serif;font-variant-ligatures:normal;font-variant-position:normal;font-variant-caps:normal;font-variant-numeric:normal;font-variant-alternates:normal;font-variant-east-asian:normal;font-feature-settings:normal;font-variation-settings:normal;text-indent:0;text-align:start;text-decoration:none;text-decoration-line:none;text-decoration-style:solid;text-decoration-color:#000000;letter-spacing:normal;word-spacing:normal;text-transform:none;writing-mode:lr-tb;direction:ltr;text-orientation:mixed;dominant-baseline:auto;baseline-shift:baseline;text-anchor:start;white-space:normal;shape-padding:0;shape-margin:0;inline-size:0;clip-rule:nonzero;display:inline;overflow:visible;visibility:visible;opacity:0.75;isolation:auto;mix-blend-mode:normal;color-interpolation:sRGB;color-interpolation-filters:linearRGB;solid-color:#000000;solid-opacity:1;vector-effect:none;fill:#1a2161;fill-opacity:1;fill-rule:nonzero;stroke:none;stroke-width:1;stroke-linecap:round;stroke-linejoin:round;stroke-miterlimit:4;stroke-dasharray:none;stroke-dashoffset:0;stroke-opacity:1;color-rendering:auto;image-rendering:auto;shape-rendering:auto;text-rendering:auto;enable-background:accumulate;stop-color:#000000"
       d="m 32.006083,14 c -0.557304,-5e-5 -1.09559,0.24151 -1.449845,0.70117 L 19.352183,29.24414 c -0.230974,0.3001 -0.361031,0.68006 -0.351714,1.06836 0.02442,0.9806 0.881667,1.68725 1.801559,1.6875 h 6.881876 0.320452 v 14.25 c 0,0.95218 0.798155,1.75 1.750755,1.75 h 4.501939 c 0.9526,0 1.75076,-0.79782 1.75076,-1.75 V 32 h 0.32045 6.88774 a 1.0005319,1.0001 0 0 0 0.01,0 c 0.66235,-0.006 1.2627,-0.36441 1.56708,-0.90235 0.30438,-0.53794 0.28468,-1.30881 -0.13482,-1.85351 L 33.45397,14.70117 C 33.09972,14.24151 32.563385,13.99995 32.006083,14 Z m -0.002,2.09765 L 42.71574,30 H 36.32821 35.00733 A 1.0005319,1.0001 0 0 0 34.0069,31 V 46 H 30.005173 V 31 a 1.0005319,1.0001 0 0 0 -1.000432,-1 h -1.320883 -6.389476 z" />
    <path
       id="path1113-1-0-6-8-3-2-5-4-8-3-92-8-3-6-5-69-5-8"
       style="color:#000000;font-style:normal;font-variant:normal;font-weight:normal;font-stretch:normal;font-size:medium;line-height:normal;font-family:sans-serif;font-variant-ligatures:normal;font-variant-position:normal;font-variant-caps:normal;font-variant-numeric:normal;font-variant-alternates:normal;font-variant-east-asian:normal;font-feature-settings:normal;font-variation-settings:normal;text-indent:0;text-align:start;text-decoration:none;text-decoration-line:none;text-decoration-style:solid;text-decoration-color:#000000;letter-spacing:normal;word-spacing:normal;text-transform:none;writing-mode:lr-tb;direction:ltr;text-orientation:mixed;dominant-baseline:auto;baseline-shift:baseline;text-anchor:start;white-space:normal;shape-padding:0;shape-margin:0;inline-size:0;clip-rule:nonzero;display:inline;overflow:visible;visibility:visible;isolation:auto;mix-blend-mode:normal;color-interpolation:sRGB;color-interpolation-filters:linearRGB;solid-color:#000000;solid-opacity:1;vector-effect:none;fill:#fbfcfd;fill-opacity:1;fill-rule:nonzero;stroke:none;stroke-width:0;stroke-linecap:round;stroke-linejoin:round;stroke-miterlimit:4;stroke-dasharray:none;stroke-dashoffset:0;stroke-opacity:1;color-rendering:auto;image-rendering:auto;shape-rendering:auto;text-rendering:auto;enable-background:accumulate;stop-color:#000000"
       d="m 31.999929,15 a 0.80118333,0.72863185 0 0 0 -0.656236,0.31055 L 20.144718,29.85352 A 0.80118333,0.72863185 0 0 0 20.00019,30.28711 0.80118333,0.72863185 0 0 0 20.800954,31 h 6.878757 1.320283 v 15.25 c 0,0.4155 0.334493,0.75 0.749984,0.75 h 4.499902 c 0.41549,0 0.74998,-0.3345 0.74998,-0.75 V 31 h 1.32029 6.88657 a 0.80118333,0.72863185 0 0 0 0.64842,-1.14648 L 32.656165,15.31055 A 0.80118333,0.72863185 0 0 0 31.999929,15 Z" />
    <path
       id="path1113-1-0-6-8-3-2-5-4-8-3-92-8-3-6-5-69-5-1-7-0"
       style="color:#000000;font-style:normal;font-variant:normal;font-weight:normal;font-stretch:normal;font-size:medium;line-height:normal;font-family:sans-serif;font-variant-ligatures:normal;font-variant-position:normal;font-variant-caps:normal;font-variant-numeric:normal;font-variant-alternates:normal;font-variant-east-asian:normal;font-feature-settings:normal;font-variation-settings:normal;text-indent:0;text-align:start;text-decoration:none;text-decoration-line:none;text-decoration-style:solid;text-decoration-color:#000000;letter-spacing:normal;word-spacing:normal;text-transform:none;writing-mode:lr-tb;direction:ltr;text-orientation:mixed;dominant-baseline:auto;baseline-shift:baseline;text-anchor:start;white-space:normal;shape-padding:0;shape-margin:0;inline-size:0;clip-rule:nonzero;display:inline;overflow:visible;visibility:visible;isolation:auto;mix-blend-mode:normal;color-interpolation:sRGB;color-interpolation-filters:linearRGB;solid-color:#000000;solid-opacity:1;vector-effect:none;fill:url(#linearGradient5135);fill-opacity:1;fill-rule:nonzero;stroke:none;stroke-width:1;stroke-linecap:round;stroke-linejoin:round;stroke-miterlimit:4;stroke-dasharray:none;stroke-dashoffset:0;stroke-opacity:1;color-rendering:auto;image-rendering:auto;shape-rendering:auto;text-rendering:auto;enable-background:accumulate;stop-color:#000000"
       d="m 32.006083,14 c -0.557304,-5e-5 -1.09559,0.24151 -1.449845,0.70117 L 19.352183,29.24414 c -0.230974,0.3001 -0.361031,0.68006 -0.351714,1.06836 0.02442,0.9806 0.881667,1.68725 1.801559,1.6875 h 6.881876 0.320452 v 14.25 c 0,0.95218 0.798155,1.75 1.750756,1.75 h 4.501938 c 0.9526,0 1.75076,-0.79782 1.75076,-1.75 V 32 h 0.32045 6.88774 a 1.0005319,1.0001 0 0 0 0.01,0 c 0.66235,-0.006 1.2627,-0.36441 1.56708,-0.90235 0.30438,-0.53794 0.28468,-1.30881 -0.13482,-1.85351 L 33.45397,14.70117 C 33.09972,14.24151 32.563385,13.99995 32.006083,14 Z m -0.002,2.09765 L 42.71574,30 H 36.32822 35.00733 A 1.0005319,1.0001 0 0 0 34.0069,31 V 46 H 30.005174 V 31 a 1.0005319,1.0001 0 0 0 -1.000432,-1 h -1.320883 -6.389476 z" />
  </g>
</svg>
