<?xml version="1.0" encoding="UTF-8" standalone="no"?>
<svg
   xmlns:dc="http://purl.org/dc/elements/1.1/"
   xmlns:cc="http://creativecommons.org/ns#"
   xmlns:rdf="http://www.w3.org/1999/02/22-rdf-syntax-ns#"
   xmlns:svg="http://www.w3.org/2000/svg"
   xmlns="http://www.w3.org/2000/svg"
   xmlns:sodipodi="http://sodipodi.sourceforge.net/DTD/sodipodi-0.dtd"
   xmlns:inkscape="http://www.inkscape.org/namespaces/inkscape"
   width="64"
   height="64"
   viewBox="0 0 16.933333 16.933334"
   version="1.1"
   id="svg841"
   inkscape:version="1.0.2 (e86c870879, 2021-01-15)"
   sodipodi:docname="filter-nonvc-24.svg">
  <defs
     id="defs835" />
  <sodipodi:namedview
     id="base"
     pagecolor="#c4c4c4"
     bordercolor="#666666"
     borderopacity="1.0"
     inkscape:pageopacity="0"
     inkscape:pageshadow="2"
     inkscape:zoom="8.3962373"
     inkscape:cx="3.6653671"
     inkscape:cy="51.191219"
     inkscape:document-units="px"
     inkscape:current-layer="layer1"
     inkscape:document-rotation="0"
     showgrid="false"
     units="px"
     inkscape:window-width="2048"
     inkscape:window-height="1080"
     inkscape:window-x="0"
     inkscape:window-y="0"
     inkscape:window-maximized="1" />
  <metadata
     id="metadata838">
    <rdf:RDF>
      <cc:Work
         rdf:about="">
        <dc:format>image/svg+xml</dc:format>
        <dc:type
           rdf:resource="http://purl.org/dc/dcmitype/StillImage" />
        <dc:title />
      </cc:Work>
    </rdf:RDF>
  </metadata>
  <g
     inkscape:label="Layer 1"
     inkscape:groupmode="layer"
     id="layer1">
    <path
       id="rect954-7-0-7-3-0-0-5-1-3-4-5-0-1-4-1-0-1-6"
       style="color:#000000;font-style:normal;font-variant:normal;font-weight:normal;font-stretch:normal;font-size:medium;line-height:normal;font-family:sans-serif;font-variant-ligatures:normal;font-variant-position:normal;font-variant-caps:normal;font-variant-numeric:normal;font-variant-alternates:normal;font-variant-east-asian:normal;font-feature-settings:normal;font-variation-settings:normal;text-indent:0;text-align:start;text-decoration:none;text-decoration-line:none;text-decoration-style:solid;text-decoration-color:#000000;letter-spacing:normal;word-spacing:normal;text-transform:none;writing-mode:lr-tb;direction:ltr;text-orientation:mixed;dominant-baseline:auto;baseline-shift:baseline;text-anchor:start;white-space:normal;shape-padding:0;shape-margin:0;inline-size:0;clip-rule:nonzero;display:inline;overflow:visible;visibility:visible;opacity:0.15;isolation:auto;mix-blend-mode:normal;color-interpolation:sRGB;color-interpolation-filters:linearRGB;solid-color:#000000;solid-opacity:1;vector-effect:none;fill:#0c0c0c;fill-opacity:1;fill-rule:nonzero;stroke:none;stroke-width:0.264583;stroke-linecap:round;stroke-linejoin:round;stroke-miterlimit:4;stroke-dasharray:none;stroke-dashoffset:2.1875;stroke-opacity:1;color-rendering:auto;image-rendering:auto;shape-rendering:auto;text-rendering:auto;enable-background:accumulate;stop-color:#000000"
       d="m 3.4395834,2.6458334 c -0.652743,0 -1.190625,0.5378979 -1.190625,1.190625 V 13.890625 c 0,0.652754 0.537882,1.190625 1.190625,1.190625 H 13.49375 c 0.652762,0 1.190633,-0.537871 1.190633,-1.190625 V 3.8364584 c 0,-0.6527271 -0.537871,-1.190625 -1.190633,-1.190625 z m 0,0.79375 H 13.49375 c 0.226722,0 0.396875,0.1701536 0.396875,0.396875 V 13.890625 c 0,0.226748 -0.170153,0.396875 -0.396875,0.396875 H 3.4395834 c -0.2267347,0 -0.396875,-0.170127 -0.396875,-0.396875 V 3.8364584 c 0,-0.2267214 0.1701403,-0.396875 0.396875,-0.396875 z" />
    <path
       id="rect954-7-0-7-3-0-0-5-1-3-4-5-0-6-3-7-5-1"
       style="color:#000000;font-style:normal;font-variant:normal;font-weight:normal;font-stretch:normal;font-size:medium;line-height:normal;font-family:sans-serif;font-variant-ligatures:normal;font-variant-position:normal;font-variant-caps:normal;font-variant-numeric:normal;font-variant-alternates:normal;font-variant-east-asian:normal;font-feature-settings:normal;font-variation-settings:normal;text-indent:0;text-align:start;text-decoration:none;text-decoration-line:none;text-decoration-style:solid;text-decoration-color:#000000;letter-spacing:normal;word-spacing:normal;text-transform:none;writing-mode:lr-tb;direction:ltr;text-orientation:mixed;dominant-baseline:auto;baseline-shift:baseline;text-anchor:start;white-space:normal;shape-padding:0;shape-margin:0;inline-size:0;clip-rule:nonzero;display:inline;overflow:visible;visibility:visible;opacity:0.95;isolation:auto;mix-blend-mode:normal;color-interpolation:sRGB;color-interpolation-filters:linearRGB;solid-color:#000000;solid-opacity:1;vector-effect:none;fill:#464648;fill-opacity:1;fill-rule:nonzero;stroke:none;stroke-width:0.264583;stroke-linecap:round;stroke-linejoin:round;stroke-miterlimit:4;stroke-dasharray:none;stroke-dashoffset:2.1875;stroke-opacity:1;color-rendering:auto;image-rendering:auto;shape-rendering:auto;text-rendering:auto;enable-background:accumulate;stop-color:#000000"
       d="m 3.4395834,2.2489584 c -0.652743,0 -1.190625,0.5378979 -1.190625,1.190625 V 13.49375 c 0,0.652754 0.537882,1.190625 1.190625,1.190625 H 13.49375 c 0.652754,0 1.190625,-0.537871 1.190625,-1.190625 V 3.4395834 c 0,-0.6527271 -0.537871,-1.190625 -1.190625,-1.190625 z m 0,0.79375 H 13.49375 c 0.226722,0 0.396875,0.1701536 0.396875,0.396875 V 13.49375 c 0,0.226748 -0.170153,0.396875 -0.396875,0.396875 H 3.4395834 c -0.2267347,0 -0.396875,-0.170127 -0.396875,-0.396875 V 3.4395834 c 0,-0.2267214 0.1701403,-0.396875 0.396875,-0.396875 z" />
    <rect
       style="fill:#fbfaf9;fill-opacity:1;stroke-width:0.130969;stroke-linecap:round;stroke-linejoin:round;stroke-miterlimit:4;stroke-dasharray:none;stroke-dashoffset:2.1875"
       id="rect954-7-0-7-3-0-0-5-1-3-4-9-1-5-5-0"
       width="11.641668"
       height="11.641668"
       x="2.6458173"
       y="2.6458335"
       rx="0.79375011"
       ry="0.79375011" />
    <path
       id="path2193-6-6-3-4-6-4-2-7"
       style="display:inline;opacity:0.15;mix-blend-mode:normal;fill:#0c0c0c;fill-opacity:1;stroke:none;stroke-width:0;stroke-linecap:round;stroke-linejoin:round;stroke-dashoffset:2.1875"
       d="m 8.4898841,4.154858 c -1.2999165,0 -2.3818242,0.8467725 -2.6403327,2.1499513 l -0.039865,0.1652059 c -0.022463,0.091519 0.032935,0.1831181 0.1244653,0.2055018 L 6.960431,6.9266331 c 0.09153,0.02249 0.1835573,-0.032914 0.2059649,-0.1244336 L 7.2067025,6.6365439 C 7.3265561,5.8343008 7.8567176,5.472536 8.4903259,5.472536 c 0.7326441,0 1.2707801,0.4753769 1.2707801,1.2844727 0,0.5802842 -0.258336,0.9567598 -0.8189855,1.3447184 C 8.5132283,8.392954 8.1560355,8.69151 7.9145079,9.119976 7.6950757,9.509258 7.584046,9.98773 7.5619347,10.617941 v 0 0.169624 c 0,0.09424 0.075861,0.170101 0.1700874,0.170101 h 1.0271655 c 0.094226,0 0.1700847,-0.07583 0.1700847,-0.170101 V 10.617491 C 8.9494603,10.270067 9.0082533,10.019533 9.1157507,9.816703 9.243449,9.575721 9.448395,9.36961 9.8054,9.119976 10.646715,8.536067 11.128447,7.7824014 11.128447,6.7928862 11.128447,5.5676008 10.380761,4.5775034 9.269008,4.2611411 9.1948928,4.2399745 9.1194681,4.2216389 9.042223,4.2066899 8.8656771,4.1724528 8.6807889,4.1544082 8.4898841,4.1544082 Z m -0.2693062,7.710355 a 0.90712991,0.9070998 0 0 0 -0.8933974,0.907098 0.90712991,0.9070998 0 0 0 0.9071293,0.907097 0.90712991,0.9070998 0 0 0 0.9071293,-0.907097 0.90712991,0.9070998 0 0 0 -0.9071293,-0.907098 0.90712991,0.9070998 0 0 0 -0.013732,0 z" />
    <path
       id="path2193-6-6-3-4-6-4-2"
       style="display:inline;mix-blend-mode:normal;fill:#323234;fill-opacity:1;stroke:none;stroke-width:0;stroke-linecap:round;stroke-linejoin:round;stroke-dashoffset:2.1875"
       d="m 8.4898841,3.6252415 c -1.2999165,0 -2.3818242,0.8467726 -2.6403327,2.1499514 l -0.039865,0.1652058 c -0.022463,0.091519 0.032935,0.1831181 0.1244653,0.2055019 l 1.0262791,0.251116 c 0.09153,0.02249 0.1835573,-0.032914 0.2059649,-0.1244335 L 7.2067025,6.1069274 C 7.3265561,5.3046843 7.8567176,4.9429195 8.4903259,4.9429195 c 0.7326441,0 1.2707801,0.4753769 1.2707801,1.2844727 0,0.5802842 -0.258336,0.9567599 -0.8189855,1.3447184 C 8.5132283,7.8633375 8.1560355,8.1618933 7.9145079,8.59036 7.6950757,8.979641 7.584046,9.458114 7.5619347,10.088325 v 0 0.169624 c 0,0.09425 0.075861,0.170101 0.1700874,0.170101 h 1.0271655 c 0.094226,0 0.1700847,-0.07583 0.1700847,-0.170101 V 10.087875 C 8.94946,9.74045 9.0082531,9.489916 9.1157507,9.287087 9.243449,9.046104 9.448395,8.839994 9.8054,8.59036 10.646715,8.0064506 11.128447,7.252785 11.128447,6.2632697 11.128447,5.0379843 10.380761,4.047887 9.269008,3.7315247 9.1948928,3.710358 9.1194681,3.6920224 9.042223,3.6770734 8.8656771,3.6428363 8.6807889,3.6247918 8.4898841,3.6247918 Z M 8.2205779,11.335597 a 0.90712991,0.9070998 0 0 0 -0.8933974,0.907097 0.90712991,0.9070998 0 0 0 0.9071293,0.907098 0.90712991,0.9070998 0 0 0 0.9071293,-0.907098 0.90712991,0.9070998 0 0 0 -0.9071293,-0.907097 0.90712991,0.9070998 0 0 0 -0.013732,0 z" />
  </g>
</svg>
