<?xml version="1.0" encoding="UTF-8" standalone="no"?>
<svg
   xmlns:dc="http://purl.org/dc/elements/1.1/"
   xmlns:cc="http://creativecommons.org/ns#"
   xmlns:rdf="http://www.w3.org/1999/02/22-rdf-syntax-ns#"
   xmlns:svg="http://www.w3.org/2000/svg"
   xmlns="http://www.w3.org/2000/svg"
   xmlns:sodipodi="http://sodipodi.sourceforge.net/DTD/sodipodi-0.dtd"
   xmlns:inkscape="http://www.inkscape.org/namespaces/inkscape"
   width="64"
   height="64"
   viewBox="0 0 64 64"
   version="1.1"
   id="svg6374"
   inkscape:version="1.0.2 (e86c870879, 2021-01-15)"
   sodipodi:docname="go-jump-rtl.svg">
  <defs
     id="defs6368" />
  <sodipodi:namedview
     id="base"
     pagecolor="#cecece"
     bordercolor="#666666"
     borderopacity="1.0"
     inkscape:pageopacity="0"
     inkscape:pageshadow="2"
     inkscape:zoom="6.8818909"
     inkscape:cx="20.896034"
     inkscape:cy="43.578666"
     inkscape:document-units="px"
     inkscape:current-layer="layer1"
     inkscape:document-rotation="0"
     showgrid="false"
     units="px"
     inkscape:window-width="1500"
     inkscape:window-height="970"
     inkscape:window-x="68"
     inkscape:window-y="56"
     inkscape:window-maximized="0" />
  <metadata
     id="metadata6371">
    <rdf:RDF>
      <cc:Work
         rdf:about="">
        <dc:format>image/svg+xml</dc:format>
        <dc:type
           rdf:resource="http://purl.org/dc/dcmitype/StillImage" />
        <dc:title></dc:title>
      </cc:Work>
    </rdf:RDF>
  </metadata>
  <g
     inkscape:label="Layer 1"
     inkscape:groupmode="layer"
     id="layer1">
    <path
       id="path958-2-0-5"
       style="color:#000000;font-style:normal;font-variant:normal;font-weight:normal;font-stretch:normal;font-size:medium;line-height:normal;font-family:sans-serif;font-variant-ligatures:normal;font-variant-position:normal;font-variant-caps:normal;font-variant-numeric:normal;font-variant-alternates:normal;font-variant-east-asian:normal;font-feature-settings:normal;font-variation-settings:normal;text-indent:0;text-align:start;text-decoration:none;text-decoration-line:none;text-decoration-style:solid;text-decoration-color:#000000;letter-spacing:normal;word-spacing:normal;text-transform:none;writing-mode:lr-tb;direction:ltr;text-orientation:mixed;dominant-baseline:auto;baseline-shift:baseline;text-anchor:start;white-space:normal;shape-padding:0;shape-margin:0;inline-size:0;clip-rule:nonzero;display:inline;overflow:visible;visibility:visible;opacity:0.075;isolation:auto;mix-blend-mode:normal;color-interpolation:sRGB;color-interpolation-filters:linearRGB;solid-color:#000000;solid-opacity:1;vector-effect:none;fill:#0c0c0c;fill-opacity:1;fill-rule:nonzero;stroke:none;stroke-width:0;stroke-linecap:round;stroke-linejoin:round;stroke-miterlimit:4;stroke-dasharray:none;stroke-dashoffset:0;stroke-opacity:1;color-rendering:auto;image-rendering:auto;shape-rendering:auto;text-rendering:auto;enable-background:accumulate;stop-color:#000000"
       d="m 5.3134315,39.74596 a 1.0000973,1.0002167 0 0 0 0.009,0.10157 z m 0,-0.007 c 0.009,0.36875 0.12758,0.72705 0.33935,1.02893 L 17.890091,58.22094 c 0.72917,1.0394 2.34163,1.0394 3.0708,0 l 12.2373,-17.45259 c 0.83776,-1.19412 -0.0773,-2.95112 -1.53516,-2.9515 h -3.77392 -0.6792 -2.02295 V 27.54963 a 1.0000973,1.0002167 0 0 0 0.002,-0.0464 c 0,-6.15416 4.84553,-11.00023 10.99902,-11.00023 6.14869,0 10.99145,4.84039 10.99902,10.98753 a 1.0000973,1.0002167 0 0 0 0,0.009 v 10.44646 c 0,1.02157 0.85355,1.8752 1.87501,1.8752 h 7.75093 c 1.02146,0 1.875,-0.85363 1.875,-1.8752 V 27.50344 c 0,-12.36549 -10.13598,-22.50294 -22.5,-22.50294 -12.3613,0 -22.49552,10.13381 -22.5,22.49562 v 0.007 10.31362 h -1.98389 -0.73974 -3.7758795 c -1.00954,-1.7e-4 -1.85491,0.82831 -1.875,1.83859 -5.5e-4,0.0267 -6e-4,0.0544 0,0.0811 a 1.0000973,1.0002167 0 0 0 0,0.001 c 0,2.5e-4 -1e-5,7.5e-4 0,10e-4 z m 2.11474,0.0786 h 3.5361395 0.73974 2.98438 a 1.0000973,1.0002167 0 0 0 1,-1.00011 v -11.31421 -0.008 c 0.004,-11.26958 9.23032,-20.49442 20.49951,-20.49442 11.27167,0 20.49951,9.22872 20.49951,20.50174 V 37.8206 h -7.5 v -10.277 a 1.0000973,1.0002167 0 0 0 0.002,-0.0459 c -0.003,-7.21247 -5.78939,-12.99359 -13.00147,-12.99359 -7.14867,0 -12.87773,5.68538 -12.98095,12.809 a 1.0000973,1.0002167 0 0 0 -0.0186,0.18996 v 11.31422 a 1.0000973,1.0002167 0 0 0 1.00049,1.00011 h 3.02099 0.6792 3.53222 l -11.99553,17.11171 z" />
    <path
       id="rect867-2-6-9"
       style="fill:#af87cd;fill-opacity:1;stroke:none;stroke-width:1.99975;stroke-linecap:round;stroke-miterlimit:4;stroke-dasharray:none;stroke-opacity:1"
       d="m 6.3314615,37.70023 a 0.8755177,0.87407909 0 0 0 0.1582,0.47986 L 18.727401,55.62748 a 0.8755177,0.87407909 0 0 0 1.43408,0 l 12.23628,-17.44739 a 0.8755177,0.87407909 0 0 0 -0.7168,-1.37563 h -3.77391 -0.67871 -3.02196 V 25.49472 h 5e-4 c 0,-6.68211 5.31575,-11.99608 11.99947,-11.99608 6.68208,0 11.99831,5.3114 12.00092,11.9912 h -10e-4 V 35.9326 c 0,0.48463 0.39025,0.87478 0.875,0.87478 h 7.74997 c 0.48474,0 0.87499,-0.39015 0.87499,-0.87478 V 25.49472 C 57.706231,13.67961 48.024281,4 36.206321,4 c -11.81534,0 -21.49563,9.67536 -21.4999,21.48691 v 0.008 11.30973 h -2.98286 -0.7417 -3.7748795 a 0.8755177,0.87407909 0 0 0 -0.87549,0.85673 0.8755177,0.87407909 0 0 0 0,0.039 z" />
    <path
       id="path958-8-4"
       style="color:#000000;font-style:normal;font-variant:normal;font-weight:normal;font-stretch:normal;font-size:medium;line-height:normal;font-family:sans-serif;font-variant-ligatures:normal;font-variant-position:normal;font-variant-caps:normal;font-variant-numeric:normal;font-variant-alternates:normal;font-variant-east-asian:normal;font-feature-settings:normal;font-variation-settings:normal;text-indent:0;text-align:start;text-decoration:none;text-decoration-line:none;text-decoration-style:solid;text-decoration-color:#000000;letter-spacing:normal;word-spacing:normal;text-transform:none;writing-mode:lr-tb;direction:ltr;text-orientation:mixed;dominant-baseline:auto;baseline-shift:baseline;text-anchor:start;white-space:normal;shape-padding:0;shape-margin:0;inline-size:0;clip-rule:nonzero;display:inline;overflow:visible;visibility:visible;opacity:0.85;isolation:auto;mix-blend-mode:normal;color-interpolation:sRGB;color-interpolation-filters:linearRGB;solid-color:#000000;solid-opacity:1;vector-effect:none;fill:#4c2a65;fill-opacity:1;fill-rule:nonzero;stroke:none;stroke-width:0;stroke-linecap:round;stroke-linejoin:round;stroke-miterlimit:4;stroke-dasharray:none;stroke-dashoffset:0;stroke-opacity:1;color-rendering:auto;image-rendering:auto;shape-rendering:auto;text-rendering:auto;enable-background:accumulate;stop-color:#000000"
       d="m 5.3134315,37.74546 a 1.0000973,1.0002167 0 0 0 0.009,0.10157 z m 0,-0.007 c 0.009,0.36875 0.12758,0.72705 0.33935,1.02893 L 17.890091,56.22044 c 0.72917,1.0394 2.34163,1.0394 3.0708,0 l 12.2373,-17.45259 c 0.83776,-1.19412 -0.0773,-2.95112 -1.53516,-2.9515 h -3.77392 -0.6792 -2.02295 V 25.54913 a 1.0000973,1.0002167 0 0 0 0.002,-0.0464 c 0,-6.15416 4.84553,-11.00023 10.99902,-11.00023 6.14869,0 10.99145,4.84039 10.99902,10.98753 a 1.0000973,1.0002167 0 0 0 0,0.009 v 10.44646 c 0,1.02157 0.85355,1.8752 1.87501,1.8752 h 7.75093 c 1.02146,0 1.875,-0.85363 1.875,-1.8752 V 25.50294 C 58.687941,13.13745 48.551961,3 36.187941,3 c -12.3613,0 -22.49552,10.13381 -22.5,22.49562 v 0.007 10.31362 h -1.98389 -0.73974 -3.7758795 c -1.00954,-1.7e-4 -1.85491,0.82831 -1.875,1.83859 -5.5e-4,0.0267 -6e-4,0.0544 0,0.0811 a 1.0000973,1.0002167 0 0 0 0,10e-4 c 0,2.5e-4 -1e-5,7.5e-4 0,10e-4 z m 2.11474,0.0786 h 3.5361395 0.73974 2.98438 a 1.0000973,1.0002167 0 0 0 1,-1.00011 v -11.31421 -0.008 c 0.004,-11.26958 9.23032,-20.49442 20.49951,-20.49442 11.27167,0 20.49951,9.22872 20.49951,20.50174 V 35.8201 h -7.5 v -10.277 a 1.0000973,1.0002167 0 0 0 0.002,-0.0459 c -0.003,-7.21247 -5.78939,-12.99359 -13.00147,-12.99359 -7.14867,0 -12.87773,5.68538 -12.98095,12.809 a 1.0000973,1.0002167 0 0 0 -0.0186,0.18996 v 11.31422 a 1.0000973,1.0002167 0 0 0 1.00049,1.00011 h 3.02099 0.6792 3.53222 l -11.99553,17.11171 z" />
  </g>
</svg>
