<?xml version="1.0" encoding="UTF-8" standalone="no"?>
<svg
   xmlns:dc="http://purl.org/dc/elements/1.1/"
   xmlns:cc="http://creativecommons.org/ns#"
   xmlns:rdf="http://www.w3.org/1999/02/22-rdf-syntax-ns#"
   xmlns:svg="http://www.w3.org/2000/svg"
   xmlns="http://www.w3.org/2000/svg"
   xmlns:sodipodi="http://sodipodi.sourceforge.net/DTD/sodipodi-0.dtd"
   xmlns:inkscape="http://www.inkscape.org/namespaces/inkscape"
   width="64"
   height="64"
   viewBox="0 0 64 64"
   version="1.1"
   id="svg6374"
   inkscape:version="1.0.2 (e86c870879, 2021-01-15)"
   sodipodi:docname="slideshow-play.svg">
  <defs
     id="defs6368" />
  <sodipodi:namedview
     id="base"
     pagecolor="#cecece"
     bordercolor="#666666"
     borderopacity="1.0"
     inkscape:pageopacity="0"
     inkscape:pageshadow="2"
     inkscape:zoom="4.9704778"
     inkscape:cx="23.572436"
     inkscape:cy="51.052774"
     inkscape:document-units="px"
     inkscape:current-layer="layer1"
     inkscape:document-rotation="0"
     showgrid="false"
     units="px"
     inkscape:window-width="1500"
     inkscape:window-height="970"
     inkscape:window-x="68"
     inkscape:window-y="56"
     inkscape:window-maximized="0" />
  <metadata
     id="metadata6371">
    <rdf:RDF>
      <cc:Work
         rdf:about="">
        <dc:format>image/svg+xml</dc:format>
        <dc:type
           rdf:resource="http://purl.org/dc/dcmitype/StillImage" />
        <dc:title></dc:title>
      </cc:Work>
    </rdf:RDF>
  </metadata>
  <g
     inkscape:label="Layer 1"
     inkscape:groupmode="layer"
     id="layer1">
    <path
       id="rect896-3-0-6-1-3-5-8-3"
       style="opacity:0.15;fill:#0c0c0c;fill-opacity:1;stroke-width:0;stroke-linecap:round;stroke-linejoin:round;stroke-dashoffset:2.1875"
       d="m 16.700012,5.7999989 c -6.59269,0 -11.8999997,5.3073991 -11.8999997,11.9000081 v 30.599995 c 0,6.5926 5.3073097,11.9 11.8999997,11.9 h 30.6 c 6.59251,0 11.9,-5.3074 11.9,-11.9 V 17.700007 c 0,-6.592609 -5.30749,-11.9000081 -11.9,-11.9000081 z m 0,1.699999 h 30.6 c 5.65071,0 10.2,4.5492001 10.2,10.2000091 v 30.599995 c 0,5.6508 -4.54929,10.2 -10.2,10.2 h -30.6 c -5.65089,0 -10.1999997,-4.5492 -10.1999997,-10.2 V 17.700007 c 0,-5.650809 4.5491097,-10.2000091 10.1999997,-10.2000091 z" />
    <rect
       style="fill:#a0a0a2;fill-opacity:1;stroke-width:0;stroke-linecap:round;stroke-linejoin:round;stroke-dashoffset:2.1875"
       id="rect896-3-0-6-6"
       width="54.400002"
       height="54.400002"
       x="4.8000002"
       y="4.8000002"
       rx="11.9"
       ry="11.9" />
    <path
       id="rect1323-3-6-7-9-0"
       style="opacity:0.15;fill:#0c0c10;fill-opacity:1;stroke:none;stroke-width:1.48746;stroke-linecap:round;stroke-linejoin:round;stroke-miterlimit:4;stroke-dasharray:none;stroke-dashoffset:2.1875;stroke-opacity:1"
       d="m 21.117862,16.149999 v 0.0017 c -0.0434,0 -0.085,0.0059 -0.12784,0.0076 -0.0561,0.0017 -0.11127,0.0025 -0.16703,0.0076 -0.0688,0.0051 -0.1371,0.01513 -0.20485,0.02473 -0.0433,0.006 -0.0876,0.01097 -0.13073,0.01896 -0.0842,0.01479 -0.16626,0.03451 -0.24828,0.05517 -0.0238,0.0059 -0.0467,0.01062 -0.0697,0.01734 -0.0936,0.02567 -0.18573,0.05568 -0.27608,0.0886 -0.0136,0.0042 -0.0272,0.0093 -0.0391,0.01445 -0.0978,0.03689 -0.19414,0.07845 -0.28756,0.123496 -0.009,0.0034 -0.0111,0.006 -0.0187,0.0087 -1.04652,0.511904 -1.80021,1.517573 -1.96256,2.719261 -0.0102,0.0215 -0.0102,0.0436 -0.0102,0.06536 -0.008,0.06596 -0.0127,0.132005 -0.0127,0.199019 -0.0102,0.05933 -0.0119,0.119382 -0.0119,0.178653 -9e-5,0.01411 0,0.02669 0,0.04071 v 28.559566 0.04216 c 0,0.06001 0.0119,0.12002 0.0119,0.180124 0.009,0.06545 0.009,0.13169 0.0127,0.196103 0,0.02406 0.0102,0.04718 0.0102,0.07115 0.115,0.842044 0.52062,1.586789 1.11426,2.133866 0.0858,0.07905 0.17536,0.153272 0.26869,0.223686 0.0921,0.06953 0.18717,0.135643 0.28611,0.196103 0.0972,0.05942 0.19618,0.114011 0.29928,0.164127 0.0972,0.04718 0.19737,0.09092 0.2992,0.12931 0.0127,0.0042 0.0264,0.0099 0.0391,0.01445 0.0885,0.03222 0.17859,0.06188 0.27013,0.08716 0.0289,0.0085 0.0586,0.01445 0.0887,0.02184 0.0773,0.01929 0.15427,0.03681 0.23383,0.05083 0.0467,0.0085 0.0949,0.01513 0.14238,0.02184 0.0595,0.0085 0.11908,0.01513 0.18011,0.02023 0.0688,0.0059 0.13711,0.0093 0.2063,0.01156 0.034,0.0017 0.0688,0.0042 0.10319,0.0042 0.0153,0 0.0306,-0.0025 0.045,-0.0025 0.0723,-5.95e-4 0.14288,-0.0051 0.21505,-0.0099 0.0459,-0.0034 0.094,-0.0051 0.1394,-0.01029 0.0544,-0.0059 0.10837,-0.01606 0.16269,-0.02473 0.0748,-0.0119 0.1479,-0.02312 0.22083,-0.03918 0,0 -3.4e-4,-0.0017 0.009,-0.0017 0.008,-7.39e-4 0.0136,-0.0034 0.0136,-0.0042 0.35394,-0.08016 0.68586,-0.213027 0.99067,-0.389283 l 0.0187,-0.01156 24.49275,-14.141059 c 0,-7.39e-4 0.009,-6.8e-4 0.009,-0.0017 0.4743,-0.232177 0.89743,-0.575645 1.23769,-1.01246 0.017,-0.02219 0.0357,-0.04429 0.0519,-0.06681 0.045,-0.06086 0.0875,-0.124423 0.1292,-0.188836 0.0229,-0.03587 0.0476,-0.07234 0.0697,-0.108945 0.0102,-0.017 0.0229,-0.03086 0.0331,-0.04794 0.0213,-0.03621 0.0357,-0.07386 0.0553,-0.110381 0.0314,-0.05857 0.062,-0.117198 0.0901,-0.177208 0.0195,-0.04259 0.0366,-0.08629 0.0553,-0.129276 0.0255,-0.06163 0.0518,-0.123072 0.0739,-0.185912 0.0195,-0.05483 0.0374,-0.108902 0.0535,-0.164161 0.0153,-0.05508 0.0332,-0.111188 0.0459,-0.167059 0.0136,-0.05406 0.0238,-0.108324 0.0349,-0.162681 0.0119,-0.06035 0.0246,-0.119187 0.0331,-0.180132 0.009,-0.05814 0.011,-0.116136 0.0187,-0.174284 0.009,-0.05151 0.009,-0.103675 0.0136,-0.155423 0.009,-0.06061 0.009,-0.121116 0.009,-0.181577 0,-0.06112 4.2e-4,-0.121762 -0.009,-0.183022 0,-0.05091 -0.009,-0.101813 -0.0136,-0.152541 -0.009,-0.05967 -0.011,-0.119085 -0.0187,-0.178644 -0.009,-0.05874 -0.0195,-0.117521 -0.0315,-0.175763 -0.0102,-0.05559 -0.0213,-0.110194 -0.0349,-0.165614 -0.0136,-0.05474 -0.0306,-0.108681 -0.0459,-0.162682 -0.017,-0.05805 -0.034,-0.11537 -0.0553,-0.172873 -0.0195,-0.05644 -0.0434,-0.113016 -0.0654,-0.168504 -0.0213,-0.04981 -0.0408,-0.09891 -0.0638,-0.148163 -0.0263,-0.05789 -0.057,-0.114946 -0.0871,-0.171386 -0.0195,-0.03638 -0.0357,-0.07301 -0.0561,-0.108944 -0.009,-0.01513 -0.0187,-0.02728 -0.0281,-0.04216 -0.0263,-0.04462 -0.0553,-0.08866 -0.0842,-0.132201 -0.0382,-0.05865 -0.0756,-0.117223 -0.11764,-0.172864 -0.0153,-0.02057 -0.0332,-0.03918 -0.0493,-0.05959 -0.0595,-0.07701 -0.12129,-0.152728 -0.18598,-0.223695 -0.29537,-0.322787 -0.642,-0.582199 -1.01974,-0.772777 L 22.911872,16.631626 c -0.30795,-0.178041 -0.64277,-0.312264 -1.00079,-0.39219 0,-7.48e-4 -0.009,-6.71e-4 -0.009,-0.0017 -0.0816,-0.01827 -0.16583,-0.03256 -0.2499,-0.04505 -0.0391,-0.006 -0.0782,-0.01284 -0.11764,-0.01734 -0.0561,-0.0068 -0.11551,-0.0093 -0.1728,-0.01317 -0.0646,-0.0043 -0.12852,-0.0094 -0.19321,-0.0099 -0.0153,0 -0.0323,-0.0017 -0.0459,-0.0017 z" />
    <path
       id="rect1323-3-6-7-4"
       style="fill:#fdfcfb;fill-opacity:1;stroke:none;stroke-width:1.48746;stroke-linecap:round;stroke-linejoin:round;stroke-miterlimit:4;stroke-dasharray:none;stroke-dashoffset:2.1875;stroke-opacity:1"
       d="m 21.117862,14.150008 v 0.0017 c -0.0434,0 -0.085,0.0059 -0.12784,0.0076 -0.0561,0.0017 -0.11127,0.0025 -0.16703,0.0076 -0.0688,0.0051 -0.1371,0.01513 -0.20485,0.02473 -0.0433,0.006 -0.0876,0.01097 -0.13073,0.01896 -0.0842,0.01479 -0.16626,0.03451 -0.24828,0.05517 -0.0238,0.0059 -0.0467,0.01062 -0.0697,0.01734 -0.0936,0.02567 -0.18573,0.05568 -0.27608,0.0886 -0.0136,0.0043 -0.0272,0.0093 -0.0391,0.01445 -0.0978,0.03689 -0.19414,0.07845 -0.28756,0.123496 -0.009,0.0034 -0.0111,0.006 -0.0187,0.0087 -1.04652,0.511904 -1.80021,1.517573 -1.96256,2.719261 -0.0102,0.02151 -0.0102,0.04361 -0.0102,0.06536 -0.008,0.06596 -0.0127,0.132005 -0.0127,0.199027 -0.0102,0.05933 -0.0119,0.119374 -0.0119,0.178653 -9e-5,0.01411 0,0.02669 0,0.04071 v 28.55955 0.04216 c 0,0.06001 0.0119,0.12002 0.0119,0.180132 0.009,0.06545 0.009,0.131682 0.0127,0.196095 0,0.02405 0.0102,0.04718 0.0102,0.07115 0.115,0.842044 0.52062,1.586788 1.11426,2.133865 0.0858,0.07905 0.17536,0.153272 0.26869,0.223695 0.0921,0.06953 0.18717,0.135634 0.28611,0.196095 0.0972,0.05942 0.19618,0.11401 0.29928,0.164126 0.0972,0.04718 0.19737,0.09092 0.2992,0.129311 0.0127,0.0042 0.0264,0.0099 0.0391,0.01445 0.0885,0.03222 0.17859,0.06188 0.27013,0.08716 0.0289,0.0085 0.0586,0.01445 0.0887,0.02184 0.0773,0.01929 0.15427,0.03681 0.23383,0.05083 0.0467,0.0085 0.0949,0.01513 0.14238,0.02184 0.0595,0.0085 0.11908,0.01513 0.18011,0.02023 0.0688,0.0059 0.13711,0.0093 0.2063,0.01156 0.034,0.0017 0.0688,0.0042 0.10319,0.0042 0.0153,0 0.0306,-0.0025 0.045,-0.0025 0.0723,-5.87e-4 0.14288,-0.0051 0.21505,-0.0099 0.0459,-0.0034 0.094,-0.0051 0.1394,-0.01029 0.0544,-0.0059 0.10837,-0.01606 0.16269,-0.02473 0.0748,-0.0119 0.1479,-0.02312 0.22083,-0.03919 0,0 -3.4e-4,-0.0017 0.009,-0.0017 0.008,-7.4e-4 0.0136,-0.0034 0.0136,-0.0042 0.35394,-0.08015 0.68586,-0.213027 0.99067,-0.389283 l 0.0187,-0.01156 24.49275,-14.141059 c 0,-7.4e-4 0.009,-6.8e-4 0.009,-0.0017 0.4743,-0.232178 0.89743,-0.575646 1.23769,-1.012461 0.017,-0.02219 0.0357,-0.04428 0.0519,-0.06681 0.045,-0.06086 0.0875,-0.124423 0.1292,-0.188836 0.0229,-0.03587 0.0476,-0.07234 0.0697,-0.108936 0.0102,-0.017 0.0229,-0.03086 0.0331,-0.04794 0.0213,-0.03621 0.0357,-0.07387 0.0553,-0.110389 0.0314,-0.05856 0.062,-0.11719 0.0901,-0.177208 0.0195,-0.04258 0.0366,-0.08628 0.0553,-0.129268 0.0255,-0.06162 0.0518,-0.12308 0.0739,-0.185921 0.0195,-0.05482 0.0374,-0.108868 0.0535,-0.16416 0.0153,-0.05508 0.0332,-0.111189 0.0459,-0.167059 0.0136,-0.05406 0.0238,-0.108324 0.0349,-0.162682 0.0119,-0.06035 0.0246,-0.119221 0.0331,-0.180132 0.009,-0.05814 0.011,-0.116135 0.0187,-0.174284 0.009,-0.05151 0.009,-0.103666 0.0136,-0.155422 0.009,-0.0606 0.009,-0.121117 0.009,-0.181577 0,-0.06111 4.2e-4,-0.121754 -0.009,-0.183022 0,-0.05091 -0.009,-0.101805 -0.0136,-0.152533 -0.009,-0.05967 -0.011,-0.119093 -0.0187,-0.178653 -0.009,-0.05873 -0.0195,-0.117521 -0.0315,-0.175763 -0.0102,-0.05559 -0.0213,-0.110194 -0.0349,-0.165605 -0.0136,-0.05474 -0.0306,-0.10869 -0.0459,-0.16269 -0.017,-0.05806 -0.034,-0.115362 -0.0553,-0.172873 -0.0195,-0.05644 -0.0434,-0.113016 -0.0654,-0.168496 -0.0213,-0.04981 -0.0408,-0.09895 -0.0638,-0.148163 -0.0263,-0.05789 -0.057,-0.114954 -0.0871,-0.171394 -0.0195,-0.03638 -0.0357,-0.07302 -0.0561,-0.108945 -0.009,-0.01513 -0.0187,-0.02728 -0.0281,-0.04216 -0.0263,-0.04462 -0.0553,-0.08866 -0.0842,-0.132192 -0.0382,-0.05865 -0.0756,-0.117232 -0.11764,-0.172873 -0.0153,-0.02057 -0.0332,-0.03918 -0.0493,-0.05959 -0.0595,-0.07701 -0.12129,-0.152762 -0.18598,-0.223694 -0.29537,-0.322788 -0.642,-0.582199 -1.01974,-0.772778 L 22.911872,14.631669 c -0.30795,-0.178041 -0.64277,-0.312265 -1.00079,-0.39219 0,-7.48e-4 -0.009,-6.72e-4 -0.009,-0.0017 -0.0816,-0.01827 -0.16583,-0.03255 -0.2499,-0.04505 -0.0391,-0.0059 -0.0782,-0.01283 -0.11764,-0.01734 -0.0561,-0.0068 -0.11551,-0.0094 -0.1728,-0.01318 -0.0646,-0.0043 -0.12852,-0.0093 -0.19321,-0.0099 -0.0153,0 -0.0323,-0.0017 -0.0459,-0.0017 z" />
    <path
       id="rect896-3-0-6-1-2-2-8"
       style="opacity:0.85;fill:#474748;fill-opacity:1;stroke-width:0;stroke-linecap:round;stroke-linejoin:round;stroke-dashoffset:2.1875"
       d="m 16.700072,4.8000069 c -6.59269,0 -11.8999997,5.3074001 -11.8999997,11.9000091 v 30.6 c 0,6.592592 5.3073097,11.9 11.8999997,11.9 h 30.6 c 6.59251,0 11.9,-5.307408 11.9,-11.9 v -30.6 c 0,-6.592609 -5.30749,-11.9000091 -11.9,-11.9000091 z m 0,0.85 h 30.6 c 6.1217,0 11.05,4.9283001 11.05,11.0500091 v 30.6 c 0,6.1217 -4.9283,11.049992 -11.05,11.049992 h -30.6 c -6.1217,0 -11.0499997,-4.928292 -11.0499997,-11.049992 v -30.6 c 0,-6.121709 4.9282997,-11.0500091 11.0499997,-11.0500091 z" />
    <path
       id="rect896-3-0-6-1-3-5-8"
       style="opacity:0.15;fill:#0c0c0c;fill-opacity:1;stroke-width:0;stroke-linecap:round;stroke-linejoin:round;stroke-dashoffset:2.1875"
       d="m 16.700072,4.8000069 c -6.59269,0 -11.8999997,5.3074001 -11.8999997,11.9000091 v 30.6 c 0,6.592592 5.3073097,11.9 11.8999997,11.9 h 30.6 c 6.59251,0 11.9,-5.307408 11.9,-11.9 v -30.6 c 0,-6.592609 -5.30749,-11.9000091 -11.9,-11.9000091 z m 0,1.7 h 30.6 c 5.65071,0 10.2,4.5492001 10.2,10.2000091 v 30.6 c 0,5.6508 -4.54929,10.2 -10.2,10.2 h -30.6 c -5.65089,0 -10.1999997,-4.5492 -10.1999997,-10.2 v -30.6 c 0,-5.650809 4.5491097,-10.2000091 10.1999997,-10.2000091 z" />
    <path
       id="rect1323-3-6-7-2-2-8-3-6-8"
       style="color:#000000;font-style:normal;font-variant:normal;font-weight:normal;font-stretch:normal;font-size:medium;line-height:normal;font-family:sans-serif;font-variant-ligatures:normal;font-variant-position:normal;font-variant-caps:normal;font-variant-numeric:normal;font-variant-alternates:normal;font-variant-east-asian:normal;font-feature-settings:normal;font-variation-settings:normal;text-indent:0;text-align:start;text-decoration:none;text-decoration-line:none;text-decoration-style:solid;text-decoration-color:#000000;letter-spacing:normal;word-spacing:normal;text-transform:none;writing-mode:lr-tb;direction:ltr;text-orientation:mixed;dominant-baseline:auto;baseline-shift:baseline;text-anchor:start;white-space:normal;shape-padding:0;shape-margin:0;inline-size:0;clip-rule:nonzero;display:inline;overflow:visible;visibility:visible;opacity:0.6;isolation:auto;mix-blend-mode:normal;color-interpolation:sRGB;color-interpolation-filters:linearRGB;solid-color:#000000;solid-opacity:1;vector-effect:none;fill:#0c0c0c;fill-opacity:1;fill-rule:nonzero;stroke:none;stroke-width:0.849929;stroke-linecap:round;stroke-linejoin:round;stroke-miterlimit:4;stroke-dasharray:none;stroke-dashoffset:2.1875;stroke-opacity:1;color-rendering:auto;image-rendering:auto;shape-rendering:auto;text-rendering:auto;enable-background:accumulate;stop-color:#000000"
       d="m 21.117432,13.725356 a 0.42499801,0.42501655 0 0 0 -0.0612,0.0051 c -0.0297,0.0017 -0.0748,0.0043 -0.0833,0.0051 -0.051,0.0017 -0.11262,0.0017 -0.18759,0.0087 -0.0867,0.0068 -0.16218,0.01768 -0.22576,0.02669 -0.0366,0.0051 -0.0865,0.01028 -0.14773,0.0215 -0.10013,0.01768 -0.19083,0.04012 -0.27557,0.06146 -0.0127,0.0034 -0.0417,0.0087 -0.0863,0.02151 -0.10404,0.02856 -0.20459,0.06239 -0.30209,0.09795 -0.0161,0.0051 -0.0306,0.01156 -0.0434,0.01675 -0.11016,0.04157 -0.21777,0.08754 -0.32206,0.137785 a 0.42499801,0.42501655 0 0 0 -0.0213,0.0099 c -1.1526,0.56378 -1.97362,1.671517 -2.17294,2.986475 -0.0196,0.07591 -0.0383,0.159086 -0.0383,0.17595 v 0.0034 c -0.009,0.06384 -0.0119,0.128189 -0.0119,0.199215 -0.009,0.06477 -0.0136,0.131971 -0.0136,0.179299 -9e-5,0.01666 0,0.02984 0,0.03986 v 28.557152 0.04318 c 0,0.116195 0.0136,0.175313 0.0136,0.179291 a 0.42499801,0.42501655 0 0 0 0,0.04981 c 0,0.02669 0.009,0.0833 0.0102,0.146081 0,0.1462 0.0102,0.169974 0.0102,0.0714 a 0.42499801,0.42501655 0 0 0 0.009,0.05814 c 0.1286,0.941443 0.58267,1.776959 1.24669,2.388882 0.0967,0.08902 0.19686,0.17085 0.30039,0.249008 0.10098,0.07616 0.20732,0.15164 0.32045,0.220804 0.10795,0.06604 0.21939,0.126259 0.33524,0.182606 0.1077,0.05228 0.21998,0.100937 0.33533,0.14444 a 0.42499801,0.42501655 0 0 0 0.0153,0.0068 c -0.009,-0.0025 0.008,0.0017 0.0297,0.0099 0.0968,0.03528 0.19728,0.06902 0.30209,0.09795 0.0476,0.01351 0.0816,0.02091 0.098,0.02508 0.0816,0.02023 0.16873,0.04012 0.26061,0.05644 0.0587,0.01062 0.1122,0.01827 0.15938,0.02508 v -0.0017 c 0.068,0.0096 0.13489,0.01734 0.20247,0.02312 0.0765,0.0068 0.15002,0.01096 0.22244,0.01317 0.0272,0.0017 0.0688,0.0068 0.12453,0.0068 0.0637,0 0.0782,-0.0051 0.045,-0.0051 0.0876,-7.14e-4 0.16694,-0.0051 0.24072,-0.0099 0.0349,-0.0025 0.088,-0.0059 0.15597,-0.01317 v 0.0034 c 0.0748,-0.0085 0.13558,-0.02057 0.18258,-0.0283 0.074,-0.01156 0.15717,-0.02312 0.24735,-0.04318 a 0.42499801,0.42501655 0 0 0 0.0195,-0.0085 c 4.3e-4,-1.1e-4 -0.0349,0.0076 -0.0485,0.0099 0.0195,-0.0034 0.0374,-0.0087 0.0544,-0.01318 0,-5.61e-4 0,-7.82e-4 0.009,-0.0017 0,-4.67e-4 0,-8.07e-4 0.008,-0.0017 0,-6.46e-4 0.009,-8.16e-4 0.009,-0.0017 0.009,-0.0017 0.0127,-0.0025 0.0195,-0.0051 0.0187,-0.0068 0.0672,-0.03179 0.0697,-0.03323 v 0 c 0.34986,-0.09147 0.6868,-0.214251 0.99102,-0.390133 a 0.42499801,0.42501655 0 0 0 0.0136,-0.0068 l 0.0119,-0.0085 24.43665,-14.110909 v 0 c 0,-1.7e-5 0.0195,-0.01096 0.0315,-0.01827 v 0.0051 c 0.008,-0.0025 0.009,-0.01028 0.0153,-0.01318 v 0 a 0.42499801,0.42501655 0 0 0 0.009,-0.0034 0.42499801,0.42501655 0 0 0 0.0434,-0.0283 l 0.0255,-0.01513 c 0,-9e-6 0.0162,-0.01862 0.0263,-0.03145 v -0.0017 a 0.42499801,0.42501655 0 0 0 0,-0.0051 c 0,-0.0025 0,-0.0025 0.009,-0.0051 8.5e-4,-5.78e-4 0,-8.16e-4 0,-0.0017 a 0.42499801,0.42501655 0 0 0 0,-0.0051 c 0.47132,-0.257389 0.91086,-0.584715 1.25324,-1.024293 a 0.42499801,0.42501655 0 0 0 0,-0.0017 c 0.009,-0.0119 0.0306,-0.03655 0.0561,-0.0714 v -0.0051 c 0.0527,-0.07148 0.10021,-0.141737 0.1428,-0.207536 a 0.42499801,0.42501655 0 0 0 0,-0.0017 c 0.0196,-0.03051 0.0459,-0.06851 0.0748,-0.116195 -0.0162,0.02567 0,0.01156 0.0331,-0.04811 a 0.42499801,0.42501655 0 0 0 0.008,-0.0099 c 0.0408,-0.07081 0.0561,-0.113602 0.0612,-0.12285 0.0331,-0.06154 0.0663,-0.126387 0.0995,-0.195908 a 0.42499801,0.42501655 0 0 0 0,-0.0051 c 0.0255,-0.0567 0.0434,-0.102544 0.0578,-0.136119 a 0.42499801,0.42501655 0 0 0 0,-0.0085 c 0.0229,-0.05551 0.0535,-0.122205 0.0833,-0.204187 a 0.42499801,0.42501655 0 0 0 0,-0.0017 c 0.0212,-0.06027 0.0408,-0.120513 0.0595,-0.18428 a 0.42499801,0.42501655 0 0 0 0,-0.0051 c 0.0127,-0.04429 0.0323,-0.105434 0.0502,-0.180931 v -0.0085 c 0.0153,-0.06426 0.0263,-0.122239 0.0365,-0.171012 a 0.42499801,0.42501655 0 0 0 0,-0.0034 c 0.0111,-0.05567 0.0264,-0.12172 0.0383,-0.20088 0.0119,-0.08177 0.0145,-0.136825 0.0187,-0.172644 0.0127,-0.08918 0.0127,-0.141516 0.0153,-0.164356 v -0.0085 c 0.011,-0.09185 0.0102,-0.170331 0.0102,-0.229092 0,-0.05083 0,-0.124907 -0.0102,-0.205861 0,-0.07718 -0.0111,-0.142163 -0.0153,-0.177625 a 0.42499801,0.42501655 0 0 0 0,-0.0068 c -0.009,-0.0374 -0.009,-0.0967 -0.0195,-0.180965 a 0.42499801,0.42501655 0 0 0 0,-0.0034 c -0.0102,-0.06996 -0.023,-0.134257 -0.0349,-0.192567 v -0.0051 c -0.011,-0.05907 -0.023,-0.119893 -0.0382,-0.182631 a 0.42499801,0.42501655 0 0 0 0,-0.0017 c -0.0179,-0.07378 -0.0366,-0.132872 -0.0502,-0.179299 a 0.42499801,0.42501655 0 0 0 0,-0.0017 c -0.017,-0.05797 -0.0357,-0.124517 -0.0612,-0.1959 v -0.0034 c -0.0238,-0.06724 -0.0502,-0.127474 -0.0714,-0.180965 a 0.42499801,0.42501655 0 0 0 0,-0.0068 c -0.0195,-0.04709 -0.0417,-0.101872 -0.0697,-0.16269 v -0.0017 c -0.0331,-0.07199 -0.0671,-0.134478 -0.0962,-0.189252 a 0.42499801,0.42501655 0 0 0 0,-0.0017 c -0.0102,-0.01862 -0.0297,-0.0595 -0.0629,-0.11787 v -0.0034 c -0.0255,-0.04403 -0.0374,-0.0612 -0.0297,-0.04811 v -0.0017 c -0.0306,-0.05074 -0.0612,-0.09924 -0.093,-0.146081 v -0.0017 c -0.0357,-0.05466 -0.0756,-0.12053 -0.12945,-0.192559 a 0.42499801,0.42501655 0 0 0 0,-0.0017 c -0.0289,-0.03799 -0.0451,-0.0538 -0.0519,-0.06145 l -0.009,-0.0068 c -0.0629,-0.08084 -0.13065,-0.163395 -0.20417,-0.244026 a 0.42499801,0.42501655 0 0 0 0,-0.0017 c -0.33176,-0.361803 -0.72038,-0.652146 -1.14325,-0.865479 l -24.5361,-14.159903 c -0.31127,-0.179903 -0.6562,-0.305193 -1.01592,-0.396763 v -0.0017 a 0.42499801,0.42501655 0 0 0 -0.0468,-0.0215 c 0,0 0.0128,0.0076 0.017,0.0099 -0.017,-0.0043 -0.0314,-0.01411 -0.0485,-0.01828 0.0136,0.0043 0.0314,0.0085 0.0314,0.0085 a 0.42499801,0.42501655 0 0 0 -0.0297,-0.0099 v -0.0017 c -9e-5,-1.7e-5 -0.0111,-0.0017 -0.0162,-0.0034 v 0 a 0.42499801,0.42501655 0 0 0 0,-0.0017 c -8.5e-4,-2.81e-4 0,3.14e-4 0,0 v 0 a 0.42499801,0.42501655 0 0 0 -0.0102,-0.0034 c 0,-8.42e-4 -0.009,-7.65e-4 -0.0102,-0.0017 0,-3.83e-4 0,-0.0017 -0.009,-0.0017 -0.0281,-0.0051 -0.0323,-0.0051 -0.0331,-0.0051 -0.0782,-0.01606 -0.15606,-0.03213 -0.23078,-0.04318 v 0.0017 c -0.0306,-0.0043 -0.0748,-0.01351 -0.13115,-0.01989 v 0 c -0.0773,-0.009 -0.14255,-0.01156 -0.19253,-0.01513 -0.0604,-0.0043 -0.13132,-0.01063 -0.21581,-0.01156 a 0.42499801,0.42501655 0 0 0 -0.009,0 c 0.0153,0 0,-0.0017 -0.0467,-0.0017 a 0.42499801,0.42501655 0 0 0 -0.009,0 z m 0.0187,0.851632 c 8.5e-4,5.1e-4 0,0.0017 0.0331,0.0017 0.0442,6.63e-4 0.099,0.006 0.16601,0.0099 0.0637,0.0043 0.11517,0.006 0.14943,0.0099 a 0.42499801,0.42501655 0 0 0 0,0.0017 c 0.0204,0.0025 0.0535,0.0076 0.10123,0.01513 0.0774,0.01156 0.15062,0.02473 0.21913,0.03987 v -0.0017 l 0.0102,0.0017 c 0.31425,0.07012 0.60886,0.187748 0.88145,0.345304 l 24.55778,14.175646 a 0.42499801,0.42501655 0 0 0 0.0213,0.0099 c 0.3326,0.167798 0.63622,0.396346 0.89641,0.680646 0.0535,0.05916 0.10931,0.12642 0.1643,0.197548 a 0.42499801,0.42501655 0 0 0 0,0.0068 c 0.0281,0.03536 0.0434,0.05041 0.0434,0.04981 0.0289,0.03834 0.0603,0.0895 0.10124,0.151054 a 0.42499801,0.42501655 0 0 0 0,0.0034 c 0.0263,0.03901 0.051,0.07573 0.0731,0.112888 a 0.42499801,0.42501655 0 0 0 0,0.0017 c 0.0281,0.04641 0.0349,0.05635 0.0213,0.03324 a 0.42499801,0.42501655 0 0 0 0,0.0017 c 0.009,0.01097 0.0213,0.04284 0.0502,0.09629 0.0298,0.05695 0.057,0.106973 0.0765,0.149413 a 0.42499801,0.42501655 0 0 0 0,0.0017 c 0.017,0.03681 0.0349,0.08084 0.0561,0.132813 v -0.0051 c 0.0229,0.05653 0.0442,0.106947 0.0595,0.151053 a 0.42499801,0.42501655 0 0 0 0,0.0034 c 0.0153,0.04216 0.0298,0.09063 0.0467,0.147747 0.017,0.06069 0.0332,0.107457 0.0417,0.142766 v 0 c 0.0111,0.04632 0.0221,0.09217 0.0315,0.142766 a 0.42499801,0.42501655 0 0 0 0,0.0085 c 0.0119,0.0561 0.0221,0.106599 0.0281,0.151062 0,0.03511 0.009,0.0922 0.0187,0.172644 0.009,0.05423 0.0102,0.09014 0.0102,0.09795 a 0.42499801,0.42501655 0 0 0 0,0.05483 c 0,0.02312 0,0.06469 0,0.127823 0,0.06044 0,0.102102 0,0.127831 a 0.42499801,0.42501655 0 0 0 0,0.0085 c -0.009,0.08262 -0.009,0.129183 -0.0102,0.139426 a 0.42499801,0.42501655 0 0 0 0,0.0068 c -0.0102,0.08109 -0.0136,0.137113 -0.0178,0.167671 -0.009,0.04267 -0.017,0.09432 -0.0298,0.159375 -0.011,0.05576 -0.0204,0.103802 -0.0298,0.142766 a 0.42499801,0.42501655 0 0 0 0,0.0085 c -0.009,0.0312 -0.0238,0.08058 -0.0417,0.14444 -0.0136,0.04565 -0.0281,0.0913 -0.045,0.139426 -0.0153,0.04369 -0.0383,0.09828 -0.0663,0.16603 -0.0204,0.04751 -0.0374,0.08796 -0.0501,0.114529 -0.023,0.04896 -0.0493,0.09897 -0.0782,0.152728 a 0.42499801,0.42501655 0 0 0 0,0.0017 c -0.0331,0.06163 -0.045,0.09101 -0.0467,0.09464 v 0.0034 c 0,-0.0076 8.5e-4,-0.01088 -0.0281,0.03655 a 0.42499801,0.42501655 0 0 0 0,0.0017 c -0.0153,0.02567 -0.0383,0.05831 -0.0646,0.0996 v 0 c -0.0399,0.06145 -0.0765,0.115906 -0.11288,0.164356 a 0.42499801,0.42501655 0 0 0 0,0.0051 c 0,0.0059 -0.0213,0.02439 -0.045,0.05482 -0.30167,0.38726 -0.67371,0.68986 -1.08894,0.893137 a 0.42499801,0.42501655 0 0 0 -0.0127,0.0068 c -0.009,0.0042 -0.0162,0.0085 -0.0196,0.0099 v -0.0017 l -0.0102,0.0068 -24.47983,14.134149 a 0.42499801,0.42501655 0 0 0 -0.0136,0.0068 l -0.009,0.0068 c -0.26834,0.154717 -0.55828,0.270147 -0.8681,0.340306 a 0.42499801,0.42501655 0 0 0 -0.0195,0.0068 c 0,4.93e-4 -0.009,0.0017 -0.009,0.0017 0,4.08e-4 -0.008,0.0017 -0.008,0.0017 -0.0527,0.01097 -0.10897,0.01929 -0.17765,0.02984 -0.0612,0.0096 -0.10787,0.01964 -0.1411,0.02312 -0.023,0.0025 -0.0655,0.0059 -0.12283,0.0099 -0.0697,0.0051 -0.13141,0.0076 -0.18759,0.0085 -0.0519,3.31e-4 -0.0723,0.0034 -0.0417,0.0034 -0.0136,0 -0.0417,-7.74e-4 -0.0833,-0.0034 a 0.42499801,0.42501655 0 0 0 -0.009,-0.0017 c -0.0637,-0.0017 -0.12606,-0.0051 -0.18428,-0.0099 -0.0535,-0.0042 -0.10523,-0.0093 -0.15606,-0.01675 a 0.42499801,0.42501655 0 0 0 0,-0.0017 c -0.0476,-0.0068 -0.0896,-0.0119 -0.12444,-0.01828 -0.0663,-0.01156 -0.13345,-0.02694 -0.20587,-0.0448 -0.0425,-0.01062 -0.0672,-0.01538 -0.0714,-0.01674 a 0.42499801,0.42501655 0 0 0 -0.009,-0.0034 c -0.0782,-0.0215 -0.15717,-0.04717 -0.23732,-0.07633 a 0.42499801,0.42501655 0 0 0 0,-0.0017 c 8.5e-4,3.82e-4 -0.017,-0.0059 -0.0315,-0.01156 -0.0883,-0.03332 -0.1774,-0.07081 -0.26401,-0.112889 -0.0902,-0.04386 -0.17765,-0.09166 -0.26393,-0.14444 -0.085,-0.05176 -0.16728,-0.109769 -0.25066,-0.172644 -0.0833,-0.06264 -0.16235,-0.128469 -0.23732,-0.19754 -0.52318,-0.481295 -0.87958,-1.135838 -0.98099,-1.878381 v 0.05814 c 0,-0.146523 -0.0102,-0.16943 -0.0102,-0.0714 a 0.42499801,0.42501655 0 0 0 0,-0.03324 c 0,-0.0357 -0.008,-0.103929 -0.0119,-0.180965 0,-0.09407 -0.0119,-0.157607 -0.0119,-0.161015 v -0.04318 -28.558819 c 0,-0.017 -8e-5,-0.0283 0,-0.03655 a 0.42499801,0.42501655 0 0 0 0,-0.0034 c 0,-0.05194 0,-0.08784 0.009,-0.106241 a 0.42499801,0.42501655 0 0 0 0.008,-0.07301 c 0,-0.04581 0,-0.09461 0.0102,-0.149422 a 0.42499801,0.42501655 0 0 0 0,-0.01675 0.42499801,0.42501655 0 0 0 0.0102,-0.04148 c 0.14297,-1.059006 0.80606,-1.941153 1.72635,-2.392214 v -0.0017 c 0,5.69e-4 0.009,-0.0026 0.009,-0.0017 a 0.42499801,0.42501655 0 0 0 0.0119,-0.0068 c 0.0824,-0.03978 0.16686,-0.07565 0.25237,-0.107908 a 0.42499801,0.42501655 0 0 0 0.0119,-0.0051 c 0.009,-0.0026 0.0102,-0.0043 0.009,-0.0034 a 0.42499801,0.42501655 0 0 0 0.017,-0.0051 c 0.0808,-0.02958 0.16158,-0.05585 0.24233,-0.07803 a 0.42499801,0.42501655 0 0 0 0.009,-0.0017 c 0,-5.1e-4 0.0187,-0.0042 0.0527,-0.01317 0.0791,-0.01989 0.14977,-0.03783 0.21743,-0.04981 0.0246,-0.0043 0.0629,-0.0076 0.11288,-0.01513 a 0.42499801,0.42501655 0 0 0 0,-0.0017 c 0.0697,-0.0099 0.1292,-0.01802 0.17765,-0.0215 a 0.42499801,0.42501655 0 0 0 0.009,0 c 0.0349,-0.0034 0.0807,-0.0051 0.1411,-0.0068 a 0.42499801,0.42501655 0 0 0 0.009,0 c 0.0714,-0.0025 0.1071,-0.0068 0.11118,-0.0068 a 0.42499801,0.42501655 0 0 0 0.0162,-0.0017 z m 26.14634,20.236698 c -0.009,0.0026 -0.0102,0.006 -0.0195,0.0099 0,-8.5e-4 0.0102,-0.0068 0.0102,-0.0068 0,1.7e-5 0.009,-0.0025 0.0102,-0.0034 z m -24.95948,14.989121 c 5.1e-4,5.1e-5 0,0.0017 0.008,0.0017 l -0.008,0.0068 a 0.42499801,0.42501655 0 0 0 0,-0.0085 z" />
  </g>
</svg>
