<?xml version="1.0" encoding="UTF-8" standalone="no"?>
<svg
   xmlns:dc="http://purl.org/dc/elements/1.1/"
   xmlns:cc="http://creativecommons.org/ns#"
   xmlns:rdf="http://www.w3.org/1999/02/22-rdf-syntax-ns#"
   xmlns:svg="http://www.w3.org/2000/svg"
   xmlns="http://www.w3.org/2000/svg"
   xmlns:sodipodi="http://sodipodi.sourceforge.net/DTD/sodipodi-0.dtd"
   xmlns:inkscape="http://www.inkscape.org/namespaces/inkscape"
   width="64"
   height="64"
   viewBox="0 0 64 64"
   version="1.1"
   id="svg6374"
   inkscape:version="1.0.2 (e86c870879, 2021-01-15)"
   sodipodi:docname="view-refresh.svg">
  <defs
     id="defs6368" />
  <sodipodi:namedview
     id="base"
     pagecolor="#cecece"
     bordercolor="#666666"
     borderopacity="1.0"
     inkscape:pageopacity="0"
     inkscape:pageshadow="2"
     inkscape:zoom="6.8818909"
     inkscape:cx="20.896034"
     inkscape:cy="43.578666"
     inkscape:document-units="px"
     inkscape:current-layer="layer1"
     inkscape:document-rotation="0"
     showgrid="false"
     units="px"
     inkscape:window-width="1500"
     inkscape:window-height="970"
     inkscape:window-x="68"
     inkscape:window-y="56"
     inkscape:window-maximized="0" />
  <metadata
     id="metadata6371">
    <rdf:RDF>
      <cc:Work
         rdf:about="">
        <dc:format>image/svg+xml</dc:format>
        <dc:type
           rdf:resource="http://purl.org/dc/dcmitype/StillImage" />
        <dc:title></dc:title>
      </cc:Work>
    </rdf:RDF>
  </metadata>
  <g
     inkscape:label="Layer 1"
     inkscape:groupmode="layer"
     id="layer1">
    <path
       style="color:#000000;font-style:normal;font-variant:normal;font-weight:normal;font-stretch:normal;font-size:medium;line-height:normal;font-family:sans-serif;font-variant-ligatures:normal;font-variant-position:normal;font-variant-caps:normal;font-variant-numeric:normal;font-variant-alternates:normal;font-variant-east-asian:normal;font-feature-settings:normal;font-variation-settings:normal;text-indent:0;text-align:start;text-decoration:none;text-decoration-line:none;text-decoration-style:solid;text-decoration-color:#000000;letter-spacing:normal;word-spacing:normal;text-transform:none;writing-mode:lr-tb;direction:ltr;text-orientation:mixed;dominant-baseline:auto;baseline-shift:baseline;text-anchor:start;white-space:normal;shape-padding:0;shape-margin:0;inline-size:0;clip-rule:nonzero;display:inline;overflow:visible;visibility:visible;opacity:0.075;isolation:auto;mix-blend-mode:normal;color-interpolation:sRGB;color-interpolation-filters:linearRGB;solid-color:#000000;solid-opacity:1;vector-effect:none;fill:#0c0c0c;fill-opacity:1;fill-rule:nonzero;stroke:none;stroke-width:0;stroke-linecap:round;stroke-linejoin:round;stroke-miterlimit:4;stroke-dasharray:none;stroke-dashoffset:0;stroke-opacity:1;color-rendering:auto;image-rendering:auto;shape-rendering:auto;text-rendering:auto;enable-background:accumulate;stop-color:#000000"
       d="m 55.361307,5.6152993 c -2.4e-4,-2e-4 -9.9e-4,0.002 -9.9e-4,0.002 l -0.002,-0.002 c -0.89955,-0.7213 -2.24107,-0.58926 -2.98181,0.29383 l -2.77375,3.30565 -0.54526,0.64981 -1.51504,1.8055697 C 38.768477,4.9168293 26.819587,3.7645593 16.936517,8.9093993 6.6959568,14.240349 0.65259677,25.257099 1.6587668,36.758269 c 1.0062,11.50109 8.8692902,21.2998 19.8799502,24.77148 11.01065,3.47165 23.07635,-0.0443 30.49743,-8.88846 a 1.1435196,1.1435155 80.025225 0 0 -0.13934,-1.60991 l -8.32308,-6.98391 a 1.1435196,1.1435155 80.025225 0 0 -1.61126,0.14096 c -4.02727,4.79954 -10.49057,6.68561 -16.46585,4.8016 -5.97529,-1.88402 -10.19068,-7.13662 -10.73671,-13.37795 -0.54604,-6.24134 2.6932,-12.14613 8.25053,-15.03913 5.19253,-2.70307 11.32041,-2.12208 16.02498,1.2356 l -1.37398,1.63746 -0.49914,0.59485 -2.77239,3.30402 a 1.1435196,1.1435155 80.025225 0 0 -0.002,9.9e-4 c -1.07111,1.27719 -0.20396,3.36833 1.45755,3.51208 l 24.27772,2.10872 c 1.44622,0.12516 2.63137,-1.28725 2.25697,-2.68977 l -6.29131,-23.5474197 -10e-4,0.002 c -0.10876,-0.40761 -0.33422,-0.77358 -0.65072,-1.05284 a 1.1435196,1.1435155 80.025225 0 0 -0.003,-0.003 c -0.0232,-0.0203 -0.0471,-0.0404 -0.0711,-0.0597 z m -1.41026,1.97613 6.16975,23.0817497 -23.80101,-2.06955 2.59471,-3.09227 0.49914,-0.59485 2.22035,-2.64613 a 1.1435196,1.1435155 80.025225 0 0 -0.1442,-1.61396 c -5.49609,-4.58476 -13.18406,-5.41675 -19.53589,-2.11018 -6.36713,3.31455 -10.09976,10.11452 -9.47415,17.26553 0.62564,7.15103 5.48238,13.19953 12.32837,15.35807 6.46965,2.03989 13.39563,0.10329 18.04049,-4.74464 l 6.63549,5.56786 c -6.87269,7.49589 -17.49381,10.43559 -27.25688,7.3573 -10.13178,-3.19456 -17.3654102,-12.20808 -18.2912802,-22.7911 -0.92586,-10.58291 4.63567,-20.71599 14.0587102,-25.62135 9.40918,-4.8981597 20.87631,-3.6489997 29.01223,3.15333 a 1.1435196,1.1435155 80.025225 0 0 1.60963,-0.14233 l 2.19322,-2.61379 0.54526,-0.64981 z"
       id="rect867-2-7-5-3-1" />
    <path
       id="rect867-2-7-5"
       style="display:inline;fill:#edcf03;fill-opacity:1;stroke:none;stroke-width:2.29806;stroke-linecap:round;stroke-miterlimit:4;stroke-dasharray:none;stroke-opacity:1"
       d="m 54.788537,4.4008793 a 1.0045629,1.006023 36.09415 0 1 0.30561,0.49381 l 6.32186,23.6637297 a 1.0045629,1.006023 36.09415 0 1 -1.05909,1.26241 l -24.39624,-2.11918 a 1.0045629,1.006023 36.09415 0 1 -0.68167,-1.64738 l 2.78708,-3.32218 0.50124,-0.59746 2.23032,-2.65852 c -5.17142,-4.31477 -12.38686,-5.09739 -18.36341,-1.98557 -5.991,3.11937 -9.49356,9.50384 -8.90491,16.23364 0.58866,6.72982 5.14644,12.40894 11.58801,14.44038 6.44156,2.03142 13.43043,-0.007 17.77192,-5.18148 l 8.36203,7.01797 c -7.15917,8.53368 -18.79608,11.9246 -29.41829,8.57474 -10.62221,-3.34983 -18.2073902,-12.80252 -19.1780702,-23.90004 -0.97068,-11.0975 4.85955,-21.7257 14.7387802,-26.8695697 9.86476,-5.13632 21.89076,-3.82679 30.4205,3.3062297 l 7.5e-4,-7.5e-4 2.20292,-2.6258597 0.54775,-0.65291 2.7878,-3.32304 a 1.0045629,1.006023 36.09415 0 1 1.40077,-0.13772 1.0045629,1.006023 36.09415 0 1 0.0339,0.0285 z" />
    <path
       style="color:#000000;font-style:normal;font-variant:normal;font-weight:normal;font-stretch:normal;font-size:medium;line-height:normal;font-family:sans-serif;font-variant-ligatures:normal;font-variant-position:normal;font-variant-caps:normal;font-variant-numeric:normal;font-variant-alternates:normal;font-variant-east-asian:normal;font-feature-settings:normal;font-variation-settings:normal;text-indent:0;text-align:start;text-decoration:none;text-decoration-line:none;text-decoration-style:solid;text-decoration-color:#000000;letter-spacing:normal;word-spacing:normal;text-transform:none;writing-mode:lr-tb;direction:ltr;text-orientation:mixed;dominant-baseline:auto;baseline-shift:baseline;text-anchor:start;white-space:normal;shape-padding:0;shape-margin:0;inline-size:0;clip-rule:nonzero;display:inline;overflow:visible;visibility:visible;opacity:0.85;isolation:auto;mix-blend-mode:normal;color-interpolation:sRGB;color-interpolation-filters:linearRGB;solid-color:#000000;solid-opacity:1;vector-effect:none;fill:#4b464b;fill-opacity:1;fill-rule:nonzero;stroke:none;stroke-width:0;stroke-linecap:round;stroke-linejoin:round;stroke-miterlimit:4;stroke-dasharray:none;stroke-dashoffset:0;stroke-opacity:1;color-rendering:auto;image-rendering:auto;shape-rendering:auto;text-rendering:auto;enable-background:accumulate;stop-color:#000000"
       d="m 55.361307,3.6152993 c -2.4e-4,-2e-4 -9.9e-4,0.002 -9.9e-4,0.002 l -0.002,-0.002 c -0.89955,-0.7213 -2.24107,-0.58926 -2.98181,0.29383 l -2.77375,3.30565 -0.54526,0.64981 -1.51504,1.80557 c -8.77398,-6.75333 -20.72287,-7.9056 -30.60594,-2.76076 C 6.6959568,12.240349 0.65259677,23.257099 1.6587668,34.758269 c 1.0062,11.50109 8.8692902,21.2998 19.8799502,24.77148 11.01065,3.47165 23.07635,-0.0443 30.49743,-8.88846 a 1.1435196,1.1435155 80.025225 0 0 -0.13934,-1.60991 l -8.32308,-6.98391 a 1.1435196,1.1435155 80.025225 0 0 -1.61126,0.14096 c -4.02727,4.79954 -10.49057,6.68561 -16.46585,4.8016 -5.97529,-1.88402 -10.19068,-7.13662 -10.73671,-13.37795 -0.54604,-6.24134 2.6932,-12.14613 8.25053,-15.03913 5.19253,-2.70307 11.32041,-2.12208 16.02498,1.2356 l -1.37398,1.63746 -0.49914,0.59485 -2.77239,3.30402 a 1.1435196,1.1435155 80.025225 0 0 -0.002,9.9e-4 c -1.07111,1.27719 -0.20396,3.36833 1.45755,3.51208 l 24.27772,2.10872 c 1.44622,0.12516 2.63137,-1.28725 2.25697,-2.68977 l -6.29131,-23.5474197 -10e-4,0.002 c -0.10876,-0.40761 -0.33422,-0.77358 -0.65072,-1.05284 a 1.1435196,1.1435155 80.025225 0 0 -0.003,-0.003 c -0.0232,-0.0203 -0.0471,-0.0404 -0.0711,-0.0597 z m -1.41026,1.97613 6.16975,23.0817497 -23.80101,-2.06955 2.59471,-3.09227 0.49914,-0.59485 2.22035,-2.64613 a 1.1435196,1.1435155 80.025225 0 0 -0.1442,-1.61396 c -5.49609,-4.58476 -13.18406,-5.41675 -19.53589,-2.11018 -6.36713,3.31455 -10.09976,10.11452 -9.47415,17.26553 0.62564,7.15103 5.48238,13.19953 12.32837,15.35807 6.46965,2.03989 13.39563,0.10329 18.04049,-4.74464 l 6.63549,5.56786 c -6.87269,7.49589 -17.49381,10.43559 -27.25688,7.3573 -10.13178,-3.19456 -17.3654102,-12.20808 -18.2912802,-22.7911 -0.92586,-10.58291 4.63567,-20.71599 14.0587102,-25.6213497 9.40918,-4.89816 20.87631,-3.649 29.01223,3.1533297 a 1.1435196,1.1435155 80.025225 0 0 1.60963,-0.14233 l 2.19322,-2.6137897 0.54526,-0.64981 z"
       id="rect867-2-7-5-3" />
  </g>
</svg>
