<?xml version="1.0" encoding="UTF-8" standalone="no"?>
<svg
   xmlns:dc="http://purl.org/dc/elements/1.1/"
   xmlns:cc="http://creativecommons.org/ns#"
   xmlns:rdf="http://www.w3.org/1999/02/22-rdf-syntax-ns#"
   xmlns:svg="http://www.w3.org/2000/svg"
   xmlns="http://www.w3.org/2000/svg"
   xmlns:sodipodi="http://sodipodi.sourceforge.net/DTD/sodipodi-0.dtd"
   xmlns:inkscape="http://www.inkscape.org/namespaces/inkscape"
   width="64"
   height="64"
   viewBox="0 0 16.933333 16.933334"
   version="1.1"
   id="svg841"
   inkscape:version="1.0.2 (e86c870879, 2021-01-15)"
   sodipodi:docname="network-workgroup-symbolic.svg">
  <defs
     id="defs835" />
  <sodipodi:namedview
     id="base"
     pagecolor="#c4c4c4"
     bordercolor="#666666"
     borderopacity="1.0"
     inkscape:pageopacity="0"
     inkscape:pageshadow="2"
     inkscape:zoom="2.1471306"
     inkscape:cx="-77.931909"
     inkscape:cy="104.20142"
     inkscape:document-units="px"
     inkscape:current-layer="layer1"
     inkscape:document-rotation="0"
     showgrid="false"
     units="px"
     inkscape:window-width="2048"
     inkscape:window-height="1080"
     inkscape:window-x="0"
     inkscape:window-y="0"
     inkscape:window-maximized="1" />
  <metadata
     id="metadata838">
    <rdf:RDF>
      <cc:Work
         rdf:about="">
        <dc:format>image/svg+xml</dc:format>
        <dc:type
           rdf:resource="http://purl.org/dc/dcmitype/StillImage" />
        <dc:title />
      </cc:Work>
    </rdf:RDF>
  </metadata>
  <g
     inkscape:label="Layer 1"
     inkscape:groupmode="layer"
     id="layer1">
    <path
       id="path927-3-6-5"
       style="color:#000000;font-style:normal;font-variant:normal;font-weight:normal;font-stretch:normal;font-size:medium;line-height:normal;font-family:sans-serif;font-variant-ligatures:normal;font-variant-position:normal;font-variant-caps:normal;font-variant-numeric:normal;font-variant-alternates:normal;font-variant-east-asian:normal;font-feature-settings:normal;font-variation-settings:normal;text-indent:0;text-align:start;text-decoration:none;text-decoration-line:none;text-decoration-style:solid;text-decoration-color:#000000;letter-spacing:normal;word-spacing:normal;text-transform:none;writing-mode:lr-tb;direction:ltr;text-orientation:mixed;dominant-baseline:auto;baseline-shift:baseline;text-anchor:start;white-space:normal;shape-padding:0;shape-margin:0;inline-size:0;clip-rule:nonzero;display:inline;overflow:visible;visibility:visible;isolation:auto;mix-blend-mode:normal;color-interpolation:sRGB;color-interpolation-filters:linearRGB;solid-color:#000000;solid-opacity:1;vector-effect:none;fill:#808084;fill-opacity:1;fill-rule:nonzero;stroke:none;stroke-width:0.999985;stroke-linecap:round;stroke-linejoin:round;stroke-miterlimit:4;stroke-dasharray:none;stroke-dashoffset:2.1875;stroke-opacity:1;color-rendering:auto;image-rendering:auto;shape-rendering:auto;text-rendering:auto;enable-background:accumulate;stop-color:#000000"
       d="M 8.4656348,-2.5000001e-7 A 8.4666674,8.4666674 0 0 0 -3.0000001e-7,8.4666667 8.4666674,8.4666674 0 0 0 8.4666668,16.933334 8.4666674,8.4666674 0 0 0 16.933334,8.4666667 8.4666674,8.4666674 0 0 0 8.4666668,-2.5000001e-7 c -2.65e-4,0 -7.94e-4,0 -0.0011,0 z m 0,1.19165895000001 c 0.656558,0 1.421429,0.638822 2.0313992,1.958537 0.250857,0.542746 0.463577,1.187097 0.630455,1.899109 H 5.8037808 c 0.166981,-0.711999 0.3796,-1.356371 0.630452,-1.899109 0.609973,-1.319715 1.374844,-1.958537 2.031402,-1.958537 z m 2.6820072,0.653707 a 7.1437502,7.1437502 0 0 1 3.591513,3.203939 h -2.388487 c -0.189381,-0.885152 -0.448273,-1.696246 -0.772046,-2.396753 -0.131628,-0.284788 -0.275595,-0.55518 -0.43098,-0.807186 z m -5.3660812,0.0021 c -0.154953,0.251453 -0.298143,0.521066 -0.429432,0.805119 -0.3237677,0.700498 -0.582218,1.511616 -0.7710115,2.396753 H 2.1931495 a 7.1437502,7.1437502 0 0 1 3.5884113,-3.201909 z m -4.102592,4.392497 h 2.6985437 c -0.092461,0.710267 -0.1441794,1.454676 -0.1441794,2.226738 0,0.771925 0.05175,1.516699 0.1441794,2.2272543 H 1.6789688 A 7.1437502,7.1437502 0 0 1 1.3229164,8.4666637 7.1437502,7.1437502 0 0 1 1.6789688,6.2399257 Z m 3.898987,0 h 5.7748412 c 0.100042,0.702146 0.155546,1.450371 0.155546,2.226738 0,0.77655 -0.05546,1.524964 -0.155546,2.2272543 H 5.5779558 C 5.4777798,9.9916647 5.4224108,9.2432507 5.4224108,8.4667007 c 0,-0.776367 0.05541,-1.524592 0.155545,-2.226738 z m 6.9768362,0 h 2.699575 a 7.1437502,7.1437502 0 0 1 0.35605,2.226738 7.1437502,7.1437502 0 0 1 -0.356566,2.2272543 H 12.554792 C 12.647622,9.9833957 12.7,9.2386317 12.7,8.4667007 c 0,-0.772068 -0.05235,-1.516466 -0.145208,-2.226738 z M 2.1936654,11.884543 h 2.3874519 c 0.188804,0.885985 0.4471617,1.697632 0.7710115,2.398303 0.13085,0.283103 0.273527,0.552433 0.427882,0.803052 A 7.1437502,7.1437502 0 0 1 2.1936654,11.884547 Z m 3.6101154,0 h 5.3237082 c -0.166849,0.711622 -0.379712,1.356094 -0.630455,1.898592 -0.6045702,1.308032 -1.3612042,1.948311 -2.0138312,1.959571 a 3.0427084,7.2760416 0 0 1 -0.01654,0 3.0427084,7.2760416 0 0 1 -0.02739,-5.3e-4 c -0.650649,-0.01675 -1.403137,-0.656792 -2.00504,-1.959053 -0.250738,-0.542491 -0.463503,-1.186982 -0.630452,-1.898592 z m 6.5468872,0 h 2.388487 a 7.1437502,7.1437502 0 0 1 -3.589446,3.202389 c 0.154556,-0.250898 0.297894,-0.520615 0.428913,-0.804086 0.323855,-0.700681 0.582655,-1.512304 0.772046,-2.398303 z" />
  </g>
</svg>
