<?xml version="1.0" encoding="UTF-8" standalone="no"?>
<svg
   xmlns:dc="http://purl.org/dc/elements/1.1/"
   xmlns:cc="http://creativecommons.org/ns#"
   xmlns:rdf="http://www.w3.org/1999/02/22-rdf-syntax-ns#"
   xmlns:svg="http://www.w3.org/2000/svg"
   xmlns="http://www.w3.org/2000/svg"
   xmlns:sodipodi="http://sodipodi.sourceforge.net/DTD/sodipodi-0.dtd"
   xmlns:inkscape="http://www.inkscape.org/namespaces/inkscape"
   width="64"
   height="64"
   viewBox="0 0 16.933333 16.933334"
   version="1.1"
   id="svg841"
   inkscape:version="1.0.2 (e86c870879, 2021-01-15)"
   sodipodi:docname="preferences-desktop-keyboard-symbolic.svg">
  <defs
     id="defs835" />
  <sodipodi:namedview
     id="base"
     pagecolor="#c4c4c4"
     bordercolor="#666666"
     borderopacity="1.0"
     inkscape:pageopacity="0"
     inkscape:pageshadow="2"
     inkscape:zoom="6.9744746"
     inkscape:cx="15.848583"
     inkscape:cy="41.379121"
     inkscape:document-units="px"
     inkscape:current-layer="layer1"
     inkscape:document-rotation="0"
     showgrid="false"
     units="px"
     inkscape:window-width="2048"
     inkscape:window-height="1080"
     inkscape:window-x="0"
     inkscape:window-y="0"
     inkscape:window-maximized="1" />
  <metadata
     id="metadata838">
    <rdf:RDF>
      <cc:Work
         rdf:about="">
        <dc:format>image/svg+xml</dc:format>
        <dc:type
           rdf:resource="http://purl.org/dc/dcmitype/StillImage" />
        <dc:title></dc:title>
      </cc:Work>
    </rdf:RDF>
  </metadata>
  <g
     inkscape:label="Layer 1"
     inkscape:groupmode="layer"
     id="layer1">
    <path
       id="rect2292-5"
       style="fill:#808084;fill-opacity:1;stroke-width:1.85208;stroke-dashoffset:2.1875"
       d="M 1.3229167,1.5875002 C 0.59002075,1.5875002 -2.5000001e-7,2.1775211 -2.5000001e-7,2.9104169 V 14.022917 c 0,0.732896 0.59002100000001,1.322916 1.32291695000001,1.322916 H 15.610417 c 0.732896,0 1.322917,-0.59002 1.322917,-1.322916 V 2.9104169 c 0,-0.7328958 -0.590021,-1.3229167 -1.322917,-1.3229167 z m 0.529166,1.7368441 h 1.322917 c 0.293158,0 0.529167,0.2360084 0.529167,0.5291667 v 1.3229167 c 0,0.2931584 -0.236009,0.5291667 -0.529167,0.5291667 h -1.322917 c -0.293158,0 -0.529166,-0.2360083 -0.529166,-0.5291667 V 3.853511 c 0,-0.2931583 0.236008,-0.5291667 0.529166,-0.5291667 z m 3.96875,0 h 1.322917 c 0.293159,0 0.529167,0.2360084 0.529167,0.5291667 v 1.3229167 c 0,0.2931584 -0.236008,0.5291667 -0.529167,0.5291667 h -1.322917 c -0.293158,0 -0.529166,-0.2360083 -0.529166,-0.5291667 V 3.853511 c 0,-0.2931583 0.236008,-0.5291667 0.529166,-0.5291667 z m 3.968751,0 H 11.1125 c 0.293159,0 0.529167,0.2360084 0.529167,0.5291667 v 1.3229167 c 0,0.2931584 -0.236008,0.5291667 -0.529167,0.5291667 H 9.7895837 c -0.293159,0 -0.529167,-0.2360083 -0.529167,-0.5291667 V 3.853511 c 0,-0.2931583 0.236008,-0.5291667 0.529167,-0.5291667 z m 3.9687503,0 h 1.322916 c 0.293159,0 0.529167,0.2360084 0.529167,0.5291667 v 1.3229167 c 0,0.2931584 -0.236008,0.5291667 -0.529167,0.5291667 h -1.322916 c -0.293159,0 -0.529167,-0.2360083 -0.529167,-0.5291667 V 3.853511 c 0,-0.2931583 0.236008,-0.5291667 0.529167,-0.5291667 z M 3.7041667,7.2930944 h 1.322916 c 0.293159,0 0.529167,0.2360084 0.529167,0.5291667 v 1.3229164 c 0,0.293159 -0.236008,0.529167 -0.529167,0.529167 h -1.322916 c -0.293159,0 -0.529167,-0.236008 -0.529167,-0.529167 V 7.8222611 c 0,-0.2931583 0.236008,-0.5291667 0.529167,-0.5291667 z m 3.96875,0 h 1.322917 c 0.293158,0 0.529166,0.2360084 0.529166,0.5291667 v 1.3229164 c 0,0.293159 -0.236008,0.529167 -0.529166,0.529167 h -1.322917 c -0.293158,0 -0.529167,-0.236008 -0.529167,-0.529167 V 7.8222611 c 0,-0.2931583 0.236009,-0.5291667 0.529167,-0.5291667 z m 3.9687503,0 h 1.322917 c 0.293158,0 0.529166,0.2360084 0.529166,0.5291667 v 1.3229164 c 0,0.293159 -0.236008,0.529167 -0.529166,0.529167 h -1.322917 c -0.293158,0 -0.529167,-0.236008 -0.529167,-0.529167 V 7.8222611 c 0,-0.2931583 0.236009,-0.5291667 0.529167,-0.5291667 z M 3.4395827,11.261844 H 13.49375 c 0.293159,0 0.529167,0.236008 0.529167,0.529167 v 1.322916 c 0,0.293159 -0.236008,0.529167 -0.529167,0.529167 H 3.4395827 c -0.293158,0 -0.529166,-0.236008 -0.529166,-0.529167 v -1.322916 c 0,-0.293159 0.236008,-0.529167 0.529166,-0.529167 z" />
  </g>
</svg>
