<?xml version="1.0" encoding="UTF-8" standalone="no"?>
<svg
   xmlns:dc="http://purl.org/dc/elements/1.1/"
   xmlns:cc="http://creativecommons.org/ns#"
   xmlns:rdf="http://www.w3.org/1999/02/22-rdf-syntax-ns#"
   xmlns:svg="http://www.w3.org/2000/svg"
   xmlns="http://www.w3.org/2000/svg"
   xmlns:sodipodi="http://sodipodi.sourceforge.net/DTD/sodipodi-0.dtd"
   xmlns:inkscape="http://www.inkscape.org/namespaces/inkscape"
   width="64"
   height="64"
   viewBox="0 0 16.933333 16.933334"
   version="1.1"
   id="svg841"
   inkscape:version="1.0.2 (e86c870879, 2021-01-15)"
   sodipodi:docname="user-info-symbolic.svg">
  <defs
     id="defs835" />
  <sodipodi:namedview
     id="base"
     pagecolor="#c4c4c4"
     bordercolor="#666666"
     borderopacity="1.0"
     inkscape:pageopacity="0"
     inkscape:pageshadow="2"
     inkscape:zoom="3.2448766"
     inkscape:cx="89.646222"
     inkscape:cy="35.69958"
     inkscape:document-units="px"
     inkscape:current-layer="layer1"
     inkscape:document-rotation="0"
     showgrid="false"
     units="px"
     inkscape:window-width="2048"
     inkscape:window-height="1080"
     inkscape:window-x="0"
     inkscape:window-y="0"
     inkscape:window-maximized="1" />
  <metadata
     id="metadata838">
    <rdf:RDF>
      <cc:Work
         rdf:about="">
        <dc:format>image/svg+xml</dc:format>
        <dc:type
           rdf:resource="http://purl.org/dc/dcmitype/StillImage" />
        <dc:title />
      </cc:Work>
    </rdf:RDF>
  </metadata>
  <g
     inkscape:label="Layer 1"
     inkscape:groupmode="layer"
     id="layer1">
    <path
       id="path1012-1-0-6"
       style="display:inline;opacity:0.375;fill:#808084;fill-opacity:1;stroke-width:3.41926;stroke-linecap:round;stroke-linejoin:round;stroke-dashoffset:2.1875"
       d="m 8.4366607,0.26461164 a 3.9687501,3.9687501 0 0 0 -3.938773,3.96874996 3.9687501,3.9687501 0 0 0 3.96875,3.968751 3.9687501,3.9687501 0 0 0 3.9687503,-3.968751 3.9687501,3.9687501 0 0 0 -3.9687503,-3.96874996 3.9687501,3.9687501 0 0 0 -0.02998,0 z m 0.02998,10.21281436 c -1.350751,0 -2.701317,0.233159 -3.928454,0.699699 -2.454275,0.93305 -4.12011803,2.735604 -4.12014503,4.830712 a 0.66124287,0.66132238 0 0 0 0.66092903,0.660942 h 7.38767 1.7203213 a 4.6302084,4.6302084 0 0 1 -1.8526133,-3.704166 4.6302084,4.6302084 0 0 1 0.714693,-2.471166 c -0.193887,-0.01 -0.388144,-0.01603 -0.582401,-0.01603 z" />
    <path
       id="rect984-3-3-6-1-9-7-8-1-9"
       style="display:inline;fill:#808084;fill-opacity:1;stroke:none;stroke-width:0.771911;stroke-linejoin:round"
       d="m 13.539785,7.4084016 a 1.1176812,1.1176366 0 0 0 -1.099714,1.117762 1.1176812,1.1176366 0 0 0 1.117812,1.117758 1.1176812,1.1176366 0 0 0 1.117282,-1.117758 1.1176812,1.1176366 0 0 0 -1.117282,-1.117762 1.1176812,1.1176366 0 0 0 -0.01799,0 z m -1.738471,3.6721314 c -0.08845,0 -0.159676,0.0712 -0.159676,0.159679 v 0.559141 c 0,0.0884 0.07123,0.159679 0.159676,0.159679 h 1.037722 v 3.831812 h -1.037722 c -0.08845,0 -0.159676,0.0712 -0.159676,0.159679 v 0.55862 c 0,0.0884 0.07123,0.159681 0.159676,0.159681 h 3.512608 c 0.08845,0 0.159676,-0.0712 0.159676,-0.159681 v -0.55862 c 0,-0.0885 -0.07123,-0.159679 -0.159676,-0.159679 H 14.2762 v -3.991491 -0.559141 c 0,-0.0884 -0.07123,-0.159679 -0.159676,-0.159679 h -1.117812 z" />
  </g>
</svg>
