<?xml version="1.0" encoding="UTF-8" standalone="no"?>
<svg
   xmlns:dc="http://purl.org/dc/elements/1.1/"
   xmlns:cc="http://creativecommons.org/ns#"
   xmlns:rdf="http://www.w3.org/1999/02/22-rdf-syntax-ns#"
   xmlns:svg="http://www.w3.org/2000/svg"
   xmlns="http://www.w3.org/2000/svg"
   xmlns:sodipodi="http://sodipodi.sourceforge.net/DTD/sodipodi-0.dtd"
   xmlns:inkscape="http://www.inkscape.org/namespaces/inkscape"
   width="64"
   height="64"
   viewBox="0 0 64 64"
   version="1.1"
   id="svg6374"
   inkscape:version="1.0.2 (e86c870879, 2021-01-15)"
   sodipodi:docname="workspace-switcher-symbolic.svg">
  <defs
     id="defs6368" />
  <sodipodi:namedview
     id="base"
     pagecolor="#cecece"
     bordercolor="#666666"
     borderopacity="1.0"
     inkscape:pageopacity="0"
     inkscape:pageshadow="2"
     inkscape:zoom="4.0064204"
     inkscape:cx="41.940207"
     inkscape:cy="41.498628"
     inkscape:document-units="px"
     inkscape:current-layer="layer1"
     inkscape:document-rotation="0"
     showgrid="false"
     units="px"
     inkscape:window-width="1500"
     inkscape:window-height="970"
     inkscape:window-x="68"
     inkscape:window-y="56"
     inkscape:window-maximized="0" />
  <metadata
     id="metadata6371">
    <rdf:RDF>
      <cc:Work
         rdf:about="">
        <dc:format>image/svg+xml</dc:format>
        <dc:type
           rdf:resource="http://purl.org/dc/dcmitype/StillImage" />
        <dc:title></dc:title>
      </cc:Work>
    </rdf:RDF>
  </metadata>
  <g
     inkscape:label="Layer 1"
     inkscape:groupmode="layer"
     id="layer1">
    <path
       id="rect850-4"
       style="display:inline;opacity:0.375;fill:#808084;stroke-width:2.5;stroke-linecap:round;stroke-linejoin:round;stroke-dashoffset:2.1875"
       d="M 4.875,20.75 C 4.39025,20.75 4,21.14025 4,21.625 v 1.75 c 0,0.48475 0.39025,0.875 0.875,0.875 h 20.25 C 25.60975,24.25 26,23.85975 26,23.375 v -1.75 C 26,21.14025 25.60975,20.75 25.125,20.75 Z m 1.4999998,0.875 a 0.875,0.875 0 0 1 0.875,0.875 0.875,0.875 0 0 1 -0.875,0.875 A 0.875,0.875 0 0 1 5.5,22.5 0.875,0.875 0 0 1 6.3749998,21.625 Z m 7.1250002,0 h 3 c 0.1385,0 0.25,0.1115 0.25,0.25 v 1.25 c 0,0.1385 -0.1115,0.25 -0.25,0.25 h -3 c -0.1385,0 -0.25,-0.1115 -0.25,-0.25 v -1.25 c 0,-0.1385 0.1115,-0.25 0.25,-0.25 z M 22,21.75 h 2.25 c 0.1385,0 0.25,0.1115 0.25,0.25 v 1 c 0,0.1385 -0.1115,0.25 -0.25,0.25 H 22 c -0.1385,0 -0.25,-0.1115 -0.25,-0.25 v -1 c 0,-0.1385 0.1115,-0.25 0.25,-0.25 z" />
    <path
       id="rect903-5-7"
       style="display:inline;opacity:0.375;fill:#808084;fill-opacity:1;stroke-width:2.5;stroke-linecap:round;stroke-linejoin:round;stroke-dashoffset:2.1875"
       d="M 1.5,17 C 0.669,17 0,17.669 0,18.5 v 27 C 0,46.331 0.669,47 1.5,47 h 27 c 0.831,0 1.5,-0.669 1.5,-1.5 v -27 C 30,17.669 29.331,17 28.5,17 Z m 1.75,2.5 h 23.5 c 0.4155,0 0.75,0.3345 0.75,0.75 v 23.5 c 0,0.4155 -0.3345,0.75 -0.75,0.75 H 21.5 V 44 43.75 41.5 c 0,-0.4155 -0.3345,-0.75 -0.75,-0.75 H 9.25 C 8.8345,40.75 8.5,41.0845 8.5,41.5 V 43.75 44 44.5 H 3.25 C 2.8345,44.5 2.5,44.1655 2.5,43.75 V 20.25 C 2.5,19.8345 2.8345,19.5 3.25,19.5 Z M 10,41.875 h 1.25 c 0.1385,0 0.25,0.1115 0.25,0.25 v 1.25 c 0,0.1385 -0.1115,0.25 -0.25,0.25 H 10 c -0.1385,0 -0.25,-0.1115 -0.25,-0.25 v -1.25 c 0,-0.1385 0.1115,-0.25 0.25,-0.25 z m 3,0 h 1.25 c 0.1385,0 0.25,0.1115 0.25,0.25 v 1.25 c 0,0.1385 -0.1115,0.25 -0.25,0.25 H 13 c -0.1385,0 -0.25,-0.1115 -0.25,-0.25 v -1.25 c 0,-0.1385 0.1115,-0.25 0.25,-0.25 z m 3,0 h 1.25 c 0.1385,0 0.25,0.1115 0.25,0.25 v 1.25 c 0,0.1385 -0.1115,0.25 -0.25,0.25 H 16 c -0.1385,0 -0.25,-0.1115 -0.25,-0.25 v -1.25 c 0,-0.1385 0.1115,-0.25 0.25,-0.25 z m 3,0 h 1.25 c 0.1385,0 0.25,0.1115 0.25,0.25 v 1.25 c 0,0.1385 -0.1115,0.25 -0.25,0.25 H 19 c -0.1385,0 -0.25,-0.1115 -0.25,-0.25 v -1.25 c 0,-0.1385 0.1115,-0.25 0.25,-0.25 z" />
    <path
       id="rect850-4-1"
       style="display:inline;fill:#808084;stroke-width:2.5;stroke-linecap:round;stroke-linejoin:round;stroke-dashoffset:2.1875"
       d="M 38.875,20.75 C 38.39025,20.75 38,21.14025 38,21.625 v 1.75 c 0,0.48475 0.39025,0.875 0.875,0.875 h 20.25 C 59.60975,24.25 60,23.85975 60,23.375 v -1.75 C 60,21.14025 59.60975,20.75 59.125,20.75 Z m 1.5,0.875 A 0.875,0.875 0 0 1 41.25,22.5 0.875,0.875 0 0 1 40.375,23.375 0.875,0.875 0 0 1 39.5,22.5 0.875,0.875 0 0 1 40.375,21.625 Z m 7.125,0 h 3 c 0.1385,0 0.25,0.1115 0.25,0.25 v 1.25 c 0,0.1385 -0.1115,0.25 -0.25,0.25 h -3 c -0.1385,0 -0.25,-0.1115 -0.25,-0.25 v -1.25 c 0,-0.1385 0.1115,-0.25 0.25,-0.25 z M 56,21.75 h 2.25 c 0.1385,0 0.25,0.1115 0.25,0.25 v 1 c 0,0.1385 -0.1115,0.25 -0.25,0.25 H 56 c -0.1385,0 -0.25,-0.1115 -0.25,-0.25 v -1 c 0,-0.1385 0.1115,-0.25 0.25,-0.25 z" />
    <path
       id="rect903-5-7-0"
       style="display:inline;fill:#808084;fill-opacity:1;stroke-width:2.5;stroke-linecap:round;stroke-linejoin:round;stroke-dashoffset:2.1875"
       d="M 35.5,17 C 34.669,17 34,17.669 34,18.5 v 27 c 0,0.831 0.669,1.5 1.5,1.5 h 27 c 0.831,0 1.5,-0.669 1.5,-1.5 v -27 C 64,17.669 63.331,17 62.5,17 Z m 1.75,2.5 h 23.5 c 0.4155,0 0.75,0.3345 0.75,0.75 v 23.5 c 0,0.4155 -0.3345,0.75 -0.75,0.75 H 55.5 V 44 43.75 41.5 c 0,-0.4155 -0.3345,-0.75 -0.75,-0.75 h -11.5 c -0.4155,0 -0.75,0.3345 -0.75,0.75 v 2.25 0.25 0.5 h -5.25 c -0.4155,0 -0.75,-0.3345 -0.75,-0.75 v -23.5 c 0,-0.4155 0.3345,-0.75 0.75,-0.75 z M 44,41.875 h 1.25 c 0.1385,0 0.25,0.1115 0.25,0.25 v 1.25 c 0,0.1385 -0.1115,0.25 -0.25,0.25 H 44 c -0.1385,0 -0.25,-0.1115 -0.25,-0.25 v -1.25 c 0,-0.1385 0.1115,-0.25 0.25,-0.25 z m 3,0 h 1.25 c 0.1385,0 0.25,0.1115 0.25,0.25 v 1.25 c 0,0.1385 -0.1115,0.25 -0.25,0.25 H 47 c -0.1385,0 -0.25,-0.1115 -0.25,-0.25 v -1.25 c 0,-0.1385 0.1115,-0.25 0.25,-0.25 z m 3,0 h 1.25 c 0.1385,0 0.25,0.1115 0.25,0.25 v 1.25 c 0,0.1385 -0.1115,0.25 -0.25,0.25 H 50 c -0.1385,0 -0.25,-0.1115 -0.25,-0.25 v -1.25 c 0,-0.1385 0.1115,-0.25 0.25,-0.25 z m 3,0 h 1.25 c 0.1385,0 0.25,0.1115 0.25,0.25 v 1.25 c 0,0.1385 -0.1115,0.25 -0.25,0.25 H 53 c -0.1385,0 -0.25,-0.1115 -0.25,-0.25 v -1.25 c 0,-0.1385 0.1115,-0.25 0.25,-0.25 z" />
  </g>
</svg>
