<?xml version="1.0" encoding="UTF-8" standalone="no"?>
<svg
   xmlns:dc="http://purl.org/dc/elements/1.1/"
   xmlns:cc="http://creativecommons.org/ns#"
   xmlns:rdf="http://www.w3.org/1999/02/22-rdf-syntax-ns#"
   xmlns:svg="http://www.w3.org/2000/svg"
   xmlns="http://www.w3.org/2000/svg"
   xmlns:sodipodi="http://sodipodi.sourceforge.net/DTD/sodipodi-0.dtd"
   xmlns:inkscape="http://www.inkscape.org/namespaces/inkscape"
   width="64"
   height="64"
   viewBox="0 0 64 64"
   version="1.1"
   id="svg6374"
   inkscape:version="1.0.2 (e86c870879, 2021-01-15)"
   sodipodi:docname="folder-templates-symbolic.svg">
  <defs
     id="defs6368" />
  <sodipodi:namedview
     id="base"
     pagecolor="#cecece"
     bordercolor="#666666"
     borderopacity="1.0"
     inkscape:pageopacity="0"
     inkscape:pageshadow="2"
     inkscape:zoom="1.2622617"
     inkscape:cx="108.25178"
     inkscape:cy="80.048091"
     inkscape:document-units="px"
     inkscape:current-layer="layer1"
     inkscape:document-rotation="0"
     showgrid="false"
     units="px"
     inkscape:window-width="1500"
     inkscape:window-height="970"
     inkscape:window-x="68"
     inkscape:window-y="56"
     inkscape:window-maximized="0" />
  <metadata
     id="metadata6371">
    <rdf:RDF>
      <cc:Work
         rdf:about="">
        <dc:format>image/svg+xml</dc:format>
        <dc:type
           rdf:resource="http://purl.org/dc/dcmitype/StillImage" />
        <dc:title></dc:title>
      </cc:Work>
    </rdf:RDF>
  </metadata>
  <g
     inkscape:label="Layer 1"
     inkscape:groupmode="layer"
     id="layer1">
    <rect
       style="opacity:0.25;fill:#808084;fill-opacity:1;stroke:none;stroke-width:1.969;stroke-linecap:round;stroke-linejoin:round;stroke-dashoffset:2.1875"
       id="rect990"
       width="52"
       height="14"
       x="6.0000019"
       y="1.0000036"
       rx="5"
       ry="5" />
    <path
       id="rect994-4"
       style="fill:#808084;fill-opacity:1;stroke:none;stroke-width:1.969;stroke-linecap:round;stroke-linejoin:round;stroke-dashoffset:2.1875"
       d="M 11.000001,1 C 8.230001,1 6,3.23 6,6 v 5.5 3.5 43.000003 c 0,2.77 2.230001,5 5.000001,5 h 41.999998 c 2.77,0 5,-2.23 5,-5 V 15 11.5 6 c 0,-2.77 -2.23,-5 -5,-5 z m 1.999998,4.5 h 38 c 1.385,0 2.5,1.115 2.5,2.5 v 3.5 H 10.5 V 8 c 0,-1.385 1.115002,-2.5 2.499999,-2.5 z M 10.5,15 h 42.999999 v 41.000003 c 0,1.385 -1.115,2.5 -2.5,2.5 h -38 c -1.384997,0 -2.499999,-1.115 -2.499999,-2.5 z" />
  </g>
</svg>
