<?xml version="1.0" encoding="UTF-8" standalone="no"?>
<svg
   xmlns:dc="http://purl.org/dc/elements/1.1/"
   xmlns:cc="http://creativecommons.org/ns#"
   xmlns:rdf="http://www.w3.org/1999/02/22-rdf-syntax-ns#"
   xmlns:svg="http://www.w3.org/2000/svg"
   xmlns="http://www.w3.org/2000/svg"
   xmlns:sodipodi="http://sodipodi.sourceforge.net/DTD/sodipodi-0.dtd"
   xmlns:inkscape="http://www.inkscape.org/namespaces/inkscape"
   width="64"
   height="64"
   viewBox="0 0 64 64"
   version="1.1"
   id="svg6374"
   inkscape:version="1.0.2 (e86c870879, 2021-01-15)"
   sodipodi:docname="workspaces-symbolic.svg">
  <defs
     id="defs6368" />
  <sodipodi:namedview
     id="base"
     pagecolor="#cecece"
     bordercolor="#666666"
     borderopacity="1.0"
     inkscape:pageopacity="0"
     inkscape:pageshadow="2"
     inkscape:zoom="1.2622617"
     inkscape:cx="108.25178"
     inkscape:cy="80.048091"
     inkscape:document-units="px"
     inkscape:current-layer="layer1"
     inkscape:document-rotation="0"
     showgrid="false"
     units="px"
     inkscape:window-width="1500"
     inkscape:window-height="970"
     inkscape:window-x="68"
     inkscape:window-y="56"
     inkscape:window-maximized="0" />
  <metadata
     id="metadata6371">
    <rdf:RDF>
      <cc:Work
         rdf:about="">
        <dc:format>image/svg+xml</dc:format>
        <dc:type
           rdf:resource="http://purl.org/dc/dcmitype/StillImage" />
        <dc:title></dc:title>
      </cc:Work>
    </rdf:RDF>
  </metadata>
  <g
     inkscape:label="Layer 1"
     inkscape:groupmode="layer"
     id="layer1">
    <path
       id="rect850"
       style="display:inline;fill:#808084;stroke-width:5;stroke-linecap:round;stroke-linejoin:round;stroke-dashoffset:2.1875"
       d="m 11.75,9.5 c -0.9695,0 -1.7500002,0.7805 -1.7500002,1.75 v 3.5 c 0,0.9695 0.7805002,1.75 1.7500002,1.75 h 40.5 c 0.9695,0 1.75,-0.7805 1.75,-1.75 v -3.5 C 54,10.2805 53.2195,9.5 52.25,9.5 Z m 3,1.75 A 1.75,1.75 0 0 1 16.5,13 1.75,1.75 0 0 1 14.75,14.75 1.75,1.75 0 0 1 13,13 1.75,1.75 0 0 1 14.75,11.25 Z m 14.25,0 h 6 c 0.277,0 0.5,0.223 0.5,0.5 v 2.5 c 0,0.277 -0.223,0.5 -0.5,0.5 h -6 c -0.277,0 -0.5,-0.223 -0.5,-0.5 v -2.5 c 0,-0.277 0.223,-0.5 0.5,-0.5 z m 17,0.25 h 4.5 c 0.277,0 0.5,0.223 0.5,0.5 v 2 c 0,0.277 -0.223,0.5 -0.5,0.5 H 46 c -0.277,0 -0.5,-0.223 -0.5,-0.5 v -2 c 0,-0.277 0.223,-0.5 0.5,-0.5 z" />
    <path
       id="rect903-5"
       style="display:inline;fill:#808084;fill-opacity:1;stroke-width:5;stroke-linecap:round;stroke-linejoin:round;stroke-dashoffset:2.1875"
       d="M 5,2 C 3.338,2 2,3.338 2,5 v 54 c 0,1.662 1.338,3 3,3 h 54 c 1.662,0 3,-1.338 3,-3 V 5 C 62,3.338 60.662,2 59,2 Z M 7.9999998,6.5 H 56 c 0.831,0 1.5,0.669 1.5,1.5 v 48 c 0,0.831 -0.669,1.5 -1.5,1.5 H 45 V 56 55.5 51 c 0,-0.831 -0.669,-1.5 -1.5,-1.5 h -23 C 19.669,49.5 19,50.169 19,51 v 4.5 0.5 1.5 H 7.9999998 c -0.831,0 -1.5,-0.669 -1.5,-1.5 V 8 c 0,-0.831 0.669,-1.5 1.5,-1.5 z M 22,51.75 h 2.5 c 0.277,0 0.5,0.223 0.5,0.5 v 2.5 c 0,0.277 -0.223,0.5 -0.5,0.5 H 22 c -0.277,0 -0.5,-0.223 -0.5,-0.5 v -2.5 c 0,-0.277 0.223,-0.5 0.5,-0.5 z m 6,0 h 2.5 c 0.277,0 0.5,0.223 0.5,0.5 v 2.5 c 0,0.277 -0.223,0.5 -0.5,0.5 H 28 c -0.277,0 -0.5,-0.223 -0.5,-0.5 v -2.5 c 0,-0.277 0.223,-0.5 0.5,-0.5 z m 6,0 h 2.5 c 0.277,0 0.5,0.223 0.5,0.5 v 2.5 c 0,0.277 -0.223,0.5 -0.5,0.5 H 34 c -0.277,0 -0.5,-0.223 -0.5,-0.5 v -2.5 c 0,-0.277 0.223,-0.5 0.5,-0.5 z m 6,0 h 2.5 c 0.277,0 0.5,0.223 0.5,0.5 v 2.5 c 0,0.277 -0.223,0.5 -0.5,0.5 H 40 c -0.277,0 -0.5,-0.223 -0.5,-0.5 v -2.5 c 0,-0.277 0.223,-0.5 0.5,-0.5 z" />
  </g>
</svg>
