<?xml version="1.0" encoding="UTF-8" standalone="no"?>
<svg
   xmlns:dc="http://purl.org/dc/elements/1.1/"
   xmlns:cc="http://creativecommons.org/ns#"
   xmlns:rdf="http://www.w3.org/1999/02/22-rdf-syntax-ns#"
   xmlns:svg="http://www.w3.org/2000/svg"
   xmlns="http://www.w3.org/2000/svg"
   xmlns:xlink="http://www.w3.org/1999/xlink"
   xmlns:sodipodi="http://sodipodi.sourceforge.net/DTD/sodipodi-0.dtd"
   xmlns:inkscape="http://www.inkscape.org/namespaces/inkscape"
   width="64"
   height="64"
   viewBox="0 0 64 64"
   version="1.1"
   id="svg6374"
   inkscape:version="1.0.2 (e86c870879, 2021-01-15)"
   sodipodi:docname="user-home.svg">
  <defs
     id="defs6368">
    <linearGradient
       inkscape:collect="always"
       xlink:href="#linearGradient998"
       id="linearGradient6091"
       gradientUnits="userSpaceOnUse"
       x1="33.48571"
       y1="4.0123987"
       x2="33.594517"
       y2="23.910183" />
    <linearGradient
       inkscape:collect="always"
       id="linearGradient998">
      <stop
         style="stop-color:#d7799c;stop-opacity:1"
         offset="0"
         id="stop994" />
      <stop
         style="stop-color:#cc648a;stop-opacity:1"
         offset="1"
         id="stop996" />
    </linearGradient>
    <linearGradient
       inkscape:collect="always"
       xlink:href="#linearGradient993"
       id="linearGradient6093"
       gradientUnits="userSpaceOnUse"
       gradientTransform="translate(-5.7070315,-71.22067)"
       x1="38.194393"
       y1="86.220306"
       x2="37.853539"
       y2="130.25267" />
    <linearGradient
       inkscape:collect="always"
       id="linearGradient993">
      <stop
         style="stop-color:#ea9ab7;stop-opacity:1"
         offset="0"
         id="stop989" />
      <stop
         style="stop-color:#b44c72;stop-opacity:1"
         offset="1"
         id="stop991" />
    </linearGradient>
  </defs>
  <sodipodi:namedview
     id="base"
     pagecolor="#cecece"
     bordercolor="#666666"
     borderopacity="1.0"
     inkscape:pageopacity="0"
     inkscape:pageshadow="2"
     inkscape:zoom="5.874722"
     inkscape:cx="-6.1793338"
     inkscape:cy="50.335815"
     inkscape:document-units="px"
     inkscape:current-layer="layer1"
     inkscape:document-rotation="0"
     showgrid="false"
     units="px"
     inkscape:window-width="2048"
     inkscape:window-height="1080"
     inkscape:window-x="0"
     inkscape:window-y="0"
     inkscape:window-maximized="1" />
  <metadata
     id="metadata6371">
    <rdf:RDF>
      <cc:Work
         rdf:about="">
        <dc:format>image/svg+xml</dc:format>
        <dc:type
           rdf:resource="http://purl.org/dc/dcmitype/StillImage" />
        <dc:title />
      </cc:Work>
    </rdf:RDF>
  </metadata>
  <g
     inkscape:label="Layer 1"
     inkscape:groupmode="layer"
     id="layer1">
    <path
       id="rect1006-9-7-4-2-5-8-4"
       style="isolation:isolate;fill:#cc648a;fill-opacity:1;stroke:none;stroke-width:0.611371;stroke-miterlimit:4;stroke-dasharray:none;stroke-opacity:1"
       d="M 7.0192243,4.5 C 5.3466233,4.5 4,5.8576 4,7.5438 v 4.9091 0.049 15.9545 c 0,1.6862 1.3466233,3.0437 3.0192243,3.0437 H 56.980767 C 58.653368,31.5001 60,30.1426 60,28.4564 V 12.453 C 60,10.7668 58.653365,9.4092 56.980767,9.4092 H 28.591304 L 24.208697,4.5001 H 20.459027 7.1652203 Z" />
    <path
       id="rect1006-9-9-5-7-6-6-8-8"
       style="color:#000000;font-style:normal;font-variant:normal;font-weight:normal;font-stretch:normal;font-size:medium;line-height:normal;font-family:sans-serif;font-variant-ligatures:normal;font-variant-position:normal;font-variant-caps:normal;font-variant-numeric:normal;font-variant-alternates:normal;font-variant-east-asian:normal;font-feature-settings:normal;font-variation-settings:normal;text-indent:0;text-align:start;text-decoration:none;text-decoration-line:none;text-decoration-style:solid;text-decoration-color:#000000;letter-spacing:normal;word-spacing:normal;text-transform:none;writing-mode:lr-tb;direction:ltr;text-orientation:mixed;dominant-baseline:auto;baseline-shift:baseline;text-anchor:start;white-space:normal;shape-padding:0;shape-margin:0;inline-size:0;clip-rule:nonzero;display:inline;overflow:visible;visibility:visible;isolation:isolate;mix-blend-mode:normal;color-interpolation:sRGB;color-interpolation-filters:linearRGB;solid-color:#000000;solid-opacity:1;vector-effect:none;fill:url(#linearGradient6091);fill-opacity:1;fill-rule:nonzero;stroke:none;stroke-linecap:butt;stroke-linejoin:miter;stroke-miterlimit:4;stroke-dasharray:none;stroke-dashoffset:0;stroke-opacity:1;color-rendering:auto;image-rendering:auto;shape-rendering:auto;text-rendering:auto;enable-background:accumulate;stop-color:#000000"
       d="M 7.0195313,4.125 C 5.1440213,4.125 3.625,5.6572 3.625,7.543 v 4.9102 0.049 15.955 c 0,1.8859 1.5190213,3.418 3.3945313,3.418 H 56.980468 c 1.87551,0 3.394532,-1.5321 3.394532,-3.418 V 12.4533 c 0,-1.8858 -1.51902,-3.4199 -3.394532,-3.4199 H 28.759765 L 24.376953,4.1252 H 20.458984 7.1660163 Z m 0,0.75 h 0.146485 13.2929677 3.582031 l 4.382813,4.9082 h 28.55664 c 1.469687,0 2.644532,1.1834 2.644532,2.67 v 16.0039 c 0,1.4865 -1.174842,2.6679 -2.644532,2.6679 H 7.0195313 C 5.5498413,31.125 4.375,29.9436 4.375,28.4571 V 12.502 12.453 7.5428 c 0,-1.4865 1.1748413,-2.6679 2.6445313,-2.6679 z" />
    <path
       id="rect880-1-9-6-9-8-6-3-5-7"
       style="opacity:0.125;isolation:isolate;fill:#4e182c;fill-opacity:1;stroke:none;stroke-width:0.609903;stroke-miterlimit:4;stroke-dasharray:none;stroke-opacity:1"
       d="M 32.320312,13.5 32.208984,13.625 27.9375,18.3887 H 7.0195313 C 5.1448563,18.3887 3.625,19.9152 3.625,21.795 v 33.0488 c 0,1.8797 1.5198553,3.4062 3.3945313,3.4062 H 56.980468 c 1.874671,0 3.394532,-1.5265 3.394532,-3.4062 v -22 V 21.795 16.9063 C 60.375,15.0266 58.855139,13.5 56.980468,13.5 h -5.015625 -8.423828 z" />
    <path
       id="rect880-1-9-2-4-4-9-0-0"
       style="opacity:0.15;isolation:isolate;fill:#4c1a2c;fill-opacity:1;stroke:none;stroke-width:0.609903;stroke-miterlimit:4;stroke-dasharray:none;stroke-opacity:1"
       d="M 32.320312,16.125 32.208984,16.25 27.9375,21.0137 H 7.0195313 C 5.1448563,21.0137 3.625,22.5402 3.625,24.42 v 33.0488 c 0,1.8797 1.5198553,3.4062 3.3945313,3.4062 H 56.980468 c 1.874671,0 3.394532,-1.5265 3.394532,-3.4062 v -22 V 24.42 19.5313 c 0,-1.8797 -1.519861,-3.4063 -3.394532,-3.4063 h -5.015625 -8.423828 z" />
    <path
       id="rect880-1-28-5-9-4-9-8"
       style="isolation:isolate;fill:#d7799c;fill-opacity:1;stroke:none;stroke-width:0.609904;stroke-miterlimit:4;stroke-dasharray:none;stroke-opacity:1"
       d="m 32.486969,15 -4.382604,4.8889 H 7.0192023 C 5.3466023,19.8889 4,21.2409 4,22.9201 V 55.9688 C 4,57.6481 5.3466023,59 7.0192023,59 H 56.980778 C 58.653376,59 60,57.6481 60,55.9688 V 33.9693 22.9201 18.0312 C 60,16.352 58.653376,15 56.980778,15 h -5.015552 -8.424295 z" />
    <path
       id="rect880-1-2-9-0-5-8-6-6"
       style="color:#000000;font-style:normal;font-variant:normal;font-weight:normal;font-stretch:normal;font-size:medium;line-height:normal;font-family:sans-serif;font-variant-ligatures:normal;font-variant-position:normal;font-variant-caps:normal;font-variant-numeric:normal;font-variant-alternates:normal;font-variant-east-asian:normal;font-feature-settings:normal;font-variation-settings:normal;text-indent:0;text-align:start;text-decoration:none;text-decoration-line:none;text-decoration-style:solid;text-decoration-color:#000000;letter-spacing:normal;word-spacing:normal;text-transform:none;writing-mode:lr-tb;direction:ltr;text-orientation:mixed;dominant-baseline:auto;baseline-shift:baseline;text-anchor:start;white-space:normal;shape-padding:0;shape-margin:0;inline-size:0;clip-rule:nonzero;display:inline;overflow:visible;visibility:visible;isolation:isolate;mix-blend-mode:normal;color-interpolation:sRGB;color-interpolation-filters:linearRGB;solid-color:#000000;solid-opacity:1;vector-effect:none;fill:url(#linearGradient6093);fill-opacity:1;fill-rule:nonzero;stroke:none;stroke-linecap:butt;stroke-linejoin:miter;stroke-miterlimit:4;stroke-dasharray:none;stroke-dashoffset:0;stroke-opacity:1;color-rendering:auto;image-rendering:auto;shape-rendering:auto;text-rendering:auto;enable-background:accumulate;stop-color:#000000"
       d="M 32.320312,14.625 32.208984,14.75 27.9375,19.5137 H 7.0195313 C 5.1448563,19.5137 3.625,21.0402 3.625,22.92 v 33.0488 c 0,1.8797 1.5198553,3.4062 3.3945313,3.4062 H 56.980474 c 1.87467,0 3.39453,-1.5265 3.39453,-3.4062 v -22 V 22.92 18.0313 c 0,-1.8797 -1.51986,-3.4063 -3.39453,-3.4063 h -5.01563 -8.423828 z m 0.333984,0.75 h 10.886719 8.423828 5.015628 c 1.47052,0 2.644531,1.1775 2.644531,2.6563 v 4.8887 11.0488 22 c 0,1.4787 -1.174011,2.6562 -2.644531,2.6562 H 7.0195313 C 5.5490083,58.625 4.375,57.4475 4.375,55.9688 V 22.92 c 0,-1.4788 1.1740093,-2.6563 2.6445313,-2.6563 H 28.271484 Z" />
    <path
       id="path1305-3-0-7-7-9-2-8"
       style="color:#000000;font-style:normal;font-variant:normal;font-weight:normal;font-stretch:normal;font-size:medium;line-height:normal;font-family:sans-serif;font-variant-ligatures:normal;font-variant-position:normal;font-variant-caps:normal;font-variant-numeric:normal;font-variant-alternates:normal;font-variant-east-asian:normal;font-feature-settings:normal;font-variation-settings:normal;text-indent:0;text-align:start;text-decoration:none;text-decoration-line:none;text-decoration-style:solid;text-decoration-color:#000000;letter-spacing:normal;word-spacing:normal;text-transform:none;writing-mode:lr-tb;direction:ltr;text-orientation:mixed;dominant-baseline:auto;baseline-shift:baseline;text-anchor:start;white-space:normal;shape-padding:0;shape-margin:0;inline-size:0;clip-rule:nonzero;display:inline;overflow:visible;visibility:visible;opacity:0.15;isolation:auto;mix-blend-mode:normal;color-interpolation:sRGB;color-interpolation-filters:linearRGB;solid-color:#000000;solid-opacity:1;vector-effect:none;fill:#4c1a2c;fill-opacity:1;fill-rule:nonzero;stroke:none;stroke-linecap:round;stroke-linejoin:round;stroke-miterlimit:4;stroke-dasharray:none;stroke-dashoffset:0;stroke-opacity:1;color-rendering:auto;image-rendering:auto;shape-rendering:auto;text-rendering:auto;enable-background:accumulate;stop-color:#000000"
       d="m 31.93842,24.5 a 1.0001,1.0001 0 0 0 -0.36328,0.076 c -4.34204,0.2339 -7.82438,3.7862 -7.82422,8.1816 -4e-5,4.5483 3.70361,8.2578 8.24805,8.2578 4.54444,0 8.25004,-3.7095 8.25,-8.2578 4e-5,-4.4631 -3.58231,-8.0736 -8.00977,-8.209 a 1.0001,1.0001 0 0 0 -0.22461,-0.045 c -0.006,0 -0.01,0 -0.0156,0 h -0.0527 -0.002 -0.004 a 1.0001,1.0001 0 0 0 -0.002,0 z m 0.01,2 h 0.004 0.0449 a 1.0001,1.0001 0 0 0 0.002,0 c 3.46214,0 6.25003,2.789 6.25,6.2578 3e-5,3.4688 -2.78786,6.2578 -6.25,6.2578 -3.46214,0 -6.24808,-2.789 -6.24805,-6.2578 -1.3e-4,-3.4488 2.75571,-6.2296 6.19727,-6.2578 z m 0.0508,16.6777 c -2.58225,0 -5.16358,0.4432 -7.5293,1.3438 -4.74209,1.8052 -8.16986,5.4087 -8.16992,9.7695 7.2e-4,1.2068 0.99972,2.2084 2.20703,2.209 h 13.49219 13.49219 c 1.20798,4e-4 2.20826,-1.0016 2.20898,-2.209 -6e-5,-4.3607 -3.42582,-7.9643 -8.16797,-9.7695 -2.36578,-0.9006 -4.95091,-1.3438 -7.5332,-1.3438 z m 0,2 c 2.35185,0 4.70362,0.4072 6.82031,1.2129 4.22288,1.6076 6.88082,4.5981 6.88086,7.9004 -7e-5,0.1283 -0.0813,0.2091 -0.20703,0.209 a 1.0001,1.0001 0 0 0 -0.002,0 H 31.99917 18.50698 c -0.12565,0 -0.20695,-0.081 -0.20703,-0.209 4e-5,-3.3021 2.65795,-6.2928 6.88086,-7.9004 2.11678,-0.8058 4.46657,-1.2129 6.81836,-1.2129 z" />
    <path
       id="path1305-3-0-7-7-9-2"
       style="color:#000000;font-style:normal;font-variant:normal;font-weight:normal;font-stretch:normal;font-size:medium;line-height:normal;font-family:sans-serif;font-variant-ligatures:normal;font-variant-position:normal;font-variant-caps:normal;font-variant-numeric:normal;font-variant-alternates:normal;font-variant-east-asian:normal;font-feature-settings:normal;font-variation-settings:normal;text-indent:0;text-align:start;text-decoration:none;text-decoration-line:none;text-decoration-style:solid;text-decoration-color:#000000;letter-spacing:normal;word-spacing:normal;text-transform:none;writing-mode:lr-tb;direction:ltr;text-orientation:mixed;dominant-baseline:auto;baseline-shift:baseline;text-anchor:start;white-space:normal;shape-padding:0;shape-margin:0;inline-size:0;clip-rule:nonzero;display:inline;overflow:visible;visibility:visible;isolation:auto;mix-blend-mode:normal;color-interpolation:sRGB;color-interpolation-filters:linearRGB;solid-color:#000000;solid-opacity:1;vector-effect:none;fill:#fafafa;fill-opacity:1;fill-rule:nonzero;stroke:none;stroke-linecap:round;stroke-linejoin:round;stroke-miterlimit:4;stroke-dasharray:none;stroke-dashoffset:0;stroke-opacity:1;color-rendering:auto;image-rendering:auto;shape-rendering:auto;text-rendering:auto;enable-background:accumulate;stop-color:#000000"
       d="m 31.93842,22.5 a 1.0001,1.0001 0 0 0 -0.36328,0.076 c -4.34204,0.2339 -7.82438,3.7862 -7.82422,8.1816 -4e-5,4.5483 3.70361,8.2578 8.24805,8.2578 4.54444,0 8.25004,-3.7095 8.25,-8.2578 4e-5,-4.4631 -3.58231,-8.0736 -8.00977,-8.209 a 1.0001,1.0001 0 0 0 -0.22461,-0.045 c -0.006,0 -0.01,0 -0.0156,0 h -0.0527 -0.002 -0.004 a 1.0001,1.0001 0 0 0 -0.002,0 z m 0.01,2 h 0.004 0.0449 a 1.0001,1.0001 0 0 0 0.002,0 c 3.46214,0 6.25003,2.789 6.25,6.2578 3e-5,3.4688 -2.78786,6.2578 -6.25,6.2578 -3.46214,0 -6.24808,-2.789 -6.24805,-6.2578 -1.3e-4,-3.4488 2.75571,-6.2296 6.19727,-6.2578 z m 0.0508,16.6777 c -2.58225,0 -5.16358,0.4432 -7.5293,1.3438 -4.74209,1.8052 -8.16986,5.4087 -8.16992,9.7695 7.2e-4,1.2068 0.99972,2.2084 2.20703,2.209 h 13.49219 13.49219 c 1.20798,4e-4 2.20826,-1.0016 2.20898,-2.209 -6e-5,-4.3607 -3.42582,-7.9643 -8.16797,-9.7695 -2.36578,-0.9006 -4.95091,-1.3438 -7.5332,-1.3438 z m 0,2 c 2.35185,0 4.70362,0.4072 6.82031,1.2129 4.22288,1.6076 6.88082,4.5981 6.88086,7.9004 -7e-5,0.1283 -0.0813,0.2091 -0.20703,0.209 a 1.0001,1.0001 0 0 0 -0.002,0 H 31.99917 18.50698 c -0.12565,0 -0.20695,-0.081 -0.20703,-0.209 4e-5,-3.3021 2.65795,-6.2928 6.88086,-7.9004 2.11678,-0.8058 4.46657,-1.2129 6.81836,-1.2129 z" />
  </g>
</svg>
