<?xml version="1.0" encoding="UTF-8" standalone="no"?>
<svg
   xmlns:dc="http://purl.org/dc/elements/1.1/"
   xmlns:cc="http://creativecommons.org/ns#"
   xmlns:rdf="http://www.w3.org/1999/02/22-rdf-syntax-ns#"
   xmlns:svg="http://www.w3.org/2000/svg"
   xmlns="http://www.w3.org/2000/svg"
   xmlns:xlink="http://www.w3.org/1999/xlink"
   xmlns:sodipodi="http://sodipodi.sourceforge.net/DTD/sodipodi-0.dtd"
   xmlns:inkscape="http://www.inkscape.org/namespaces/inkscape"
   width="64"
   height="64"
   viewBox="0 0 16.933333 16.933334"
   version="1.1"
   id="svg841"
   inkscape:version="1.0.2 (e86c870879, 2021-01-15)"
   sodipodi:docname="org.gnome.Settings.svg">
  <defs
     id="defs835">
    <linearGradient
       inkscape:collect="always"
       xlink:href="#linearGradient1502"
       id="linearGradient3072"
       x1="8.6850443"
       y1="28.562553"
       x2="8.248291"
       y2="41.288174"
       gradientUnits="userSpaceOnUse"
       gradientTransform="translate(-2.6463312e-4,-26.656771)" />
    <linearGradient
       inkscape:collect="always"
       id="linearGradient1502">
      <stop
         style="stop-color:#e9e9ef;stop-opacity:1"
         offset="0"
         id="stop1498" />
      <stop
         style="stop-color:#d5d5db;stop-opacity:1"
         offset="1"
         id="stop1500" />
    </linearGradient>
    <linearGradient
       inkscape:collect="always"
       xlink:href="#linearGradient3680"
       id="linearGradient3638"
       x1="6.9795055"
       y1="23.404812"
       x2="10.278595"
       y2="26.579811"
       gradientUnits="userSpaceOnUse"
       gradientTransform="translate(-0.16251619,-22.615162)" />
    <linearGradient
       inkscape:collect="always"
       id="linearGradient3680">
      <stop
         style="stop-color:#d5d5db;stop-opacity:0"
         offset="0"
         id="stop3676" />
      <stop
         style="stop-color:#42424d;stop-opacity:0.55000001"
         offset="1"
         id="stop3678" />
    </linearGradient>
    <linearGradient
       inkscape:collect="always"
       xlink:href="#linearGradient3680"
       id="linearGradient3640"
       x1="12.081467"
       y1="26.350418"
       x2="15.380556"
       y2="29.525417"
       gradientUnits="userSpaceOnUse"
       gradientTransform="translate(-0.16251619,-22.615162)" />
    <linearGradient
       inkscape:collect="always"
       xlink:href="#linearGradient3680"
       id="linearGradient3642"
       x1="12.081467"
       y1="32.241367"
       x2="15.380556"
       y2="35.41637"
       gradientUnits="userSpaceOnUse"
       gradientTransform="translate(-0.16251619,-22.615162)" />
    <linearGradient
       inkscape:collect="always"
       xlink:href="#linearGradient3680"
       id="linearGradient3644"
       x1="6.9795055"
       y1="35.186974"
       x2="10.278595"
       y2="38.361977"
       gradientUnits="userSpaceOnUse"
       gradientTransform="translate(-0.16251619,-22.615162)" />
    <linearGradient
       inkscape:collect="always"
       xlink:href="#linearGradient3680"
       id="linearGradient3646"
       x1="1.8778099"
       y1="32.241367"
       x2="5.1768994"
       y2="35.41637"
       gradientUnits="userSpaceOnUse"
       gradientTransform="translate(-0.16251619,-22.615162)" />
    <linearGradient
       inkscape:collect="always"
       xlink:href="#linearGradient3680"
       id="linearGradient3648"
       x1="1.8778099"
       y1="26.350418"
       x2="5.1768994"
       y2="29.525417"
       gradientUnits="userSpaceOnUse"
       gradientTransform="translate(-0.16251619,-22.615162)" />
    <radialGradient
       inkscape:collect="always"
       xlink:href="#linearGradient3674"
       id="radialGradient3688"
       cx="8.4665346"
       cy="8.2683611"
       fx="8.4665346"
       fy="8.2683611"
       r="1.6495448"
       gradientUnits="userSpaceOnUse"
       gradientTransform="matrix(1.3207955,0,0,1.3207955,-2.7160248,-2.652453)" />
    <linearGradient
       inkscape:collect="always"
       id="linearGradient3674">
      <stop
         style="stop-color:#a7a7b4;stop-opacity:0.54901963"
         offset="0"
         id="stop3670" />
      <stop
         style="stop-color:#42424d;stop-opacity:0.55000001"
         offset="1"
         id="stop3672" />
    </linearGradient>
  </defs>
  <sodipodi:namedview
     id="base"
     pagecolor="#c4c4c4"
     bordercolor="#666666"
     borderopacity="1.0"
     inkscape:pageopacity="0"
     inkscape:pageshadow="2"
     inkscape:zoom="2.8903394"
     inkscape:cx="46.372831"
     inkscape:cy="36.927888"
     inkscape:document-units="px"
     inkscape:current-layer="layer1"
     inkscape:document-rotation="0"
     showgrid="false"
     units="px"
     inkscape:window-width="2048"
     inkscape:window-height="1080"
     inkscape:window-x="0"
     inkscape:window-y="0"
     inkscape:window-maximized="1" />
  <metadata
     id="metadata838">
    <rdf:RDF>
      <cc:Work
         rdf:about="">
        <dc:format>image/svg+xml</dc:format>
        <dc:type
           rdf:resource="http://purl.org/dc/dcmitype/StillImage" />
        <dc:title></dc:title>
      </cc:Work>
    </rdf:RDF>
  </metadata>
  <g
     inkscape:label="Layer 1"
     inkscape:groupmode="layer"
     id="layer1">
    <path
       id="rect1475-9-0-7-1-0-2-5-8"
       style="color:#000000;font-style:normal;font-variant:normal;font-weight:normal;font-stretch:normal;font-size:medium;line-height:normal;font-family:sans-serif;font-variant-ligatures:normal;font-variant-position:normal;font-variant-caps:normal;font-variant-numeric:normal;font-variant-alternates:normal;font-variant-east-asian:normal;font-feature-settings:normal;font-variation-settings:normal;text-indent:0;text-align:start;text-decoration:none;text-decoration-line:none;text-decoration-style:solid;text-decoration-color:#000000;letter-spacing:normal;word-spacing:normal;text-transform:none;writing-mode:lr-tb;direction:ltr;text-orientation:mixed;dominant-baseline:auto;baseline-shift:baseline;text-anchor:start;white-space:normal;shape-padding:0;shape-margin:0;inline-size:0;clip-rule:nonzero;display:inline;overflow:visible;visibility:visible;opacity:0.15;isolation:auto;mix-blend-mode:normal;color-interpolation:sRGB;color-interpolation-filters:linearRGB;solid-color:#000000;solid-opacity:1;vector-effect:none;fill:#0c0c0c;fill-opacity:1;fill-rule:nonzero;stroke:none;stroke-width:1.00022;stroke-linecap:round;stroke-linejoin:round;stroke-miterlimit:4;stroke-dasharray:none;stroke-dashoffset:2.1875;stroke-opacity:1;color-rendering:auto;image-rendering:auto;shape-rendering:auto;text-rendering:auto;enable-background:accumulate;stop-color:#000000"
       d="m 8.0728891,1.9947322 a 0.3969147,0.39708811 0 0 0 -0.03721,0.0021 c -0.08165,0.01022 -0.163585,0.03701 -0.238228,0.08013 l -4.814694,2.782957 c -0.163438,0.09441 -0.26473,0.25617 -0.297139,0.430136 l -0.151412,0.26108 c -0.130853,0.113712 -0.219108,0.278649 -0.219108,0.465291 v 5.5648818 c 0,0.189667 0.08925,0.357296 0.222725,0.471495 l 0.150379,0.259529 c 0.03297,0.172304 0.132945,0.332634 0.294555,0.425999 l 4.814694,2.782441 c 0.162732,0.094 0.351699,0.09873 0.516764,0.04084 h 0.301274 c 0.165203,0.05853 0.3542555,0.05361 0.5177965,-0.04084 L 13.94953,12.738331 c 0.161785,-0.09345 0.260668,-0.254042 0.293005,-0.426515 l 0.149863,-0.258497 c 0.134305,-0.114191 0.225308,-0.28205 0.225308,-0.472011 V 6.0163972 c -2e-6,-0.189194 -0.09081,-0.356566 -0.224792,-0.470976 l -0.150379,-0.25953 c -0.03233,-0.172493 -0.13122,-0.332546 -0.293005,-0.426001 L 9.1332866,2.0769332 c -0.162723,-0.09399 -0.3506855,-0.09872 -0.5152145,-0.04084 h -0.35605 a 0.3969147,0.39708811 0 0 0 -0.162264,-0.04084 0.3969147,0.39708811 0 0 0 -0.02687,-5.17e-4 z m 0.206706,0.05118 0.111104,0.03515 c -0.02692,-0.0039 -0.05453,-0.0064 -0.07958,-0.01551 a 0.3969147,0.39708811 0 0 0 -0.03152,-0.01965 z m 0.219108,0.04808 c -0.0082,0.0049 -0.01786,0.0072 -0.02584,0.01241 h -0.0016 c -0.0034,0.0022 -0.0086,-0.0023 -0.01188,0 l 0.0057,-0.0021 z m -0.381372,0.713963 a 0.3969147,0.39708811 0 0 0 0.129191,0.02171 h 0.437699 a 0.3969147,0.39708811 0 0 0 0.126607,-0.02171 l 4.6679319,2.696621 a 0.3969147,0.39708811 0 0 0 0.04289,0.120975 l 0.219109,0.378954 a 0.3969147,0.39708811 0 0 0 0.08165,0.09771 v 5.3932398 a 0.3969147,0.39708811 0 0 0 -0.08165,0.09978 l -0.219109,0.376884 a 0.3969147,0.39708811 0 0 0 -0.04289,0.119427 l -4.6658639,2.698169 a 0.3969147,0.39708811 0 0 0 -0.128675,-0.02327 h -0.437699 a 0.3969147,0.39708811 0 0 0 -0.127124,0.02327 l -4.663798,-2.696621 a 0.3969147,0.39708811 0 0 0 -0.04703,-0.120975 l -0.218591,-0.376884 a 0.3969147,0.39708811 0 0 0 -0.08217,-0.09978 V 6.1042822 a 0.3969147,0.39708811 0 0 0 0.08217,-0.10133 l 0.218591,-0.377402 a 0.3969147,0.39708811 0 0 0 0.04289,-0.118908 z m -0.194821,0.476665 a 0.3969147,0.39708811 0 0 0 -0.186034,0.05273 l -3.632337,2.098462 a 0.3969147,0.39708811 0 0 0 0,0.688114 l 3.632337,2.098464 a 0.3969147,0.39708811 0 0 0 0.595829,-0.341731 v -4.199511 a 0.3969147,0.39708811 0 0 0 -0.409795,-0.396531 z m 1.0702195,0 a 0.3969147,0.39708811 0 0 0 -0.3948075,0.396531 v 4.199511 a 0.3969147,0.39708811 0 0 0 0.5958295,0.341731 l 3.6328524,-2.098464 a 0.3969147,0.39708811 0 0 0 0,-0.688114 L 9.1937516,3.3394212 a 0.3969147,0.39708811 0 0 0 -0.201022,-0.054801 z m -1.4531415,1.084646 v 2.823282 l -2.443262,-1.412415 z m 1.8536345,0 2.4411944,1.410867 -2.4411944,1.412415 z m 4.8591344,1.047938 0.0078,0.03464 0.01499,0.01396 c -0.0053,-0.0029 -0.0096,-0.0076 -0.01499,-0.01034 -0.0035,-0.0017 -0.0022,-0.0081 -0.0057,-0.0098 5.27e-4,-0.0095 -0.0022,-0.01891 -0.0021,-0.02843 z m -11.5765549,0.01034 c 1.93e-4,0.0068 -0.002,0.01341 -0.0016,0.02016 9.1e-5,0.0015 -0.0022,0.0026 -0.0021,0.0041 -0.0022,0.0011 -0.0015,0.0046 -0.0036,0.0057 4.61e-5,5.95e-4 -5e-5,0.0015 0,0.0021 -0.0096,0.0049 -0.01751,0.01274 -0.02687,0.01809 l 0.02842,-0.02585 z m 10.4810159,0.875783 a 0.3969147,0.39708811 0 0 0 -0.0098,5.16e-4 0.3969147,0.39708811 0 0 0 -0.185521,0.05273 l -3.6349194,2.098462 a 0.3969147,0.39708811 0 0 0 0,0.687598 L 12.961497,11.241097 A 0.3969147,0.39708811 0 0 0 13.55681,10.897298 V 6.7003722 a 0.3969147,0.39708811 0 0 0 -0.399973,-0.397048 z m -9.3890929,5.16e-4 a 0.3969147,0.39708811 0 0 0 -0.394291,0.396532 v 4.1969258 a 0.3969147,0.39708811 0 0 0 0.595829,0.343799 l 3.634404,-2.0984638 a 0.3969147,0.39708811 0 0 0 0,-0.687598 l -3.634404,-2.098461 a 0.3969147,0.39708811 0 0 0 -0.201538,-0.05273 z m 0.400493,1.084127 2.4417111,1.410867 -2.4417111,1.4108668 z m 8.5937909,0 V 10.209704 L 10.320814,8.7988382 Z m -4.8394989,1.932512 a 0.3969147,0.39708811 0 0 0 -0.186034,0.05273 l -3.632337,2.0984638 a 0.3969147,0.39708811 0 0 0 0,0.688114 l 3.632337,2.100529 a 0.3969147,0.39708811 0 0 0 0.595829,-0.343796 V 9.7170102 a 0.3969147,0.39708811 0 0 0 -0.409795,-0.396528 z m 1.0702195,0 a 0.3969147,0.39708811 0 0 0 -0.3948074,0.396529 v 4.1995128 a 0.3969147,0.39708811 0 0 0 0.5958294,0.343796 l 3.6328524,-2.100529 a 0.3969147,0.39708811 0 0 0 0,-0.688114 L 9.1937516,9.3732132 A 0.3969147,0.39708811 0 0 0 8.9927296,9.3204822 Z M 7.5395882,10.405125 v 2.823285 l -2.443262,-1.412418 z m 1.8536344,0 2.4411944,1.410867 -2.4411944,1.412418 z m -6.7380904,1.726748 c 0.0054,0.0029 0.0095,0.0076 0.01499,0.01034 0.0035,0.0017 0.0027,0.0081 0.0062,0.0098 -5.73e-4,0.01039 0.0027,0.02061 0.0026,0.03102 l -0.0088,-0.03722 z m 11.6199628,5.16e-4 -0.01499,0.01344 -0.0078,0.03464 c -1.11e-4,-0.0095 0.0026,-0.01893 0.0021,-0.02843 0.0035,-0.0017 0.0022,-0.0081 0.0057,-0.0098 0.0053,-0.0027 0.0097,-0.007 0.01499,-0.0098 z m -5.8156658,3.358887 c 5.519e-4,3.78e-4 0.0015,-3.81e-4 0.0021,0 0.0028,0.0019 0.007,-0.0018 0.0098,0 0.007,0.0046 0.01555,0.0065 0.02274,0.01085 l -0.02894,-0.0088 -0.02791,0.0088 c 0.0071,-0.0043 0.01534,-0.0063 0.02222,-0.01085 z" />
    <path
       id="rect1475-9-0-7-1-0-2-5"
       style="color:#000000;font-style:normal;font-variant:normal;font-weight:normal;font-stretch:normal;font-size:medium;line-height:normal;font-family:sans-serif;font-variant-ligatures:normal;font-variant-position:normal;font-variant-caps:normal;font-variant-numeric:normal;font-variant-alternates:normal;font-variant-east-asian:normal;font-feature-settings:normal;font-variation-settings:normal;text-indent:0;text-align:start;text-decoration:none;text-decoration-line:none;text-decoration-style:solid;text-decoration-color:#000000;letter-spacing:normal;word-spacing:normal;text-transform:none;writing-mode:lr-tb;direction:ltr;text-orientation:mixed;dominant-baseline:auto;baseline-shift:baseline;text-anchor:start;white-space:normal;shape-padding:0;shape-margin:0;inline-size:0;clip-rule:nonzero;display:inline;overflow:visible;visibility:visible;opacity:0.65;isolation:auto;mix-blend-mode:normal;color-interpolation:sRGB;color-interpolation-filters:linearRGB;solid-color:#000000;solid-opacity:1;vector-effect:none;fill:#3c3c53;fill-opacity:1;fill-rule:nonzero;stroke:none;stroke-width:1.00022;stroke-linecap:round;stroke-linejoin:round;stroke-miterlimit:4;stroke-dasharray:none;stroke-dashoffset:2.1875;stroke-opacity:1;color-rendering:auto;image-rendering:auto;shape-rendering:auto;text-rendering:auto;enable-background:accumulate;stop-color:#000000"
       d="m 8.0728891,1.4655662 a 0.3969147,0.39708811 0 0 0 -0.03721,0.0021 c -0.08165,0.01022 -0.163585,0.03701 -0.238228,0.08013 l -4.814694,2.782957 c -0.163438,0.09441 -0.26473,0.25617 -0.297139,0.430136 l -0.151412,0.26108 c -0.130853,0.113712 -0.219108,0.278649 -0.219108,0.465291 v 5.5648818 c 0,0.189667 0.08925,0.357296 0.222725,0.471495 l 0.150379,0.259529 c 0.03297,0.172304 0.132945,0.332634 0.294555,0.425999 l 4.814694,2.782441 c 0.162732,0.094 0.351699,0.09873 0.516764,0.04084 h 0.301274 c 0.165203,0.05853 0.3542555,0.05361 0.5177965,-0.04084 L 13.94953,12.209165 c 0.161785,-0.09345 0.260668,-0.254042 0.293005,-0.426515 l 0.149863,-0.258497 c 0.134305,-0.114191 0.225308,-0.28205 0.225308,-0.472011 V 5.4872312 c -2e-6,-0.189194 -0.09081,-0.356566 -0.224792,-0.470976 l -0.150379,-0.25953 c -0.03233,-0.172493 -0.13122,-0.332546 -0.293005,-0.426001 L 9.1332866,1.5477672 c -0.162723,-0.09399 -0.3506855,-0.09872 -0.5152145,-0.04084 h -0.35605 a 0.3969147,0.39708811 0 0 0 -0.162264,-0.04084 0.3969147,0.39708811 0 0 0 -0.02687,-5.17e-4 z m 0.206706,0.05118 0.111104,0.03515 c -0.02692,-0.0039 -0.05453,-0.0064 -0.07958,-0.01551 a 0.3969147,0.39708811 0 0 0 -0.03152,-0.01965 z m 0.219108,0.04808 c -0.0082,0.0049 -0.01786,0.0072 -0.02584,0.01241 h -0.0016 c -0.0034,0.0022 -0.0086,-0.0023 -0.01188,0 l 0.0057,-0.0021 z m -0.381372,0.713963 a 0.3969147,0.39708811 0 0 0 0.129191,0.02171 h 0.437699 a 0.3969147,0.39708811 0 0 0 0.126607,-0.02171 l 4.6679319,2.696621 a 0.3969147,0.39708811 0 0 0 0.04289,0.120975 l 0.219109,0.378954 a 0.3969147,0.39708811 0 0 0 0.08165,0.09771 v 5.3932398 a 0.3969147,0.39708811 0 0 0 -0.08165,0.09978 l -0.219109,0.376884 a 0.3969147,0.39708811 0 0 0 -0.04289,0.119427 l -4.6658639,2.698169 a 0.3969147,0.39708811 0 0 0 -0.128675,-0.02327 h -0.437699 a 0.3969147,0.39708811 0 0 0 -0.127124,0.02327 l -4.663798,-2.696621 a 0.3969147,0.39708811 0 0 0 -0.04703,-0.120975 l -0.218591,-0.376884 a 0.3969147,0.39708811 0 0 0 -0.08217,-0.09978 V 5.5751162 a 0.3969147,0.39708811 0 0 0 0.08217,-0.10133 l 0.218591,-0.377402 a 0.3969147,0.39708811 0 0 0 0.04289,-0.118908 z m -0.194821,0.476665 a 0.3969147,0.39708811 0 0 0 -0.186034,0.05273 l -3.632337,2.098462 a 0.3969147,0.39708811 0 0 0 0,0.688114 l 3.632337,2.098464 a 0.3969147,0.39708811 0 0 0 0.595829,-0.341731 v -4.199511 a 0.3969147,0.39708811 0 0 0 -0.409795,-0.396531 z m 1.0702195,0 a 0.3969147,0.39708811 0 0 0 -0.3948075,0.396531 v 4.199511 a 0.3969147,0.39708811 0 0 0 0.5958295,0.341731 l 3.6328524,-2.098464 a 0.3969147,0.39708811 0 0 0 0,-0.688114 L 9.1937516,2.8102552 a 0.3969147,0.39708811 0 0 0 -0.201022,-0.054801 z m -1.4531415,1.084646 v 2.823282 l -2.443262,-1.412415 z m 1.8536345,0 2.4411944,1.410867 -2.4411944,1.412415 z m 4.8591344,1.047938 0.0078,0.03464 0.01499,0.01396 c -0.0053,-0.0029 -0.0096,-0.0076 -0.01499,-0.01034 -0.0035,-0.0017 -0.0022,-0.0081 -0.0057,-0.0098 5.27e-4,-0.0095 -0.0022,-0.01891 -0.0021,-0.02843 z m -11.5765548,0.01034 c 1.929e-4,0.0068 -0.002,0.01341 -0.0016,0.02016 9.1e-5,0.0015 -0.0022,0.0026 -0.0021,0.0041 -0.0022,0.0011 -0.0015,0.0046 -0.0036,0.0057 4.6e-5,5.95e-4 -5e-5,0.0015 0,0.0021 -0.0096,0.0049 -0.01751,0.01274 -0.02687,0.01809 l 0.02842,-0.02585 z m 10.4810158,0.875783 a 0.3969147,0.39708811 0 0 0 -0.0098,5.16e-4 0.3969147,0.39708811 0 0 0 -0.185521,0.05273 l -3.6349194,2.098462 a 0.3969147,0.39708811 0 0 0 0,0.687598 L 12.961497,10.711931 A 0.3969147,0.39708811 0 0 0 13.55681,10.368132 V 6.1712062 a 0.3969147,0.39708811 0 0 0 -0.399973,-0.397048 z m -9.3890929,5.16e-4 a 0.3969147,0.39708811 0 0 0 -0.394291,0.396532 v 4.1969258 a 0.3969147,0.39708811 0 0 0 0.595829,0.343799 l 3.634404,-2.0984638 a 0.3969147,0.39708811 0 0 0 0,-0.687598 l -3.634404,-2.098461 a 0.3969147,0.39708811 0 0 0 -0.201538,-0.05273 z m 0.400493,1.084127 2.441711,1.410867 -2.441711,1.410867 z m 8.5937909,0 v 2.821734 l -2.441195,-1.410866 z m -4.8394989,1.932512 a 0.3969147,0.39708811 0 0 0 -0.186034,0.05273 L 4.1041391,10.94251 a 0.3969147,0.39708811 0 0 0 0,0.688114 l 3.632337,2.100529 a 0.3969147,0.39708811 0 0 0 0.595829,-0.343796 V 9.1878442 a 0.3969147,0.39708811 0 0 0 -0.409795,-0.396528 z m 1.0702195,0 a 0.3969147,0.39708811 0 0 0 -0.3948075,0.396529 v 4.1995128 a 0.3969147,0.39708811 0 0 0 0.5958295,0.343796 l 3.6328524,-2.100529 a 0.3969147,0.39708811 0 0 0 0,-0.688114 L 9.1937516,8.8440472 a 0.3969147,0.39708811 0 0 0 -0.201022,-0.052731 z m -1.4531415,1.084643 v 2.8232848 l -2.443262,-1.412418 z m 1.8536345,0 2.4411944,1.4108668 -2.4411944,1.412418 z M 2.6551321,11.602707 c 0.0054,0.0029 0.0095,0.0076 0.01499,0.01034 0.0035,0.0017 0.0027,0.0081 0.0062,0.0098 -5.73e-4,0.01039 0.0027,0.02061 0.0026,0.03102 l -0.0088,-0.03722 z m 11.6199629,5.16e-4 -0.01499,0.01344 -0.0078,0.03464 c -1.11e-4,-0.0095 0.0026,-0.01893 0.0021,-0.02843 0.0035,-0.0017 0.0022,-0.0081 0.0057,-0.0098 0.0053,-0.0027 0.0097,-0.007 0.01499,-0.0098 z M 8.4594291,14.96211 c 5.52e-4,3.78e-4 0.0015,-3.81e-4 0.0021,0 0.0028,0.0019 0.007,-0.0018 0.0098,0 0.007,0.0046 0.01555,0.0065 0.02274,0.01085 l -0.02894,-0.0088 -0.02791,0.0088 c 0.0071,-0.0043 0.01534,-0.0063 0.02222,-0.01085 z" />
    <path
       id="rect1475-9-0-7-1-0"
       style="fill:url(#linearGradient3072);fill-opacity:1;stroke-width:0.235647;stroke-linecap:round;stroke-linejoin:round;stroke-dashoffset:2.1875;stroke-opacity:0.74902"
       d="m 8.0860237,1.8643532 c -0.03038,0.0038 -0.06056,0.0136 -0.08882,0.02992 l -4.815809,2.780968 c -0.08175,0.0472 -0.123255,0.135287 -0.115979,0.223234 l -0.218147,0.377882 c -0.07948,0.03779 -0.135306,0.117087 -0.135306,0.211266 V 11.04956 c 0,0.09433 0.05608,0.174011 0.135766,0.211726 l 0.217687,0.376963 c -0.0075,0.0881 0.03409,0.176405 0.115979,0.223693 l 4.815809,2.780969 c 0.08156,0.04709 0.178356,0.03845 0.250823,-0.01151 h 0.436753 c 0.07247,0.04996 0.169253,0.0586 0.2508249,0.01151 L 13.75141,11.861942 c 0.08191,-0.04729 0.123461,-0.135578 0.115977,-0.223693 l 0.217686,-0.376963 c 0.07967,-0.03771 0.135768,-0.1174 0.135768,-0.211726 V 5.4880832 c -2e-6,-0.09418 -0.05583,-0.173933 -0.135307,-0.211726 l -0.218147,-0.377423 c 0.0075,-0.0881 -0.03408,-0.176406 -0.115977,-0.223692 L 8.9356046,1.8942732 c -0.08156,-0.04709 -0.1783569,-0.03845 -0.2508249,0.01151 h -0.436753 c -0.04735,-0.03265 -0.104714,-0.0486 -0.162001,-0.04142 z m -0.149574,1.289683 v 4.195847 l -3.633488,-2.097922 z m 1.0603609,4.62e-4 3.6330254,2.097463 -3.6330254,2.097922 z m -5.2244899,3.016167 3.633488,2.097923 -3.633488,2.0979238 z m 9.3881583,0 V 10.366512 L 9.5269916,8.2685882 Z m -5.2240293,3.016166 v 4.1963078 l -3.633488,-2.097922 z m 1.0603609,4.62e-4 3.6330254,2.0979238 -3.6330254,2.097922 z" />
    <circle
       style="opacity:0.25;fill:#0c0c0c;fill-opacity:1;stroke:none;stroke-width:0;stroke-linecap:round;stroke-linejoin:round;stroke-dashoffset:2.1875"
       id="path1414-4-6-62"
       cx="8.4665346"
       cy="2.7740247"
       r="1.6495448" />
    <circle
       style="fill:#d5d5db;fill-opacity:1;stroke:none;stroke-width:0;stroke-linecap:round;stroke-linejoin:round;stroke-dashoffset:2.1875"
       id="path1414-4-6"
       cx="8.4665346"
       cy="2.3771493"
       r="1.6495448" />
    <circle
       style="opacity:0.25;fill:#0c0c0c;fill-opacity:1;stroke:none;stroke-width:0;stroke-linecap:round;stroke-linejoin:round;stroke-dashoffset:2.1875"
       id="path1414-4-6-5-8"
       cx="13.568496"
       cy="5.7196293"
       r="1.6495448" />
    <circle
       style="fill:#d5d5db;fill-opacity:1;stroke:none;stroke-width:0;stroke-linecap:round;stroke-linejoin:round;stroke-dashoffset:2.1875"
       id="path1414-4-6-5"
       cx="13.568496"
       cy="5.3227558"
       r="1.6495448" />
    <circle
       style="opacity:0.25;fill:#0c0c0c;fill-opacity:1;stroke:none;stroke-width:0;stroke-linecap:round;stroke-linejoin:round;stroke-dashoffset:2.1875"
       id="path1414-4-6-1-4"
       cx="13.568496"
       cy="11.610579"
       r="1.6495448" />
    <circle
       style="fill:#d5d5db;fill-opacity:1;stroke:none;stroke-width:0;stroke-linecap:round;stroke-linejoin:round;stroke-dashoffset:2.1875"
       id="path1414-4-6-1"
       cx="13.568496"
       cy="11.213705"
       r="1.6495448" />
    <circle
       style="opacity:0.25;fill:#0c0c0c;fill-opacity:1;stroke:none;stroke-width:0;stroke-linecap:round;stroke-linejoin:round;stroke-dashoffset:2.1875"
       id="path1414-4-6-10-7"
       cx="8.4665346"
       cy="14.556185"
       r="1.6495448" />
    <circle
       style="fill:#d5d5db;fill-opacity:1;stroke:none;stroke-width:0;stroke-linecap:round;stroke-linejoin:round;stroke-dashoffset:2.1875"
       id="path1414-4-6-10"
       cx="8.4665346"
       cy="14.159311"
       r="1.6495448" />
    <circle
       style="opacity:0.25;fill:#0c0c0c;fill-opacity:1;stroke:none;stroke-width:0;stroke-linecap:round;stroke-linejoin:round;stroke-dashoffset:2.1875"
       id="path1414-4-6-8-2"
       cx="3.3648386"
       cy="11.610579"
       r="1.6495448" />
    <circle
       style="fill:#d5d5db;fill-opacity:1;stroke:none;stroke-width:0;stroke-linecap:round;stroke-linejoin:round;stroke-dashoffset:2.1875"
       id="path1414-4-6-8"
       cx="3.3648386"
       cy="11.213705"
       r="1.6495448" />
    <circle
       style="opacity:0.25;fill:#0c0c0c;fill-opacity:1;stroke:none;stroke-width:0;stroke-linecap:round;stroke-linejoin:round;stroke-dashoffset:2.1875"
       id="path1414-4-6-50-4"
       cx="3.3648386"
       cy="5.7196293"
       r="1.6495448" />
    <circle
       style="fill:#d5d5db;fill-opacity:1;stroke:none;stroke-width:0;stroke-linecap:round;stroke-linejoin:round;stroke-dashoffset:2.1875"
       id="path1414-4-6-50"
       cx="3.3648386"
       cy="5.3227558"
       r="1.6495448" />
    <circle
       style="opacity:0.25;fill:#0c0c0c;fill-opacity:1;stroke:none;stroke-width:0;stroke-linecap:round;stroke-linejoin:round;stroke-dashoffset:2.1875"
       id="path1414-4-6-6-0"
       cx="8.4665346"
       cy="8.6652355"
       r="1.6495448" />
    <circle
       style="fill:#d5d5db;fill-opacity:1;stroke:none;stroke-width:0;stroke-linecap:round;stroke-linejoin:round;stroke-dashoffset:2.1875"
       id="path1414-4-6-6"
       cx="8.4665346"
       cy="8.268362"
       r="1.6495448" />
    <path
       id="path1414-4-6-629-1-3-0-3"
       style="opacity:0.55;fill:#3c3c53;fill-opacity:1;stroke:none;stroke-width:0;stroke-linecap:round;stroke-linejoin:round;stroke-dashoffset:2.1875"
       d="m 13.568462,9.5641592 a 1.6495449,1.6495449 0 0 0 -1.649512,1.6495108 1.6495449,1.6495449 0 0 0 1.649512,1.64951 1.6495449,1.6495449 0 0 0 1.649512,-1.64951 1.6495449,1.6495449 0 0 0 -1.649512,-1.6495108 z m 0,0.264584 A 1.3849615,1.3849615 0 0 1 14.95339,11.21367 1.3849615,1.3849615 0 0 1 13.568462,12.598597 1.3849615,1.3849615 0 0 1 12.183534,11.21367 1.3849615,1.3849615 0 0 1 13.568462,9.8287432 Z" />
    <path
       id="path1414-4-6-629-1-3-0-9"
       style="opacity:0.55;fill:#3c3c53;fill-opacity:1;stroke:none;stroke-width:0;stroke-linecap:round;stroke-linejoin:round;stroke-dashoffset:2.1875"
       d="m 13.568462,3.6732112 a 1.6495449,1.6495449 0 0 0 -1.649512,1.649511 1.6495449,1.6495449 0 0 0 1.649512,1.64951 1.6495449,1.6495449 0 0 0 1.649512,-1.64951 1.6495449,1.6495449 0 0 0 -1.649512,-1.649511 z m 0,0.264584 a 1.3849615,1.3849615 0 0 1 1.384928,1.384927 1.3849615,1.3849615 0 0 1 -1.384928,1.384927 1.3849615,1.3849615 0 0 1 -1.384928,-1.384927 1.3849615,1.3849615 0 0 1 1.384928,-1.384927 z" />
    <path
       id="path1414-4-6-629-1-3-0-1"
       style="opacity:0.55;fill:#3c3c53;fill-opacity:1;stroke:none;stroke-width:0;stroke-linecap:round;stroke-linejoin:round;stroke-dashoffset:2.1875"
       d="m 8.4665016,0.72760417 a 1.6495449,1.6495449 0 0 0 -1.649512,1.64951103 1.6495449,1.6495449 0 0 0 1.649512,1.64951 1.6495449,1.6495449 0 0 0 1.6495114,-1.64951 1.6495449,1.6495449 0 0 0 -1.6495114,-1.64951103 z m 0,0.264584 a 1.3849615,1.3849615 0 0 1 1.384928,1.38492703 1.3849615,1.3849615 0 0 1 -1.384928,1.384927 1.3849615,1.3849615 0 0 1 -1.384928,-1.384927 1.3849615,1.3849615 0 0 1 1.384928,-1.38492703 z" />
    <path
       id="path1414-4-6-629-1-3-0-96"
       style="opacity:0.55;fill:#3c3c53;fill-opacity:1;stroke:none;stroke-width:0;stroke-linecap:round;stroke-linejoin:round;stroke-dashoffset:2.1875"
       d="m 3.3648058,3.6732112 a 1.6495449,1.6495449 0 0 0 -1.649512,1.649511 1.6495449,1.6495449 0 0 0 1.649512,1.64951 1.6495449,1.6495449 0 0 0 1.649512,-1.64951 1.6495449,1.6495449 0 0 0 -1.649512,-1.649511 z m 0,0.264584 a 1.3849615,1.3849615 0 0 1 1.384928,1.384927 1.3849615,1.3849615 0 0 1 -1.384928,1.384927 1.3849615,1.3849615 0 0 1 -1.384928,-1.384927 1.3849615,1.3849615 0 0 1 1.384928,-1.384927 z" />
    <path
       id="path1414-4-6-629-1-3-0-93"
       style="opacity:0.55;fill:#3c3c53;fill-opacity:1;stroke:none;stroke-width:0;stroke-linecap:round;stroke-linejoin:round;stroke-dashoffset:2.1875"
       d="m 3.3648058,9.5641592 a 1.6495449,1.6495449 0 0 0 -1.649512,1.6495108 1.6495449,1.6495449 0 0 0 1.649512,1.64951 1.6495449,1.6495449 0 0 0 1.649512,-1.64951 1.6495449,1.6495449 0 0 0 -1.649512,-1.6495108 z m 0,0.264584 a 1.3849615,1.3849615 0 0 1 1.384928,1.3849268 1.3849615,1.3849615 0 0 1 -1.384928,1.384927 1.3849615,1.3849615 0 0 1 -1.384928,-1.384927 1.3849615,1.3849615 0 0 1 1.384928,-1.3849268 z" />
    <path
       id="path1414-4-6-629-1-3-0-38"
       style="opacity:0.55;fill:#3c3c53;fill-opacity:1;stroke:none;stroke-width:0;stroke-linecap:round;stroke-linejoin:round;stroke-dashoffset:2.1875"
       d="m 8.4665016,12.515242 a 1.6495449,1.6495449 0 0 0 -1.649512,1.649511 1.6495449,1.6495449 0 0 0 1.649512,1.64951 1.6495449,1.6495449 0 0 0 1.6495114,-1.64951 1.6495449,1.6495449 0 0 0 -1.6495114,-1.649511 z m 0,0.264584 a 1.3849615,1.3849615 0 0 1 1.384928,1.384927 1.3849615,1.3849615 0 0 1 -1.384928,1.384927 1.3849615,1.3849615 0 0 1 -1.384928,-1.384927 1.3849615,1.3849615 0 0 1 1.384928,-1.384927 z" />
    <path
       id="path1414-4-6-629-1-3-0-0"
       style="opacity:0.55;fill:#3c3c53;fill-opacity:1;stroke:none;stroke-width:0;stroke-linecap:round;stroke-linejoin:round;stroke-dashoffset:2.1875"
       d="m 8.4665016,6.6188172 a 1.6495449,1.6495449 0 0 0 -1.649512,1.649511 1.6495449,1.6495449 0 0 0 1.649512,1.64951 1.6495449,1.6495449 0 0 0 1.6495114,-1.64951 1.6495449,1.6495449 0 0 0 -1.6495114,-1.649511 z m 0,0.264584 a 1.3849615,1.3849615 0 0 1 1.384928,1.384927 1.3849615,1.3849615 0 0 1 -1.384928,1.384927 1.3849615,1.3849615 0 0 1 -1.384928,-1.384927 1.3849615,1.3849615 0 0 1 1.384928,-1.384927 z" />
    <circle
       style="opacity:0.451;fill:url(#linearGradient3638);fill-opacity:1;stroke:none;stroke-width:0;stroke-linecap:round;stroke-linejoin:round;stroke-dashoffset:2.1875"
       id="path1414-4-6-13"
       cx="8.4665346"
       cy="2.3771491"
       r="1.6495448" />
    <circle
       style="opacity:0.451;fill:url(#linearGradient3640);fill-opacity:1;stroke:none;stroke-width:0;stroke-linecap:round;stroke-linejoin:round;stroke-dashoffset:2.1875"
       id="path1414-4-6-5-21"
       cx="13.568496"
       cy="5.3227553"
       r="1.6495448" />
    <circle
       style="opacity:0.451;fill:url(#linearGradient3642);fill-opacity:1;stroke:none;stroke-width:0;stroke-linecap:round;stroke-linejoin:round;stroke-dashoffset:2.1875"
       id="path1414-4-6-1-5"
       cx="13.568496"
       cy="11.213706"
       r="1.6495448" />
    <circle
       style="opacity:0.451;fill:url(#linearGradient3644);fill-opacity:1;stroke:none;stroke-width:0;stroke-linecap:round;stroke-linejoin:round;stroke-dashoffset:2.1875"
       id="path1414-4-6-10-9"
       cx="8.4665346"
       cy="14.159312"
       r="1.6495448" />
    <circle
       style="opacity:0.451;fill:url(#linearGradient3646);fill-opacity:1;stroke:none;stroke-width:0;stroke-linecap:round;stroke-linejoin:round;stroke-dashoffset:2.1875"
       id="path1414-4-6-8-9"
       cx="3.3648386"
       cy="11.213706"
       r="1.6495448" />
    <circle
       style="opacity:0.451;fill:url(#linearGradient3648);fill-opacity:1;stroke:none;stroke-width:0;stroke-linecap:round;stroke-linejoin:round;stroke-dashoffset:2.1875"
       id="path1414-4-6-50-1"
       cx="3.3648386"
       cy="5.3227553"
       r="1.6495448" />
    <circle
       style="opacity:0.451;fill:url(#radialGradient3688);fill-opacity:1;stroke:none;stroke-width:0;stroke-linecap:round;stroke-linejoin:round;stroke-dashoffset:2.1875"
       id="path1414-4-6-6-4"
       cx="8.4665346"
       cy="8.2683611"
       r="1.6495448" />
  </g>
</svg>
