<?xml version="1.0" encoding="UTF-8" standalone="no"?>
<svg
   xmlns:dc="http://purl.org/dc/elements/1.1/"
   xmlns:cc="http://creativecommons.org/ns#"
   xmlns:rdf="http://www.w3.org/1999/02/22-rdf-syntax-ns#"
   xmlns:svg="http://www.w3.org/2000/svg"
   xmlns="http://www.w3.org/2000/svg"
   xmlns:sodipodi="http://sodipodi.sourceforge.net/DTD/sodipodi-0.dtd"
   xmlns:inkscape="http://www.inkscape.org/namespaces/inkscape"
   width="64"
   height="64"
   viewBox="0 0 64 64"
   version="1.1"
   id="svg6374"
   inkscape:version="1.0.2 (e86c870879, 2021-01-15)"
   sodipodi:docname="emblem-web.svg">
  <defs
     id="defs6368" />
  <sodipodi:namedview
     id="base"
     pagecolor="#cecece"
     bordercolor="#666666"
     borderopacity="1.0"
     inkscape:pageopacity="0"
     inkscape:pageshadow="2"
     inkscape:zoom="5.5639287"
     inkscape:cx="8.3100654"
     inkscape:cy="29.73153"
     inkscape:document-units="px"
     inkscape:current-layer="layer1"
     inkscape:document-rotation="0"
     showgrid="false"
     units="px"
     inkscape:window-width="1500"
     inkscape:window-height="970"
     inkscape:window-x="68"
     inkscape:window-y="56"
     inkscape:window-maximized="0" />
  <metadata
     id="metadata6371">
    <rdf:RDF>
      <cc:Work
         rdf:about="">
        <dc:format>image/svg+xml</dc:format>
        <dc:type
           rdf:resource="http://purl.org/dc/dcmitype/StillImage" />
        <dc:title></dc:title>
      </cc:Work>
    </rdf:RDF>
  </metadata>
  <g
     inkscape:label="Layer 1"
     inkscape:groupmode="layer"
     id="layer1">
    <circle
       style="fill:#fdfcfb;fill-opacity:1;stroke:none;stroke-width:1.81438;stroke-linecap:round;stroke-linejoin:round;stroke-miterlimit:4;stroke-dasharray:none;stroke-opacity:1"
       id="path2379-0-9-1-0-6-1-0-1"
       cx="32"
       cy="32.000004"
       r="26" />
    <path
       id="path927-3-6-5-2-9-1"
       style="color:#000000;font-style:normal;font-variant:normal;font-weight:normal;font-stretch:normal;font-size:medium;line-height:normal;font-family:sans-serif;font-variant-ligatures:normal;font-variant-position:normal;font-variant-caps:normal;font-variant-numeric:normal;font-variant-alternates:normal;font-variant-east-asian:normal;font-feature-settings:normal;font-variation-settings:normal;text-indent:0;text-align:start;text-decoration:none;text-decoration-line:none;text-decoration-style:solid;text-decoration-color:#000000;letter-spacing:normal;word-spacing:normal;text-transform:none;writing-mode:lr-tb;direction:ltr;text-orientation:mixed;dominant-baseline:auto;baseline-shift:baseline;text-anchor:start;white-space:normal;shape-padding:0;shape-margin:0;inline-size:0;clip-rule:nonzero;display:inline;overflow:visible;visibility:visible;isolation:auto;mix-blend-mode:normal;color-interpolation:sRGB;color-interpolation-filters:linearRGB;solid-color:#000000;solid-opacity:1;vector-effect:none;fill:#1a424c;fill-opacity:1;fill-rule:nonzero;stroke:none;stroke-width:1.05882;stroke-linecap:round;stroke-linejoin:round;stroke-miterlimit:4;stroke-dasharray:none;stroke-dashoffset:2.1875;stroke-opacity:1;color-rendering:auto;image-rendering:auto;shape-rendering:auto;text-rendering:auto;enable-background:accumulate;stop-color:#000000"
       d="M 31.9979,5 C 17.0938,5 5,17.0959 5,32 5,46.9054 17.0945,59 32,59 46.9054,59 59,46.9054 59,32 59,17.0946 46.9054,5 32,5 Z m 0,1.0588 v 0 c 14.3332,0 25.9412,11.608 25.9412,25.9412 0,14.3332 -11.608,25.9412 -25.9412,25.9412 C 17.6647,57.9412 6.0567,46.3332 6.0567,32 6.0567,17.6681 17.6638,6.0606 31.9958,6.0588 Z m 0,2.6678 c -2.396,0 -4.8823,2.2095 -6.8327,6.4294 -0.8033,1.7382 -1.4773,3.7845 -2.006,6.0386 a 0.52946471,0.52946471 0 0 0 0.515,0.6515 h 16.6454 a 0.52946471,0.52946471 0 0 0 0.5149,-0.6515 C 40.306,18.9403 39.632,16.8943 38.8286,15.156 36.878,10.9361 34.3941,8.7266 31.9979,8.7266 Z m 0,1.0588 c 1.7095,0 4.0053,1.7831 5.869,5.8152 0.68,1.4713 1.2373,3.277 1.7227,5.1866 H 24.4062 c 0.4856,-1.9096 1.0407,-3.7154 1.7206,-5.1866 1.8636,-4.032 4.1619,-5.8152 5.8711,-5.8152 z m 8.3983,0.9844 a 0.52946471,0.52946471 0 0 0 -0.4654,0.8065 c 0.4737,0.7683 0.9141,1.5964 1.3174,2.4692 0.992,2.1464 1.7928,4.6452 2.3782,7.3808 a 0.52946471,0.52946471 0 0 0 0.5169,0.4198 h 7.4677 a 0.52946471,0.52946471 0 0 0 0.4652,-0.7838 c -2.53,-4.6447 -6.5938,-8.2676 -11.496,-10.2532 a 0.52946471,0.52946471 0 0 0 -0.184,-0.039 z m -16.7778,0.01 a 0.52946471,0.52946471 0 0 0 -0.2111,0.039 c -4.8973,1.9859 -8.9569,5.6064 -11.4857,10.247 a 0.52946471,0.52946471 0 0 0 0.4653,0.7838 h 7.4655 a 0.52946471,0.52946471 0 0 0 0.5171,-0.4199 c 0.5835,-2.7354 1.382,-5.2345 2.3741,-7.3807 0.4024,-0.8708 0.8409,-1.6967 1.3131,-2.463 a 0.52946471,0.52946471 0 0 0 0.078,-0.2771 0.52946471,0.52946471 0 0 0 -0.5171,-0.5294 z m 18.0185,1.7516 c 3.725,1.8454 6.8424,4.688 8.9917,8.2576 H 44.526 C 43.937,18.1674 43.1855,15.7137 42.2098,13.6026 42.0354,13.2253 41.825,12.8925 41.6369,12.5314 Z m -19.2863,0.011 c -0.1862,0.3584 -0.3958,0.6887 -0.5687,1.0629 -0.9759,2.1113 -1.7248,4.5649 -2.312,7.1864 h -6.1006 c 2.1476,-3.5653 5.2611,-6.4042 8.9813,-8.2493 z M 10.778,24.5141 a 0.52946471,0.52946471 0 0 0 -0.5025,0.364 c -0.7547,2.3003 -1.1393,4.7054 -1.1395,7.1264 0,2.4215 0.3845,4.8276 1.1395,7.1284 a 0.52946471,0.52946471 0 0 0 0.5025,0.364 h 8.4376 a 0.52946471,0.52946471 0 0 0 0.5252,-0.5977 c -0.2862,-2.1997 -0.4467,-4.505 -0.4467,-6.8947 0,-2.3902 0.1605,-4.694 0.4467,-6.8927 a 0.52946471,0.52946471 0 0 0 -0.5252,-0.5977 h -8.4231 z m 12.191,0 a 0.52946471,0.52946471 0 0 0 -0.5233,0.455 c -0.3165,2.2202 -0.4921,4.5829 -0.4921,7.0354 0,2.453 0.1754,4.8188 0.4921,7.0395 a 0.52946471,0.52946471 0 0 0 0.5233,0.4529 H 41.0228 A 0.52946471,0.52946471 0 0 0 41.548,39.044 c 0.3165,-2.2207 0.4922,-4.5865 0.4922,-7.0395 0,-2.4526 -0.1759,-4.8153 -0.4922,-7.0354 a 0.52946471,0.52946471 0 0 0 -0.5252,-0.455 z m 21.8134,0 a 0.52946471,0.52946471 0 0 0 -0.5252,0.5977 c 0.2874,2.1988 0.4487,4.5028 0.4487,6.8927 0,2.3895 -0.1614,4.6949 -0.4487,6.8947 a 0.52946471,0.52946471 0 0 0 0.5252,0.5977 h 8.4375 a 0.52946471,0.52946471 0 0 0 0.5025,-0.364 c 0.7555,-2.3007 1.1411,-4.7069 1.1415,-7.1284 -1e-4,-2.421 -0.3847,-4.8261 -1.1394,-7.1264 a 0.52946471,0.52946471 0 0 0 -0.5025,-0.364 z m -33.5887,1.0588 h 7.4573 c -0.2469,2.0685 -0.4157,4.2014 -0.4157,6.4316 0,2.2298 0.1689,4.3642 0.4157,6.4336 h -7.4573 c -0.6443,-2.0848 -0.9989,-4.2502 -0.9989,-6.4336 2e-4,-2.1836 0.3544,-4.3468 0.9989,-6.4316 z m 12.2674,0 h 17.0694 c 0.2717,2.0446 0.4509,4.1882 0.4509,6.4316 0,2.244 -0.179,4.3886 -0.4509,6.4336 H 23.4611 c -0.2719,-2.0449 -0.4487,-4.1896 -0.4487,-6.4336 0,-2.2434 0.1769,-4.3871 0.4487,-6.4316 z m 21.8838,0 h 7.4634 c 0.6445,2.0848 0.9967,4.248 0.9968,6.4316 -4e-4,2.1835 -0.3541,4.3489 -0.9988,6.4336 h -7.4614 c 0.2479,-2.0688 0.4198,-4.2041 0.4198,-6.4336 0,-2.2305 -0.1717,-4.3632 -0.4198,-6.4316 z M 12.389,42.1605 a 0.52946471,0.52946471 0 0 0 -0.4654,0.7838 c 2.5276,4.6387 6.5828,8.2582 11.4776,10.2449 a 0.52946471,0.52946471 0 0 0 0.6494,-0.7672 c -0.4702,-0.7635 -0.9059,-1.5867 -1.307,-2.4548 -0.9923,-2.1466 -1.7906,-4.6487 -2.3741,-7.3869 a 0.52946471,0.52946471 0 0 0 -0.5171,-0.4198 z m 11.2852,0 a 0.52946471,0.52946471 0 0 0 -0.515,0.6535 v 0.011 c 4e-4,10e-4 -3e-4,0 0,0 a 0.52946471,0.52946471 0 0 0 0.02,0.058 c 0.5257,2.221 1.1876,4.2475 1.9811,5.9641 1.9247,4.164 4.3669,6.3708 6.7376,6.4316 a 0.52946471,0.52946471 0 0 0 0.011,0 c 0.033,3e-4 0.065,3e-4 0.097,0 0.017,0 0.033,10e-5 0.05,0 a 0.52946471,0.52946471 0 0 0 0.011,0 c 2.3795,-0.041 4.8333,-2.2511 6.7665,-6.4336 0.8031,-1.7375 1.4776,-3.7835 2.006,-6.0366 a 0.52946471,0.52946471 0 0 0 -0.515,-0.6514 z m 20.4691,0 a 0.52946471,0.52946471 0 0 0 -0.5169,0.4198 c -0.5854,2.7382 -1.386,5.2402 -2.3782,7.3869 -0.4017,0.8689 -0.8402,1.6922 -1.3112,2.4568 a 0.52946471,0.52946471 0 0 0 0.6514,0.7693 c 4.8991,-1.9856 8.9585,-5.6073 11.4878,-10.249 A 0.52946471,0.52946471 0 0 0 51.611,42.1605 Z m -30.774,1.0588 h 6.1006 c 0.5872,2.624 1.3358,5.0806 2.312,7.1926 0.1715,0.3708 0.378,0.699 0.5625,1.0547 -3.7173,-1.8456 -6.829,-4.6838 -8.9751,-8.2473 z m 11.0369,0 h 15.1834 c -0.4854,1.9087 -1.043,3.714 -1.7227,5.1845 -1.8472,3.9966 -4.1221,5.79 -5.8235,5.8194 -0.013,1e-4 -0.026,1e-4 -0.039,0 a 0.52946471,0.52946471 0 0 0 -0.011,0 c -0.022,3e-4 -0.044,2e-4 -0.066,0 -1.6978,-0.043 -3.9638,-1.8384 -5.8029,-5.8173 -0.68,-1.4711 -1.235,-3.277 -1.7206,-5.1866 z m 20.1198,0 h 6.1026 c -2.148,3.5662 -5.2621,6.4063 -8.9834,8.2514 0.1856,-0.3571 0.3924,-0.6864 0.5646,-1.0588 0.9761,-2.1118 1.7272,-4.5686 2.3162,-7.1926 z" />
    <path
       id="path927-3-6-5-17-5"
       style="color:#000000;font-style:normal;font-variant:normal;font-weight:normal;font-stretch:normal;font-size:medium;line-height:normal;font-family:sans-serif;font-variant-ligatures:normal;font-variant-position:normal;font-variant-caps:normal;font-variant-numeric:normal;font-variant-alternates:normal;font-variant-east-asian:normal;font-feature-settings:normal;font-variation-settings:normal;text-indent:0;text-align:start;text-decoration:none;text-decoration-line:none;text-decoration-style:solid;text-decoration-color:#000000;letter-spacing:normal;word-spacing:normal;text-transform:none;writing-mode:lr-tb;direction:ltr;text-orientation:mixed;dominant-baseline:auto;baseline-shift:baseline;text-anchor:start;white-space:normal;shape-padding:0;shape-margin:0;inline-size:0;clip-rule:nonzero;display:inline;overflow:visible;visibility:visible;isolation:auto;mix-blend-mode:normal;color-interpolation:sRGB;color-interpolation-filters:linearRGB;solid-color:#000000;solid-opacity:1;vector-effect:none;fill:#47a9c2;fill-opacity:1;fill-rule:nonzero;stroke:none;stroke-width:3.1264;stroke-linecap:round;stroke-linejoin:round;stroke-miterlimit:4;stroke-dasharray:none;stroke-dashoffset:2.1875;stroke-opacity:1;color-rendering:auto;image-rendering:auto;shape-rendering:auto;text-rendering:auto;enable-background:accumulate;stop-color:#000000"
       d="M 31.9967,5.5294 A 26.47059,26.47059 0 0 0 5.5294,32 26.47059,26.47059 0 0 0 32,58.4706 26.47059,26.47059 0 0 0 58.4706,32 26.47059,26.47059 0 0 0 32,5.5294 c 0,0 0,0 0,0 z m 0,3.7257 c 2.0529,0 4.444,1.9973 6.3512,6.1233 0.7842,1.6968 1.4492,3.7113 1.9711,5.9374 H 23.6746 c 0.5221,-2.226 1.1869,-4.2407 1.9711,-5.9374 1.907,-4.126 4.2984,-6.1233 6.351,-6.1233 z m 8.3853,2.0437 a 22.334559,22.334559 0 0 1 11.2286,10.017 H 44.1432 C 43.551,18.5484 42.7416,16.0126 41.7293,13.8225 41.3179,12.9321 40.8678,12.0868 40.382,11.2988 Z m -16.7769,0.01 c -0.4845,0.7862 -0.9321,1.6291 -1.3425,2.5172 -1.0123,2.1901 -1.8203,4.726 -2.4106,7.4934 H 12.3862 A 22.334559,22.334559 0 0 1 23.6051,11.3088 Z m -12.8265,13.733 h 8.4368 c -0.289,2.2206 -0.4507,4.5479 -0.4507,6.9617 0,2.4134 0.1618,4.7419 0.4507,6.9635 h -8.4368 a 22.334559,22.334559 0 0 1 -1.1131,-6.9635 22.334559,22.334559 0 0 1 1.1131,-6.9618 z m 12.19,0 h 18.0547 c 0.3128,2.1952 0.4863,4.5345 0.4863,6.9617 0,2.4279 -0.1733,4.7678 -0.4863,6.9635 H 22.9686 c -0.3132,-2.1957 -0.4863,-4.5356 -0.4863,-6.9635 0,-2.4272 0.1733,-4.7665 0.4863,-6.9617 z m 21.8127,0 h 8.4401 a 22.334559,22.334559 0 0 1 1.1131,6.9617 22.334559,22.334559 0 0 1 -1.1147,6.9635 h -8.4385 c 0.2902,-2.2216 0.454,-4.55 0.454,-6.9635 0,-2.4138 -0.1637,-4.7411 -0.454,-6.9617 z M 12.3877,42.6893 h 7.4643 c 0.5903,2.77 1.3981,5.3075 2.4106,7.4981 0.4091,0.8851 0.8551,1.7271 1.3376,2.5108 A 22.334559,22.334559 0 0 1 12.3877,42.6893 Z m 11.2869,0 H 40.319 c -0.5218,2.2249 -1.1872,4.2398 -1.9711,5.9358 -1.8903,4.0895 -4.2558,6.0913 -6.2962,6.1265 a 9.5128676,22.748161 0 0 1 -0.051,0 9.5128676,22.748161 0 0 1 -0.086,0 c -2.0342,-0.052 -4.3868,-2.0534 -6.2687,-6.1249 -0.7839,-1.6961 -1.4491,-3.711 -1.9711,-5.9358 z m 20.4686,0 h 7.4674 A 22.334559,22.334559 0 0 1 40.3883,52.7014 c 0.4833,-0.7845 0.9314,-1.6277 1.341,-2.514 1.0126,-2.1906 1.8217,-4.7281 2.4139,-7.4981 z" />
    <path
       id="path927-3-6-5-1-7-9"
       style="color:#000000;font-style:normal;font-variant:normal;font-weight:normal;font-stretch:normal;font-size:medium;line-height:normal;font-family:sans-serif;font-variant-ligatures:normal;font-variant-position:normal;font-variant-caps:normal;font-variant-numeric:normal;font-variant-alternates:normal;font-variant-east-asian:normal;font-feature-settings:normal;font-variation-settings:normal;text-indent:0;text-align:start;text-decoration:none;text-decoration-line:none;text-decoration-style:solid;text-decoration-color:#000000;letter-spacing:normal;word-spacing:normal;text-transform:none;writing-mode:lr-tb;direction:ltr;text-orientation:mixed;dominant-baseline:auto;baseline-shift:baseline;text-anchor:start;white-space:normal;shape-padding:0;shape-margin:0;inline-size:0;clip-rule:nonzero;display:inline;overflow:visible;visibility:visible;isolation:auto;mix-blend-mode:normal;color-interpolation:sRGB;color-interpolation-filters:linearRGB;solid-color:#000000;solid-opacity:1;vector-effect:none;fill:#1a424c;fill-opacity:1;fill-rule:nonzero;stroke:none;stroke-width:3.1264;stroke-linecap:round;stroke-linejoin:round;stroke-miterlimit:4;stroke-dasharray:none;stroke-dashoffset:2.1875;stroke-opacity:1;color-rendering:auto;image-rendering:auto;shape-rendering:auto;text-rendering:auto;enable-background:accumulate;stop-color:#000000"
       d="M 31.9958,5.5294 A 26.47059,26.47059 0 0 0 5.5294,32 26.47059,26.47059 0 0 0 5.5494,33.0464 26.47059,26.47059 0 0 1 31.9952,7.6471 v 0 A 26.47059,26.47059 0 0 1 58.4431,33.0692 26.47059,26.47059 0 0 0 58.4661,32 26.47059,26.47059 0 0 0 31.9955,5.5294 Z m 8.3858,7.8874 c 0.4858,0.7879 0.9349,1.6326 1.3462,2.523 1.0123,2.1901 1.8233,4.7271 2.4155,7.4945 h 7.4656 a 22.334559,22.334559 0 0 0 -1.3112,-2.1177 h -6.1544 c -0.571,-2.6684 -1.35,-5.115 -2.312,-7.2504 a 22.334559,22.334559 0 0 0 -1.4497,-0.6494 z m -16.7778,0.01 a 22.334559,22.334559 0 0 0 -1.4476,0.6494 c -0.9608,2.1341 -1.7372,4.5784 -2.3059,7.2442 H 13.698 a 22.334559,22.334559 0 0 0 -1.3131,2.1177 h 7.4654 c 0.5903,-2.7674 1.399,-5.3044 2.4114,-7.4945 0.4104,-0.8881 0.8576,-1.7306 1.3421,-2.5168 z m 0.6369,7.8916 c -0.2021,0.6838 -0.3945,1.3841 -0.5665,2.1176 h 16.6433 c -0.172,-0.7335 -0.3645,-1.4339 -0.5666,-2.1176 z m -5.2527,5.8421 c -0.1417,1.5707 -0.2233,3.1843 -0.2233,4.8433 0,0.3559 0.011,0.7067 0.017,1.0588 0.04,-2.0353 0.1879,-4.0093 0.4343,-5.9021 z m 25.7923,0 c 0.2475,1.8928 0.3958,3.8668 0.4364,5.9021 0.011,-0.3521 0.019,-0.7029 0.019,-1.0588 0,-1.6589 -0.083,-3.2726 -0.2254,-4.8433 z m 9.5273,5.8918 a 22.334559,22.334559 0 0 1 -1.0877,5.9145 h -8.21 c -0.065,0.715 -0.1388,1.4229 -0.2296,2.1177 h 8.4396 a 22.334559,22.334559 0 0 0 1.1146,-6.9631 22.334559,22.334559 0 0 0 -0.026,-1.0691 z m -31.8081,0.011 c -0.011,0.3523 -0.019,0.7025 -0.019,1.0588 0,2.4279 0.1728,4.7674 0.486,6.963 h 18.0558 c 0.313,-2.1956 0.486,-4.5351 0.486,-6.963 0,-0.3563 -0.012,-0.7065 -0.019,-1.0588 -0.042,2.0484 -0.2004,4.0308 -0.4674,5.9042 H 22.9661 c -0.2672,-1.8734 -0.4246,-3.8558 -0.4674,-5.9042 z m -12.8093,0.01 a 22.334559,22.334559 0 0 0 -0.024,1.0526 22.334559,22.334559 0 0 0 1.1126,6.963 h 8.4375 c -0.09,-0.6947 -0.1631,-1.4027 -0.2275,-2.1177 h -8.21 A 22.334559,22.334559 0 0 1 9.691,33.0733 Z m 2.6967,11.738 a 22.334559,22.334559 0 0 0 11.2128,10.0092 c -0.4825,-0.7836 -0.929,-1.6255 -1.338,-2.5106 -0.038,-0.082 -0.071,-0.1717 -0.1076,-0.2543 A 22.334559,22.334559 0 0 1 13.7,44.8113 Z m 11.2873,0 v 0 c 0.522,2.2249 1.1868,4.2391 1.9707,5.9352 1.8819,4.0715 4.2361,6.0734 6.2703,6.1255 a 9.5128676,22.748161 0 0 0 0.085,0 9.5128676,22.748161 0 0 0 0.052,0 c 2.0404,-0.035 4.4048,-2.0359 6.295,-6.1255 0.784,-1.696 1.449,-3.7124 1.9708,-5.9372 h -0.5666 c -0.4114,1.3908 -0.8787,2.6826 -1.4042,3.8196 -1.8902,4.0895 -4.2546,6.0902 -6.295,6.1254 a 9.5128676,22.748161 0 0 1 -0.052,0 9.5128676,22.748161 0 0 1 -0.085,0 c -2.0342,-0.052 -4.3884,-2.054 -6.2703,-6.1254 -0.5258,-1.1376 -0.9926,-2.4281 -1.4042,-3.8196 z m 26.6235,0 a 22.334559,22.334559 0 0 1 -8.4643,7.2484 c -0.037,0.081 -0.069,0.17 -0.1059,0.2502 -0.4095,0.8863 -0.8568,1.7303 -1.34,2.5148 A 22.334559,22.334559 0 0 0 51.6086,44.8113 Z" />
  </g>
</svg>
