<?xml version="1.0" encoding="UTF-8" standalone="no"?>
<svg
   xmlns:dc="http://purl.org/dc/elements/1.1/"
   xmlns:cc="http://creativecommons.org/ns#"
   xmlns:rdf="http://www.w3.org/1999/02/22-rdf-syntax-ns#"
   xmlns:svg="http://www.w3.org/2000/svg"
   xmlns="http://www.w3.org/2000/svg"
   xmlns:sodipodi="http://sodipodi.sourceforge.net/DTD/sodipodi-0.dtd"
   xmlns:inkscape="http://www.inkscape.org/namespaces/inkscape"
   width="64"
   height="64"
   viewBox="0 0 16.933333 16.933334"
   version="1.1"
   id="svg841"
   inkscape:version="1.0.2 (e86c870879, 2021-01-15)"
   sodipodi:docname="emblem-flag-red.svg">
  <defs
     id="defs835" />
  <sodipodi:namedview
     id="base"
     pagecolor="#c4c4c4"
     bordercolor="#666666"
     borderopacity="1.0"
     inkscape:pageopacity="0"
     inkscape:pageshadow="2"
     inkscape:zoom="4.517379"
     inkscape:cx="21.075251"
     inkscape:cy="34.547106"
     inkscape:document-units="px"
     inkscape:current-layer="layer1"
     inkscape:document-rotation="0"
     showgrid="false"
     units="px"
     inkscape:window-width="2048"
     inkscape:window-height="1080"
     inkscape:window-x="0"
     inkscape:window-y="0"
     inkscape:window-maximized="1" />
  <metadata
     id="metadata838">
    <rdf:RDF>
      <cc:Work
         rdf:about="">
        <dc:format>image/svg+xml</dc:format>
        <dc:type
           rdf:resource="http://purl.org/dc/dcmitype/StillImage" />
        <dc:title />
      </cc:Work>
    </rdf:RDF>
  </metadata>
  <g
     inkscape:label="Layer 1"
     inkscape:groupmode="layer"
     id="layer1">
    <path
       id="rect2557-1-6-3-7-3-7-5-6-2-1-9-6-1"
       style="color:#000000;font-style:normal;font-variant:normal;font-weight:normal;font-stretch:normal;font-size:medium;line-height:normal;font-family:sans-serif;font-variant-ligatures:normal;font-variant-position:normal;font-variant-caps:normal;font-variant-numeric:normal;font-variant-alternates:normal;font-variant-east-asian:normal;font-feature-settings:normal;font-variation-settings:normal;text-indent:0;text-align:start;text-decoration:none;text-decoration-line:none;text-decoration-style:solid;text-decoration-color:#000000;letter-spacing:normal;word-spacing:normal;text-transform:none;writing-mode:lr-tb;direction:ltr;text-orientation:mixed;dominant-baseline:auto;baseline-shift:baseline;text-anchor:start;white-space:normal;shape-padding:0;shape-margin:0;inline-size:0;clip-rule:nonzero;display:inline;overflow:visible;visibility:visible;opacity:0.15;isolation:auto;mix-blend-mode:normal;color-interpolation:sRGB;color-interpolation-filters:linearRGB;solid-color:#000000;solid-opacity:1;vector-effect:none;fill:#0c0c0c;fill-opacity:1;fill-rule:nonzero;stroke:none;stroke-width:1.00006;stroke-linecap:round;stroke-linejoin:round;stroke-miterlimit:4;stroke-dasharray:none;stroke-dashoffset:2.1875;stroke-opacity:1;color-rendering:auto;image-rendering:auto;shape-rendering:auto;text-rendering:auto;enable-background:accumulate;stop-color:#000000"
       d="m 5.4893045,1.0583333 c -0.726159,0 -1.322117,0.598395 -1.322117,1.324379 V 15.346438 c 0,0.725981 0.595958,1.322313 1.322117,1.322313 0.726159,0 1.322635,-0.596332 1.322635,-1.322313 V 9.1105393 l 5.2393695,-2.488057 h -0.0858 a 0.39698512,0.39688838 0 0 0 0.154023,-0.03101 0.39698512,0.39688838 0 0 0 0.02378,-0.01189 l 0.02326,-0.01188 0.01189,-0.0036 a 0.39698512,0.39688838 0 0 0 0.01757,-0.0098 0.39698512,0.39688838 0 0 0 0.0016,-0.0021 c 0.04454,-0.02231 0.09463,-0.04867 0.144721,-0.08371 a 0.39698512,0.39688838 0 0 0 0,-0.0021 c 0.01868,-0.01313 0.03542,-0.02428 0.0491,-0.03514 l 0.0015,-0.0021 c 0.03399,-0.02692 0.07015,-0.05869 0.103888,-0.09353 0.02564,-0.02669 0.04316,-0.04904 0.05427,-0.06253 -0.01979,0.02396 0.004,0.0077 0.05117,-0.06098 a 0.39698512,0.39688838 0 0 0 0.0021,-0.0036 c 0.04328,-0.06438 0.0418,-0.06679 0.01344,-0.02325 v -0.0021 c 0.02669,-0.04141 0.04441,-0.0761 0.05686,-0.101794 0.0061,-0.01255 0.02008,-0.04013 0.0367,-0.08577 0.01873,-0.05147 0.02695,-0.08758 0.02946,-0.09766 a 0.39698512,0.39688838 0 0 0 0,-0.0021 c 0.0023,-0.0094 0.01067,-0.04378 0.01757,-0.09766 3.57e-4,-0.0025 0.0018,-0.0032 0.0021,-0.0057 0.0055,-0.04309 0.0057,-0.08262 0.0057,-0.103345 -4.3e-5,-0.02535 0.0011,-0.06555 -0.0078,-0.119367 a 0.39698512,0.39688838 0 0 0 0,-0.0021 c -0.0055,-0.03289 -0.01235,-0.06005 -0.01757,-0.08217 -0.0042,-0.01769 -0.0116,-0.05445 -0.02946,-0.103345 v -0.0021 c -0.01514,-0.04096 -0.0293,-0.06549 -0.0367,-0.08009 l -0.0021,-0.0057 c -0.01292,-0.0267 -0.02942,-0.05899 -0.05272,-0.09559 l -0.0041,-0.0057 c 0.01258,0.01842 0.0058,0.0061 -0.0155,-0.02584 -0.0452,-0.06569 -0.06157,-0.07788 -0.03721,-0.04651 a 0.39698512,0.39688838 0 0 0 -0.0021,-0.0041 c -0.02433,-0.03077 -0.04878,-0.05673 -0.07184,-0.0801 -0.03354,-0.03386 -0.06495,-0.0605 -0.092,-0.08216 -0.01239,-0.01 -0.0312,-0.025 -0.05685,-0.04289 a 0.39698512,0.39688838 0 0 0 -0.0021,0 c -0.03783,-0.02622 -0.08054,-0.05327 -0.128695,-0.07802 l -0.0078,-0.0036 c 0.0075,0.0033 0.01454,0.0039 -0.02326,-0.01395 a 0.39698512,0.39688838 0 0 0 -0.0041,-0.0021 l -0.02171,-0.0098 -0.0036,-0.0016 a 0.39698512,0.39688838 0 0 0 -0.183484,-0.04496 h 0.0858 l -5.2977765,-2.51518 c -0.08071,-0.650857 -0.592766,-1.183828 -1.264231,-1.183828 z m 0,0.795248 c 0.300075,0 0.529779,0.229127 0.529779,0.529131 v 0.160188 a 0.39698512,0.39688838 0 0 0 0.306495,0.386511 c 0.01692,0.004 0.02287,0.0061 0.02171,0.0057 0.0116,0.0035 0.02625,0.0088 0.0429,0.01602 0.03229,0.01395 0.0544,0.02294 0.01757,0.0057 l 5.3835715,2.556264 a 0.39698512,0.39688838 0 0 0 0.01189,0.0062 0.39698512,0.39688838 0 0 0 0.0036,0 0.39698512,0.39688838 0 0 0 0.0021,0.0016 l 0.0062,0.0021 a 0.39698512,0.39688838 0 0 0 0.130764,0.02739 h -0.08011 c 0.0069,0.0042 0.0124,0.0079 0.02119,0.01395 4.34e-4,3.44e-4 0.0028,0.0025 0.01189,0.0098 0.01378,0.01103 0.02218,0.01801 0.02533,0.02119 0.0076,0.0077 0.01192,0.01138 0.01396,0.01395 0.0199,0.02577 0.03255,0.04379 0.0078,0.0078 a 0.39698512,0.39688838 0 0 0 0,0.0016 0.39698512,0.39688838 0 0 0 0.0036,0.0083 c -3.84e-4,-5.93e-4 0.0032,0.0038 0.0098,0.01757 a 0.39698512,0.39688838 0 0 0 0.0021,0.0057 c 0.0084,0.01682 0.0091,0.01923 0.0041,0.0057 a 0.39698512,0.39688838 0 0 0 0.0016,0 c -0.0045,-0.01217 -0.0029,-0.0093 0.0021,0.01188 0.0026,0.01087 0.003,0.0159 0.0041,0.02171 a 0.39698512,0.39688838 0 0 0 0,0.0015 c 9.2e-5,4.74e-4 -8.5e-5,0.0016 0,0.0021 a 0.39698512,0.39688838 0 0 0 0,0.0078 c 0.0025,-0.02199 0.0027,-0.01832 -0.0041,0.0098 -0.0033,0.01238 -0.0067,0.02443 -0.0021,0.01189 a 0.39698512,0.39688838 0 0 0 -0.0016,0.0036 c 0.005,-0.01384 0.005,-0.01092 -0.0041,0.0078 a 0.39698512,0.39688838 0 0 0 -0.0021,0.0021 c -0.0077,0.01584 -0.0094,0.02009 -0.0078,0.01757 a 0.39698512,0.39688838 0 0 0 -0.0021,0.0021 c -0.03454,0.05383 -0.0255,0.03956 -0.0052,0.0093 0.0013,-0.002 -0.002,0.0027 -5.16e-4,5.19e-4 -8.97e-4,8.07e-4 2.62e-4,-0.0017 -0.0041,0.0036 a 0.39698512,0.39688838 0 0 0 -0.0015,0 c -0.01091,0.01324 -0.01519,0.0173 -0.01396,0.01602 -0.0061,0.0062 -0.0121,0.01239 -0.02326,0.02119 a 0.39698512,0.39688838 0 0 0 -0.0021,0.0021 c -0.0065,0.0052 -0.01106,0.0081 -0.01344,0.0098 -0.0091,0.0063 -0.02316,0.01517 -0.04342,0.02532 -0.0076,0.0039 -0.0027,0.0013 -0.0078,0.0041 l -0.01137,0.0057 h 0.0036 c -3.65e-4,1.51e-4 -0.0031,0.0019 -0.0036,0.0021 v -0.0021 l -0.0062,0.0041 -0.01137,0.0036 a 0.39698512,0.39688838 0 0 0 -0.01395,0.0057 l -5.3856405,2.558845 c 0.01907,-0.0092 0.02921,-0.01478 -0.01757,0.0057 -0.01574,0.0067 -0.02939,0.01047 -0.03928,0.01344 a 0.39698512,0.39688838 0 0 0 -0.0036,0.0021 c 0.0067,-0.0021 0.001,-6.82e-4 -0.01964,0.0041 a 0.39698512,0.39688838 0 0 0 -0.306495,0.386511 v 6.5092507 c 0,0.300003 -0.229702,0.529648 -0.529779,0.529648 -0.300075,0 -0.529261,-0.229645 -0.529261,-0.529648 V 2.3827123 c 0,-0.300004 0.229186,-0.529131 0.529261,-0.529131 z" />
    <path
       id="rect2557-1-6-3-7-3-7-5-6-2-7"
       style="color:#000000;font-style:normal;font-variant:normal;font-weight:normal;font-stretch:normal;font-size:medium;line-height:normal;font-family:sans-serif;font-variant-ligatures:normal;font-variant-position:normal;font-variant-caps:normal;font-variant-numeric:normal;font-variant-alternates:normal;font-variant-east-asian:normal;font-feature-settings:normal;font-variation-settings:normal;text-indent:0;text-align:start;text-decoration:none;text-decoration-line:none;text-decoration-style:solid;text-decoration-color:#000000;letter-spacing:normal;word-spacing:normal;text-transform:none;writing-mode:lr-tb;direction:ltr;text-orientation:mixed;dominant-baseline:auto;baseline-shift:baseline;text-anchor:start;white-space:normal;shape-padding:0;shape-margin:0;inline-size:0;clip-rule:nonzero;display:inline;overflow:visible;visibility:visible;opacity:0.85;isolation:auto;mix-blend-mode:normal;color-interpolation:sRGB;color-interpolation-filters:linearRGB;solid-color:#000000;solid-opacity:1;vector-effect:none;fill:#861d3a;fill-opacity:1;fill-rule:nonzero;stroke:none;stroke-width:1.00006;stroke-linecap:round;stroke-linejoin:round;stroke-miterlimit:4;stroke-dasharray:none;stroke-dashoffset:2.1875;stroke-opacity:1;color-rendering:auto;image-rendering:auto;shape-rendering:auto;text-rendering:auto;enable-background:accumulate;stop-color:#000000"
       d="m 5.4893045,0.66145834 c -0.726159,0 -1.322117,0.59839496 -1.322117,1.32437896 V 14.949562 c 0,0.725981 0.595958,1.322313 1.322117,1.322313 0.726159,0 1.322635,-0.596332 1.322635,-1.322313 V 8.7136643 l 5.2393695,-2.488057 h -0.0858 a 0.39698512,0.39688838 0 0 0 0.154023,-0.03101 0.39698512,0.39688838 0 0 0 0.02378,-0.01189 l 0.02326,-0.01188 0.01189,-0.0036 a 0.39698512,0.39688838 0 0 0 0.01757,-0.0098 0.39698512,0.39688838 0 0 0 0.0016,-0.0021 c 0.04454,-0.02231 0.09463,-0.04867 0.144721,-0.08371 a 0.39698512,0.39688838 0 0 0 0,-0.0021 c 0.01868,-0.01313 0.03542,-0.02428 0.0491,-0.03514 l 0.0015,-0.0021 c 0.03399,-0.02692 0.07015,-0.05869 0.103888,-0.09353 0.02564,-0.02669 0.04316,-0.04904 0.05427,-0.06253 -0.01979,0.02396 0.004,0.0077 0.05117,-0.06098 a 0.39698512,0.39688838 0 0 0 0.0021,-0.0036 c 0.04328,-0.06438 0.0418,-0.06679 0.01344,-0.02325 v -0.0021 c 0.02669,-0.04141 0.04441,-0.0761 0.05686,-0.101794 0.0061,-0.01255 0.02008,-0.04013 0.0367,-0.08577 0.01873,-0.05147 0.02695,-0.08758 0.02946,-0.09766 a 0.39698512,0.39688838 0 0 0 0,-0.0021 c 0.0023,-0.0094 0.01067,-0.04378 0.01757,-0.09766 3.57e-4,-0.0025 0.0018,-0.0032 0.0021,-0.0057 0.0055,-0.04309 0.0057,-0.08262 0.0057,-0.103345 -4.3e-5,-0.02535 0.0011,-0.06555 -0.0078,-0.119367 a 0.39698512,0.39688838 0 0 0 0,-0.0021 c -0.0055,-0.03289 -0.01235,-0.06005 -0.01757,-0.08217 -0.0042,-0.01769 -0.0116,-0.05445 -0.02946,-0.103345 v -0.0021 c -0.01514,-0.04096 -0.0293,-0.06549 -0.0367,-0.08009 l -0.0021,-0.0057 c -0.01292,-0.0267 -0.02942,-0.05899 -0.05272,-0.09559 l -0.0041,-0.0057 c 0.01258,0.01842 0.0058,0.0061 -0.0155,-0.02584 -0.0452,-0.06569 -0.06157,-0.07788 -0.03721,-0.04651 a 0.39698512,0.39688838 0 0 0 -0.0021,-0.0041 c -0.02433,-0.03077 -0.04878,-0.05673 -0.07184,-0.0801 -0.03354,-0.03386 -0.06495,-0.0605 -0.092,-0.08216 -0.01239,-0.01 -0.0312,-0.025 -0.05685,-0.04289 a 0.39698512,0.39688838 0 0 0 -0.0021,0 c -0.03783,-0.02622 -0.08054,-0.05327 -0.128695,-0.07802 l -0.0078,-0.0036 c 0.0075,0.0033 0.01454,0.0039 -0.02326,-0.01395 a 0.39698512,0.39688838 0 0 0 -0.0041,-0.0021 l -0.02171,-0.0098 -0.0036,-0.0016 a 0.39698512,0.39688838 0 0 0 -0.183484,-0.04496 h 0.0858 L 6.7535355,1.8452863 C 6.6728255,1.1944293 6.1607695,0.66145834 5.4893045,0.66145834 Z m 0,0.79524796 c 0.300075,0 0.529779,0.229127 0.529779,0.529131 v 0.160188 a 0.39698512,0.39688838 0 0 0 0.306495,0.386511 c 0.01692,0.004 0.02287,0.0061 0.02171,0.0057 0.0116,0.0035 0.02625,0.0088 0.0429,0.01602 0.03229,0.01395 0.0544,0.02294 0.01757,0.0057 l 5.3835715,2.556264 a 0.39698512,0.39688838 0 0 0 0.01189,0.0062 0.39698512,0.39688838 0 0 0 0.0036,0 0.39698512,0.39688838 0 0 0 0.0021,0.0016 l 0.0062,0.0021 a 0.39698512,0.39688838 0 0 0 0.130764,0.02739 h -0.08011 c 0.0069,0.0042 0.0124,0.0079 0.02119,0.01395 4.34e-4,3.44e-4 0.0028,0.0025 0.01189,0.0098 0.01378,0.01103 0.02218,0.01801 0.02533,0.02119 0.0076,0.0077 0.01192,0.01138 0.01396,0.01395 0.0199,0.02577 0.03255,0.04379 0.0078,0.0078 a 0.39698512,0.39688838 0 0 0 0,0.0016 0.39698512,0.39688838 0 0 0 0.0036,0.0083 c -3.84e-4,-5.93e-4 0.0032,0.0038 0.0098,0.01757 a 0.39698512,0.39688838 0 0 0 0.0021,0.0057 c 0.0084,0.01682 0.0091,0.01923 0.0041,0.0057 a 0.39698512,0.39688838 0 0 0 0.0016,0 c -0.0045,-0.01217 -0.0029,-0.0093 0.0021,0.01188 0.0026,0.01087 0.003,0.0159 0.0041,0.02171 a 0.39698512,0.39688838 0 0 0 0,0.0015 c 9.2e-5,4.74e-4 -8.5e-5,0.0016 0,0.0021 a 0.39698512,0.39688838 0 0 0 0,0.0078 c 0.0025,-0.02199 0.0027,-0.01832 -0.0041,0.0098 -0.0033,0.01238 -0.0067,0.02443 -0.0021,0.01189 a 0.39698512,0.39688838 0 0 0 -0.0016,0.0036 c 0.005,-0.01384 0.005,-0.01092 -0.0041,0.0078 a 0.39698512,0.39688838 0 0 0 -0.0021,0.0021 c -0.0077,0.01584 -0.0094,0.02009 -0.0078,0.01757 a 0.39698512,0.39688838 0 0 0 -0.0021,0.0021 c -0.03454,0.05383 -0.0255,0.03956 -0.0052,0.0093 0.0013,-0.002 -0.002,0.0027 -5.16e-4,5.19e-4 -8.97e-4,8.07e-4 2.62e-4,-0.0017 -0.0041,0.0036 a 0.39698512,0.39688838 0 0 0 -0.0015,0 c -0.01091,0.01324 -0.01519,0.0173 -0.01396,0.01602 -0.0061,0.0062 -0.0121,0.01239 -0.02326,0.02119 a 0.39698512,0.39688838 0 0 0 -0.0021,0.0021 c -0.0065,0.0052 -0.01106,0.0081 -0.01344,0.0098 -0.0091,0.0063 -0.02316,0.01517 -0.04342,0.02532 -0.0076,0.0039 -0.0027,0.0013 -0.0078,0.0041 l -0.01137,0.0057 h 0.0036 c -3.65e-4,1.51e-4 -0.0031,0.0019 -0.0036,0.0021 v -0.0021 l -0.0062,0.0041 -0.01137,0.0036 a 0.39698512,0.39688838 0 0 0 -0.01395,0.0057 l -5.3856405,2.558845 c 0.01907,-0.0092 0.02921,-0.01478 -0.01757,0.0057 -0.01574,0.0067 -0.02939,0.01047 -0.03928,0.01344 a 0.39698512,0.39688838 0 0 0 -0.0036,0.0021 c 0.0067,-0.0021 0.001,-6.82e-4 -0.01964,0.0041 a 0.39698512,0.39688838 0 0 0 -0.306495,0.386511 v 6.5092497 c 0,0.300003 -0.229702,0.529648 -0.529779,0.529648 -0.300075,0 -0.529261,-0.229645 -0.529261,-0.529648 V 1.9858373 c 0,-0.300004 0.229186,-0.529131 0.529261,-0.529131 z" />
    <path
       id="rect2557-1-6-3-7-3-7-3"
       style="fill:#dc567c;fill-opacity:1;stroke:none;stroke-width:0;stroke-dashoffset:2.1875"
       d="m 5.4901708,1.0583333 c -0.513027,0 -0.9260419,0.413015 -0.9260419,0.926042 V 14.948959 c 0,0.513027 0.413015,0.926041 0.9260419,0.926041 0.5130271,0 0.926042,-0.413014 0.926042,-0.926041 V 8.4397953 c 0.01587,-0.0037 0.03136,-0.007 0.04703,-0.01188 0.02894,-0.0087 0.05659,-0.01931 0.08371,-0.03101 0.0096,-0.0042 0.01982,-0.0064 0.02946,-0.01085 l 5.3846842,-2.557983 h 0.0031 c 0.0035,-0.0027 0.0062,-0.0038 0.0098,-0.0052 l 0.03411,-0.01602 c 0.0046,-0.0027 0.0076,-0.0051 0.01188,-0.0072 0.03274,-0.0164 0.06396,-0.03408 0.09354,-0.05478 0.01095,-0.0077 0.02122,-0.01557 0.03152,-0.02377 0.02315,-0.01826 0.0448,-0.03741 0.06511,-0.05839 0.0122,-0.0127 0.0231,-0.02591 0.03411,-0.03927 0.0094,-0.01138 0.02058,-0.0209 0.02894,-0.03307 0.0041,-0.0061 0.0059,-0.01252 0.0098,-0.0186 0.01286,-0.01984 0.02344,-0.04054 0.03359,-0.0615 0.0076,-0.01561 0.0154,-0.03112 0.02119,-0.04703 0.0071,-0.01905 0.01117,-0.03835 0.01603,-0.05788 0.0046,-0.01905 0.0097,-0.03722 0.01188,-0.05633 0.0032,-0.01905 0.0036,-0.03774 0.0036,-0.05684 -3.2e-5,-0.01879 -5.3e-4,-0.0376 -0.0036,-0.05633 -0.0032,-0.01905 -0.0074,-0.03787 -0.01188,-0.05684 -0.0046,-0.01958 -0.009,-0.03885 -0.01603,-0.05788 -0.0058,-0.01587 -0.01347,-0.03103 -0.02119,-0.04651 -0.01029,-0.02143 -0.0213,-0.04259 -0.03462,-0.06305 -0.0035,-0.0056 -0.0053,-0.0115 -0.0093,-0.01705 -0.0071,-0.01032 -0.01659,-0.0185 -0.02429,-0.02842 -0.01318,-0.01667 -0.02756,-0.03253 -0.04289,-0.04806 -0.01834,-0.01852 -0.03798,-0.03533 -0.05839,-0.05168 -0.01156,-0.0093 -0.02278,-0.01825 -0.03514,-0.02687 -0.02862,-0.01984 -0.05783,-0.03787 -0.0894,-0.05374 -0.0051,-0.0027 -0.0094,-0.0059 -0.01447,-0.0083 l -0.03514,-0.01602 -0.0088,-0.0047 h -0.0031 L 6.5764129,2.1993493 c -0.0096,-0.0045 -0.01982,-0.0066 -0.02946,-0.01085 -0.02701,-0.01164 -0.05473,-0.02222 -0.08371,-0.03101 -0.01558,-0.0047 -0.03128,-0.0082 -0.04703,-0.01188 v -0.161231 c 0,-0.513027 -0.413015,-0.926042 -0.926042,-0.926042 z" />
    <path
       id="rect2557-1-6-3-7-3-7-5-6-2-1-9-6"
       style="color:#000000;font-style:normal;font-variant:normal;font-weight:normal;font-stretch:normal;font-size:medium;line-height:normal;font-family:sans-serif;font-variant-ligatures:normal;font-variant-position:normal;font-variant-caps:normal;font-variant-numeric:normal;font-variant-alternates:normal;font-variant-east-asian:normal;font-feature-settings:normal;font-variation-settings:normal;text-indent:0;text-align:start;text-decoration:none;text-decoration-line:none;text-decoration-style:solid;text-decoration-color:#000000;letter-spacing:normal;word-spacing:normal;text-transform:none;writing-mode:lr-tb;direction:ltr;text-orientation:mixed;dominant-baseline:auto;baseline-shift:baseline;text-anchor:start;white-space:normal;shape-padding:0;shape-margin:0;inline-size:0;clip-rule:nonzero;display:inline;overflow:visible;visibility:visible;opacity:0.15;isolation:auto;mix-blend-mode:normal;color-interpolation:sRGB;color-interpolation-filters:linearRGB;solid-color:#000000;solid-opacity:1;vector-effect:none;fill:#65162c;fill-opacity:1;fill-rule:nonzero;stroke:none;stroke-width:1.00006;stroke-linecap:round;stroke-linejoin:round;stroke-miterlimit:4;stroke-dasharray:none;stroke-dashoffset:2.1875;stroke-opacity:1;color-rendering:auto;image-rendering:auto;shape-rendering:auto;text-rendering:auto;enable-background:accumulate;stop-color:#000000"
       d="m 5.4893045,0.66145834 c -0.726159,0 -1.322117,0.59839496 -1.322117,1.32437896 V 14.949563 c 0,0.725981 0.595958,1.322313 1.322117,1.322313 0.726159,0 1.322635,-0.596332 1.322635,-1.322313 V 8.7136643 l 5.2393695,-2.488057 h -0.0858 a 0.39698512,0.39688838 0 0 0 0.154023,-0.03101 0.39698512,0.39688838 0 0 0 0.02378,-0.01189 l 0.02326,-0.01188 0.01189,-0.0036 a 0.39698512,0.39688838 0 0 0 0.01757,-0.0098 0.39698512,0.39688838 0 0 0 0.0016,-0.0021 c 0.04454,-0.02231 0.09463,-0.04867 0.144721,-0.08371 a 0.39698512,0.39688838 0 0 0 0,-0.0021 c 0.01868,-0.01313 0.03542,-0.02428 0.0491,-0.03514 l 0.0015,-0.0021 c 0.03399,-0.02692 0.07015,-0.05869 0.103888,-0.09353 0.02564,-0.02669 0.04316,-0.04904 0.05427,-0.06253 -0.01979,0.02396 0.004,0.0077 0.05117,-0.06098 a 0.39698512,0.39688838 0 0 0 0.0021,-0.0036 c 0.04328,-0.06438 0.0418,-0.06679 0.01344,-0.02325 v -0.0021 c 0.02669,-0.04141 0.04441,-0.0761 0.05686,-0.101794 0.0061,-0.01255 0.02008,-0.04013 0.0367,-0.08577 0.01873,-0.05147 0.02695,-0.08758 0.02946,-0.09766 a 0.39698512,0.39688838 0 0 0 0,-0.0021 c 0.0023,-0.0094 0.01067,-0.04378 0.01757,-0.09766 3.57e-4,-0.0025 0.0018,-0.0032 0.0021,-0.0057 0.0055,-0.04309 0.0057,-0.08262 0.0057,-0.103345 -4.3e-5,-0.02535 0.0011,-0.06555 -0.0078,-0.119367 a 0.39698512,0.39688838 0 0 0 0,-0.0021 c -0.0055,-0.03289 -0.01235,-0.06005 -0.01757,-0.08217 -0.0042,-0.01769 -0.0116,-0.05445 -0.02946,-0.103345 v -0.0021 c -0.01514,-0.04096 -0.0293,-0.06549 -0.0367,-0.08009 l -0.0021,-0.0057 c -0.01292,-0.0267 -0.02942,-0.05899 -0.05272,-0.09559 l -0.0041,-0.0057 c 0.01258,0.01842 0.0058,0.0061 -0.0155,-0.02584 -0.0452,-0.06569 -0.06157,-0.07788 -0.03721,-0.04651 a 0.39698512,0.39688838 0 0 0 -0.0021,-0.0041 c -0.02433,-0.03077 -0.04878,-0.05673 -0.07184,-0.0801 -0.03354,-0.03386 -0.06495,-0.0605 -0.092,-0.08216 -0.01239,-0.01 -0.0312,-0.025 -0.05685,-0.04289 a 0.39698512,0.39688838 0 0 0 -0.0021,0 c -0.03783,-0.02622 -0.08054,-0.05327 -0.128695,-0.07802 l -0.0078,-0.0036 c 0.0075,0.0033 0.01454,0.0039 -0.02326,-0.01395 a 0.39698512,0.39688838 0 0 0 -0.0041,-0.0021 l -0.02171,-0.0098 -0.0036,-0.0016 a 0.39698512,0.39688838 0 0 0 -0.183484,-0.04496 h 0.0858 L 6.7535355,1.8452863 C 6.6728255,1.1944293 6.1607695,0.66145834 5.4893045,0.66145834 Z m 0,0.79524796 c 0.300075,0 0.529779,0.229127 0.529779,0.529131 v 0.160188 a 0.39698512,0.39688838 0 0 0 0.306495,0.386511 c 0.01692,0.004 0.02287,0.0061 0.02171,0.0057 0.0116,0.0035 0.02625,0.0088 0.0429,0.01602 0.03229,0.01395 0.0544,0.02294 0.01757,0.0057 l 5.3835715,2.556264 a 0.39698512,0.39688838 0 0 0 0.01189,0.0062 0.39698512,0.39688838 0 0 0 0.0036,0 0.39698512,0.39688838 0 0 0 0.0021,0.0016 l 0.0062,0.0021 a 0.39698512,0.39688838 0 0 0 0.130764,0.02739 h -0.08011 c 0.0069,0.0042 0.0124,0.0079 0.02119,0.01395 4.34e-4,3.44e-4 0.0028,0.0025 0.01189,0.0098 0.01378,0.01103 0.02218,0.01801 0.02533,0.02119 0.0076,0.0077 0.01192,0.01138 0.01396,0.01395 0.0199,0.02577 0.03255,0.04379 0.0078,0.0078 a 0.39698512,0.39688838 0 0 0 0,0.0016 0.39698512,0.39688838 0 0 0 0.0036,0.0083 c -3.84e-4,-5.93e-4 0.0032,0.0038 0.0098,0.01757 a 0.39698512,0.39688838 0 0 0 0.0021,0.0057 c 0.0084,0.01682 0.0091,0.01923 0.0041,0.0057 a 0.39698512,0.39688838 0 0 0 0.0016,0 c -0.0045,-0.01217 -0.0029,-0.0093 0.0021,0.01188 0.0026,0.01087 0.003,0.0159 0.0041,0.02171 a 0.39698512,0.39688838 0 0 0 0,0.0015 c 9.2e-5,4.74e-4 -8.5e-5,0.0016 0,0.0021 a 0.39698512,0.39688838 0 0 0 0,0.0078 c 0.0025,-0.02199 0.0027,-0.01832 -0.0041,0.0098 -0.0033,0.01238 -0.0067,0.02443 -0.0021,0.01189 a 0.39698512,0.39688838 0 0 0 -0.0016,0.0036 c 0.005,-0.01384 0.005,-0.01092 -0.0041,0.0078 a 0.39698512,0.39688838 0 0 0 -0.0021,0.0021 c -0.0077,0.01584 -0.0094,0.02009 -0.0078,0.01757 a 0.39698512,0.39688838 0 0 0 -0.0021,0.0021 c -0.03454,0.05383 -0.0255,0.03956 -0.0052,0.0093 0.0013,-0.002 -0.002,0.0027 -5.16e-4,5.19e-4 -8.97e-4,8.07e-4 2.62e-4,-0.0017 -0.0041,0.0036 a 0.39698512,0.39688838 0 0 0 -0.0015,0 c -0.01091,0.01324 -0.01519,0.0173 -0.01396,0.01602 -0.0061,0.0062 -0.0121,0.01239 -0.02326,0.02119 a 0.39698512,0.39688838 0 0 0 -0.0021,0.0021 c -0.0065,0.0052 -0.01106,0.0081 -0.01344,0.0098 -0.0091,0.0063 -0.02316,0.01517 -0.04342,0.02532 -0.0076,0.0039 -0.0027,0.0013 -0.0078,0.0041 l -0.01137,0.0057 h 0.0036 c -3.65e-4,1.51e-4 -0.0031,0.0019 -0.0036,0.0021 v -0.0021 l -0.0062,0.0041 -0.01137,0.0036 a 0.39698512,0.39688838 0 0 0 -0.01395,0.0057 l -5.3856405,2.558845 c 0.01907,-0.0092 0.02921,-0.01478 -0.01757,0.0057 -0.01574,0.0067 -0.02939,0.01047 -0.03928,0.01344 a 0.39698512,0.39688838 0 0 0 -0.0036,0.0021 c 0.0067,-0.0021 0.001,-6.82e-4 -0.01964,0.0041 a 0.39698512,0.39688838 0 0 0 -0.306495,0.386511 v 6.5092507 c 0,0.300003 -0.229702,0.529648 -0.529779,0.529648 -0.300075,0 -0.529261,-0.229645 -0.529261,-0.529648 V 1.9858373 c 0,-0.300004 0.229186,-0.529131 0.529261,-0.529131 z" />
  </g>
</svg>
