<?xml version="1.0" encoding="UTF-8" standalone="no"?>
<svg
   xmlns:dc="http://purl.org/dc/elements/1.1/"
   xmlns:cc="http://creativecommons.org/ns#"
   xmlns:rdf="http://www.w3.org/1999/02/22-rdf-syntax-ns#"
   xmlns:svg="http://www.w3.org/2000/svg"
   xmlns="http://www.w3.org/2000/svg"
   xmlns:sodipodi="http://sodipodi.sourceforge.net/DTD/sodipodi-0.dtd"
   xmlns:inkscape="http://www.inkscape.org/namespaces/inkscape"
   width="64"
   height="64"
   viewBox="0 0 64 64"
   version="1.1"
   id="svg6374"
   inkscape:version="1.0.2 (e86c870879, 2021-01-15)"
   sodipodi:docname="emblem-unlocked.svg">
  <defs
     id="defs6368" />
  <sodipodi:namedview
     id="base"
     pagecolor="#cecece"
     bordercolor="#666666"
     borderopacity="1.0"
     inkscape:pageopacity="0"
     inkscape:pageshadow="2"
     inkscape:zoom="5.5639287"
     inkscape:cx="8.3100654"
     inkscape:cy="29.73153"
     inkscape:document-units="px"
     inkscape:current-layer="layer1"
     inkscape:document-rotation="0"
     showgrid="false"
     units="px"
     inkscape:window-width="1500"
     inkscape:window-height="970"
     inkscape:window-x="68"
     inkscape:window-y="56"
     inkscape:window-maximized="0" />
  <metadata
     id="metadata6371">
    <rdf:RDF>
      <cc:Work
         rdf:about="">
        <dc:format>image/svg+xml</dc:format>
        <dc:type
           rdf:resource="http://purl.org/dc/dcmitype/StillImage" />
        <dc:title></dc:title>
      </cc:Work>
    </rdf:RDF>
  </metadata>
  <g
     inkscape:label="Layer 1"
     inkscape:groupmode="layer"
     id="layer1">
    <circle
       style="fill:#fbfaf9;fill-opacity:1;stroke:none;stroke-width:1.81438;stroke-linecap:round;stroke-linejoin:round;stroke-miterlimit:4;stroke-dasharray:none;stroke-opacity:1"
       id="path2379-0-9-1-0-3-2"
       cx="32.000004"
       cy="32.000034"
       r="26" />
    <path
       id="path2379-6-6-7-2-9-6-2"
       style="fill:#3b3b3f;fill-opacity:1;stroke:none;stroke-width:1.88416;stroke-linecap:round;stroke-linejoin:round;stroke-miterlimit:4;stroke-dasharray:none;stroke-opacity:1"
       d="M 31.9727,5.0000034 A 27,27 0 0 0 5,32.000003 a 27,27 0 0 0 27,27 27,27 0 0 0 27,-27 27,27 0 0 0 -27,-26.9999996 27,27 0 0 0 -0.027,0 z m -0.08,1 a 26,26 0 0 1 0.1074,0 26,26 0 0 1 26,25.9999996 26,26 0 0 1 -26,26 26,26 0 0 1 -26,-26 26,26 0 0 1 25.8926,-25.9999996 z" />
    <path
       id="path2379-7-6-36-0-5-5-8"
       style="color:#000000;font-style:normal;font-variant:normal;font-weight:normal;font-stretch:normal;font-size:medium;line-height:normal;font-family:sans-serif;font-variant-ligatures:normal;font-variant-position:normal;font-variant-caps:normal;font-variant-numeric:normal;font-variant-alternates:normal;font-variant-east-asian:normal;font-feature-settings:normal;font-variation-settings:normal;text-indent:0;text-align:start;text-decoration:none;text-decoration-line:none;text-decoration-style:solid;text-decoration-color:#000000;letter-spacing:normal;word-spacing:normal;text-transform:none;writing-mode:lr-tb;direction:ltr;text-orientation:mixed;dominant-baseline:auto;baseline-shift:baseline;text-anchor:start;white-space:normal;shape-padding:0;shape-margin:0;inline-size:0;clip-rule:nonzero;display:inline;overflow:visible;visibility:visible;opacity:0.15;isolation:auto;mix-blend-mode:normal;color-interpolation:sRGB;color-interpolation-filters:linearRGB;solid-color:#000000;solid-opacity:1;vector-effect:none;fill:#3b3b3f;fill-opacity:1;fill-rule:nonzero;stroke:none;stroke-linecap:round;stroke-linejoin:round;stroke-miterlimit:4;stroke-dasharray:none;stroke-dashoffset:0;stroke-opacity:1;color-rendering:auto;image-rendering:auto;shape-rendering:auto;text-rendering:auto;enable-background:accumulate;stop-color:#000000"
       d="m 32,5.0000034 c -14.8999,0 -27,12.1001596 -27,26.9999996 0,14.89984 12.1001,27 27,27 14.8998,0 27,-12.10016 27,-27 C 59,17.100163 46.8998,5.0000034 32,5.0000034 Z m 0,2 c 13.8189,0 25,11.1810396 25,24.9999996 0,13.81896 -11.1811,25 -25,25 -13.819,0 -25,-11.18104 -25,-25 C 7,18.181043 18.181,7.0000034 32,7.0000034 Z" />
    <path
       id="rect2746-3-7-6-2-23-5-6"
       style="display:inline;opacity:0.15;fill:#2c2c2f;fill-opacity:1;stroke-width:0;stroke-linecap:round;stroke-linejoin:round;stroke-dashoffset:2.1875"
       d="m 32.02346,15.500003 a 0.50005,0.50005 0 0 0 -0.13476,0.0215 c -3.433,0.0524 -6.40607,1.95767 -7.91407,4.77539 l -0.0859,0.14648 c -0.5853,1.00388 -0.23256,2.30338 0.77734,2.88086 1.0099,0.57741 2.30963,0.23386 2.89453,-0.76953 l 0.0957,-0.16211 a 0.50005,0.50005 0 0 0 0.0312,-0.0625 c 0.8076,-1.55734 2.42964,-2.62891 4.33594,-2.62891 2.7174,5e-5 4.88477,2.14846 4.88477,4.83203 v 7.23438 H 19.61524 c -1.1607,0 -2.11524,0.94426 -2.11524,2.10156 v 12.53125 c 0,1.15731 0.95454,2.09962 2.11524,2.09962 h 24.76953 c 1.1607,0 2.11523,-0.94231 2.11523,-2.09962 v -12.53125 c 0,-1.1573 -0.95453,-2.10156 -2.11523,-2.10156 h -3.24609 v -7.23438 c 0,-3.43613 -1.92128,-6.41993 -4.76368,-7.94531 -1.2919,-0.69333 -2.77696,-1.08789 -4.35156,-1.08789 z" />
    <path
       id="rect2746-3-7-6-2-7"
       style="display:inline;fill:#4b464b;fill-opacity:1;stroke-width:0;stroke-linecap:round;stroke-linejoin:round;stroke-dashoffset:2.1875"
       d="m 32.02792,14.001893 c -3.3095,0 -6.1681,1.83184 -7.6121,4.52987 l -0.096,0.16357 c -0.4493,0.77062 -0.1838,1.74982 0.5941,2.19467 0.778,0.4448 1.7657,0.18208 2.2149,-0.58853 l 0.096,-0.16352 -0.01,-0.005 c 0.8843,-1.74128 2.7,-2.93317 4.8094,-2.93317 2.9831,5e-5 5.3846,2.37744 5.3846,5.33195 v 7.73595 h -17.7934 c -0.8949,0 -1.6154,0.71355 -1.6154,1.59989 v 12.53254 c 0,0.88634 0.7205,1.59989 1.6154,1.59989 h 24.7692 c 0.8949,0 1.6154,-0.71355 1.6154,-1.59989 v -12.53254 c 0,-0.88634 -0.7205,-1.59989 -1.6154,-1.59989 h -3.745 v -7.73595 c 0,-3.24997 -1.8151,-6.06309 -4.5013,-7.50469 v 0 c -1.2209,-0.6552 -2.6226,-1.02704 -4.1141,-1.02704 z" />
  </g>
</svg>
