<?xml version="1.0" encoding="UTF-8" standalone="no"?>
<svg
   xmlns:dc="http://purl.org/dc/elements/1.1/"
   xmlns:cc="http://creativecommons.org/ns#"
   xmlns:rdf="http://www.w3.org/1999/02/22-rdf-syntax-ns#"
   xmlns:svg="http://www.w3.org/2000/svg"
   xmlns="http://www.w3.org/2000/svg"
   xmlns:sodipodi="http://sodipodi.sourceforge.net/DTD/sodipodi-0.dtd"
   xmlns:inkscape="http://www.inkscape.org/namespaces/inkscape"
   width="64"
   height="64"
   viewBox="0 0 64 64"
   version="1.1"
   id="svg6374"
   inkscape:version="1.0.2 (e86c870879, 2021-01-15)"
   sodipodi:docname="emblem-symbolic-link.svg">
  <defs
     id="defs6368" />
  <sodipodi:namedview
     id="base"
     pagecolor="#cecece"
     bordercolor="#666666"
     borderopacity="1.0"
     inkscape:pageopacity="0"
     inkscape:pageshadow="2"
     inkscape:zoom="6.8818909"
     inkscape:cx="20.896034"
     inkscape:cy="43.869284"
     inkscape:document-units="px"
     inkscape:current-layer="layer1"
     inkscape:document-rotation="0"
     showgrid="false"
     units="px"
     inkscape:window-width="1500"
     inkscape:window-height="970"
     inkscape:window-x="68"
     inkscape:window-y="56"
     inkscape:window-maximized="0" />
  <metadata
     id="metadata6371">
    <rdf:RDF>
      <cc:Work
         rdf:about="">
        <dc:format>image/svg+xml</dc:format>
        <dc:type
           rdf:resource="http://purl.org/dc/dcmitype/StillImage" />
        <dc:title></dc:title>
      </cc:Work>
    </rdf:RDF>
  </metadata>
  <g
     inkscape:label="Layer 1"
     inkscape:groupmode="layer"
     id="layer1">
    <path
       id="path2379-6"
       style="fill:#3b3b3f;fill-opacity:1;stroke:none;stroke-width:1.88416;stroke-linecap:round;stroke-linejoin:round;stroke-miterlimit:4;stroke-dasharray:none;stroke-opacity:1"
       d="M 31.9727,5.0000034 A 27,27 0 0 0 5,32.000003 a 27,27 0 0 0 27,27 27,27 0 0 0 27,-27 27,27 0 0 0 -27,-26.9999996 27,27 0 0 0 -0.027,0 z m -0.08,1 a 26,26 0 0 1 0.1074,0 26,26 0 0 1 26,25.9999996 26,26 0 0 1 -26,26 26,26 0 0 1 -26,-26 26,26 0 0 1 25.8926,-25.9999996 z" />
    <circle
       style="fill:#fbfaf9;fill-opacity:1;stroke:none;stroke-width:0.981132;stroke-linecap:round;stroke-linejoin:round;stroke-miterlimit:4;stroke-dasharray:none;stroke-opacity:1"
       id="path2379"
       cx="31.999998"
       cy="32.000027"
       r="26" />
    <path
       id="path1236-35-0"
       style="color:#000000;font-style:normal;font-variant:normal;font-weight:normal;font-stretch:normal;font-size:medium;line-height:normal;font-family:sans-serif;font-variant-ligatures:normal;font-variant-position:normal;font-variant-caps:normal;font-variant-numeric:normal;font-variant-alternates:normal;font-variant-east-asian:normal;font-feature-settings:normal;font-variation-settings:normal;text-indent:0;text-align:start;text-decoration:none;text-decoration-line:none;text-decoration-style:solid;text-decoration-color:#000000;letter-spacing:normal;word-spacing:normal;text-transform:none;writing-mode:lr-tb;direction:ltr;text-orientation:mixed;dominant-baseline:auto;baseline-shift:baseline;text-anchor:start;white-space:normal;shape-padding:0;shape-margin:0;inline-size:0;clip-rule:nonzero;display:inline;overflow:visible;visibility:visible;isolation:auto;mix-blend-mode:normal;color-interpolation:sRGB;color-interpolation-filters:linearRGB;solid-color:#000000;solid-opacity:1;vector-effect:none;fill:#adadb3;fill-opacity:1;fill-rule:nonzero;stroke:none;stroke-width:0;stroke-linecap:butt;stroke-linejoin:round;stroke-miterlimit:4;stroke-dasharray:none;stroke-dashoffset:0;stroke-opacity:1;color-rendering:auto;image-rendering:auto;shape-rendering:auto;text-rendering:auto;enable-background:accumulate;stop-color:#000000"
       d="m 48.0958,22.720493 a 0.47642849,0.45088913 86.999421 0 0 -0.3218,-0.0552 l -16.7503,3.7137 a 0.47642849,0.45088913 86.999421 0 0 -0.1495,0.86487 l 6.9697,4.79245 c -0.947,1.73881 -2.0492,3.24799 -3.3103,4.43504 -2.6853,2.5276 -5.9988,3.75398 -9.5826,3.34387 -4.3986,-0.50336 -8.6679,-3.39734 -12.0881,-7.93344 a 0.47642849,0.45088913 86.999421 0 0 -0.7509,0.51103 c 0.014,0.0291 0.034,0.0506 0.048,0.0795 4.1031,8.36984 10.45,14.02793 17.0625,14.78599 3.9939,0.45784 7.6872,-0.90763 10.6793,-3.72563 1.8619,-1.75359 3.4444,-4.08348 4.669,-6.87084 l 6.6662,4.58384 a 0.47642849,0.45088913 86.999421 0 0 0.6852,-0.49647 L 48.31,23.033703 a 0.47642849,0.45088913 86.999421 0 0 -0.2141,-0.31326 z" />
    <path
       id="path1236-6-6-6"
       style="color:#000000;font-style:normal;font-variant:normal;font-weight:normal;font-stretch:normal;font-size:medium;line-height:normal;font-family:sans-serif;font-variant-ligatures:normal;font-variant-position:normal;font-variant-caps:normal;font-variant-numeric:normal;font-variant-alternates:normal;font-variant-east-asian:normal;font-feature-settings:normal;font-variation-settings:normal;text-indent:0;text-align:start;text-decoration:none;text-decoration-line:none;text-decoration-style:solid;text-decoration-color:#000000;letter-spacing:normal;word-spacing:normal;text-transform:none;writing-mode:lr-tb;direction:ltr;text-orientation:mixed;dominant-baseline:auto;baseline-shift:baseline;text-anchor:start;white-space:normal;shape-padding:0;shape-margin:0;inline-size:0;clip-rule:nonzero;display:inline;overflow:visible;visibility:visible;isolation:auto;mix-blend-mode:normal;color-interpolation:sRGB;color-interpolation-filters:linearRGB;solid-color:#000000;solid-opacity:1;vector-effect:none;fill:#2c2c2f;fill-opacity:1;fill-rule:nonzero;stroke:none;stroke-width:0;stroke-linecap:butt;stroke-linejoin:round;stroke-miterlimit:4;stroke-dasharray:none;stroke-dashoffset:0;stroke-opacity:1;color-rendering:auto;image-rendering:auto;shape-rendering:auto;text-rendering:auto;enable-background:accumulate;stop-color:#000000"
       d="m 47.8383,22.655993 a 0.47642849,0.45088913 86.999421 0 0 -0.064,0.009 l -16.7504,3.71346 a 0.47642849,0.45088913 86.999421 0 0 -0.1495,0.865 l 1.0766,0.74018 15.2477,-3.38036 a 0.47642849,0.45088913 86.999421 0 1 0.3216,0.0554 0.47642849,0.45088913 86.999421 0 1 0.2139,0.31302 l 3.2886,16.1263 0.2146,0.14762 a 0.47642849,0.45088913 86.999421 0 0 0.6851,-0.49663 L 48.31,23.033423 a 0.47642849,0.45088913 86.999421 0 0 -0.2141,-0.31302 0.47642849,0.45088913 86.999421 0 0 -0.2573,-0.0648 z m -35.3558,9.05353 a 0.47642849,0.45088913 86.999421 0 0 -0.3707,0.68326 c 0.014,0.0291 0.034,0.0505 0.048,0.0794 0.6097,1.24372 1.2698,2.42605 1.9721,3.54284 3.0546,3.26548 6.6039,5.32217 10.2432,5.73863 3.5838,0.41011 6.8972,-0.81627 9.5825,-3.34387 1.2611,-1.18704 2.3635,-2.69627 3.3105,-4.43508 l -0.4204,-0.28916 c -0.7018,1.05307 -1.4719,1.99289 -2.3145,2.78596 -2.6853,2.5276 -5.9987,3.75397 -9.5825,3.34387 -4.3986,-0.50336 -8.668,-3.39735 -12.0882,-7.93345 a 0.47642849,0.45088913 86.999421 0 0 -0.3803,-0.17247 z" />
    <path
       id="path1236-35-3-6-1"
       style="color:#000000;font-style:normal;font-variant:normal;font-weight:normal;font-stretch:normal;font-size:medium;line-height:normal;font-family:sans-serif;font-variant-ligatures:normal;font-variant-position:normal;font-variant-caps:normal;font-variant-numeric:normal;font-variant-alternates:normal;font-variant-east-asian:normal;font-feature-settings:normal;font-variation-settings:normal;text-indent:0;text-align:start;text-decoration:none;text-decoration-line:none;text-decoration-style:solid;text-decoration-color:#000000;letter-spacing:normal;word-spacing:normal;text-transform:none;writing-mode:lr-tb;direction:ltr;text-orientation:mixed;dominant-baseline:auto;baseline-shift:baseline;text-anchor:start;white-space:normal;shape-padding:0;shape-margin:0;inline-size:0;clip-rule:nonzero;display:inline;overflow:visible;visibility:visible;isolation:auto;mix-blend-mode:normal;color-interpolation:sRGB;color-interpolation-filters:linearRGB;solid-color:#000000;solid-opacity:1;vector-effect:none;fill:#313135;fill-opacity:1;fill-rule:nonzero;stroke:none;stroke-width:0.945073;stroke-linecap:butt;stroke-linejoin:round;stroke-miterlimit:4;stroke-dasharray:none;stroke-dashoffset:0;stroke-opacity:1;color-rendering:auto;image-rendering:auto;shape-rendering:auto;text-rendering:auto;enable-background:accumulate;stop-color:#000000"
       d="m 47.802,22.405753 c -0.027,-0.002 -0.054,-2.7e-4 -0.082,0.006 l -16.7498,3.71435 c -0.5997,0.13324 -0.7442,0.96809 -0.2382,1.31643 l 6.7565,4.64684 c -0.9105,1.63208 -1.9397,3.07945 -3.126,4.19647 -2.64,2.48588 -5.8724,3.68051 -9.383,3.27862 -4.3093,-0.49333 -8.5274,-3.34017 -11.9182,-7.839 a 0.25002967,0.25012305 0 0 0 0,-0.004 c -0.2433,-0.31017 -0.665,-0.33163 -0.9298,-0.15142 -0.2646,0.1802 -0.4102,0.56342 -0.2436,0.92126 a 0.25002967,0.25012305 0 0 0 0,0.006 c 0.033,0.0664 0.053,0.0886 0.048,0.0797 4.1284,8.42466 10.5227,14.15784 17.2571,14.93016 4.0671,0.46642 7.8417,-0.93207 10.8792,-3.79396 1.8267,-1.72115 3.3668,-4.0039 4.5845,-6.69257 l 6.4387,4.42899 c 0.2531,0.17396 0.5749,0.14667 0.79,-0.01 0.2152,-0.15596 0.3436,-0.44257 0.2823,-0.74396 L 48.555,22.973883 c -0.026,-0.12977 -0.1292,-0.21675 -0.2158,-0.31359 a 0.25002967,0.25012305 0 0 0 -0.1108,-0.16266 c -0.054,-0.0334 -0.1207,-0.014 -0.1808,-0.0313 v -0.002 a 0.25002967,0.25012305 0 0 0 -0.01,0.002 c -0.08,-0.0223 -0.1585,-0.0559 -0.2392,-0.061 z m 0.096,0.49141 c 0.023,0.004 0.045,0.0126 0.066,0.0259 0.049,0.0303 0.088,0.0854 0.1016,0.15142 l 3.6114,17.72129 c 0.023,0.11403 -0.021,0.19381 -0.085,0.24034 -0.064,0.0465 -0.1295,0.0595 -0.2139,0.002 l -6.6662,-4.58579 a 0.25002967,0.25012305 0 0 0 -0.3711,0.10503 c -1.2133,2.7628 -2.777,5.06525 -4.6099,6.79221 -2.9467,2.77633 -6.56,4.11072 -10.4807,3.6611 -6.4907,-0.74436 -12.7882,-6.33161 -16.866,-14.65319 -0.031,-0.0628 -0.047,-0.0799 -0.046,-0.0757 v -0.002 c -0.068,-0.14824 -0.012,-0.23792 0.072,-0.29504 0.084,-0.0575 0.1578,-0.0797 0.2563,0.0459 3.4492,4.57449 7.7695,7.51735 12.2561,8.03098 3.6571,0.41865 7.0527,-0.84069 9.7834,-3.41198 1.2853,-1.21018 2.3997,-2.74113 3.3565,-4.49883 a 0.25002967,0.25012305 0 0 0 -0.077,-0.3268 l -6.9689,-4.79288 c -0.1689,-0.11623 -0.1244,-0.37404 0.061,-0.4152 l 16.7517,-3.7163 c 0.023,-0.005 0.046,-0.006 0.068,-0.002 z" />
    <path
       id="path2379-7"
       style="color:#000000;font-style:normal;font-variant:normal;font-weight:normal;font-stretch:normal;font-size:medium;line-height:normal;font-family:sans-serif;font-variant-ligatures:normal;font-variant-position:normal;font-variant-caps:normal;font-variant-numeric:normal;font-variant-alternates:normal;font-variant-east-asian:normal;font-feature-settings:normal;font-variation-settings:normal;text-indent:0;text-align:start;text-decoration:none;text-decoration-line:none;text-decoration-style:solid;text-decoration-color:#000000;letter-spacing:normal;word-spacing:normal;text-transform:none;writing-mode:lr-tb;direction:ltr;text-orientation:mixed;dominant-baseline:auto;baseline-shift:baseline;text-anchor:start;white-space:normal;shape-padding:0;shape-margin:0;inline-size:0;clip-rule:nonzero;display:inline;overflow:visible;visibility:visible;opacity:0.15;isolation:auto;mix-blend-mode:normal;color-interpolation:sRGB;color-interpolation-filters:linearRGB;solid-color:#000000;solid-opacity:1;vector-effect:none;fill:#3b3b3f;fill-opacity:1;fill-rule:nonzero;stroke:none;stroke-linecap:round;stroke-linejoin:round;stroke-miterlimit:4;stroke-dasharray:none;stroke-dashoffset:0;stroke-opacity:1;color-rendering:auto;image-rendering:auto;shape-rendering:auto;text-rendering:auto;enable-background:accumulate;stop-color:#000000"
       d="m 32,5.0000034 c -14.8999,0 -27,12.1001596 -27,26.9999996 0,14.89984 12.1001,27 27,27 14.8998,0 27,-12.10016 27,-27 C 59,17.100163 46.8998,5.0000034 32,5.0000034 Z m 0,2 c 13.8189,0 25,11.1810396 25,24.9999996 0,13.81896 -11.1811,25 -25,25 -13.819,0 -25,-11.18104 -25,-25 C 7,18.181043 18.181,7.0000034 32,7.0000034 Z" />
  </g>
</svg>
