<?xml version="1.0" encoding="UTF-8" standalone="no"?>
<svg
   xmlns:dc="http://purl.org/dc/elements/1.1/"
   xmlns:cc="http://creativecommons.org/ns#"
   xmlns:rdf="http://www.w3.org/1999/02/22-rdf-syntax-ns#"
   xmlns:svg="http://www.w3.org/2000/svg"
   xmlns="http://www.w3.org/2000/svg"
   xmlns:sodipodi="http://sodipodi.sourceforge.net/DTD/sodipodi-0.dtd"
   xmlns:inkscape="http://www.inkscape.org/namespaces/inkscape"
   width="64"
   height="64"
   viewBox="0 0 64 64"
   version="1.1"
   id="svg6374"
   inkscape:version="1.0.2 (e86c870879, 2021-01-15)"
   sodipodi:docname="text-x-patch.svg">
  <defs
     id="defs6368" />
  <sodipodi:namedview
     id="base"
     pagecolor="#cecece"
     bordercolor="#666666"
     borderopacity="1.0"
     inkscape:pageopacity="0"
     inkscape:pageshadow="2"
     inkscape:zoom="3.2975144"
     inkscape:cx="0.78419257"
     inkscape:cy="32.951385"
     inkscape:document-units="px"
     inkscape:current-layer="layer1"
     inkscape:document-rotation="0"
     showgrid="false"
     units="px"
     inkscape:window-width="2048"
     inkscape:window-height="1080"
     inkscape:window-x="0"
     inkscape:window-y="0"
     inkscape:window-maximized="1" />
  <metadata
     id="metadata6371">
    <rdf:RDF>
      <cc:Work
         rdf:about="">
        <dc:format>image/svg+xml</dc:format>
        <dc:type
           rdf:resource="http://purl.org/dc/dcmitype/StillImage" />
        <dc:title />
      </cc:Work>
    </rdf:RDF>
  </metadata>
  <g
     inkscape:label="Layer 1"
     inkscape:groupmode="layer"
     id="layer1">
    <rect
       style="opacity:0.45;fill:#0c0c0c;fill-opacity:1;stroke-width:0.495;stroke-linecap:round;stroke-linejoin:round;stroke-miterlimit:4;stroke-dasharray:none;stroke-dashoffset:2.1875"
       id="rect954-6-9-9"
       width="44"
       height="56"
       x="9.9998779"
       y="5.4999771"
       rx="3"
       ry="3" />
    <path
       id="rect954-60-2-4"
       style="color:#000000;font-style:normal;font-variant:normal;font-weight:normal;font-stretch:normal;font-size:medium;line-height:normal;font-family:sans-serif;font-variant-ligatures:normal;font-variant-position:normal;font-variant-caps:normal;font-variant-numeric:normal;font-variant-alternates:normal;font-variant-east-asian:normal;font-feature-settings:normal;font-variation-settings:normal;text-indent:0;text-align:start;text-decoration:none;text-decoration-line:none;text-decoration-style:solid;text-decoration-color:#000000;letter-spacing:normal;word-spacing:normal;text-transform:none;writing-mode:lr-tb;direction:ltr;text-orientation:mixed;dominant-baseline:auto;baseline-shift:baseline;text-anchor:start;white-space:normal;shape-padding:0;shape-margin:0;inline-size:0;clip-rule:nonzero;display:inline;overflow:visible;visibility:visible;opacity:0.8;isolation:auto;mix-blend-mode:normal;color-interpolation:sRGB;color-interpolation-filters:linearRGB;solid-color:#000000;solid-opacity:1;vector-effect:none;fill:#9ec17b;fill-opacity:1;fill-rule:nonzero;stroke:none;stroke-linecap:round;stroke-linejoin:round;stroke-miterlimit:4;stroke-dasharray:none;stroke-dashoffset:2.1875;stroke-opacity:1;color-rendering:auto;image-rendering:auto;shape-rendering:auto;text-rendering:auto;enable-background:accumulate;stop-color:#000000"
       d="M 13,3.5 C 11.0696,3.5 9.5,5.06965 9.5,7 v 50 c 0,1.93035 1.5696,3.5 3.5,3.5 h 38 c 1.9304,0 3.5,-1.56965 3.5,-3.5 V 7 C 54.5,5.06965 52.9304,3.5 51,3.5 Z m 0,1 h 38 c 1.3936,0 2.5,1.10635 2.5,2.5 v 50 c 0,1.39365 -1.1064,2.5 -2.5,2.5 H 13 c -1.3937,0 -2.5,-1.10635 -2.5,-2.5 V 7 c 0,-1.39365 1.1063,-2.5 2.5,-2.5 z" />
    <rect
       style="fill:#45464a;fill-opacity:1;stroke-width:0.495;stroke-linecap:round;stroke-linejoin:round;stroke-miterlimit:4;stroke-dasharray:none;stroke-dashoffset:2.1875"
       id="rect954-0-8"
       width="44"
       height="56"
       x="9.9998779"
       y="3.9999774"
       rx="3"
       ry="3" />
    <rect
       style="opacity:0.375;fill:#141415;fill-opacity:1;stroke:none;stroke-width:0;stroke-linecap:round;stroke-linejoin:round;stroke-miterlimit:4;stroke-dasharray:none;stroke-dashoffset:2.1875;stroke-opacity:1"
       id="rect3498-5-5-5-9-1-3-4-6-3-47"
       width="23"
       height="2.5"
       x="24.249878"
       y="18.625031"
       rx="1.25"
       ry="1.25" />
    <rect
       style="fill:#adadb3;fill-opacity:1;stroke:none;stroke-width:0;stroke-linecap:round;stroke-linejoin:round;stroke-miterlimit:4;stroke-dasharray:none;stroke-dashoffset:2.1875;stroke-opacity:1"
       id="rect3498-5-5-5-9-1-3-4-61-44"
       width="23"
       height="2.5"
       x="24.249878"
       y="17.625031"
       rx="1.25"
       ry="1.25" />
    <circle
       style="opacity:0.375;fill:#141415;fill-opacity:1;stroke:none;stroke-width:0.698914;stroke-linecap:round;stroke-linejoin:round;stroke-dashoffset:2.1875"
       id="path1753-3-3-1-30"
       cx="18.5"
       cy="19.875"
       r="1.75" />
    <circle
       style="fill:#adadb3;fill-opacity:1;stroke:none;stroke-width:0.698914;stroke-linecap:round;stroke-linejoin:round;stroke-dashoffset:2.1875"
       id="path1753-3-94-78"
       cx="18.5"
       cy="18.875"
       r="1.75" />
    <rect
       style="opacity:0.375;fill:#141415;fill-opacity:1;stroke:none;stroke-width:0;stroke-linecap:round;stroke-linejoin:round;stroke-miterlimit:4;stroke-dasharray:none;stroke-dashoffset:2.1875;stroke-opacity:1"
       id="rect3498-5-5-5-9-1-3-4-6-3-5-6"
       width="23"
       height="2.5"
       x="27.749878"
       y="26.875032"
       rx="1.25"
       ry="1.25" />
    <rect
       style="fill:#9ec17b;fill-opacity:1;stroke:none;stroke-width:0;stroke-linecap:round;stroke-linejoin:round;stroke-miterlimit:4;stroke-dasharray:none;stroke-dashoffset:2.1875;stroke-opacity:1"
       id="rect3498-5-5-5-9-1-3-4-61-4-8"
       width="23"
       height="2.5"
       x="27.749878"
       y="25.875032"
       rx="1.25"
       ry="1.25" />
    <circle
       style="opacity:0.375;fill:#141415;fill-opacity:1;stroke:none;stroke-width:0.698914;stroke-linecap:round;stroke-linejoin:round;stroke-dashoffset:2.1875"
       id="path1753-3-3-1-7-8"
       cx="22"
       cy="28.125002"
       r="1.75" />
    <circle
       style="fill:#9ec17b;fill-opacity:1;stroke:none;stroke-width:0.698914;stroke-linecap:round;stroke-linejoin:round;stroke-dashoffset:2.1875"
       id="path1753-3-94-6-4"
       cx="22"
       cy="27.125002"
       r="1.75" />
    <rect
       style="opacity:0.375;fill:#141415;fill-opacity:1;stroke:none;stroke-width:0;stroke-linecap:round;stroke-linejoin:round;stroke-miterlimit:4;stroke-dasharray:none;stroke-dashoffset:2.1875;stroke-opacity:1"
       id="rect3498-5-5-5-9-1-3-4-6-3-56-3"
       width="23"
       height="2.5"
       x="27.749878"
       y="35.125031"
       rx="1.25"
       ry="1.25" />
    <rect
       style="fill:#d8647f;fill-opacity:1;stroke:none;stroke-width:0;stroke-linecap:round;stroke-linejoin:round;stroke-miterlimit:4;stroke-dasharray:none;stroke-dashoffset:2.1875;stroke-opacity:1"
       id="rect3498-5-5-5-9-1-3-4-61-9-1"
       width="23"
       height="2.5"
       x="27.749878"
       y="34.125031"
       rx="1.25"
       ry="1.25" />
    <circle
       style="opacity:0.375;fill:#141415;fill-opacity:1;stroke:none;stroke-width:0.698914;stroke-linecap:round;stroke-linejoin:round;stroke-dashoffset:2.1875"
       id="path1753-3-3-1-3-4"
       cx="22"
       cy="36.375"
       r="1.75" />
    <circle
       style="fill:#d8647f;fill-opacity:1;stroke:none;stroke-width:0.698914;stroke-linecap:round;stroke-linejoin:round;stroke-dashoffset:2.1875"
       id="path1753-3-94-7-9"
       cx="22"
       cy="35.375"
       r="1.75" />
    <rect
       style="opacity:0.375;fill:#141415;fill-opacity:1;stroke:none;stroke-width:0;stroke-linecap:round;stroke-linejoin:round;stroke-miterlimit:4;stroke-dasharray:none;stroke-dashoffset:2.1875;stroke-opacity:1"
       id="rect3498-5-5-5-9-1-3-4-6-3-4-2"
       width="23"
       height="2.5"
       x="24.249878"
       y="43.375031"
       rx="1.25"
       ry="1.25" />
    <rect
       style="fill:#adadb3;fill-opacity:1;stroke:none;stroke-width:0;stroke-linecap:round;stroke-linejoin:round;stroke-miterlimit:4;stroke-dasharray:none;stroke-dashoffset:2.1875;stroke-opacity:1"
       id="rect3498-5-5-5-9-1-3-4-61-5-0"
       width="23"
       height="2.5"
       x="24.249878"
       y="42.375031"
       rx="1.25"
       ry="1.25" />
    <circle
       style="opacity:0.375;fill:#141415;fill-opacity:1;stroke:none;stroke-width:0.698914;stroke-linecap:round;stroke-linejoin:round;stroke-dashoffset:2.1875"
       id="path1753-3-3-1-2-6"
       cx="18.5"
       cy="44.625"
       r="1.75" />
    <circle
       style="fill:#adadb3;fill-opacity:1;stroke:none;stroke-width:0.698914;stroke-linecap:round;stroke-linejoin:round;stroke-dashoffset:2.1875"
       id="path1753-3-94-5-8"
       cx="18.5"
       cy="43.625"
       r="1.75" />
  </g>
</svg>
