<?xml version="1.0" encoding="UTF-8" standalone="no"?>
<svg
   xmlns:dc="http://purl.org/dc/elements/1.1/"
   xmlns:cc="http://creativecommons.org/ns#"
   xmlns:rdf="http://www.w3.org/1999/02/22-rdf-syntax-ns#"
   xmlns:svg="http://www.w3.org/2000/svg"
   xmlns="http://www.w3.org/2000/svg"
   xmlns:xlink="http://www.w3.org/1999/xlink"
   xmlns:sodipodi="http://sodipodi.sourceforge.net/DTD/sodipodi-0.dtd"
   xmlns:inkscape="http://www.inkscape.org/namespaces/inkscape"
   width="64"
   height="64"
   viewBox="0 0 16.933333 16.933334"
   version="1.1"
   id="svg841"
   inkscape:version="1.0.2 (e86c870879, 2021-01-15)"
   sodipodi:docname="media-removable.svg">
  <defs
     id="defs835">
    <linearGradient
       inkscape:collect="always"
       xlink:href="#linearGradient2269"
       id="linearGradient2432"
       gradientUnits="userSpaceOnUse"
       x1="8.4197826"
       y1="118.44896"
       x2="8.4656801"
       y2="121.5854"
       gradientTransform="translate(1.5855176e-7,-105.23802)" />
    <linearGradient
       inkscape:collect="always"
       id="linearGradient2269">
      <stop
         style="stop-color:#f1f1f4;stop-opacity:1"
         offset="0"
         id="stop2265" />
      <stop
         style="stop-color:#e3e3e9;stop-opacity:1"
         offset="1"
         id="stop2267" />
    </linearGradient>
    <linearGradient
       inkscape:collect="always"
       xlink:href="#linearGradient1540"
       id="linearGradient2487"
       gradientUnits="userSpaceOnUse"
       x1="3.96875"
       y1="105.83338"
       x2="12.96458"
       y2="118.53338"
       gradientTransform="translate(1.5855176e-7,-105.23802)" />
    <linearGradient
       inkscape:collect="always"
       id="linearGradient1540">
      <stop
         style="stop-color:#e88eca;stop-opacity:1;"
         offset="0"
         id="stop1536" />
      <stop
         style="stop-color:#e377bf;stop-opacity:1"
         offset="1"
         id="stop1538" />
    </linearGradient>
    <linearGradient
       inkscape:collect="always"
       xlink:href="#linearGradient2509"
       id="linearGradient2436"
       gradientUnits="userSpaceOnUse"
       gradientTransform="translate(-2.9104166,-131.69635)"
       x1="9.9190454"
       y1="145.92909"
       x2="9.9072075"
       y2="147.3064" />
    <linearGradient
       inkscape:collect="always"
       id="linearGradient2509">
      <stop
         style="stop-color:#3b3b40;stop-opacity:1"
         offset="0"
         id="stop2505" />
      <stop
         style="stop-color:#fcfcfc;stop-opacity:1"
         offset="1"
         id="stop2507" />
    </linearGradient>
    <linearGradient
       inkscape:collect="always"
       xlink:href="#linearGradient2509"
       id="linearGradient2438"
       gradientUnits="userSpaceOnUse"
       x1="9.9190454"
       y1="145.92909"
       x2="9.9417725"
       y2="147.32632"
       gradientTransform="translate(1.5855176e-7,-131.69635)" />
  </defs>
  <sodipodi:namedview
     id="base"
     pagecolor="#c4c4c4"
     bordercolor="#666666"
     borderopacity="1.0"
     inkscape:pageopacity="0"
     inkscape:pageshadow="2"
     inkscape:zoom="2.1592081"
     inkscape:cx="77.378208"
     inkscape:cy="29.88924"
     inkscape:document-units="px"
     inkscape:current-layer="layer1"
     inkscape:document-rotation="0"
     showgrid="false"
     units="px"
     inkscape:window-width="2048"
     inkscape:window-height="1080"
     inkscape:window-x="0"
     inkscape:window-y="0"
     inkscape:window-maximized="1" />
  <metadata
     id="metadata838">
    <rdf:RDF>
      <cc:Work
         rdf:about="">
        <dc:format>image/svg+xml</dc:format>
        <dc:type
           rdf:resource="http://purl.org/dc/dcmitype/StillImage" />
        <dc:title />
      </cc:Work>
    </rdf:RDF>
  </metadata>
  <g
     inkscape:label="Layer 1"
     inkscape:groupmode="layer"
     id="layer1">
    <path
       id="rect1494-0-6-3-0-1"
       style="color:#000000;font-style:normal;font-variant:normal;font-weight:normal;font-stretch:normal;font-size:medium;line-height:normal;font-family:sans-serif;font-variant-ligatures:normal;font-variant-position:normal;font-variant-caps:normal;font-variant-numeric:normal;font-variant-alternates:normal;font-variant-east-asian:normal;font-feature-settings:normal;font-variation-settings:normal;text-indent:0;text-align:start;text-decoration:none;text-decoration-line:none;text-decoration-style:solid;text-decoration-color:#000000;letter-spacing:normal;word-spacing:normal;text-transform:none;writing-mode:lr-tb;direction:ltr;text-orientation:mixed;dominant-baseline:auto;baseline-shift:baseline;text-anchor:start;white-space:normal;shape-padding:0;shape-margin:0;inline-size:0;clip-rule:nonzero;display:inline;overflow:visible;visibility:visible;opacity:0.15;isolation:auto;mix-blend-mode:normal;color-interpolation:sRGB;color-interpolation-filters:linearRGB;solid-color:#000000;solid-opacity:1;vector-effect:none;fill:#0c0c0c;fill-opacity:1;fill-rule:nonzero;stroke:none;stroke-width:1.00004;stroke-linecap:round;stroke-linejoin:round;stroke-miterlimit:4;stroke-dasharray:none;stroke-dashoffset:2.1875;stroke-opacity:1;color-rendering:auto;image-rendering:auto;shape-rendering:auto;text-rendering:auto;enable-background:accumulate;stop-color:#000000"
       d="m 5.9516277,11.707814 c -0.3641884,0 -0.6599608,0.297821 -0.6599608,0.661983 v 3.703129 c 0,0.36416 0.2957724,0.66198 0.6599608,0.66198 h 5.0280093 c 0.364191,0 0.66203,-0.29782 0.66203,-0.66198 v -3.703129 c 0,-0.364162 -0.297839,-0.661983 -0.66203,-0.661983 z m 0,0.263552 h 5.0280093 c 0.222176,0 0.396391,0.176271 0.396391,0.398431 v 3.703129 c 0,0.22216 -0.174215,0.396359 -0.396391,0.396359 H 5.9516277 c -0.2221733,0 -0.3963882,-0.174199 -0.3963882,-0.396359 v -3.703129 c 0,-0.22216 0.1742149,-0.398431 0.3963882,-0.398431 z" />
    <rect
       style="fill:url(#linearGradient2432);fill-opacity:1;stroke:none;stroke-width:0;stroke-linecap:round;stroke-linejoin:round;stroke-miterlimit:4;stroke-dasharray:none;stroke-dashoffset:2.1875;stroke-opacity:1"
       id="rect1494-8-0"
       width="6.0854168"
       height="4.7624998"
       x="5.4239616"
       y="11.575537"
       rx="0.5291667"
       ry="0.5291667" />
    <path
       id="path1447-4-5-3-0-6-1-7-4-1"
       style="color:#000000;font-style:normal;font-variant:normal;font-weight:normal;font-stretch:normal;font-size:medium;line-height:normal;font-family:sans-serif;font-variant-ligatures:normal;font-variant-position:normal;font-variant-caps:normal;font-variant-numeric:normal;font-variant-alternates:normal;font-variant-east-asian:normal;font-feature-settings:normal;font-variation-settings:normal;text-indent:0;text-align:start;text-decoration:none;text-decoration-line:none;text-decoration-style:solid;text-decoration-color:#000000;letter-spacing:normal;word-spacing:normal;text-transform:none;writing-mode:lr-tb;direction:ltr;text-orientation:mixed;dominant-baseline:auto;baseline-shift:baseline;text-anchor:start;white-space:normal;shape-padding:0;shape-margin:0;inline-size:0;clip-rule:nonzero;display:inline;overflow:visible;visibility:visible;opacity:0.15;isolation:auto;mix-blend-mode:normal;color-interpolation:sRGB;color-interpolation-filters:linearRGB;solid-color:#000000;solid-opacity:1;vector-effect:none;fill:#0c0c0c;fill-opacity:1;fill-rule:nonzero;stroke:none;stroke-width:1;stroke-linecap:round;stroke-linejoin:round;stroke-miterlimit:4;stroke-dasharray:none;stroke-dashoffset:2.1875;stroke-opacity:1;color-rendering:auto;image-rendering:auto;shape-rendering:auto;text-rendering:auto;enable-background:accumulate;stop-color:#000000"
       d="M 8.4684397,0.5953146 C 7.4897803,0.5951558 6.5112718,0.6272154 5.7418634,0.6893157 5.3573153,0.7205154 5.0248505,0.7585149 4.7553115,0.8102356 4.6228637,0.8356356 4.5021767,0.8631364 4.3842572,0.9058349 4.3365263,0.9231386 4.0950438,1.0187246 3.9604899,1.2086452 3.825854,1.3986954 3.8005969,1.6006863 3.7827164,1.6990345 c -0.025532,0.1404012 -0.043331,0.294992 -0.06046,0.4723025 -0.034642,0.3583093 -0.062431,0.8180599 -0.08423,1.3538676 -0.04363,1.0712424 -0.06604,2.4421519 -0.066151,3.8161808 -1.085e-4,1.37396 0.02114,2.7468906 0.064601,3.8182306 0.021722,0.53566 0.04912,0.99485 0.083719,1.353371 0.01733,0.179408 0.037539,0.335129 0.062529,0.472818 0.017648,0.0971 0.042291,0.298561 0.1777762,0.489871 0.1354481,0.191291 0.3784971,0.286408 0.4237673,0.30281 0.1187079,0.0431 0.2391992,0.0702 0.3710543,0.0956 0.2692426,0.0519 0.6017392,0.0918 0.9865492,0.122981 0.7697656,0.0625 1.746131,0.0918 2.7245099,0.092 0.9781411,1.61e-4 1.9549397,-0.0276 2.7250277,-0.0899 0.384853,-0.0312 0.717455,-0.0712 0.98655,-0.122978 0.135519,-0.02601 0.255479,-0.0547 0.368988,-0.0956 a 0.39693346,0.3969006 0 0 0 0.0021,0 c 0.04395,-0.01601 0.288007,-0.11126 0.423767,-0.302811 0.135875,-0.19178 0.160174,-0.395149 0.177774,-0.491939 0.02495,-0.137332 0.04519,-0.291222 0.06253,-0.47076 0.03464,-0.358312 0.06191,-0.817542 0.08372,-1.353363 0.04364,-1.071477 0.06449,-2.4443976 0.0646,-3.8182278 1.08e-4,-1.3739601 -0.02114,-2.7453697 -0.0646,-3.8166914 -0.02172,-0.5356887 -0.04911,-0.9948281 -0.08372,-1.3533597 -0.0172,-0.1781598 -0.03518,-0.3336184 -0.06046,-0.4728183 -0.01804,-0.099301 -0.04546,-0.3000905 -0.179843,-0.4898708 -0.134641,-0.1901508 -0.377674,-0.2861098 -0.423767,-0.3028209 -0.113525,-0.041299 -0.234593,-0.0717 -0.369504,-0.0977 h -0.0016 c -0.26915,-0.0518 -0.600471,-0.0898 -0.984482,-0.1209199 -0.769734,-0.0625 -1.7466466,-0.0938 -2.7250284,-0.093999 z m -0.017568,0.7952713 a 0.39693346,0.3969006 0 0 0 0.017568,0 c 0.961962,2.011e-4 1.9243776,0.029699 2.6604276,0.0894 0.368131,0.0298 0.679993,0.067101 0.900248,0.1095507 0.109124,0.021008 0.193063,0.0439 0.250126,0.064598 0.02503,0.009 0.03504,0.010292 0.04392,0.011404 0.0011,0.00212 -0.0011,0.00106 0.0011,0.004 0.03576,0.050498 0.02119,0.0313 0.04703,0.1736302 0.0186,0.1024387 0.03654,0.2391489 0.05271,0.4066804 0.03213,0.3328591 0.05871,0.7810792 0.0801,1.3083991 0.04277,1.0546106 0.06419,2.4196913 0.06408,3.7851689 -1.08e-4,1.3656022 -0.02114,2.7302008 -0.06408,3.7846498 -0.02146,0.527172 -0.04997,0.977411 -0.08217,1.31046 -0.01603,0.16614 -0.03168,0.301871 -0.05064,0.406162 -0.02633,0.144799 -0.01273,0.125719 -0.04703,0.174149 -0.0021,0.003 -2.65e-4,0.0021 -0.0016,0.004 -0.0064,-7.94e-4 -0.01897,0.0011 -0.04341,0.009 -0.05764,0.02069 -0.142346,0.0436 -0.251677,0.0646 -0.22061,0.0424 -0.532713,0.0797 -0.900764,0.10954 -0.735719,0.0595 -1.6982276,0.0901 -2.6604302,0.0899 -0.9619588,-2.01e-4 -1.925955,-0.0302 -2.6619782,-0.0899 -0.3680831,-0.0298 -0.6782489,-0.0691 -0.8986944,-0.11161 -0.112985,-0.0218 -0.1971701,-0.0435 -0.2496106,-0.0625 -0.026194,-0.01 -0.037568,-0.01101 -0.046508,-0.01191 -7.938e-4,-0.0011 2.646e-4,-2.59e-4 -5.292e-4,-0.0021 -0.034311,-0.0485 -0.021908,-0.0345 -0.04703,-0.174149 v -0.0021 c -0.018759,-0.103761 -0.036729,-0.240649 -0.05271,-0.406159 -0.03212,-0.332862 -0.058711,-0.781621 -0.0801,-1.308912 -0.04277,-1.05464 -0.064701,-2.4212386 -0.06459,-3.7867192 1.085e-4,-1.3654193 0.023707,-2.7304895 0.066659,-3.7851689 0.021458,-0.5271612 0.0479,-0.9753415 0.0801,-1.3084017 0.016272,-0.1683702 0.032239,-0.3049296 0.050641,-0.4061592 0.026061,-0.1432798 0.011483,-0.12396 0.04703,-0.1741408 0.00159,-0.00212 -1.59e-5,-0.00106 0.00106,-0.00299 0.0087,-7.938e-4 0.020055,-0.00299 0.04599,-0.012409 0.053229,-0.019288 0.1372076,-0.040899 0.2496079,-0.0625 0.2201678,-0.042302 0.5324079,-0.0797 0.9007634,-0.1095507 0.7315412,-0.0591 1.6890525,-0.089199 2.6444073,-0.0894 z" />
    <path
       id="path1447-4-5-3-0-6-1-5"
       style="color:#000000;font-style:normal;font-variant:normal;font-weight:normal;font-stretch:normal;font-size:medium;line-height:normal;font-family:sans-serif;font-variant-ligatures:normal;font-variant-position:normal;font-variant-caps:normal;font-variant-numeric:normal;font-variant-alternates:normal;font-variant-east-asian:normal;font-feature-settings:normal;font-variation-settings:normal;text-indent:0;text-align:start;text-decoration:none;text-decoration-line:none;text-decoration-style:solid;text-decoration-color:#000000;letter-spacing:normal;word-spacing:normal;text-transform:none;writing-mode:lr-tb;direction:ltr;text-orientation:mixed;dominant-baseline:auto;baseline-shift:baseline;text-anchor:start;white-space:normal;shape-padding:0;shape-margin:0;inline-size:0;clip-rule:nonzero;display:inline;overflow:visible;visibility:visible;opacity:0.75;isolation:auto;mix-blend-mode:normal;color-interpolation:sRGB;color-interpolation-filters:linearRGB;solid-color:#000000;solid-opacity:1;vector-effect:none;fill:#771857;fill-opacity:1;fill-rule:nonzero;stroke:none;stroke-width:1;stroke-linecap:round;stroke-linejoin:round;stroke-miterlimit:4;stroke-dasharray:none;stroke-dashoffset:2.1875;stroke-opacity:1;color-rendering:auto;image-rendering:auto;shape-rendering:auto;text-rendering:auto;enable-background:accumulate;stop-color:#000000"
       d="M 8.4684397,0.1984448 C 7.4897803,0.1982861 6.5112718,0.2303457 5.7418634,0.292446 5.3573153,0.3236457 5.0248505,0.3616451 4.7553115,0.4133659 4.6228637,0.4387659 4.5021767,0.4662667 4.3842572,0.5089651 4.3365263,0.5262689 4.0950438,0.6218549 3.9604899,0.8117755 3.825854,1.0018257 3.8005969,1.2038166 3.7827164,1.3021648 c -0.025532,0.1404012 -0.043331,0.2949919 -0.06046,0.4722998 -0.034642,0.358312 -0.062431,0.8180599 -0.08423,1.3538703 -0.04363,1.0712398 -0.06604,2.4421519 -0.066151,3.8161808 -1.085e-4,1.3739597 0.02114,2.7468907 0.064601,3.8182313 0.021722,0.535659 0.04912,0.994849 0.083719,1.35337 0.01733,0.179408 0.037539,0.335129 0.062529,0.472818 0.017648,0.0971 0.042291,0.298561 0.1777762,0.489871 0.1354481,0.191288 0.3784971,0.286409 0.4237673,0.30281 0.1187079,0.0431 0.2391992,0.0702 0.3710543,0.0956 0.2692426,0.0519 0.6017392,0.0918 0.9865492,0.122981 0.7697656,0.0625 1.746131,0.0918 2.7245099,0.092 0.9781411,1.61e-4 1.9549397,-0.0276 2.7250277,-0.0899 0.384853,-0.0312 0.717455,-0.0712 0.98655,-0.122979 0.135519,-0.02601 0.255479,-0.0547 0.368988,-0.0956 a 0.39693346,0.3969006 0 0 0 0.0021,0 c 0.04395,-0.01601 0.288007,-0.11126 0.423767,-0.302807 0.135875,-0.191781 0.160174,-0.39515 0.177774,-0.491943 0.02495,-0.137329 0.04519,-0.291219 0.06253,-0.47076 0.03464,-0.358309 0.06191,-0.817538 0.08372,-1.353359 0.04364,-1.0714806 0.06449,-2.4443976 0.0646,-3.8182285 1.26e-4,-1.3739641 -0.02112,-2.7453737 -0.06458,-3.8166954 C 13.275133,2.5942364 13.247746,2.135097 13.213136,1.7765654 13.195938,1.5984056 13.177954,1.442947 13.152676,1.303747 13.134631,1.2044463 13.107215,1.0036566 12.972833,0.8138763 12.838192,0.6237255 12.595159,0.5277664 12.549066,0.5110554 c -0.113525,-0.041299 -0.234593,-0.071699 -0.369504,-0.0977 h -0.0016 c -0.26915,-0.0518 -0.600471,-0.0898 -0.984482,-0.1209199 -0.769734,-0.0625 -1.7466466,-0.0938 -2.7250285,-0.093998 z m -0.017568,0.7952714 a 0.39693346,0.3969006 0 0 0 0.017568,0 c 0.961962,1.985e-4 1.9243776,0.029699 2.6604276,0.0894 0.368131,0.0298 0.679993,0.067098 0.900248,0.1095507 0.109124,0.021008 0.193063,0.0439 0.250126,0.064598 0.02503,0.009 0.03504,0.010292 0.04392,0.011404 0.0011,0.00212 -0.0011,0.00106 0.0011,0.004 0.03576,0.050498 0.02119,0.0313 0.04703,0.1736302 0.0186,0.1024387 0.03654,0.2391489 0.05271,0.4066804 0.03213,0.3328591 0.05871,0.7810791 0.0801,1.308399 0.04277,1.0546107 0.06419,2.4196888 0.06408,3.785169 -1.08e-4,1.3656019 -0.02114,2.7302009 -0.06408,3.7846495 -0.02146,0.527172 -0.04997,0.977411 -0.08217,1.31046 -0.01603,0.16614 -0.03168,0.301872 -0.05064,0.40616 -0.02633,0.144801 -0.01273,0.125722 -0.04703,0.174151 -0.0021,0.003 -2.65e-4,0.0021 -0.0016,0.004 -0.0064,-7.93e-4 -0.01897,0.0011 -0.04341,0.009 -0.05764,0.02069 -0.142346,0.0436 -0.251677,0.0646 -0.22061,0.0424 -0.532713,0.0797 -0.900764,0.10954 -0.735719,0.0595 -1.6982276,0.0901 -2.6604302,0.0899 -0.9619588,-2.01e-4 -1.925955,-0.0302 -2.6619782,-0.0899 -0.3680831,-0.0298 -0.6782489,-0.0691 -0.8986944,-0.111609 -0.112985,-0.0218 -0.1971701,-0.0435 -0.2496106,-0.0625 -0.026194,-0.01 -0.037568,-0.01101 -0.046508,-0.01191 -7.938e-4,-0.0011 2.646e-4,-2.6e-4 -5.292e-4,-0.0021 -0.034311,-0.0485 -0.021908,-0.0345 -0.04703,-0.174149 v -0.0021 c -0.018759,-0.103762 -0.036729,-0.240652 -0.05271,-0.406162 -0.03212,-0.332859 -0.058711,-0.781619 -0.0801,-1.30891 -0.04277,-1.0546396 -0.064701,-2.4212386 -0.06459,-3.7867189 1.085e-4,-1.3654194 0.023707,-2.7304895 0.066659,-3.7851689 0.021458,-0.5271612 0.0479,-0.9753415 0.0801,-1.3084017 0.016272,-0.1683702 0.032239,-0.3049296 0.050641,-0.4061592 0.026061,-0.1432799 0.011483,-0.12396 0.04703,-0.1741409 0.00159,-0.00212 -1.59e-5,-0.00106 0.00106,-0.00299 0.0087,-7.938e-4 0.020055,-0.00299 0.04599,-0.012409 0.053229,-0.019288 0.1372076,-0.040899 0.2496079,-0.0625 0.2201678,-0.042302 0.5324079,-0.0797 0.9007634,-0.1095507 0.7315412,-0.0591 1.6890525,-0.089199 2.6444073,-0.0894 z" />
    <path
       id="rect1494-0-6-9-1"
       style="color:#000000;font-style:normal;font-variant:normal;font-weight:normal;font-stretch:normal;font-size:medium;line-height:normal;font-family:sans-serif;font-variant-ligatures:normal;font-variant-position:normal;font-variant-caps:normal;font-variant-numeric:normal;font-variant-alternates:normal;font-variant-east-asian:normal;font-feature-settings:normal;font-variation-settings:normal;text-indent:0;text-align:start;text-decoration:none;text-decoration-line:none;text-decoration-style:solid;text-decoration-color:#000000;letter-spacing:normal;word-spacing:normal;text-transform:none;writing-mode:lr-tb;direction:ltr;text-orientation:mixed;dominant-baseline:auto;baseline-shift:baseline;text-anchor:start;white-space:normal;shape-padding:0;shape-margin:0;inline-size:0;clip-rule:nonzero;display:inline;overflow:visible;visibility:visible;opacity:0.85;isolation:auto;mix-blend-mode:normal;color-interpolation:sRGB;color-interpolation-filters:linearRGB;solid-color:#000000;solid-opacity:1;vector-effect:none;fill:#44444a;fill-opacity:1;fill-rule:nonzero;stroke:none;stroke-width:1.00004;stroke-linecap:round;stroke-linejoin:round;stroke-miterlimit:4;stroke-dasharray:none;stroke-dashoffset:2.1875;stroke-opacity:1;color-rendering:auto;image-rendering:auto;shape-rendering:auto;text-rendering:auto;enable-background:accumulate;stop-color:#000000"
       d="m 5.9516277,11.443226 c -0.3641884,0 -0.6599608,0.29782 -0.6599608,0.661979 v 3.70313 c 0,0.364159 0.2957724,0.66198 0.6599608,0.66198 h 5.0280093 c 0.364191,0 0.66203,-0.297821 0.66203,-0.66198 v -3.70313 c 0,-0.364159 -0.297839,-0.661979 -0.66203,-0.661979 z m 0,0.263549 h 5.0280093 c 0.222176,0 0.396391,0.17627 0.396391,0.39843 v 3.70313 c 0,0.22216 -0.174215,0.396362 -0.396391,0.396362 H 5.9516277 c -0.2221733,0 -0.3963882,-0.174202 -0.3963882,-0.396362 v -3.70313 c 0,-0.22216 0.1742149,-0.39843 0.3963882,-0.39843 z" />
    <path
       id="path1447-4-5-3-9"
       style="color:#000000;font-style:normal;font-variant:normal;font-weight:normal;font-stretch:normal;font-size:medium;line-height:normal;font-family:sans-serif;font-variant-ligatures:normal;font-variant-position:normal;font-variant-caps:normal;font-variant-numeric:normal;font-variant-alternates:normal;font-variant-east-asian:normal;font-feature-settings:normal;font-variation-settings:normal;text-indent:0;text-align:start;text-decoration:none;text-decoration-line:none;text-decoration-style:solid;text-decoration-color:#000000;letter-spacing:normal;word-spacing:normal;text-transform:none;writing-mode:lr-tb;direction:ltr;text-orientation:mixed;dominant-baseline:auto;baseline-shift:baseline;text-anchor:start;white-space:normal;shape-padding:0;shape-margin:0;inline-size:0;clip-rule:nonzero;display:inline;overflow:visible;visibility:visible;isolation:auto;mix-blend-mode:normal;color-interpolation:sRGB;color-interpolation-filters:linearRGB;solid-color:#000000;solid-opacity:1;vector-effect:none;fill:url(#linearGradient2487);fill-opacity:1;fill-rule:nonzero;stroke:none;stroke-width:0.476062;stroke-linecap:round;stroke-linejoin:round;stroke-miterlimit:4;stroke-dasharray:none;stroke-dashoffset:2.1875;stroke-opacity:1;color-rendering:auto;image-rendering:auto;shape-rendering:auto;text-rendering:auto;enable-background:accumulate;stop-color:#000000"
       d="m 8.4676274,0.5953066 c -0.9701239,-1.614e-4 -1.9407505,0.0308 -2.6936198,0.091599 -0.3764333,0.030501 -0.6981931,0.068202 -0.9430332,0.1152392 -0.1224201,0.023495 -0.2250652,0.048101 -0.3106367,0.079103 -0.085569,0.031099 -0.1500638,0.039799 -0.2351538,0.1599089 -0.08509,0.1201208 -0.090771,0.2106295 -0.1127363,0.3314489 -0.02196,0.1208219 -0.038941,0.265811 -0.055642,0.4386606 -0.03342,0.3456914 -0.060619,0.8001 -0.082248,1.3316003 -0.043291,1.0630006 -0.065691,2.4320395 -0.065802,3.8018192 -1.058e-4,1.3697717 0.021722,2.7383607 0.064841,3.8013903 0.021564,0.53149 0.048411,0.985891 0.08178,1.33159 0.016695,0.17286 0.035161,0.319169 0.057089,0.439991 0.021934,0.12083 0.027181,0.212199 0.1122547,0.332338 0.085069,0.120153 0.1500717,0.128022 0.2356379,0.159023 0.085569,0.0311 0.1882193,0.0555 0.3106341,0.0791 0.2448322,0.0472 0.5656369,0.0852 0.9420675,0.115689 0.752856,0.0611 1.7234959,0.0914 2.6936225,0.0916 0.9701231,1.62e-4 1.9397837,-0.0289 2.6926507,-0.0898 0.376433,-0.0305 0.697709,-0.0686 0.942549,-0.115689 0.12242,-0.0235 0.225065,-0.0496 0.310634,-0.0804 0.08557,-0.0311 0.150548,-0.0385 0.235638,-0.15857 0.08509,-0.12011 0.09029,-0.211992 0.112255,-0.332791 0.02196,-0.120811 0.0404,-0.2658 0.05709,-0.43865 0.03342,-0.345691 0.06062,-0.8001 0.08225,-1.331611 0.04329,-1.0629996 0.06473,-2.4320496 0.06484,-3.8018186 1.11e-4,-1.3697717 -0.02172,-2.7383608 -0.06484,-3.801372 -0.02156,-0.5315188 -0.04841,-0.9858984 -0.08178,-1.3316083 -0.01667,-0.1728496 -0.03419,-0.3178307 -0.05613,-0.4386606 -0.02193,-0.1208088 -0.02815,-0.2117408 -0.113223,-0.3318907 -0.08507,-0.12015 -0.149103,-0.1280002 -0.23467,-0.1590199 -0.08557,-0.031099 -0.188216,-0.057298 -0.310634,-0.080799 -0.244832,-0.047202 -0.566605,-0.085201 -0.943033,-0.1156811 -0.752856,-0.0611 -1.7225296,-0.0914 -2.6926532,-0.091599 z" />
    <path
       id="path1447-4-5-3-0-6-1-7-7"
       style="color:#000000;font-style:normal;font-variant:normal;font-weight:normal;font-stretch:normal;font-size:medium;line-height:normal;font-family:sans-serif;font-variant-ligatures:normal;font-variant-position:normal;font-variant-caps:normal;font-variant-numeric:normal;font-variant-alternates:normal;font-variant-east-asian:normal;font-feature-settings:normal;font-variation-settings:normal;text-indent:0;text-align:start;text-decoration:none;text-decoration-line:none;text-decoration-style:solid;text-decoration-color:#000000;letter-spacing:normal;word-spacing:normal;text-transform:none;writing-mode:lr-tb;direction:ltr;text-orientation:mixed;dominant-baseline:auto;baseline-shift:baseline;text-anchor:start;white-space:normal;shape-padding:0;shape-margin:0;inline-size:0;clip-rule:nonzero;display:inline;overflow:visible;visibility:visible;opacity:0.15;isolation:auto;mix-blend-mode:normal;color-interpolation:sRGB;color-interpolation-filters:linearRGB;solid-color:#000000;solid-opacity:1;vector-effect:none;fill:#0c0c0c;fill-opacity:1;fill-rule:nonzero;stroke:none;stroke-width:1;stroke-linecap:round;stroke-linejoin:round;stroke-miterlimit:4;stroke-dasharray:none;stroke-dashoffset:2.1875;stroke-opacity:1;color-rendering:auto;image-rendering:auto;shape-rendering:auto;text-rendering:auto;enable-background:accumulate;stop-color:#000000"
       d="M 8.4684397,0.1984448 C 7.4897803,0.1982861 6.5112718,0.2303457 5.7418634,0.292446 5.3573153,0.3236457 5.0248505,0.3616451 4.7553115,0.4133659 4.6228637,0.4387659 4.5021767,0.4662667 4.3842572,0.5089651 4.3365263,0.5262689 4.0950438,0.6218549 3.9604899,0.8117755 3.825854,1.0018257 3.8005969,1.2038166 3.7827164,1.3021648 c -0.025532,0.1404012 -0.043331,0.2949919 -0.06046,0.4722998 -0.034642,0.358312 -0.062431,0.8180599 -0.08423,1.3538703 -0.04363,1.0712398 -0.06604,2.4421519 -0.066151,3.8161808 -1.085e-4,1.3739597 0.02114,2.7468907 0.064601,3.8182313 0.021722,0.535659 0.04912,0.994849 0.083719,1.35337 0.01733,0.179408 0.037539,0.335129 0.062529,0.472818 0.017648,0.0971 0.042291,0.298561 0.1777762,0.489871 0.1354481,0.191288 0.3784971,0.286409 0.4237673,0.30281 0.1187079,0.0431 0.2391992,0.0702 0.3710543,0.0956 0.2692426,0.0519 0.6017392,0.0918 0.9865492,0.122981 0.7697656,0.0625 1.746131,0.0918 2.7245099,0.092 0.9781411,1.61e-4 1.9549397,-0.0276 2.7250277,-0.0899 0.384853,-0.0312 0.717455,-0.0712 0.98655,-0.122979 0.135519,-0.02601 0.255479,-0.0547 0.368988,-0.0956 a 0.39693346,0.3969006 0 0 0 0.0021,0 c 0.04395,-0.01601 0.288007,-0.11126 0.423767,-0.302807 0.135875,-0.191781 0.160174,-0.39515 0.177774,-0.491943 0.02495,-0.137329 0.04519,-0.291219 0.06253,-0.47076 0.03464,-0.358309 0.06191,-0.817538 0.08372,-1.353359 0.04364,-1.0714806 0.06449,-2.4443976 0.0646,-3.8182285 1.26e-4,-1.3739641 -0.02112,-2.7453737 -0.06458,-3.8166954 C 13.275133,2.5942364 13.247746,2.135097 13.213136,1.7765654 13.195938,1.5984056 13.177954,1.442947 13.152676,1.303747 13.134631,1.2044463 13.107215,1.0036566 12.972833,0.8138763 12.838192,0.6237255 12.595159,0.5277664 12.549066,0.5110554 c -0.113525,-0.041299 -0.234593,-0.071699 -0.369504,-0.0977 h -0.0016 c -0.26915,-0.0518 -0.600471,-0.0898 -0.984482,-0.1209199 -0.769734,-0.0625 -1.7466466,-0.0938 -2.7250285,-0.093998 z m -0.017568,0.7952714 a 0.39693346,0.3969006 0 0 0 0.017568,0 c 0.961962,1.985e-4 1.9243776,0.029699 2.6604276,0.0894 0.368131,0.0298 0.679993,0.067098 0.900248,0.1095507 0.109124,0.021008 0.193063,0.0439 0.250126,0.064598 0.02503,0.009 0.03504,0.010292 0.04392,0.011404 0.0011,0.00212 -0.0011,0.00106 0.0011,0.004 0.03576,0.050498 0.02119,0.0313 0.04703,0.1736302 0.0186,0.1024387 0.03654,0.2391489 0.05271,0.4066804 0.03213,0.3328591 0.05871,0.7810791 0.0801,1.308399 0.04277,1.0546107 0.06419,2.4196888 0.06408,3.785169 -1.08e-4,1.3656019 -0.02114,2.7302009 -0.06408,3.7846495 -0.02146,0.527172 -0.04997,0.977411 -0.08217,1.31046 -0.01603,0.16614 -0.03168,0.301872 -0.05064,0.40616 -0.02633,0.144801 -0.01273,0.125722 -0.04703,0.174151 -0.0021,0.003 -2.65e-4,0.0021 -0.0016,0.004 -0.0064,-7.93e-4 -0.01897,0.0011 -0.04341,0.009 -0.05764,0.02069 -0.142346,0.0436 -0.251677,0.0646 -0.22061,0.0424 -0.532713,0.0797 -0.900764,0.10954 -0.735719,0.0595 -1.6982276,0.0901 -2.6604302,0.0899 -0.9619588,-2.01e-4 -1.925955,-0.0302 -2.6619782,-0.0899 -0.3680831,-0.0298 -0.6782489,-0.0691 -0.8986944,-0.111609 -0.112985,-0.0218 -0.1971701,-0.0435 -0.2496106,-0.0625 -0.026194,-0.01 -0.037568,-0.01101 -0.046508,-0.01191 -7.938e-4,-0.0011 2.646e-4,-2.6e-4 -5.292e-4,-0.0021 -0.034311,-0.0485 -0.021908,-0.0345 -0.04703,-0.174149 v -0.0021 c -0.018759,-0.103762 -0.036729,-0.240652 -0.05271,-0.406162 -0.03212,-0.332859 -0.058711,-0.781619 -0.0801,-1.30891 -0.04277,-1.0546396 -0.064701,-2.4212386 -0.06459,-3.7867189 1.085e-4,-1.3654194 0.023707,-2.7304895 0.066659,-3.7851689 0.021458,-0.5271612 0.0479,-0.9753415 0.0801,-1.3084017 0.016272,-0.1683702 0.032239,-0.3049296 0.050641,-0.4061592 0.026061,-0.1432799 0.011483,-0.12396 0.04703,-0.1741409 0.00159,-0.00212 -1.59e-5,-0.00106 0.00106,-0.00299 0.0087,-7.938e-4 0.020055,-0.00299 0.04599,-0.012409 0.053229,-0.019288 0.1372076,-0.040899 0.2496079,-0.0625 0.2201678,-0.042302 0.5324079,-0.0797 0.9007634,-0.1095507 0.7315412,-0.0591 1.6890525,-0.089199 2.6444073,-0.0894 z" />
    <rect
       style="opacity:0.6;fill:#1c1c22;fill-opacity:1;stroke:none;stroke-width:0.79375;stroke-linecap:round;stroke-linejoin:round;stroke-miterlimit:4;stroke-dasharray:none;stroke-dashoffset:2.1875;stroke-opacity:1"
       id="rect1914-49-9"
       width="1.3229167"
       height="1.3229167"
       x="6.3500032"
       y="14.22137"
       rx="0.19843751"
       ry="0.19843751" />
    <path
       id="rect1914-5-5-7-43-4-1-0"
       style="fill:url(#linearGradient2436);fill-opacity:1;stroke:none;stroke-width:0.79375;stroke-linecap:round;stroke-linejoin:round;stroke-miterlimit:4;stroke-dasharray:none;stroke-dashoffset:2.1875;stroke-opacity:1"
       d="m 6.5484378,14.221356 c -0.1099344,0 -0.1984375,0.0885 -0.1984375,0.19844 v 0.926039 c 0,0.109929 0.0885,0.198441 0.1984375,0.198441 h 0.9260417 c 0.1099317,0 0.1984348,-0.0885 0.1984348,-0.198441 v -0.926039 c 0,-0.109939 -0.088498,-0.19844 -0.1984348,-0.19844 z m 0.03307,0.132289 h 0.8598933 c 0.05497,0 0.099221,0.0443 0.099221,0.0992 v 0.859891 c 0,0.055 -0.044252,0.0992 -0.099221,0.0992 H 6.5815107 c -0.05497,0 -0.099221,-0.0442 -0.099221,-0.0992 v -0.859891 c 0,-0.055 0.044252,-0.0992 0.099221,-0.0992 z" />
    <rect
       style="opacity:0.6;fill:#1c1c22;fill-opacity:1;stroke:none;stroke-width:0.79375;stroke-linecap:round;stroke-linejoin:round;stroke-miterlimit:4;stroke-dasharray:none;stroke-dashoffset:2.1875;stroke-opacity:1"
       id="rect1914-4-5-9"
       width="1.3229167"
       height="1.3229167"
       x="9.2604208"
       y="14.22137"
       rx="0.19843751"
       ry="0.19843751" />
    <path
       id="rect1914-5-5-7-43-4-17"
       style="fill:url(#linearGradient2438);fill-opacity:1;stroke:none;stroke-width:0.79375;stroke-linecap:round;stroke-linejoin:round;stroke-miterlimit:4;stroke-dasharray:none;stroke-dashoffset:2.1875;stroke-opacity:1"
       d="m 9.4588544,14.221356 c -0.109934,0 -0.1984374,0.0885 -0.1984374,0.19844 v 0.926039 c 0,0.109929 0.0885,0.198441 0.1984374,0.198441 h 0.9260416 c 0.109932,0 0.198435,-0.0885 0.198435,-0.198441 v -0.926039 c 0,-0.109939 -0.0885,-0.19844 -0.198435,-0.19844 z m 0.03307,0.132289 h 0.8598936 c 0.05497,0 0.09922,0.0443 0.09922,0.0992 v 0.859891 c 0,0.055 -0.04425,0.0992 -0.09922,0.0992 H 9.4919274 c -0.05497,0 -0.09922,-0.0442 -0.09922,-0.0992 v -0.859891 c 0,-0.055 0.04425,-0.0992 0.09922,-0.0992 z" />
  </g>
</svg>
