<?xml version="1.0" encoding="UTF-8" standalone="no"?>
<svg
   xmlns:dc="http://purl.org/dc/elements/1.1/"
   xmlns:cc="http://creativecommons.org/ns#"
   xmlns:rdf="http://www.w3.org/1999/02/22-rdf-syntax-ns#"
   xmlns:svg="http://www.w3.org/2000/svg"
   xmlns="http://www.w3.org/2000/svg"
   xmlns:xlink="http://www.w3.org/1999/xlink"
   xmlns:sodipodi="http://sodipodi.sourceforge.net/DTD/sodipodi-0.dtd"
   xmlns:inkscape="http://www.inkscape.org/namespaces/inkscape"
   width="64"
   height="64"
   viewBox="0 0 16.933333 16.933334"
   version="1.1"
   id="svg841"
   inkscape:version="1.0.2 (e86c870879, 2021-01-15)"
   sodipodi:docname="view-calendar.svg">
  <defs
     id="defs835">
    <linearGradient
       inkscape:collect="always"
       id="linearGradient1338-8">
      <stop
         style="stop-color:#fdfdfa;stop-opacity:0.44999999"
         offset="0"
         id="stop1334-9" />
      <stop
         style="stop-color:#fdfdfa;stop-opacity:0;"
         offset="1"
         id="stop1336-0" />
    </linearGradient>
    <linearGradient
       inkscape:collect="always"
       xlink:href="#linearGradient1338-8"
       id="linearGradient906"
       gradientUnits="userSpaceOnUse"
       x1="8.2020836"
       y1="1.3229167"
       x2="8.2029152"
       y2="5.0272117" />
  </defs>
  <sodipodi:namedview
     id="base"
     pagecolor="#c4c4c4"
     bordercolor="#666666"
     borderopacity="1.0"
     inkscape:pageopacity="0"
     inkscape:pageshadow="2"
     inkscape:zoom="4.3615994"
     inkscape:cx="-31.842512"
     inkscape:cy="17.089475"
     inkscape:document-units="px"
     inkscape:current-layer="layer1"
     inkscape:document-rotation="0"
     showgrid="false"
     units="px"
     inkscape:window-width="2048"
     inkscape:window-height="1080"
     inkscape:window-x="0"
     inkscape:window-y="0"
     inkscape:window-maximized="1" />
  <metadata
     id="metadata838">
    <rdf:RDF>
      <cc:Work
         rdf:about="">
        <dc:format>image/svg+xml</dc:format>
        <dc:type
           rdf:resource="http://purl.org/dc/dcmitype/StillImage" />
        <dc:title />
      </cc:Work>
    </rdf:RDF>
  </metadata>
  <g
     inkscape:label="Layer 1"
     inkscape:groupmode="layer"
     id="layer1">
    <path
       id="rect848-6-3-6-7-0-9-3-9-1-6-6-7-9-7"
       style="color:#000000;font-style:normal;font-variant:normal;font-weight:normal;font-stretch:normal;font-size:medium;line-height:normal;font-family:sans-serif;font-variant-ligatures:normal;font-variant-position:normal;font-variant-caps:normal;font-variant-numeric:normal;font-variant-alternates:normal;font-variant-east-asian:normal;font-feature-settings:normal;font-variation-settings:normal;text-indent:0;text-align:start;text-decoration:none;text-decoration-line:none;text-decoration-style:solid;text-decoration-color:#000000;letter-spacing:normal;word-spacing:normal;text-transform:none;writing-mode:lr-tb;direction:ltr;text-orientation:mixed;dominant-baseline:auto;baseline-shift:baseline;text-anchor:start;white-space:normal;shape-padding:0;shape-margin:0;inline-size:0;clip-rule:nonzero;display:inline;overflow:visible;visibility:visible;opacity:0.25;isolation:auto;mix-blend-mode:normal;color-interpolation:sRGB;color-interpolation-filters:linearRGB;solid-color:#000000;solid-opacity:1;vector-effect:none;fill:#0c0c0c;fill-opacity:1;fill-rule:nonzero;stroke:none;stroke-width:0;stroke-linecap:round;stroke-linejoin:round;stroke-miterlimit:4;stroke-dasharray:none;stroke-dashoffset:2.1875;stroke-opacity:1;paint-order:normal;color-rendering:auto;image-rendering:auto;shape-rendering:auto;text-rendering:auto;enable-background:accumulate;stop-color:#000000"
       d="M 1.3224013,5.1594014 A 0.26460982,0.26463435 0 0 0 1.0583333,5.423482 v 8.996654 c 0,1.021582 0.830088,1.851739 1.851568,1.851739 H 14.023436 c 1.021477,0 1.851565,-0.830157 1.851565,-1.851739 V 5.423482 A 0.26460982,0.26463435 0 0 0 15.609385,5.1594014 Z m 0.265617,0.5297223 H 15.345837 v 8.7310123 c 0,0.737552 -0.584931,1.322519 -1.322401,1.322546 H 2.9099013 c -0.737473,0 -1.321883,-0.584994 -1.321883,-1.322546 z" />
    <path
       id="rect848-6-3-7-5-6-0-6-5-4-1-7-4-2-5"
       style="color:#000000;font-style:normal;font-variant:normal;font-weight:normal;font-stretch:normal;font-size:medium;line-height:normal;font-family:sans-serif;font-variant-ligatures:normal;font-variant-position:normal;font-variant-caps:normal;font-variant-numeric:normal;font-variant-alternates:normal;font-variant-east-asian:normal;font-feature-settings:normal;font-variation-settings:normal;text-indent:0;text-align:start;text-decoration:none;text-decoration-line:none;text-decoration-style:solid;text-decoration-color:#000000;letter-spacing:normal;word-spacing:normal;text-transform:none;writing-mode:lr-tb;direction:ltr;text-orientation:mixed;dominant-baseline:auto;baseline-shift:baseline;text-anchor:start;white-space:normal;shape-padding:0;shape-margin:0;inline-size:0;clip-rule:nonzero;display:inline;overflow:visible;visibility:visible;isolation:auto;mix-blend-mode:normal;color-interpolation:sRGB;color-interpolation-filters:linearRGB;solid-color:#000000;solid-opacity:1;vector-effect:none;fill:#211a61;fill-opacity:1;fill-rule:nonzero;stroke:none;stroke-width:0.999897;stroke-linecap:round;stroke-linejoin:round;stroke-miterlimit:4;stroke-dasharray:none;stroke-dashoffset:2.1875;stroke-opacity:1;color-rendering:auto;image-rendering:auto;shape-rendering:auto;text-rendering:auto;enable-background:accumulate;stop-color:#000000"
       d="m 2.9099643,1.0583333 c -1.021511,0 -1.851628,0.8319557 -1.851628,1.8531945 v 2.114603 a 0.26461898,0.26454505 0 0 0 0.265626,0.2655358 H 15.611439 a 0.26461898,0.26454505 0 0 0 0.263559,-0.2655358 v -2.114603 c 0,-1.0212388 -0.830117,-1.8531945 -1.851631,-1.8531945 z m 0,0.5295634 H 14.023367 c 0.7375,0 1.322446,0.5863432 1.322446,1.3236311 V 4.7626322 H 1.5875213 V 2.9115278 c 0,-0.7372879 0.584946,-1.3236311 1.322443,-1.3236311 z" />
    <path
       id="rect848-6-3-6-7-0-9-2-0-4-8-4-1-35"
       style="color:#000000;font-style:normal;font-variant:normal;font-weight:normal;font-stretch:normal;font-size:medium;line-height:normal;font-family:sans-serif;font-variant-ligatures:normal;font-variant-position:normal;font-variant-caps:normal;font-variant-numeric:normal;font-variant-alternates:normal;font-variant-east-asian:normal;font-feature-settings:normal;font-variation-settings:normal;text-indent:0;text-align:start;text-decoration:none;text-decoration-line:none;text-decoration-style:solid;text-decoration-color:#000000;letter-spacing:normal;word-spacing:normal;text-transform:none;writing-mode:lr-tb;direction:ltr;text-orientation:mixed;dominant-baseline:auto;baseline-shift:baseline;text-anchor:start;white-space:normal;shape-padding:0;shape-margin:0;inline-size:0;clip-rule:nonzero;display:inline;overflow:visible;visibility:visible;isolation:auto;mix-blend-mode:normal;color-interpolation:sRGB;color-interpolation-filters:linearRGB;solid-color:#000000;solid-opacity:1;vector-effect:none;fill:#393941;fill-opacity:1;fill-rule:nonzero;stroke:none;stroke-width:1.00005;stroke-linecap:round;stroke-linejoin:round;stroke-miterlimit:4;stroke-dasharray:none;stroke-dashoffset:2.1875;stroke-opacity:1;paint-order:normal;color-rendering:auto;image-rendering:auto;shape-rendering:auto;text-rendering:auto;enable-background:accumulate;stop-color:#000000"
       d="M 1.3224013,4.7625264 A 0.26460982,0.26463435 0 0 0 1.0583333,5.026607 v 8.996654 c 0,1.021582 0.830088,1.851739 1.851568,1.851739 H 14.023436 c 1.021477,0 1.851565,-0.830157 1.851565,-1.851739 V 5.026607 A 0.26460982,0.26463435 0 0 0 15.609385,4.7625264 Z m 0.265617,0.5297223 H 15.345837 v 8.7310123 c 0,0.737552 -0.584931,1.322546 -1.322401,1.322546 H 2.9099013 c -0.737473,0 -1.321883,-0.584994 -1.321883,-1.322546 z" />
    <path
       id="rect848-6-3-6-4-22-2-9-3-7-6"
       style="fill:#fcfcfc;fill-opacity:1;stroke-width:1.19063;stroke-linecap:round;stroke-linejoin:round;stroke-dashoffset:2.1875"
       d="m 1.3229173,5.0270833 v 8.9958337 c 0,0.879475 0.708025,1.5875 1.5875,1.5875 H 14.022917 c 0.879475,0 1.5875,-0.708025 1.5875,-1.5875 V 5.0270833 Z" />
    <path
       id="rect848-6-3-7-5-6-0-5-5-2-3-6-6-2"
       style="color:#000000;font-style:normal;font-variant:normal;font-weight:normal;font-stretch:normal;font-size:medium;line-height:normal;font-family:sans-serif;font-variant-ligatures:normal;font-variant-position:normal;font-variant-caps:normal;font-variant-numeric:normal;font-variant-alternates:normal;font-variant-east-asian:normal;font-feature-settings:normal;font-variation-settings:normal;text-indent:0;text-align:start;text-decoration:none;text-decoration-line:none;text-decoration-style:solid;text-decoration-color:#000000;letter-spacing:normal;word-spacing:normal;text-transform:none;writing-mode:lr-tb;direction:ltr;text-orientation:mixed;dominant-baseline:auto;baseline-shift:baseline;text-anchor:start;white-space:normal;shape-padding:0;shape-margin:0;inline-size:0;clip-rule:nonzero;display:inline;overflow:visible;visibility:visible;opacity:0.2;isolation:auto;mix-blend-mode:normal;color-interpolation:sRGB;color-interpolation-filters:linearRGB;solid-color:#000000;solid-opacity:1;vector-effect:none;fill:#1c1650;fill-opacity:1;fill-rule:nonzero;stroke:none;stroke-width:0.999897;stroke-linecap:round;stroke-linejoin:round;stroke-miterlimit:4;stroke-dasharray:none;stroke-dashoffset:2.1875;stroke-opacity:1;color-rendering:auto;image-rendering:auto;shape-rendering:auto;text-rendering:auto;enable-background:accumulate;stop-color:#000000"
       d="m 2.9099643,1.0583333 c -1.021511,0 -1.851628,0.8319557 -1.851628,1.8531945 v 2.114603 a 0.26461898,0.26454505 0 0 0 0.265626,0.2655358 H 15.611439 a 0.26461898,0.26454505 0 0 0 0.263559,-0.2655358 v -2.114603 c 0,-1.0212388 -0.830117,-1.8531945 -1.851631,-1.8531945 z m 0,0.5295634 H 14.023367 c 0.7375,0 1.322446,0.5863432 1.322446,1.3236311 V 4.7626322 H 1.5875213 V 2.9115278 c 0,-0.7372879 0.584946,-1.3236311 1.322443,-1.3236311 z" />
    <path
       id="rect848-6-3-7-5-9-29-8-7-8-0-9"
       style="fill:#978ee1;fill-opacity:1;stroke-width:1.19063;stroke-linecap:round;stroke-linejoin:round;stroke-dashoffset:2.1875"
       d="m 2.9104173,1.3229165 c -0.879475,0 -1.5875,0.708025 -1.5875,1.5875001 V 5.0270833 H 15.610417 V 2.9104166 c 0,-0.8794751 -0.708025,-1.5875001 -1.5875,-1.5875001 z" />
    <path
       id="rect848-6-3-7-5-6-8-9-4-0-8-3-8-6-1"
       style="fill:url(#linearGradient906);fill-opacity:1;stroke-width:1.19063;stroke-linecap:round;stroke-linejoin:round;stroke-dashoffset:2.1875"
       d="m 2.9104173,1.3229165 c -0.879475,0 -1.5875,0.708025 -1.5875,1.5875001 v 2.1166667 h 0.264583 V 2.9104166 c 0,-0.7328959 0.590021,-1.3229167 1.322917,-1.3229167 H 14.022917 c 0.732896,0 1.322917,0.5900208 1.322917,1.3229167 v 2.1166667 h 0.264583 V 2.9104166 c 0,-0.8794751 -0.708025,-1.5875001 -1.5875,-1.5875001 z" />
    <rect
       style="fill:#211a61;fill-opacity:1;stroke:none;stroke-width:0.529167;stroke-linecap:round;stroke-linejoin:round;stroke-miterlimit:4;stroke-dasharray:none;stroke-dashoffset:2.1875;stroke-opacity:1;paint-order:normal"
       id="rect1239-6-2-8-2-4-2-2"
       width="14.2875"
       height="0.26458335"
       x="1.322917"
       y="4.762464" />
    <rect
       style="fill:#9999a3;fill-opacity:1;stroke:none;stroke-width:0.529167;stroke-linecap:round;stroke-linejoin:round;stroke-miterlimit:4;stroke-dasharray:none;stroke-dashoffset:2.1875;stroke-opacity:1;paint-order:normal"
       id="rect1342-8-9-1-6-4-5-1-8-8-33-9-8-6-6-3-6-7"
       width="3.3514771"
       height="2.1166668"
       x="6.7910585"
       y="9.2604141"
       rx="0.13229167"
       ry="0.13229167" />
    <path
       id="rect1580-4-0-6-3-0"
       style="fill:#43434c;fill-opacity:1;stroke:none;stroke-width:0.529167;stroke-linecap:round;stroke-linejoin:round;stroke-miterlimit:4;stroke-dasharray:none;stroke-dashoffset:2.1875;stroke-opacity:1;paint-order:normal"
       d="m 2.9104143,6.35 c -0.146571,0 -0.264581,0.1180041 -0.264581,0.2645833 v 7.4083337 c 0,0.146579 0.11801,0.264583 0.264581,0.264583 H 14.022915 c 0.146579,0 0.264588,-0.118004 0.264588,-0.264583 V 6.6145833 C 14.287503,6.4680041 14.169494,6.35 14.022915,6.35 Z m 0.264589,0.396875 h 3.08715 c 0.0733,0 0.132292,0.058999 0.132292,0.1322916 V 8.73125 c 0,0.07329 -0.059,0.1322917 -0.132292,0.1322917 h -3.08715 c -0.0733,0 -0.132289,-0.058999 -0.132289,-0.1322917 V 6.8791666 c 0,-0.073289 0.059,-0.1322916 0.132289,-0.1322916 z m 3.74809,0 h 3.0871507 c 0.0733,0 0.132289,0.058999 0.132289,0.1322916 V 8.73125 c 0,0.07329 -0.059,0.1322917 -0.132289,0.1322917 H 6.9230933 c -0.0733,0 -0.132289,-0.058999 -0.132289,-0.1322917 V 6.8791666 c 0,-0.073289 0.059,-0.1322916 0.132289,-0.1322916 z m 3.7480907,0 h 3.08715 c 0.0733,0 0.132292,0.058999 0.132292,0.1322916 V 8.73125 c 0,0.07329 -0.059,0.1322917 -0.132292,0.1322917 h -3.08715 c -0.0733,0 -0.13229,-0.058999 -0.13229,-0.1322917 V 6.8791666 c 0,-0.073289 0.059,-0.1322916 0.13229,-0.1322916 z M 3.1750033,9.2604172 h 3.08715 c 0.0733,0 0.132292,0.059 0.132292,0.132291 v 1.8520838 c 0,0.07329 -0.059,0.132291 -0.132292,0.132291 h -3.08715 c -0.0733,0 -0.132289,-0.059 -0.132289,-0.132291 V 9.3927082 c 0,-0.07329 0.059,-0.132291 0.132289,-0.132291 z m 3.74809,0 h 3.0871507 c 0.0733,0 0.132291,0.059 0.132291,0.132291 v 1.8520838 c 0,0.07329 -0.059,0.132291 -0.132291,0.132291 H 6.9230933 c -0.0733,0 -0.132289,-0.059 -0.132289,-0.132291 V 9.3927082 c 0,-0.07329 0.059,-0.132291 0.132289,-0.132291 z m 3.7480907,0 h 3.08715 c 0.0733,0 0.132292,0.059 0.132292,0.132291 v 1.8520838 c 0,0.07329 -0.059,0.132291 -0.132292,0.132291 h -3.08715 c -0.0733,0 -0.13229,-0.059 -0.13229,-0.132291 V 9.3927082 c 0,-0.07329 0.059,-0.132291 0.13229,-0.132291 z M 3.1750033,11.773958 h 3.08715 c 0.0733,0 0.132292,0.059 0.132292,0.132292 v 1.852083 c 0,0.07329 -0.059,0.132292 -0.132292,0.132292 h -3.08715 c -0.0733,0 -0.132289,-0.059 -0.132289,-0.132292 V 11.90625 c 0,-0.07329 0.059,-0.132292 0.132289,-0.132292 z m 3.74809,0 h 3.0871507 c 0.0733,0 0.132291,0.059 0.132291,0.132292 v 1.852083 c 0,0.07329 -0.059,0.132292 -0.132291,0.132292 H 6.9230933 c -0.0733,0 -0.132289,-0.059 -0.132289,-0.132292 V 11.90625 c 0,-0.07329 0.059,-0.132292 0.132289,-0.132292 z m 3.7480907,0 h 3.08715 c 0.0733,0 0.132292,0.059 0.132292,0.132292 v 1.852083 c 0,0.07329 -0.059,0.132292 -0.132292,0.132292 h -3.08715 c -0.0733,0 -0.13229,-0.059 -0.13229,-0.132292 V 11.90625 c 0,-0.07329 0.059,-0.132292 0.13229,-0.132292 z" />
    <path
       id="rect848-6-3-6-7-0-9-2-0-4-8-4-1-3-9"
       style="color:#000000;font-style:normal;font-variant:normal;font-weight:normal;font-stretch:normal;font-size:medium;line-height:normal;font-family:sans-serif;font-variant-ligatures:normal;font-variant-position:normal;font-variant-caps:normal;font-variant-numeric:normal;font-variant-alternates:normal;font-variant-east-asian:normal;font-feature-settings:normal;font-variation-settings:normal;text-indent:0;text-align:start;text-decoration:none;text-decoration-line:none;text-decoration-style:solid;text-decoration-color:#000000;letter-spacing:normal;word-spacing:normal;text-transform:none;writing-mode:lr-tb;direction:ltr;text-orientation:mixed;dominant-baseline:auto;baseline-shift:baseline;text-anchor:start;white-space:normal;shape-padding:0;shape-margin:0;inline-size:0;clip-rule:nonzero;display:inline;overflow:visible;visibility:visible;opacity:0.2;isolation:auto;mix-blend-mode:normal;color-interpolation:sRGB;color-interpolation-filters:linearRGB;solid-color:#000000;solid-opacity:1;vector-effect:none;fill:#43434c;fill-opacity:1;fill-rule:nonzero;stroke:none;stroke-width:1.00005;stroke-linecap:round;stroke-linejoin:round;stroke-miterlimit:4;stroke-dasharray:none;stroke-dashoffset:2.1875;stroke-opacity:1;paint-order:normal;color-rendering:auto;image-rendering:auto;shape-rendering:auto;text-rendering:auto;enable-background:accumulate;stop-color:#000000"
       d="m 1.3224013,4.7625018 a 0.26460982,0.26463435 0 0 0 -0.264068,0.2640806 v 8.9966536 c 0,1.021583 0.830088,1.851739 1.851568,1.851739 H 14.023436 c 1.021477,0 1.851564,-0.830156 1.851564,-1.851739 V 5.0265824 A 0.26460982,0.26463435 0 0 0 15.609385,4.7625018 Z m 0.265617,0.5297223 H 15.345837 v 8.7310119 c 0,0.737553 -0.584931,1.322546 -1.322401,1.322546 H 2.9099013 c -0.737473,0 -1.321883,-0.584993 -1.321883,-1.322546 z" />
  </g>
</svg>
