<?xml version="1.0" encoding="UTF-8" standalone="no"?>
<svg
   xmlns:dc="http://purl.org/dc/elements/1.1/"
   xmlns:cc="http://creativecommons.org/ns#"
   xmlns:rdf="http://www.w3.org/1999/02/22-rdf-syntax-ns#"
   xmlns:svg="http://www.w3.org/2000/svg"
   xmlns="http://www.w3.org/2000/svg"
   xmlns:xlink="http://www.w3.org/1999/xlink"
   xmlns:sodipodi="http://sodipodi.sourceforge.net/DTD/sodipodi-0.dtd"
   xmlns:inkscape="http://www.inkscape.org/namespaces/inkscape"
   width="64"
   height="64"
   viewBox="0 0 16.933333 16.933334"
   version="1.1"
   id="svg841"
   inkscape:version="1.0.2 (e86c870879, 2021-01-15)"
   sodipodi:docname="preferences-desktop-keyboard-shortcuts.svg">
  <defs
     id="defs835">
    <linearGradient
       inkscape:collect="always"
       xlink:href="#linearGradient3008"
       id="linearGradient5936"
       gradientUnits="userSpaceOnUse"
       x1="8.4666672"
       y1="2.6458337"
       x2="8.4666672"
       y2="14.816668" />
    <linearGradient
       inkscape:collect="always"
       id="linearGradient3008">
      <stop
         style="stop-color:#b7b7bd;stop-opacity:1"
         offset="0"
         id="stop3004" />
      <stop
         style="stop-color:#8f8f95;stop-opacity:1"
         offset="1"
         id="stop3006" />
    </linearGradient>
  </defs>
  <sodipodi:namedview
     id="base"
     pagecolor="#c4c4c4"
     bordercolor="#666666"
     borderopacity="1.0"
     inkscape:pageopacity="0"
     inkscape:pageshadow="2"
     inkscape:zoom="2.5038666"
     inkscape:cx="-5.6034169"
     inkscape:cy="82.712815"
     inkscape:document-units="px"
     inkscape:current-layer="layer1"
     inkscape:document-rotation="0"
     showgrid="false"
     units="px"
     inkscape:window-width="2048"
     inkscape:window-height="1080"
     inkscape:window-x="0"
     inkscape:window-y="0"
     inkscape:window-maximized="1" />
  <metadata
     id="metadata838">
    <rdf:RDF>
      <cc:Work
         rdf:about="">
        <dc:format>image/svg+xml</dc:format>
        <dc:type
           rdf:resource="http://purl.org/dc/dcmitype/StillImage" />
        <dc:title />
      </cc:Work>
    </rdf:RDF>
  </metadata>
  <g
     inkscape:label="Layer 1"
     inkscape:groupmode="layer"
     id="layer1">
    <path
       id="rect1250-0-6-3-7-5-5-1-8"
       style="color:#000000;font-style:normal;font-variant:normal;font-weight:normal;font-stretch:normal;font-size:medium;line-height:normal;font-family:sans-serif;font-variant-ligatures:normal;font-variant-position:normal;font-variant-caps:normal;font-variant-numeric:normal;font-variant-alternates:normal;font-variant-east-asian:normal;font-feature-settings:normal;font-variation-settings:normal;text-indent:0;text-align:start;text-decoration:none;text-decoration-line:none;text-decoration-style:solid;text-decoration-color:#000000;letter-spacing:normal;word-spacing:normal;text-transform:none;writing-mode:lr-tb;direction:ltr;text-orientation:mixed;dominant-baseline:auto;baseline-shift:baseline;text-anchor:start;white-space:normal;shape-padding:0;shape-margin:0;inline-size:0;clip-rule:nonzero;display:inline;overflow:visible;visibility:visible;opacity:0.15;isolation:auto;mix-blend-mode:normal;color-interpolation:sRGB;color-interpolation-filters:linearRGB;solid-color:#000000;solid-opacity:1;vector-effect:none;fill:#0c0c10;fill-opacity:1;fill-rule:nonzero;stroke:none;stroke-width:1.00002;stroke-linecap:round;stroke-linejoin:round;stroke-miterlimit:4;stroke-dasharray:none;stroke-dashoffset:2.1875;stroke-opacity:1;color-rendering:auto;image-rendering:auto;shape-rendering:auto;text-rendering:auto;enable-background:accumulate;stop-color:#000000"
       d="m 1.5875451,2.5135417 c -0.7993434,0 -1.45525343,0.6574367 -1.45525343,1.4567694 V 14.022917 c 0,0.799333 0.65591003,1.455208 1.45525343,1.455208 H 15.345789 c 0.799346,0 1.455253,-0.655875 1.455253,-1.455208 V 3.9703111 c 0,-0.7993327 -0.655907,-1.4567694 -1.455253,-1.4567694 z m 0,0.7947819 H 15.345789 c 0.373324,0 0.661995,0.2886604 0.661995,0.6619875 V 14.022917 c 0,0.373301 -0.288671,0.66249 -0.661995,0.66249 H 1.5875451 c -0.3733245,0 -0.66199554,-0.289189 -0.66199554,-0.66249 V 3.9703111 c 0,-0.3733271 0.28867104,-0.6619875 0.66199554,-0.6619875 z" />
    <path
       id="rect1250-0-6-3-2-5-0-9-7-7"
       style="color:#000000;font-style:normal;font-variant:normal;font-weight:normal;font-stretch:normal;font-size:medium;line-height:normal;font-family:sans-serif;font-variant-ligatures:normal;font-variant-position:normal;font-variant-caps:normal;font-variant-numeric:normal;font-variant-alternates:normal;font-variant-east-asian:normal;font-feature-settings:normal;font-variation-settings:normal;text-indent:0;text-align:start;text-decoration:none;text-decoration-line:none;text-decoration-style:solid;text-decoration-color:#000000;letter-spacing:normal;word-spacing:normal;text-transform:none;writing-mode:lr-tb;direction:ltr;text-orientation:mixed;dominant-baseline:auto;baseline-shift:baseline;text-anchor:start;white-space:normal;shape-padding:0;shape-margin:0;inline-size:0;clip-rule:nonzero;display:inline;overflow:visible;visibility:visible;opacity:0.75;isolation:auto;mix-blend-mode:normal;color-interpolation:sRGB;color-interpolation-filters:linearRGB;solid-color:#000000;solid-opacity:1;vector-effect:none;fill:#494950;fill-opacity:1;fill-rule:nonzero;stroke:none;stroke-width:1.00002;stroke-linecap:round;stroke-linejoin:round;stroke-miterlimit:4;stroke-dasharray:none;stroke-dashoffset:2.1875;stroke-opacity:1;color-rendering:auto;image-rendering:auto;shape-rendering:auto;text-rendering:auto;enable-background:accumulate;stop-color:#000000"
       d="m 1.5875451,1.984375 c -0.7993434,0 -1.45525343,0.6574367 -1.45525343,1.4567695 V 13.49375 c 0,0.799333 0.65591003,1.455209 1.45525343,1.455209 H 15.345789 c 0.799346,0 1.455253,-0.655876 1.455253,-1.455209 V 3.4411445 c 0,-0.7993328 -0.655907,-1.4567695 -1.455253,-1.4567695 z m 0,0.7947819 H 15.345789 c 0.373324,0 0.661995,0.2886605 0.661995,0.6619876 V 13.49375 c 0,0.373301 -0.288671,0.662491 -0.661995,0.662491 H 1.5875451 c -0.3733245,0 -0.66199554,-0.28919 -0.66199554,-0.662491 V 3.4411445 c 0,-0.3733271 0.28867104,-0.6619876 0.66199554,-0.6619876 z" />
    <rect
       style="fill:url(#linearGradient5936);fill-opacity:1;stroke-width:0;stroke-linecap:round;stroke-linejoin:round;stroke-dashoffset:2.1875"
       id="rect1250-3-9-6-7-0"
       width="15.875"
       height="12.170834"
       x="0.5291667"
       y="2.381242"
       rx="1.0583334"
       ry="1.0583334" />
    <path
       id="rect1250-0-6-3-0-6-3-1-1-4"
       style="color:#000000;font-style:normal;font-variant:normal;font-weight:normal;font-stretch:normal;font-size:medium;line-height:normal;font-family:sans-serif;font-variant-ligatures:normal;font-variant-position:normal;font-variant-caps:normal;font-variant-numeric:normal;font-variant-alternates:normal;font-variant-east-asian:normal;font-feature-settings:normal;font-variation-settings:normal;text-indent:0;text-align:start;text-decoration:none;text-decoration-line:none;text-decoration-style:solid;text-decoration-color:#000000;letter-spacing:normal;word-spacing:normal;text-transform:none;writing-mode:lr-tb;direction:ltr;text-orientation:mixed;dominant-baseline:auto;baseline-shift:baseline;text-anchor:start;white-space:normal;shape-padding:0;shape-margin:0;inline-size:0;clip-rule:nonzero;display:inline;overflow:visible;visibility:visible;opacity:0.15;isolation:auto;mix-blend-mode:normal;color-interpolation:sRGB;color-interpolation-filters:linearRGB;solid-color:#000000;solid-opacity:1;vector-effect:none;fill:#313135;fill-opacity:1;fill-rule:nonzero;stroke:none;stroke-width:1.00002;stroke-linecap:round;stroke-linejoin:round;stroke-miterlimit:4;stroke-dasharray:none;stroke-dashoffset:2.1875;stroke-opacity:1;color-rendering:auto;image-rendering:auto;shape-rendering:auto;text-rendering:auto;enable-background:accumulate;stop-color:#000000"
       d="m 1.5875451,1.984375 c -0.7993434,0 -1.45525343,0.6574367 -1.45525343,1.4567695 V 13.49375 c 0,0.799333 0.65591003,1.455209 1.45525343,1.455209 H 15.345789 c 0.799346,0 1.455253,-0.655876 1.455253,-1.455209 V 3.4411445 c 0,-0.7993328 -0.655907,-1.4567695 -1.455253,-1.4567695 z m 0,0.7947819 H 15.345789 c 0.373324,0 0.661995,0.2886605 0.661995,0.6619876 V 13.49375 c 0,0.373301 -0.288671,0.662491 -0.661995,0.662491 H 1.5875451 c -0.3733245,0 -0.66199554,-0.28919 -0.66199554,-0.662491 V 3.4411445 c 0,-0.3733271 0.28867104,-0.6619876 0.66199554,-0.6619876 z" />
    <rect
       style="opacity:0.35;fill:#313135;fill-opacity:1;stroke:none;stroke-width:1.85208;stroke-miterlimit:4;stroke-dasharray:none;stroke-dashoffset:2.1875;stroke-opacity:1"
       id="rect2471-6-6-8-1-6-1-9-7-6-6-4-5-7-1-8"
       width="2.2489583"
       height="2.2489583"
       x="2.9765625"
       y="4.233325"
       rx="0.5291667"
       ry="0.5291667" />
    <rect
       style="opacity:0.35;fill:#313135;fill-opacity:1;stroke:none;stroke-width:1.85208;stroke-miterlimit:4;stroke-dasharray:none;stroke-dashoffset:2.1875;stroke-opacity:1"
       id="rect2471-6-6-8-1-6-1-2-9-1-5-3-2-4-59-0"
       width="2.2489583"
       height="2.2489583"
       x="7.3421879"
       y="4.233325"
       rx="0.5291667"
       ry="0.5291667" />
    <rect
       style="opacity:0.35;fill:#313135;fill-opacity:1;stroke:none;stroke-width:1.85208;stroke-miterlimit:4;stroke-dasharray:none;stroke-dashoffset:2.1875;stroke-opacity:1"
       id="rect2471-6-6-8-1-6-1-2-3-2-5-6-0-1-5-5-7-4"
       width="2.2489583"
       height="2.2489583"
       x="11.707813"
       y="4.233325"
       rx="0.5291667"
       ry="0.5291667" />
    <rect
       style="opacity:0.35;fill:#313135;fill-opacity:1;stroke:none;stroke-width:1.85208;stroke-miterlimit:4;stroke-dasharray:none;stroke-dashoffset:2.1875;stroke-opacity:1"
       id="rect2471-6-7-2-7-2-1-9-3-9-7-7-2-7-2"
       width="12.700001"
       height="1.8520833"
       x="2.1166668"
       y="11.840096"
       rx="0.39687502"
       ry="0.39687502" />
    <rect
       style="opacity:0.35;fill:#313135;fill-opacity:1;stroke:none;stroke-width:1.85208;stroke-miterlimit:4;stroke-dasharray:none;stroke-dashoffset:2.1875;stroke-opacity:1"
       id="rect2471-6-6-8-1-6-1-9-7-6-6-3-8-3-5-6-9"
       width="2.2489583"
       height="2.2489583"
       x="2.9765625"
       y="8.0697832"
       rx="0.5291667"
       ry="0.5291667" />
    <path
       id="rect2471-6-7-2-7-2-1-9-3-9-6-3-9-0-4-6-0"
       style="color:#000000;font-style:normal;font-variant:normal;font-weight:normal;font-stretch:normal;font-size:medium;line-height:normal;font-family:sans-serif;font-variant-ligatures:normal;font-variant-position:normal;font-variant-caps:normal;font-variant-numeric:normal;font-variant-alternates:normal;font-variant-east-asian:normal;font-feature-settings:normal;font-variation-settings:normal;text-indent:0;text-align:start;text-decoration:none;text-decoration-line:none;text-decoration-style:solid;text-decoration-color:#000000;letter-spacing:normal;word-spacing:normal;text-transform:none;writing-mode:lr-tb;direction:ltr;text-orientation:mixed;dominant-baseline:auto;baseline-shift:baseline;text-anchor:start;white-space:normal;shape-padding:0;shape-margin:0;inline-size:0;clip-rule:nonzero;display:inline;overflow:visible;visibility:visible;opacity:0.75;isolation:auto;mix-blend-mode:normal;color-interpolation:sRGB;color-interpolation-filters:linearRGB;solid-color:#000000;solid-opacity:1;vector-effect:none;fill:#3b3b40;fill-opacity:1;fill-rule:nonzero;stroke:none;stroke-width:0.999879;stroke-linecap:round;stroke-linejoin:round;stroke-miterlimit:4;stroke-dasharray:none;stroke-dashoffset:2.1875;stroke-opacity:1;color-rendering:auto;image-rendering:auto;shape-rendering:auto;text-rendering:auto;enable-background:accumulate;stop-color:#000000"
       d="m 2.5135418,11.310938 c -0.2908697,0 -0.5291667,0.23876 -0.5291667,0.529563 v 1.058069 c 0,0.290804 0.238297,0.529035 0.5291667,0.529035 H 14.419795 c 0.290869,0 0.529166,-0.238231 0.529166,-0.529035 v -1.058069 c 0,-0.290803 -0.238297,-0.529563 -0.529166,-0.529563 z m 0,0.263498 H 14.419795 c 0.148867,0 0.263548,0.117237 0.263548,0.266065 v 1.058069 c 0,0.148828 -0.114681,0.263472 -0.263548,0.263472 H 2.5135418 c -0.1488679,0 -0.2656179,-0.114644 -0.2656179,-0.263472 v -1.058069 c 0,-0.148828 0.11675,-0.266065 0.2656179,-0.266065 z" />
    <rect
       style="fill:#fdfcfb;fill-opacity:1;stroke:none;stroke-width:1.85208;stroke-miterlimit:4;stroke-dasharray:none;stroke-dashoffset:2.1875;stroke-opacity:1"
       id="rect2471-6-7-2-7-2-1-9-3-9-6-4-5-4"
       width="12.700001"
       height="1.8520833"
       x="2.1166668"
       y="11.443221"
       rx="0.39687502"
       ry="0.39687502" />
    <rect
       style="opacity:0.35;fill:#313135;fill-opacity:1;stroke:none;stroke-width:1.85208;stroke-miterlimit:4;stroke-dasharray:none;stroke-dashoffset:2.1875;stroke-opacity:1"
       id="rect2471-6-6-8-1-6-1-2-9-1-5-7-6-0-3-63-2"
       width="2.2489583"
       height="2.2489583"
       x="7.3421879"
       y="8.0697832"
       rx="0.5291667"
       ry="0.5291667" />
    <path
       id="rect2471-6-6-8-1-6-1-2-3-2-5-6-09-1-0-65-6-3-2-0-9-2"
       style="color:#000000;font-style:normal;font-variant:normal;font-weight:normal;font-stretch:normal;font-size:medium;line-height:normal;font-family:sans-serif;font-variant-ligatures:normal;font-variant-position:normal;font-variant-caps:normal;font-variant-numeric:normal;font-variant-alternates:normal;font-variant-east-asian:normal;font-feature-settings:normal;font-variation-settings:normal;text-indent:0;text-align:start;text-decoration:none;text-decoration-line:none;text-decoration-style:solid;text-decoration-color:#000000;letter-spacing:normal;word-spacing:normal;text-transform:none;writing-mode:lr-tb;direction:ltr;text-orientation:mixed;dominant-baseline:auto;baseline-shift:baseline;text-anchor:start;white-space:normal;shape-padding:0;shape-margin:0;inline-size:0;clip-rule:nonzero;display:inline;overflow:visible;visibility:visible;opacity:0.75;isolation:auto;mix-blend-mode:normal;color-interpolation:sRGB;color-interpolation-filters:linearRGB;solid-color:#000000;solid-opacity:1;vector-effect:none;fill:#3b3b40;fill-opacity:1;fill-rule:nonzero;stroke:none;stroke-width:1;stroke-linecap:round;stroke-linejoin:round;stroke-miterlimit:4;stroke-dasharray:none;stroke-dashoffset:2.1875;stroke-opacity:1;color-rendering:auto;image-rendering:auto;shape-rendering:auto;text-rendering:auto;enable-background:accumulate;stop-color:#000000"
       d="m 7.6062525,7.5406252 c -0.2175801,0 -0.3963564,0.178779 -0.3963564,0.3963458 v 0.859393 0.595815 c 0,0.364173 0.297815,0.661988 0.6619742,0.661988 h 1.1895905 c 0.3641593,0 0.661977,-0.297815 0.661977,-0.661988 V 8.796364 7.936971 c 0,-0.2175668 -0.178779,-0.3963458 -0.3963591,-0.3963458 z m 0,0.2635515 h 1.7208262 c 0.075578,0 0.1307412,0.057229 0.1307412,0.1327943 v 0.859393 0.595815 c 0,0.222171 -0.1742017,0.396373 -0.3963591,0.396373 H 7.8718703 c -0.2221574,0 -0.3984254,-0.174202 -0.3984254,-0.396373 V 8.796364 7.936971 c 0,-0.075565 0.057229,-0.1327943 0.1328076,-0.1327943 z" />
    <path
       id="rect2471-6-6-8-1-6-1-2-3-2-5-6-09-1-8-7-4-2"
       style="fill:#fdfcfb;fill-opacity:1;stroke:none;stroke-width:1.85208;stroke-miterlimit:4;stroke-dasharray:none;stroke-dashoffset:2.1875;stroke-opacity:1"
       d="m 7.6067711,7.6729169 c -0.1465792,0 -0.2645834,0.1180041 -0.2645834,0.2645833 V 8.797396 9.392709 c 0,0.293158 0.2360084,0.529166 0.5291667,0.529166 h 1.190625 c 0.2931584,0 0.5291667,-0.236008 0.5291667,-0.529166 V 8.797396 7.9375002 c 0,-0.1465792 -0.1180042,-0.2645833 -0.2645833,-0.2645833 z" />
    <path
       id="rect2471-6-6-8-1-6-1-2-3-2-5-6-09-1-2-6-7-2"
       style="fill:#fcc231;fill-opacity:1;stroke:none;stroke-width:1.85208;stroke-miterlimit:4;stroke-dasharray:none;stroke-dashoffset:2.1875;stroke-opacity:1"
       d="m 3.2411459,7.6729169 c -0.1465818,0 -0.2645833,0.1180041 -0.2645833,0.2645833 V 8.797396 9.392709 c 0,0.293158 0.2360083,0.529166 0.5291667,0.529166 h 1.190625 c 0.2931584,0 0.5291667,-0.236008 0.5291667,-0.529166 V 8.797396 7.9375002 c 0,-0.1465792 -0.1180042,-0.2645833 -0.2645833,-0.2645833 z" />
    <rect
       style="opacity:0.35;fill:#313135;fill-opacity:1;stroke:none;stroke-width:1.85208;stroke-miterlimit:4;stroke-dasharray:none;stroke-dashoffset:2.1875;stroke-opacity:1"
       id="rect2471-6-6-8-1-6-1-2-3-2-5-6-4-8-2-8-8-0"
       width="2.2489583"
       height="2.2489583"
       x="11.707813"
       y="8.0697832"
       rx="0.5291667"
       ry="0.5291667" />
    <path
       id="rect2471-6-6-8-1-6-1-2-3-2-5-6-09-1-0-65-6-3-9-6-1-5"
       style="color:#000000;font-style:normal;font-variant:normal;font-weight:normal;font-stretch:normal;font-size:medium;line-height:normal;font-family:sans-serif;font-variant-ligatures:normal;font-variant-position:normal;font-variant-caps:normal;font-variant-numeric:normal;font-variant-alternates:normal;font-variant-east-asian:normal;font-feature-settings:normal;font-variation-settings:normal;text-indent:0;text-align:start;text-decoration:none;text-decoration-line:none;text-decoration-style:solid;text-decoration-color:#000000;letter-spacing:normal;word-spacing:normal;text-transform:none;writing-mode:lr-tb;direction:ltr;text-orientation:mixed;dominant-baseline:auto;baseline-shift:baseline;text-anchor:start;white-space:normal;shape-padding:0;shape-margin:0;inline-size:0;clip-rule:nonzero;display:inline;overflow:visible;visibility:visible;opacity:0.75;isolation:auto;mix-blend-mode:normal;color-interpolation:sRGB;color-interpolation-filters:linearRGB;solid-color:#000000;solid-opacity:1;vector-effect:none;fill:#3b3b40;fill-opacity:1;fill-rule:nonzero;stroke:none;stroke-width:1;stroke-linecap:round;stroke-linejoin:round;stroke-miterlimit:4;stroke-dasharray:none;stroke-dashoffset:2.1875;stroke-opacity:1;color-rendering:auto;image-rendering:auto;shape-rendering:auto;text-rendering:auto;enable-background:accumulate;stop-color:#000000"
       d="m 11.97188,7.5406252 c -0.217583,0 -0.396359,0.178779 -0.396359,0.3963458 v 0.859393 0.595815 c 0,0.364173 0.297815,0.661988 0.661974,0.661988 h 1.189591 c 0.364159,0 0.661977,-0.297815 0.661977,-0.661988 V 8.796364 7.936971 c 0,-0.2175668 -0.178779,-0.3963458 -0.396359,-0.3963458 z m 0,0.2635515 h 1.720824 c 0.07558,0 0.130741,0.057229 0.130741,0.1327943 v 0.859393 0.595815 c 0,0.222171 -0.174202,0.396373 -0.396359,0.396373 h -1.189591 c -0.222157,0 -0.398425,-0.174202 -0.398425,-0.396373 V 8.796364 7.936971 c 0,-0.075565 0.05723,-0.1327943 0.13281,-0.1327943 z" />
    <path
       id="rect2471-6-6-8-1-6-1-2-3-2-5-6-09-1-0-9-8-2-5"
       style="fill:#fdfcfb;fill-opacity:1;stroke:none;stroke-width:1.85208;stroke-miterlimit:4;stroke-dasharray:none;stroke-dashoffset:2.1875;stroke-opacity:1"
       d="m 11.972396,7.6729169 c -0.146579,0 -0.264583,0.1180041 -0.264583,0.2645833 V 8.797396 9.392709 c 0,0.293158 0.236008,0.529166 0.529166,0.529166 h 1.190625 c 0.293159,0 0.529167,-0.236008 0.529167,-0.529166 V 8.797396 7.9375002 c 0,-0.1465792 -0.118004,-0.2645833 -0.264583,-0.2645833 z" />
    <path
       id="rect2471-6-6-8-1-6-1-2-3-2-5-6-09-1-0-65-6-3-84-93-2"
       style="color:#000000;font-style:normal;font-variant:normal;font-weight:normal;font-stretch:normal;font-size:medium;line-height:normal;font-family:sans-serif;font-variant-ligatures:normal;font-variant-position:normal;font-variant-caps:normal;font-variant-numeric:normal;font-variant-alternates:normal;font-variant-east-asian:normal;font-feature-settings:normal;font-variation-settings:normal;text-indent:0;text-align:start;text-decoration:none;text-decoration-line:none;text-decoration-style:solid;text-decoration-color:#000000;letter-spacing:normal;word-spacing:normal;text-transform:none;writing-mode:lr-tb;direction:ltr;text-orientation:mixed;dominant-baseline:auto;baseline-shift:baseline;text-anchor:start;white-space:normal;shape-padding:0;shape-margin:0;inline-size:0;clip-rule:nonzero;display:inline;overflow:visible;visibility:visible;opacity:0.75;isolation:auto;mix-blend-mode:normal;color-interpolation:sRGB;color-interpolation-filters:linearRGB;solid-color:#000000;solid-opacity:1;vector-effect:none;fill:#3b3b40;fill-opacity:1;fill-rule:nonzero;stroke:none;stroke-width:1;stroke-linecap:round;stroke-linejoin:round;stroke-miterlimit:4;stroke-dasharray:none;stroke-dashoffset:2.1875;stroke-opacity:1;color-rendering:auto;image-rendering:auto;shape-rendering:auto;text-rendering:auto;enable-background:accumulate;stop-color:#000000"
       d="m 11.97188,3.7041668 c -0.217583,0 -0.396359,0.1787789 -0.396359,0.3963458 V 4.9599057 5.555721 c 0,0.3641725 0.297815,0.6619875 0.661974,0.6619875 h 1.189591 c 0.364159,0 0.661977,-0.297815 0.661977,-0.6619875 V 4.9599057 4.1005126 c 0,-0.2175669 -0.178779,-0.3963458 -0.396359,-0.3963458 z m 0,0.2635514 h 1.720824 c 0.07558,0 0.130741,0.057229 0.130741,0.1327944 V 4.9599057 5.555721 c 0,0.2221706 -0.174202,0.3963723 -0.396359,0.3963723 h -1.189591 c -0.222157,0 -0.398425,-0.1742017 -0.398425,-0.3963723 V 4.9599057 4.1005126 c 0,-0.075565 0.05723,-0.1327944 0.13281,-0.1327944 z" />
    <path
       id="rect2471-6-6-8-1-6-1-2-3-2-5-6-09-1-0-3-9-9"
       style="fill:#fdfcfb;fill-opacity:1;stroke:none;stroke-width:1.85208;stroke-miterlimit:4;stroke-dasharray:none;stroke-dashoffset:2.1875;stroke-opacity:1"
       d="m 11.972396,3.8364584 c -0.146579,0 -0.264583,0.1180042 -0.264583,0.2645834 v 0.8598958 0.5953125 c 0,0.2931584 0.236008,0.5291667 0.529166,0.5291667 h 1.190625 c 0.293159,0 0.529167,-0.2360083 0.529167,-0.5291667 V 4.9609376 4.1010418 c 0,-0.1465792 -0.118004,-0.2645834 -0.264583,-0.2645834 z" />
    <path
       id="rect2471-6-6-8-1-6-1-2-3-2-5-6-09-1-0-65-6-3-8-9-5-8"
       style="color:#000000;font-style:normal;font-variant:normal;font-weight:normal;font-stretch:normal;font-size:medium;line-height:normal;font-family:sans-serif;font-variant-ligatures:normal;font-variant-position:normal;font-variant-caps:normal;font-variant-numeric:normal;font-variant-alternates:normal;font-variant-east-asian:normal;font-feature-settings:normal;font-variation-settings:normal;text-indent:0;text-align:start;text-decoration:none;text-decoration-line:none;text-decoration-style:solid;text-decoration-color:#000000;letter-spacing:normal;word-spacing:normal;text-transform:none;writing-mode:lr-tb;direction:ltr;text-orientation:mixed;dominant-baseline:auto;baseline-shift:baseline;text-anchor:start;white-space:normal;shape-padding:0;shape-margin:0;inline-size:0;clip-rule:nonzero;display:inline;overflow:visible;visibility:visible;opacity:0.75;isolation:auto;mix-blend-mode:normal;color-interpolation:sRGB;color-interpolation-filters:linearRGB;solid-color:#000000;solid-opacity:1;vector-effect:none;fill:#3b3b40;fill-opacity:1;fill-rule:nonzero;stroke:none;stroke-width:1;stroke-linecap:round;stroke-linejoin:round;stroke-miterlimit:4;stroke-dasharray:none;stroke-dashoffset:2.1875;stroke-opacity:1;color-rendering:auto;image-rendering:auto;shape-rendering:auto;text-rendering:auto;enable-background:accumulate;stop-color:#000000"
       d="m 3.2406274,3.7041668 c -0.2175801,0 -0.3963565,0.1787789 -0.3963565,0.3963458 V 4.9599057 5.555721 c 0,0.3641725 0.297815,0.6619875 0.6619743,0.6619875 h 1.1895905 c 0.3641593,0 0.6619743,-0.297815 0.6619743,-0.6619875 V 4.9599057 4.1005126 c 0,-0.2175669 -0.1787763,-0.3963458 -0.3963564,-0.3963458 z m 0,0.2635514 h 1.7208262 c 0.075578,0 0.1307412,0.057229 0.1307412,0.1327944 V 4.9599057 5.555721 c 0,0.2221706 -0.1742017,0.3963723 -0.3963591,0.3963723 H 3.5062452 c -0.2221574,0 -0.3984254,-0.1742017 -0.3984254,-0.3963723 V 4.9599057 4.1005126 c 0,-0.075565 0.057229,-0.1327944 0.1328076,-0.1327944 z" />
    <path
       id="rect2471-6-6-8-1-6-1-2-3-2-5-6-09-1-0-65-6-3-1-4-6"
       style="color:#000000;font-style:normal;font-variant:normal;font-weight:normal;font-stretch:normal;font-size:medium;line-height:normal;font-family:sans-serif;font-variant-ligatures:normal;font-variant-position:normal;font-variant-caps:normal;font-variant-numeric:normal;font-variant-alternates:normal;font-variant-east-asian:normal;font-feature-settings:normal;font-variation-settings:normal;text-indent:0;text-align:start;text-decoration:none;text-decoration-line:none;text-decoration-style:solid;text-decoration-color:#000000;letter-spacing:normal;word-spacing:normal;text-transform:none;writing-mode:lr-tb;direction:ltr;text-orientation:mixed;dominant-baseline:auto;baseline-shift:baseline;text-anchor:start;white-space:normal;shape-padding:0;shape-margin:0;inline-size:0;clip-rule:nonzero;display:inline;overflow:visible;visibility:visible;opacity:0.75;isolation:auto;mix-blend-mode:normal;color-interpolation:sRGB;color-interpolation-filters:linearRGB;solid-color:#000000;solid-opacity:1;vector-effect:none;fill:#8d6502;fill-opacity:1;fill-rule:nonzero;stroke:none;stroke-width:1;stroke-linecap:round;stroke-linejoin:round;stroke-miterlimit:4;stroke-dasharray:none;stroke-dashoffset:2.1875;stroke-opacity:1;color-rendering:auto;image-rendering:auto;shape-rendering:auto;text-rendering:auto;enable-background:accumulate;stop-color:#000000"
       d="m 3.2406274,7.5406252 c -0.2175801,0 -0.3963565,0.1787763 -0.3963565,0.3963591 V 8.796362 9.392193 c 0,0.364159 0.297815,0.661974 0.6619743,0.661974 h 1.1895905 c 0.3641593,0 0.6619743,-0.297815 0.6619743,-0.661974 V 8.796362 7.9369843 c 0,-0.2175828 -0.1787763,-0.3963591 -0.3963564,-0.3963591 z m 0,0.2635515 h 1.7208262 c 0.075578,0 0.1307412,0.057229 0.1307412,0.1328076 V 8.796362 9.392193 c 0,0.222154 -0.1742017,0.396359 -0.3963591,0.396359 H 3.5062452 c -0.2221574,0 -0.3984254,-0.174205 -0.3984254,-0.396359 V 8.796362 7.9369843 c 0,-0.075581 0.057229,-0.1328076 0.1328076,-0.1328076 z" />
    <path
       id="rect2471-6-6-8-1-6-1-2-3-2-5-6-09-1-0-71-2-0-3"
       style="fill:#fdfcfb;fill-opacity:1;stroke:none;stroke-width:1.85208;stroke-miterlimit:4;stroke-dasharray:none;stroke-dashoffset:2.1875;stroke-opacity:1"
       d="m 3.2411459,3.8364584 c -0.1465791,0 -0.2645833,0.1180042 -0.2645833,0.2645834 v 0.8598958 0.5953125 c 0,0.2931584 0.2360083,0.5291667 0.5291667,0.5291667 h 1.190625 c 0.2931584,0 0.5291667,-0.2360083 0.5291667,-0.5291667 V 4.9609376 4.1010418 c 0,-0.1465792 -0.1180042,-0.2645834 -0.2645833,-0.2645834 z" />
    <path
       id="rect2471-6-6-8-1-6-1-2-3-2-5-6-09-1-0-7-4-9"
       style="fill:#fcc231;fill-opacity:1;stroke:none;stroke-width:1.85208;stroke-miterlimit:4;stroke-dasharray:none;stroke-dashoffset:2.1875;stroke-opacity:1"
       d="m 7.6067711,3.8364584 c -0.1465792,0 -0.2645834,0.1180042 -0.2645834,0.2645834 v 0.8598958 0.5953125 c 0,0.2931584 0.2360084,0.5291667 0.5291667,0.5291667 h 1.190625 c 0.2931584,0 0.5291667,-0.2360083 0.5291667,-0.5291667 V 4.9609376 4.1010418 c 0,-0.1465792 -0.1180042,-0.2645834 -0.2645833,-0.2645834 z" />
    <path
       id="rect2471-6-6-8-1-6-1-2-3-2-5-6-09-1-0-65-6-3-4-1-9"
       style="color:#000000;font-style:normal;font-variant:normal;font-weight:normal;font-stretch:normal;font-size:medium;line-height:normal;font-family:sans-serif;font-variant-ligatures:normal;font-variant-position:normal;font-variant-caps:normal;font-variant-numeric:normal;font-variant-alternates:normal;font-variant-east-asian:normal;font-feature-settings:normal;font-variation-settings:normal;text-indent:0;text-align:start;text-decoration:none;text-decoration-line:none;text-decoration-style:solid;text-decoration-color:#000000;letter-spacing:normal;word-spacing:normal;text-transform:none;writing-mode:lr-tb;direction:ltr;text-orientation:mixed;dominant-baseline:auto;baseline-shift:baseline;text-anchor:start;white-space:normal;shape-padding:0;shape-margin:0;inline-size:0;clip-rule:nonzero;display:inline;overflow:visible;visibility:visible;opacity:0.75;isolation:auto;mix-blend-mode:normal;color-interpolation:sRGB;color-interpolation-filters:linearRGB;solid-color:#000000;solid-opacity:1;vector-effect:none;fill:#8d6502;fill-opacity:1;fill-rule:nonzero;stroke:none;stroke-width:1;stroke-linecap:round;stroke-linejoin:round;stroke-miterlimit:4;stroke-dasharray:none;stroke-dashoffset:2.1875;stroke-opacity:1;color-rendering:auto;image-rendering:auto;shape-rendering:auto;text-rendering:auto;enable-background:accumulate;stop-color:#000000"
       d="m 7.6062525,3.7041668 c -0.2175801,0 -0.3963564,0.1787789 -0.3963564,0.396359 v 0.8593799 0.5958285 c 0,0.3641593 0.297815,0.6619743 0.6619742,0.6619743 h 1.1895905 c 0.3641593,0 0.661977,-0.297815 0.661977,-0.6619743 V 4.9599057 4.1005258 c 0,-0.2175801 -0.1787763,-0.396359 -0.3963591,-0.396359 z m 0,0.2635514 h 1.7208262 c 0.075578,0 0.1307412,0.057229 0.1307412,0.1328076 v 0.8593799 0.5958285 c 0,0.2221574 -0.1742017,0.3963591 -0.3963591,0.3963591 H 7.8718703 c -0.2221574,0 -0.3984254,-0.1742017 -0.3984254,-0.3963591 V 4.9599057 4.1005258 c 0,-0.075581 0.057229,-0.1328076 0.1328076,-0.1328076 z" />
  </g>
</svg>
