<?xml version="1.0" encoding="UTF-8" standalone="no"?>
<svg
   xmlns:dc="http://purl.org/dc/elements/1.1/"
   xmlns:cc="http://creativecommons.org/ns#"
   xmlns:rdf="http://www.w3.org/1999/02/22-rdf-syntax-ns#"
   xmlns:svg="http://www.w3.org/2000/svg"
   xmlns="http://www.w3.org/2000/svg"
   xmlns:sodipodi="http://sodipodi.sourceforge.net/DTD/sodipodi-0.dtd"
   xmlns:inkscape="http://www.inkscape.org/namespaces/inkscape"
   width="64"
   height="64"
   viewBox="0 0 64 64"
   version="1.1"
   id="svg6374"
   inkscape:version="1.0.2 (e86c870879, 2021-01-15)"
   sodipodi:docname="text-xml.svg">
  <defs
     id="defs6368" />
  <sodipodi:namedview
     id="base"
     pagecolor="#cecece"
     bordercolor="#666666"
     borderopacity="1.0"
     inkscape:pageopacity="0"
     inkscape:pageshadow="2"
     inkscape:zoom="4.7026109"
     inkscape:cx="27.356907"
     inkscape:cy="95.335851"
     inkscape:document-units="px"
     inkscape:current-layer="layer1"
     inkscape:document-rotation="0"
     showgrid="false"
     units="px"
     inkscape:window-width="1024"
     inkscape:window-height="1080"
     inkscape:window-x="68"
     inkscape:window-y="56"
     inkscape:window-maximized="0" />
  <metadata
     id="metadata6371">
    <rdf:RDF>
      <cc:Work
         rdf:about="">
        <dc:format>image/svg+xml</dc:format>
        <dc:type
           rdf:resource="http://purl.org/dc/dcmitype/StillImage" />
        <dc:title />
      </cc:Work>
    </rdf:RDF>
  </metadata>
  <g
     inkscape:label="Layer 1"
     inkscape:groupmode="layer"
     id="layer1">
    <path
       id="rect954-7-0-7-3-0-0-0-6-3-3-2"
       style="color:#000000;font-style:normal;font-variant:normal;font-weight:normal;font-stretch:normal;font-size:medium;line-height:normal;font-family:sans-serif;font-variant-ligatures:normal;font-variant-position:normal;font-variant-caps:normal;font-variant-numeric:normal;font-variant-alternates:normal;font-variant-east-asian:normal;font-feature-settings:normal;font-variation-settings:normal;text-indent:0;text-align:start;text-decoration:none;text-decoration-line:none;text-decoration-style:solid;text-decoration-color:#000000;letter-spacing:normal;word-spacing:normal;text-transform:none;writing-mode:lr-tb;direction:ltr;text-orientation:mixed;dominant-baseline:auto;baseline-shift:baseline;text-anchor:start;white-space:normal;shape-padding:0;shape-margin:0;inline-size:0;clip-rule:nonzero;display:inline;overflow:visible;visibility:visible;opacity:0.85;isolation:auto;mix-blend-mode:normal;color-interpolation:sRGB;color-interpolation-filters:linearRGB;solid-color:#000000;solid-opacity:1;vector-effect:none;fill:#69696d;fill-opacity:1;fill-rule:nonzero;stroke:none;stroke-linecap:round;stroke-linejoin:round;stroke-miterlimit:4;stroke-dasharray:none;stroke-dashoffset:2.1875;stroke-opacity:1;color-rendering:auto;image-rendering:auto;shape-rendering:auto;text-rendering:auto;enable-background:accumulate;stop-color:#000000"
       d="M 13,2.5 C 10.53295,2.5 8.5,4.53295 8.5,7 v 49.99999 c 0,2.46706 2.03295,4.5 4.5,4.5 h 38 c 2.467,0 4.5,-2.03294 4.5,-4.5 V 7 C 55.5,4.53295 53.467,2.5 51,2.5 Z m 0,3 h 38 c 0.8569,0 1.5,0.64306 1.5,1.5 v 49.99999 c 0,0.85695 -0.6431,1.5 -1.5,1.5 H 13 c -0.85695,0 -1.5,-0.64305 -1.5,-1.5 V 7 c 0,-0.85694 0.64305,-1.5 1.5,-1.5 z" />
    <rect
       style="fill:#fcfcfa;fill-opacity:1;stroke-width:0.495;stroke-linecap:round;stroke-linejoin:round;stroke-miterlimit:4;stroke-dasharray:none;stroke-dashoffset:2.1875"
       id="rect954-7-0-7-3-0"
       width="44"
       height="56"
       x="10"
       y="4"
       rx="3"
       ry="3" />
    <path
       id="rect933-3-4-0-8-1"
       style="color:#000000;font-style:normal;font-variant:normal;font-weight:normal;font-stretch:normal;font-size:medium;line-height:normal;font-family:sans-serif;font-variant-ligatures:normal;font-variant-position:normal;font-variant-caps:normal;font-variant-numeric:normal;font-variant-alternates:normal;font-variant-east-asian:normal;font-feature-settings:normal;font-variation-settings:normal;text-indent:0;text-align:start;text-decoration:none;text-decoration-line:none;text-decoration-style:solid;text-decoration-color:#000000;letter-spacing:normal;word-spacing:normal;text-transform:none;writing-mode:lr-tb;direction:ltr;text-orientation:mixed;dominant-baseline:auto;baseline-shift:baseline;text-anchor:start;white-space:normal;shape-padding:0;shape-margin:0;inline-size:0;clip-rule:nonzero;display:inline;overflow:visible;visibility:visible;opacity:0.4;isolation:auto;mix-blend-mode:normal;color-interpolation:sRGB;color-interpolation-filters:linearRGB;solid-color:#000000;solid-opacity:1;vector-effect:none;fill:#0c0c0c;fill-opacity:1;fill-rule:nonzero;stroke:none;stroke-width:0.99997;stroke-linecap:round;stroke-linejoin:round;stroke-miterlimit:4;stroke-dasharray:none;stroke-dashoffset:0;stroke-opacity:1;color-rendering:auto;image-rendering:auto;shape-rendering:auto;text-rendering:auto;enable-background:accumulate;stop-color:#000000"
       d="m 13.32573,28.5 a 0.50001979,0.50005 0 0 0 -0.41014,0.78516 L 16.89777,35 12.91559,40.7129 A 0.50001979,0.50005 0 0 0 13.32573,41.5 h 3.14238 a 0.50001979,0.50005 0 0 0 0.41014,-0.21483 l 2.19908,-3.15626 2.19909,3.15626 A 0.50001979,0.50005 0 0 0 21.68654,41.5 h 3.14239 a 0.50001979,0.50005 0 0 0 0.41014,-0.7871 L 21.25884,35 25.23907,29.28516 A 0.50001979,0.50005 0 0 0 24.82893,28.5 h -3.14239 a 0.50001979,0.50005 0 0 0 -0.41012,0.21289 l -2.19909,3.15625 -2.19908,-3.15625 A 0.50001979,0.50005 0 0 0 16.46811,28.5 Z m 13.16131,0 A 0.50001979,0.50005 0 0 0 25.98707,29 v 12 a 0.50001979,0.50005 0 0 0 0.49997,0.5 H 29.0611 A 0.50001979,0.50005 0 0 0 29.56107,41 v -5.5957 l 2.08776,5.76563 a 0.50001979,0.50005 0 0 0 0.47068,0.33008 h 0.008 2.73031 0.01 A 0.50001979,0.50005 0 0 0 35.3385,41.16993 L 37.42626,35.4043 V 41 a 0.50001979,0.50005 0 0 0 0.49997,0.5 H 40.5003 A 0.50001979,0.50005 0 0 0 41.00027,41 V 29 A 0.50001979,0.50005 0 0 0 40.5003,28.5 h -1.28703 -1.28704 -1.45304 a 0.50001979,0.50005 0 0 0 -0.47067,0.32813 L 33.4929,35.76172 30.98329,28.82813 A 0.50001979,0.50005 0 0 0 30.51262,28.5 H 29.06153 27.7745 Z m 16.31347,0 A 0.50001979,0.50005 0 0 0 42.30054,29 v 4.02149 2.58789 2.80273 V 41 a 0.50001979,0.50005 0 0 0 0.49997,0.5 h 2.57601 5.29851 A 0.50001979,0.50005 0 0 0 51.175,41 v -2.58789 a 0.50001979,0.50005 0 0 0 -0.49997,-0.5 H 45.87649 V 35.60938 33.02149 30.66602 29 a 0.50001979,0.50005 0 0 0 -0.49997,-0.5 z m -28.51586,1 h 1.92372 l 2.45883,3.5293 a 0.50001979,0.50005 0 0 0 0.82027,0 L 21.9463,29.5 h 1.92371 l -3.63259,5.21289 a 0.50001979,0.50005 0 0 0 0,0.57227 L 23.87196,40.5 H 21.9463 l -2.45883,-3.53125 a 0.50001979,0.50005 0 0 0 -0.82027,0 L 16.20837,40.5 H 14.2827 l 3.63454,-5.21484 a 0.50001979,0.50005 0 0 0 0,-0.57227 z m 12.70236,0 h 0.78706 1.28703 1.1015 l 2.86115,7.90039 a 0.50001979,0.50005 0 0 0 0.9394,0 L 36.82431,29.5 h 1.10149 1.28704 0.78706 v 11 H 38.42577 V 32.55274 A 0.50001979,0.50005 0 0 0 37.45512,32.38281 L 34.51585,40.5 H 32.4691 l -2.93928,-8.11719 a 0.50001979,0.50005 0 0 0 -0.96869,0.16993 V 40.5 h -1.57412 z m 16.31347,0 h 1.57607 v 1.16602 2.35547 2.58789 2.80273 a 0.50001979,0.50005 0 0 0 0.49997,0.5 h 4.79854 V 40.5 h -4.79854 -2.07604 v -2.08789 -2.80273 -2.58789 z" />
    <path
       id="rect933-3-4-0-8"
       style="color:#000000;font-style:normal;font-variant:normal;font-weight:normal;font-stretch:normal;font-size:medium;line-height:normal;font-family:sans-serif;font-variant-ligatures:normal;font-variant-position:normal;font-variant-caps:normal;font-variant-numeric:normal;font-variant-alternates:normal;font-variant-east-asian:normal;font-feature-settings:normal;font-variation-settings:normal;text-indent:0;text-align:start;text-decoration:none;text-decoration-line:none;text-decoration-style:solid;text-decoration-color:#000000;letter-spacing:normal;word-spacing:normal;text-transform:none;writing-mode:lr-tb;direction:ltr;text-orientation:mixed;dominant-baseline:auto;baseline-shift:baseline;text-anchor:start;white-space:normal;shape-padding:0;shape-margin:0;inline-size:0;clip-rule:nonzero;display:inline;overflow:visible;visibility:visible;opacity:0.85;isolation:auto;mix-blend-mode:normal;color-interpolation:sRGB;color-interpolation-filters:linearRGB;solid-color:#000000;solid-opacity:1;vector-effect:none;fill:#84470b;fill-opacity:1;fill-rule:nonzero;stroke:none;stroke-width:0.99997;stroke-linecap:round;stroke-linejoin:round;stroke-miterlimit:4;stroke-dasharray:none;stroke-dashoffset:0;stroke-opacity:1;color-rendering:auto;image-rendering:auto;shape-rendering:auto;text-rendering:auto;enable-background:accumulate;stop-color:#000000"
       d="m 13.32573,27.75 a 0.50001979,0.50005 0 0 0 -0.41014,0.78516 l 3.98218,5.71484 -3.98218,5.7129 a 0.50001979,0.50005 0 0 0 0.41014,0.7871 h 3.14238 a 0.50001979,0.50005 0 0 0 0.41014,-0.21483 l 2.19908,-3.15626 2.19909,3.15626 A 0.50001979,0.50005 0 0 0 21.68654,40.75 h 3.14239 a 0.50001979,0.50005 0 0 0 0.41014,-0.7871 L 21.25884,34.25 25.23907,28.53516 A 0.50001979,0.50005 0 0 0 24.82893,27.75 h -3.14239 a 0.50001979,0.50005 0 0 0 -0.41012,0.21289 l -2.19909,3.15625 -2.19908,-3.15625 A 0.50001979,0.50005 0 0 0 16.46811,27.75 Z m 13.16131,0 a 0.50001979,0.50005 0 0 0 -0.49997,0.5 v 12 a 0.50001979,0.50005 0 0 0 0.49997,0.5 h 2.57406 a 0.50001979,0.50005 0 0 0 0.49997,-0.5 v -5.5957 l 2.08776,5.76563 a 0.50001979,0.50005 0 0 0 0.47068,0.33008 h 0.008 2.73031 0.01 A 0.50001979,0.50005 0 0 0 35.3385,40.41993 L 37.42626,34.6543 V 40.25 a 0.50001979,0.50005 0 0 0 0.49997,0.5 h 2.57407 a 0.50001979,0.50005 0 0 0 0.49997,-0.5 v -12 a 0.50001979,0.50005 0 0 0 -0.49997,-0.5 h -1.28703 -1.28704 -1.45304 a 0.50001979,0.50005 0 0 0 -0.47067,0.32813 L 33.4929,35.01172 30.98329,28.07813 A 0.50001979,0.50005 0 0 0 30.51262,27.75 H 29.06153 27.7745 Z m 16.31347,0 a 0.50001979,0.50005 0 0 0 -0.49997,0.5 v 4.02149 2.58789 2.80273 2.58789 a 0.50001979,0.50005 0 0 0 0.49997,0.5 h 2.57601 5.29851 a 0.50001979,0.50005 0 0 0 0.49997,-0.5 v -2.58789 a 0.50001979,0.50005 0 0 0 -0.49997,-0.5 H 45.87649 V 34.85938 32.27149 29.91602 28.25 a 0.50001979,0.50005 0 0 0 -0.49997,-0.5 z m -28.51586,1 h 1.92372 l 2.45883,3.5293 a 0.50001979,0.50005 0 0 0 0.82027,0 L 21.9463,28.75 h 1.92371 l -3.63259,5.21289 a 0.50001979,0.50005 0 0 0 0,0.57227 L 23.87196,39.75 H 21.9463 l -2.45883,-3.53125 a 0.50001979,0.50005 0 0 0 -0.82027,0 L 16.20837,39.75 H 14.2827 l 3.63454,-5.21484 a 0.50001979,0.50005 0 0 0 0,-0.57227 z m 12.70236,0 h 0.78706 1.28703 1.1015 l 2.86115,7.90039 a 0.50001979,0.50005 0 0 0 0.9394,0 L 36.82431,28.75 h 1.10149 1.28704 0.78706 v 11 H 38.42577 V 31.80274 A 0.50001979,0.50005 0 0 0 37.45512,31.63281 L 34.51585,39.75 H 32.4691 l -2.93928,-8.11719 a 0.50001979,0.50005 0 0 0 -0.96869,0.16993 V 39.75 h -1.57412 z m 16.31347,0 h 1.57607 v 1.16602 2.35547 2.58789 2.80273 a 0.50001979,0.50005 0 0 0 0.49997,0.5 h 4.79854 V 39.75 h -4.79854 -2.07604 v -2.08789 -2.80273 -2.58789 z" />
    <path
       id="rect933-3-4"
       style="fill:#ee8d2c;fill-opacity:1;stroke:none;stroke-width:0.841137;stroke-linecap:round;stroke-linejoin:round;stroke-miterlimit:4;stroke-dasharray:none"
       d="M 13.325,28.25 17.50528,34.25048 13.325,40.25 h 3.14244 l 2.60881,-3.74472 2.60883,3.74472 h 3.14246 L 20.64773,34.25048 24.82754,28.25 H 21.68508 L 19.07625,31.99474 16.46744,28.25 Z m 13.16068,0 v 12 h 2.57462 v -8.4455 l 3.05866,8.4455 h 0.009 2.72924 0.0101 l 3.05864,-8.4455 V 40.25 h 2.57415 v -12 H 39.21325 37.92594 36.47296 L 33.4933,36.48058 30.51219,28.25 h -1.452 -1.28731 z m 16.31613,0 v 4.02211 2.58733 2.80324 V 40.25 H 45.37644 50.675 V 37.66268 H 45.37644 V 34.85944 32.27211 29.91713 28.25 Z" />
  </g>
</svg>
