<?xml version="1.0" encoding="UTF-8" standalone="no"?>
<svg
   xmlns:dc="http://purl.org/dc/elements/1.1/"
   xmlns:cc="http://creativecommons.org/ns#"
   xmlns:rdf="http://www.w3.org/1999/02/22-rdf-syntax-ns#"
   xmlns:svg="http://www.w3.org/2000/svg"
   xmlns="http://www.w3.org/2000/svg"
   xmlns:xlink="http://www.w3.org/1999/xlink"
   xmlns:sodipodi="http://sodipodi.sourceforge.net/DTD/sodipodi-0.dtd"
   xmlns:inkscape="http://www.inkscape.org/namespaces/inkscape"
   width="64"
   height="64"
   viewBox="0 0 64 64"
   version="1.1"
   id="svg6374"
   inkscape:version="1.0.2 (e86c870879, 2021-01-15)"
   sodipodi:docname="text-x-csrc.svg">
  <defs
     id="defs6368">
    <linearGradient
       inkscape:collect="always"
       xlink:href="#linearGradient5153"
       id="linearGradient5219"
       gradientUnits="userSpaceOnUse"
       x1="509.81665"
       y1="3.8460948"
       x2="554.40594"
       y2="60.320145"
       gradientTransform="translate(-500)" />
    <linearGradient
       inkscape:collect="always"
       id="linearGradient5153">
      <stop
         style="stop-color:#797984;stop-opacity:1;"
         offset="0"
         id="stop5149" />
      <stop
         style="stop-color:#bbbbcc;stop-opacity:1"
         offset="1"
         id="stop5151" />
    </linearGradient>
  </defs>
  <sodipodi:namedview
     id="base"
     pagecolor="#cecece"
     bordercolor="#666666"
     borderopacity="1.0"
     inkscape:pageopacity="0"
     inkscape:pageshadow="2"
     inkscape:zoom="3.3076217"
     inkscape:cx="-44.062776"
     inkscape:cy="34.020616"
     inkscape:document-units="px"
     inkscape:current-layer="layer1"
     inkscape:document-rotation="0"
     showgrid="false"
     units="px"
     inkscape:window-width="2048"
     inkscape:window-height="1080"
     inkscape:window-x="0"
     inkscape:window-y="0"
     inkscape:window-maximized="1" />
  <metadata
     id="metadata6371">
    <rdf:RDF>
      <cc:Work
         rdf:about="">
        <dc:format>image/svg+xml</dc:format>
        <dc:type
           rdf:resource="http://purl.org/dc/dcmitype/StillImage" />
        <dc:title></dc:title>
      </cc:Work>
    </rdf:RDF>
  </metadata>
  <g
     inkscape:label="Layer 1"
     inkscape:groupmode="layer"
     id="layer1">
    <rect
       style="opacity:0.45;fill:#0c0c0c;fill-opacity:1;stroke-width:0.495;stroke-linecap:round;stroke-linejoin:round;stroke-miterlimit:4;stroke-dasharray:none;stroke-dashoffset:2.1875"
       id="rect954-6-3-2-2-6-9-7-4-7-3"
       width="44"
       height="56"
       x="10"
       y="5.5000005"
       rx="3"
       ry="3" />
    <path
       id="rect954-60-6-7-3-1-0-4-1-4"
       style="color:#000000;font-style:normal;font-variant:normal;font-weight:normal;font-stretch:normal;font-size:medium;line-height:normal;font-family:sans-serif;font-variant-ligatures:normal;font-variant-position:normal;font-variant-caps:normal;font-variant-numeric:normal;font-variant-alternates:normal;font-variant-east-asian:normal;font-feature-settings:normal;font-variation-settings:normal;text-indent:0;text-align:start;text-decoration:none;text-decoration-line:none;text-decoration-style:solid;text-decoration-color:#000000;letter-spacing:normal;word-spacing:normal;text-transform:none;writing-mode:lr-tb;direction:ltr;text-orientation:mixed;dominant-baseline:auto;baseline-shift:baseline;text-anchor:start;white-space:normal;shape-padding:0;shape-margin:0;inline-size:0;clip-rule:nonzero;display:inline;overflow:visible;visibility:visible;opacity:0.8;isolation:auto;mix-blend-mode:normal;color-interpolation:sRGB;color-interpolation-filters:linearRGB;solid-color:#000000;solid-opacity:1;vector-effect:none;fill:url(#linearGradient5219);fill-opacity:1;fill-rule:nonzero;stroke:none;stroke-linecap:round;stroke-linejoin:round;stroke-miterlimit:4;stroke-dasharray:none;stroke-dashoffset:2.1875;stroke-opacity:1;color-rendering:auto;image-rendering:auto;shape-rendering:auto;text-rendering:auto;enable-background:accumulate;stop-color:#000000"
       d="M 13,3.5 C 11.0696,3.5 9.5,5.06965 9.5,7 v 50 c 0,1.93035 1.5696,3.5 3.5,3.5 h 38 c 1.9304,0 3.5,-1.56965 3.5,-3.5 V 7 C 54.5,5.06965 52.9304,3.5 51,3.5 Z m 0,1 h 38 c 1.3936,0 2.5,1.10635 2.5,2.5 v 50 c 0,1.39365 -1.1064,2.5 -2.5,2.5 H 13 c -1.3936,0 -2.5,-1.10635 -2.5,-2.5 V 7 c 0,-1.39365 1.1064,-2.5 2.5,-2.5 z" />
    <path
       id="rect954-7-0-7-9-8-4-9-9"
       style="fill:#bbbbcc;fill-opacity:1;stroke-width:0.495;stroke-linecap:round;stroke-linejoin:round;stroke-miterlimit:4;stroke-dasharray:none;stroke-dashoffset:2.1875"
       d="m 52.81575,4.6246 c 0.7149,0.54739 1.18191,1.40189 1.18191,2.37586 l -0.001,49.99992 c 1e-5,1.662 -1.33608,3.00049 -2.99809,3.00049 l -38.00082,-0.002 c -0.68735,0 -1.31104,-0.23664 -1.81583,-0.6226 z" />
    <path
       id="rect954-7-0-7-9-8-4-1-4-0"
       style="fill:#797984;fill-opacity:1;stroke-width:0.495;stroke-linecap:round;stroke-linejoin:round;stroke-miterlimit:4;stroke-dasharray:none;stroke-dashoffset:2.1875"
       d="M 11.18192,59.37627 C 10.46701,58.82888 10,57.97438 10,57.00041 L 10.001,7.00049 C 10.001,5.33849 11.33709,4 12.99909,4 l 38.00082,0.002 c 0.68735,0 1.31105,0.23664 1.81583,0.6226 z" />
    <path
       id="path169-8-7-5-1-7"
       style="color:#000000;font-style:normal;font-variant:normal;font-weight:normal;font-stretch:normal;font-size:medium;line-height:normal;font-family:sans-serif;font-variant-ligatures:normal;font-variant-position:normal;font-variant-caps:normal;font-variant-numeric:normal;font-variant-alternates:normal;font-variant-east-asian:normal;font-feature-settings:normal;font-variation-settings:normal;text-indent:0;text-align:start;text-decoration:none;text-decoration-line:none;text-decoration-style:solid;text-decoration-color:#000000;letter-spacing:normal;word-spacing:normal;text-transform:none;writing-mode:lr-tb;direction:ltr;text-orientation:mixed;dominant-baseline:auto;baseline-shift:baseline;text-anchor:start;white-space:normal;shape-padding:0;shape-margin:0;inline-size:0;clip-rule:nonzero;display:inline;overflow:visible;visibility:visible;opacity:0.25;isolation:auto;mix-blend-mode:normal;color-interpolation:sRGB;color-interpolation-filters:linearRGB;solid-color:#000000;solid-opacity:1;vector-effect:none;fill:#0c0c10;fill-opacity:1;fill-rule:nonzero;stroke:none;stroke-width:0.247891;stroke-linecap:round;stroke-linejoin:round;stroke-miterlimit:4;stroke-dasharray:none;stroke-dashoffset:0;stroke-opacity:1;color-rendering:auto;image-rendering:auto;shape-rendering:auto;text-rendering:auto;enable-background:accumulate;stop-color:#000000"
       d="m 31.92738,18.25059 c -0.44868,-0.004 -0.89841,0.0123 -1.34572,0.0488 -3.57704,0.29237 -7.05177,1.87995 -9.64374,4.69575 -5.18389,5.63155 -5.18389,14.37957 0,20.01112 5.1839,5.63155 13.89171,6.34358 19.91913,1.62838 a 0.50074332,0.50138875 0 0 0 0.0863,-0.7029 l -3.65857,-4.68989 a 0.50074332,0.50138875 0 0 0 -0.70227,-0.0879 c -3.22794,2.52516 -7.7602,2.15675 -10.53632,-0.8591 -2.77616,-3.01591 -2.77616,-7.56857 0,-10.58447 2.77617,-3.01592 7.30845,-3.38618 10.53632,-0.86106 a 0.50074332,0.50138875 0 0 0 0.70227,-0.0879 l 3.65857,-4.68989 a 0.50074332,0.50138875 0 0 0 -0.0863,-0.70485 C 38.2201,19.30382 35.06965,18.27844 31.92739,18.2505 Z m -0.01,1.00359 c 2.7711,0.0246 5.53127,0.90918 7.9037,2.62805 l -3.04653,3.90499 c -3.59502,-2.49835 -8.46169,-2.01803 -11.46418,1.24373 -3.11839,3.38767 -3.11839,8.55575 0,11.94342 3.00238,3.26164 7.86927,3.73973 11.46418,1.24179 l 3.05634,3.91865 c -5.59934,4.05921 -13.4381,3.3209 -18.15752,-1.80606 -4.83377,-5.25118 -4.83377,-13.40295 0,-18.65413 2.41674,-2.62544 5.65387,-4.10271 8.99049,-4.37554 0.4169,-0.0341 0.83461,-0.0486 1.25352,-0.0449 z" />
    <path
       id="path169-8-7-5-4"
       style="color:#000000;font-style:normal;font-variant:normal;font-weight:normal;font-stretch:normal;font-size:medium;line-height:normal;font-family:sans-serif;font-variant-ligatures:normal;font-variant-position:normal;font-variant-caps:normal;font-variant-numeric:normal;font-variant-alternates:normal;font-variant-east-asian:normal;font-feature-settings:normal;font-variation-settings:normal;text-indent:0;text-align:start;text-decoration:none;text-decoration-line:none;text-decoration-style:solid;text-decoration-color:#000000;letter-spacing:normal;word-spacing:normal;text-transform:none;writing-mode:lr-tb;direction:ltr;text-orientation:mixed;dominant-baseline:auto;baseline-shift:baseline;text-anchor:start;white-space:normal;shape-padding:0;shape-margin:0;inline-size:0;clip-rule:nonzero;display:inline;overflow:visible;visibility:visible;isolation:auto;mix-blend-mode:normal;color-interpolation:sRGB;color-interpolation-filters:linearRGB;solid-color:#000000;solid-opacity:1;vector-effect:none;fill:#fdfdfb;fill-opacity:1;fill-rule:nonzero;stroke:none;stroke-width:0.247891;stroke-linecap:round;stroke-linejoin:round;stroke-miterlimit:4;stroke-dasharray:none;stroke-dashoffset:0;stroke-opacity:1;color-rendering:auto;image-rendering:auto;shape-rendering:auto;text-rendering:auto;enable-background:accumulate;stop-color:#000000"
       d="m 31.92738,17.25059 c -0.44868,-0.004 -0.89841,0.0123 -1.34572,0.0488 -3.57704,0.29237 -7.05177,1.87995 -9.64374,4.69575 -5.18389,5.63155 -5.18389,14.37957 0,20.01112 5.1839,5.63155 13.89171,6.34358 19.91913,1.62838 a 0.50074332,0.50138875 0 0 0 0.0863,-0.7029 l -3.65857,-4.68989 a 0.50074332,0.50138875 0 0 0 -0.70227,-0.0879 c -3.22794,2.52516 -7.7602,2.15675 -10.53632,-0.8591 -2.77616,-3.01591 -2.77616,-7.56857 0,-10.58447 2.77617,-3.01592 7.30845,-3.38618 10.53632,-0.86106 a 0.50074332,0.50138875 0 0 0 0.70227,-0.0879 l 3.65857,-4.68989 a 0.50074332,0.50138875 0 0 0 -0.0863,-0.70485 C 38.2201,18.30382 35.06965,17.27844 31.92739,17.2505 Z m -0.01,1.00359 c 2.7711,0.0246 5.53127,0.90918 7.9037,2.62805 l -3.04653,3.90499 c -3.59502,-2.49835 -8.46169,-2.01803 -11.46418,1.24373 -3.11839,3.38767 -3.11839,8.55575 0,11.94342 3.00238,3.26164 7.86927,3.73973 11.46418,1.24179 l 3.05634,3.91865 c -5.59934,4.05921 -13.4381,3.3209 -18.15752,-1.80606 -4.83377,-5.25118 -4.83377,-13.40295 0,-18.65413 2.41674,-2.62544 5.65387,-4.10271 8.99049,-4.37554 0.4169,-0.0341 0.83461,-0.0486 1.25352,-0.0449 z" />
  </g>
</svg>
