<?xml version="1.0" encoding="UTF-8" standalone="no"?>
<svg
   xmlns:dc="http://purl.org/dc/elements/1.1/"
   xmlns:cc="http://creativecommons.org/ns#"
   xmlns:rdf="http://www.w3.org/1999/02/22-rdf-syntax-ns#"
   xmlns:svg="http://www.w3.org/2000/svg"
   xmlns="http://www.w3.org/2000/svg"
   xmlns:sodipodi="http://sodipodi.sourceforge.net/DTD/sodipodi-0.dtd"
   xmlns:inkscape="http://www.inkscape.org/namespaces/inkscape"
   width="64"
   height="64"
   viewBox="0 0 16.933333 16.933334"
   version="1.1"
   id="svg841"
   inkscape:version="1.0.2 (e86c870879, 2021-01-15)"
   sodipodi:docname="bug.svg">
  <defs
     id="defs835" />
  <sodipodi:namedview
     id="base"
     pagecolor="#c4c4c4"
     bordercolor="#666666"
     borderopacity="1.0"
     inkscape:pageopacity="0"
     inkscape:pageshadow="2"
     inkscape:zoom="3.6717688"
     inkscape:cx="-67.584809"
     inkscape:cy="60.269009"
     inkscape:document-units="px"
     inkscape:current-layer="layer1"
     inkscape:document-rotation="0"
     showgrid="false"
     units="px"
     inkscape:window-width="2048"
     inkscape:window-height="1080"
     inkscape:window-x="0"
     inkscape:window-y="0"
     inkscape:window-maximized="1" />
  <metadata
     id="metadata838">
    <rdf:RDF>
      <cc:Work
         rdf:about="">
        <dc:format>image/svg+xml</dc:format>
        <dc:type
           rdf:resource="http://purl.org/dc/dcmitype/StillImage" />
        <dc:title />
      </cc:Work>
    </rdf:RDF>
  </metadata>
  <g
     inkscape:label="Layer 1"
     inkscape:groupmode="layer"
     id="layer1">
    <circle
       style="opacity:0.15;fill:#0c0c0c;fill-opacity:1;stroke:none;stroke-width:0.529167;stroke-linecap:round;stroke-linejoin:round;stroke-miterlimit:4;stroke-dasharray:none;stroke-dashoffset:2.1875;stroke-opacity:1"
       id="path5729-9-1"
       cx="8.4666662"
       cy="8.6651058"
       r="7.9375" />
    <circle
       style="opacity:0.85;fill:#a22044;fill-opacity:1;stroke:none;stroke-width:0.529167;stroke-linecap:round;stroke-linejoin:round;stroke-miterlimit:4;stroke-dasharray:none;stroke-dashoffset:2.1875;stroke-opacity:1"
       id="path5729-9"
       cx="8.4666662"
       cy="8.2682295"
       r="7.9375" />
    <circle
       style="fill:#d53460;fill-opacity:1;stroke:none;stroke-width:0.502708;stroke-linecap:round;stroke-linejoin:round;stroke-miterlimit:4;stroke-dasharray:none;stroke-dashoffset:2.1875;stroke-opacity:1"
       id="path5729"
       cx="8.4666662"
       cy="8.2682295"
       r="7.5406251" />
    <path
       id="rect895-54-1-8-8"
       style="display:inline;opacity:0.35;fill:#66152b;fill-opacity:1;stroke-width:2.24896;stroke-linecap:round;stroke-linejoin:round;stroke-dashoffset:2.1875"
       d="m 5.6554682,11.113004 v 0.595313 H 4.530989 v 1.124479 h 1.1244792 v -0.595312 h 1.1244792 1.1244789 1.124479 1.1244797 1.124479 v 0.595312 h 1.124479 V 11.708317 H 11.277864 V 11.113004 H 10.153385 9.0289053 7.9044263 6.7799474 Z" />
    <path
       id="rect895-54-1-8-3-8"
       style="color:#000000;font-style:normal;font-variant:normal;font-weight:normal;font-stretch:normal;font-size:medium;line-height:normal;font-family:sans-serif;font-variant-ligatures:normal;font-variant-position:normal;font-variant-caps:normal;font-variant-numeric:normal;font-variant-alternates:normal;font-variant-east-asian:normal;font-feature-settings:normal;font-variation-settings:normal;text-indent:0;text-align:start;text-decoration:none;text-decoration-line:none;text-decoration-style:solid;text-decoration-color:#000000;letter-spacing:normal;word-spacing:normal;text-transform:none;writing-mode:lr-tb;direction:ltr;text-orientation:mixed;dominant-baseline:auto;baseline-shift:baseline;text-anchor:start;white-space:normal;shape-padding:0;shape-margin:0;inline-size:0;clip-rule:nonzero;display:inline;overflow:visible;visibility:visible;opacity:0.75;isolation:auto;mix-blend-mode:normal;color-interpolation:sRGB;color-interpolation-filters:linearRGB;solid-color:#000000;solid-opacity:1;vector-effect:none;fill:#66152b;fill-opacity:1;fill-rule:nonzero;stroke:none;stroke-width:0.264583;stroke-linecap:round;stroke-linejoin:round;stroke-miterlimit:4;stroke-dasharray:none;stroke-dashoffset:2.1875;stroke-opacity:1;color-rendering:auto;image-rendering:auto;shape-rendering:auto;text-rendering:auto;enable-background:accumulate;stop-color:#000000"
       d="m 5.6554682,10.451573 a 0.1323049,0.1323049 0 0 0 -0.1322917,0.132291 v 0.463021 H 4.530989 a 0.1323049,0.1323049 0 0 0 -0.1322917,0.132292 v 1.124479 a 0.1323049,0.1323049 0 0 0 0.1322917,0.132292 h 1.1244792 a 0.1323049,0.1323049 0 0 0 0.1322917,-0.132292 v -0.463021 h 0.9921875 1.1244789 1.124479 1.1244817 0.992188 v 0.463021 a 0.1323049,0.1323049 0 0 0 0.132292,0.132292 h 1.124479 a 0.1323049,0.1323049 0 0 0 0.132291,-0.132292 V 11.179177 A 0.1323049,0.1323049 0 0 0 12.402346,11.046885 H 11.410158 V 10.583864 A 0.1323049,0.1323049 0 0 0 11.277867,10.451573 H 10.153387 9.0289083 7.9044293 6.77995 Z m 0.1322917,0.264583 h 0.9921875 1.1244789 1.124479 1.1244817 0.992188 v 0.463021 a 0.1323049,0.1323049 0 0 0 0.132292,0.132291 h 0.992187 v 0.859896 H 11.410158 V 11.708343 A 0.1323049,0.1323049 0 0 0 11.277867,11.576052 H 10.153387 9.0289083 7.9044293 6.77995 5.6554708 a 0.1323049,0.1323049 0 0 0 -0.1322916,0.132291 v 0.463021 H 4.6632833 v -0.859896 h 0.9921875 a 0.1323049,0.1323049 0 0 0 0.1322917,-0.132291 z" />
    <path
       id="rect895-54-1-8"
       style="display:inline;fill:#fbfcfd;fill-opacity:1;stroke-width:2.24896;stroke-linecap:round;stroke-linejoin:round;stroke-dashoffset:2.1875"
       d="M 5.6554682,10.583838 V 11.17915 H 4.530989 v 1.12448 h 1.1244792 v -0.595313 h 1.1244792 1.1244789 1.124479 1.1244797 1.124479 v 0.595313 h 1.124479 V 11.17915 H 11.277864 V 10.583838 H 10.153385 9.0289053 7.9044263 6.7799474 Z" />
    <path
       id="rect895-5-6-9-2-5-8-8-3-0"
       style="display:inline;opacity:0.35;fill:#66152b;fill-opacity:1;stroke-width:2.24896;stroke-linecap:round;stroke-linejoin:round;stroke-dashoffset:2.1875"
       d="M 10.452591,5.2916679 9.6572913,6.086979 10.452591,6.8822636 9.6572913,7.6770455 10.452591,8.4723566 11.247892,7.6770455 12.042676,8.4723566 12.837977,7.6770455 12.042676,6.8822636 12.837977,6.086979 12.042676,5.2916679 11.247892,6.086979 Z" />
    <path
       id="rect895-5-6-9-2-5-8-8-3-3-4"
       style="color:#000000;font-style:normal;font-variant:normal;font-weight:normal;font-stretch:normal;font-size:medium;line-height:normal;font-family:sans-serif;font-variant-ligatures:normal;font-variant-position:normal;font-variant-caps:normal;font-variant-numeric:normal;font-variant-alternates:normal;font-variant-east-asian:normal;font-feature-settings:normal;font-variation-settings:normal;text-indent:0;text-align:start;text-decoration:none;text-decoration-line:none;text-decoration-style:solid;text-decoration-color:#000000;letter-spacing:normal;word-spacing:normal;text-transform:none;writing-mode:lr-tb;direction:ltr;text-orientation:mixed;dominant-baseline:auto;baseline-shift:baseline;text-anchor:start;white-space:normal;shape-padding:0;shape-margin:0;inline-size:0;clip-rule:nonzero;display:inline;overflow:visible;visibility:visible;opacity:0.75;isolation:auto;mix-blend-mode:normal;color-interpolation:sRGB;color-interpolation-filters:linearRGB;solid-color:#000000;solid-opacity:1;vector-effect:none;fill:#66152b;fill-opacity:1;fill-rule:nonzero;stroke:none;stroke-width:0.264583;stroke-linecap:round;stroke-linejoin:round;stroke-miterlimit:4;stroke-dasharray:none;stroke-dashoffset:2.1875;stroke-opacity:1;color-rendering:auto;image-rendering:auto;shape-rendering:auto;text-rendering:auto;enable-background:accumulate;stop-color:#000000"
       d="m 10.4464,4.6303418 a 0.1323049,0.1323049 0 0 0 -0.08733,0.038761 L 9.5637703,5.4644139 a 0.1323049,0.1323049 0 0 0 0,0.1870604 L 10.265534,6.3532556 9.5637693,7.0545073 a 0.1323049,0.1323049 0 0 0 0,0.1870604 l 0.7952997,0.7952849 a 0.1323049,0.1323049 0 0 0 0.187068,0 l 0.701765,-0.7017546 0.701249,0.7017546 a 0.1323049,0.1323049 0 0 0 0.187069,0 l 0.7953,-0.7952849 a 0.1323049,0.1323049 0 0 0 0,-0.1870604 L 12.229755,6.3532556 12.93152,5.6514748 a 0.1323049,0.1323049 0 0 0 0,-0.1870604 l -0.7953,-0.7953111 a 0.1323049,0.1323049 0 0 0 -0.187069,0 L 11.247902,5.3708842 10.546137,4.6691033 a 0.1323049,0.1323049 0 0 0 -0.09974,-0.038761 z m 0.0062,0.3193786 0.701768,0.7017544 a 0.1323049,0.1323049 0 0 0 0.187068,0 l 0.701249,-0.7017544 0.60823,0.6082242 -0.701765,0.7017544 a 0.1323049,0.1323049 0 0 0 0,0.1870869 l 0.701765,0.7012516 -0.60823,0.6082242 -0.701249,-0.7017544 a 0.1323049,0.1323049 0 0 0 -0.187068,0 L 10.452591,7.7562617 9.8443593,7.1480375 10.546127,6.4467859 a 0.1323049,0.1323049 0 0 0 0,-0.1870869 L 9.8443593,5.5579446 Z" />
    <path
       id="rect895-5-6-9-0-6-6"
       style="display:inline;fill:#fbfcfd;fill-opacity:1;stroke-width:2.24896;stroke-linecap:round;stroke-linejoin:round;stroke-dashoffset:2.1875"
       d="m 10.452591,4.7625012 -0.7952997,0.7953111 0.7952997,0.7952846 -0.7952997,0.7947819 0.7952997,0.795311 0.795301,-0.795311 0.794784,0.795311 0.795301,-0.795311 -0.795301,-0.7947819 0.795301,-0.7952846 -0.795301,-0.7953111 -0.794784,0.7953111 z" />
    <path
       id="rect895-5-6-9-2-5-8-8-3"
       style="display:inline;opacity:0.35;fill:#66152b;fill-opacity:1;stroke-width:2.24896;stroke-linecap:round;stroke-linejoin:round;stroke-dashoffset:2.1875"
       d="M 4.8963415,5.2916679 4.1010411,6.086979 4.8963415,6.8822636 4.1010411,7.6770455 4.8963415,8.4723566 5.691642,7.6770455 6.4864266,8.4723566 7.281727,7.6770455 6.4864266,6.8822636 7.281727,6.086979 6.4864266,5.2916679 5.691642,6.086979 Z" />
    <path
       id="rect895-5-6-9-2-5-8-8-3-3"
       style="color:#000000;font-style:normal;font-variant:normal;font-weight:normal;font-stretch:normal;font-size:medium;line-height:normal;font-family:sans-serif;font-variant-ligatures:normal;font-variant-position:normal;font-variant-caps:normal;font-variant-numeric:normal;font-variant-alternates:normal;font-variant-east-asian:normal;font-feature-settings:normal;font-variation-settings:normal;text-indent:0;text-align:start;text-decoration:none;text-decoration-line:none;text-decoration-style:solid;text-decoration-color:#000000;letter-spacing:normal;word-spacing:normal;text-transform:none;writing-mode:lr-tb;direction:ltr;text-orientation:mixed;dominant-baseline:auto;baseline-shift:baseline;text-anchor:start;white-space:normal;shape-padding:0;shape-margin:0;inline-size:0;clip-rule:nonzero;display:inline;overflow:visible;visibility:visible;opacity:0.75;isolation:auto;mix-blend-mode:normal;color-interpolation:sRGB;color-interpolation-filters:linearRGB;solid-color:#000000;solid-opacity:1;vector-effect:none;fill:#66152b;fill-opacity:1;fill-rule:nonzero;stroke:none;stroke-width:0.264583;stroke-linecap:round;stroke-linejoin:round;stroke-miterlimit:4;stroke-dasharray:none;stroke-dashoffset:2.1875;stroke-opacity:1;color-rendering:auto;image-rendering:auto;shape-rendering:auto;text-rendering:auto;enable-background:accumulate;stop-color:#000000"
       d="M 4.890108,4.6303418 A 0.1323049,0.1323049 0 0 0 4.802777,4.6691028 L 4.0074765,5.4644144 a 0.1323049,0.1323049 0 0 0 0,0.1870604 L 4.7092414,6.3532556 4.0074765,7.0545073 a 0.1323049,0.1323049 0 0 0 0,0.1870604 l 0.7953004,0.7952849 a 0.1323049,0.1323049 0 0 0 0.1870684,0 l 0.701765,-0.7017546 0.701249,0.7017546 a 0.1323049,0.1323049 0 0 0 0.1870684,0 L 7.3752282,7.2415677 a 0.1323049,0.1323049 0 0 0 0,-0.1870604 L 6.6734632,6.3532556 7.3752282,5.6514748 a 0.1323049,0.1323049 0 0 0 0,-0.1870604 L 6.5799277,4.6691033 a 0.1323049,0.1323049 0 0 0 -0.1870684,0 L 5.6916103,5.3708842 4.9898453,4.6691033 A 0.1323049,0.1323049 0 0 0 4.890108,4.6303418 Z m 0.00619,0.3193786 0.7017676,0.7017544 a 0.1323049,0.1323049 0 0 0 0.1870684,0 L 6.4863842,4.9497204 7.0946137,5.5579446 6.3928487,6.259699 a 0.1323049,0.1323049 0 0 0 0,0.1870869 L 7.0946137,7.1480375 6.4863842,7.7562617 5.7851352,7.0545073 a 0.1323049,0.1323049 0 0 0 -0.1870684,0 L 4.8962992,7.7562617 4.2880671,7.1480375 4.9898347,6.4467859 a 0.1323049,0.1323049 0 0 0 0,-0.1870869 L 4.2880671,5.5579446 Z" />
    <path
       id="rect895-5-6-9-2-5-8-8"
       style="display:inline;fill:#fbfcfd;fill-opacity:1;stroke-width:2.24896;stroke-linecap:round;stroke-linejoin:round;stroke-dashoffset:2.1875"
       d="M 4.8963415,4.7625012 4.1010411,5.5578123 4.8963415,6.3530969 4.1010411,7.1478788 4.8963415,7.9431898 5.691642,7.1478788 6.4864266,7.9431898 7.281727,7.1478788 6.4864266,6.3530969 7.281727,5.5578123 6.4864266,4.7625012 5.691642,5.5578123 Z" />
  </g>
</svg>
