<?xml version="1.0" encoding="UTF-8" standalone="no"?>
<svg
   xmlns:dc="http://purl.org/dc/elements/1.1/"
   xmlns:cc="http://creativecommons.org/ns#"
   xmlns:rdf="http://www.w3.org/1999/02/22-rdf-syntax-ns#"
   xmlns:svg="http://www.w3.org/2000/svg"
   xmlns="http://www.w3.org/2000/svg"
   xmlns:sodipodi="http://sodipodi.sourceforge.net/DTD/sodipodi-0.dtd"
   xmlns:inkscape="http://www.inkscape.org/namespaces/inkscape"
   width="64"
   height="64"
   viewBox="0 0 64 64"
   version="1.1"
   id="svg6374"
   inkscape:version="1.0.2 (e86c870879, 2021-01-15)"
   sodipodi:docname="text-x-sass.svg">
  <defs
     id="defs6368" />
  <sodipodi:namedview
     id="base"
     pagecolor="#cecece"
     bordercolor="#666666"
     borderopacity="1.0"
     inkscape:pageopacity="0"
     inkscape:pageshadow="2"
     inkscape:zoom="3.3588025"
     inkscape:cx="23.67816"
     inkscape:cy="26.904211"
     inkscape:document-units="px"
     inkscape:current-layer="layer1"
     inkscape:document-rotation="0"
     showgrid="false"
     units="px"
     inkscape:window-width="2048"
     inkscape:window-height="1080"
     inkscape:window-x="0"
     inkscape:window-y="0"
     inkscape:window-maximized="1" />
  <metadata
     id="metadata6371">
    <rdf:RDF>
      <cc:Work
         rdf:about="">
        <dc:format>image/svg+xml</dc:format>
        <dc:type
           rdf:resource="http://purl.org/dc/dcmitype/StillImage" />
        <dc:title />
      </cc:Work>
    </rdf:RDF>
  </metadata>
  <g
     inkscape:label="Layer 1"
     inkscape:groupmode="layer"
     id="layer1">
    <rect
       style="opacity:0.45;fill:#0c0c0c;fill-opacity:1;stroke-width:0.495;stroke-linecap:round;stroke-linejoin:round;stroke-miterlimit:4;stroke-dasharray:none;stroke-dashoffset:2.1875"
       id="rect954-6-3-2-2-6-4-06-8-3"
       width="44"
       height="56"
       x="10.000002"
       y="5.499939"
       rx="3"
       ry="3" />
    <path
       id="rect954-60-6-7-3-1-91-8-5-6"
       style="color:#000000;font-style:normal;font-variant:normal;font-weight:normal;font-stretch:normal;font-size:medium;line-height:normal;font-family:sans-serif;font-variant-ligatures:normal;font-variant-position:normal;font-variant-caps:normal;font-variant-numeric:normal;font-variant-alternates:normal;font-variant-east-asian:normal;font-feature-settings:normal;font-variation-settings:normal;text-indent:0;text-align:start;text-decoration:none;text-decoration-line:none;text-decoration-style:solid;text-decoration-color:#000000;letter-spacing:normal;word-spacing:normal;text-transform:none;writing-mode:lr-tb;direction:ltr;text-orientation:mixed;dominant-baseline:auto;baseline-shift:baseline;text-anchor:start;white-space:normal;shape-padding:0;shape-margin:0;inline-size:0;clip-rule:nonzero;display:inline;overflow:visible;visibility:visible;isolation:auto;mix-blend-mode:normal;color-interpolation:sRGB;color-interpolation-filters:linearRGB;solid-color:#000000;solid-opacity:1;vector-effect:none;fill:#af3a84;fill-opacity:1;fill-rule:nonzero;stroke:none;stroke-linecap:round;stroke-linejoin:round;stroke-miterlimit:4;stroke-dasharray:none;stroke-dashoffset:2.1875;stroke-opacity:1;color-rendering:auto;image-rendering:auto;shape-rendering:auto;text-rendering:auto;enable-background:accumulate;stop-color:#000000"
       d="M 13,3.5 C 11.0696,3.5 9.5,5.06965 9.5,7 v 50 c 0,1.93035 1.5696,3.5 3.5,3.5 h 38 c 1.9304,0 3.5,-1.56965 3.5,-3.5 V 7 C 54.5,5.06965 52.9304,3.5 51,3.5 Z m 0,1 h 38 c 1.3936,0 2.5,1.10635 2.5,2.5 v 50 c 0,1.39365 -1.1064,2.5 -2.5,2.5 H 13 c -1.3936,0 -2.5,-1.10635 -2.5,-2.5 V 7 c 0,-1.39365 1.1064,-2.5 2.5,-2.5 z" />
    <rect
       style="fill:#cc499c;fill-opacity:1;stroke-width:0.495;stroke-linecap:round;stroke-linejoin:round;stroke-miterlimit:4;stroke-dasharray:none;stroke-dashoffset:2.1875"
       id="rect954-7-0-7-3-0-4-4-9-3-7-7"
       width="44"
       height="56"
       x="10.000002"
       y="4"
       rx="3"
       ry="3" />
    <path
       id="path3402-6-9-7-5"
       style="display:inline;opacity:0.15;fill:#0c0c0c;fill-opacity:1;fill-rule:nonzero;stroke:none;stroke-width:0.0940899"
       d="m 28.72819,41.86869 c 0.23985,0.89457 0.21355,1.72876 -0.0342,2.48423 -0.0276,0.0839 -0.0579,0.16691 -0.0907,0.24895 -0.0328,0.0819 -0.0685,0.16289 -0.1068,0.24283 -0.19109,0.39971 -0.44748,0.77384 -0.7615,1.11916 -0.95791,1.05361 -2.29627,1.45205 -2.87013,1.11632 -0.6197,-0.36212 -0.30928,-1.84768 0.80129,-3.03124 1.19482,-1.27348 2.91388,-2.0922 2.91388,-2.0922 l -0.003,-0.005 c 0.0495,-0.0269 0.0999,-0.0545 0.15079,-0.0828 z M 42.34612,26.82421 c -0.74657,-2.95212 -5.60166,-3.92258 -10.19671,-2.2767 -2.73459,0.97945 -5.69501,2.51676 -7.82358,4.52418 -2.53091,2.3867 -2.93452,4.46401 -2.76815,5.33204 0.58677,3.06281 4.74924,5.06481 6.46036,6.55017 v 0.009 c -0.50455,0.25043 -4.1975,2.13468 -5.06172,4.06103 -0.91189,2.03224 0.14519,3.49058 0.84497,3.68688 2.16832,0.60822 4.39337,-0.48578 5.58912,-2.28404 1.15394,-1.73538 1.05788,-3.97632 0.55641,-5.09105 0.69176,-0.18396 1.4982,-0.26641 2.5231,-0.1457 2.89205,0.34058 3.45951,2.16124 3.35099,2.92302 -0.1084,0.76199 -0.71502,1.18096 -0.91783,1.30743 -0.20288,0.12653 -0.26475,0.17032 -0.24765,0.26436 0.0246,0.13672 0.11847,0.13164 0.2914,0.10208 0.23801,-0.0404 1.51859,-0.61976 1.57334,-2.02624 0.0697,-1.78573 -1.6276,-3.78326 -4.63295,-3.73107 -1.23771,0.0215 -2.01602,0.14022 -2.57818,0.35114 -0.0415,-0.0477 -0.0839,-0.0952 -0.12765,-0.14223 -1.85797,-1.99859 -5.29268,-3.41236 -5.14701,-6.09917 0.053,-0.97678 0.38969,-3.54886 6.59981,-6.66878 5.08718,-2.55568 9.15962,-1.85242 9.86345,-0.29372 1.00533,2.22675 -2.17652,6.36554 -7.45957,6.9625 -2.0128,0.22753 -3.07262,-0.55902 -3.33625,-0.85192 -0.27756,-0.30836 -0.3189,-0.32226 -0.4225,-0.26442 -0.16889,0.0942 -0.0619,0.36653 0,0.52884 0.15768,0.41387 0.80498,1.14781 1.90854,1.51288 0.97072,0.32123 3.33398,0.49768 6.19199,-0.61687 3.20084,-1.24838 5.70038,-4.72093 4.96622,-7.62362" />
    <path
       id="path3402-6-9-3"
       style="display:inline;fill:#fcfcfa;fill-opacity:1;fill-rule:nonzero;stroke:none;stroke-width:0.0940899"
       d="m 28.72814,40.86869 c 0.23985,0.89457 0.21355,1.72876 -0.0342,2.48423 -0.0276,0.0839 -0.0579,0.16691 -0.0907,0.24895 -0.0328,0.0819 -0.0685,0.16289 -0.1068,0.24283 -0.19109,0.39971 -0.44748,0.77384 -0.7615,1.11916 -0.95791,1.05361 -2.29627,1.45205 -2.87013,1.11632 -0.6197,-0.36212 -0.30928,-1.84768 0.80129,-3.03124 1.19482,-1.27348 2.91388,-2.0922 2.91388,-2.0922 l -0.003,-0.005 c 0.0495,-0.0269 0.0999,-0.0545 0.15079,-0.0828 z M 42.34607,25.82421 c -0.74657,-2.95212 -5.60166,-3.92258 -10.19671,-2.2767 -2.73459,0.97945 -5.69501,2.51676 -7.82358,4.52418 -2.53091,2.3867 -2.93452,4.46401 -2.76815,5.33204 0.58677,3.06281 4.74924,5.06481 6.46036,6.55017 v 0.009 c -0.50455,0.25043 -4.1975,2.13468 -5.06172,4.06103 -0.91189,2.03224 0.14519,3.49058 0.84497,3.68688 2.16832,0.60822 4.39337,-0.48578 5.58912,-2.28404 1.15394,-1.73538 1.05788,-3.97632 0.55641,-5.09105 0.69176,-0.18396 1.4982,-0.26641 2.5231,-0.1457 2.89205,0.34058 3.45951,2.16124 3.35099,2.92302 -0.1084,0.76199 -0.71502,1.18096 -0.91783,1.30743 -0.20288,0.12653 -0.26475,0.17032 -0.24765,0.26436 0.0246,0.13672 0.11847,0.13164 0.2914,0.10208 0.23801,-0.0404 1.51859,-0.61976 1.57334,-2.02624 0.0697,-1.78573 -1.6276,-3.78326 -4.63295,-3.73107 -1.23771,0.0215 -2.01602,0.14022 -2.57818,0.35114 -0.0415,-0.0477 -0.0839,-0.0952 -0.12765,-0.14223 -1.85797,-1.99859 -5.29268,-3.41236 -5.14701,-6.09917 0.053,-0.97678 0.38969,-3.54886 6.59981,-6.66878 5.08718,-2.55568 9.15962,-1.85242 9.86345,-0.29372 1.00533,2.22675 -2.17652,6.36554 -7.45957,6.9625 -2.0128,0.22753 -3.07262,-0.55902 -3.33625,-0.85192 -0.27756,-0.30836 -0.3189,-0.32226 -0.4225,-0.26442 -0.16889,0.0942 -0.0619,0.36653 0,0.52884 0.15768,0.41387 0.80498,1.14781 1.90854,1.51288 0.97072,0.32123 3.33398,0.49768 6.19199,-0.61687 3.20084,-1.24838 5.70038,-4.72093 4.96622,-7.62362" />
  </g>
</svg>
