<?xml version="1.0" encoding="UTF-8" standalone="no"?>
<svg
   xmlns:dc="http://purl.org/dc/elements/1.1/"
   xmlns:cc="http://creativecommons.org/ns#"
   xmlns:rdf="http://www.w3.org/1999/02/22-rdf-syntax-ns#"
   xmlns:svg="http://www.w3.org/2000/svg"
   xmlns="http://www.w3.org/2000/svg"
   xmlns:sodipodi="http://sodipodi.sourceforge.net/DTD/sodipodi-0.dtd"
   xmlns:inkscape="http://www.inkscape.org/namespaces/inkscape"
   width="64"
   height="64"
   viewBox="0 0 64 64"
   version="1.1"
   id="svg6374"
   inkscape:version="1.0.2 (e86c870879, 2021-01-15)"
   sodipodi:docname="window-restore-symbolic.svg">
  <defs
     id="defs6368" />
  <sodipodi:namedview
     id="base"
     pagecolor="#cecece"
     bordercolor="#666666"
     borderopacity="1.0"
     inkscape:pageopacity="0"
     inkscape:pageshadow="2"
     inkscape:zoom="5.5639287"
     inkscape:cx="8.3100654"
     inkscape:cy="29.73153"
     inkscape:document-units="px"
     inkscape:current-layer="layer1"
     inkscape:document-rotation="0"
     showgrid="false"
     units="px"
     inkscape:window-width="1500"
     inkscape:window-height="970"
     inkscape:window-x="68"
     inkscape:window-y="56"
     inkscape:window-maximized="0" />
  <metadata
     id="metadata6371">
    <rdf:RDF>
      <cc:Work
         rdf:about="">
        <dc:format>image/svg+xml</dc:format>
        <dc:type
           rdf:resource="http://purl.org/dc/dcmitype/StillImage" />
        <dc:title></dc:title>
      </cc:Work>
    </rdf:RDF>
  </metadata>
  <g
     inkscape:label="Layer 1"
     inkscape:groupmode="layer"
     id="layer1">
    <path
       id="rect1111-8-2-2-6-9-91-7-7-2-3-1-4"
       style="fill:#808084;fill-opacity:1;stroke:#d74168;stroke-width:0;stroke-linecap:round;stroke-linejoin:round;stroke-miterlimit:4;stroke-dasharray:none;stroke-opacity:1;paint-order:normal"
       d="m 31.996981,15.999669 c -0.7029,0 -1.40279,0.26996 -1.94129,0.8086 l -13.2359,13.23632 c 0,0.004 -0.01,0.006 -0.012,0.01 v 0.002 c -0.1342,0.13435 -0.2528,0.27748 -0.3535,0.42969 -3.1e-4,4.1e-4 2.99e-4,0.001 0,0.002 -0.1006,0.15219 -0.186801,0.31164 -0.253911,0.47656 -1.9e-4,5.3e-4 2e-4,10e-4 0,0.002 -0.067,0.1649 -0.1169,0.33527 -0.1504,0.50781 -9e-5,6.1e-4 10e-5,0.001 0,0.002 -0.033,0.1723 -0.05,0.34815 -0.05,0.52321 0,6.5e-4 0,10e-4 0,0.002 10e-5,0.17507 0.017,0.34898 0.051,0.52149 10e-5,6.4e-4 -10e-5,10e-4 0,0.002 0.034,0.17252 0.083,0.34294 0.1504,0.50781 2e-4,5.8e-4 -3e-4,0.001 0,0.002 0.067,0.16489 0.1532,0.324429 0.2539,0.476559 3e-4,4.9e-4 -3e-4,10e-4 0,0.002 0.1008,0.15217 0.2192,0.295389 0.3535,0.42969 4e-4,3.69e-4 -4e-4,0.002 0,0.002 0,0.004 0.01,0.006 0.012,0.01 L 30.056681,47.19174 c 0.538499,0.53864 1.238399,0.808591 1.941299,0.808591 0.703041,0 1.406841,-0.269951 1.945341,-0.808591 l 13.2359,-13.236331 0.012,-0.0117 c 0.1343,-0.13429 0.252699,-0.277521 0.3535,-0.429691 2.99e-4,-4.8e-4 -3.01e-4,-0.002 0,-0.002 0.1007,-0.15213 0.1867,-0.31167 0.2539,-0.47656 2.99e-4,-5.8e-4 -2.01e-4,-9.99e-4 0,-0.002 0.067,-0.16487 0.1168,-0.33529 0.150399,-0.50781 1e-4,-6.4e-4 -10e-5,-10e-4 0,-0.002 0.034,-0.17251 0.051,-0.34642 0.051,-0.52149 0,-0.17633 -0.017,-0.3536 -0.051,-0.52734 -0.034,-0.17254 -0.083,-0.34291 -0.150399,-0.50781 -2.01e-4,-5.3e-4 1.99e-4,-0.001 0,-0.002 -0.067,-0.16493 -0.1533,-0.32438 -0.2539,-0.47657 -3.01e-4,-4.1e-4 2.99e-4,-10e-4 0,-0.002 -0.100701,-0.1522 -0.219301,-0.29533 -0.3535,-0.42968 l -0.012,-0.0117 -13.2359,-13.23633 c -0.539,-0.53867 -1.2428,-0.80863 -1.94584,-0.80863 z m 0,6.64258 9.35725,9.35742 -9.35725,9.35742 -9.35509,-9.35742 z" />
  </g>
</svg>
