<?xml version="1.0" encoding="UTF-8" standalone="no"?>
<svg
   xmlns:dc="http://purl.org/dc/elements/1.1/"
   xmlns:cc="http://creativecommons.org/ns#"
   xmlns:rdf="http://www.w3.org/1999/02/22-rdf-syntax-ns#"
   xmlns:svg="http://www.w3.org/2000/svg"
   xmlns="http://www.w3.org/2000/svg"
   xmlns:xlink="http://www.w3.org/1999/xlink"
   xmlns:sodipodi="http://sodipodi.sourceforge.net/DTD/sodipodi-0.dtd"
   xmlns:inkscape="http://www.inkscape.org/namespaces/inkscape"
   width="64"
   height="64"
   viewBox="0 0 64 64"
   version="1.1"
   id="svg6374"
   inkscape:version="1.0.2 (e86c870879, 2021-01-15)"
   sodipodi:docname="image-x-generic.svg">
  <defs
     id="defs6368">
    <linearGradient
       inkscape:collect="always"
       xlink:href="#linearGradient2699"
       id="linearGradient2944"
       gradientUnits="userSpaceOnUse"
       gradientTransform="translate(-700.00005,-598.99999)"
       x1="732"
       y1="612.5"
       x2="732"
       y2="660.5" />
    <linearGradient
       inkscape:collect="always"
       id="linearGradient2699">
      <stop
         style="stop-color:#323132;stop-opacity:0.30000001"
         offset="0"
         id="stop2695" />
      <stop
         style="stop-color:#323132;stop-opacity:0.38"
         offset="1"
         id="stop2697" />
    </linearGradient>
    <linearGradient
       inkscape:collect="always"
       xlink:href="#linearGradient2125"
       id="linearGradient2694"
       gradientUnits="userSpaceOnUse"
       gradientTransform="matrix(0.99165817,0,0,0.94488188,-43.5685,-145.70362)"
       x1="68.174446"
       y1="187.3701"
       x2="83.363617"
       y2="201.61919" />
    <linearGradient
       inkscape:collect="always"
       id="linearGradient2125">
      <stop
         style="stop-color:#e97795;stop-opacity:1"
         offset="0"
         id="stop2121" />
      <stop
         style="stop-color:#73c4c4;stop-opacity:1"
         offset="1"
         id="stop2123" />
    </linearGradient>
    <linearGradient
       inkscape:collect="always"
       xlink:href="#linearGradient2133"
       id="linearGradient2698"
       gradientUnits="userSpaceOnUse"
       gradientTransform="matrix(0,-0.9427713,-0.97415909,0,167.2565,119.18131)"
       x1="67.971092"
       y1="114.03076"
       x2="79.040916"
       y2="128.58983" />
    <linearGradient
       inkscape:collect="always"
       id="linearGradient2133">
      <stop
         style="stop-color:#9ec17b;stop-opacity:1"
         offset="0"
         id="stop2129" />
      <stop
         style="stop-color:#73c4c4;stop-opacity:1"
         offset="1"
         id="stop2131" />
    </linearGradient>
    <linearGradient
       inkscape:collect="always"
       xlink:href="#linearGradient2085"
       id="linearGradient2696"
       gradientUnits="userSpaceOnUse"
       gradientTransform="matrix(0.96480959,0,0,0.95190958,-57.1114,-89.272445)"
       x1="67.302261"
       y1="115.20733"
       x2="79.98938"
       y2="125.51031" />
    <linearGradient
       inkscape:collect="always"
       id="linearGradient2085">
      <stop
         style="stop-color:#eccb6f;stop-opacity:1;"
         offset="0"
         id="stop2081" />
      <stop
         style="stop-color:#e97795;stop-opacity:1"
         offset="1"
         id="stop2083" />
    </linearGradient>
    <linearGradient
       inkscape:collect="always"
       xlink:href="#linearGradient2707"
       id="linearGradient2946"
       gradientUnits="userSpaceOnUse"
       gradientTransform="translate(-4.9539795e-5,2.4999995)"
       x1="5.5"
       y1="14.5"
       x2="58.5"
       y2="55.5" />
    <linearGradient
       inkscape:collect="always"
       id="linearGradient2707">
      <stop
         style="stop-color:#fcfcfc;stop-opacity:1"
         offset="0"
         id="stop2703" />
      <stop
         style="stop-color:#f4f4f6;stop-opacity:1"
         offset="1"
         id="stop2705" />
    </linearGradient>
  </defs>
  <sodipodi:namedview
     id="base"
     pagecolor="#cecece"
     bordercolor="#666666"
     borderopacity="1.0"
     inkscape:pageopacity="0"
     inkscape:pageshadow="2"
     inkscape:zoom="7.1642971"
     inkscape:cx="31.047425"
     inkscape:cy="40.174358"
     inkscape:document-units="px"
     inkscape:current-layer="layer1"
     inkscape:document-rotation="0"
     showgrid="false"
     units="px"
     inkscape:window-width="1500"
     inkscape:window-height="919"
     inkscape:window-x="68"
     inkscape:window-y="56"
     inkscape:window-maximized="0" />
  <metadata
     id="metadata6371">
    <rdf:RDF>
      <cc:Work
         rdf:about="">
        <dc:format>image/svg+xml</dc:format>
        <dc:type
           rdf:resource="http://purl.org/dc/dcmitype/StillImage" />
        <dc:title></dc:title>
      </cc:Work>
    </rdf:RDF>
  </metadata>
  <g
     inkscape:label="Layer 1"
     inkscape:groupmode="layer"
     id="layer1">
    <path
       id="rect9720-3-3-2-9-31-4-1-8-5-8-6-9-78-1"
       style="opacity:0.175;fill:#0c0c0c;fill-opacity:1;stroke:none;stroke-width:1.23443;stroke-linecap:round;stroke-linejoin:round;stroke-miterlimit:4;stroke-dasharray:none;stroke-dashoffset:0;stroke-opacity:1"
       d="m 7.0000005,16.5 c -2.216,0 -4,1.784 -4,4 v 38 c 0,2.216 1.784,4 4,4 H 57 c 2.216,0 4,-1.784 4,-4 v -38 c 0,-2.216 -1.784,-4 -4,-4 z m 1,3 H 56 c 1.108,0 2,0.892 2,2 v 36 c 0,1.108 -0.892,2 -2,2 H 8.0000005 c -1.108,0 -2,-0.892 -2,-2 v -36 c 0,-1.108 0.892,-2 2,-2 z" />
    <rect
       style="fill:url(#linearGradient2944);fill-opacity:1;stroke:none;stroke-width:1.23443;stroke-linecap:round;stroke-linejoin:round;stroke-miterlimit:4;stroke-dasharray:none;stroke-dashoffset:0;stroke-opacity:1"
       id="rect9720-3-3-2-9-31-4-1-1-7"
       width="60"
       height="48"
       x="2"
       y="13.5"
       rx="5"
       ry="5" />
    <rect
       style="fill:url(#linearGradient2694);fill-opacity:1;stroke:none;stroke-width:1.86441;stroke-linecap:square;stroke-miterlimit:4;stroke-dasharray:none;stroke-opacity:0.54902"
       id="rect2119-0-9-9-0-9-8-6"
       width="53"
       height="41"
       x="5.5"
       y="17"
       rx="2.2083335"
       ry="2.1578948" />
    <path
       id="rect1986-1-6-1-2-3-7-2-4"
       style="fill:url(#linearGradient2698);fill-opacity:1;stroke:none;stroke-width:2.02216;stroke-linecap:square;stroke-miterlimit:4;stroke-dasharray:none;stroke-opacity:0.54902"
       d="M 57.948,57.460545 H 28.1356 l 29.8119,-28.85145 -0.1445,-0.13982 0.145,-0.14031 z" />
    <path
       id="rect1986-4-7-1-2-4-1-0"
       style="fill:url(#linearGradient2696);fill-opacity:1;stroke:none;stroke-width:2.02219;stroke-linecap:square;stroke-miterlimit:4;stroke-dasharray:none;stroke-opacity:0.54902"
       d="m 6.0522005,17.539485 v 29.13157 l 29.5258995,-29.1311 0.1431,0.14119 0.1435,-0.14166 z" />
    <path
       id="rect9720-3-3-2-9-31-4-1-8-5-7-3-88"
       style="opacity:0.3;fill:#39232d;fill-opacity:1;stroke:none;stroke-width:1.23443;stroke-linecap:round;stroke-linejoin:round;stroke-miterlimit:4;stroke-dasharray:none;stroke-dashoffset:0;stroke-opacity:1"
       d="m 8.0000005,17.500005 c -1.108,0 -2,0.892 -2,2 v 36.5 c 0,1.108 0.892,2 2,2 H 56 c 1.108,0 2,-0.892 2,-2 v -36.5 c 0,-1.108 -0.892,-2 -2,-2 z m 1,2.5 H 55 c 0.554,0 1,0.446 1,1 v 34 c 0,0.554 -0.446,1 -1,1 H 9.0000005 c -0.554,0 -1,-0.446 -1,-1 v -34 c 0,-0.554 0.446,-1 1,-1 z" />
    <path
       id="rect9720-3-3-2-9-31-4-1-8-5-8-6-9-44"
       style="fill:url(#linearGradient2946);fill-opacity:1;stroke:none;stroke-width:1.23443;stroke-linecap:round;stroke-linejoin:round;stroke-miterlimit:4;stroke-dasharray:none;stroke-dashoffset:0;stroke-opacity:1"
       d="m 6.9999505,14.499999 c -2.216,0 -4,1.784 -4,4 v 38 c 0,2.216 1.784,4 4,4 H 56.99995 c 2.216,0 4,-1.784 4,-4 v -38 c 0,-2.216 -1.784,-4 -4,-4 z m 1,3 H 55.99995 c 1.108,0 2,0.892 2,2 v 36 c 0,1.108 -0.892,2 -2,2 H 7.9999505 c -1.108,0 -2,-0.892 -2,-2 v -36 c 0,-1.108 0.892,-2 2,-2 z" />
  </g>
</svg>
