<?xml version="1.0" encoding="UTF-8" standalone="no"?>
<svg
   xmlns:dc="http://purl.org/dc/elements/1.1/"
   xmlns:cc="http://creativecommons.org/ns#"
   xmlns:rdf="http://www.w3.org/1999/02/22-rdf-syntax-ns#"
   xmlns:svg="http://www.w3.org/2000/svg"
   xmlns="http://www.w3.org/2000/svg"
   xmlns:sodipodi="http://sodipodi.sourceforge.net/DTD/sodipodi-0.dtd"
   xmlns:inkscape="http://www.inkscape.org/namespaces/inkscape"
   width="64"
   height="64"
   viewBox="0 0 64 64"
   version="1.1"
   id="svg6374"
   inkscape:version="1.0.2 (e86c870879, 2021-01-15)"
   sodipodi:docname="text-x-r.svg">
  <defs
     id="defs6368" />
  <sodipodi:namedview
     id="base"
     pagecolor="#cecece"
     bordercolor="#666666"
     borderopacity="1.0"
     inkscape:pageopacity="0"
     inkscape:pageshadow="2"
     inkscape:zoom="3.2975144"
     inkscape:cx="0.78419257"
     inkscape:cy="32.951385"
     inkscape:document-units="px"
     inkscape:current-layer="layer1"
     inkscape:document-rotation="0"
     showgrid="false"
     units="px"
     inkscape:window-width="2048"
     inkscape:window-height="1080"
     inkscape:window-x="0"
     inkscape:window-y="0"
     inkscape:window-maximized="1" />
  <metadata
     id="metadata6371">
    <rdf:RDF>
      <cc:Work
         rdf:about="">
        <dc:format>image/svg+xml</dc:format>
        <dc:type
           rdf:resource="http://purl.org/dc/dcmitype/StillImage" />
        <dc:title />
      </cc:Work>
    </rdf:RDF>
  </metadata>
  <g
     inkscape:label="Layer 1"
     inkscape:groupmode="layer"
     id="layer1">
    <rect
       style="opacity:0.45;fill:#0c0c0c;fill-opacity:1;stroke-width:0.495;stroke-linecap:round;stroke-linejoin:round;stroke-miterlimit:4;stroke-dasharray:none;stroke-dashoffset:2.1875"
       id="rect954-6-3-2-2-6-9-8"
       width="44"
       height="56"
       x="10.000023"
       y="5.5000305"
       rx="3"
       ry="3" />
    <path
       id="rect954-60-6-7-3-1-9-0"
       style="color:#000000;font-style:normal;font-variant:normal;font-weight:normal;font-stretch:normal;font-size:medium;line-height:normal;font-family:sans-serif;font-variant-ligatures:normal;font-variant-position:normal;font-variant-caps:normal;font-variant-numeric:normal;font-variant-alternates:normal;font-variant-east-asian:normal;font-feature-settings:normal;font-variation-settings:normal;text-indent:0;text-align:start;text-decoration:none;text-decoration-line:none;text-decoration-style:solid;text-decoration-color:#000000;letter-spacing:normal;word-spacing:normal;text-transform:none;writing-mode:lr-tb;direction:ltr;text-orientation:mixed;dominant-baseline:auto;baseline-shift:baseline;text-anchor:start;white-space:normal;shape-padding:0;shape-margin:0;inline-size:0;clip-rule:nonzero;display:inline;overflow:visible;visibility:visible;opacity:0.8;isolation:auto;mix-blend-mode:normal;color-interpolation:sRGB;color-interpolation-filters:linearRGB;solid-color:#000000;solid-opacity:1;vector-effect:none;fill:#69696d;fill-opacity:1;fill-rule:nonzero;stroke:none;stroke-linecap:round;stroke-linejoin:round;stroke-miterlimit:4;stroke-dasharray:none;stroke-dashoffset:2.1875;stroke-opacity:1;color-rendering:auto;image-rendering:auto;shape-rendering:auto;text-rendering:auto;enable-background:accumulate;stop-color:#000000"
       d="M 13,3.5 C 11.0696,3.5 9.5,5.06965 9.5,7 v 50 c 0,1.93035 1.5696,3.5 3.5,3.5 h 38 c 1.9304,0 3.5,-1.56965 3.5,-3.5 V 7 C 54.5,5.06965 52.9304,3.5 51,3.5 Z m 0,1 h 38 c 1.3936,0 2.5,1.10635 2.5,2.5 v 50 c 0,1.39365 -1.1064,2.5 -2.5,2.5 H 13 c -1.3936,0 -2.5,-1.10635 -2.5,-2.5 V 7 c 0,-1.39365 1.1064,-2.5 2.5,-2.5 z" />
    <rect
       style="fill:#fcfcfa;fill-opacity:1;stroke-width:0.495;stroke-linecap:round;stroke-linejoin:round;stroke-miterlimit:4;stroke-dasharray:none;stroke-dashoffset:2.1875"
       id="rect954-7-0-7-3-1-4"
       width="44"
       height="56"
       x="10.000023"
       y="4.0000305"
       rx="3"
       ry="3" />
    <path
       id="rect1014-5-3-7-5-6"
       style="color:#000000;font-style:normal;font-variant:normal;font-weight:normal;font-stretch:normal;font-size:medium;line-height:normal;font-family:sans-serif;font-variant-ligatures:normal;font-variant-position:normal;font-variant-caps:normal;font-variant-numeric:normal;font-variant-alternates:normal;font-variant-east-asian:normal;font-feature-settings:normal;font-variation-settings:normal;text-indent:0;text-align:start;text-decoration:none;text-decoration-line:none;text-decoration-style:solid;text-decoration-color:#000000;letter-spacing:normal;word-spacing:normal;text-transform:none;writing-mode:lr-tb;direction:ltr;text-orientation:mixed;dominant-baseline:auto;baseline-shift:baseline;text-anchor:start;white-space:normal;shape-padding:0;shape-margin:0;inline-size:0;clip-rule:nonzero;display:inline;overflow:visible;visibility:visible;opacity:0.35;isolation:auto;mix-blend-mode:normal;color-interpolation:sRGB;color-interpolation-filters:linearRGB;solid-color:#000000;solid-opacity:1;vector-effect:none;fill:#0c0c0c;fill-opacity:1;fill-rule:nonzero;stroke:none;stroke-linecap:round;stroke-linejoin:round;stroke-miterlimit:4;stroke-dasharray:none;stroke-dashoffset:0;stroke-opacity:1;color-rendering:auto;image-rendering:auto;shape-rendering:auto;text-rendering:auto;enable-background:accumulate;stop-color:#000000"
       d="m 20.675,19 a 0.50005,0.50005 0 0 0 -0.5,0.5 v 6.25391 6.77343 6.25391 V 48.5 a 0.50005,0.50005 0 0 0 0.5,0.5 h 6.20898 a 0.50005,0.50005 0 0 0 0.5,-0.5 v -9.21875 h 2.91211 l 5.42578,9.46681 A 0.50005,0.50005 0 0 0 36.15547,49 h 7.16992 a 0.50005,0.50005 0 0 0 0.43359,-0.74805 L 37.66719,37.625 c 2.97271,-1.76206 5.08007,-4.81183 5.08007,-8.48632 0,-5.64977 -4.88319,-9.86646 -10.46484,-10.08398 A 0.50005,0.50005 0 0 0 32.05781,19 h -0.21289 -4.96094 z m 0.5,1 h 5.70898 4.96094 0.11133 a 0.50005,0.50005 0 0 0 0.0918,0.01 c 5.18433,0.10083 9.69922,3.98753 9.69922,9.12891 0,3.46478 -2.04193,6.34231 -4.97265,7.90039 a 0.50005,0.50005 0 0 0 -0.19922,0.68946 l 5.88672,10.27148 h -6.01563 l -5.42773,-9.46875 a 0.50005,0.50005 0 0 0 -0.4336,-0.25 h -3.70117 a 0.50005,0.50005 0 0 0 -0.5,0.5 v 9.21875 h -5.20898 v -9.21875 -6.25391 -6.77343 z m 5.70898,5.25391 a 0.50005,0.50005 0 0 0 -0.5,0.5 v 6.77343 a 0.50005,0.50005 0 0 0 0.5,0.5 h 4.98438 a 0.50005,0.50005 0 0 0 0.002,0 c 2.75412,-0.012 4.66797,-1.88057 4.66797,-3.88867 0,-1.96847 -1.85286,-3.77088 -4.51953,-3.85351 a 0.50005,0.50005 0 0 0 -0.17383,-0.0312 z m 0.5,1 h 4.42774 a 0.50005,0.50005 0 0 0 0.0332,0.002 c 2.32452,0 3.69336,1.51822 3.69336,2.88281 0,1.35963 -1.36094,2.87772 -3.66992,2.88867 h -4.48438 z" />
    <path
       id="rect1014-5-3-7-5"
       style="color:#000000;font-style:normal;font-variant:normal;font-weight:normal;font-stretch:normal;font-size:medium;line-height:normal;font-family:sans-serif;font-variant-ligatures:normal;font-variant-position:normal;font-variant-caps:normal;font-variant-numeric:normal;font-variant-alternates:normal;font-variant-east-asian:normal;font-feature-settings:normal;font-variation-settings:normal;text-indent:0;text-align:start;text-decoration:none;text-decoration-line:none;text-decoration-style:solid;text-decoration-color:#000000;letter-spacing:normal;word-spacing:normal;text-transform:none;writing-mode:lr-tb;direction:ltr;text-orientation:mixed;dominant-baseline:auto;baseline-shift:baseline;text-anchor:start;white-space:normal;shape-padding:0;shape-margin:0;inline-size:0;clip-rule:nonzero;display:inline;overflow:visible;visibility:visible;opacity:0.95;isolation:auto;mix-blend-mode:normal;color-interpolation:sRGB;color-interpolation-filters:linearRGB;solid-color:#000000;solid-opacity:1;vector-effect:none;fill:#1e3348;fill-opacity:1;fill-rule:nonzero;stroke:none;stroke-linecap:round;stroke-linejoin:round;stroke-miterlimit:4;stroke-dasharray:none;stroke-dashoffset:0;stroke-opacity:1;color-rendering:auto;image-rendering:auto;shape-rendering:auto;text-rendering:auto;enable-background:accumulate;stop-color:#000000"
       d="m 20.675,18.25001 a 0.50005,0.50005 0 0 0 -0.5,0.5 v 6.25391 6.77343 6.25391 9.71875 a 0.50005,0.50005 0 0 0 0.5,0.5 h 6.20898 a 0.50005,0.50005 0 0 0 0.5,-0.5 v -9.21875 h 2.91211 l 5.42578,9.4668 a 0.50005,0.50005 0 0 0 0.4336,0.25195 h 7.16992 a 0.50005,0.50005 0 0 0 0.43359,-0.74805 L 37.66719,36.87501 c 2.97271,-1.76206 5.08007,-4.81183 5.08007,-8.48633 0,-5.64977 -4.88319,-9.86646 -10.46484,-10.08398 A 0.50005,0.50005 0 0 0 32.05781,18.25 h -0.21289 -4.96094 z m 0.5,1 h 5.70898 4.96094 0.11133 a 0.50005,0.50005 0 0 0 0.0918,0.01 c 5.18433,0.10083 9.69922,3.98753 9.69922,9.1289 0,3.46478 -2.04193,6.34231 -4.97265,7.90039 a 0.50005,0.50005 0 0 0 -0.19922,0.68946 l 5.88672,10.27148 h -6.01563 l -5.42773,-9.46875 a 0.50005,0.50005 0 0 0 -0.4336,-0.25 h -3.70117 a 0.50005,0.50005 0 0 0 -0.5,0.5 v 9.21875 h -5.20898 v -9.21875 -6.25391 -6.77343 z m 5.70898,5.25391 a 0.50005,0.50005 0 0 0 -0.5,0.5 v 6.77343 a 0.50005,0.50005 0 0 0 0.5,0.5 h 4.98438 a 0.50005,0.50005 0 0 0 0.002,0 c 2.75412,-0.012 4.66797,-1.88057 4.66797,-3.88867 0,-1.96847 -1.85286,-3.77088 -4.51953,-3.85351 a 0.50005,0.50005 0 0 0 -0.17383,-0.0312 z m 0.5,1 h 4.42774 a 0.50005,0.50005 0 0 0 0.0332,0.002 c 2.32452,0 3.69336,1.51822 3.69336,2.88281 0,1.35963 -1.36094,2.87772 -3.66992,2.88867 h -4.48438 z" />
    <path
       id="rect1014-5-3-7"
       style="fill:#4b81b4;fill-opacity:1;stroke:none;stroke-width:0;stroke-linecap:round;stroke-linejoin:round;stroke-miterlimit:4;stroke-dasharray:none;stroke-opacity:1"
       d="m 20.675,18.75012 v 6.25308 6.77417 6.2531 9.71955 h 6.20842 v -9.71955 h 3.7014 l 5.57082,9.71955 H 43.325 L 37.00846,36.72977 c 3.07216,-1.63328 5.23837,-4.67853 5.23837,-8.34049 0,-5.4334 -4.76014,-9.52338 -10.18973,-9.62898 V 18.75 h -0.21321 -4.96047 z m 6.20842,6.25308 h 4.96047 v 0.002 c 2.54634,0 4.19349,1.69448 4.19349,3.38404 0,1.68407 -1.63705,3.37709 -4.16925,3.38809 h -4.98471 z" />
  </g>
</svg>
