<?xml version="1.0" encoding="UTF-8" standalone="no"?>
<svg
   xmlns:dc="http://purl.org/dc/elements/1.1/"
   xmlns:cc="http://creativecommons.org/ns#"
   xmlns:rdf="http://www.w3.org/1999/02/22-rdf-syntax-ns#"
   xmlns:svg="http://www.w3.org/2000/svg"
   xmlns="http://www.w3.org/2000/svg"
   xmlns:sodipodi="http://sodipodi.sourceforge.net/DTD/sodipodi-0.dtd"
   xmlns:inkscape="http://www.inkscape.org/namespaces/inkscape"
   width="64"
   height="64"
   viewBox="0 0 64 64"
   version="1.1"
   id="svg6374"
   inkscape:version="1.0.2 (e86c870879, 2021-01-15)"
   sodipodi:docname="x-office-presentation-template.svg">
  <defs
     id="defs6368" />
  <sodipodi:namedview
     id="base"
     pagecolor="#cecece"
     bordercolor="#666666"
     borderopacity="1.0"
     inkscape:pageopacity="0"
     inkscape:pageshadow="2"
     inkscape:zoom="3.4231059"
     inkscape:cx="52.578554"
     inkscape:cy="77.309853"
     inkscape:document-units="px"
     inkscape:current-layer="layer1"
     inkscape:document-rotation="0"
     showgrid="false"
     units="px"
     inkscape:window-width="2048"
     inkscape:window-height="1080"
     inkscape:window-x="0"
     inkscape:window-y="0"
     inkscape:window-maximized="1" />
  <metadata
     id="metadata6371">
    <rdf:RDF>
      <cc:Work
         rdf:about="">
        <dc:format>image/svg+xml</dc:format>
        <dc:type
           rdf:resource="http://purl.org/dc/dcmitype/StillImage" />
        <dc:title></dc:title>
      </cc:Work>
    </rdf:RDF>
  </metadata>
  <g
     inkscape:label="Layer 1"
     inkscape:groupmode="layer"
     id="layer1">
    <rect
       style="opacity:0.45;fill:#0c0c0c;fill-opacity:1;stroke-width:0.495;stroke-linecap:round;stroke-linejoin:round;stroke-miterlimit:4;stroke-dasharray:none;stroke-dashoffset:2.1875"
       id="rect954-6-3-2-6-0"
       width="44"
       height="56"
       x="9.9998789"
       y="5.5"
       rx="3"
       ry="3" />
    <path
       id="rect954-60-6-7-1-3"
       style="color:#000000;font-style:normal;font-variant:normal;font-weight:normal;font-stretch:normal;font-size:medium;line-height:normal;font-family:sans-serif;font-variant-ligatures:normal;font-variant-position:normal;font-variant-caps:normal;font-variant-numeric:normal;font-variant-alternates:normal;font-variant-east-asian:normal;font-feature-settings:normal;font-variation-settings:normal;text-indent:0;text-align:start;text-decoration:none;text-decoration-line:none;text-decoration-style:solid;text-decoration-color:#000000;letter-spacing:normal;word-spacing:normal;text-transform:none;writing-mode:lr-tb;direction:ltr;text-orientation:mixed;dominant-baseline:auto;baseline-shift:baseline;text-anchor:start;white-space:normal;shape-padding:0;shape-margin:0;inline-size:0;clip-rule:nonzero;display:inline;overflow:visible;visibility:visible;opacity:0.8;isolation:auto;mix-blend-mode:normal;color-interpolation:sRGB;color-interpolation-filters:linearRGB;solid-color:#000000;solid-opacity:1;vector-effect:none;fill:#84470b;fill-opacity:1;fill-rule:nonzero;stroke:none;stroke-linecap:round;stroke-linejoin:round;stroke-miterlimit:4;stroke-dasharray:none;stroke-dashoffset:2.1875;stroke-opacity:1;color-rendering:auto;image-rendering:auto;shape-rendering:auto;text-rendering:auto;enable-background:accumulate;stop-color:#000000"
       d="M 13,3.5 C 11.0696,3.5 9.5,5.06965 9.5,7 v 50 c 0,1.93035 1.5696,3.5 3.5,3.5 h 38 c 1.9304,0 3.5,-1.56965 3.5,-3.5 V 7 C 54.5,5.06965 52.9304,3.5 51,3.5 Z m 0,1 h 38 c 1.3936,0 2.5,1.10635 2.5,2.5 v 50 c 0,1.39365 -1.1064,2.5 -2.5,2.5 H 13 c -1.3936,0 -2.5,-1.10635 -2.5,-2.5 V 7 c 0,-1.39365 1.1064,-2.5 2.5,-2.5 z" />
    <rect
       style="fill:#fbfcfd;fill-opacity:1;stroke-width:0.495;stroke-linecap:round;stroke-linejoin:round;stroke-miterlimit:4;stroke-dasharray:none;stroke-dashoffset:2.1875"
       id="rect954-7-0-5-0"
       width="44"
       height="56"
       x="9.9998789"
       y="4"
       rx="3"
       ry="3" />
    <rect
       style="opacity:0.15;fill:#0c0c0c;fill-opacity:1;stroke:none;stroke-linecap:round;stroke-linejoin:round;stroke-dashoffset:2.1875"
       id="rect1192-7-5-9"
       width="44"
       height="1"
       x="9.9998789"
       y="13.499999" />
    <path
       id="rect954-7-0-1-8-4-2"
       style="opacity:0.6;fill:#ed8721;fill-opacity:1;stroke-width:0.495;stroke-linecap:round;stroke-linejoin:round;stroke-miterlimit:4;stroke-dasharray:none;stroke-dashoffset:2.1875"
       d="m 13,4 c -1.662,0 -3,1.338 -3,3 v 6 H 54 V 7 C 54,5.338 52.662,4 51,4 Z" />
    <rect
       style="fill:#84470b;fill-opacity:1;stroke:none;stroke-linecap:round;stroke-linejoin:round;stroke-dashoffset:2.1875"
       id="rect1192-76-5"
       width="44"
       height="1"
       x="9.9998789"
       y="12.999999" />
    <rect
       style="fill:#bd640f;fill-opacity:1;stroke:#e1aa2d;stroke-width:0;stroke-linecap:round;stroke-linejoin:round;stroke-miterlimit:4;stroke-dasharray:none;stroke-opacity:1"
       id="rect2641-8"
       width="21"
       height="2"
       x="21.5"
       y="28.5"
       rx="1"
       ry="1" />
    <path
       id="rect127-2-3-1-1"
       style="color:#000000;font-style:normal;font-variant:normal;font-weight:normal;font-stretch:normal;font-size:medium;line-height:normal;font-family:sans-serif;font-variant-ligatures:normal;font-variant-position:normal;font-variant-caps:normal;font-variant-numeric:normal;font-variant-alternates:normal;font-variant-east-asian:normal;font-feature-settings:normal;font-variation-settings:normal;text-indent:0;text-align:start;text-decoration:none;text-decoration-line:none;text-decoration-style:solid;text-decoration-color:#000000;letter-spacing:normal;word-spacing:normal;text-transform:none;writing-mode:lr-tb;direction:ltr;text-orientation:mixed;dominant-baseline:auto;baseline-shift:baseline;text-anchor:start;white-space:normal;shape-padding:0;shape-margin:0;inline-size:0;clip-rule:nonzero;display:inline;overflow:visible;visibility:visible;isolation:auto;mix-blend-mode:normal;color-interpolation:sRGB;color-interpolation-filters:linearRGB;solid-color:#000000;solid-opacity:1;vector-effect:none;fill:#bd640f;fill-opacity:1;fill-rule:nonzero;stroke:none;stroke-width:0.934082;stroke-linecap:square;stroke-linejoin:miter;stroke-miterlimit:4;stroke-dasharray:none;stroke-dashoffset:0;stroke-opacity:1;color-rendering:auto;image-rendering:auto;shape-rendering:auto;text-rendering:auto;enable-background:accumulate;stop-color:#000000"
       d="m 18.76,22.85 c -1.37364,0 -2.51,1.14681 -2.51,2.53215 v 22.2357 c 0,1.38533 1.13636,2.53215 2.51,2.53215 h 26.48 c 1.37364,0 2.51,-1.14682 2.51,-2.53215 V 25.38215 C 47.75,23.99682 46.61364,22.85 45.24,22.85 Z m 0,1.98634 h 26.48 c 0.31699,0 0.54179,0.22613 0.54179,0.54581 v 22.2357 c 0,0.31968 -0.2248,0.54775 -0.54179,0.54775 H 18.76 c -0.31699,0 -0.5398,-0.22808 -0.5398,-0.54775 v -22.2357 c 0,-0.31968 0.22281,-0.54581 0.5398,-0.54581 z" />
    <rect
       style="fill:#bd640f;fill-opacity:1;stroke:#e1aa2d;stroke-width:0;stroke-linecap:round;stroke-linejoin:round;stroke-miterlimit:4;stroke-dasharray:none;stroke-opacity:1"
       id="rect2641-2-2"
       width="13"
       height="2"
       x="29.500002"
       y="36.5"
       rx="1"
       ry="1" />
    <circle
       style="fill:#bd640f;fill-opacity:1;stroke:#e1aa2d;stroke-width:0;stroke-linecap:round;stroke-linejoin:round;stroke-miterlimit:4;stroke-dasharray:none;stroke-opacity:1"
       id="path2692-8"
       cx="25"
       cy="37.5"
       r="1.5" />
    <rect
       style="fill:#bd640f;fill-opacity:1;stroke:#e1aa2d;stroke-width:0;stroke-linecap:round;stroke-linejoin:round;stroke-miterlimit:4;stroke-dasharray:none;stroke-opacity:1"
       id="rect2641-2-3-9"
       width="13"
       height="2"
       x="29.500002"
       y="42.5"
       rx="1"
       ry="1" />
    <circle
       style="fill:#bd640f;fill-opacity:1;stroke:#e1aa2d;stroke-width:0;stroke-linecap:round;stroke-linejoin:round;stroke-miterlimit:4;stroke-dasharray:none;stroke-opacity:1"
       id="path2692-9-3"
       cx="25"
       cy="43.5"
       r="1.5" />
  </g>
</svg>
