<?xml version="1.0" encoding="UTF-8" standalone="no"?>
<svg
   xmlns:dc="http://purl.org/dc/elements/1.1/"
   xmlns:cc="http://creativecommons.org/ns#"
   xmlns:rdf="http://www.w3.org/1999/02/22-rdf-syntax-ns#"
   xmlns:svg="http://www.w3.org/2000/svg"
   xmlns="http://www.w3.org/2000/svg"
   xmlns:xlink="http://www.w3.org/1999/xlink"
   xmlns:sodipodi="http://sodipodi.sourceforge.net/DTD/sodipodi-0.dtd"
   xmlns:inkscape="http://www.inkscape.org/namespaces/inkscape"
   width="64"
   height="64"
   viewBox="0 0 64 64"
   version="1.1"
   id="svg6374"
   inkscape:version="1.0.2 (e86c870879, 2021-01-15)"
   sodipodi:docname="application-x-bzip-compressed-tar.svg">
  <defs
     id="defs6368">
    <linearGradient
       inkscape:collect="always"
       xlink:href="#linearGradient3180"
       id="linearGradient885-6"
       gradientUnits="userSpaceOnUse"
       gradientTransform="translate(1e-4,2.5)"
       x1="32"
       y1="16"
       x2="32"
       y2="58" />
    <linearGradient
       inkscape:collect="always"
       id="linearGradient3180">
      <stop
         style="stop-color:#62b3bc;stop-opacity:1"
         offset="0"
         id="stop3176" />
      <stop
         style="stop-color:#50aab4;stop-opacity:1"
         offset="1"
         id="stop3178" />
    </linearGradient>
    <linearGradient
       inkscape:collect="always"
       xlink:href="#linearGradient873"
       id="linearGradient2307"
       gradientUnits="userSpaceOnUse"
       x1="32.146816"
       y1="40.408283"
       x2="32.050919"
       y2="55.999996" />
    <linearGradient
       inkscape:collect="always"
       id="linearGradient873">
      <stop
         style="stop-color:#202020;stop-opacity:0.75"
         offset="0"
         id="stop869" />
      <stop
         style="stop-color:#202020;stop-opacity:0.05"
         offset="1"
         id="stop871" />
    </linearGradient>
  </defs>
  <sodipodi:namedview
     id="base"
     pagecolor="#cecece"
     bordercolor="#666666"
     borderopacity="1.0"
     inkscape:pageopacity="0"
     inkscape:pageshadow="2"
     inkscape:zoom="3.9847868"
     inkscape:cx="46.915285"
     inkscape:cy="56.869837"
     inkscape:document-units="px"
     inkscape:current-layer="layer1"
     inkscape:document-rotation="0"
     showgrid="false"
     units="px"
     inkscape:window-width="1500"
     inkscape:window-height="970"
     inkscape:window-x="68"
     inkscape:window-y="56"
     inkscape:window-maximized="0" />
  <metadata
     id="metadata6371">
    <rdf:RDF>
      <cc:Work
         rdf:about="">
        <dc:format>image/svg+xml</dc:format>
        <dc:type
           rdf:resource="http://purl.org/dc/dcmitype/StillImage" />
        <dc:title></dc:title>
      </cc:Work>
    </rdf:RDF>
  </metadata>
  <g
     inkscape:label="Layer 1"
     inkscape:groupmode="layer"
     id="layer1">
    <rect
       style="opacity:0.35;fill:#0c0c0c;fill-opacity:1;stroke-width:0;stroke-linecap:round;stroke-linejoin:round;stroke-dashoffset:2.1875"
       id="rect1208-1-9-7-7-98-3-7-7-5"
       width="44"
       height="42"
       x="10.000022"
       y="19.499811"
       rx="3"
       ry="3" />
    <rect
       style="fill:url(#linearGradient885-6);fill-opacity:1;stroke-width:0;stroke-linecap:round;stroke-linejoin:round;stroke-dashoffset:2.1875"
       id="rect1208-1-9-7-7-98-36-7"
       width="44"
       height="42"
       x="10.000022"
       y="18.50001"
       rx="3"
       ry="3" />
    <path
       id="rect1208-1-9-7-7-98-7-56-4"
       style="opacity:0.35;fill:#2b5e64;fill-opacity:1;stroke-width:0;stroke-linecap:round;stroke-linejoin:round;stroke-dashoffset:2.1875"
       d="m 13,18.5 c -1.662,0 -3,1.338 -3,3 v 36 c 0,1.662 1.338,3 3,3 h 38 c 1.662,0 3,-1.338 3,-3 v -36 c 0,-1.662 -1.338,-3 -3,-3 z m 0,0.5 h 38 c 1.385,0 2.5,1.115 2.5,2.5 v 36 C 53.5,58.885 52.385,60 51,60 H 13 c -1.385,0 -2.5,-1.115 -2.5,-2.5 v -36 C 10.5,20.115 11.615,19 13,19 Z" />
    <g
       id="g925-8"
       transform="translate(-1e-4,0.5)">
      <path
         id="rect1905-4-7"
         style="opacity:0.65;fill:#fcfcfc;fill-opacity:1;stroke:none;stroke-width:1;stroke-linecap:round;stroke-linejoin:round;stroke-miterlimit:4;stroke-dasharray:none;stroke-dashoffset:2.1875;stroke-opacity:1"
         d="m 27.000149,18 v 21.999995 c 0,2.77 2.23,5 5,5 2.77,0 5,-2.23 5,-5 V 18 Z" />
      <rect
         style="fill:#f0f0f0;fill-opacity:1;stroke:none;stroke-width:1.77812;stroke-linecap:round;stroke-linejoin:round;stroke-miterlimit:4;stroke-dasharray:none;stroke-dashoffset:2.1875;stroke-opacity:1"
         id="rect1308-8-1"
         width="3"
         height="3"
         x="29.000151"
         y="18" />
      <rect
         style="opacity:0.65;fill:#343434;fill-opacity:1;stroke:none;stroke-width:1.77812;stroke-linecap:round;stroke-linejoin:round;stroke-miterlimit:4;stroke-dasharray:none;stroke-dashoffset:2.1875;stroke-opacity:1"
         id="rect1308-1-10-7"
         width="3"
         height="3"
         x="32.000153"
         y="18" />
      <path
         id="rect1676-3-2"
         style="color:#000000;font-style:normal;font-variant:normal;font-weight:normal;font-stretch:normal;font-size:medium;line-height:normal;font-family:sans-serif;font-variant-ligatures:normal;font-variant-position:normal;font-variant-caps:normal;font-variant-numeric:normal;font-variant-alternates:normal;font-variant-east-asian:normal;font-feature-settings:normal;font-variation-settings:normal;text-indent:0;text-align:start;text-decoration:none;text-decoration-line:none;text-decoration-style:solid;text-decoration-color:#000000;letter-spacing:normal;word-spacing:normal;text-transform:none;writing-mode:lr-tb;direction:ltr;text-orientation:mixed;dominant-baseline:auto;baseline-shift:baseline;text-anchor:start;white-space:normal;shape-padding:0;shape-margin:0;inline-size:0;clip-rule:nonzero;display:inline;overflow:visible;visibility:visible;opacity:0.65;isolation:auto;mix-blend-mode:normal;color-interpolation:sRGB;color-interpolation-filters:linearRGB;solid-color:#000000;solid-opacity:1;vector-effect:none;fill:#343434;fill-opacity:1;fill-rule:nonzero;stroke:none;stroke-linecap:round;stroke-linejoin:round;stroke-miterlimit:4;stroke-dasharray:none;stroke-dashoffset:2.1875;stroke-opacity:1;color-rendering:auto;image-rendering:auto;shape-rendering:auto;text-rendering:auto;enable-background:accumulate;stop-color:#000000"
         d="m 28.000149,18 v 21.999995 c 0,2.20736 1.79264,4 4,4 2.20735,0 4,-1.79264 4,-4 V 18 h -1 v 21.999995 c 0,1.67065 -1.32936,3.00001 -3,3 -1.67065,0 -3,-1.32935 -3,-3 V 18 Z" />
      <rect
         style="fill:#f0f0f0;fill-opacity:1;stroke:none;stroke-width:1.77812;stroke-linecap:round;stroke-linejoin:round;stroke-miterlimit:4;stroke-dasharray:none;stroke-dashoffset:2.1875;stroke-opacity:1"
         id="rect1308-2-0-72"
         width="3"
         height="3"
         x="32.000153"
         y="21" />
      <rect
         style="fill:#f0f0f0;fill-opacity:1;stroke:none;stroke-width:1.77812;stroke-linecap:round;stroke-linejoin:round;stroke-miterlimit:4;stroke-dasharray:none;stroke-dashoffset:2.1875;stroke-opacity:1"
         id="rect1308-5-4-2"
         width="3"
         height="3"
         x="29.000151"
         y="24.000008" />
      <rect
         style="fill:#f0f0f0;fill-opacity:1;stroke:none;stroke-width:1.77812;stroke-linecap:round;stroke-linejoin:round;stroke-miterlimit:4;stroke-dasharray:none;stroke-dashoffset:2.1875;stroke-opacity:1"
         id="rect1308-47-4-6"
         width="3"
         height="3"
         x="32.000153"
         y="27.000008" />
      <rect
         style="fill:#f0f0f0;fill-opacity:1;stroke:none;stroke-width:1.77812;stroke-linecap:round;stroke-linejoin:round;stroke-miterlimit:4;stroke-dasharray:none;stroke-dashoffset:2.1875;stroke-opacity:1"
         id="rect1308-44-4-1"
         width="3"
         height="3"
         x="29.000151"
         y="30.000008" />
      <rect
         style="fill:#f0f0f0;fill-opacity:1;stroke:none;stroke-width:1.77812;stroke-linecap:round;stroke-linejoin:round;stroke-miterlimit:4;stroke-dasharray:none;stroke-dashoffset:2.1875;stroke-opacity:1"
         id="rect1308-3-4-0"
         width="3"
         height="3"
         x="32.000153"
         y="33.000008" />
      <rect
         style="fill:#f0f0f0;fill-opacity:1;stroke:none;stroke-width:1.77812;stroke-linecap:round;stroke-linejoin:round;stroke-miterlimit:4;stroke-dasharray:none;stroke-dashoffset:2.1875;stroke-opacity:1"
         id="rect1308-0-7-61"
         width="3"
         height="3"
         x="29.000135"
         y="36.000008" />
      <rect
         style="opacity:0.65;fill:#343434;fill-opacity:1;stroke:none;stroke-width:1.77812;stroke-linecap:round;stroke-linejoin:round;stroke-miterlimit:4;stroke-dasharray:none;stroke-dashoffset:2.1875;stroke-opacity:1"
         id="rect1308-1-8-6-5"
         width="3"
         height="3"
         x="29.000151"
         y="21" />
      <rect
         style="opacity:0.65;fill:#343434;fill-opacity:1;stroke:none;stroke-width:1.77812;stroke-linecap:round;stroke-linejoin:round;stroke-miterlimit:4;stroke-dasharray:none;stroke-dashoffset:2.1875;stroke-opacity:1"
         id="rect1308-1-6-3-9"
         width="3"
         height="3"
         x="32.000153"
         y="24.000008" />
      <rect
         style="opacity:0.65;fill:#343434;fill-opacity:1;stroke:none;stroke-width:1.77812;stroke-linecap:round;stroke-linejoin:round;stroke-miterlimit:4;stroke-dasharray:none;stroke-dashoffset:2.1875;stroke-opacity:1"
         id="rect1308-1-88-1-4"
         width="3"
         height="3"
         x="29.000151"
         y="27.000008" />
      <rect
         style="opacity:0.65;fill:#343434;fill-opacity:1;stroke:none;stroke-width:1.77812;stroke-linecap:round;stroke-linejoin:round;stroke-miterlimit:4;stroke-dasharray:none;stroke-dashoffset:2.1875;stroke-opacity:1"
         id="rect1308-1-4-7-9"
         width="3"
         height="3"
         x="32.000153"
         y="30.000008" />
      <rect
         style="opacity:0.65;fill:#343434;fill-opacity:1;stroke:none;stroke-width:1.77812;stroke-linecap:round;stroke-linejoin:round;stroke-miterlimit:4;stroke-dasharray:none;stroke-dashoffset:2.1875;stroke-opacity:1"
         id="rect1308-1-3-5-0"
         width="3"
         height="3"
         x="29.000135"
         y="33.000008" />
      <rect
         style="opacity:0.65;fill:#343434;fill-opacity:1;stroke:none;stroke-width:1.77812;stroke-linecap:round;stroke-linejoin:round;stroke-miterlimit:4;stroke-dasharray:none;stroke-dashoffset:2.1875;stroke-opacity:1"
         id="rect1308-1-1-9-9"
         width="3"
         height="3"
         x="32.000153"
         y="36.000008" />
      <path
         id="rect1308-7-4-7-6-1"
         style="opacity:0.85;fill:#666666;fill-opacity:1;stroke:none;stroke-width:1.77812;stroke-linecap:round;stroke-linejoin:round;stroke-miterlimit:4;stroke-dasharray:none;stroke-dashoffset:2.1875;stroke-opacity:1"
         d="m 29.767719,41.999995 c 0.5472,0.61152 1.3371,1 2.23242,1 v -1 z" />
      <path
         id="rect1308-1-49-0-2-7-2-77"
         style="opacity:0.85;fill:#666666;fill-opacity:1;stroke:none;stroke-width:1.77812;stroke-linecap:round;stroke-linejoin:round;stroke-miterlimit:4;stroke-dasharray:none;stroke-dashoffset:2.1875;stroke-opacity:1"
         d="m 32.000139,41.999995 v 1 c 0.89533,1e-5 1.68522,-0.38848 2.23243,-1 z" />
      <path
         id="rect1308-1-49-3-1-11"
         style="opacity:0.65;fill:#343434;fill-opacity:1;stroke:none;stroke-width:1.77812;stroke-linecap:round;stroke-linejoin:round;stroke-miterlimit:4;stroke-dasharray:none;stroke-dashoffset:2.1875;stroke-opacity:1"
         d="m 29.000139,38.999995 v 1 c 0,0.77533 0.29568,1.47045 0.76954,2 h 2.23046 v -3 z" />
      <path
         id="rect1308-7-6-3-7-5"
         style="fill:#f0f0f0;fill-opacity:1;stroke:none;stroke-width:1.77812;stroke-linecap:round;stroke-linejoin:round;stroke-miterlimit:4;stroke-dasharray:none;stroke-dashoffset:2.1875;stroke-opacity:1"
         d="m 32.000149,38.999995 v 3 h 2.23047 c 0.47478,-0.52975 0.76953,-1.22383 0.76953,-2 v -1 z" />
    </g>
    <g
       id="g924-9"
       transform="translate(-1e-4,0.5)">
      <path
         id="rect2039-5-8-0-7"
         style="opacity:1;fill:url(#linearGradient2307);fill-opacity:1;stroke:none;stroke-width:1;stroke-linecap:round;stroke-linejoin:round;stroke-miterlimit:4;stroke-dasharray:none;stroke-dashoffset:2.1875;stroke-opacity:1"
         d="m 32.050919,55.999995 c -2.216,0 -4,-1.784 -4,-4 v -8 c 0,-2.216 1.784,-4 4,-4 2.216,0 4,1.784 4,4 v 8 c 0,2.216 -1.784,4 -4,4 z m -0.0508,-1 a 3,3 0 0 0 0.0508,0 3,3 0 0 0 3,-3 3,3 0 0 0 -3,-3 3,3 0 0 0 -3,3 3,3 0 0 0 2.94922,3 z" />
      <path
         id="rect897-7"
         style="opacity:0.65;fill:#666666;fill-opacity:1;stroke:none;stroke-linecap:round;stroke-linejoin:round;stroke-dashoffset:2.1875"
         d="m 32,38.5 c -2.493,0 -4.5,2.007 -4.5,4.5 v 8 c 0,2.493 2.007,4.5 4.5,4.5 2.493,0 4.5,-2.007 4.5,-4.5 v -8 c 0,-2.493 -2.007,-4.5 -4.5,-4.5 z m 0,0.5 c 2.216,0 4,1.784 4,4 v 8 c 0,2.216 -1.784,4 -4,4 -2.216,0 -4,-1.784 -4,-4 v -8 c 0,-2.216 1.784,-4 4,-4 z" />
      <path
         id="rect2039-8-2-6"
         style="fill:#fcfcfc;fill-opacity:1;stroke:none;stroke-width:1;stroke-linecap:round;stroke-linejoin:round;stroke-miterlimit:4;stroke-dasharray:none;stroke-dashoffset:2.1875;stroke-opacity:1"
         d="m 32.000139,54.999995 c -2.216,0 -4,-1.784 -4,-4 v -8 c 0,-2.216 1.784,-4 4,-4 2.216,0 4,1.784 4,4 v 8 c 0,2.216 -1.784,4 -4,4 z m -0.0508,-1 a 3,3 0 0 0 0.0508,0 3,3 0 0 0 3,-3 3,3 0 0 0 -3,-3 3,3 0 0 0 -3,3 3,3 0 0 0 2.94922,3 z" />
      <path
         id="path873-7"
         style="color:#000000;font-style:normal;font-variant:normal;font-weight:normal;font-stretch:normal;font-size:medium;line-height:normal;font-family:sans-serif;font-variant-ligatures:normal;font-variant-position:normal;font-variant-caps:normal;font-variant-numeric:normal;font-variant-alternates:normal;font-variant-east-asian:normal;font-feature-settings:normal;font-variation-settings:normal;text-indent:0;text-align:start;text-decoration:none;text-decoration-line:none;text-decoration-style:solid;text-decoration-color:#000000;letter-spacing:normal;word-spacing:normal;text-transform:none;writing-mode:lr-tb;direction:ltr;text-orientation:mixed;dominant-baseline:auto;baseline-shift:baseline;text-anchor:start;white-space:normal;shape-padding:0;shape-margin:0;inline-size:0;clip-rule:nonzero;display:inline;overflow:visible;visibility:visible;opacity:0.65;isolation:auto;mix-blend-mode:normal;color-interpolation:sRGB;color-interpolation-filters:linearRGB;solid-color:#000000;solid-opacity:1;vector-effect:none;fill:#666666;fill-opacity:1;fill-rule:nonzero;stroke:none;stroke-linecap:round;stroke-linejoin:round;stroke-miterlimit:4;stroke-dasharray:none;stroke-dashoffset:2.1875;stroke-opacity:1;color-rendering:auto;image-rendering:auto;shape-rendering:auto;text-rendering:auto;enable-background:accumulate;stop-color:#000000"
         d="m 32,48 c -1.653893,0 -3,1.346107 -3,3 0,1.653893 1.346107,3 3,3 1.653893,0 3,-1.346107 3,-3 0,-1.653893 -1.346107,-3 -3,-3 z m 0,0.5 c 1.383673,0 2.5,1.116327 2.5,2.5 0,1.383673 -1.116327,2.5 -2.5,2.5 -1.383673,0 -2.5,-1.116327 -2.5,-2.5 0,-1.383673 1.116327,-2.5 2.5,-2.5 z" />
    </g>
  </g>
</svg>
