<?xml version="1.0" encoding="UTF-8" standalone="no"?>
<svg
   xmlns:dc="http://purl.org/dc/elements/1.1/"
   xmlns:cc="http://creativecommons.org/ns#"
   xmlns:rdf="http://www.w3.org/1999/02/22-rdf-syntax-ns#"
   xmlns:svg="http://www.w3.org/2000/svg"
   xmlns="http://www.w3.org/2000/svg"
   xmlns:xlink="http://www.w3.org/1999/xlink"
   xmlns:sodipodi="http://sodipodi.sourceforge.net/DTD/sodipodi-0.dtd"
   xmlns:inkscape="http://www.inkscape.org/namespaces/inkscape"
   width="64"
   height="64"
   viewBox="0 0 64 64"
   version="1.1"
   id="svg6374"
   inkscape:version="1.0.2 (e86c870879, 2021-01-15)"
   sodipodi:docname="image-bmp.svg">
  <defs
     id="defs6368">
    <linearGradient
       inkscape:collect="always"
       xlink:href="#linearGradient3093"
       id="linearGradient2920"
       gradientUnits="userSpaceOnUse"
       gradientTransform="translate(-699.99999,-598.99998)"
       x1="732"
       y1="612.5"
       x2="732"
       y2="660.5" />
    <linearGradient
       inkscape:collect="always"
       id="linearGradient3093">
      <stop
         style="stop-color:#323132;stop-opacity:0.30000001"
         offset="0"
         id="stop3089" />
      <stop
         style="stop-color:#323132;stop-opacity:0.38"
         offset="1"
         id="stop3091" />
    </linearGradient>
    <linearGradient
       inkscape:collect="always"
       xlink:href="#linearGradient1458"
       id="linearGradient3056"
       gradientUnits="userSpaceOnUse"
       gradientTransform="matrix(0.89810548,0,0,0.87574424,-38.9393,-133.79848)"
       x1="49.481316"
       y1="172.19466"
       x2="102.92715"
       y2="215.58632" />
    <linearGradient
       inkscape:collect="always"
       id="linearGradient1458">
      <stop
         style="stop-color:#819a56;stop-opacity:1"
         offset="0"
         id="stop1454" />
      <stop
         style="stop-color:#81c4d5;stop-opacity:1"
         offset="1"
         id="stop1456" />
    </linearGradient>
    <linearGradient
       inkscape:collect="always"
       xlink:href="#linearGradient2707"
       id="linearGradient2922"
       gradientUnits="userSpaceOnUse"
       gradientTransform="translate(-1.2115479e-7,2.5000003)"
       x1="5.5"
       y1="14.5"
       x2="58.5"
       y2="55.5" />
    <linearGradient
       inkscape:collect="always"
       id="linearGradient2707">
      <stop
         style="stop-color:#fcfcfc;stop-opacity:1"
         offset="0"
         id="stop2703" />
      <stop
         style="stop-color:#f4f4f6;stop-opacity:1"
         offset="1"
         id="stop2705" />
    </linearGradient>
  </defs>
  <sodipodi:namedview
     id="base"
     pagecolor="#cecece"
     bordercolor="#666666"
     borderopacity="1.0"
     inkscape:pageopacity="0"
     inkscape:pageshadow="2"
     inkscape:zoom="7.1642971"
     inkscape:cx="31.047425"
     inkscape:cy="40.174358"
     inkscape:document-units="px"
     inkscape:current-layer="layer1"
     inkscape:document-rotation="0"
     showgrid="false"
     units="px"
     inkscape:window-width="1500"
     inkscape:window-height="919"
     inkscape:window-x="68"
     inkscape:window-y="56"
     inkscape:window-maximized="0" />
  <metadata
     id="metadata6371">
    <rdf:RDF>
      <cc:Work
         rdf:about="">
        <dc:format>image/svg+xml</dc:format>
        <dc:type
           rdf:resource="http://purl.org/dc/dcmitype/StillImage" />
        <dc:title></dc:title>
      </cc:Work>
    </rdf:RDF>
  </metadata>
  <g
     inkscape:label="Layer 1"
     inkscape:groupmode="layer"
     id="layer1">
    <path
       id="rect9720-3-3-2-9-31-4-1-8-5-8-6-9-78-3"
       style="opacity:0.175;fill:#0c0c0c;fill-opacity:1;stroke:none;stroke-width:1.23443;stroke-linecap:round;stroke-linejoin:round;stroke-miterlimit:4;stroke-dasharray:none;stroke-dashoffset:0;stroke-opacity:1"
       d="m 6.9999999,16.5 c -2.216,0 -4,1.784 -4,4 v 38 c 0,2.216 1.784,4 4,4 H 57 c 2.216,0 4,-1.784 4,-4 v -38 c 0,-2.216 -1.784,-4 -4,-4 z m 1,3 H 56 c 1.108,0 2,0.892 2,2 v 36 c 0,1.108 -0.892,2 -2,2 H 7.9999999 c -1.108,0 -2,-0.892 -2,-2 v -36 c 0,-1.108 0.892,-2 2,-2 z" />
    <rect
       style="fill:url(#linearGradient2920);fill-opacity:1;stroke:none;stroke-width:1.23443;stroke-linecap:round;stroke-linejoin:round;stroke-miterlimit:4;stroke-dasharray:none;stroke-dashoffset:0;stroke-opacity:1"
       id="rect9720-3-3-2-9-31-4-1-1-37"
       width="60"
       height="48"
       x="2"
       y="13.5"
       rx="5"
       ry="5" />
    <rect
       style="fill:url(#linearGradient3056);fill-opacity:1;stroke:none;stroke-width:1.70814;stroke-linecap:square;stroke-miterlimit:4;stroke-dasharray:none;stroke-opacity:0.54902"
       id="rect2119-0-9-3-0-8"
       width="53"
       height="41"
       x="5.499999"
       y="17"
       rx="2"
       ry="2" />
    <path
       id="rect9720-3-3-2-9-31-4-1-8-5-7-3-88-2"
       style="opacity:0.3;fill:#313b21;fill-opacity:1;stroke:none;stroke-width:1.23443;stroke-linecap:round;stroke-linejoin:round;stroke-miterlimit:4;stroke-dasharray:none;stroke-dashoffset:0;stroke-opacity:1"
       d="m 7.9999999,17.5 c -1.108,0 -2,0.892 -2,2 V 56 c 0,1.108 0.892,2 2,2 H 56 c 1.108,0 2,-0.892 2,-2 V 19.5 c 0,-1.108 -0.892,-2 -2,-2 z m 1,2.5 H 55 c 0.554,0 1,0.446 1,1 v 34 c 0,0.554 -0.446,1 -1,1 H 8.9999999 c -0.554,0 -1,-0.446 -1,-1 V 21 c 0,-0.554 0.446,-1 1,-1 z" />
    <path
       id="rect9720-3-3-2-9-31-4-1-8-5-8-6-9-4"
       style="fill:url(#linearGradient2922);fill-opacity:1;stroke:none;stroke-width:1.23443;stroke-linecap:round;stroke-linejoin:round;stroke-miterlimit:4;stroke-dasharray:none;stroke-dashoffset:0;stroke-opacity:1"
       d="m 6.9999999,14.5 c -2.216,0 -4,1.784 -4,4 v 38 c 0,2.216 1.784,4 4,4 H 57 c 2.216,0 4,-1.784 4,-4 v -38 c 0,-2.216 -1.784,-4 -4,-4 z m 1,3 H 56 c 1.108,0 2,0.892 2,2 v 36 c 0,1.108 -0.892,2 -2,2 H 7.9999999 c -1.108,0 -2,-0.892 -2,-2 v -36 c 0,-1.108 0.892,-2 2,-2 z" />
  </g>
</svg>
