<?xml version="1.0" encoding="UTF-8" standalone="no"?>
<svg
   xmlns:dc="http://purl.org/dc/elements/1.1/"
   xmlns:cc="http://creativecommons.org/ns#"
   xmlns:rdf="http://www.w3.org/1999/02/22-rdf-syntax-ns#"
   xmlns:svg="http://www.w3.org/2000/svg"
   xmlns="http://www.w3.org/2000/svg"
   xmlns:sodipodi="http://sodipodi.sourceforge.net/DTD/sodipodi-0.dtd"
   xmlns:inkscape="http://www.inkscape.org/namespaces/inkscape"
   width="64"
   height="64"
   viewBox="0 0 64 64"
   version="1.1"
   id="svg6374"
   inkscape:version="1.0.2 (e86c870879, 2021-01-15)"
   sodipodi:docname="text-x-haskell.svg">
  <defs
     id="defs6368" />
  <sodipodi:namedview
     id="base"
     pagecolor="#cecece"
     bordercolor="#666666"
     borderopacity="1.0"
     inkscape:pageopacity="0"
     inkscape:pageshadow="2"
     inkscape:zoom="3.2975144"
     inkscape:cx="0.78419257"
     inkscape:cy="32.951385"
     inkscape:document-units="px"
     inkscape:current-layer="layer1"
     inkscape:document-rotation="0"
     showgrid="false"
     units="px"
     inkscape:window-width="2048"
     inkscape:window-height="1080"
     inkscape:window-x="0"
     inkscape:window-y="0"
     inkscape:window-maximized="1" />
  <metadata
     id="metadata6371">
    <rdf:RDF>
      <cc:Work
         rdf:about="">
        <dc:format>image/svg+xml</dc:format>
        <dc:type
           rdf:resource="http://purl.org/dc/dcmitype/StillImage" />
        <dc:title></dc:title>
      </cc:Work>
    </rdf:RDF>
  </metadata>
  <g
     inkscape:label="Layer 1"
     inkscape:groupmode="layer"
     id="layer1">
    <rect
       style="opacity:0.45;fill:#0c0c0c;fill-opacity:1;stroke-width:0.495;stroke-linecap:round;stroke-linejoin:round;stroke-miterlimit:4;stroke-dasharray:none;stroke-dashoffset:2.1875"
       id="rect954-6-9-9-8-9"
       width="44"
       height="56"
       x="9.999939"
       y="5.499939"
       rx="3"
       ry="3" />
    <path
       id="rect954-60-2-4-5-8"
       style="color:#000000;font-style:normal;font-variant:normal;font-weight:normal;font-stretch:normal;font-size:medium;line-height:normal;font-family:sans-serif;font-variant-ligatures:normal;font-variant-position:normal;font-variant-caps:normal;font-variant-numeric:normal;font-variant-alternates:normal;font-variant-east-asian:normal;font-feature-settings:normal;font-variation-settings:normal;text-indent:0;text-align:start;text-decoration:none;text-decoration-line:none;text-decoration-style:solid;text-decoration-color:#000000;letter-spacing:normal;word-spacing:normal;text-transform:none;writing-mode:lr-tb;direction:ltr;text-orientation:mixed;dominant-baseline:auto;baseline-shift:baseline;text-anchor:start;white-space:normal;shape-padding:0;shape-margin:0;inline-size:0;clip-rule:nonzero;display:inline;overflow:visible;visibility:visible;opacity:0.8;isolation:auto;mix-blend-mode:normal;color-interpolation:sRGB;color-interpolation-filters:linearRGB;solid-color:#000000;solid-opacity:1;vector-effect:none;fill:#b2a8f0;fill-opacity:1;fill-rule:nonzero;stroke:none;stroke-linecap:round;stroke-linejoin:round;stroke-miterlimit:4;stroke-dasharray:none;stroke-dashoffset:2.1875;stroke-opacity:1;color-rendering:auto;image-rendering:auto;shape-rendering:auto;text-rendering:auto;enable-background:accumulate;stop-color:#000000"
       d="M 13,3.5 C 11.06965,3.5 9.5,5.06965 9.5,7 v 50 c 0,1.93035 1.56965,3.5 3.5,3.5 h 38 c 1.93036,0 3.5,-1.56965 3.5,-3.5 V 7 C 54.5,5.06965 52.93036,3.5 51,3.5 Z m 0,1 h 38 c 1.39365,0 2.5,1.10635 2.5,2.5 v 50 c 0,1.39365 -1.10635,2.5 -2.5,2.5 H 13 c -1.39365,0 -2.5,-1.10635 -2.5,-2.5 V 7 c 0,-1.39365 1.10635,-2.5 2.5,-2.5 z" />
    <rect
       style="fill:#585957;fill-opacity:1;stroke-width:0.495;stroke-linecap:round;stroke-linejoin:round;stroke-miterlimit:4;stroke-dasharray:none;stroke-dashoffset:2.1875"
       id="rect954-0-8-0-4"
       width="44"
       height="56"
       x="9.999939"
       y="3.999939"
       rx="3"
       ry="3" />
    <path
       id="Path-6-9-3-6"
       style="opacity:0.375;fill:#141514;fill-opacity:1;fill-rule:evenodd;stroke:none;stroke-width:0.0867923"
       d="M 16.5,28.25 23.78905,39.39999 16.5,50.55 h 5.46667 L 29.25525,39.39999 21.96667,28.25 Z m 7.36428,0 7.28858,11.14999 L 23.86428,50.55 h 5.4662 l 4.5562,-6.96864 4.55524,6.96864 h 5.46571 L 29.33096,28.25 Z m 11.48793,6.31243 2.42951,3.7173 h 9.71859 v -3.7173 z m 3.64477,5.57499 2.42951,3.71683 h 6.07382 v -3.71683 z" />
    <path
       id="Path-6-9-3"
       style="fill:#b2a8f0;fill-opacity:1;fill-rule:evenodd;stroke:none;stroke-width:0.0867923"
       d="M 16.5,26.75 23.78905,37.89999 16.5,49.05 h 5.46667 L 29.25525,37.89999 21.96667,26.75 Z m 7.36428,0 7.28858,11.14999 L 23.86428,49.05 h 5.4662 l 4.5562,-6.96864 4.55524,6.96864 h 5.46571 L 29.33096,26.75 Z m 11.48793,6.31243 2.42951,3.7173 h 9.71859 v -3.7173 z m 3.64477,5.57499 2.42951,3.71683 h 6.07382 v -3.71683 z" />
  </g>
</svg>
