<?xml version="1.0" encoding="UTF-8" standalone="no"?>
<svg
   xmlns:dc="http://purl.org/dc/elements/1.1/"
   xmlns:cc="http://creativecommons.org/ns#"
   xmlns:rdf="http://www.w3.org/1999/02/22-rdf-syntax-ns#"
   xmlns:svg="http://www.w3.org/2000/svg"
   xmlns="http://www.w3.org/2000/svg"
   xmlns:sodipodi="http://sodipodi.sourceforge.net/DTD/sodipodi-0.dtd"
   xmlns:inkscape="http://www.inkscape.org/namespaces/inkscape"
   width="64"
   height="64"
   viewBox="0 0 64 64"
   version="1.1"
   id="svg6374"
   inkscape:version="1.0.2 (e86c870879, 2021-01-15)"
   sodipodi:docname="text-x-makefile.svg">
  <defs
     id="defs6368">
    <linearGradient
       x1="102.48344"
       y1="103.26587"
       x2="238.25964"
       y2="231.90547"
       id="linearGradient-2"
       gradientTransform="matrix(0.11086626,0,0,0.11203135,188.08384,722.26635)"
       gradientUnits="userSpaceOnUse">
      <stop
         stop-color="#FFE052"
         offset="0%"
         id="stop119" />
      <stop
         stop-color="#FFC331"
         offset="100%"
         id="stop121" />
    </linearGradient>
    <linearGradient
       x1="24.714943"
       y1="22.898218"
       x2="151.13554"
       y2="148.33669"
       id="linearGradient-1"
       gradientTransform="matrix(0.11086626,0,0,0.11203134,188.08384,722.26635)"
       gradientUnits="userSpaceOnUse">
      <stop
         stop-color="#387EB8"
         offset="0%"
         id="stop114" />
      <stop
         stop-color="#366994"
         offset="100%"
         id="stop116" />
    </linearGradient>
  </defs>
  <sodipodi:namedview
     id="base"
     pagecolor="#cecece"
     bordercolor="#666666"
     borderopacity="1.0"
     inkscape:pageopacity="0"
     inkscape:pageshadow="2"
     inkscape:zoom="3.2975144"
     inkscape:cx="0.78419257"
     inkscape:cy="32.951385"
     inkscape:document-units="px"
     inkscape:current-layer="layer1"
     inkscape:document-rotation="0"
     showgrid="false"
     units="px"
     inkscape:window-width="2048"
     inkscape:window-height="1080"
     inkscape:window-x="0"
     inkscape:window-y="0"
     inkscape:window-maximized="1" />
  <metadata
     id="metadata6371">
    <rdf:RDF>
      <cc:Work
         rdf:about="">
        <dc:format>image/svg+xml</dc:format>
        <dc:type
           rdf:resource="http://purl.org/dc/dcmitype/StillImage" />
        <dc:title></dc:title>
      </cc:Work>
    </rdf:RDF>
  </metadata>
  <g
     inkscape:label="Layer 1"
     inkscape:groupmode="layer"
     id="layer1">
    <rect
       style="opacity:0.45;fill:#0c0c0c;fill-opacity:1;stroke-width:0.495;stroke-linecap:round;stroke-linejoin:round;stroke-miterlimit:4;stroke-dasharray:none;stroke-dashoffset:2.1875"
       id="rect954-6-9-9-8-8-3-7"
       width="44"
       height="56"
       x="9.999938"
       y="5.4999995"
       rx="3"
       ry="3" />
    <path
       id="rect954-60-2-4-5-5-0-6"
       style="color:#000000;font-style:normal;font-variant:normal;font-weight:normal;font-stretch:normal;font-size:medium;line-height:normal;font-family:sans-serif;font-variant-ligatures:normal;font-variant-position:normal;font-variant-caps:normal;font-variant-numeric:normal;font-variant-alternates:normal;font-variant-east-asian:normal;font-feature-settings:normal;font-variation-settings:normal;text-indent:0;text-align:start;text-decoration:none;text-decoration-line:none;text-decoration-style:solid;text-decoration-color:#000000;letter-spacing:normal;word-spacing:normal;text-transform:none;writing-mode:lr-tb;direction:ltr;text-orientation:mixed;dominant-baseline:auto;baseline-shift:baseline;text-anchor:start;white-space:normal;shape-padding:0;shape-margin:0;inline-size:0;clip-rule:nonzero;display:inline;overflow:visible;visibility:visible;opacity:0.8;isolation:auto;mix-blend-mode:normal;color-interpolation:sRGB;color-interpolation-filters:linearRGB;solid-color:#000000;solid-opacity:1;vector-effect:none;fill:#9ec17b;fill-opacity:1;fill-rule:nonzero;stroke:none;stroke-linecap:round;stroke-linejoin:round;stroke-miterlimit:4;stroke-dasharray:none;stroke-dashoffset:2.1875;stroke-opacity:1;color-rendering:auto;image-rendering:auto;shape-rendering:auto;text-rendering:auto;enable-background:accumulate;stop-color:#000000"
       d="M 13,3.5 C 11.06965,3.5 9.5,5.0696 9.5,7 v 50 c 0,1.9303 1.56965,3.5 3.5,3.5 h 37.99999 c 1.93036,0 3.5,-1.5697 3.5,-3.5 V 7 c 0,-1.9304 -1.56964,-3.5 -3.5,-3.5 z m 0,1 h 37.99999 c 1.39366,0 2.5,1.1063 2.5,2.5 v 50 c 0,1.3936 -1.10634,2.5 -2.5,2.5 H 13 c -1.39365,0 -2.5,-1.1064 -2.5,-2.5 V 7 c 0,-1.3937 1.10635,-2.5 2.5,-2.5 z" />
    <rect
       style="fill:#303032;fill-opacity:1;stroke-width:0.495;stroke-linecap:round;stroke-linejoin:round;stroke-miterlimit:4;stroke-dasharray:none;stroke-dashoffset:2.1875"
       id="rect954-0-8-0-6-4-3"
       width="44"
       height="56"
       x="9.999938"
       y="4.0000005"
       rx="3"
       ry="3" />
    <ellipse
       style="display:inline;opacity:0.9;fill:#9ec17b;fill-opacity:1;stroke:#0c0c0c;stroke-width:0;stroke-linecap:round;stroke-linejoin:round;stroke-dashoffset:2.1875"
       id="path840-31"
       cx="20.688141"
       cy="28.91382"
       rx="2.6177096"
       ry="2.6171691" />
    <ellipse
       style="display:inline;opacity:0.75;fill:#9ec17b;fill-opacity:1;stroke:#0c0c0c;stroke-width:0;stroke-linecap:round;stroke-linejoin:round;stroke-dashoffset:2.1875"
       id="path840-3-1"
       cx="32.029907"
       cy="22.512026"
       rx="2.6177096"
       ry="2.6171691" />
    <ellipse
       style="display:inline;opacity:0.6;fill:#9ec17b;fill-opacity:1;stroke:#0c0c0c;stroke-width:0;stroke-linecap:round;stroke-linejoin:round;stroke-dashoffset:2.1875"
       id="path840-6-0"
       cx="43.335938"
       cy="29.043825"
       rx="2.6177096"
       ry="2.6171691" />
    <ellipse
       style="display:inline;opacity:0.45;fill:#9ec17b;fill-opacity:1;stroke:#0c0c0c;stroke-width:0;stroke-linecap:round;stroke-linejoin:round;stroke-dashoffset:2.1875"
       id="path840-7-3"
       cx="43.354065"
       cy="42.112793"
       rx="2.6177096"
       ry="2.6171691" />
    <ellipse
       style="display:inline;opacity:0.3;fill:#9ec17b;fill-opacity:1;stroke:#0c0c0c;stroke-width:0;stroke-linecap:round;stroke-linejoin:round;stroke-dashoffset:2.1875"
       id="path840-5-4"
       cx="31.897766"
       cy="48.696655"
       rx="2.6177096"
       ry="2.6171691" />
    <ellipse
       style="display:inline;opacity:0.15;fill:#9ec17b;fill-opacity:1;stroke:#0c0c0c;stroke-width:0;stroke-linecap:round;stroke-linejoin:round;stroke-dashoffset:2.1875"
       id="path840-35-0"
       cx="20.676117"
       cy="42.123779"
       rx="2.6177096"
       ry="2.6171691" />
    <path
       id="rect1649-7-7-4-67-3"
       style="display:inline;fill:#9ec17b;fill-opacity:1;stroke-width:0.523487;stroke-linecap:round;stroke-linejoin:round;stroke-dashoffset:2.1875;stroke-opacity:0.74902"
       d="m 32.00599,18.75 a 3.6647936,3.6640368 0 0 0 -3.1801,1.832 3.6647936,3.6640368 0 0 0 1.34158,5.0054 3.6647936,3.6640368 0 0 0 0.65442,0.2954 v 6.1473 a 3.6647936,3.6640368 0 0 0 -1.23828,0.7156 L 24.2582,29.6716 a 3.6647936,3.6640368 0 0 0 -1.76083,-3.888 3.6647936,3.6640368 0 0 0 -1.82627,-0.4907 3.6647936,3.6640368 0 0 0 -3.1801,1.8321 3.6647936,3.6640368 0 0 0 1.34158,5.0052 3.6647936,3.6640368 0 0 0 4.24864,-0.4191 l 5.32442,3.0742 a 3.6647936,3.6640368 0 0 0 0,1.4292 l -5.32541,3.0732 a 3.6647936,3.6640368 0 0 0 -0.58286,-0.4183 3.6647936,3.6640368 0 0 0 -1.82627,-0.4907 3.6647936,3.6640368 0 0 0 -3.1801,1.8321 3.6647936,3.6640368 0 0 0 1.34158,5.0053 3.6647936,3.6640368 0 0 0 5.00636,-1.3413 3.6647936,3.6640368 0 0 0 0.42025,-2.5477 l 5.32442,-3.073 a 3.6647936,3.6640368 0 0 0 0.58386,0.4191 3.6647936,3.6640368 0 0 0 0.65442,0.2954 v 6.1474 a 3.6647936,3.6640368 0 0 0 -1.996,1.6377 3.6647936,3.6640368 0 0 0 1.34158,5.0054 3.6647936,3.6640368 0 0 0 5.00637,-1.3413 3.6647936,3.6640368 0 0 0 -1.34158,-5.0054 3.6647936,3.6640368 0 0 0 -0.65443,-0.2964 v -6.1474 a 3.6647936,3.6640368 0 0 0 1.23829,-0.7145 l 5.32436,3.0741 a 3.6647936,3.6640368 0 0 0 1.76188,3.8879 3.6647936,3.6640368 0 0 0 5.00637,-1.3413 3.6647936,3.6640368 0 0 0 -1.34158,-5.0054 3.6647936,3.6640368 0 0 0 -1.82627,-0.4907 3.6647936,3.6640368 0 0 0 -2.42138,0.91 l -5.32542,-3.0742 a 3.6647936,3.6640368 0 0 0 0,-1.4292 l 5.32437,-3.0742 a 3.6647936,3.6640368 0 0 0 0.58391,0.4191 3.6647936,3.6640368 0 0 0 5.00637,-1.3412 3.6647936,3.6640368 0 0 0 -1.34158,-5.0054 3.6647936,3.6640368 0 0 0 -1.82627,-0.4907 3.6647936,3.6640368 0 0 0 -3.1801,1.8321 3.6647936,3.6640368 0 0 0 -0.4203,2.5455 l -5.32536,3.0742 A 3.6647936,3.6640368 0 0 0 33.83226,32.3266 3.6647936,3.6640368 0 0 0 33.17783,32.0312 V 25.8838 A 3.6647936,3.6640368 0 0 0 35.17384,24.2461 3.6647936,3.6640368 0 0 0 33.83226,19.2407 3.6647936,3.6640368 0 0 0 32.00599,18.75 Z m -0.0309,1.832 a 1.8323968,1.8320184 0 0 1 0.94075,0.2454 1.8323968,1.8320184 0 0 1 0.67077,2.5027 1.8323968,1.8320184 0 0 1 -2.50316,0.6706 1.8323968,1.8320184 0 0 1 -0.67077,-2.5027 1.8323968,1.8320184 0 0 1 1.56241,-0.916 z M 20.6402,27.125 a 1.8323968,1.8320184 0 0 1 0.94075,0.2453 1.8323968,1.8320184 0 0 1 0.67082,2.5027 1.8323968,1.8320184 0 0 1 -2.50322,0.6707 1.8323968,1.8320184 0 0 1 -0.67076,-2.5027 1.8323968,1.8320184 0 0 1 1.56241,-0.916 z m 22.66978,0 a 1.8323968,1.8320184 0 0 1 0.94076,0.2453 1.8323968,1.8320184 0 0 1 0.67076,2.5027 1.8323968,1.8320184 0 0 1 -2.50316,0.6707 1.8323968,1.8320184 0 0 1 -0.67082,-2.5027 1.8323968,1.8320184 0 0 1 1.56246,-0.916 z m -11.33489,6.5428 a 1.8323968,1.8320184 0 0 1 0.94075,0.2455 1.8323968,1.8320184 0 0 1 0.67077,2.5026 1.8323968,1.8320184 0 0 1 -2.50316,0.6706 1.8323968,1.8320184 0 0 1 -0.67077,-2.5027 1.8323968,1.8320184 0 0 1 1.56241,-0.916 z m -11.33489,6.543 a 1.8323968,1.8320184 0 0 1 0.94075,0.2454 1.8323968,1.8320184 0 0 1 0.67082,2.5026 1.8323968,1.8320184 0 0 1 -2.50322,0.6707 1.8323968,1.8320184 0 0 1 -0.67076,-2.5027 1.8323968,1.8320184 0 0 1 1.56241,-0.916 z m 22.66978,0 a 1.8323968,1.8320184 0 0 1 0.94076,0.2454 1.8323968,1.8320184 0 0 1 0.67076,2.5026 1.8323968,1.8320184 0 0 1 -2.50316,0.6707 1.8323968,1.8320184 0 0 1 -0.67082,-2.5027 1.8323968,1.8320184 0 0 1 1.56246,-0.916 z m -11.33489,6.5429 a 1.8323968,1.8320184 0 0 1 0.94075,0.2454 1.8323968,1.8320184 0 0 1 0.67077,2.5026 1.8323968,1.8320184 0 0 1 -2.50316,0.6707 1.8323968,1.8320184 0 0 1 -0.67077,-2.5027 1.8323968,1.8320184 0 0 1 1.56241,-0.916 z" />
    <ellipse
       style="display:inline;fill:#9ec17b;fill-opacity:1;stroke:#0c0c0c;stroke-width:0;stroke-linecap:round;stroke-linejoin:round;stroke-dashoffset:2.1875"
       id="path840-31-9"
       cx="31.90564"
       cy="35.23938"
       rx="2.6177096"
       ry="2.6171691" />
  </g>
</svg>
