<?xml version="1.0" encoding="UTF-8" standalone="no"?>
<svg
   xmlns:dc="http://purl.org/dc/elements/1.1/"
   xmlns:cc="http://creativecommons.org/ns#"
   xmlns:rdf="http://www.w3.org/1999/02/22-rdf-syntax-ns#"
   xmlns:svg="http://www.w3.org/2000/svg"
   xmlns="http://www.w3.org/2000/svg"
   xmlns:xlink="http://www.w3.org/1999/xlink"
   xmlns:sodipodi="http://sodipodi.sourceforge.net/DTD/sodipodi-0.dtd"
   xmlns:inkscape="http://www.inkscape.org/namespaces/inkscape"
   width="64"
   height="64"
   viewBox="0 0 16.933333 16.933334"
   version="1.1"
   id="svg841"
   inkscape:version="1.0.2 (e86c870879, 2021-01-15)"
   sodipodi:docname="appointment-new.svg">
  <defs
     id="defs835">
    <linearGradient
       inkscape:collect="always"
       xlink:href="#linearGradient1338-8"
       id="linearGradient4647"
       gradientUnits="userSpaceOnUse"
       gradientTransform="translate(3.4375e-7,0.39687515)"
       x1="8.2020836"
       y1="1.3229167"
       x2="8.2029152"
       y2="5.0272117" />
    <linearGradient
       inkscape:collect="always"
       id="linearGradient1338-8">
      <stop
         style="stop-color:#fdfdfa;stop-opacity:0.44999999"
         offset="0"
         id="stop1334-9" />
      <stop
         style="stop-color:#fdfdfa;stop-opacity:0;"
         offset="1"
         id="stop1336-0" />
    </linearGradient>
    <linearGradient
       inkscape:collect="always"
       xlink:href="#linearGradient4452"
       id="linearGradient4649"
       gradientUnits="userSpaceOnUse"
       x1="614"
       y1="998"
       x2="622"
       y2="1010"
       gradientTransform="matrix(0.26458334,0,0,0.26458334,-158.75,-263.78959)" />
    <linearGradient
       inkscape:collect="always"
       id="linearGradient4452">
      <stop
         style="stop-color:#333347;stop-opacity:0.85000002"
         offset="0"
         id="stop4448" />
      <stop
         style="stop-color:#333347;stop-opacity:0.75"
         offset="1"
         id="stop4450" />
    </linearGradient>
    <linearGradient
       inkscape:collect="always"
       xlink:href="#linearGradient4231"
       id="linearGradient4651"
       gradientUnits="userSpaceOnUse"
       gradientTransform="matrix(0.26458334,0,0,0.26458334,-158.38137,-258.66651)"
       x1="612.60675"
       y1="978.63715"
       x2="620.60675"
       y2="990.63715" />
    <linearGradient
       inkscape:collect="always"
       id="linearGradient4231">
      <stop
         style="stop-color:#d5d5db;stop-opacity:0"
         offset="0"
         id="stop4227" />
      <stop
         style="stop-color:#42424d;stop-opacity:0.54901963"
         offset="1"
         id="stop4229" />
    </linearGradient>
    <linearGradient
       inkscape:collect="always"
       xlink:href="#linearGradient4452"
       id="linearGradient4653"
       gradientUnits="userSpaceOnUse"
       gradientTransform="matrix(0.26458334,0,0,0.26458334,-151.34166,-263.78959)"
       x1="614"
       y1="998"
       x2="622"
       y2="1010" />
    <linearGradient
       inkscape:collect="always"
       xlink:href="#linearGradient4231"
       id="linearGradient4655"
       gradientUnits="userSpaceOnUse"
       gradientTransform="matrix(0.26458334,0,0,0.26458334,-150.97303,-258.66649)"
       x1="612.60675"
       y1="978.63715"
       x2="620.60675"
       y2="990.63715" />
    <linearGradient
       inkscape:collect="always"
       xlink:href="#linearGradient877"
       id="linearGradient879"
       x1="47.75"
       y1="33.5"
       x2="48.25"
       y2="61.5"
       gradientUnits="userSpaceOnUse"
       gradientTransform="matrix(0.26458334,0,0,0.26458334,-4.2333335,-1.7859371)" />
    <linearGradient
       inkscape:collect="always"
       id="linearGradient877">
      <stop
         style="stop-color:#17cea7;stop-opacity:1"
         offset="0"
         id="stop873" />
      <stop
         style="stop-color:#13ae8d;stop-opacity:1"
         offset="1"
         id="stop875" />
    </linearGradient>
  </defs>
  <sodipodi:namedview
     id="base"
     pagecolor="#c4c4c4"
     bordercolor="#666666"
     borderopacity="1.0"
     inkscape:pageopacity="0"
     inkscape:pageshadow="2"
     inkscape:zoom="7.7923984"
     inkscape:cx="-11.769932"
     inkscape:cy="33.182208"
     inkscape:document-units="px"
     inkscape:current-layer="layer1"
     inkscape:document-rotation="0"
     showgrid="false"
     units="px"
     inkscape:window-width="2048"
     inkscape:window-height="1080"
     inkscape:window-x="0"
     inkscape:window-y="0"
     inkscape:window-maximized="1" />
  <metadata
     id="metadata838">
    <rdf:RDF>
      <cc:Work
         rdf:about="">
        <dc:format>image/svg+xml</dc:format>
        <dc:type
           rdf:resource="http://purl.org/dc/dcmitype/StillImage" />
        <dc:title />
      </cc:Work>
    </rdf:RDF>
  </metadata>
  <g
     inkscape:label="Layer 1"
     inkscape:groupmode="layer"
     id="layer1">
    <path
       id="rect848-6-3-6-7-0-9-3-9-1-6-6-4"
       style="color:#000000;font-style:normal;font-variant:normal;font-weight:normal;font-stretch:normal;font-size:medium;line-height:normal;font-family:sans-serif;font-variant-ligatures:normal;font-variant-position:normal;font-variant-caps:normal;font-variant-numeric:normal;font-variant-alternates:normal;font-variant-east-asian:normal;font-feature-settings:normal;font-variation-settings:normal;text-indent:0;text-align:start;text-decoration:none;text-decoration-line:none;text-decoration-style:solid;text-decoration-color:#000000;letter-spacing:normal;word-spacing:normal;text-transform:none;writing-mode:lr-tb;direction:ltr;text-orientation:mixed;dominant-baseline:auto;baseline-shift:baseline;text-anchor:start;white-space:normal;shape-padding:0;shape-margin:0;inline-size:0;clip-rule:nonzero;display:inline;overflow:visible;visibility:visible;opacity:0.25;isolation:auto;mix-blend-mode:normal;color-interpolation:sRGB;color-interpolation-filters:linearRGB;solid-color:#000000;solid-opacity:1;vector-effect:none;fill:#0c0c0c;fill-opacity:1;fill-rule:nonzero;stroke:none;stroke-width:0;stroke-linecap:round;stroke-linejoin:round;stroke-miterlimit:4;stroke-dasharray:none;stroke-dashoffset:2.1875;stroke-opacity:1;paint-order:normal;color-rendering:auto;image-rendering:auto;shape-rendering:auto;text-rendering:auto;enable-background:accumulate;stop-color:#000000"
       d="m 1.3224013,5.5562501 a 0.26460982,0.26463435 0 0 0 -0.264068,0.264081 v 8.9966799 c 0,1.021583 0.830088,1.851739 1.851568,1.851739 H 14.023436 c 1.021477,0 1.851564,-0.830156 1.851564,-1.851739 V 5.8203311 a 0.26460982,0.26463435 0 0 0 -0.265615,-0.264081 z m 0.265618,0.529749 H 15.345836 v 8.7310119 c 0,0.737553 -0.58493,1.32252 -1.3224,1.32252 H 2.9099013 c -0.737473,0 -1.321882,-0.584967 -1.321882,-1.32252 z" />
    <path
       id="rect848-6-3-6-7-0-9-2-0-4-8-7"
       style="color:#000000;font-style:normal;font-variant:normal;font-weight:normal;font-stretch:normal;font-size:medium;line-height:normal;font-family:sans-serif;font-variant-ligatures:normal;font-variant-position:normal;font-variant-caps:normal;font-variant-numeric:normal;font-variant-alternates:normal;font-variant-east-asian:normal;font-feature-settings:normal;font-variation-settings:normal;text-indent:0;text-align:start;text-decoration:none;text-decoration-line:none;text-decoration-style:solid;text-decoration-color:#000000;letter-spacing:normal;word-spacing:normal;text-transform:none;writing-mode:lr-tb;direction:ltr;text-orientation:mixed;dominant-baseline:auto;baseline-shift:baseline;text-anchor:start;white-space:normal;shape-padding:0;shape-margin:0;inline-size:0;clip-rule:nonzero;display:inline;overflow:visible;visibility:visible;opacity:1;isolation:auto;mix-blend-mode:normal;color-interpolation:sRGB;color-interpolation-filters:linearRGB;solid-color:#000000;solid-opacity:1;vector-effect:none;fill:#393941;fill-opacity:1;fill-rule:nonzero;stroke:none;stroke-width:1.00005;stroke-linecap:round;stroke-linejoin:round;stroke-miterlimit:4;stroke-dasharray:none;stroke-dashoffset:2.1875;stroke-opacity:1;paint-order:normal;color-rendering:auto;image-rendering:auto;shape-rendering:auto;text-rendering:auto;enable-background:accumulate;stop-color:#000000"
       d="m 1.3224013,5.1593751 a 0.26460982,0.26463435 0 0 0 -0.264068,0.264081 v 8.9966799 c 0,1.021583 0.830088,1.851739 1.851568,1.851739 H 14.023436 c 1.021477,0 1.851564,-0.830156 1.851564,-1.851739 V 5.4234561 a 0.26460982,0.26463435 0 0 0 -0.265615,-0.264081 z m 0.265618,0.529749 H 15.345836 v 8.7310119 c 0,0.737553 -0.58493,1.32252 -1.3224,1.32252 H 2.9099013 c -0.737473,0 -1.321882,-0.584967 -1.321882,-1.32252 z" />
    <path
       id="rect848-6-3-7-5-6-0-6-5-4-1-7-75"
       style="color:#000000;font-style:normal;font-variant:normal;font-weight:normal;font-stretch:normal;font-size:medium;line-height:normal;font-family:sans-serif;font-variant-ligatures:normal;font-variant-position:normal;font-variant-caps:normal;font-variant-numeric:normal;font-variant-alternates:normal;font-variant-east-asian:normal;font-feature-settings:normal;font-variation-settings:normal;text-indent:0;text-align:start;text-decoration:none;text-decoration-line:none;text-decoration-style:solid;text-decoration-color:#000000;letter-spacing:normal;word-spacing:normal;text-transform:none;writing-mode:lr-tb;direction:ltr;text-orientation:mixed;dominant-baseline:auto;baseline-shift:baseline;text-anchor:start;white-space:normal;shape-padding:0;shape-margin:0;inline-size:0;clip-rule:nonzero;display:inline;overflow:visible;visibility:visible;isolation:auto;mix-blend-mode:normal;color-interpolation:sRGB;color-interpolation-filters:linearRGB;solid-color:#000000;solid-opacity:1;vector-effect:none;fill:#6e162e;fill-opacity:1;fill-rule:nonzero;stroke:none;stroke-width:0.999897;stroke-linecap:round;stroke-linejoin:round;stroke-miterlimit:4;stroke-dasharray:none;stroke-dashoffset:2.1875;stroke-opacity:1;color-rendering:auto;image-rendering:auto;shape-rendering:auto;text-rendering:auto;enable-background:accumulate;stop-color:#000000"
       d="m 2.9099643,1.4552081 c -1.021511,0 -1.851628,0.831956 -1.851628,1.853169 v 2.114603 a 0.26461898,0.26454505 0 0 0 0.265626,0.265562 H 15.611438 a 0.26461898,0.26454505 0 0 0 0.26356,-0.265562 v -2.114603 c 0,-1.021213 -0.830117,-1.853169 -1.851631,-1.853169 z m 0,0.529564 H 14.023367 c 0.737499,0 1.322446,0.586317 1.322446,1.323605 v 1.85113 H 1.5875213 v -1.85113 c 0,-0.737288 0.584946,-1.323605 1.322443,-1.323605 z" />
    <path
       id="rect848-6-3-6-4-22-2-9-4"
       style="fill:#fdfbfc;fill-opacity:1;stroke-width:1.19063;stroke-linecap:round;stroke-linejoin:round;stroke-dashoffset:2.1875"
       d="m 1.3229173,5.4239581 v 8.9958339 c 0,0.879475 0.708025,1.5875 1.5875,1.5875 H 14.022917 c 0.879475,0 1.5875,-0.708025 1.5875,-1.5875 V 5.4239581 Z" />
    <path
       id="rect848-6-3-7-5-6-0-5-5-2-3-1"
       style="color:#000000;font-style:normal;font-variant:normal;font-weight:normal;font-stretch:normal;font-size:medium;line-height:normal;font-family:sans-serif;font-variant-ligatures:normal;font-variant-position:normal;font-variant-caps:normal;font-variant-numeric:normal;font-variant-alternates:normal;font-variant-east-asian:normal;font-feature-settings:normal;font-variation-settings:normal;text-indent:0;text-align:start;text-decoration:none;text-decoration-line:none;text-decoration-style:solid;text-decoration-color:#000000;letter-spacing:normal;word-spacing:normal;text-transform:none;writing-mode:lr-tb;direction:ltr;text-orientation:mixed;dominant-baseline:auto;baseline-shift:baseline;text-anchor:start;white-space:normal;shape-padding:0;shape-margin:0;inline-size:0;clip-rule:nonzero;display:inline;overflow:visible;visibility:visible;opacity:0.2;isolation:auto;mix-blend-mode:normal;color-interpolation:sRGB;color-interpolation-filters:linearRGB;solid-color:#000000;solid-opacity:1;vector-effect:none;fill:#1c1650;fill-opacity:1;fill-rule:nonzero;stroke:none;stroke-width:0.999897;stroke-linecap:round;stroke-linejoin:round;stroke-miterlimit:4;stroke-dasharray:none;stroke-dashoffset:2.1875;stroke-opacity:1;color-rendering:auto;image-rendering:auto;shape-rendering:auto;text-rendering:auto;enable-background:accumulate;stop-color:#000000"
       d="m 2.9099643,1.7197921 c -1.021511,0 -1.851628,0.831956 -1.851628,1.853168 v 2.114603 a 0.26461898,0.26454505 0 0 0 0.265626,0.265562 H 15.611438 a 0.26461898,0.26454505 0 0 0 0.26356,-0.265562 v -2.114603 c 0,-1.021212 -0.830117,-1.853168 -1.851631,-1.853168 z m 0,0.529563 H 14.023367 c 0.737499,0 1.322446,0.586317 1.322446,1.323605 v 1.851131 H 1.5875213 v -1.851131 c 0,-0.737288 0.584946,-1.323605 1.322443,-1.323605 z" />
    <path
       id="rect848-6-3-7-5-9-29-8-7-28"
       style="fill:#d53460;fill-opacity:1;stroke-width:1.19063;stroke-linecap:round;stroke-linejoin:round;stroke-dashoffset:2.1875"
       d="m 2.9104173,1.7197921 c -0.879475,0 -1.5875,0.708025 -1.5875,1.5875 v 2.116666 H 15.610417 v -2.116666 c 0,-0.879475 -0.708025,-1.5875 -1.5875,-1.5875 z" />
    <rect
       style="opacity:0.45;fill:#fdfdfa;fill-opacity:1;stroke-width:1.19063;stroke-linecap:round;stroke-linejoin:round;stroke-dashoffset:2.1875"
       id="rect915-6-5-97-9"
       width="2.1166668"
       height="3.1750002"
       x="3.7041674"
       y="0.79375052"
       rx="0.5291667"
       ry="0.5291667" />
    <rect
       style="opacity:0.85;fill:#551124;fill-opacity:1;stroke-width:1.19063;stroke-linecap:round;stroke-linejoin:round;stroke-dashoffset:2.1875"
       id="rect915-6-5-97-6-3"
       width="2.1166668"
       height="3.1750002"
       x="3.7041674"
       y="0.52916694"
       rx="0.5291667"
       ry="0.5291667" />
    <path
       id="rect848-6-3-7-5-6-8-9-4-0-8-3-6"
       style="fill:url(#linearGradient4647);fill-opacity:1;stroke-width:1.19063;stroke-linecap:round;stroke-linejoin:round;stroke-dashoffset:2.1875"
       d="m 2.9104173,1.7197921 c -0.879475,0 -1.5875,0.708025 -1.5875,1.5875 v 2.116666 h 0.264583 v -2.116666 c 0,-0.732896 0.590021,-1.322917 1.322917,-1.322917 H 14.022917 c 0.732896,0 1.322917,0.590021 1.322917,1.322917 v 2.116666 h 0.264583 v -2.116666 c 0,-0.879475 -0.708025,-1.5875 -1.5875,-1.5875 z" />
    <rect
       style="fill:#6e162e;fill-opacity:1;stroke:none;stroke-width:0.529167;stroke-linecap:round;stroke-linejoin:round;stroke-miterlimit:4;stroke-dasharray:none;stroke-dashoffset:2.1875;stroke-opacity:1;paint-order:normal"
       id="rect1239-6-2-8-2-8"
       width="14.2875"
       height="0.26458335"
       x="1.3229171"
       y="5.1593747" />
    <rect
       style="fill:#f3f3f9;fill-opacity:1;stroke-width:1.19063;stroke-linecap:round;stroke-linejoin:round;stroke-dashoffset:2.1875"
       id="rect915-6-5-1"
       width="2.1166668"
       height="3.1750002"
       x="3.7041674"
       y="0.26458335"
       rx="0.5291667"
       ry="0.5291667" />
    <path
       id="rect915-3-2-9-3-8-0-4-0"
       style="fill:url(#linearGradient4649);fill-opacity:1;stroke-width:1.19063;stroke-linecap:round;stroke-linejoin:round;stroke-dashoffset:2.1875"
       d="m 4.2333333,0.26458345 c -0.293158,0 -0.529166,0.2360084 -0.529166,0.5291667 V 2.9103901 c 0,0.293159 0.236008,0.529167 0.529166,0.529167 h 1.058334 c 0.293158,0 0.529166,-0.236008 0.529166,-0.529167 V 0.79375015 c 0,-0.2931583 -0.236008,-0.5291667 -0.529166,-0.5291667 z m 0,0.2645834 h 1.058334 c 0.146579,0 0.264583,0.1180041 0.264583,0.2645833 V 2.9103901 c 0,0.146579 -0.118004,0.264584 -0.264583,0.264584 h -1.058334 c -0.146579,0 -0.264583,-0.118005 -0.264583,-0.264584 V 0.79375015 c 0,-0.1465792 0.118004,-0.2645833 0.264583,-0.2645833 z" />
    <rect
       style="fill:url(#linearGradient4651);fill-opacity:1;stroke-width:1.19063;stroke-linecap:round;stroke-linejoin:round;stroke-dashoffset:2.1875"
       id="rect915-6-5-9-5"
       width="2.1166668"
       height="3.1750002"
       x="3.7041674"
       y="0.26458335"
       rx="0.5291667"
       ry="0.5291667" />
    <rect
       style="opacity:0.45;fill:#fdfdfa;fill-opacity:1;stroke-width:1.19063;stroke-linecap:round;stroke-linejoin:round;stroke-dashoffset:2.1875"
       id="rect915-6-5-97-0-1"
       width="2.1166668"
       height="3.1750002"
       x="11.1125"
       y="0.79375052"
       rx="0.5291667"
       ry="0.5291667" />
    <rect
       style="opacity:0.85;fill:#551124;fill-opacity:1;stroke-width:1.19063;stroke-linecap:round;stroke-linejoin:round;stroke-dashoffset:2.1875"
       id="rect915-6-5-97-6-9-1"
       width="2.1166668"
       height="3.1750002"
       x="11.1125"
       y="0.52916694"
       rx="0.5291667"
       ry="0.5291667" />
    <rect
       style="fill:#f3f3f9;fill-opacity:1;stroke-width:1.19063;stroke-linecap:round;stroke-linejoin:round;stroke-dashoffset:2.1875"
       id="rect915-6-5-2-0"
       width="2.1166668"
       height="3.1750002"
       x="11.1125"
       y="0.26458335"
       rx="0.5291667"
       ry="0.5291667" />
    <path
       id="rect915-3-2-9-3-8-0-4-5-8"
       style="fill:url(#linearGradient4653);fill-opacity:1;stroke-width:1.19063;stroke-linecap:round;stroke-linejoin:round;stroke-dashoffset:2.1875"
       d="m 11.641672,0.26458345 c -0.293158,0 -0.529166,0.2360084 -0.529166,0.5291667 V 2.9103901 c 0,0.293159 0.236008,0.529167 0.529166,0.529167 h 1.058334 c 0.293158,0 0.529166,-0.236008 0.529166,-0.529167 V 0.79375015 c 0,-0.2931583 -0.236008,-0.5291667 -0.529166,-0.5291667 z m 0,0.2645834 h 1.058334 c 0.146579,0 0.264583,0.1180041 0.264583,0.2645833 V 2.9103901 c 0,0.146579 -0.118004,0.264584 -0.264583,0.264584 h -1.058334 c -0.146579,0 -0.264583,-0.118005 -0.264583,-0.264584 V 0.79375015 c 0,-0.1465792 0.118004,-0.2645833 0.264583,-0.2645833 z" />
    <rect
       style="fill:url(#linearGradient4655);fill-opacity:1;stroke-width:1.19063;stroke-linecap:round;stroke-linejoin:round;stroke-dashoffset:2.1875"
       id="rect915-6-5-9-4-5"
       width="2.1166668"
       height="3.1750002"
       x="11.1125"
       y="0.26458335"
       rx="0.5291667"
       ry="0.5291667" />
    <path
       id="rect4307-0-2-6-35-2-1-0"
       style="opacity:0.25;fill:#303036;fill-opacity:1;stroke:none;stroke-width:0;stroke-linecap:round;stroke-linejoin:round;stroke-miterlimit:4;stroke-dasharray:none;stroke-dashoffset:2.1875;stroke-opacity:1"
       d="m 8.069792,7.5406259 c -0.146579,0 -0.264584,0.118004 -0.264584,0.264583 V 10.649481 H 4.9609375 c -0.1465791,0 -0.2645833,0.118004 -0.2645833,0.26461 v 0.793723 c 0,0.146579 0.1180042,0.264583 0.2645833,0.264583 H 7.805208 v 2.844298 c 0,0.146579 0.118005,0.264557 0.264584,0.264557 h 0.7937497 c 0.146579,0 0.264583,-0.117978 0.264583,-0.264557 v -2.844298 h 2.8442713 c 0.146579,0 0.264583,-0.118004 0.264583,-0.264583 v -0.793723 c 0,-0.146606 -0.118004,-0.26461 -0.264583,-0.26461 H 9.1281247 V 7.8052089 c 0,-0.146579 -0.118004,-0.264583 -0.264583,-0.264583 z" />
    <path
       id="rect4307-0-2-6-35-2-1"
       style="fill:url(#linearGradient879);fill-opacity:1;stroke:none;stroke-width:0;stroke-linecap:round;stroke-linejoin:round;stroke-miterlimit:4;stroke-dasharray:none;stroke-dashoffset:2.1875;stroke-opacity:1"
       d="m 8.069792,7.0114589 c -0.146579,0 -0.264584,0.118004 -0.264584,0.264583 V 10.120314 H 4.9609375 c -0.1465791,0 -0.2645833,0.118004 -0.2645833,0.26461 v 0.793723 c 0,0.14658 0.1180042,0.264584 0.2645833,0.264584 H 7.805208 v 2.844297 c 0,0.146579 0.118005,0.264557 0.264584,0.264557 h 0.7937497 c 0.146579,0 0.264583,-0.117978 0.264583,-0.264557 v -2.844297 h 2.8442713 c 0.146579,0 0.264583,-0.118004 0.264583,-0.264584 v -0.793723 c 0,-0.146606 -0.118004,-0.26461 -0.264583,-0.26461 H 9.1281247 V 7.2760419 c 0,-0.146579 -0.118004,-0.264583 -0.264583,-0.264583 z" />
    <path
       id="rect4307-0-2-9-9-1-5-3-6"
       style="color:#000000;font-style:normal;font-variant:normal;font-weight:normal;font-stretch:normal;font-size:medium;line-height:normal;font-family:sans-serif;font-variant-ligatures:normal;font-variant-position:normal;font-variant-caps:normal;font-variant-numeric:normal;font-variant-alternates:normal;font-variant-east-asian:normal;font-feature-settings:normal;font-variation-settings:normal;text-indent:0;text-align:start;text-decoration:none;text-decoration-line:none;text-decoration-style:solid;text-decoration-color:#000000;letter-spacing:normal;word-spacing:normal;text-transform:none;writing-mode:lr-tb;direction:ltr;text-orientation:mixed;dominant-baseline:auto;baseline-shift:baseline;text-anchor:start;white-space:normal;shape-padding:0;shape-margin:0;inline-size:0;clip-rule:nonzero;display:inline;overflow:visible;visibility:visible;opacity:1;isolation:auto;mix-blend-mode:normal;color-interpolation:sRGB;color-interpolation-filters:linearRGB;solid-color:#000000;solid-opacity:1;vector-effect:none;fill:#0a5c4a;fill-opacity:1;fill-rule:nonzero;stroke:none;stroke-width:1;stroke-linecap:round;stroke-linejoin:round;stroke-miterlimit:4;stroke-dasharray:none;stroke-dashoffset:2.1875;stroke-opacity:1;color-rendering:auto;image-rendering:auto;shape-rendering:auto;text-rendering:auto;enable-background:accumulate;stop-color:#000000"
       d="m 8.070308,6.8130209 c -0.25308,0 -0.463021,0.209418 -0.463021,0.462519 v 2.646866 H 4.9609375 c -0.2530819,0 -0.4630208,0.2094171 -0.4630208,0.4624911 v 0.793248 c 0,0.253074 0.2099389,0.463021 0.4630208,0.463021 H 7.607287 v 2.646362 c 0,0.253074 0.209941,0.463021 0.463021,0.463021 h 0.7927177 c 0.253079,0 0.463021,-0.209947 0.463021,-0.463021 v -2.646362 h 2.6463493 c 0.253082,0 0.463021,-0.209947 0.463021,-0.463021 v -0.793248 c 0,-0.253074 -0.209939,-0.4624911 -0.463021,-0.4624911 H 9.3260467 v -2.646866 c 0,-0.253101 -0.209942,-0.462519 -0.463021,-0.462519 z m 0,0.396373 h 0.7927177 c 0.04008,0 0.06666,0.02619 0.06666,0.06609 v 2.8437421 a 0.19845734,0.19845734 0 0 0 0.198953,0.19947 h 2.8437583 c 0.04008,0 0.06666,0.02619 0.06666,0.06612 v 0.793221 c 0,0.04011 -0.02658,0.06612 -0.06666,0.06612 H 9.1286387 a 0.19845734,0.19845734 0 0 0 -0.198953,0.19947 v 2.843741 c 0,0.04011 -0.02658,0.06609 -0.06666,0.06609 H 8.070308 c -0.04008,0 -0.06666,-0.02619 -0.06666,-0.06609 V 11.443627 A 0.19845734,0.19845734 0 0 0 7.806242,11.244157 H 4.9609402 c -0.040079,0 -0.066659,-0.02619 -0.066659,-0.06612 v -0.793221 c 0,-0.04011 0.02658,-0.06612 0.066659,-0.06612 H 7.806243 a 0.19845734,0.19845734 0 0 0 0.197403,-0.19947 V 7.2754839 c 0,-0.04008 0.02658,-0.06609 0.06666,-0.06609 z" />
  </g>
</svg>
