<?xml version="1.0" encoding="UTF-8" standalone="no"?>
<svg
   xmlns:dc="http://purl.org/dc/elements/1.1/"
   xmlns:cc="http://creativecommons.org/ns#"
   xmlns:rdf="http://www.w3.org/1999/02/22-rdf-syntax-ns#"
   xmlns:svg="http://www.w3.org/2000/svg"
   xmlns="http://www.w3.org/2000/svg"
   xmlns:xlink="http://www.w3.org/1999/xlink"
   xmlns:sodipodi="http://sodipodi.sourceforge.net/DTD/sodipodi-0.dtd"
   xmlns:inkscape="http://www.inkscape.org/namespaces/inkscape"
   width="64"
   height="64"
   viewBox="0 0 64 64"
   version="1.1"
   id="svg6374"
   inkscape:version="1.0.2 (e86c870879, 2021-01-15)"
   sodipodi:docname="bookmark-new.svg">
  <defs
     id="defs6368">
    <radialGradient
       inkscape:collect="always"
       xlink:href="#linearGradient965"
       id="radialGradient6463"
       cx="86.343803"
       cy="1595.9543"
       fx="86.343803"
       fy="1595.9543"
       r="28.890551"
       gradientTransform="matrix(1,0,0,0.9999434,-54.342708,-1563.864)"
       gradientUnits="userSpaceOnUse" />
    <linearGradient
       inkscape:collect="always"
       id="linearGradient965">
      <stop
         style="stop-color:#feef67;stop-opacity:0"
         offset="0"
         id="stop961" />
      <stop
         style="stop-color:#fcd217;stop-opacity:0.89999998"
         offset="1"
         id="stop963" />
    </linearGradient>
    <linearGradient
       inkscape:collect="always"
       xlink:href="#linearGradient877"
       id="linearGradient1474"
       gradientUnits="userSpaceOnUse"
       x1="847.93756"
       y1="533.50037"
       x2="848.06256"
       y2="561.50037"
       gradientTransform="translate(-800,-500)" />
    <linearGradient
       inkscape:collect="always"
       id="linearGradient877">
      <stop
         style="stop-color:#17cea7;stop-opacity:1"
         offset="0"
         id="stop873" />
      <stop
         style="stop-color:#13ae8d;stop-opacity:1"
         offset="1"
         id="stop875" />
    </linearGradient>
  </defs>
  <sodipodi:namedview
     id="base"
     pagecolor="#cecece"
     bordercolor="#666666"
     borderopacity="1.0"
     inkscape:pageopacity="0"
     inkscape:pageshadow="2"
     inkscape:zoom="4.2747555"
     inkscape:cx="5.6174167"
     inkscape:cy="54.85018"
     inkscape:document-units="px"
     inkscape:current-layer="layer1"
     inkscape:document-rotation="0"
     showgrid="false"
     units="px"
     inkscape:window-width="1500"
     inkscape:window-height="970"
     inkscape:window-x="68"
     inkscape:window-y="56"
     inkscape:window-maximized="0" />
  <metadata
     id="metadata6371">
    <rdf:RDF>
      <cc:Work
         rdf:about="">
        <dc:format>image/svg+xml</dc:format>
        <dc:type
           rdf:resource="http://purl.org/dc/dcmitype/StillImage" />
        <dc:title />
      </cc:Work>
    </rdf:RDF>
  </metadata>
  <g
     inkscape:label="Layer 1"
     inkscape:groupmode="layer"
     id="layer1">
    <path
       id="rect2288-3-1-2-9-3-2-6"
       style="color:#000000;font-style:normal;font-variant:normal;font-weight:normal;font-stretch:normal;font-size:medium;line-height:normal;font-family:sans-serif;font-variant-ligatures:normal;font-variant-position:normal;font-variant-caps:normal;font-variant-numeric:normal;font-variant-alternates:normal;font-variant-east-asian:normal;font-feature-settings:normal;font-variation-settings:normal;text-indent:0;text-align:start;text-decoration:none;text-decoration-line:none;text-decoration-style:solid;text-decoration-color:#000000;letter-spacing:normal;word-spacing:normal;text-transform:none;writing-mode:lr-tb;direction:ltr;text-orientation:mixed;dominant-baseline:auto;baseline-shift:baseline;text-anchor:start;white-space:normal;shape-padding:0;shape-margin:0;inline-size:0;clip-rule:nonzero;display:inline;overflow:visible;visibility:visible;opacity:0.15;isolation:auto;mix-blend-mode:normal;color-interpolation:sRGB;color-interpolation-filters:linearRGB;solid-color:#000000;solid-opacity:1;vector-effect:none;fill:#0c0c0c;fill-opacity:1;fill-rule:nonzero;stroke:none;stroke-width:1.11119;stroke-linecap:round;stroke-linejoin:round;stroke-miterlimit:4;stroke-dasharray:none;stroke-dashoffset:2.1875;stroke-opacity:1;color-rendering:auto;image-rendering:auto;shape-rendering:auto;text-rendering:auto;enable-background:accumulate;stop-color:#000000"
       d="m 31.951149,3.0002109 c -0.99218,0.038 -1.63512,0.7751 -2.04642,1.5128 -0.4113,0.7377 -0.70626,1.6373 -0.97439,2.6892 -0.53625,2.1039 -0.92755,4.8088001 -1.30207,7.5621001 -0.37453,2.7533 -0.7281,5.5499 -1.15017,7.7444 -0.21103,1.0972 -0.44308,2.0457 -0.68142,2.7304 -0.23833,0.6847 -0.54655,1.0764 -0.53819,1.0701 0.009,-0.011 -0.40862,0.1676 -1.09374,0.191 -0.68512,0.023 -1.61445,-0.041 -2.67359,-0.1737 -2.11829,-0.2648 -4.76886,-0.7875 -7.38493,-1.2741 -2.61608,-0.4865 -5.1901202,-0.9413 -7.2721002,-1.057 -1.04098,-0.058 -1.9572,-0.04 -2.76907,0.1541 -0.81187,0.1942 -1.6857,0.6745 -1.97264,1.5975 -0.28698,0.923 0.13809,1.7974 0.67491,2.4461 0.53681,0.6488 1.26257,1.2279 2.13323,1.8254 1.74133,1.195 4.07339,2.4276 6.4582902,3.6574 2.38488,1.2296 4.819,2.4519 6.67964,3.5531 0.93032,0.5505 1.71694,1.074 2.26126,1.5214 0.54435,0.4475 0.79991,0.8529 0.8073,0.8769 0.008,0.024 0.027,0.5325 -0.1671,1.2372 -0.19413,0.7048 -0.54305,1.6163 -0.99175,2.6372 -0.8974,2.0417 -2.18913,4.5305 -3.43748,6.9933 -1.24834,2.4629 -2.45351,4.8928 -3.1966,6.9239 -0.37153,1.0156 -0.6345,1.9244 -0.70745,2.7696 -0.073,0.8452 0.0548,1.8112 0.8355,2.4093 0.7808,0.5979 1.78629,0.4404 2.54989,0.1 0.76361,-0.3407 1.50841,-0.8867 2.3177,-1.5715 1.61856,-1.3696 3.45193,-3.3172 5.30161,-5.3199 1.84968,-2.0027 3.70902,-4.0579 5.28208,-5.5782 0.78653,-0.7601 1.50443,-1.3878 2.07681,-1.7928 0.57239,-0.4051 1.02577,-0.5209 0.99175,-0.521 a 1.1112147,1.1114067 0 0 0 0.002,0 h 0.0369 a 1.1112147,1.1114067 0 0 0 0.013,0 1.1112147,1.1114067 0 0 0 0.0239,0 c -0.0334,0 0.42135,0.1176 0.99392,0.5231 0.57256,0.4056 1.29023,1.0326 2.0768,1.7929 1.57315,1.5207 3.43238,3.5758 5.28209,5.5781 1.8497,2.0025 3.68299,3.9507 5.3016,5.3199 0.80931,0.6847 1.55407,1.2289 2.3177,1.5694 0.76362,0.3404 1.76919,0.498 2.54989,-0.1 0.78072,-0.5981 0.90852,-1.5641 0.8355,-2.4093 -0.073,-0.8452 -0.338,-1.754 -0.70963,-2.7696 -0.74326,-2.0311 -1.94585,-4.461 -3.19442,-6.9239 -1.24857,-2.4628 -2.54212,-4.9516 -3.43965,-6.9933 -0.44876,-1.0209 -0.7976,-1.9324 -0.99174,-2.6372 -0.19414,-0.7047 -0.17451,-1.2131 -0.1671,-1.2372 0.008,-0.024 0.26295,-0.4294 0.80728,-0.8769 0.54434,-0.4474 1.33096,-0.9709 2.26127,-1.5214 1.86064,-1.1011 4.29476,-2.3235 6.67965,-3.5531 2.38487,-1.2298 4.71695,-2.4624 6.45829,-3.6574 0.87066,-0.5975 1.59641,-1.1766 2.13323,-1.8254 0.53681,-0.6487 0.96185,-1.523 0.6749,-2.4461 -0.28694,-0.923 -1.16078,-1.4033 -1.97264,-1.5975 -0.81186,-0.1941 -1.7281,-0.212 -2.76908,-0.1541 -2.08196,0.1157 -4.656,0.5705 -7.27209,1.057 -2.61608,0.4866 -5.26665,1.0093 -7.38492,1.2741 -1.05915,0.1325 -1.98631,0.197 -2.67142,0.1737 -0.68513,-0.023 -1.10434,-0.1974 -1.09592,-0.191 0.009,0.011 -0.29985,-0.3854 -0.53818,-1.0701 -0.23835,-0.6847 -0.46822,-1.6333 -0.67926,-2.7304 -0.42207,-2.1945 -0.7778,-4.9911 -1.15233,-7.7444 -0.37454,-2.7533 -0.76582,-5.4582001 -1.30208,-7.5621001 -0.26813,-1.0519 -0.56309,-1.9514 -0.97439,-2.6892 -0.41129,-0.7377 -1.05424,-1.4747 -2.04643,-1.5128 a 1.1112147,1.1114067 0 0 0 -0.0434,0 h -0.0111 a 1.1112147,1.1114067 0 0 0 -0.0435,0 z m 0.0499,2.3311 c 0.0227,0.037 0.0633,0.1023 0.15409,0.2648 0.24296,0.4358 0.51852,1.2012 0.76171,2.1553 0.48638,1.9082 0.88179,4.5738001 1.25433,7.3124001 0.37255,2.7386 0.72534,5.5556 1.1697,7.8659 0.22217,1.1552 0.46513,2.1826 0.76388,3.0408 0.29876,0.8584 0.59253,1.576 1.29122,2.1076 0.70103,0.5334 1.48006,0.6144 2.36544,0.6447 0.88539,0.03 1.8998,-0.051 3.02298,-0.191 2.24637,-0.2809 4.91794,-0.8124 7.51731,-1.2958 2.59938,-0.4836 5.13219,-0.9171 6.9878,-1.0202 0.92781,-0.051 1.69057,-0.011 2.1289,0.095 0.21513,0.051 0.30844,0.091 0.34938,0.1111 -0.0113,0.029 -0.0466,0.1111 -0.24739,0.3539 -0.30442,0.3679 -0.89752,0.8755 -1.6775,1.4108 -1.55998,1.0706 -3.84956,2.2898 -6.21958,3.5119 -2.37003,1.222 -4.8255,2.4529 -6.79466,3.6182 -0.98458,0.5827 -1.84794,1.1448 -2.54121,1.7147 -0.69328,0.5699 -1.26349,1.1116 -1.51909,1.9425 -0.2556,0.831 -0.093,1.5998 0.14974,2.4809 0.24271,0.8812 0.62534,1.8657 1.09809,2.9411 0.94546,2.1508 2.25028,4.6553 3.49171,7.104 1.24145,2.4488 2.42066,4.8473 3.09244,6.683 0.33588,0.9179 0.5387,1.7023 0.58159,2.1987 0.0188,0.2176 0.006,0.3162 -0.004,0.3842 -0.0488,-0.014 -0.10011,-0.025 -0.26258,-0.098 -0.41656,-0.1857 -1.06209,-0.623 -1.78818,-1.2372 -1.4522,-1.2284 -3.26546,-3.1405 -5.10413,-5.131 -1.83868,-1.9904 -3.70936,-4.061 -5.37106,-5.6672 -0.83085,-0.8031 -1.60659,-1.4923 -2.33722,-2.0099 -0.73064,-0.5175 -1.38799,-0.9311 -2.27646,-0.9311 -0.004,-1e-4 -0.006,0 -0.013,0 -0.007,0 -0.0133,-1e-4 -0.0239,0 h -0.0347 -0.002 c -0.0132,6e-4 -0.0323,0 -0.0326,0 -1.4e-4,0 -0.0846,0.011 -0.0847,0.011 -10e-6,0 -0.068,0.023 -0.11285,0.039 -0.76781,0.064 -1.38562,0.4136 -2.04643,0.8812 -0.73084,0.5171 -1.50631,1.2025 -2.33721,2.0056 -1.66182,1.606 -3.53237,3.6784 -5.37107,5.6693 -1.8387,1.9908 -3.6519,3.9021 -5.10413,5.131 -0.72611,0.6145 -1.37379,1.0536 -1.79034,1.2393 -0.16222,0.072 -0.21191,0.083 -0.26042,0.098 -0.01,-0.068 -0.0231,-0.1666 -0.004,-0.3841 0.0429,-0.4964 0.24579,-1.2809 0.58159,-2.1988 0.67161,-1.8357 1.84904,-4.2341 3.09026,-6.6829 1.24121,-2.4487 2.5464,-4.9532 3.49173,-7.1041 0.47266,-1.0754 0.85538,-2.0599 1.09808,-2.941 0.24271,-0.8811 0.40523,-1.65 0.14975,-2.4809 -0.25561,-0.8308 -0.82581,-1.3727 -1.51909,-1.9425 -0.69329,-0.5699 -1.55664,-1.1321 -2.54122,-1.7148 -1.96918,-1.1653 -4.42246,-2.3961 -6.79249,-3.6182 -2.37004,-1.222 -4.6617802,-2.4412 -6.2217502,-3.5118 -0.77998,-0.5353 -1.37309,-1.043 -1.67751,-1.4109 -0.20086,-0.2428 -0.23608,-0.3248 -0.24738,-0.3538 0.0409,-0.02 0.13425,-0.059 0.34938,-0.1111 0.43833,-0.1044 1.2011,-0.147 2.1289,-0.095 1.8556,0.1033 4.3905902,0.5366 6.9899602,1.0201 2.59938,0.4835 5.26878,1.0149 7.51514,1.2958 1.12318,0.1405 2.13761,0.2212 3.02299,0.191 0.88537,-0.03 1.66441,-0.1111 2.36543,-0.6446 0.69871,-0.5317 0.99247,-1.2493 1.29123,-2.1075 0.29875,-0.8584 0.54171,-1.8858 0.76388,-3.0409 0.44435,-2.3104 0.79934,-5.1272 1.17187,-7.8659 0.37253,-2.7387 0.76579,-5.4042001 1.25216,-7.3125001 0.24319,-0.9541 0.51877,-1.7216 0.76171,-2.1574 0.0907,-0.1627 0.13316,-0.2266 0.15625,-0.2627 z" />
    <path
       id="rect2288-3-1-2-9-4-0"
       style="color:#000000;font-style:normal;font-variant:normal;font-weight:normal;font-stretch:normal;font-size:medium;line-height:normal;font-family:sans-serif;font-variant-ligatures:normal;font-variant-position:normal;font-variant-caps:normal;font-variant-numeric:normal;font-variant-alternates:normal;font-variant-east-asian:normal;font-feature-settings:normal;font-variation-settings:normal;text-indent:0;text-align:start;text-decoration:none;text-decoration-line:none;text-decoration-style:solid;text-decoration-color:#000000;letter-spacing:normal;word-spacing:normal;text-transform:none;writing-mode:lr-tb;direction:ltr;text-orientation:mixed;dominant-baseline:auto;baseline-shift:baseline;text-anchor:start;white-space:normal;shape-padding:0;shape-margin:0;inline-size:0;clip-rule:nonzero;display:inline;overflow:visible;visibility:visible;isolation:auto;mix-blend-mode:normal;color-interpolation:sRGB;color-interpolation-filters:linearRGB;solid-color:#000000;solid-opacity:1;vector-effect:none;fill:#413c41;fill-opacity:1;fill-rule:nonzero;stroke:none;stroke-width:1.11122;stroke-linecap:round;stroke-linejoin:round;stroke-miterlimit:4;stroke-dasharray:none;stroke-dashoffset:2.1875;stroke-opacity:1;color-rendering:auto;image-rendering:auto;shape-rendering:auto;text-rendering:auto;enable-background:accumulate;stop-color:#000000"
       d="m 31.952499,2.0002109 c -0.99226,0.038 -1.63517,0.7751 -2.04652,1.5129 -0.41135,0.7377 -0.70625,1.6372 -0.97448,2.6892 -0.53625,2.1039 -0.92759,4.8087001 -1.30205,7.5620001 -0.37457,2.7534 -0.72814,5.5499 -1.15027,7.7444 -0.21101,1.0972 -0.44313,2.0457 -0.68147,2.7304 -0.23834,0.6848 -0.54657,1.0764 -0.53824,1.0701 0.0111,-0.011 -0.40857,0.1676 -1.09371,0.191 -0.68513,0.023 -1.6145,-0.041 -2.67374,-0.1737 -2.11838,-0.2648 -4.76907,-0.7874 -7.38526,-1.2741 -2.61619,-0.4865 -5.1903502,-0.9413 -7.2724102,-1.057 -1.04103,-0.058 -1.9573,-0.04 -2.76919,0.1542 -0.81191,0.1941 -1.68578,0.6744 -1.97273,1.5974 -0.287,0.9231 0.13809,1.7974 0.67493,2.4462 0.53683,0.6488 1.26263,1.2279 2.13333,1.8253 1.74141,1.1952 4.07357,2.4277 6.4585702,3.6574 2.38499,1.2296 4.81922,2.452 6.67994,3.5531 0.93036,0.5505 1.71701,1.0741 2.26136,1.5215 0.54437,0.4475 0.79994,0.8529 0.80733,0.8769 0.008,0.024 0.027,0.5324 -0.1671,1.2371 -0.19414,0.7048 -0.54308,1.6164 -0.9918,2.6373 -0.89744,2.0417 -2.18922,4.5304 -3.43762,6.9933 -1.24841,2.4628 -2.45363,4.8928 -3.19675,6.9239 -0.37154,1.0155 -0.63453,1.9243 -0.70748,2.7695 -0.073,0.8453 0.0548,1.8113 0.83553,2.4093 0.78084,0.598 1.78637,0.4404 2.55001,0.1 0.76364,-0.3406 1.50848,-0.8866 2.3178,-1.5715 1.61864,-1.3696 3.45208,-3.3171 5.30182,-5.3199 1.84984,-2.0026 3.70925,-4.0579 5.28231,-5.5781 0.78658,-0.7602 1.5045,-1.3878 2.07696,-1.7929 0.57236,-0.405 1.02582,-0.5209 0.99182,-0.5209 h 0.0367 a 1.1112638,1.1114068 0 0 0 0.0133,0 1.1112638,1.1114068 0 0 0 0.0233,0 c -0.0333,0 0.42135,0.1176 0.99392,0.5232 0.57258,0.4054 1.29027,1.0324 2.07686,1.7927 1.57328,1.5207 3.43257,3.5758 5.28231,5.5783 1.84984,2.0023 3.68325,3.9506 5.30186,5.3198 0.80937,0.6846 1.55417,1.2288 2.31787,1.5693 0.76358,0.3404 1.76917,0.498 2.54998,-0.1 0.7807,-0.5981 0.90848,-1.564 0.83548,-2.4093 -0.0733,-0.8452 -0.33802,-1.754 -0.70959,-2.7695 -0.74336,-2.0311 -1.94596,-4.4611 -3.19456,-6.9239 -1.24871,-2.4629 -2.54232,-4.9516 -3.43979,-6.9933 -0.4488,-1.0209 -0.7977,-1.9325 -0.99182,-2.6373 -0.19423,-0.7047 -0.17456,-1.2131 -0.16712,-1.2371 0.0111,-0.024 0.2629,-0.4294 0.80726,-0.8769 0.54446,-0.4474 1.33105,-0.971 2.26141,-1.5215 1.86074,-1.1011 4.29494,-2.3235 6.67992,-3.5531 2.38498,-1.2297 4.71718,-2.4622 6.45857,-3.6574 0.8707,-0.5974 1.59651,-1.1765 2.13331,-1.8253 0.53691,-0.6488 0.96192,-1.5231 0.67502,-2.4462 -0.28701,-0.923 -1.16082,-1.4033 -1.97274,-1.5974 -0.81192,-0.1942 -1.72817,-0.2119 -2.76921,-0.1542 -2.08208,0.1157 -4.65618,0.5705 -7.27239,1.057 -2.6162,0.4867 -5.26697,1.0093 -7.38527,1.2741 -1.05926,0.1325 -1.98641,0.197 -2.67155,0.1737 -0.68513,-0.023 -1.10437,-0.1974 -1.09593,-0.191 0.0111,0.011 -0.2999,-0.3853 -0.53824,-1.0701 -0.23834,-0.6847 -0.46824,-1.6332 -0.67925,-2.7304 -0.42212,-2.1945 -0.77791,-4.9911 -1.15248,-7.7444 -0.37446,-2.7533 -0.76581,-5.4581001 -1.30205,-7.5620001 -0.26823,-1.052 -0.56313,-1.9515 -0.97448,-2.6892 -0.41135,-0.7378 -1.05426,-1.4747 -2.04652,-1.5129 a 1.1112638,1.1114068 0 0 0 -0.0433,0 h -0.0111 a 1.1112638,1.1114068 0 0 0 -0.0433,0 z m 0.05,2.3311 c 0.0222,0.037 0.0633,0.1023 0.15411,0.2648 0.2429,0.4358 0.51847,1.2012 0.7617,2.1553 0.48646,1.9083 0.88181,4.5738001 1.25438,7.3125001 0.37257,2.7385 0.72536,5.5555 1.16971,7.8659 0.22223,1.1551 0.46524,2.1825 0.76392,3.0409 0.29879,0.8582 0.59258,1.5758 1.29138,2.1075 0.70103,0.5335 1.48006,0.6143 2.36553,0.6446 0.88537,0.03 1.89985,-0.05 3.02312,-0.191 2.24641,-0.2809 4.91807,-0.8123 7.51761,-1.2958 2.59943,-0.4835 5.13241,-0.917 6.98815,-1.0201 0.92781,-0.051 1.69062,-0.011 2.12897,0.096 0.21512,0.051 0.30845,0.091 0.34935,0.1111 -0.0111,0.029 -0.0467,0.1112 -0.24735,0.3538 -0.30445,0.3679 -0.89759,0.8756 -1.67762,1.4108 -1.56005,1.0707 -3.8497,2.2899 -6.21989,3.5119 -2.37009,1.2221 -4.82563,2.4529 -6.79493,3.6182 -0.98459,0.5827 -1.84795,1.1449 -2.54131,1.7147 -0.69336,0.5699 -1.26349,1.1118 -1.51917,1.9426 -0.25557,0.8309 -0.0933,1.5998 0.14978,2.4809 0.24268,0.8811 0.62536,1.8656 1.09815,2.941 0.94548,2.1509 2.25031,4.6553 3.4918,7.104 1.24149,2.4488 2.42076,4.8473 3.09256,6.683 0.3359,0.9179 0.5388,1.7024 0.58169,2.1988 0.0189,0.2175 0,0.3161 0,0.3841 -0.0489,-0.014 -0.1,-0.025 -0.26256,-0.098 -0.41658,-0.1856 -1.06216,-0.6228 -1.78829,-1.2371 -1.45228,-1.2285 -3.26557,-3.1406 -5.10442,-5.1311 -1.83873,-1.9904 -3.70947,-4.0609 -5.37131,-5.6672 -0.83081,-0.8031 -1.60661,-1.4923 -2.33731,-2.0098 -0.73058,-0.5175 -1.38805,-0.9312 -2.27653,-0.9312 0,0 0,0 -0.0133,0 -0.0111,0 -0.0133,0 -0.0233,0 h -0.0344 v 0 c -0.0133,6e-4 -0.0322,0 -0.0322,0 -1.1e-4,0 -0.0845,0.011 -0.0845,0.011 0,0 -0.0678,0.023 -0.11289,0.039 -0.76781,0.066 -1.38561,0.4136 -2.04652,0.8812 -0.73081,0.5172 -1.50628,1.2026 -2.33731,2.0056 -1.66184,1.6061 -3.53247,3.6785 -5.37127,5.6693 -1.83878,1.9908 -3.65206,3.9021 -5.10436,5.1311 -0.72614,0.6145 -1.37385,1.0535 -1.79042,1.2394 -0.16223,0.072 -0.21192,0.083 -0.26043,0.098 -0.01,-0.068 -0.0231,-0.1666 -0.004,-0.3842 0.0429,-0.4964 0.24581,-1.2808 0.58162,-2.1987 0.67164,-1.8357 1.84912,-4.2342 3.09039,-6.683 1.24127,-2.4487 2.54652,-4.9532 3.49189,-7.104 0.47268,-1.0754 0.85541,-2.06 1.09808,-2.9411 0.24279,-0.8811 0.40535,-1.65 0.14979,-2.4809 -0.25557,-0.8308 -0.82583,-1.3726 -1.51915,-1.9425 -0.69331,-0.5699 -1.5567,-1.132 -2.54133,-1.7147 -1.96926,-1.1653 -4.42265,-2.3962 -6.79278,-3.6182 -2.37015,-1.2221 -4.6619902,-2.4413 -6.2220202,-3.5119 -0.78002,-0.5353 -1.37316,-1.0429 -1.67759,-1.4108 -0.20087,-0.2427 -0.2361,-0.3247 -0.2474,-0.3539 0.0409,-0.02 0.13426,-0.059 0.3494,-0.1111 0.43835,-0.1044 1.20115,-0.147 2.12899,-0.096 1.85568,0.1033 4.3907902,0.5366 6.9902802,1.0202 2.59948,0.4834 5.26901,1.0149 7.51547,1.2958 1.12323,0.1404 2.13769,0.2212 3.02317,0.191 0.88536,-0.03 1.66439,-0.1112 2.36553,-0.6447 0.69869,-0.5317 0.99248,-1.2492 1.29127,-2.1075 0.29879,-0.8584 0.54169,-1.8857 0.76392,-3.0409 0.44435,-2.3104 0.79936,-5.1272 1.17193,-7.8659 0.37246,-2.7387 0.76581,-5.4042001 1.25216,-7.3123001 0.24323,-0.9542 0.51879,-1.7218 0.7618,-2.1576 0.0911,-0.1627 0.13312,-0.2266 0.15623,-0.2626 z" />
    <path
       id="rect2288-3-78-6"
       style="fill:#feed5a;fill-opacity:1;stroke-width:0;stroke-linecap:round;stroke-linejoin:round;stroke-dashoffset:2.1875;stroke-opacity:0.5"
       d="m 31.994719,3.1111109 c -3.38646,0.13 -3.30079,20.9788001 -6.06234,23.0794001 -2.77043,2.1079 -21.7168602,-4.5337 -22.7789802,-1.1177 -1.06216,3.4155 17.9634502,9.8035 19.0154502,13.2226 1.05166,3.4195 -10.81482,20.2945 -8.05083,22.4114 2.76436,2.1164 14.42602,-14.9161 17.8467,-14.9104 h 0.0367 c 0,-3e-4 0.0378,0 0.0378,0 3.42046,0 15.08223,17.0268 17.84667,14.9104 2.76399,-2.1169 -9.10457,-18.9919 -8.05253,-22.4114 1.05204,-3.4191 20.07753,-9.807 19.01549,-13.2226 -1.06215,-3.416 -20.00852,3.2256 -22.77907,1.1177 -2.76144,-2.1006 -2.67599,-22.9491001 -6.06234,-23.0794001 z" />
    <path
       id="rect2288-3-78-6-2"
       style="fill:url(#radialGradient6463);fill-opacity:1;stroke-width:0;stroke-linecap:round;stroke-linejoin:round;stroke-dashoffset:2.1875;stroke-opacity:0.5"
       d="m 31.994719,3.1111109 c -3.38646,0.13 -3.30079,20.9788001 -6.06234,23.0794001 -2.77043,2.1079 -21.7168602,-4.5337 -22.7789802,-1.1177 -1.06216,3.4155 17.9634502,9.8035 19.0154502,13.2226 1.05166,3.4195 -10.81482,20.2945 -8.05083,22.4114 2.76436,2.1164 14.42602,-14.9161 17.8467,-14.9104 h 0.0367 c 0,-3e-4 0.0378,0 0.0378,0 3.42046,0 15.08223,17.0268 17.84666,14.9104 2.764,-2.1169 -9.10456,-18.9919 -8.05252,-22.4114 1.05204,-3.4191 20.07753,-9.807 19.01549,-13.2226 -1.06215,-3.416 -20.00852,3.2256 -22.77907,1.1177 -2.76144,-2.1006 -2.67599,-22.9491001 -6.06234,-23.0794001 z" />
    <path
       id="rect2288-3-1-2-7-4-3-5"
       style="color:#000000;font-style:normal;font-variant:normal;font-weight:normal;font-stretch:normal;font-size:medium;line-height:normal;font-family:sans-serif;font-variant-ligatures:normal;font-variant-position:normal;font-variant-caps:normal;font-variant-numeric:normal;font-variant-alternates:normal;font-variant-east-asian:normal;font-feature-settings:normal;font-variation-settings:normal;text-indent:0;text-align:start;text-decoration:none;text-decoration-line:none;text-decoration-style:solid;text-decoration-color:#000000;letter-spacing:normal;word-spacing:normal;text-transform:none;writing-mode:lr-tb;direction:ltr;text-orientation:mixed;dominant-baseline:auto;baseline-shift:baseline;text-anchor:start;white-space:normal;shape-padding:0;shape-margin:0;inline-size:0;clip-rule:nonzero;display:inline;overflow:visible;visibility:visible;opacity:0.25;isolation:auto;mix-blend-mode:normal;color-interpolation:sRGB;color-interpolation-filters:linearRGB;solid-color:#000000;solid-opacity:1;vector-effect:none;fill:#655301;fill-opacity:1;fill-rule:nonzero;stroke:none;stroke-width:1.1112;stroke-linecap:round;stroke-linejoin:round;stroke-miterlimit:4;stroke-dasharray:none;stroke-dashoffset:2.1875;stroke-opacity:1;color-rendering:auto;image-rendering:auto;shape-rendering:auto;text-rendering:auto;enable-background:accumulate;stop-color:#000000"
       d="m 31.992939,3.1111109 c -3.38634,0.13 -3.29945,20.9793001 -6.06089,23.0799001 -2.77032,2.1078 -21.7165802,-4.533 -22.7786602,-1.1171 -1.06213,3.4156 17.9639602,9.802 19.0158402,13.221 1.05172,3.4194 -10.81671,20.2949 -8.05292,22.4119 2.76434,2.1164 14.42562,-14.9143 17.84619,-14.9087 h 0.0367 c 0,-4e-4 0.0389,0 0.0389,0 3.42035,0 15.0799,17.0251 17.844,14.9087 2.76399,-2.1169 -9.10267,-18.9925 -8.05075,-22.4119 1.05204,-3.419 20.07787,-9.8054 19.01594,-13.221 -1.06215,-3.4159 -20.0082,3.2249 -22.77874,1.1171 -2.76133,-2.1006 -2.67677,-22.9496001 -6.06301,-23.0799001 z m 0.0133,1.2278 c 0.0222,0.038 0.0622,0.098 0.14968,0.2559 0.24301,0.4358 0.51857,1.2021 0.76169,2.1562 0.48647,1.9081 0.8817,4.5736001 1.25427,7.3122001 0.37246,2.7387 0.72525,5.5572 1.1696,7.8676 0.22212,1.1551 0.46513,2.1829 0.76392,3.0412 0.29879,0.8582 0.59246,1.5745 1.29116,2.1062 0.70102,0.5335 1.48005,0.614 2.36531,0.6442 0.88548,0.03 1.89962,-0.05 3.02278,-0.1909 2.24653,-0.2808 4.91763,-0.8115 7.51706,-1.295 2.59943,-0.4834 5.13397,-0.9164 6.98959,-1.0194 0.9277,-0.051 1.69051,-0.011 2.12875,0.096 0.21512,0.051 0.30845,0.091 0.34946,0.1111 -0.0111,0.029 -0.0467,0.1111 -0.24746,0.3535 -0.30445,0.3679 -0.89748,0.8747 -1.67739,1.4099 -1.55995,1.0706 -3.85148,2.2899 -6.22146,3.5119 -2.37009,1.222 -4.82518,2.4529 -6.79425,3.6182 -0.98482,0.5827 -1.84785,1.1459 -2.5411,1.7158 -0.69336,0.5699 -1.26349,1.1106 -1.51906,1.9414 -0.25567,0.8309 -0.0933,1.6004 0.14979,2.4815 0.2429,0.8811 0.62513,1.8639 1.09793,2.9392 0.94548,2.1509 2.25008,4.6575 3.49157,7.1062 1.24149,2.4487 2.42054,4.8453 3.09223,6.681 0.3359,0.9179 0.5388,1.7031 0.58169,2.1996 0.0189,0.2174 0.0111,0.318 0,0.3861 -0.0489,-0.014 -0.10001,-0.026 -0.26268,-0.098 -0.41657,-0.1858 -1.06182,-0.6265 -1.78795,-1.2408 -1.45217,-1.2284 -3.26535,-3.1396 -5.10397,-5.1301 -1.83863,-1.9903 -3.70914,-4.0595 -5.37087,-5.6657 -0.83092,-0.8032 -1.6065,-1.4934 -2.33709,-2.0109 -0.73069,-0.5175 -1.38783,-0.9306 -2.2763,-0.9306 0,0 0,0 -0.0156,0 -0.0111,0 -0.0122,0 -0.0245,0 h -0.0344 c -0.0133,6e-4 -0.0322,0 -0.0322,0 l -0.0822,0.011 c 0,0 -0.0678,0.026 -0.1129,0.041 -0.76792,0.066 -1.38549,0.413 -2.0463,0.8807 -0.73091,0.5172 -1.50628,1.2013 -2.33708,2.0043 -1.66195,1.6061 -3.53214,3.6773 -5.37083,5.668 -1.83879,1.9908 -3.6537,3.9034 -5.10604,5.1323 -0.72612,0.6144 -1.37371,1.055 -1.79027,1.2407 -0.16222,0.072 -0.21184,0.083 -0.26039,0.098 -0.0111,-0.068 -0.0233,-0.1664 0,-0.3839 0.0433,-0.4964 0.24579,-1.2839 0.58156,-2.2018 0.67156,-1.8357 1.85104,-4.2322 3.09227,-6.681 1.24123,-2.4487 2.54623,-4.9553 3.49156,-7.1061 0.47268,-1.0754 0.85541,-2.0581 1.09809,-2.9392 0.24256,-0.8811 0.40512,-1.6507 0.14967,-2.4815 -0.25568,-0.8309 -0.82579,-1.3716 -1.51901,-1.9415 -0.69334,-0.5698 -1.55654,-1.1309 -2.54109,-1.7135 -1.96924,-1.1655 -4.42432,-2.3984 -6.79433,-3.6204 -2.37012,-1.2221 -4.6614802,-2.4413 -6.2214302,-3.5119 -0.78,-0.5353 -1.37299,-1.0421 -1.67742,-1.41 -0.20086,-0.2427 -0.23609,-0.3245 -0.24739,-0.3535 0.0409,-0.02 0.13424,-0.059 0.34937,-0.1111 0.43835,-0.1045 1.20098,-0.1471 2.12879,-0.096 1.85568,0.1033 4.3902802,0.536 6.9896302,1.0196 2.59945,0.4834 5.27059,1.014 7.51693,1.2949 1.12323,0.1404 2.13751,0.2211 3.02288,0.1908 0.88525,-0.03 1.66428,-0.1111 2.36531,-0.6442 0.69869,-0.5316 0.99237,-1.2479 1.29116,-2.1062 0.29879,-0.8583 0.54168,-1.886 0.7638,-3.0412 0.44435,-2.3102 0.79926,-5.1289 1.17182,-7.8676 0.37257,-2.7385 0.7657,-5.4019001 1.25205,-7.3100001 0.24312,-0.9541 0.5188,-1.7226 0.7617,-2.1583 0.0878,-0.1569 0.12611,-0.2192 0.14978,-0.256 z m 10.88041,34.2879001 c -0.0111,0.024 -0.0267,0.5339 0.16712,1.2386 -0.19412,-0.7047 -0.17445,-1.2145 -0.16712,-1.2386 z" />
    <path
       id="path1181-0-2-9-62-2-2-7-5-6-4"
       style="color:#000000;font-style:normal;font-variant:normal;font-weight:normal;font-stretch:normal;font-size:medium;line-height:normal;font-family:sans-serif;font-variant-ligatures:normal;font-variant-position:normal;font-variant-caps:normal;font-variant-numeric:normal;font-variant-alternates:normal;font-variant-east-asian:normal;font-feature-settings:normal;font-variation-settings:normal;text-indent:0;text-align:start;text-decoration:none;text-decoration-line:none;text-decoration-style:solid;text-decoration-color:#000000;letter-spacing:normal;word-spacing:normal;text-transform:none;writing-mode:lr-tb;direction:ltr;text-orientation:mixed;dominant-baseline:auto;baseline-shift:baseline;text-anchor:start;white-space:normal;shape-padding:0;shape-margin:0;inline-size:0;clip-rule:nonzero;display:inline;overflow:visible;visibility:visible;opacity:0.25;isolation:auto;mix-blend-mode:normal;color-interpolation:sRGB;color-interpolation-filters:linearRGB;solid-color:#000000;solid-opacity:1;vector-effect:none;fill:#0c0c0c;fill-opacity:1;fill-rule:nonzero;stroke:none;stroke-width:0;stroke-linecap:round;stroke-linejoin:round;stroke-miterlimit:4;stroke-dasharray:none;stroke-dashoffset:2.1875;stroke-opacity:1;color-rendering:auto;image-rendering:auto;shape-rendering:auto;text-rendering:auto;enable-background:accumulate;stop-color:#000000"
       d="m 48,33.4375 c -8.2738,0 -15,6.7272 -15,15.0009 0,8.2736 6.7262,14.9996 15,14.9996 8.2738,0 15,-6.726 15,-14.9996 0,-8.2737 -6.7262,-15.0009 -15,-15.0009 z m 0,1.8739 c 7.2604,0 13.1273,5.8667 13.1273,13.127 0,7.2603 -5.8669,13.1257 -13.1273,13.1257 -7.2604,0 -13.1273,-5.8654 -13.1273,-13.1257 0,-7.2603 5.8669,-13.127 13.1273,-13.127 z" />
    <path
       id="path1181-0-6-2-9-0-9-5-3-1-7"
       style="color:#000000;font-style:normal;font-variant:normal;font-weight:normal;font-stretch:normal;font-size:medium;line-height:normal;font-family:sans-serif;font-variant-ligatures:normal;font-variant-position:normal;font-variant-caps:normal;font-variant-numeric:normal;font-variant-alternates:normal;font-variant-east-asian:normal;font-feature-settings:normal;font-variation-settings:normal;text-indent:0;text-align:start;text-decoration:none;text-decoration-line:none;text-decoration-style:solid;text-decoration-color:#000000;letter-spacing:normal;word-spacing:normal;text-transform:none;writing-mode:lr-tb;direction:ltr;text-orientation:mixed;dominant-baseline:auto;baseline-shift:baseline;text-anchor:start;white-space:normal;shape-padding:0;shape-margin:0;inline-size:0;clip-rule:nonzero;display:inline;overflow:visible;visibility:visible;opacity:0.85;isolation:auto;mix-blend-mode:normal;color-interpolation:sRGB;color-interpolation-filters:linearRGB;solid-color:#000000;solid-opacity:1;vector-effect:none;fill:#0c6e59;fill-opacity:1;fill-rule:nonzero;stroke:none;stroke-width:2.36236;stroke-linecap:round;stroke-linejoin:round;stroke-miterlimit:4;stroke-dasharray:none;stroke-dashoffset:2.1875;stroke-opacity:1;color-rendering:auto;image-rendering:auto;shape-rendering:auto;text-rendering:auto;enable-background:accumulate;stop-color:#000000"
       d="m 48,32.5 c -8.2738,0 -15,6.7272 -15,15.0008 0,8.2737 6.7262,14.9997 15,14.9997 8.2738,0 15,-6.726 15,-14.9997 C 63,39.2272 56.2738,32.5 48,32.5 Z m 0,1.8739 c 7.2604,0 13.1273,5.8667 13.1273,13.1269 0,7.2604 -5.8669,13.1258 -13.1273,13.1258 -7.2604,0 -13.1273,-5.8654 -13.1273,-13.1258 0,-7.2602 5.8669,-13.1269 13.1273,-13.1269 z" />
    <ellipse
       style="fill:url(#linearGradient1474);fill-opacity:1;stroke:#771832;stroke-width:0;stroke-linecap:round;stroke-linejoin:round;stroke-miterlimit:4;stroke-dasharray:none;stroke-dashoffset:2.1875;stroke-opacity:1"
       id="path1181-0-1-2-1-3-5-2-8"
       cx="48.000061"
       cy="47.500366"
       rx="14.062499"
       ry="14.062726" />
    <path
       id="path1181-0-2-9-3-2-7-7-6-2-3-4"
       style="color:#000000;font-style:normal;font-variant:normal;font-weight:normal;font-stretch:normal;font-size:medium;line-height:normal;font-family:sans-serif;font-variant-ligatures:normal;font-variant-position:normal;font-variant-caps:normal;font-variant-numeric:normal;font-variant-alternates:normal;font-variant-east-asian:normal;font-feature-settings:normal;font-variation-settings:normal;text-indent:0;text-align:start;text-decoration:none;text-decoration-line:none;text-decoration-style:solid;text-decoration-color:#000000;letter-spacing:normal;word-spacing:normal;text-transform:none;writing-mode:lr-tb;direction:ltr;text-orientation:mixed;dominant-baseline:auto;baseline-shift:baseline;text-anchor:start;white-space:normal;shape-padding:0;shape-margin:0;inline-size:0;clip-rule:nonzero;display:inline;overflow:visible;visibility:visible;opacity:0.15;isolation:auto;mix-blend-mode:normal;color-interpolation:sRGB;color-interpolation-filters:linearRGB;solid-color:#000000;solid-opacity:1;vector-effect:none;fill:#0a5c4a;fill-opacity:1;fill-rule:nonzero;stroke:none;stroke-width:0;stroke-linecap:round;stroke-linejoin:round;stroke-miterlimit:4;stroke-dasharray:none;stroke-dashoffset:2.1875;stroke-opacity:1;color-rendering:auto;image-rendering:auto;shape-rendering:auto;text-rendering:auto;enable-background:accumulate;stop-color:#000000"
       d="m 48,32.5 c -8.2738,0 -15,6.7272 -15,15.0008 0,8.2737 6.7262,14.9997 15,14.9997 8.2738,0 15,-6.726 15,-14.9997 C 63,39.2272 56.2738,32.5 48,32.5 Z m 0,1.8739 c 7.2604,0 13.1273,5.8667 13.1273,13.1269 0,7.2604 -5.8669,13.1258 -13.1273,13.1258 -7.2604,0 -13.1273,-5.8654 -13.1273,-13.1258 0,-7.2602 5.8669,-13.1269 13.1273,-13.1269 z" />
    <path
       id="rect2388-9-6-0-6-2-9-1-5"
       style="color:#000000;font-style:normal;font-variant:normal;font-weight:normal;font-stretch:normal;font-size:medium;line-height:normal;font-family:sans-serif;font-variant-ligatures:normal;font-variant-position:normal;font-variant-caps:normal;font-variant-numeric:normal;font-variant-alternates:normal;font-variant-east-asian:normal;font-feature-settings:normal;font-variation-settings:normal;text-indent:0;text-align:start;text-decoration:none;text-decoration-line:none;text-decoration-style:solid;text-decoration-color:#000000;letter-spacing:normal;word-spacing:normal;text-transform:none;writing-mode:lr-tb;direction:ltr;text-orientation:mixed;dominant-baseline:auto;baseline-shift:baseline;text-anchor:start;white-space:normal;shape-padding:0;shape-margin:0;inline-size:0;clip-rule:nonzero;display:inline;overflow:visible;visibility:visible;opacity:0.35;isolation:auto;mix-blend-mode:normal;color-interpolation:sRGB;color-interpolation-filters:linearRGB;solid-color:#000000;solid-opacity:1;vector-effect:none;fill:#0a5c4a;fill-opacity:1;fill-rule:nonzero;stroke:none;stroke-width:0.999999;stroke-linecap:round;stroke-linejoin:round;stroke-miterlimit:4;stroke-dasharray:none;stroke-dashoffset:2.1875;stroke-opacity:1;color-rendering:auto;image-rendering:auto;shape-rendering:auto;text-rendering:auto;enable-background:accumulate;stop-color:#000000"
       d="m 47,39.125 c -0.8224,0 -1.5,0.6777 -1.5,1.5 V 46 h -5.375 c -0.8223,0 -1.5,0.6777 -1.5,1.5 v 2 c 0,0.8224 0.6777,1.5 1.5,1.5 H 45.5 v 5.375 c 0,0.8224 0.6777,1.5 1.5,1.5 h 2 c 0.8224,0 1.5,-0.6776 1.5,-1.5 V 51 h 5.375 c 0.8224,0 1.5,-0.6776 1.5,-1.5 v -2 c 0,-0.8223 -0.6776,-1.5 -1.5,-1.5 H 50.5 v -5.375 c 0,-0.8223 -0.6776,-1.5 -1.5,-1.5 z m 0,1 h 2 c 0.2856,0 0.5,0.21449 0.5,0.5 V 46.5 A 0.50005001,0.50005001 0 0 0 50,47 h 5.875 c 0.2857,0 0.5,0.21441 0.5,0.5 v 2 c 0,0.28569 -0.2143,0.5 -0.5,0.5 H 50 a 0.50005001,0.50005001 0 0 0 -0.5,0.5 v 5.875 c 0,0.28569 -0.2143,0.5 -0.5,0.5 h -2 c -0.2857,0 -0.5,-0.2143 -0.5,-0.5 V 50.5 A 0.50005001,0.50005001 0 0 0 46,50 h -5.875 c -0.2857,0 -0.5,-0.2143 -0.5,-0.5 v -2 c 0,-0.28558 0.2143,-0.5 0.5,-0.5 H 46 a 0.50005001,0.50005001 0 0 0 0.5,-0.5 v -5.875 c 0,-0.28551 0.2144,-0.5 0.5,-0.5 z" />
    <path
       id="rect2388-9-6-0-6-1-9-0"
       style="color:#000000;font-style:normal;font-variant:normal;font-weight:normal;font-stretch:normal;font-size:medium;line-height:normal;font-family:sans-serif;font-variant-ligatures:normal;font-variant-position:normal;font-variant-caps:normal;font-variant-numeric:normal;font-variant-alternates:normal;font-variant-east-asian:normal;font-feature-settings:normal;font-variation-settings:normal;text-indent:0;text-align:start;text-decoration:none;text-decoration-line:none;text-decoration-style:solid;text-decoration-color:#000000;letter-spacing:normal;word-spacing:normal;text-transform:none;writing-mode:lr-tb;direction:ltr;text-orientation:mixed;dominant-baseline:auto;baseline-shift:baseline;text-anchor:start;white-space:normal;shape-padding:0;shape-margin:0;inline-size:0;clip-rule:nonzero;display:inline;overflow:visible;visibility:visible;isolation:auto;mix-blend-mode:normal;color-interpolation:sRGB;color-interpolation-filters:linearRGB;solid-color:#000000;solid-opacity:1;vector-effect:none;fill:#0a5c4a;fill-opacity:1;fill-rule:nonzero;stroke:none;stroke-width:0.999999;stroke-linecap:round;stroke-linejoin:round;stroke-miterlimit:4;stroke-dasharray:none;stroke-dashoffset:2.1875;stroke-opacity:1;color-rendering:auto;image-rendering:auto;shape-rendering:auto;text-rendering:auto;enable-background:accumulate;stop-color:#000000"
       d="m 47,38.125 c -0.8224,0 -1.5,0.6777 -1.5,1.5 V 45 h -5.375 c -0.8223,0 -1.5,0.6777 -1.5,1.5 v 2 c 0,0.8224 0.6777,1.5 1.5,1.5 H 45.5 v 5.375 c 0,0.8224 0.6777,1.5 1.5,1.5 h 2 c 0.8224,0 1.5,-0.6776 1.5,-1.5 V 50 h 5.375 c 0.8224,0 1.5,-0.6776 1.5,-1.5 v -2 c 0,-0.8223 -0.6776,-1.5 -1.5,-1.5 H 50.5 v -5.375 c 0,-0.8223 -0.6776,-1.5 -1.5,-1.5 z m 0,1 h 2 c 0.2856,0 0.5,0.21449 0.5,0.5 V 45.5 A 0.50005001,0.50005001 0 0 0 50,46 h 5.875 c 0.2857,0 0.5,0.21441 0.5,0.5 v 2 c 0,0.28569 -0.2143,0.5 -0.5,0.5 H 50 a 0.50005001,0.50005001 0 0 0 -0.5,0.5 v 5.875 c 0,0.28569 -0.2143,0.5 -0.5,0.5 h -2 c -0.2857,0 -0.5,-0.2143 -0.5,-0.5 V 49.5 A 0.50005001,0.50005001 0 0 0 46,49 h -5.875 c -0.2857,0 -0.5,-0.2143 -0.5,-0.5 v -2 c 0,-0.28558 0.2143,-0.5 0.5,-0.5 H 46 a 0.50005001,0.50005001 0 0 0 0.5,-0.5 v -5.875 c 0,-0.28551 0.2144,-0.5 0.5,-0.5 z" />
    <path
       id="rect2388-9-6-2-4-3"
       style="fill:#fdfbfc;fill-opacity:1;stroke-width:1.17022;stroke-linecap:round;stroke-linejoin:round;stroke-dashoffset:2.1875"
       d="m 47,38.625 c -0.554,0 -1,0.4461 -1,1 V 45.5 h -5.875 c -0.554,0 -1,0.446 -1,1 v 2 c 0,0.554 0.446,1 1,1 H 46 v 5.875 c 0,0.554 0.446,1 1,1 h 2 c 0.554,0 1,-0.446 1,-1 V 49.5 h 5.875 c 0.554,0 1,-0.446 1,-1 v -2 c 0,-0.554 -0.446,-1 -1,-1 H 50 v -5.875 c 0,-0.5539 -0.446,-1 -1,-1 z" />
  </g>
</svg>
