<?xml version="1.0" encoding="UTF-8" standalone="no"?>
<svg
   xmlns:dc="http://purl.org/dc/elements/1.1/"
   xmlns:cc="http://creativecommons.org/ns#"
   xmlns:rdf="http://www.w3.org/1999/02/22-rdf-syntax-ns#"
   xmlns:svg="http://www.w3.org/2000/svg"
   xmlns="http://www.w3.org/2000/svg"
   xmlns:sodipodi="http://sodipodi.sourceforge.net/DTD/sodipodi-0.dtd"
   xmlns:inkscape="http://www.inkscape.org/namespaces/inkscape"
   width="64"
   height="64"
   viewBox="0 0 64 64"
   version="1.1"
   id="svg6374"
   inkscape:version="1.0.2 (e86c870879, 2021-01-15)"
   sodipodi:docname="edit-undo.svg">
  <defs
     id="defs6368" />
  <sodipodi:namedview
     id="base"
     pagecolor="#cecece"
     bordercolor="#666666"
     borderopacity="1.0"
     inkscape:pageopacity="0"
     inkscape:pageshadow="2"
     inkscape:zoom="6.8818909"
     inkscape:cx="20.896034"
     inkscape:cy="43.578666"
     inkscape:document-units="px"
     inkscape:current-layer="layer1"
     inkscape:document-rotation="0"
     showgrid="false"
     units="px"
     inkscape:window-width="1500"
     inkscape:window-height="970"
     inkscape:window-x="68"
     inkscape:window-y="56"
     inkscape:window-maximized="0" />
  <metadata
     id="metadata6371">
    <rdf:RDF>
      <cc:Work
         rdf:about="">
        <dc:format>image/svg+xml</dc:format>
        <dc:type
           rdf:resource="http://purl.org/dc/dcmitype/StillImage" />
        <dc:title></dc:title>
      </cc:Work>
    </rdf:RDF>
  </metadata>
  <g
     inkscape:label="Layer 1"
     inkscape:groupmode="layer"
     id="layer1">
    <path
       id="path958-2-0"
       style="color:#000000;font-style:normal;font-variant:normal;font-weight:normal;font-stretch:normal;font-size:medium;line-height:normal;font-family:sans-serif;font-variant-ligatures:normal;font-variant-position:normal;font-variant-caps:normal;font-variant-numeric:normal;font-variant-alternates:normal;font-variant-east-asian:normal;font-feature-settings:normal;font-variation-settings:normal;text-indent:0;text-align:start;text-decoration:none;text-decoration-line:none;text-decoration-style:solid;text-decoration-color:#000000;letter-spacing:normal;word-spacing:normal;text-transform:none;writing-mode:lr-tb;direction:ltr;text-orientation:mixed;dominant-baseline:auto;baseline-shift:baseline;text-anchor:start;white-space:normal;shape-padding:0;shape-margin:0;inline-size:0;clip-rule:nonzero;display:inline;overflow:visible;visibility:visible;opacity:0.075;isolation:auto;mix-blend-mode:normal;color-interpolation:sRGB;color-interpolation-filters:linearRGB;solid-color:#000000;solid-opacity:1;vector-effect:none;fill:#0c0c0c;fill-opacity:1;fill-rule:nonzero;stroke:none;stroke-width:0;stroke-linecap:round;stroke-linejoin:round;stroke-miterlimit:4;stroke-dasharray:none;stroke-dashoffset:0;stroke-opacity:1;color-rendering:auto;image-rendering:auto;shape-rendering:auto;text-rendering:auto;enable-background:accumulate;stop-color:#000000"
       d="m 26.25453,7.3139315 a 1.0002167,1.0000973 0 0 0 -0.10157,0.009 z m 0.007,0 c -0.36875,0.009 -0.72705,0.12758 -1.02893,0.33935 L 7.77955,19.890591 c -1.0394,0.72917 -1.0394,2.34163 0,3.0708 l 17.45259,12.2373 c 1.19412,0.83776 2.95112,-0.0773 2.9515,-1.53516 v -3.77392 -0.6792 -2.02295 h 10.26722 a 1.0002167,1.0000973 0 0 0 0.0464,0.002 c 6.15416,0 11.00023,4.84553 11.00023,10.99902 0,6.14869 -4.84039,10.99145 -10.98753,10.99902 a 1.0002167,1.0000973 0 0 0 -0.009,0 H 28.0545 c -1.02157,0 -1.8752,0.85355 -1.8752,1.87501 v 7.75093 c 0,1.02146 0.85363,1.875 1.8752,1.875 h 10.44255 c 12.36549,0 22.50294,-10.13598 22.50294,-22.5 0,-12.3613 -10.13381,-22.49552 -22.49562,-22.5 h -0.007 -10.31362 v -1.98389 -0.73974 -3.7758795 c 1.7e-4,-1.00954 -0.82831,-1.85491 -1.83859,-1.875 -0.0267,-5.5e-4 -0.0544,-6e-4 -0.0811,0 a 1.0002167,1.0000973 0 0 0 -0.001,0 c -2.5e-4,0 -7.5e-4,-10e-6 -10e-4,0 z m -0.0786,2.11474 v 3.5361395 0.73974 2.98438 a 1.0002167,1.0000973 0 0 0 1.00011,1 h 11.31421 0.008 c 11.26958,0.004 20.49442,9.23032 20.49442,20.49951 0,11.27167 -9.22872,20.49951 -20.50174,20.49951 H 28.17989 v -7.5 h 10.277 a 1.0002167,1.0000973 0 0 0 0.0459,0.002 c 7.21247,-0.003 12.99359,-5.78939 12.99359,-13.00147 0,-7.14867 -5.68538,-12.87773 -12.809,-12.98095 a 1.0002167,1.0000973 0 0 0 -0.18996,-0.0186 H 27.1832 a 1.0002167,1.0000973 0 0 0 -1.00011,1.00049 v 3.02099 0.6792 3.53222 L 9.07138,21.426301 Z" />
    <path
       id="rect867-2-6"
       style="fill:#af87cd;fill-opacity:1;stroke:none;stroke-width:1.99975;stroke-linecap:round;stroke-miterlimit:4;stroke-dasharray:none;stroke-opacity:1"
       d="m 26.31805,6.3131815 a 0.87407909,0.8755177 0 0 0 -0.47986,0.1582 L 8.3908,18.709121 a 0.87407909,0.8755177 0 0 0 0,1.43408 l 17.44739,12.23628 a 0.87407909,0.8755177 0 0 0 1.37563,-0.7168 v -3.77391 -0.67871 -3.02196 h 11.30974 v 5e-4 c 6.68211,0 11.99608,5.31575 11.99608,11.99947 0,6.68208 -5.3114,11.99831 -11.9912,12.00092 v -0.001 H 28.08568 c -0.48463,0 -0.87478,0.39025 -0.87478,0.875 v 7.74997 c 0,0.48474 0.39015,0.87499 0.87478,0.87499 h 10.43788 c 11.81511,0 21.49472,-9.68195 21.49472,-21.49991 0,-11.81534 -9.67536,-21.49563 -21.48691,-21.4999 h -0.008 -11.30973 v -2.98286 -0.7417 -3.7748795 a 0.87407909,0.8755177 0 0 0 -0.85673,-0.87549 0.87407909,0.8755177 0 0 0 -0.039,0 z" />
    <path
       id="path958-8"
       style="color:#000000;font-style:normal;font-variant:normal;font-weight:normal;font-stretch:normal;font-size:medium;line-height:normal;font-family:sans-serif;font-variant-ligatures:normal;font-variant-position:normal;font-variant-caps:normal;font-variant-numeric:normal;font-variant-alternates:normal;font-variant-east-asian:normal;font-feature-settings:normal;font-variation-settings:normal;text-indent:0;text-align:start;text-decoration:none;text-decoration-line:none;text-decoration-style:solid;text-decoration-color:#000000;letter-spacing:normal;word-spacing:normal;text-transform:none;writing-mode:lr-tb;direction:ltr;text-orientation:mixed;dominant-baseline:auto;baseline-shift:baseline;text-anchor:start;white-space:normal;shape-padding:0;shape-margin:0;inline-size:0;clip-rule:nonzero;display:inline;overflow:visible;visibility:visible;opacity:0.85;isolation:auto;mix-blend-mode:normal;color-interpolation:sRGB;color-interpolation-filters:linearRGB;solid-color:#000000;solid-opacity:1;vector-effect:none;fill:#4c2a65;fill-opacity:1;fill-rule:nonzero;stroke:none;stroke-width:0;stroke-linecap:round;stroke-linejoin:round;stroke-miterlimit:4;stroke-dasharray:none;stroke-dashoffset:0;stroke-opacity:1;color-rendering:auto;image-rendering:auto;shape-rendering:auto;text-rendering:auto;enable-background:accumulate;stop-color:#000000"
       d="m 26.25453,5.3134315 a 1.0002167,1.0000973 0 0 0 -0.10157,0.009 z m 0.007,0 c -0.36875,0.009 -0.72705,0.12758 -1.02893,0.33935 L 7.77955,17.890091 c -1.0394,0.72917 -1.0394,2.34163 0,3.0708 l 17.45259,12.2373 c 1.19412,0.83776 2.95112,-0.0773 2.9515,-1.53516 v -3.77392 -0.6792 -2.02295 h 10.26722 a 1.0002167,1.0000973 0 0 0 0.0464,0.002 c 6.15416,0 11.00023,4.84553 11.00023,10.99902 0,6.14869 -4.84039,10.99145 -10.98753,10.99902 a 1.0002167,1.0000973 0 0 0 -0.009,0 H 28.0545 c -1.02157,0 -1.8752,0.85355 -1.8752,1.87501 v 7.75093 c 0,1.02146 0.85363,1.875 1.8752,1.875 h 10.44255 c 12.36549,0 22.50294,-10.13598 22.50294,-22.5 0,-12.3613 -10.13381,-22.49552 -22.49562,-22.5 h -0.007 -10.31362 v -1.98389 -0.73974 -3.7758795 c 1.7e-4,-1.00954 -0.82831,-1.85491 -1.83859,-1.875 -0.0267,-5.5e-4 -0.0544,-6e-4 -0.0811,0 a 1.0002167,1.0000973 0 0 0 -0.001,0 c -2.5e-4,0 -7.5e-4,-1e-5 -10e-4,0 z m -0.0786,2.11474 v 3.5361395 0.73974 2.98438 a 1.0002167,1.0000973 0 0 0 1.00011,1 h 11.31421 0.008 c 11.26958,0.004 20.49442,9.23032 20.49442,20.49951 0,11.27167 -9.22872,20.49951 -20.50174,20.49951 H 28.17989 v -7.5 h 10.277 a 1.0002167,1.0000973 0 0 0 0.0459,0.002 c 7.21247,-0.003 12.99359,-5.78939 12.99359,-13.00147 0,-7.14867 -5.68538,-12.87773 -12.809,-12.98095 a 1.0002167,1.0000973 0 0 0 -0.18996,-0.0186 H 27.1832 a 1.0002167,1.0000973 0 0 0 -1.00011,1.00049 v 3.02099 0.6792 3.53222 L 9.07138,19.425801 Z" />
  </g>
</svg>
