<?xml version="1.0" encoding="UTF-8" standalone="no"?>
<svg
   xmlns:dc="http://purl.org/dc/elements/1.1/"
   xmlns:cc="http://creativecommons.org/ns#"
   xmlns:rdf="http://www.w3.org/1999/02/22-rdf-syntax-ns#"
   xmlns:svg="http://www.w3.org/2000/svg"
   xmlns="http://www.w3.org/2000/svg"
   xmlns:sodipodi="http://sodipodi.sourceforge.net/DTD/sodipodi-0.dtd"
   xmlns:inkscape="http://www.inkscape.org/namespaces/inkscape"
   width="64"
   height="64"
   viewBox="0 0 16.933333 16.933334"
   version="1.1"
   id="svg841"
   inkscape:version="1.0.2 (e86c870879, 2021-01-15)"
   sodipodi:docname="note-new.svg">
  <defs
     id="defs835" />
  <sodipodi:namedview
     id="base"
     pagecolor="#c4c4c4"
     bordercolor="#666666"
     borderopacity="1.0"
     inkscape:pageopacity="0"
     inkscape:pageshadow="2"
     inkscape:zoom="13.958699"
     inkscape:cx="23.30965"
     inkscape:cy="44.727857"
     inkscape:document-units="px"
     inkscape:current-layer="layer1"
     inkscape:document-rotation="0"
     showgrid="false"
     units="px"
     inkscape:window-width="2048"
     inkscape:window-height="1080"
     inkscape:window-x="0"
     inkscape:window-y="0"
     inkscape:window-maximized="1" />
  <metadata
     id="metadata838">
    <rdf:RDF>
      <cc:Work
         rdf:about="">
        <dc:format>image/svg+xml</dc:format>
        <dc:type
           rdf:resource="http://purl.org/dc/dcmitype/StillImage" />
        <dc:title />
      </cc:Work>
    </rdf:RDF>
  </metadata>
  <g
     inkscape:label="Layer 1"
     inkscape:groupmode="layer"
     id="layer1">
    <path
       id="rect2480-2-6-5-9-6-0-3"
       style="color:#000000;font-style:normal;font-variant:normal;font-weight:normal;font-stretch:normal;font-size:medium;line-height:normal;font-family:sans-serif;font-variant-ligatures:normal;font-variant-position:normal;font-variant-caps:normal;font-variant-numeric:normal;font-variant-alternates:normal;font-variant-east-asian:normal;font-feature-settings:normal;font-variation-settings:normal;text-indent:0;text-align:start;text-decoration:none;text-decoration-line:none;text-decoration-style:solid;text-decoration-color:#000000;letter-spacing:normal;word-spacing:normal;text-transform:none;writing-mode:lr-tb;direction:ltr;text-orientation:mixed;dominant-baseline:auto;baseline-shift:baseline;text-anchor:start;white-space:normal;shape-padding:0;shape-margin:0;inline-size:0;clip-rule:nonzero;display:inline;overflow:visible;visibility:visible;opacity:0.25;isolation:auto;mix-blend-mode:normal;color-interpolation:sRGB;color-interpolation-filters:linearRGB;solid-color:#000000;solid-opacity:1;vector-effect:none;fill:#0c0c10;fill-opacity:1;fill-rule:nonzero;stroke:none;stroke-width:1.00003;stroke-linecap:round;stroke-linejoin:round;stroke-miterlimit:4;stroke-dasharray:none;stroke-dashoffset:2.1875;stroke-opacity:1;color-rendering:auto;image-rendering:auto;shape-rendering:auto;text-rendering:auto;enable-background:accumulate;stop-color:#000000"
       d="m 3.1739681,0.5953125 c -0.652743,0 -1.1895931,0.536366 -1.1895931,1.1891513 V 15.545229 c 0,0.652783 0.5368501,1.189667 1.1895931,1.189667 H 13.757818 c 0.65274,0 1.191141,-0.536882 1.191141,-1.189667 V 1.7844638 c 0,-0.6527826 -0.538401,-1.1891513 -1.191141,-1.1891513 z m 0,0.7927684 H 13.757818 c 0.226732,0 0.396359,0.169635 0.396359,0.3963829 V 15.545229 c 0,0.226748 -0.169627,0.396383 -0.396359,0.396383 H 3.1739681 c -0.2267347,0 -0.396875,-0.169635 -0.396875,-0.396383 V 1.7844638 c 0,-0.2267479 0.1701403,-0.3963829 0.396875,-0.3963829 z" />
    <path
       id="rect2480-2-6-5-9-6-2-9-6"
       style="color:#000000;font-style:normal;font-variant:normal;font-weight:normal;font-stretch:normal;font-size:medium;line-height:normal;font-family:sans-serif;font-variant-ligatures:normal;font-variant-position:normal;font-variant-caps:normal;font-variant-numeric:normal;font-variant-alternates:normal;font-variant-east-asian:normal;font-feature-settings:normal;font-variation-settings:normal;text-indent:0;text-align:start;text-decoration:none;text-decoration-line:none;text-decoration-style:solid;text-decoration-color:#000000;letter-spacing:normal;word-spacing:normal;text-transform:none;writing-mode:lr-tb;direction:ltr;text-orientation:mixed;dominant-baseline:auto;baseline-shift:baseline;text-anchor:start;white-space:normal;shape-padding:0;shape-margin:0;inline-size:0;clip-rule:nonzero;display:inline;overflow:visible;visibility:visible;opacity:0.9;isolation:auto;mix-blend-mode:normal;color-interpolation:sRGB;color-interpolation-filters:linearRGB;solid-color:#000000;solid-opacity:1;vector-effect:none;fill:#605606;fill-opacity:1;fill-rule:nonzero;stroke:none;stroke-width:1.00003;stroke-linecap:round;stroke-linejoin:round;stroke-miterlimit:4;stroke-dasharray:none;stroke-dashoffset:2.1875;stroke-opacity:1;color-rendering:auto;image-rendering:auto;shape-rendering:auto;text-rendering:auto;enable-background:accumulate;stop-color:#000000"
       d="m 3.1739681,0.1984375 c -0.652743,0 -1.1895931,0.536366 -1.1895931,1.1891513 V 15.148351 c 0,0.652786 0.5368501,1.18967 1.1895931,1.189668 H 13.757818 c 0.65274,0 1.191141,-0.536882 1.191141,-1.189668 V 1.3875888 c 0,-0.6527827 -0.538401,-1.1891513 -1.191141,-1.1891513 z m 0,0.7927684 H 13.757818 c 0.226732,0 0.396359,0.169635 0.396359,0.3963829 V 15.148351 c 0,0.226748 -0.169627,0.396383 -0.396359,0.396383 H 3.1739681 c -0.2267347,0 -0.396875,-0.169635 -0.396875,-0.396383 V 1.3875888 c 0,-0.2267479 0.1701403,-0.3963829 0.396875,-0.3963829 z" />
    <rect
       style="fill:#fcf5b6;fill-opacity:1;stroke:none;stroke-width:0;stroke-linecap:round;stroke-linejoin:round;stroke-miterlimit:4;stroke-dasharray:none;stroke-dashoffset:2.1875;stroke-opacity:1"
       id="rect2480-2-6-5-2-7"
       width="12.170834"
       height="15.345834"
       x="2.3812664"
       y="0.5953123"
       rx="0.79375005"
       ry="0.79375005" />
    <path
       id="rect4307-0-2-3"
       style="opacity:0.25;fill:#494649;fill-opacity:1;stroke:none;stroke-width:0;stroke-linecap:round;stroke-linejoin:round;stroke-miterlimit:4;stroke-dasharray:none;stroke-dashoffset:2.1875;stroke-opacity:1"
       d="m 8.0697922,6.4161459 c -0.146579,0 -0.264583,0.118001 -0.264583,0.264583 v 2.844272 H 4.9609375 c -0.1465791,0 -0.2645833,0.118005 -0.2645833,0.264582 v 0.7937501 c 0,0.146576 0.1180042,0.264584 0.2645833,0.264584 h 2.8442717 v 2.84427 c 0,0.146577 0.118004,0.264584 0.264583,0.264584 h 0.79375 c 0.146579,0 0.264583,-0.118007 0.264583,-0.264584 v -2.84427 h 2.8442708 c 0.146579,0 0.264583,-0.118008 0.264583,-0.264584 V 9.7895829 c 0,-0.146577 -0.118004,-0.264582 -0.264583,-0.264582 H 9.1281252 v -2.844272 c 0,-0.146582 -0.118004,-0.264583 -0.264583,-0.264583 z" />
    <path
       id="rect4307-0-2"
       style="fill:#7a757a;fill-opacity:1;stroke:none;stroke-width:0;stroke-linecap:round;stroke-linejoin:round;stroke-miterlimit:4;stroke-dasharray:none;stroke-dashoffset:2.1875;stroke-opacity:1"
       d="m 8.0697919,5.8869793 c -0.146579,0 -0.264583,0.1180015 -0.264583,0.2645834 V 8.995834 H 4.9609375 c -0.1465791,0 -0.2645833,0.118006 -0.2645833,0.264583 v 0.79375 c 0,0.146576 0.1180042,0.264583 0.2645833,0.264583 h 2.8442714 v 2.844271 c 0,0.146577 0.118004,0.264584 0.264583,0.264584 h 0.79375 c 0.146579,0 0.264583,-0.118007 0.264583,-0.264584 V 10.31875 h 2.8442711 c 0.146579,0 0.264583,-0.118007 0.264583,-0.264583 v -0.79375 c 0,-0.146577 -0.118004,-0.264583 -0.264583,-0.264583 H 9.1281249 V 6.1515627 c 0,-0.1465819 -0.118004,-0.2645834 -0.264583,-0.2645834 z" />
    <path
       id="rect4307-0-2-9-9"
       style="color:#000000;font-style:normal;font-variant:normal;font-weight:normal;font-stretch:normal;font-size:medium;line-height:normal;font-family:sans-serif;font-variant-ligatures:normal;font-variant-position:normal;font-variant-caps:normal;font-variant-numeric:normal;font-variant-alternates:normal;font-variant-east-asian:normal;font-feature-settings:normal;font-variation-settings:normal;text-indent:0;text-align:start;text-decoration:none;text-decoration-line:none;text-decoration-style:solid;text-decoration-color:#000000;letter-spacing:normal;word-spacing:normal;text-transform:none;writing-mode:lr-tb;direction:ltr;text-orientation:mixed;dominant-baseline:auto;baseline-shift:baseline;text-anchor:start;white-space:normal;shape-padding:0;shape-margin:0;inline-size:0;clip-rule:nonzero;display:inline;overflow:visible;visibility:visible;isolation:auto;mix-blend-mode:normal;color-interpolation:sRGB;color-interpolation-filters:linearRGB;solid-color:#000000;solid-opacity:1;vector-effect:none;fill:#494649;fill-opacity:1;fill-rule:nonzero;stroke:none;stroke-width:1;stroke-linecap:round;stroke-linejoin:round;stroke-miterlimit:4;stroke-dasharray:none;stroke-dashoffset:2.1875;stroke-opacity:1;color-rendering:auto;image-rendering:auto;shape-rendering:auto;text-rendering:auto;enable-background:accumulate;stop-color:#000000;opacity:1"
       d="m 8.0703079,5.6885418 c -0.253079,0 -0.463021,0.2094204 -0.463021,0.4625023 V 8.797912 H 4.9609375 c -0.2530819,0 -0.4630208,0.209423 -0.4630208,0.462505 v 0.793231 c 0,0.253082 0.2099389,0.463021 0.4630208,0.463021 h 2.6463494 v 2.646352 c 0,0.253079 0.209942,0.463021 0.463021,0.463021 h 0.792718 c 0.253079,0 0.463021,-0.209942 0.463021,-0.463021 v -2.646352 h 2.6463491 c 0.253082,0 0.463021,-0.209939 0.463021,-0.463021 V 9.260417 c 0,-0.253082 -0.209939,-0.462505 -0.463021,-0.462505 H 9.3260469 V 6.1510441 c 0,-0.2530819 -0.209942,-0.4625023 -0.463021,-0.4625023 z m 0,0.3963564 h 0.792718 c 0.04008,0 0.06666,0.026061 0.06666,0.066151 V 8.994807 a 0.19845734,0.19845734 0 0 0 0.198954,0.199469 h 2.8437541 c 0.04008,0 0.06666,0.02606 0.06666,0.06615 v 0.793237 c 0,0.04008 -0.02658,0.06615 -0.06666,0.06615 H 9.1286399 a 0.19845734,0.19845734 0 0 0 -0.198954,0.199469 v 2.843753 c 0,0.04008 -0.02658,0.06615 -0.06666,0.06615 h -0.792718 c -0.04008,0 -0.06666,-0.02606 -0.06666,-0.06615 V 10.319279 A 0.19845734,0.19845734 0 0 0 7.8062429,10.11981 H 4.9609402 c -0.040082,0 -0.066662,-0.02606 -0.066662,-0.06615 V 9.260423 c 0,-0.04008 0.02658,-0.06615 0.066662,-0.06615 H 7.8062429 A 0.19845734,0.19845734 0 0 0 8.0036459,8.994807 V 6.1510494 c 0,-0.040079 0.02658,-0.066151 0.06666,-0.066151 z" />
    <rect
       style="opacity:0.2;fill:#0c0c0c;fill-opacity:1;stroke:none;stroke-width:0;stroke-linecap:round;stroke-linejoin:round;stroke-miterlimit:4;stroke-dasharray:none;stroke-dashoffset:2.1875;stroke-opacity:1"
       id="rect3576-5-9-5"
       width="12.170834"
       height="0.39687502"
       x="2.3812664"
       y="3.175" />
    <rect
       style="opacity:0.9;fill:#615705;fill-opacity:1;stroke:none;stroke-width:0;stroke-linecap:round;stroke-linejoin:round;stroke-miterlimit:4;stroke-dasharray:none;stroke-dashoffset:2.1875;stroke-opacity:1"
       id="rect3576-5-2"
       width="12.170834"
       height="0.39687502"
       x="2.3812664"
       y="2.9765627" />
    <path
       style="opacity:0.2;fill:#b8a50a;fill-opacity:1;stroke:none;stroke-width:0;stroke-linecap:round;stroke-linejoin:round;stroke-miterlimit:4;stroke-dasharray:none;stroke-dashoffset:2.1875;stroke-opacity:1"
       d="m 3.175,0.5953125 c -0.4397375,0 -0.79375,0.3540125 -0.79375,0.79375 V 2.9765626 H 14.552084 V 1.3890625 c 0,-0.4397375 -0.354013,-0.79375 -0.79375,-0.79375 z"
       id="rect2480-2-6-5-5-4-9-7" />
  </g>
</svg>
