<?xml version="1.0" encoding="UTF-8" standalone="no"?>
<svg
   xmlns:dc="http://purl.org/dc/elements/1.1/"
   xmlns:cc="http://creativecommons.org/ns#"
   xmlns:rdf="http://www.w3.org/1999/02/22-rdf-syntax-ns#"
   xmlns:svg="http://www.w3.org/2000/svg"
   xmlns="http://www.w3.org/2000/svg"
   xmlns:xlink="http://www.w3.org/1999/xlink"
   xmlns:sodipodi="http://sodipodi.sourceforge.net/DTD/sodipodi-0.dtd"
   xmlns:inkscape="http://www.inkscape.org/namespaces/inkscape"
   width="64"
   height="64"
   viewBox="0 0 64 64"
   version="1.1"
   id="svg6374"
   inkscape:version="1.0.2 (e86c870879, 2021-01-15)"
   sodipodi:docname="system-lock-screen.svg">
  <defs
     id="defs6368">
    <linearGradient
       inkscape:collect="always"
       xlink:href="#linearGradient1785"
       id="linearGradient1126"
       gradientUnits="userSpaceOnUse"
       gradientTransform="matrix(3.7795275,0,0,3.7795275,1,1)"
       x1="8.1944265"
       y1="1.0125455"
       x2="8.2493715"
       y2="15.385565" />
    <linearGradient
       inkscape:collect="always"
       id="linearGradient1785">
      <stop
         style="stop-color:#a97dca;stop-opacity:1"
         offset="0"
         id="stop1781" />
      <stop
         style="stop-color:#9764bf;stop-opacity:1"
         offset="1"
         id="stop1783" />
    </linearGradient>
  </defs>
  <sodipodi:namedview
     id="base"
     pagecolor="#cecece"
     bordercolor="#666666"
     borderopacity="1.0"
     inkscape:pageopacity="0"
     inkscape:pageshadow="2"
     inkscape:zoom="2.5183653"
     inkscape:cx="-147.80172"
     inkscape:cy="-14.863342"
     inkscape:document-units="px"
     inkscape:current-layer="layer1"
     inkscape:document-rotation="0"
     showgrid="false"
     units="px"
     inkscape:window-width="2048"
     inkscape:window-height="1080"
     inkscape:window-x="0"
     inkscape:window-y="0"
     inkscape:window-maximized="1" />
  <metadata
     id="metadata6371">
    <rdf:RDF>
      <cc:Work
         rdf:about="">
        <dc:format>image/svg+xml</dc:format>
        <dc:type
           rdf:resource="http://purl.org/dc/dcmitype/StillImage" />
        <dc:title />
      </cc:Work>
    </rdf:RDF>
  </metadata>
  <g
     inkscape:label="Layer 1"
     inkscape:groupmode="layer"
     id="layer1">
    <path
       id="rect831-360-6-7-9-7"
       style="color:#000000;font-style:normal;font-variant:normal;font-weight:normal;font-stretch:normal;font-size:medium;line-height:normal;font-family:sans-serif;font-variant-ligatures:normal;font-variant-position:normal;font-variant-caps:normal;font-variant-numeric:normal;font-variant-alternates:normal;font-variant-east-asian:normal;font-feature-settings:normal;font-variation-settings:normal;text-indent:0;text-align:start;text-decoration:none;text-decoration-line:none;text-decoration-style:solid;text-decoration-color:#000000;letter-spacing:normal;word-spacing:normal;text-transform:none;writing-mode:lr-tb;direction:ltr;text-orientation:mixed;dominant-baseline:auto;baseline-shift:baseline;text-anchor:start;white-space:normal;shape-padding:0;shape-margin:0;inline-size:0;clip-rule:nonzero;display:inline;overflow:visible;visibility:visible;opacity:0.15;isolation:auto;mix-blend-mode:normal;color-interpolation:sRGB;color-interpolation-filters:linearRGB;solid-color:#000000;solid-opacity:1;vector-effect:none;fill:#0c0c0c;fill-opacity:1;fill-rule:nonzero;stroke:none;stroke-width:0;stroke-linecap:round;stroke-linejoin:round;stroke-miterlimit:4;stroke-dasharray:none;stroke-dashoffset:2.1875;stroke-opacity:1;color-rendering:auto;image-rendering:auto;shape-rendering:auto;text-rendering:auto;enable-background:accumulate;stop-color:#000000"
       d="M 10.00346,5 C 6.42865,5 3.5,7.92124 3.5,11.49654 V 55.50346 C 3.5,59.07876 6.42865,62 10.00346,62 H 53.99654 C 57.57135,62 60.5,59.07876 60.5,55.50346 V 11.49654 C 60.5,7.92124 57.57135,5 53.99654,5 Z m 0,2.99825 h 43.99308 c 1.96481,0 3.50562,1.53321 3.50562,3.49829 v 44.00692 c 0,1.96508 -1.54081,3.50024 -3.50562,3.50024 H 10.00346 c -1.96481,0 -3.49781,-1.53516 -3.49781,-3.50024 V 11.49654 c 0,-1.96508 1.533,-3.49829 3.49781,-3.49829 z" />
    <path
       id="rect831-360-6-5"
       style="color:#000000;font-style:normal;font-variant:normal;font-weight:normal;font-stretch:normal;font-size:medium;line-height:normal;font-family:sans-serif;font-variant-ligatures:normal;font-variant-position:normal;font-variant-caps:normal;font-variant-numeric:normal;font-variant-alternates:normal;font-variant-east-asian:normal;font-feature-settings:normal;font-variation-settings:normal;text-indent:0;text-align:start;text-decoration:none;text-decoration-line:none;text-decoration-style:solid;text-decoration-color:#000000;letter-spacing:normal;word-spacing:normal;text-transform:none;writing-mode:lr-tb;direction:ltr;text-orientation:mixed;dominant-baseline:auto;baseline-shift:baseline;text-anchor:start;white-space:normal;shape-padding:0;shape-margin:0;inline-size:0;clip-rule:nonzero;display:inline;overflow:visible;visibility:visible;opacity:0.85;isolation:auto;mix-blend-mode:normal;color-interpolation:sRGB;color-interpolation-filters:linearRGB;solid-color:#000000;solid-opacity:1;vector-effect:none;fill:#6a3c90;fill-opacity:1;fill-rule:nonzero;stroke:none;stroke-width:0;stroke-linecap:round;stroke-linejoin:round;stroke-miterlimit:4;stroke-dasharray:none;stroke-dashoffset:2.1875;stroke-opacity:1;color-rendering:auto;image-rendering:auto;shape-rendering:auto;text-rendering:auto;enable-background:accumulate;stop-color:#000000"
       d="M 10.00346,3.5 C 6.42865,3.5 3.5,6.42124 3.5,9.99654 V 54.00346 C 3.5,57.57876 6.42865,60.5 10.00346,60.5 H 53.99654 C 57.57135,60.5 60.5,57.57876 60.5,54.00346 V 9.99654 C 60.5,6.42124 57.57135,3.5 53.99654,3.5 Z m 0,2.99825 h 43.99308 c 1.96481,0 3.50562,1.53321 3.50562,3.49829 v 44.00692 c 0,1.96508 -1.54081,3.50024 -3.50562,3.50024 H 10.00346 c -1.96481,0 -3.49781,-1.53516 -3.49781,-3.50024 V 9.99654 c 0,-1.96508 1.533,-3.49829 3.49781,-3.49829 z" />
    <rect
       style="fill:url(#linearGradient1126);fill-opacity:1;stroke-width:0;stroke-linecap:round;stroke-linejoin:round;stroke-dashoffset:2.1875"
       id="rect831-9"
       width="54"
       height="54"
       x="5.000001"
       y="4.9999995"
       rx="5"
       ry="5" />
    <path
       id="rect831-360-6-7-7"
       style="color:#000000;font-style:normal;font-variant:normal;font-weight:normal;font-stretch:normal;font-size:medium;line-height:normal;font-family:sans-serif;font-variant-ligatures:normal;font-variant-position:normal;font-variant-caps:normal;font-variant-numeric:normal;font-variant-alternates:normal;font-variant-east-asian:normal;font-feature-settings:normal;font-variation-settings:normal;text-indent:0;text-align:start;text-decoration:none;text-decoration-line:none;text-decoration-style:solid;text-decoration-color:#000000;letter-spacing:normal;word-spacing:normal;text-transform:none;writing-mode:lr-tb;direction:ltr;text-orientation:mixed;dominant-baseline:auto;baseline-shift:baseline;text-anchor:start;white-space:normal;shape-padding:0;shape-margin:0;inline-size:0;clip-rule:nonzero;display:inline;overflow:visible;visibility:visible;opacity:0.15;isolation:auto;mix-blend-mode:normal;color-interpolation:sRGB;color-interpolation-filters:linearRGB;solid-color:#000000;solid-opacity:1;vector-effect:none;fill:#4b2a65;fill-opacity:1;fill-rule:nonzero;stroke:none;stroke-width:0;stroke-linecap:round;stroke-linejoin:round;stroke-miterlimit:4;stroke-dasharray:none;stroke-dashoffset:2.1875;stroke-opacity:1;color-rendering:auto;image-rendering:auto;shape-rendering:auto;text-rendering:auto;enable-background:accumulate;stop-color:#000000"
       d="M 10.00346,3.5 C 6.42865,3.5 3.5,6.42124 3.5,9.99654 V 54.00346 C 3.5,57.57876 6.42865,60.5 10.00346,60.5 H 53.99654 C 57.57135,60.5 60.5,57.57876 60.5,54.00346 V 9.99654 C 60.5,6.42124 57.57135,3.5 53.99654,3.5 Z m 0,2.99825 h 43.99308 c 1.96481,0 3.50562,1.53321 3.50562,3.49829 v 44.00692 c 0,1.96508 -1.54081,3.50024 -3.50562,3.50024 H 10.00346 c -1.96482,0 -3.49781,-1.53516 -3.49781,-3.50024 V 9.99654 c 0,-1.96508 1.53299,-3.49829 3.49781,-3.49829 z" />
    <path
       id="rect2746-36-1"
       style="opacity:0.2;fill:#2f1b41;fill-opacity:1;stroke-width:0;stroke-linecap:round;stroke-linejoin:round;stroke-dashoffset:2.1875"
       d="m 32,14.5 c -5.9099,0 -10.66769,4.75733 -10.66769,10.66667 v 9.66666 h -4.66712 c -1.1081,7e-5 -2.00019,0.892 -2.00019,2 V 52.5 c 0,1.10807 0.89209,2 2.00019,2 h 30.66962 c 1.1081,0 2.00019,-0.89193 2.00019,-2 V 36.83333 c 0,-1.108 -0.89209,-2 -2.00019,-2 H 42.66769 V 25.16667 C 42.66769,19.25733 37.9099,14.5 32,14.5 Z m 0,4 c 3.69369,0 6.66731,2.9734 6.66731,6.66667 v 9.66666 H 25.33269 V 25.16667 C 25.33269,21.4734 28.30631,18.5 32,18.5 Z" />
    <path
       id="rect2746-36-3"
       style="color:#000000;font-style:normal;font-variant:normal;font-weight:normal;font-stretch:normal;font-size:medium;line-height:normal;font-family:sans-serif;font-variant-ligatures:normal;font-variant-position:normal;font-variant-caps:normal;font-variant-numeric:normal;font-variant-alternates:normal;font-variant-east-asian:normal;font-feature-settings:normal;font-variation-settings:normal;text-indent:0;text-align:start;text-decoration:none;text-decoration-line:none;text-decoration-style:solid;text-decoration-color:#000000;letter-spacing:normal;word-spacing:normal;text-transform:none;writing-mode:lr-tb;direction:ltr;text-orientation:mixed;dominant-baseline:auto;baseline-shift:baseline;text-anchor:start;white-space:normal;shape-padding:0;shape-margin:0;inline-size:0;clip-rule:nonzero;display:inline;overflow:visible;visibility:visible;opacity:1;isolation:auto;mix-blend-mode:normal;color-interpolation:sRGB;color-interpolation-filters:linearRGB;solid-color:#000000;solid-opacity:1;vector-effect:none;fill:#412456;fill-opacity:1;fill-rule:nonzero;stroke:none;stroke-linecap:round;stroke-linejoin:round;stroke-miterlimit:4;stroke-dasharray:none;stroke-dashoffset:2.1875;stroke-opacity:1;color-rendering:auto;image-rendering:auto;shape-rendering:auto;text-rendering:auto;enable-background:accumulate;stop-color:#000000"
       d="m 32.00094,11.5 c -6.17823,0 -11.16797,4.9883 -11.16797,11.16601 v 9.16602 H 16.665 c -1.37639,9e-5 -2.5,1.12362 -2.5,2.5 V 50 c 0,1.37643 1.12359,2.5 2.5,2.5 h 30.66992 c 1.37641,0 2.5,-1.12357 2.5,-2.5 V 34.33203 c 0,-1.37638 -1.12357,-2.5 -2.5,-2.5 H 43.16695 V 22.66601 C 43.16695,16.4883 38.17916,11.5 32.00094,11.5 Z m 0,1 c 5.64157,0 10.16601,4.52505 10.16601,10.16601 v 9.66602 a 0.50005,0.50005 0 0 0 0.5,0.5 h 4.66797 c 0.83977,0 1.5,0.66038 1.5,1.5 V 50 c 0,0.83971 -0.6602,1.5 -1.5,1.5 H 16.665 c -0.83979,0 -1.5,-0.66029 -1.5,-1.5 V 34.33203 c 0,-0.83962 0.66019,-1.49995 1.5,-1.5 h 4.66797 a 0.50005,0.50005 0 0 0 0.5,-0.5 V 22.66601 C 21.83297,17.02505 26.35936,12.5 32.00094,12.5 Z m 0,3 c -3.96202,0 -7.16797,3.20436 -7.16797,7.16601 v 9.66602 a 0.50005,0.50005 0 0 0 0.5,0.5 h 13.33398 a 0.50005,0.50005 0 0 0 0.5,-0.5 V 22.66601 C 39.16695,18.70436 35.96296,15.5 32.00094,15.5 Z m 0,1 c 3.42536,0 6.16601,2.74113 6.16601,6.16601 v 9.16602 H 25.83297 v -9.16602 c 0,-3.42488 2.74261,-6.16601 6.16797,-6.16601 z" />
    <path
       id="rect2746-36"
       style="fill:#fcfdfb;fill-opacity:1;stroke-width:0;stroke-linecap:round;stroke-linejoin:round;stroke-dashoffset:2.1875"
       d="m 32,12 c -5.9099,0 -10.66769,4.75733 -10.66769,10.66667 v 9.66666 h -4.66712 c -1.1081,7e-5 -2.00019,0.892 -2.00019,2 V 50 c 0,1.10807 0.89209,2 2.00019,2 h 30.66962 c 1.1081,0 2.00019,-0.89193 2.00019,-2 V 34.33333 c 0,-1.108 -0.89209,-2 -2.00019,-2 H 42.66769 V 22.66667 C 42.66769,16.75733 37.9099,12 32,12 Z m 0,4 c 3.69369,0 6.66731,2.9734 6.66731,6.66667 v 9.66666 H 25.33269 V 22.66667 C 25.33269,18.9734 28.30631,16 32,16 Z" />
  </g>
</svg>
