<?xml version="1.0" encoding="UTF-8" standalone="no"?>
<svg
   xmlns:dc="http://purl.org/dc/elements/1.1/"
   xmlns:cc="http://creativecommons.org/ns#"
   xmlns:rdf="http://www.w3.org/1999/02/22-rdf-syntax-ns#"
   xmlns:svg="http://www.w3.org/2000/svg"
   xmlns="http://www.w3.org/2000/svg"
   xmlns:xlink="http://www.w3.org/1999/xlink"
   xmlns:sodipodi="http://sodipodi.sourceforge.net/DTD/sodipodi-0.dtd"
   xmlns:inkscape="http://www.inkscape.org/namespaces/inkscape"
   width="64"
   height="64"
   viewBox="0 0 16.933333 16.933334"
   version="1.1"
   id="svg841"
   inkscape:version="1.0.2 (e86c870879, 2021-01-15)"
   sodipodi:docname="bluetooth.svg">
  <defs
     id="defs835">
    <linearGradient
       inkscape:collect="always"
       xlink:href="#linearGradient956"
       id="linearGradient958"
       x1="8.4666672"
       y1="0.52916712"
       x2="8.4666662"
       y2="16.404167"
       gradientUnits="userSpaceOnUse"
       gradientTransform="translate(-1.6406252e-8,-0.13229167)" />
    <linearGradient
       inkscape:collect="always"
       id="linearGradient956">
      <stop
         style="stop-color:#6e96cd;stop-opacity:1;"
         offset="0"
         id="stop952" />
      <stop
         style="stop-color:#5780b7;stop-opacity:1"
         offset="1"
         id="stop954" />
    </linearGradient>
  </defs>
  <sodipodi:namedview
     id="base"
     pagecolor="#c4c4c4"
     bordercolor="#666666"
     borderopacity="1.0"
     inkscape:pageopacity="0"
     inkscape:pageshadow="2"
     inkscape:zoom="3.6403743"
     inkscape:cx="-94.832877"
     inkscape:cy="63.640724"
     inkscape:document-units="px"
     inkscape:current-layer="layer1"
     inkscape:document-rotation="0"
     showgrid="false"
     units="px"
     inkscape:window-width="2048"
     inkscape:window-height="1080"
     inkscape:window-x="0"
     inkscape:window-y="0"
     inkscape:window-maximized="1" />
  <metadata
     id="metadata838">
    <rdf:RDF>
      <cc:Work
         rdf:about="">
        <dc:format>image/svg+xml</dc:format>
        <dc:type
           rdf:resource="http://purl.org/dc/dcmitype/StillImage" />
        <dc:title />
      </cc:Work>
    </rdf:RDF>
  </metadata>
  <g
     inkscape:label="Layer 1"
     inkscape:groupmode="layer"
     id="layer1">
    <path
       id="path866-9-1"
       style="color:#000000;font-style:normal;font-variant:normal;font-weight:normal;font-stretch:normal;font-size:medium;line-height:normal;font-family:sans-serif;font-variant-ligatures:normal;font-variant-position:normal;font-variant-caps:normal;font-variant-numeric:normal;font-variant-alternates:normal;font-variant-east-asian:normal;font-feature-settings:normal;font-variation-settings:normal;text-indent:0;text-align:start;text-decoration:none;text-decoration-line:none;text-decoration-style:solid;text-decoration-color:#000000;letter-spacing:normal;word-spacing:normal;text-transform:none;writing-mode:lr-tb;direction:ltr;text-orientation:mixed;dominant-baseline:auto;baseline-shift:baseline;text-anchor:start;white-space:normal;shape-padding:0;shape-margin:0;inline-size:0;clip-rule:nonzero;display:inline;overflow:visible;visibility:visible;opacity:0.15;isolation:auto;mix-blend-mode:normal;color-interpolation:sRGB;color-interpolation-filters:linearRGB;solid-color:#000000;solid-opacity:1;vector-effect:none;fill:#0c0c0c;fill-opacity:1;fill-rule:nonzero;stroke:none;stroke-width:1.00006;stroke-linecap:round;stroke-linejoin:round;stroke-miterlimit:4;stroke-dasharray:none;stroke-dashoffset:2.1875;stroke-opacity:1;color-rendering:auto;image-rendering:auto;shape-rendering:auto;text-rendering:auto;enable-background:accumulate;stop-color:#000000"
       d="m 8.4664076,0.39687501 c -3.7710825,0 -6.7466159,3.71792249 -6.7466159,8.20311809 0,4.4851929 2.9755334,8.2010489 6.7466159,8.2010489 3.7710824,0 6.7471344,-3.715856 6.7471344,-8.2010489 0,-4.4851956 -2.976052,-8.20311809 -6.7471344,-8.20311809 z m 0,0.79478449 c 3.2437414,0 5.9538104,3.272134 5.9538104,7.4083336 0,4.1361969 -2.710069,7.4083309 -5.9538104,7.4083309 -3.2437415,0 -5.9538078,-3.272134 -5.9538078,-7.4083309 0,-4.1361996 2.7100663,-7.4083336 5.9538078,-7.4083336 z" />
    <path
       id="path866-9-1-2-7"
       style="color:#000000;font-style:normal;font-variant:normal;font-weight:normal;font-stretch:normal;font-size:medium;line-height:normal;font-family:sans-serif;font-variant-ligatures:normal;font-variant-position:normal;font-variant-caps:normal;font-variant-numeric:normal;font-variant-alternates:normal;font-variant-east-asian:normal;font-feature-settings:normal;font-variation-settings:normal;text-indent:0;text-align:start;text-decoration:none;text-decoration-line:none;text-decoration-style:solid;text-decoration-color:#000000;letter-spacing:normal;word-spacing:normal;text-transform:none;writing-mode:lr-tb;direction:ltr;text-orientation:mixed;dominant-baseline:auto;baseline-shift:baseline;text-anchor:start;white-space:normal;shape-padding:0;shape-margin:0;inline-size:0;clip-rule:nonzero;display:inline;overflow:visible;visibility:visible;opacity:0.85;isolation:auto;mix-blend-mode:normal;color-interpolation:sRGB;color-interpolation-filters:linearRGB;solid-color:#000000;solid-opacity:1;vector-effect:none;fill:#314d72;fill-opacity:1;fill-rule:nonzero;stroke:none;stroke-width:1.00006;stroke-linecap:round;stroke-linejoin:round;stroke-miterlimit:4;stroke-dasharray:none;stroke-dashoffset:2.1875;stroke-opacity:1;color-rendering:auto;image-rendering:auto;shape-rendering:auto;text-rendering:auto;enable-background:accumulate;stop-color:#000000"
       d="m 8.4664076,0.13229167 c -3.7710825,0 -6.7466159,3.71792243 -6.7466159,8.20311803 0,4.4851953 2.9755334,8.2010493 6.7466159,8.2010493 3.7710824,0 6.7471344,-3.715854 6.7471344,-8.2010493 0,-4.4851956 -2.976052,-8.20311803 -6.7471344,-8.20311803 z m 0,0.79478454 c 3.2437414,0 5.9538104,3.27213389 5.9538104,7.40833349 0,4.1361993 -2.710069,7.4083333 -5.9538104,7.4083333 -3.2437415,0 -5.9538078,-3.272134 -5.9538078,-7.4083333 0,-4.1361996 2.7100663,-7.40833349 5.9538078,-7.40833349 z" />
    <ellipse
       style="fill:url(#linearGradient958);fill-opacity:1;stroke-width:0.268372;stroke-linecap:round;stroke-linejoin:round;stroke-dashoffset:2.1875;stroke-opacity:0.74902"
       id="path866"
       cx="8.4666672"
       cy="8.3343754"
       rx="6.3500004"
       ry="7.8052087" />
    <path
       id="path976-6-8-2-6-7-5-5-9"
       style="display:inline;opacity:0.35;fill:#1f3047;fill-opacity:1;stroke-width:0;stroke-linejoin:round"
       d="M 8.0057362,3.5534402 A 0.31231566,0.31217953 0 0 0 7.9950206,3.5536096 0.31231566,0.31217953 0 0 0 7.693004,3.8657518 V 4.256335 7.9380836 L 6.267593,6.5620756 a 0.31231566,0.31217953 0 0 0 -0.4414758,0.0077 L 5.6309209,6.7717738 a 0.31231566,0.31217953 0 0 0 0.00759,0.4412932 L 7.4739052,8.9849473 5.6588476,10.453924 a 0.31231566,0.31217953 0 0 0 -0.042579,0.443527 L 5.7967991,11.11256 A 0.31231566,0.31217953 0 0 0 6.232507,11.15441 L 7.6928823,9.972412 v 3.285051 a 0.31231566,0.31217953 0 0 0 0,0.01151 0.31231566,0.31217953 0 0 0 0,0.01344 v 0.482346 0.361841 a 0.31231566,0.31217953 0 0 0 0.5086694,0.242338 l 0.2812759,-0.227407 0.1721088,-0.139406 0.1925426,-0.155872 2.206424,-1.7858 0.220586,-0.178633 a 0.31231566,0.31217953 0 0 0 0.02032,-0.466998 L 11.090791,11.217864 9.0483242,9.2465276 8.8393299,9.0449309 a 0.31231566,0.31217953 0 0 0 0.00815,-0.00651 l 2.2064211,-1.7857947 0.220605,-0.178226 a 0.31231566,0.31217953 0 0 0 0.02032,-0.4673044 L 11.090881,6.4100275 9.0484142,4.4386858 8.5032508,3.9122417 8.2219537,3.6410464 a 0.31231566,0.31217953 0 0 0 -0.2128572,-0.087688 0.31231566,0.31217953 0 0 0 -0.00323,0 z M 8.5985775,5.2637466 10.182672,6.7925727 8.5985775,8.0744816 Z m 0,4.8073814 1.5840945,1.529231 -1.5840945,1.281911 z" />
    <path
       id="path976-6-8-2-6-7-5-5-0-3"
       style="color:#000000;font-style:normal;font-variant:normal;font-weight:normal;font-stretch:normal;font-size:medium;line-height:normal;font-family:sans-serif;font-variant-ligatures:normal;font-variant-position:normal;font-variant-caps:normal;font-variant-numeric:normal;font-variant-alternates:normal;font-variant-east-asian:normal;font-feature-settings:normal;font-variation-settings:normal;text-indent:0;text-align:start;text-decoration:none;text-decoration-line:none;text-decoration-style:solid;text-decoration-color:#000000;letter-spacing:normal;word-spacing:normal;text-transform:none;writing-mode:lr-tb;direction:ltr;text-orientation:mixed;dominant-baseline:auto;baseline-shift:baseline;text-anchor:start;white-space:normal;shape-padding:0;shape-margin:0;inline-size:0;clip-rule:nonzero;display:inline;overflow:visible;visibility:visible;opacity:0.75;isolation:auto;mix-blend-mode:normal;color-interpolation:sRGB;color-interpolation-filters:linearRGB;solid-color:#000000;solid-opacity:1;vector-effect:none;fill:#1f3047;fill-opacity:1;fill-rule:nonzero;stroke:none;stroke-width:1.00024;stroke-linecap:round;stroke-linejoin:round;stroke-miterlimit:4;stroke-dasharray:none;stroke-dashoffset:0;stroke-opacity:1;color-rendering:auto;image-rendering:auto;shape-rendering:auto;text-rendering:auto;enable-background:accumulate;stop-color:#000000"
       d="m 7.9909725,2.7596122 a 0.13232518,0.1323477 0 0 0 -0.033081,0.00781 l 0.03153,-0.0041 C 7.7532814,2.7736615 7.5613738,2.9662967 7.5614744,3.2032232 V 3.594026 6.9659687 L 6.3598136,5.8053765 C 6.1842943,5.63603 5.9003196,5.6418984 5.7308143,5.8172563 L 5.5354486,6.0183423 C 5.3660068,6.1937796 5.3698882,6.4779474 5.5452382,6.6474474 L 7.2740786,8.3161031 5.5746969,9.6916586 C 5.3825803,9.8471172 5.3551774,10.133153 5.5142264,10.322314 l 0.1814142,0.215043 c 0.1550061,0.184528 0.4318741,0.212111 0.6191779,0.06048 L 7.5614453,9.5877541 v 3.0111249 c -6.62e-5,0.0048 -9e-5,0.0087 0,0.01344 -3.97e-5,0.0045 -9.79e-5,0.009 0,0.01344 v 0.478679 0.363405 c 5.291e-4,0.364649 0.4389622,0.57503 0.7225453,0.345826 a 0.13232518,0.1323477 0 0 0 0,-0.0016 l 0.2816807,-0.226933 0.1736593,-0.138539 0.1912329,-0.156112 2.2074375,-1.785998 0.220691,-0.179893 c 0.205598,-0.166645 0.219816,-0.480388 0.02946,-0.664255 L 11.182967,10.463409 9.1398833,8.4897624 9.0380664,8.3920623 11.138001,6.6944612 11.358692,6.5166347 c 0.205912,-0.1666584 0.220136,-0.4824253 0.02946,-0.666324 L 11.182967,5.6528442 9.1398833,3.681783 8.5946141,3.1539975 8.313452,2.882609 C 8.2320423,2.8039484 8.1237695,2.7610991 8.0105808,2.7595778 c -0.00106,-5.3e-6 -0.00265,0 -0.0036,0 -5.291e-4,0 -0.00132,-2.7e-6 -0.00212,0 -0.0045,1.32e-5 -0.0095,-1.482e-4 -0.01397,0 z m 0.00781,0.2636361 c 0.00212,-6.88e-5 0.0041,-2.6e-6 0.00619,0 a 0.13232518,0.1323477 0 0 0 0.00212,0 h 0.00159 c 0.045231,0.00106 0.088911,0.019209 0.1214596,0.05066 l 0.2811622,0.271907 0.5447533,0.5252006 2.0435994,1.9736462 0.203118,0.1954 a 0.13232518,0.1323477 0 0 0 0.0021,0.00159 c 0.07948,0.076658 0.07395,0.198292 -0.01188,0.267769 L 10.972284,6.4893112 8.764847,8.274791 c -0.00159,0.00132 -0.0041,0.00291 -0.00569,0.0041 a 0.13232518,0.1323477 0 0 0 -0.01188,0.201086 l 0.2088065,0.2016019 2.0435995,1.9710611 0.203118,0.197467 c 0.07934,0.07664 0.07381,0.199855 -0.01188,0.269322 L 10.972298,11.297256 8.7648602,13.085321 8.5715609,13.239367 8.3994521,13.379972 8.11829,13.606905 C 7.993658,13.707637 7.8254597,13.627995 7.8252375,13.46785 v -0.363402 -0.48023 a 0.13232518,0.1323477 0 0 0 0,-0.0041 c -5.56e-5,-0.0026 -5.56e-5,-0.0052 0,-0.0078 a 0.13232518,0.1323477 0 0 0 0,-0.0057 c -3.97e-5,-0.0021 -3.97e-5,-0.004 0,-0.0062 a 0.13232518,0.1323477 0 0 0 0,-0.0016 V 9.3121694 A 0.13232518,0.1323477 0 0 0 7.610118,9.2087835 L 6.1490015,10.391005 c -0.077449,0.0627 -0.1876213,0.05251 -0.2517008,-0.02379 L 5.717437,10.152695 c -0.065879,-0.07835 -0.05634,-0.1919895 0.023257,-0.256397 L 7.5573998,8.4271778 A 0.13232518,0.1323477 0 0 0 7.565205,8.2281582 L 5.7309307,6.4560981 c -0.07258,-0.070152 -0.0758,-0.1817344 -0.00571,-0.2543308 L 5.920584,6.0006814 c 0.070141,-0.07257 0.1832002,-0.075771 0.2558363,-0.00569 l 1.4239055,1.377106 a 0.13232518,0.1323477 0 0 0 0.224827,-0.095631 V 3.5938434 3.2030433 c -4.23e-5,-0.098491 0.07511,-0.1766412 0.1736593,-0.1798929 z m 0.593852,1.4453394 A 0.13232518,0.1323477 0 0 0 8.4660028,4.6019562 V 7.4135485 A 0.13232518,0.1323477 0 0 0 8.6825616,7.5169344 L 10.266686,6.233393 a 0.13232518,0.1323477 0 0 0 0.0083,-0.1974691 L 8.6903033,4.5063252 A 0.13232518,0.1323477 0 0 0 8.6086453,4.4691032 0.13232518,0.1323477 0 0 0 8.5926113,4.468574 Z M 8.7316651,4.9147017 9.983462,6.1217362 8.7316651,7.1338865 Z m -0.141097,4.3634185 a 0.13232518,0.1323477 0 0 0 -0.013441,0.00106 0.13232518,0.1323477 0 0 0 -0.1111224,0.1307809 V 12.22362 a 0.13232518,0.1323477 0 0 0 0.2165588,0.10132 l 1.5841225,-1.281475 a 0.13232518,0.1323477 0 0 0 0.0083,-0.197469 L 8.6902742,9.3164001 a 0.13232518,0.1323477 0 0 0 -0.099751,-0.038251 z m 0.141097,0.4445608 1.2517969,1.20962 -1.2517969,1.011634 z" />
    <path
       id="path976-6-8-2-6-7-5-5"
       style="display:inline;fill:#fdfcfb;fill-opacity:1;stroke-width:0;stroke-linejoin:round"
       d="M 8.0057362,2.8919673 A 0.31231566,0.31217953 0 0 0 7.9950206,2.8921367 0.31231566,0.31217953 0 0 0 7.693004,3.2042789 V 3.5948621 7.2766107 L 6.267593,5.9006027 a 0.31231566,0.31217953 0 0 0 -0.4414758,0.0077 L 5.6309209,6.1103009 a 0.31231566,0.31217953 0 0 0 0.00759,0.4412932 l 1.8353908,1.7718776 -1.8150576,1.46898 a 0.31231566,0.31217953 0 0 0 -0.042579,0.4435263 l 0.1805305,0.215109 a 0.31231566,0.31217953 0 0 0 0.4357079,0.04185 L 7.6928823,9.3109391 V 12.59599 a 0.31231566,0.31217953 0 0 0 0,0.01151 0.31231566,0.31217953 0 0 0 0,0.01344 v 0.482346 0.361839 a 0.31231566,0.31217953 0 0 0 0.5086694,0.24234 l 0.2812759,-0.227407 0.1721088,-0.139406 0.1925426,-0.155872 2.206424,-1.785799 0.220586,-0.178634 a 0.31231566,0.31217953 0 0 0 0.02032,-0.467 L 11.090791,10.556391 9.0483269,8.5850547 8.8393299,8.3834581 a 0.31231566,0.31217953 0 0 0 0.00815,-0.00651 L 11.0539,6.5911546 11.274505,6.4129287 a 0.31231566,0.31217953 0 0 0 0.02032,-0.4673045 L 11.090881,5.7485546 9.0484169,3.7772129 8.5032508,3.2507688 8.2219537,2.9795735 a 0.31231566,0.31217953 0 0 0 -0.2128572,-0.087688 0.31231566,0.31217953 0 0 0 -0.00323,0 z M 8.5985775,4.6022737 10.182672,6.1310998 8.5985775,7.4130087 Z m 0,4.8073814 1.5840945,1.5292309 -1.5840945,1.281909 z" />
    <path
       id="path866-9-1-2"
       style="color:#000000;font-style:normal;font-variant:normal;font-weight:normal;font-stretch:normal;font-size:medium;line-height:normal;font-family:sans-serif;font-variant-ligatures:normal;font-variant-position:normal;font-variant-caps:normal;font-variant-numeric:normal;font-variant-alternates:normal;font-variant-east-asian:normal;font-feature-settings:normal;font-variation-settings:normal;text-indent:0;text-align:start;text-decoration:none;text-decoration-line:none;text-decoration-style:solid;text-decoration-color:#000000;letter-spacing:normal;word-spacing:normal;text-transform:none;writing-mode:lr-tb;direction:ltr;text-orientation:mixed;dominant-baseline:auto;baseline-shift:baseline;text-anchor:start;white-space:normal;shape-padding:0;shape-margin:0;inline-size:0;clip-rule:nonzero;display:inline;overflow:visible;visibility:visible;opacity:0.15;isolation:auto;mix-blend-mode:normal;color-interpolation:sRGB;color-interpolation-filters:linearRGB;solid-color:#000000;solid-opacity:1;vector-effect:none;fill:#1f3047;fill-opacity:1;fill-rule:nonzero;stroke:none;stroke-width:1.00006;stroke-linecap:round;stroke-linejoin:round;stroke-miterlimit:4;stroke-dasharray:none;stroke-dashoffset:2.1875;stroke-opacity:1;color-rendering:auto;image-rendering:auto;shape-rendering:auto;text-rendering:auto;enable-background:accumulate;stop-color:#000000"
       d="m 8.4664076,0.13229167 c -3.7710825,0 -6.7466159,3.71792243 -6.7466159,8.20311803 0,4.4851953 2.9755334,8.2010493 6.7466159,8.2010493 3.7710824,0 6.7471344,-3.715854 6.7471344,-8.2010493 0,-4.4851956 -2.976052,-8.20311803 -6.7471344,-8.20311803 z m 0,0.79478454 c 3.2437414,0 5.9538104,3.27213389 5.9538104,7.40833349 0,4.1361993 -2.710069,7.4083333 -5.9538104,7.4083333 -3.2437415,0 -5.9538078,-3.272134 -5.9538078,-7.4083333 0,-4.1361996 2.7100663,-7.40833349 5.9538078,-7.40833349 z" />
  </g>
</svg>
