<?xml version="1.0" encoding="UTF-8" standalone="no"?>
<svg
   xmlns:dc="http://purl.org/dc/elements/1.1/"
   xmlns:cc="http://creativecommons.org/ns#"
   xmlns:rdf="http://www.w3.org/1999/02/22-rdf-syntax-ns#"
   xmlns:svg="http://www.w3.org/2000/svg"
   xmlns="http://www.w3.org/2000/svg"
   xmlns:sodipodi="http://sodipodi.sourceforge.net/DTD/sodipodi-0.dtd"
   xmlns:inkscape="http://www.inkscape.org/namespaces/inkscape"
   width="64"
   height="64"
   viewBox="0 0 16.933333 16.933334"
   version="1.1"
   id="svg841"
   inkscape:version="1.0.2 (e86c870879, 2021-01-15)"
   sodipodi:docname="font-x-generic-symbolic.svg">
  <defs
     id="defs835" />
  <sodipodi:namedview
     id="base"
     pagecolor="#c4c4c4"
     bordercolor="#666666"
     borderopacity="1.0"
     inkscape:pageopacity="0"
     inkscape:pageshadow="2"
     inkscape:zoom="3.5451024"
     inkscape:cx="68.811251"
     inkscape:cy="38.515083"
     inkscape:document-units="px"
     inkscape:current-layer="layer1"
     inkscape:document-rotation="0"
     showgrid="false"
     units="px"
     inkscape:window-width="2048"
     inkscape:window-height="1080"
     inkscape:window-x="0"
     inkscape:window-y="0"
     inkscape:window-maximized="1" />
  <metadata
     id="metadata838">
    <rdf:RDF>
      <cc:Work
         rdf:about="">
        <dc:format>image/svg+xml</dc:format>
        <dc:type
           rdf:resource="http://purl.org/dc/dcmitype/StillImage" />
        <dc:title></dc:title>
      </cc:Work>
    </rdf:RDF>
  </metadata>
  <g
     inkscape:label="Layer 1"
     inkscape:groupmode="layer"
     id="layer1">
    <path
       id="rect1180-5-6-3"
       style="display:inline;fill:#808084;fill-opacity:1;stroke-width:1.65365;stroke-dashoffset:2.1875"
       d="m 2.1828123,0.52916775 c -0.1831975,0 -0.3307292,0.1475052 -0.3307292,0.3307292 V 2.5135428 4.9940089 c 0,0.183224 0.1475317,0.3307292 0.3307292,0.3307292 h 1.1575521 c 0.1832504,0 0.3307292,-0.1475052 0.3307292,-0.3307292 V 4.0845037 A 1.2402344,1.2402344 0 0 1 4.9016442,2.8442719 H 6.9783853 V 13.344921 a 1.2402344,1.2402344 0 0 1 -1.2305506,1.240234 h -0.919189 c -0.1831975,0 -0.3307292,0.147505 -0.3307292,0.330729 v 1.157553 c 0,0.183224 0.1475317,0.330729 0.3307292,0.330729 h 7.2760413 c 0.183251,0 0.330729,-0.147505 0.330729,-0.330729 v -1.157553 c 0,-0.183224 -0.147478,-0.330729 -0.330729,-0.330729 H 11.185498 A 1.2402344,1.2402344 0 0 1 9.9549483,13.344921 V 2.8442719 h 2.0767407 a 1.2403344,1.2402344 0 0 1 1.23055,1.2402318 v 0.9095052 c 0,0.183224 0.147532,0.3307292 0.33073,0.3307292 h 1.157552 c 0.18325,0 0.330729,-0.1475052 0.330729,-0.3307292 V 2.5135428 0.85989695 c 0,-0.045805 -0.0095,-0.08895 -0.02593,-0.1285452 -0.0164,-0.039595 -0.04114,-0.075401 -0.07104,-0.105291 -0.05977,-0.05978 -0.14224,-0.096893 -0.233839,-0.096893 z" />
  </g>
</svg>
