<?xml version="1.0" encoding="UTF-8" standalone="no"?>
<svg
   xmlns:dc="http://purl.org/dc/elements/1.1/"
   xmlns:cc="http://creativecommons.org/ns#"
   xmlns:rdf="http://www.w3.org/1999/02/22-rdf-syntax-ns#"
   xmlns:svg="http://www.w3.org/2000/svg"
   xmlns="http://www.w3.org/2000/svg"
   xmlns:xlink="http://www.w3.org/1999/xlink"
   xmlns:sodipodi="http://sodipodi.sourceforge.net/DTD/sodipodi-0.dtd"
   xmlns:inkscape="http://www.inkscape.org/namespaces/inkscape"
   width="64"
   height="64"
   viewBox="0 0 64 64"
   version="1.1"
   id="svg6374"
   inkscape:version="1.0.2 (e86c870879, 2021-01-15)"
   sodipodi:docname="online.svg">
  <defs
     id="defs6368">
    <linearGradient
       inkscape:collect="always"
       xlink:href="#linearGradient877"
       id="linearGradient1276"
       gradientUnits="userSpaceOnUse"
       gradientTransform="translate(-600.40204,-810.93182)"
       x1="632.40204"
       y1="820.43182"
       x2="632.49402"
       y2="865.08179" />
    <linearGradient
       inkscape:collect="always"
       id="linearGradient877">
      <stop
         style="stop-color:#17cea7;stop-opacity:1"
         offset="0"
         id="stop873" />
      <stop
         style="stop-color:#13ae8d;stop-opacity:1"
         offset="1"
         id="stop875" />
    </linearGradient>
  </defs>
  <sodipodi:namedview
     id="base"
     pagecolor="#cecece"
     bordercolor="#666666"
     borderopacity="1.0"
     inkscape:pageopacity="0"
     inkscape:pageshadow="2"
     inkscape:zoom="3.0507639"
     inkscape:cx="-23.010756"
     inkscape:cy="9.8514365"
     inkscape:document-units="px"
     inkscape:current-layer="layer1"
     inkscape:document-rotation="0"
     showgrid="false"
     units="px"
     inkscape:window-width="2048"
     inkscape:window-height="1080"
     inkscape:window-x="0"
     inkscape:window-y="0"
     inkscape:window-maximized="1" />
  <metadata
     id="metadata6371">
    <rdf:RDF>
      <cc:Work
         rdf:about="">
        <dc:format>image/svg+xml</dc:format>
        <dc:type
           rdf:resource="http://purl.org/dc/dcmitype/StillImage" />
        <dc:title />
      </cc:Work>
    </rdf:RDF>
  </metadata>
  <g
     inkscape:label="Layer 1"
     inkscape:groupmode="layer"
     id="layer1">
    <path
       id="path1181-0-2-9-62-2-2-7"
       style="color:#000000;font-style:normal;font-variant:normal;font-weight:normal;font-stretch:normal;font-size:medium;line-height:normal;font-family:sans-serif;font-variant-ligatures:normal;font-variant-position:normal;font-variant-caps:normal;font-variant-numeric:normal;font-variant-alternates:normal;font-variant-east-asian:normal;font-feature-settings:normal;font-variation-settings:normal;text-indent:0;text-align:start;text-decoration:none;text-decoration-line:none;text-decoration-style:solid;text-decoration-color:#000000;letter-spacing:normal;word-spacing:normal;text-transform:none;writing-mode:lr-tb;direction:ltr;text-orientation:mixed;dominant-baseline:auto;baseline-shift:baseline;text-anchor:start;white-space:normal;shape-padding:0;shape-margin:0;inline-size:0;clip-rule:nonzero;display:inline;overflow:visible;visibility:visible;opacity:0.15;isolation:auto;mix-blend-mode:normal;color-interpolation:sRGB;color-interpolation-filters:linearRGB;solid-color:#000000;solid-opacity:1;vector-effect:none;fill:#0c0c0c;fill-opacity:1;fill-rule:nonzero;stroke:none;stroke-width:0;stroke-linecap:round;stroke-linejoin:round;stroke-miterlimit:4;stroke-dasharray:none;stroke-dashoffset:2.1875;stroke-opacity:1;color-rendering:auto;image-rendering:auto;shape-rendering:auto;text-rendering:auto;enable-background:accumulate;stop-color:#000000"
       d="M 32,9.5 C 18.76186,9.5 8,20.2634 8,33.501 8,46.7386 18.76186,57.5 32,57.5 45.23814,57.5 56,46.7386 56,33.501 56,20.2634 45.23814,9.5 32,9.5 Z m 0,2.9982 c 11.61669,0 21.00366,9.3866 21.00366,21.0028 0,11.6162 -9.38697,21.0008 -21.00366,21.0008 -11.61668,0 -21.00366,-9.3846 -21.00366,-21.0008 0,-11.6162 9.38697,-21.0028 21.00366,-21.0028 z" />
    <path
       id="path1181-0-6-2-9-0-9-5"
       style="color:#000000;font-style:normal;font-variant:normal;font-weight:normal;font-stretch:normal;font-size:medium;line-height:normal;font-family:sans-serif;font-variant-ligatures:normal;font-variant-position:normal;font-variant-caps:normal;font-variant-numeric:normal;font-variant-alternates:normal;font-variant-east-asian:normal;font-feature-settings:normal;font-variation-settings:normal;text-indent:0;text-align:start;text-decoration:none;text-decoration-line:none;text-decoration-style:solid;text-decoration-color:#000000;letter-spacing:normal;word-spacing:normal;text-transform:none;writing-mode:lr-tb;direction:ltr;text-orientation:mixed;dominant-baseline:auto;baseline-shift:baseline;text-anchor:start;white-space:normal;shape-padding:0;shape-margin:0;inline-size:0;clip-rule:nonzero;display:inline;overflow:visible;visibility:visible;opacity:0.85;isolation:auto;mix-blend-mode:normal;color-interpolation:sRGB;color-interpolation-filters:linearRGB;solid-color:#000000;solid-opacity:1;vector-effect:none;fill:#0c6e59;fill-opacity:1;fill-rule:nonzero;stroke:none;stroke-width:3.77975;stroke-linecap:round;stroke-linejoin:round;stroke-miterlimit:4;stroke-dasharray:none;stroke-dashoffset:2.1875;stroke-opacity:1;color-rendering:auto;image-rendering:auto;shape-rendering:auto;text-rendering:auto;enable-background:accumulate;stop-color:#000000"
       d="M 32,8 C 18.76186,8 8,18.7634 8,32.001 8,45.2386 18.76186,56 32,56 45.23814,56 56,45.2386 56,32.001 56,18.7634 45.23814,8 32,8 Z m 0,2.9982 c 11.61669,0 21.00366,9.3866 21.00366,21.0028 0,11.6162 -9.38697,21.0008 -21.00366,21.0008 -11.61668,0 -21.00366,-9.3846 -21.00366,-21.0008 0,-11.6162 9.38697,-21.0028 21.00366,-21.0028 z" />
    <circle
       style="fill:url(#linearGradient1276);fill-opacity:1;stroke:#771832;stroke-width:0;stroke-linecap:round;stroke-linejoin:round;stroke-miterlimit:4;stroke-dasharray:none;stroke-dashoffset:2.1875;stroke-opacity:1"
       id="path1181-0-1-2-1-3"
       cx="32.000015"
       cy="32.000015"
       r="22.499998" />
    <path
       id="path1181-0-2-9-3-2-7-7-5"
       style="color:#000000;font-style:normal;font-variant:normal;font-weight:normal;font-stretch:normal;font-size:medium;line-height:normal;font-family:sans-serif;font-variant-ligatures:normal;font-variant-position:normal;font-variant-caps:normal;font-variant-numeric:normal;font-variant-alternates:normal;font-variant-east-asian:normal;font-feature-settings:normal;font-variation-settings:normal;text-indent:0;text-align:start;text-decoration:none;text-decoration-line:none;text-decoration-style:solid;text-decoration-color:#000000;letter-spacing:normal;word-spacing:normal;text-transform:none;writing-mode:lr-tb;direction:ltr;text-orientation:mixed;dominant-baseline:auto;baseline-shift:baseline;text-anchor:start;white-space:normal;shape-padding:0;shape-margin:0;inline-size:0;clip-rule:nonzero;display:inline;overflow:visible;visibility:visible;opacity:0.15;isolation:auto;mix-blend-mode:normal;color-interpolation:sRGB;color-interpolation-filters:linearRGB;solid-color:#000000;solid-opacity:1;vector-effect:none;fill:#0a5c4a;fill-opacity:1;fill-rule:nonzero;stroke:none;stroke-width:0;stroke-linecap:round;stroke-linejoin:round;stroke-miterlimit:4;stroke-dasharray:none;stroke-dashoffset:2.1875;stroke-opacity:1;color-rendering:auto;image-rendering:auto;shape-rendering:auto;text-rendering:auto;enable-background:accumulate;stop-color:#000000"
       d="M 32,8 C 18.76186,8 8,18.7634 8,32.001 8,45.2386 18.76186,56 32,56 45.23814,56 56,45.2386 56,32.001 56,18.7634 45.23814,8 32,8 Z m 0,2.9982 c 11.61669,0 21.00366,9.3866 21.00366,21.0028 0,11.6162 -9.38697,21.0008 -21.00366,21.0008 -11.61668,0 -21.00366,-9.3846 -21.00366,-21.0008 0,-11.6162 9.38698,-21.0028 21.00366,-21.0028 z" />
    <path
       id="rect16-6-1-5-5-9-7-6-0-1-6-7-7-2-9"
       style="display:inline;opacity:0.35;fill:#0a5c4a;fill-opacity:1;stroke:none;stroke-width:0;stroke-miterlimit:4;stroke-dasharray:none"
       d="m 44.25976,21.00159 c -1.09,-0.019 -2.1707,0.4865 -2.8457,1.4482 l -13.0818,18.6371 -5.9258,-7.0468 c -1.2103,-1.4391 -3.346,-1.6269 -4.7884,-0.4194 -1.4424,1.2075 -1.6308,3.3382 -0.4204,4.7773 l 8.7404,10.3893 c 0.5092,0.6054 1.1823,0.9788 1.8985,1.1303 0.054,0.013 0.1089,0.021 0.1638,0.031 0.1251,0.02 0.2496,0.038 0.3762,0.044 0.1734,0.012 0.3454,0.01 0.5177,-0.01 0.9665,-0.084 1.8892,-0.5633 2.4916,-1.4217 l 15.5955,-22.2227 c 1.08,-1.5389 0.7104,-3.6425 -0.832,-4.72 -0.5784,-0.404 -1.2357,-0.6066 -1.8897,-0.6182 z" />
    <path
       id="rect16-6-1-5-5-9-7-6-0-1-6-5-3-92-9-3"
       style="color:#000000;font-style:normal;font-variant:normal;font-weight:normal;font-stretch:normal;font-size:medium;line-height:normal;font-family:sans-serif;font-variant-ligatures:normal;font-variant-position:normal;font-variant-caps:normal;font-variant-numeric:normal;font-variant-alternates:normal;font-variant-east-asian:normal;font-feature-settings:normal;font-variation-settings:normal;text-indent:0;text-align:start;text-decoration:none;text-decoration-line:none;text-decoration-style:solid;text-decoration-color:#000000;letter-spacing:normal;word-spacing:normal;text-transform:none;writing-mode:lr-tb;direction:ltr;text-orientation:mixed;dominant-baseline:auto;baseline-shift:baseline;text-anchor:start;white-space:normal;shape-padding:0;shape-margin:0;inline-size:0;clip-rule:nonzero;display:inline;overflow:visible;visibility:visible;isolation:auto;mix-blend-mode:normal;color-interpolation:sRGB;color-interpolation-filters:linearRGB;solid-color:#000000;solid-opacity:1;vector-effect:none;fill:#0a5c4a;fill-opacity:1;fill-rule:nonzero;stroke:none;stroke-width:1.00014;stroke-linecap:round;stroke-linejoin:round;stroke-miterlimit:4;stroke-dasharray:none;stroke-dashoffset:0;stroke-opacity:1;color-rendering:auto;image-rendering:auto;shape-rendering:auto;text-rendering:auto;enable-background:accumulate;stop-color:#000000"
       d="m 44.27256,18.00189 a 0.5001914,0.50005 0 0 0 -0.2344,0.055 c -1.167,0.052 -2.308,0.5788 -3.0302,1.6074 l -12.7126,18.1074 -5.5093,-6.5507 c -1.3834,-1.6445 -3.8451,-1.8603 -5.4938,-0.4805 -1.6484,1.3796 -1.8642,3.8377 -0.4806,5.4824 l 8.7427,10.3887 c 0.5839,0.694 1.3613,1.1241 2.1784,1.2969 0.074,0.017 0.137,0.028 0.1778,0.035 a 0.5001914,0.50005 0 0 0 0.01,0 c 0.1294,0.021 0.2723,0.041 0.4298,0.049 v 0 c 0.1912,0.013 0.3871,0.01 0.5841,-0.012 1.103,-0.096 2.168,-0.6496 2.8582,-1.6328 l 15.6002,-22.2227 c 1.2342,-1.75819 0.8072,-4.185 -0.9554,-5.416 -0.66,-0.46089 -1.4151,-0.69569 -2.1666,-0.709 z m -0.018,1.002 a 0.5001914,0.50005 0 0 0 0.01,0 c 0.5549,0.011 1.1106,0.18151 1.6059,0.52731 1.3231,0.92399 1.6356,2.70191 0.7092,4.0215 l -15.6001,22.22269 c -0.5149,0.73341 -1.2949,1.13871 -2.1256,1.2109 a 0.5001914,0.50005 0 0 0 -0.014,0 c -0.1382,0.016 -0.2789,0.018 -0.4259,0.01 a 0.5001914,0.50005 0 0 0 -0.012,0 c -0.092,0 -0.1949,-0.019 -0.3106,-0.037 h -0.01 c -0.059,-0.011 -0.1027,-0.018 -0.127,-0.023 a 0.5001914,0.50005 0 0 0 -0.012,0 c -0.6157,-0.1302 -1.1848,-0.4481 -1.6196,-0.9648 l -8.7447,-10.3887 c -1.0377,-1.2335 -0.8777,-3.0369 0.3595,-4.0723 1.2369,-1.03519 3.0492,-0.8763 4.0871,0.3574 l 5.9274,7.0469 a 0.5001914,0.50005 0 0 0 0.7913,-0.033 l 13.0857,-18.6367 c 0.5784,-0.8238 1.4985,-1.2525 2.4284,-1.2363 z" />
    <path
       id="rect16-6-1-5-5-9-7-6-0-1-6-0-3-1"
       style="display:inline;fill:#fdfbfc;fill-opacity:1;stroke:none;stroke-width:0;stroke-miterlimit:4;stroke-dasharray:none"
       d="m 44.25976,18.50159 c -1.09,-0.019 -2.1707,0.4865 -2.8457,1.4482 l -13.0818,18.6371 -5.9258,-7.0468 c -1.2103,-1.4391 -3.346,-1.6269 -4.7884,-0.4194 -1.4424,1.2075 -1.6308,3.3382 -0.4204,4.7773 l 8.7404,10.3893 c 0.5092,0.6054 1.1823,0.9788 1.8985,1.1303 0.054,0.013 0.1089,0.021 0.1638,0.031 0.1251,0.02 0.2496,0.038 0.3762,0.044 0.1734,0.012 0.3454,0.01 0.5177,-0.01 0.9665,-0.084 1.8892,-0.5633 2.4916,-1.4217 l 15.5955,-22.2227 c 1.08,-1.5389 0.7104,-3.6425 -0.832,-4.72 -0.5784,-0.404 -1.2357,-0.6066 -1.8897,-0.6182 z" />
  </g>
</svg>
