<?xml version="1.0" encoding="UTF-8" standalone="no"?>
<svg
   xmlns:dc="http://purl.org/dc/elements/1.1/"
   xmlns:cc="http://creativecommons.org/ns#"
   xmlns:rdf="http://www.w3.org/1999/02/22-rdf-syntax-ns#"
   xmlns:svg="http://www.w3.org/2000/svg"
   xmlns="http://www.w3.org/2000/svg"
   xmlns:sodipodi="http://sodipodi.sourceforge.net/DTD/sodipodi-0.dtd"
   xmlns:inkscape="http://www.inkscape.org/namespaces/inkscape"
   width="64"
   height="64"
   viewBox="0 0 16.933333 16.933334"
   version="1.1"
   id="svg841"
   inkscape:version="1.0.2 (e86c870879, 2021-01-15)"
   sodipodi:docname="network-offline-symbolic.svg">
  <defs
     id="defs835" />
  <sodipodi:namedview
     id="base"
     pagecolor="#c4c4c4"
     bordercolor="#666666"
     borderopacity="1.0"
     inkscape:pageopacity="0"
     inkscape:pageshadow="2"
     inkscape:zoom="2.2602841"
     inkscape:cx="-63.879638"
     inkscape:cy="76.617983"
     inkscape:document-units="px"
     inkscape:current-layer="layer1"
     inkscape:document-rotation="0"
     showgrid="false"
     units="px"
     inkscape:window-width="2048"
     inkscape:window-height="1080"
     inkscape:window-x="0"
     inkscape:window-y="0"
     inkscape:window-maximized="1" />
  <metadata
     id="metadata838">
    <rdf:RDF>
      <cc:Work
         rdf:about="">
        <dc:format>image/svg+xml</dc:format>
        <dc:type
           rdf:resource="http://purl.org/dc/dcmitype/StillImage" />
        <dc:title></dc:title>
      </cc:Work>
    </rdf:RDF>
  </metadata>
  <g
     inkscape:label="Layer 1"
     inkscape:groupmode="layer"
     id="layer1">
    <path
       id="rect2131-7-7-3"
       style="display:inline;fill:#808084;fill-opacity:1;stroke:none;stroke-width:1.32292;stroke-linecap:butt;stroke-linejoin:miter;stroke-miterlimit:4;stroke-dasharray:none;stroke-dashoffset:2.1875;stroke-opacity:1"
       d="m 10.08003,9.1532576 c -0.236696,0 -0.473339,0.0904 -0.654711,0.27181 -0.362744,0.36277 -0.362744,0.9472304 0,1.3100004 l 2.308304,2.30836 -2.308304,2.30836 c -0.362744,0.36277 -0.362744,0.9467 0,1.30947 0.362744,0.36277 0.947182,0.36277 1.309952,0 l 2.308278,-2.30835 2.308304,2.30835 c 0.362744,0.36277 0.94668,0.36277 1.309423,0 0.362744,-0.36277 0.362744,-0.9467 0,-1.30947 l -2.308304,-2.30836 2.308304,-2.30836 c 0.362744,-0.36277 0.362744,-0.9467304 0,-1.3094704 -0.362743,-0.36277 -0.946679,-0.36277 -1.309423,0 L 13.043549,11.733958 10.735271,9.4250676 c -0.181372,-0.18137 -0.418518,-0.27181 -0.655241,-0.27181 z" />
    <path
       id="rect3612-4-1-6-0-67-7-5-60-5-2-9-1-9"
       style="display:inline;opacity:0.375;fill:#808084;fill-opacity:1;stroke:none;stroke-width:0;stroke-linecap:round;stroke-linejoin:round;stroke-miterlimit:4;stroke-dasharray:none;stroke-dashoffset:2.1875;stroke-opacity:1"
       d="m 12.950613,2.1293676 c -0.0675,-0.006 -0.137083,0.0134 -0.19327,0.0605 l -0.811321,0.68063 v 5.3e-4 c -0.02798,0.0235 -0.04996,0.0514 -0.06563,0.0816 v 5.3e-4 c -0.01561,0.0304 -0.02492,0.0637 -0.0279,0.0971 v 5.3e-4 c -0.0029,0.0335 2.49e-4,0.0676 0.01035,0.10026 v 5.3e-4 c 0.01011,0.0327 0.02724,0.0635 0.05064,0.0915 v 5.3e-4 l 1.062984,1.26616 H 7.937487 c -0.146576,0 -0.264583,0.11801 -0.264583,0.26459 v 0.92611 c 0,0.1466 0.118007,0.26461 0.264583,0.26461 h 6.261116 l 0.745175,0.88734 -0.745175,0.88786 H 8.466654 v -0.003 H 3.956847 l 1.062984,-1.26616 v -5.3e-4 c 0.02347,-0.0279 0.04049,-0.0593 0.05064,-0.092 v -5.3e-4 c 0.01008,-0.0327 0.01318,-0.0668 0.01035,-0.10025 v -5.3e-4 c -0.0029,-0.0335 -0.01236,-0.0662 -0.0279,-0.0966 v -5.3e-4 c -0.01561,-0.0305 -0.0377,-0.0577 -0.06563,-0.0811 v -5.3e-4 l -0.811322,-0.68063 c -0.05618,-0.0471 -0.12582,-0.0675 -0.19327,-0.0615 -0.06745,0.006 -0.132699,0.0379 -0.179832,0.0941 v 5.2e-4 l -3.743957,4.45844 v 5.3e-4 c -0.0072,0.009 -0.01,0.019 -0.01601,0.0279 v 10e-4 c -0.0092,0.0142 -0.01746,0.028 -0.02376,0.0434 v 5.3e-4 c -0.0065,0.0158 -0.01082,0.031 -0.01394,0.0475 v 5.3e-4 c -0.0034,0.0166 -0.0049,0.0327 -0.0052,0.0496 2.65e-4,0.0169 0.0019,0.033 0.0052,0.0496 v 5.3e-4 c 0.0032,0.0164 0.0076,0.0317 0.01394,0.0475 v 5.3e-4 c 0.0063,0.0153 0.01455,0.0292 0.02376,0.0434 v 5.3e-4 c 0.0059,0.009 0.0087,0.0195 0.01601,0.0284 v 5.3e-4 l 3.743957,4.45792 v 5.3e-4 c 0.04713,0.0561 0.112387,0.0875 0.179832,0.0935 0.06745,0.006 0.137089,-0.0134 0.19327,-0.0605 l 0.811322,-0.68061 v -5.3e-4 c 0.02798,-0.0235 0.04996,-0.0513 0.06563,-0.0817 v -5.3e-4 c 0.01561,-0.0304 0.02492,-0.0632 0.0279,-0.0966 v -10e-4 c 0.0029,-0.0335 -2.48e-4,-0.0671 -0.01035,-0.0997 v -10e-4 c -0.01011,-0.0327 -0.02724,-0.0635 -0.05064,-0.0915 v -5.3e-4 l -1.062984,-1.26616 h 5.038968 c 0.146576,0 0.264583,-0.11801 0.264583,-0.26459 v -0.65324 l -0.302307,-0.30233 c -0.07288,-0.0729 -0.136661,-0.1517 -0.192235,-0.23463 H 2.7347 L 1.989524,10.080398 2.7347,9.1925376 h 5.731949 v 0.003 h 0.296106 c 0.05623,-0.0845 0.121202,-0.16462 0.195336,-0.23876 0.307085,-0.30717 0.716263,-0.46512 1.121379,-0.46512 0.405196,0 0.815448,0.15762 1.122928,0.46512 l 0.239263,0.23876 h 1.53479 l -0.700215,0.8336004 0.767911,0.76745 1.840198,-1.8398104 c 0.201327,-0.20135 0.446338,-0.33489 0.7059,-0.40413 l 1.284159,-1.52922 v -5.3e-4 c 0.007,-0.009 0.01003,-0.0195 0.01603,-0.0284 v -5.3e-4 c 0.009,-0.0142 0.01738,-0.0279 0.02376,-0.0434 v -5.3e-4 c 0.007,-0.0158 0.01085,-0.0316 0.01394,-0.0481 v -5.2e-4 c 0.003,-0.0166 0.0052,-0.0327 0.0052,-0.0496 -2.59e-4,-0.0169 -0.0021,-0.033 -0.0052,-0.0496 v -5.3e-4 c -0.003,-0.0164 -0.008,-0.0317 -0.01394,-0.0475 v -5.3e-4 c -0.006,-0.0153 -0.01447,-0.0292 -0.02376,-0.0434 v -5.3e-4 c -0.006,-0.009 -0.009,-0.0195 -0.01603,-0.0284 v -5.3e-4 l -3.743959,-4.45784 v -5.3e-4 c -0.0471,-0.0561 -0.112381,-0.0875 -0.179832,-0.0935 z" />
  </g>
</svg>
