<?xml version="1.0" encoding="UTF-8" standalone="no"?>
<svg
   xmlns:dc="http://purl.org/dc/elements/1.1/"
   xmlns:cc="http://creativecommons.org/ns#"
   xmlns:rdf="http://www.w3.org/1999/02/22-rdf-syntax-ns#"
   xmlns:svg="http://www.w3.org/2000/svg"
   xmlns="http://www.w3.org/2000/svg"
   xmlns:sodipodi="http://sodipodi.sourceforge.net/DTD/sodipodi-0.dtd"
   xmlns:inkscape="http://www.inkscape.org/namespaces/inkscape"
   width="64"
   height="64"
   viewBox="0 0 16.933333 16.933334"
   version="1.1"
   id="svg841"
   inkscape:version="1.0.2 (e86c870879, 2021-01-15)"
   sodipodi:docname="office-calendar-symbolic.svg">
  <defs
     id="defs835" />
  <sodipodi:namedview
     id="base"
     pagecolor="#c4c4c4"
     bordercolor="#666666"
     borderopacity="1.0"
     inkscape:pageopacity="0"
     inkscape:pageshadow="2"
     inkscape:zoom="3.9444378"
     inkscape:cx="-3.5401418"
     inkscape:cy="75.033563"
     inkscape:document-units="px"
     inkscape:current-layer="layer1"
     inkscape:document-rotation="0"
     showgrid="false"
     units="px"
     inkscape:window-width="2048"
     inkscape:window-height="1080"
     inkscape:window-x="0"
     inkscape:window-y="0"
     inkscape:window-maximized="1" />
  <metadata
     id="metadata838">
    <rdf:RDF>
      <cc:Work
         rdf:about="">
        <dc:format>image/svg+xml</dc:format>
        <dc:type
           rdf:resource="http://purl.org/dc/dcmitype/StillImage" />
        <dc:title />
      </cc:Work>
    </rdf:RDF>
  </metadata>
  <g
     inkscape:label="Layer 1"
     inkscape:groupmode="layer"
     id="layer1">
    <path
       id="rect848-5-5-6-7-0-9"
       style="fill:#808084;fill-opacity:1;stroke-width:1.19063;stroke-linecap:round;stroke-linejoin:round;stroke-dashoffset:2.1875"
       d="m 2.6458323,1.3229167 c -0.879474,0 -1.587499,0.708025 -1.587499,1.5875 V 14.022917 c 0,0.879475 0.708025,1.5875 1.587499,1.5875 H 14.287499 c 0.879477,0 1.5875,-0.708025 1.5875,-1.5875 V 2.9104167 c 0,-0.879475 -0.708023,-1.5875 -1.5875,-1.5875 z m 0.529167,4.497917 h 2.468583 v 2.029333 h -3.262334 v -1.235583 c 0,-0.439738 0.354013,-0.79375 0.793751,-0.79375 z m 3.659208,0 h 3.2633677 v 2.029333 H 6.8342073 Z m 4.4539927,0 h 2.470132 c 0.439737,0 0.79375,0.354012 0.79375,0.79375 v 1.235583 H 11.2882 Z m -8.9069517,3.219958 h 3.262334 v 2.0298513 h -3.262334 z m 4.452959,0 H 10.097575 V 11.070643 H 6.8342073 Z m 4.4539927,0 h 3.263882 V 11.070643 H 11.2882 Z M 2.3812483,12.261268 h 3.262334 v 2.026233 h -2.468584 c -0.439737,0 -0.79375,-0.354013 -0.79375,-0.79375 z m 4.452959,0 h 3.2633677 v 2.026233 H 6.8342073 Z m 4.4539927,0 h 3.263882 v 1.232483 c 0,0.439737 -0.354013,0.79375 -0.79375,0.79375 H 11.2882 Z" />
    <rect
       style="display:inline;opacity:0.6;fill:#cb2a58;fill-opacity:1;stroke:none;stroke-width:1.32292;stroke-linecap:round;stroke-linejoin:round;stroke-miterlimit:4;stroke-dasharray:none;stroke-dashoffset:2.1875;stroke-opacity:1"
       id="rect3070-3-3"
       width="5.380302"
       height="4.1460209"
       x="5.7758541"
       y="7.98248"
       class="error"
       rx="0.5291667"
       ry="0.5291667" />
  </g>
</svg>
