<?xml version="1.0" encoding="UTF-8" standalone="no"?>
<svg
   xmlns:dc="http://purl.org/dc/elements/1.1/"
   xmlns:cc="http://creativecommons.org/ns#"
   xmlns:rdf="http://www.w3.org/1999/02/22-rdf-syntax-ns#"
   xmlns:svg="http://www.w3.org/2000/svg"
   xmlns="http://www.w3.org/2000/svg"
   xmlns:xlink="http://www.w3.org/1999/xlink"
   xmlns:sodipodi="http://sodipodi.sourceforge.net/DTD/sodipodi-0.dtd"
   xmlns:inkscape="http://www.inkscape.org/namespaces/inkscape"
   width="64"
   height="64"
   viewBox="0 0 16.933333 16.933334"
   version="1.1"
   id="svg841"
   inkscape:version="1.0.2 (e86c870879, 2021-01-15)"
   sodipodi:docname="drive-harddisk-ieee1394.svg">
  <defs
     id="defs835">
    <linearGradient
       inkscape:collect="always"
       xlink:href="#linearGradient1201"
       id="linearGradient1188"
       gradientUnits="userSpaceOnUse"
       gradientTransform="translate(17.810692,-26.529909)"
       x1="-9.6086082"
       y1="27.455952"
       x2="-9.6086092"
       y2="42.272617" />
    <linearGradient
       inkscape:collect="always"
       id="linearGradient1201">
      <stop
         style="stop-color:#d08ef1;stop-opacity:1"
         offset="0"
         id="stop1197" />
      <stop
         style="stop-color:#c777ee;stop-opacity:1"
         offset="1"
         id="stop1199" />
    </linearGradient>
  </defs>
  <sodipodi:namedview
     id="base"
     pagecolor="#c4c4c4"
     bordercolor="#666666"
     borderopacity="1.0"
     inkscape:pageopacity="0"
     inkscape:pageshadow="2"
     inkscape:zoom="4.362285"
     inkscape:cx="-61.165891"
     inkscape:cy="46.492547"
     inkscape:document-units="px"
     inkscape:current-layer="layer1"
     inkscape:document-rotation="0"
     showgrid="false"
     units="px"
     inkscape:window-width="2048"
     inkscape:window-height="1080"
     inkscape:window-x="0"
     inkscape:window-y="0"
     inkscape:window-maximized="1" />
  <metadata
     id="metadata838">
    <rdf:RDF>
      <cc:Work
         rdf:about="">
        <dc:format>image/svg+xml</dc:format>
        <dc:type
           rdf:resource="http://purl.org/dc/dcmitype/StillImage" />
        <dc:title />
      </cc:Work>
    </rdf:RDF>
  </metadata>
  <g
     inkscape:label="Layer 1"
     inkscape:groupmode="layer"
     id="layer1">
    <path
       id="rect3559-1-9-6-2-7-3-7-6"
       style="color:#000000;font-style:normal;font-variant:normal;font-weight:normal;font-stretch:normal;font-size:medium;line-height:normal;font-family:sans-serif;font-variant-ligatures:normal;font-variant-position:normal;font-variant-caps:normal;font-variant-numeric:normal;font-variant-alternates:normal;font-variant-east-asian:normal;font-feature-settings:normal;font-variation-settings:normal;text-indent:0;text-align:start;text-decoration:none;text-decoration-line:none;text-decoration-style:solid;text-decoration-color:#000000;letter-spacing:normal;word-spacing:normal;text-transform:none;writing-mode:lr-tb;direction:ltr;text-orientation:mixed;dominant-baseline:auto;baseline-shift:baseline;text-anchor:start;white-space:normal;shape-padding:0;shape-margin:0;inline-size:0;clip-rule:nonzero;display:inline;overflow:visible;visibility:visible;opacity:0.15;isolation:auto;mix-blend-mode:normal;color-interpolation:sRGB;color-interpolation-filters:linearRGB;solid-color:#000000;solid-opacity:1;vector-effect:none;fill:#0c0c0c;fill-opacity:1;fill-rule:nonzero;stroke:none;stroke-width:1.00001;stroke-linecap:round;stroke-linejoin:round;stroke-miterlimit:4;stroke-dasharray:none;stroke-dashoffset:2.1875;stroke-opacity:1;paint-order:normal;color-rendering:auto;image-rendering:auto;shape-rendering:auto;text-rendering:auto;enable-background:accumulate;stop-color:#000000"
       d="m 3.7051325,0.52916668 c -0.9458616,0 -1.7207575,0.77497522 -1.7207575,1.72093202 V 14.949882 c 0,0.94596 0.7748959,1.718866 1.7207575,1.718866 H 13.23027 c 0.945862,0 1.718689,-0.772906 1.718689,-1.718866 V 2.2500987 c 0,-0.9459568 -0.772827,-1.72093202 -1.718689,-1.72093202 z m 0,0.79328432 H 13.23027 c 0.51987,0 0.925486,0.4077256 0.925486,0.9276477 V 14.949882 c 0,0.519925 -0.405616,0.9261 -0.925486,0.9261 H 3.7051325 c -0.5198719,0 -0.9254887,-0.406175 -0.9254887,-0.9261 V 2.2500987 c 0,-0.5199221 0.4056168,-0.9276477 0.9254887,-0.9276477 z" />
    <path
       id="rect3559-1-9-6-3-7-1"
       style="color:#000000;font-style:normal;font-variant:normal;font-weight:normal;font-stretch:normal;font-size:medium;line-height:normal;font-family:sans-serif;font-variant-ligatures:normal;font-variant-position:normal;font-variant-caps:normal;font-variant-numeric:normal;font-variant-alternates:normal;font-variant-east-asian:normal;font-feature-settings:normal;font-variation-settings:normal;text-indent:0;text-align:start;text-decoration:none;text-decoration-line:none;text-decoration-style:solid;text-decoration-color:#000000;letter-spacing:normal;word-spacing:normal;text-transform:none;writing-mode:lr-tb;direction:ltr;text-orientation:mixed;dominant-baseline:auto;baseline-shift:baseline;text-anchor:start;white-space:normal;shape-padding:0;shape-margin:0;inline-size:0;clip-rule:nonzero;display:inline;overflow:visible;visibility:visible;opacity:0.85;isolation:auto;mix-blend-mode:normal;color-interpolation:sRGB;color-interpolation-filters:linearRGB;solid-color:#000000;solid-opacity:1;vector-effect:none;fill:#673c7c;fill-opacity:1;fill-rule:nonzero;stroke:none;stroke-width:1.00001;stroke-linecap:round;stroke-linejoin:round;stroke-miterlimit:4;stroke-dasharray:none;stroke-dashoffset:2.1875;stroke-opacity:1;paint-order:normal;color-rendering:auto;image-rendering:auto;shape-rendering:auto;text-rendering:auto;enable-background:accumulate;stop-color:#000000"
       d="m 3.7051325,0.26458334 c -0.9458616,0 -1.7207575,0.77497516 -1.7207575,1.72093476 V 14.685299 c 0,0.945959 0.7748959,1.718868 1.7207575,1.718868 H 13.23027 c 0.945862,0 1.718689,-0.772909 1.718689,-1.718868 V 1.9855181 c 0,-0.9459596 -0.772827,-1.72093476 -1.718689,-1.72093476 z m 0,0.79328436 H 13.23027 c 0.51987,0 0.925486,0.4077256 0.925486,0.9276504 V 14.685299 c 0,0.519925 -0.405616,0.9261 -0.925486,0.9261 H 3.7051325 c -0.5198719,0 -0.9254887,-0.406175 -0.9254887,-0.9261 V 1.9855181 c 0,-0.5199248 0.4056168,-0.9276504 0.9254887,-0.9276504 z" />
    <rect
       style="fill:url(#linearGradient1188);fill-opacity:1;stroke:none;stroke-width:0.79375;stroke-linecap:round;stroke-linejoin:round;stroke-miterlimit:4;stroke-dasharray:none;stroke-dashoffset:2.1875;stroke-opacity:1;paint-order:normal"
       id="rect3559-1-8-5-8"
       width="12.170834"
       height="15.345834"
       x="2.3812501"
       y="0.66145837"
       rx="1.3229167"
       ry="1.3229167" />
    <path
       id="rect3559-1-9-6-2-0-8-7"
       style="color:#000000;font-style:normal;font-variant:normal;font-weight:normal;font-stretch:normal;font-size:medium;line-height:normal;font-family:sans-serif;font-variant-ligatures:normal;font-variant-position:normal;font-variant-caps:normal;font-variant-numeric:normal;font-variant-alternates:normal;font-variant-east-asian:normal;font-feature-settings:normal;font-variation-settings:normal;text-indent:0;text-align:start;text-decoration:none;text-decoration-line:none;text-decoration-style:solid;text-decoration-color:#000000;letter-spacing:normal;word-spacing:normal;text-transform:none;writing-mode:lr-tb;direction:ltr;text-orientation:mixed;dominant-baseline:auto;baseline-shift:baseline;text-anchor:start;white-space:normal;shape-padding:0;shape-margin:0;inline-size:0;clip-rule:nonzero;display:inline;overflow:visible;visibility:visible;opacity:0.15;isolation:auto;mix-blend-mode:normal;color-interpolation:sRGB;color-interpolation-filters:linearRGB;solid-color:#000000;solid-opacity:1;vector-effect:none;fill:#442853;fill-opacity:1;fill-rule:nonzero;stroke:none;stroke-width:1.00001;stroke-linecap:round;stroke-linejoin:round;stroke-miterlimit:4;stroke-dasharray:none;stroke-dashoffset:2.1875;stroke-opacity:1;paint-order:normal;color-rendering:auto;image-rendering:auto;shape-rendering:auto;text-rendering:auto;enable-background:accumulate;stop-color:#000000"
       d="m 3.7051325,0.26458334 c -0.9458616,0 -1.7207575,0.77497516 -1.7207575,1.72093476 V 14.685299 c 0,0.945959 0.7748959,1.718868 1.7207575,1.718868 H 13.23027 c 0.945862,0 1.718689,-0.772909 1.718689,-1.718868 V 1.9855181 c 0,-0.9459596 -0.772827,-1.72093476 -1.718689,-1.72093476 z m 0,0.79328436 H 13.23027 c 0.51987,0 0.925486,0.4077256 0.925486,0.9276504 V 14.685299 c 0,0.519925 -0.405616,0.9261 -0.925486,0.9261 H 3.7051325 c -0.5198719,0 -0.9254887,-0.406175 -0.9254887,-0.9261 V 1.9855181 c 0,-0.5199248 0.4056168,-0.9276504 0.9254887,-0.9276504 z" />
    <path
       id="path2281-23-2-3-2"
       style="opacity:0.25;fill:#392244;fill-opacity:1;stroke-width:0.714372;stroke-linecap:round;stroke-linejoin:round;stroke-dashoffset:2.1875"
       d="m 5.7180614,4.2730236 c -0.040553,0 -0.081161,0.015425 -0.1122363,0.046501 L 4.1476534,5.7786615 c -0.062148,0.06218 -0.062148,0.1623193 0,0.2244805 l 0.3367167,0.336722 c 0.062148,0.062198 0.1620176,0.062198 0.2241656,0 L 6.1667074,4.8807292 c 0.062148,-0.062169 0.062148,-0.1623166 0,-0.2244831 L 5.8303003,4.3195215 C 5.7992276,4.2884409 5.7586167,4.2730209 5.7180614,4.2730209 Z m 5.7074226,0 c -0.04055,0 -0.08116,0.015425 -0.112242,0.046501 L 9.686407,5.9470244 c -0.06215,0.06218 -0.06215,0.1623086 0,0.2244804 l 1.248264,1.2482883 c 0.06215,0.062201 0.162327,0.062201 0.224478,0 L 12.785675,5.792613 c 0.06215,-0.06218 0.06215,-0.1623219 0,-0.2244804 L 11.53772,4.3195268 C 11.50665,4.2884458 11.46604,4.2730258 11.425484,4.2730258 Z M 6.8401382,5.3954337 c -0.040553,0 -0.081166,0.015108 -0.1122389,0.046202 L 5.269418,6.9007727 c -0.062151,0.062201 -0.062151,0.1623113 0,0.2244805 l 0.3364071,0.3367299 c 0.062148,0.062201 0.1623272,0.062201 0.2244752,0 L 7.2887815,6.0031499 c 0.062148,-0.06218 0.062148,-0.1623007 0,-0.2244698 L 6.9523771,5.4416353 C 6.9213017,5.4105547 6.8806908,5.3954337 6.8401382,5.3954337 Z m 1.6259069,1.6584984 a 1.5874613,1.5875003 0 0 0 -1.5843594,1.5875 1.5874613,1.5875003 0 0 0 1.5874603,1.5874999 1.5874613,1.5875003 0 0 0 1.58746,-1.5874999 1.5874613,1.5875003 0 0 0 -1.58746,-1.5875 1.5874613,1.5875003 0 0 0 -0.00312,0 z M 7.4354348,11.338322 c -0.087892,0 -0.1587447,0.0705 -0.1587447,0.158451 v 0.47625 c 0,0.0879 0.070853,0.15875 0.1587447,0.15875 H 9.497896 c 0.08789,0 0.158435,-0.0708 0.158435,-0.15875 v -0.47625 c 0,-0.088 -0.07054,-0.158451 -0.158435,-0.158451 z m 0,1.586881 c -0.087892,0 -0.1587447,0.0708 -0.1587447,0.15875 v 0.47625 c 0,0.088 0.070853,0.158451 0.1587447,0.158451 H 9.497896 c 0.08789,0 0.158435,-0.0705 0.158435,-0.158451 v -0.47625 c 0,-0.088 -0.07054,-0.15875 -0.158435,-0.15875 z" />
    <path
       id="path2281-23-2-3-6-1-9"
       style="color:#000000;font-style:normal;font-variant:normal;font-weight:normal;font-stretch:normal;font-size:medium;line-height:normal;font-family:sans-serif;font-variant-ligatures:normal;font-variant-position:normal;font-variant-caps:normal;font-variant-numeric:normal;font-variant-alternates:normal;font-variant-east-asian:normal;font-feature-settings:normal;font-variation-settings:normal;text-indent:0;text-align:start;text-decoration:none;text-decoration-line:none;text-decoration-style:solid;text-decoration-color:#000000;letter-spacing:normal;word-spacing:normal;text-transform:none;writing-mode:lr-tb;direction:ltr;text-orientation:mixed;dominant-baseline:auto;baseline-shift:baseline;text-anchor:start;white-space:normal;shape-padding:0;shape-margin:0;inline-size:0;clip-rule:nonzero;display:inline;overflow:visible;visibility:visible;opacity:0.75;isolation:auto;mix-blend-mode:normal;color-interpolation:sRGB;color-interpolation-filters:linearRGB;solid-color:#000000;solid-opacity:1;vector-effect:none;fill:#502f60;fill-opacity:1;fill-rule:nonzero;stroke:none;stroke-width:1.00001;stroke-linecap:round;stroke-linejoin:round;stroke-miterlimit:4;stroke-dasharray:none;stroke-dashoffset:2.1875;stroke-opacity:1;color-rendering:auto;image-rendering:auto;shape-rendering:auto;text-rendering:auto;enable-background:accumulate;stop-color:#000000"
       d="m 5.717183,3.6115626 a 0.13231932,0.13229361 0 0 0 -0.089929,0.037208 c -0.040151,0.014049 -0.083518,0.016827 -0.1152498,0.04857 L 4.0530172,5.15656 c -0.1123315,0.1124003 -0.1123817,0.2994474 0,0.4118266 L 4.3910198,5.904254 c 0.1122442,0.1123103 0.2981087,0.1123103 0.4103556,0 L 6.2603593,4.4455531 c 0.1123342,-0.1124003 0.1123818,-0.2994448 0,-0.4118293 L 5.9244258,3.6973458 c -0.05638,-0.05642 -0.1331913,-0.08577 -0.2072455,-0.08577 z m 5.707769,0 c -0.07405,0 -0.148799,0.029369 -0.205179,0.08577 L 9.592821,5.3244831 c -0.112326,0.1123897 -0.112363,0.2994448 0,0.4118266 l 1.248124,1.2478782 c 0.1124,0.1124717 0.299503,0.1124717 0.411906,0 L 12.880319,5.357556 c 0.112332,-0.1124003 0.112382,-0.2994449 0,-0.411824 L 11.632195,3.6973379 c -0.05638,-0.05642 -0.133189,-0.08577 -0.207243,-0.08577 z m -5.707769,0.265594 c 0.00709,0 0.013864,0.00185 0.019632,0.00781 l 0.3359336,0.3358701 c 0.011933,0.011933 0.011986,0.025215 0,0.037211 l -1.458984,1.4592194 c -0.012065,0.012065 -0.023072,0.012065 -0.035139,0 a 0.13231932,0.13229361 0 0 0 -0.00212,0 L 4.2405751,5.3808764 c -0.011933,-0.011933 -0.011986,-0.024686 0,-0.036693 l 1.458984,-1.4592168 c 0.00579,-0.00579 0.010504,-0.00781 0.017568,-0.00781 z m 5.707769,0 c 0.0071,0 0.01386,0.00185 0.01963,0.00781 l 1.248122,1.2478333 c 0.01193,0.011933 0.01199,0.025215 0,0.037208 l -1.626952,1.6271505 c -0.01191,0.011933 -0.02529,0.011933 -0.03721,0 L 9.780418,5.5487545 c -0.01196,-0.011959 -0.01198,-0.024712 0,-0.03669 L 11.40737,3.8849114 c 0.0058,-0.00579 0.01053,-0.00781 0.01757,-0.00781 z m -4.5842,0.8572395 c -0.073401,0 -0.1505638,0.029578 -0.2072455,0.086289 L 5.176073,6.2793882 c -0.1123289,0.1123897 -0.1123659,0.2978943 0,0.4102735 l 0.3359335,0.3379364 c 0.1124003,0.1124691 0.300019,0.1124691 0.4124219,0 L 7.381346,5.5683813 c 0.1123209,-0.1123897 0.112358,-0.2994554 0,-0.4118266 L 7.0454125,4.8206846 C 6.9887334,4.7639738 6.9141527,4.7343961 6.840752,4.7343961 Z m 0,0.2640436 c 0.00773,0 0.012091,0.00238 0.017568,0.00781 l 0.337484,0.3379338 c 0.011959,0.011959 0.011986,0.024686 0,0.03669 L 5.7368177,6.8400879 c -0.011906,0.011933 -0.025294,0.011933 -0.037208,0 L 5.3616068,6.5042205 c -0.011959,-0.011959 -0.011986,-0.027281 0,-0.03928 L 6.8211093,5.0062396 c 0.00548,-0.0055 0.011933,-0.00781 0.019632,-0.00781 z m 1.624883,1.3941108 c -0.9470231,0.00185 -1.7168734,0.7738189 -1.7168786,1.720678 -5.3e-6,0.9481688 0.7726786,1.7186117 1.721014,1.7186117 0.9483356,0 1.7189506,-0.7704429 1.7189446,-1.7186117 C 10.18871,7.1978866 9.4565,6.4785639 8.5534952,6.4276871 a 0.13231932,0.13229361 0 0 0 -0.082174,-0.035139 0.13231932,0.13229361 0 0 0 -0.00569,0 z m 0,0.265594 h 0.00415 c 0.805318,0 1.454846,0.6498934 1.454851,1.455084 5e-6,0.8051906 -0.649525,1.455084 -1.454851,1.455084 -0.8053229,0 -1.4553724,-0.6498934 -1.4553672,-1.455084 5.3e-6,-0.8040714 0.647036,-1.4535124 1.4512344,-1.455084 z M 7.4361306,10.677713 c -0.1586521,0 -0.2909702,0.131927 -0.2909702,0.290912 v 0.474348 c 0,0.158977 0.1319662,0.290912 0.2909702,0.290912 H 9.498762 c 0.158951,0 0.289417,-0.132234 0.289419,-0.290912 v -0.474348 c -2e-6,-0.158686 -0.130828,-0.290912 -0.289419,-0.290912 z m 0,0.263525 H 9.498762 c 0.01722,0 0.02585,0.01008 0.02585,0.02739 v 0.474347 c 0,0.0172 -0.009,0.02739 -0.02585,0.02739 H 7.4361306 c -0.016801,0 -0.027392,-0.01058 -0.027392,-0.02739 v -0.474347 c 0,-0.01688 0.010239,-0.02739 0.027392,-0.02739 z m 0,1.321774 c -0.1589537,0 -0.2909702,0.132426 -0.2909702,0.291425 v 0.476417 c 0,0.158999 0.1323763,0.290917 0.2909702,0.290917 H 9.498762 c 0.158652,0 0.289417,-0.132239 0.289419,-0.290917 v -0.476417 c -2e-6,-0.158689 -0.130516,-0.291425 -0.289419,-0.291425 z m 0,0.266107 H 9.498762 c 0.01691,0 0.02585,0.008 0.02585,0.02529 v 0.47642 c 0,0.0172 -0.0087,0.02529 -0.02585,0.02529 H 7.4361306 c -0.017224,0 -0.027392,-0.008 -0.027392,-0.02529 v -0.47642 c 0,-0.01691 0.01053,-0.02529 0.027392,-0.02529 z" />
    <path
       id="path2281-23-2-3"
       style="fill:#fcfdfb;fill-opacity:1;stroke-width:0.714372;stroke-linecap:round;stroke-linejoin:round;stroke-dashoffset:2.1875"
       d="m 5.7180614,3.7438569 c -0.040553,0 -0.081161,0.015425 -0.1122363,0.046501 l -1.4581717,1.459137 c -0.062148,0.06218 -0.062148,0.1623192 0,0.2244804 l 0.3367167,0.3367246 c 0.062148,0.06218 0.1620176,0.06218 0.2241656,0 L 6.1667074,4.3515625 c 0.062148,-0.062169 0.062148,-0.1623166 0,-0.2244831 L 5.8303003,3.7903548 c -0.031073,-0.031081 -0.071684,-0.0465 -0.1122389,-0.0465 z m 5.7074226,0 c -0.04055,0 -0.08116,0.015425 -0.112242,0.046501 L 9.686407,5.4178577 c -0.06215,0.06218 -0.06215,0.1623086 0,0.2244804 l 1.248264,1.2482936 c 0.06215,0.06218 0.162327,0.06218 0.224478,0 l 1.626526,-1.6271854 c 0.06215,-0.06218 0.06215,-0.1623218 0,-0.2244804 L 11.53772,3.7903601 C 11.50665,3.7592791 11.46604,3.7438591 11.425484,3.7438591 Z M 6.8401382,4.8662671 c -0.040553,0 -0.081166,0.015108 -0.1122389,0.046201 L 5.269418,6.3716087 c -0.062151,0.06218 -0.062151,0.1623113 0,0.2244804 l 0.3364071,0.3367273 c 0.062148,0.06218 0.1623272,0.06218 0.2244752,0 L 7.2887815,5.4739832 c 0.062148,-0.06218 0.062148,-0.1623007 0,-0.2244698 L 6.9523771,4.9124686 C 6.9213017,4.881388 6.8806908,4.8662671 6.8401382,4.8662671 Z m 1.6259069,1.6585036 a 1.5874613,1.5875003 0 0 0 -1.5843594,1.5874947 1.5874613,1.5875003 0 0 0 1.5874603,1.5875054 1.5874613,1.5875003 0 0 0 1.58746,-1.5875054 1.5874613,1.5875003 0 0 0 -1.58746,-1.5874947 1.5874613,1.5875003 0 0 0 -0.00312,0 z M 7.4354348,10.809161 c -0.087892,0 -0.1587447,0.07053 -0.1587447,0.158446 v 0.476247 c 0,0.08786 0.070853,0.158753 0.1587447,0.158753 H 9.497896 c 0.08789,0 0.158435,-0.07084 0.158435,-0.158753 v -0.476247 c 0,-0.08796 -0.07054,-0.158446 -0.158435,-0.158446 z m 0,1.586878 c -0.087892,0 -0.1587447,0.07084 -0.1587447,0.158753 v 0.476247 c 0,0.08796 0.070853,0.158443 0.1587447,0.158443 H 9.497896 c 0.08789,0 0.158435,-0.07053 0.158435,-0.158443 v -0.476247 c 0,-0.08796 -0.07054,-0.158753 -0.158435,-0.158753 z" />
  </g>
</svg>
