<?xml version="1.0" encoding="UTF-8" standalone="no"?>
<svg
   xmlns:dc="http://purl.org/dc/elements/1.1/"
   xmlns:cc="http://creativecommons.org/ns#"
   xmlns:rdf="http://www.w3.org/1999/02/22-rdf-syntax-ns#"
   xmlns:svg="http://www.w3.org/2000/svg"
   xmlns="http://www.w3.org/2000/svg"
   xmlns:xlink="http://www.w3.org/1999/xlink"
   xmlns:sodipodi="http://sodipodi.sourceforge.net/DTD/sodipodi-0.dtd"
   xmlns:inkscape="http://www.inkscape.org/namespaces/inkscape"
   width="64"
   height="64"
   viewBox="0 0 64 64"
   version="1.1"
   id="svg6374"
   inkscape:version="1.0.2 (e86c870879, 2021-01-15)"
   sodipodi:docname="edit-find.svg">
  <defs
     id="defs6368">
    <linearGradient
       inkscape:collect="always"
       xlink:href="#linearGradient1323"
       id="linearGradient1628"
       gradientUnits="userSpaceOnUse"
       gradientTransform="translate(-700)"
       x1="725.25"
       y1="4.0000038"
       x2="724.75"
       y2="60.000004" />
    <linearGradient
       inkscape:collect="always"
       id="linearGradient1323">
      <stop
         style="stop-color:#aaa2aa;stop-opacity:1"
         offset="0"
         id="stop1319" />
      <stop
         style="stop-color:#958e95;stop-opacity:1"
         offset="1"
         id="stop1321" />
    </linearGradient>
  </defs>
  <sodipodi:namedview
     id="base"
     pagecolor="#cecece"
     bordercolor="#666666"
     borderopacity="1.0"
     inkscape:pageopacity="0"
     inkscape:pageshadow="2"
     inkscape:zoom="7.3598234"
     inkscape:cx="30.061976"
     inkscape:cy="34.038232"
     inkscape:document-units="px"
     inkscape:current-layer="layer1"
     inkscape:document-rotation="0"
     showgrid="false"
     units="px"
     inkscape:window-width="1500"
     inkscape:window-height="970"
     inkscape:window-x="68"
     inkscape:window-y="56"
     inkscape:window-maximized="0" />
  <metadata
     id="metadata6371">
    <rdf:RDF>
      <cc:Work
         rdf:about="">
        <dc:format>image/svg+xml</dc:format>
        <dc:type
           rdf:resource="http://purl.org/dc/dcmitype/StillImage" />
        <dc:title />
      </cc:Work>
    </rdf:RDF>
  </metadata>
  <g
     inkscape:label="Layer 1"
     inkscape:groupmode="layer"
     id="layer1">
    <path
       id="path2165-5-1-6-2-3-9-0-5"
       style="color:#000000;font-style:normal;font-variant:normal;font-weight:normal;font-stretch:normal;font-size:medium;line-height:normal;font-family:sans-serif;font-variant-ligatures:normal;font-variant-position:normal;font-variant-caps:normal;font-variant-numeric:normal;font-variant-alternates:normal;font-variant-east-asian:normal;font-feature-settings:normal;font-variation-settings:normal;text-indent:0;text-align:start;text-decoration:none;text-decoration-line:none;text-decoration-style:solid;text-decoration-color:#000000;letter-spacing:normal;word-spacing:normal;text-transform:none;writing-mode:lr-tb;direction:ltr;text-orientation:mixed;dominant-baseline:auto;baseline-shift:baseline;text-anchor:start;white-space:normal;shape-padding:0;shape-margin:0;inline-size:0;clip-rule:nonzero;display:inline;overflow:visible;visibility:visible;opacity:0.2;isolation:auto;mix-blend-mode:normal;color-interpolation:sRGB;color-interpolation-filters:linearRGB;solid-color:#000000;solid-opacity:1;vector-effect:none;fill:#0c0c0c;fill-opacity:1;fill-rule:nonzero;stroke:none;stroke-width:1.00022;stroke-linecap:round;stroke-linejoin:round;stroke-miterlimit:4;stroke-dasharray:none;stroke-dashoffset:2.1875;stroke-opacity:1;color-rendering:auto;image-rendering:auto;shape-rendering:auto;text-rendering:auto;enable-background:accumulate;stop-color:#000000"
       d="m 25.479998,3.7500001 c -6.15257,0 -12.30462,2.3353 -16.9747505,7.0053099 -9.34038,9.33991 -9.34028,24.60828 0,33.948187 8.0289105,8.02861 20.4076505,9.10379 29.6711305,3.32489 l 13.64974,13.65116 c 2.09387,2.09393 5.50949,2.09393 7.60338,0 2.09401,-2.0938 2.09401,-5.50927 0,-7.60308 L 45.779748,40.425297 C 51.558878,31.16218 50.483658,18.78391 42.454728,10.75531 37.784568,6.0853001 31.632588,3.7500001 25.479998,3.7500001 Z m 0,1.9925899 c 5.63783,0 11.27521,2.14208 15.56035,6.42706 7.5576,7.55732 8.43915,19.32818 2.67249,27.874717 a 1.0003383,1.0003 0 0 0 0.1231,1.26588 l 14.17915,14.18057 c 1.33478,1.33463 1.33478,3.43975 0,4.77439 -1.33467,1.33471 -3.43793,1.33471 -4.77261,0 l -14.18112,-14.18057 a 1.0003383,1.0003 0 0 0 -1.26788,-0.12112 c -8.54687,5.76642 -20.31623,4.88295 -27.8738205,-2.67436 -8.57021,-8.569867 -8.5703,-22.549637 0,-31.119507 C 14.204768,7.8846701 19.842158,5.7425901 25.479998,5.74259 Z m 0,4.96974 c -4.34766,0 -8.69548,1.66445 -12.02436,4.99319 -6.6577305,6.65748 -6.6576105,17.39039 0,24.047767 6.65786,6.65757 17.39098,6.65747 24.04871,0 6.65774,-6.657467 6.65774,-17.390297 0,-24.047767 -3.32888,-3.32874 -7.67669,-4.99319 -12.02435,-4.99319 z m 0,1.98282 c 3.82951,0 7.65935,1.47421 10.60995,4.42471 5.90122,5.901 5.90122,15.31809 0,21.219087 -5.90125,5.90101 -15.31857,5.9011 -21.2199,0 -5.9011205,-5.900887 -5.9012205,-15.318097 0,-21.219087 2.95061,-2.9505 6.78044,-4.42471 10.60995,-4.42471 z" />
    <path
       id="path2165-5-1-6-5-0-6-4"
       style="color:#000000;font-style:normal;font-variant:normal;font-weight:normal;font-stretch:normal;font-size:medium;line-height:normal;font-family:sans-serif;font-variant-ligatures:normal;font-variant-position:normal;font-variant-caps:normal;font-variant-numeric:normal;font-variant-alternates:normal;font-variant-east-asian:normal;font-feature-settings:normal;font-variation-settings:normal;text-indent:0;text-align:start;text-decoration:none;text-decoration-line:none;text-decoration-style:solid;text-decoration-color:#000000;letter-spacing:normal;word-spacing:normal;text-transform:none;writing-mode:lr-tb;direction:ltr;text-orientation:mixed;dominant-baseline:auto;baseline-shift:baseline;text-anchor:start;white-space:normal;shape-padding:0;shape-margin:0;inline-size:0;clip-rule:nonzero;display:inline;overflow:visible;visibility:visible;opacity:1;isolation:auto;mix-blend-mode:normal;color-interpolation:sRGB;color-interpolation-filters:linearRGB;solid-color:#000000;solid-opacity:1;vector-effect:none;fill:#454045;fill-opacity:1;fill-rule:nonzero;stroke:none;stroke-width:1.00022;stroke-linecap:round;stroke-linejoin:round;stroke-miterlimit:4;stroke-dasharray:none;stroke-dashoffset:2.1875;stroke-opacity:1;color-rendering:auto;image-rendering:auto;shape-rendering:auto;text-rendering:auto;enable-background:accumulate;stop-color:#000000"
       d="m 26.229998,2.25 c -6.15257,0 -12.30462,2.3353001 -16.9747505,7.0053101 -9.34038,9.3399099 -9.34028,24.6082799 0,33.9481869 8.0289105,8.02861 20.4076505,9.10379 29.6711305,3.32489 l 13.64974,13.65116 c 2.09387,2.09393 5.50949,2.09393 7.60338,0 2.09401,-2.0938 2.09401,-5.50927 0,-7.60308 L 46.529748,38.925297 C 52.308878,29.66218 51.233658,17.28391 43.204728,9.2553101 38.534568,4.5853001 32.382588,2.25 26.229998,2.25 Z m 0,1.9925901 c 5.63783,0 11.27521,2.1420799 15.56035,6.4270599 7.5576,7.55732 8.43915,19.32818 2.67249,27.874717 a 1.0003383,1.0003 0 0 0 0.1231,1.26588 l 14.17915,14.18057 c 1.33478,1.33463 1.33478,3.43975 0,4.77439 -1.33467,1.33471 -3.43793,1.33471 -4.77261,0 l -14.18112,-14.18057 a 1.0003383,1.0003 0 0 0 -1.26788,-0.12112 c -8.54687,5.76642 -20.31623,4.88295 -27.87382,-2.67436 -8.5702105,-8.569867 -8.5703005,-22.549637 0,-31.119507 4.28511,-4.2849799 9.9225,-6.4270599 15.56034,-6.4270599 z m 0,4.96974 c -4.34766,0 -8.69548,1.6644499 -12.02436,4.9931899 -6.6577305,6.65748 -6.6576105,17.39039 0,24.047767 6.65786,6.65757 17.39098,6.65747 24.04871,0 6.65774,-6.657467 6.65774,-17.390297 0,-24.047767 -3.32888,-3.32874 -7.67669,-4.9931899 -12.02435,-4.9931899 z m 0,1.9828199 c 3.82951,0 7.65935,1.47421 10.60995,4.42471 5.90122,5.901 5.90122,15.31809 0,21.21909 -5.90125,5.901007 -15.31857,5.901097 -21.2199,0 -5.9011205,-5.90089 -5.9012205,-15.3181 0,-21.21909 2.95061,-2.9505 6.78044,-4.42471 10.60995,-4.42471 z" />
    <path
       id="path2165-5-1-67-2-3-7"
       style="color:#000000;font-style:normal;font-variant:normal;font-weight:normal;font-stretch:normal;font-size:medium;line-height:normal;font-family:sans-serif;font-variant-ligatures:normal;font-variant-position:normal;font-variant-caps:normal;font-variant-numeric:normal;font-variant-alternates:normal;font-variant-east-asian:normal;font-feature-settings:normal;font-variation-settings:normal;text-indent:0;text-align:start;text-decoration:none;text-decoration-line:none;text-decoration-style:solid;text-decoration-color:#000000;letter-spacing:normal;word-spacing:normal;text-transform:none;writing-mode:lr-tb;direction:ltr;text-orientation:mixed;dominant-baseline:auto;baseline-shift:baseline;text-anchor:start;white-space:normal;shape-padding:0;shape-margin:0;inline-size:0;clip-rule:nonzero;display:inline;overflow:visible;visibility:visible;isolation:auto;mix-blend-mode:normal;color-interpolation:sRGB;color-interpolation-filters:linearRGB;solid-color:#000000;solid-opacity:1;vector-effect:none;fill:url(#linearGradient1628);fill-opacity:1;fill-rule:nonzero;stroke:none;stroke-width:1.00004;stroke-linecap:round;stroke-linejoin:round;stroke-miterlimit:4;stroke-dasharray:none;stroke-dashoffset:2.1875;stroke-opacity:1;color-rendering:auto;image-rendering:auto;shape-rendering:auto;text-rendering:auto;enable-background:accumulate;stop-color:#000000"
       d="m 9.9648675,9.9649001 c -8.95322,8.9530999 -8.95311,23.5752599 0,32.5283569 7.8953505,7.89535 20.1979005,8.82389 29.1349205,2.79402 l 14.17734,14.17724 c 1.71388,1.71398 4.47351,1.71398 6.18737,0 1.71398,-1.71388 1.71398,-4.4735 0,-6.18738 l -14.17723,-14.17733 c 6.02986,-8.936997 5.10133,-21.239557 -2.79403,-29.1349069 -8.95321,-8.9532 -23.57527,-8.9532 -32.5283705,0 z M 14.914788,14.91482 c 6.278,-6.27798 16.35045,-6.27798 22.62843,0 6.27797,6.27798 6.27797,16.35044 0,22.62842 -6.27799,6.277977 -16.35033,6.278077 -22.62843,0 -6.2778805,-6.27788 -6.2779905,-16.35044 0,-22.62842 z" />
  </g>
</svg>
