<?xml version="1.0" encoding="UTF-8" standalone="no"?>
<svg
   xmlns:dc="http://purl.org/dc/elements/1.1/"
   xmlns:cc="http://creativecommons.org/ns#"
   xmlns:rdf="http://www.w3.org/1999/02/22-rdf-syntax-ns#"
   xmlns:svg="http://www.w3.org/2000/svg"
   xmlns="http://www.w3.org/2000/svg"
   xmlns:xlink="http://www.w3.org/1999/xlink"
   xmlns:sodipodi="http://sodipodi.sourceforge.net/DTD/sodipodi-0.dtd"
   xmlns:inkscape="http://www.inkscape.org/namespaces/inkscape"
   width="64"
   height="64"
   viewBox="0 0 64 64"
   version="1.1"
   id="svg6374"
   inkscape:version="1.0.2 (e86c870879, 2021-01-15)"
   sodipodi:docname="process-stop.svg">
  <defs
     id="defs6368">
    <linearGradient
       inkscape:collect="always"
       xlink:href="#linearGradient3980"
       id="linearGradient3966-3"
       gradientUnits="userSpaceOnUse"
       gradientTransform="translate(-12.59366,-60.67725)"
       x1="44.592453"
       y1="67.342995"
       x2="44.093658"
       y2="92.677246" />
    <linearGradient
       inkscape:collect="always"
       id="linearGradient3980">
      <stop
         style="stop-color:#f9f9f7;stop-opacity:0.1"
         offset="0"
         id="stop3978" />
      <stop
         style="stop-color:#f9f9f7;stop-opacity:0"
         offset="1"
         id="stop3976" />
    </linearGradient>
  </defs>
  <sodipodi:namedview
     id="base"
     pagecolor="#cecece"
     bordercolor="#666666"
     borderopacity="1.0"
     inkscape:pageopacity="0"
     inkscape:pageshadow="2"
     inkscape:zoom="3.3174374"
     inkscape:cx="-58.85352"
     inkscape:cy="60.074886"
     inkscape:document-units="px"
     inkscape:current-layer="layer1"
     inkscape:document-rotation="0"
     showgrid="false"
     units="px"
     inkscape:window-width="2048"
     inkscape:window-height="1080"
     inkscape:window-x="0"
     inkscape:window-y="0"
     inkscape:window-maximized="1" />
  <metadata
     id="metadata6371">
    <rdf:RDF>
      <cc:Work
         rdf:about="">
        <dc:format>image/svg+xml</dc:format>
        <dc:type
           rdf:resource="http://purl.org/dc/dcmitype/StillImage" />
        <dc:title />
      </cc:Work>
    </rdf:RDF>
  </metadata>
  <g
     inkscape:label="Layer 1"
     inkscape:groupmode="layer"
     id="layer1">
    <path
       id="path895-3-6-7-6-6-7-2"
       style="color:#000000;font-style:normal;font-variant:normal;font-weight:normal;font-stretch:normal;font-size:medium;line-height:normal;font-family:sans-serif;font-variant-ligatures:normal;font-variant-position:normal;font-variant-caps:normal;font-variant-numeric:normal;font-variant-alternates:normal;font-variant-east-asian:normal;font-feature-settings:normal;font-variation-settings:normal;text-indent:0;text-align:start;text-decoration:none;text-decoration-line:none;text-decoration-style:solid;text-decoration-color:#000000;letter-spacing:normal;word-spacing:normal;text-transform:none;writing-mode:lr-tb;direction:ltr;text-orientation:mixed;dominant-baseline:auto;baseline-shift:baseline;text-anchor:start;white-space:normal;shape-padding:0;shape-margin:0;inline-size:0;clip-rule:nonzero;display:inline;overflow:visible;visibility:visible;opacity:0.15;isolation:auto;mix-blend-mode:normal;color-interpolation:sRGB;color-interpolation-filters:linearRGB;solid-color:#000000;solid-opacity:1;vector-effect:none;fill:#0c0c0c;fill-opacity:1;fill-rule:nonzero;stroke:none;stroke-linecap:round;stroke-linejoin:round;stroke-miterlimit:4;stroke-dasharray:none;stroke-dashoffset:0;stroke-opacity:1;color-rendering:auto;image-rendering:auto;shape-rendering:auto;text-rendering:auto;enable-background:accumulate;stop-color:#000000"
       d="m 32,6.5 c -14.89392,0 -27,12.10608 -27,27 0,14.89392 12.10608,27 27,27 14.89392,0 27,-12.10608 27,-27 0,-14.89392 -12.10608,-27 -27,-27 z m 0,3 c 13.2726,0 24,10.7274 24,24 0,13.2726 -10.7274,24 -24,24 C 18.7274,57.5 8,46.7726 8,33.5 8,20.2274 18.7274,9.5 32,9.5 Z" />
    <path
       id="path895-3-6-5-7-9"
       style="color:#000000;font-style:normal;font-variant:normal;font-weight:normal;font-stretch:normal;font-size:medium;line-height:normal;font-family:sans-serif;font-variant-ligatures:normal;font-variant-position:normal;font-variant-caps:normal;font-variant-numeric:normal;font-variant-alternates:normal;font-variant-east-asian:normal;font-feature-settings:normal;font-variation-settings:normal;text-indent:0;text-align:start;text-decoration:none;text-decoration-line:none;text-decoration-style:solid;text-decoration-color:#000000;letter-spacing:normal;word-spacing:normal;text-transform:none;writing-mode:lr-tb;direction:ltr;text-orientation:mixed;dominant-baseline:auto;baseline-shift:baseline;text-anchor:start;white-space:normal;shape-padding:0;shape-margin:0;inline-size:0;clip-rule:nonzero;display:inline;overflow:visible;visibility:visible;opacity:0.85;isolation:auto;mix-blend-mode:normal;color-interpolation:sRGB;color-interpolation-filters:linearRGB;solid-color:#000000;solid-opacity:1;vector-effect:none;fill:#982041;fill-opacity:1;fill-rule:nonzero;stroke:none;stroke-linecap:round;stroke-linejoin:round;stroke-miterlimit:4;stroke-dasharray:none;stroke-dashoffset:0;stroke-opacity:1;color-rendering:auto;image-rendering:auto;shape-rendering:auto;text-rendering:auto;enable-background:accumulate;stop-color:#000000"
       d="M 32,5 C 17.10608,5 5,17.10608 5,32 5,46.89392 17.10608,59 32,59 46.89392,59 59,46.89392 59,32 59,17.10608 46.89392,5 32,5 Z m 0,3 C 45.2726,8 56,18.7274 56,32 56,45.2726 45.2726,56 32,56 18.7274,56 8,45.2726 8,32 8,18.7274 18.7274,8 32,8 Z" />
    <circle
       style="fill:#d53460;fill-opacity:1;stroke:none;stroke-width:0;stroke-linecap:round;stroke-linejoin:round;stroke-miterlimit:4;stroke-dasharray:none"
       id="path895-6-6-3"
       cx="31.999998"
       cy="32.000031"
       r="25.5" />
    <circle
       style="fill:url(#linearGradient3966-3);fill-opacity:1;stroke:none;stroke-width:0;stroke-linecap:round;stroke-linejoin:round;stroke-miterlimit:4;stroke-dasharray:none"
       id="path895-5-9-3-1"
       cx="31.999998"
       cy="32.000031"
       r="25.5" />
    <path
       id="rect4173-9-9"
       style="opacity:0.35;fill:#65162c;fill-opacity:1;stroke:none;stroke-width:1;stroke-linecap:round;stroke-linejoin:round;stroke-miterlimit:4;stroke-dasharray:none;stroke-opacity:1"
       d="m 42.67704,20.42781 c -0.39173,-0.39174 -1.02247,-0.39174 -1.41422,0 L 32.00001,29.69062 22.7372,20.4278 c -0.39175,-0.39173 -1.02248,-0.39173 -1.41422,0 l -3.39468,3.39466 c -0.39175,0.39174 -0.39175,1.02248 0,1.41422 l 9.26281,9.26282 -9.26281,9.26281 c -0.39175,0.39174 -0.39175,1.02248 0,1.41422 l 3.39468,3.39466 c 0.39172,0.39174 1.02247,0.39174 1.41422,0 l 9.26281,-9.26282 9.26281,9.26282 c 0.39175,0.39174 1.02247,0.39174 1.41422,0 l 3.39465,-3.39466 c 0.39175,-0.39174 0.39175,-1.02248 0,-1.41422 l -9.26281,-9.26281 9.26281,-9.26282 c 0.39175,-0.39174 0.39175,-1.02248 0,-1.41421 z" />
    <path
       id="rect4173-1-2-8-4"
       style="color:#000000;font-style:normal;font-variant:normal;font-weight:normal;font-stretch:normal;font-size:medium;line-height:normal;font-family:sans-serif;font-variant-ligatures:normal;font-variant-position:normal;font-variant-caps:normal;font-variant-numeric:normal;font-variant-alternates:normal;font-variant-east-asian:normal;font-feature-settings:normal;font-variation-settings:normal;text-indent:0;text-align:start;text-decoration:none;text-decoration-line:none;text-decoration-style:solid;text-decoration-color:#000000;letter-spacing:normal;word-spacing:normal;text-transform:none;writing-mode:lr-tb;direction:ltr;text-orientation:mixed;dominant-baseline:auto;baseline-shift:baseline;text-anchor:start;white-space:normal;shape-padding:0;shape-margin:0;inline-size:0;clip-rule:nonzero;display:inline;overflow:visible;visibility:visible;opacity:0.75;isolation:auto;mix-blend-mode:normal;color-interpolation:sRGB;color-interpolation-filters:linearRGB;solid-color:#000000;solid-opacity:1;vector-effect:none;fill:#65162c;fill-opacity:1;fill-rule:nonzero;stroke:none;stroke-width:1.00028;stroke-linecap:round;stroke-linejoin:round;stroke-miterlimit:4;stroke-dasharray:none;stroke-dashoffset:0;stroke-opacity:1;color-rendering:auto;image-rendering:auto;shape-rendering:auto;text-rendering:auto;enable-background:accumulate;stop-color:#000000"
       d="m 22.0267,17.134 c -0.38508,0 -0.77004,0.14679 -1.06087,0.43761 l -3.3956,3.39542 c -0.58165,0.58164 -0.58166,1.54 0,2.12165 l 8.91096,8.91053 -8.91096,8.91249 c -0.58165,0.58164 -0.58166,1.54 0,2.12164 l 3.3956,3.39543 c 0.58166,0.58164 1.54007,0.58164 2.12174,0 l 8.91095,-8.91054 8.91289,8.91054 c 0.58167,0.58164 1.54008,0.58164 2.12174,0 l 3.39558,-3.39543 c 0.58168,-0.58164 0.58168,-1.54 0,-2.12164 l -8.91095,-8.91249 8.91095,-8.91053 c 0.58168,-0.58165 0.58168,-1.54002 0,-2.12165 l -3.39558,-3.39542 c -0.58166,-0.58165 -1.54007,-0.58165 -2.12174,0 l -8.91289,8.91053 -8.91095,-8.91053 C 22.79672,17.28079 22.41177,17.134 22.0267,17.134 Z m 0,0.99244 c 0.1263,0 0.25259,0.0514 0.35362,0.15239 l 9.26458,9.26414 a 0.50020396,0.50018076 0 0 0 0.70724,0 l 9.26653,-9.26414 c 0.20205,-0.20204 0.50521,-0.20203 0.70724,0 l 3.39558,3.39542 c 0.20204,0.20202 0.20205,0.50517 0,0.70721 l -9.26652,9.26414 a 0.50020396,0.50018076 0 0 0 0,0.70722 l 9.26652,9.26609 c 0.20205,0.20204 0.20205,0.50517 0,0.70722 l -3.39558,3.39541 c -0.20205,0.20205 -0.50519,0.20205 -0.70724,0 L 32.35214,36.4574 a 0.50020396,0.50018076 0 0 0 -0.70724,0 l -9.26458,9.26414 c -0.20205,0.20205 -0.50521,0.20204 -0.70724,0 L 18.2775,42.32613 c -0.20205,-0.20205 -0.20205,-0.50518 0,-0.70722 l 9.26456,-9.26609 a 0.50020396,0.50018076 0 0 0 0,-0.70722 L 18.2775,22.38146 c -0.20205,-0.20204 -0.20205,-0.50517 0,-0.70721 l 3.39558,-3.39542 c 0.101,-0.10102 0.22732,-0.15239 0.35362,-0.15239 z" />
    <path
       id="rect4173-7"
       style="fill:#fbfcfd;fill-opacity:1;stroke:none;stroke-width:1;stroke-linecap:round;stroke-linejoin:round;stroke-miterlimit:4;stroke-dasharray:none;stroke-opacity:1"
       d="m 42.67704,17.92831 c -0.39173,-0.39174 -1.02247,-0.39174 -1.41422,0 L 32.00001,27.19112 22.7372,17.9283 c -0.39175,-0.39173 -1.02248,-0.39173 -1.41422,0 l -3.39468,3.39466 c -0.39175,0.39174 -0.39175,1.02248 0,1.41422 L 27.19111,32 17.9283,41.26281 c -0.39175,0.39174 -0.39175,1.02248 0,1.41422 l 3.39468,3.39466 c 0.39172,0.39174 1.02247,0.39174 1.41422,0 l 9.26281,-9.26282 9.26281,9.26282 c 0.39175,0.39174 1.02247,0.39174 1.41422,0 l 3.39465,-3.39466 c 0.39175,-0.39174 0.39175,-1.02248 0,-1.41422 L 36.80889,32 46.0717,22.73718 c 0.39175,-0.39174 0.39175,-1.02248 0,-1.41421 z" />
    <path
       id="path895-3-6-5-7-9-9"
       style="color:#000000;font-style:normal;font-variant:normal;font-weight:normal;font-stretch:normal;font-size:medium;line-height:normal;font-family:sans-serif;font-variant-ligatures:normal;font-variant-position:normal;font-variant-caps:normal;font-variant-numeric:normal;font-variant-alternates:normal;font-variant-east-asian:normal;font-feature-settings:normal;font-variation-settings:normal;text-indent:0;text-align:start;text-decoration:none;text-decoration-line:none;text-decoration-style:solid;text-decoration-color:#000000;letter-spacing:normal;word-spacing:normal;text-transform:none;writing-mode:lr-tb;direction:ltr;text-orientation:mixed;dominant-baseline:auto;baseline-shift:baseline;text-anchor:start;white-space:normal;shape-padding:0;shape-margin:0;inline-size:0;clip-rule:nonzero;display:inline;overflow:visible;visibility:visible;opacity:0.15;isolation:auto;mix-blend-mode:normal;color-interpolation:sRGB;color-interpolation-filters:linearRGB;solid-color:#000000;solid-opacity:1;vector-effect:none;fill:#65152c;fill-opacity:1;fill-rule:nonzero;stroke:none;stroke-linecap:round;stroke-linejoin:round;stroke-miterlimit:4;stroke-dasharray:none;stroke-dashoffset:0;stroke-opacity:1;color-rendering:auto;image-rendering:auto;shape-rendering:auto;text-rendering:auto;enable-background:accumulate;stop-color:#000000"
       d="M 32,5 C 17.10608,5 5,17.10608 5,32 5,46.89392 17.10608,59 32,59 46.89391,59 59,46.89392 59,32 59,17.10608 46.89391,5 32,5 Z m 0,3 C 45.2726,8 56,18.7274 56,32 56,45.2726 45.2726,56 32,56 18.72739,56 8,45.2726 8,32 8,18.7274 18.72739,8 32,8 Z" />
  </g>
</svg>
