<?xml version="1.0" encoding="UTF-8" standalone="no"?>
<svg
   xmlns:dc="http://purl.org/dc/elements/1.1/"
   xmlns:cc="http://creativecommons.org/ns#"
   xmlns:rdf="http://www.w3.org/1999/02/22-rdf-syntax-ns#"
   xmlns:svg="http://www.w3.org/2000/svg"
   xmlns="http://www.w3.org/2000/svg"
   xmlns:xlink="http://www.w3.org/1999/xlink"
   xmlns:sodipodi="http://sodipodi.sourceforge.net/DTD/sodipodi-0.dtd"
   xmlns:inkscape="http://www.inkscape.org/namespaces/inkscape"
   width="64"
   height="64"
   viewBox="0 0 64 64"
   version="1.1"
   id="svg6374"
   inkscape:version="1.0.2 (e86c870879, 2021-01-15)"
   sodipodi:docname="user-home.svg">
  <defs
     id="defs6368">
    <linearGradient
       inkscape:collect="always"
       xlink:href="#linearGradient1898"
       id="linearGradient1668"
       x1="834.2868"
       y1="644.63501"
       x2="833.90509"
       y2="664.95117"
       gradientUnits="userSpaceOnUse"
       gradientTransform="matrix(1.0001982,0,0,1,-802.45214,-604.41254)" />
    <linearGradient
       inkscape:collect="always"
       id="linearGradient1898">
      <stop
         style="stop-color:#b9b9bb;stop-opacity:1"
         offset="0"
         id="stop1894" />
      <stop
         style="stop-color:#a0a0a2;stop-opacity:1"
         offset="1"
         id="stop1896" />
    </linearGradient>
    <linearGradient
       inkscape:collect="always"
       xlink:href="#linearGradient1898"
       id="linearGradient1660"
       x1="834.18811"
       y1="611.01599"
       x2="834.2868"
       y2="637.14502"
       gradientUnits="userSpaceOnUse"
       gradientTransform="matrix(0.99999885,0,0,1,-802.28585,-607.71234)" />
  </defs>
  <sodipodi:namedview
     id="base"
     pagecolor="#cecece"
     bordercolor="#666666"
     borderopacity="1.0"
     inkscape:pageopacity="0"
     inkscape:pageshadow="2"
     inkscape:zoom="4.2747555"
     inkscape:cx="5.6174167"
     inkscape:cy="54.382316"
     inkscape:document-units="px"
     inkscape:current-layer="layer1"
     inkscape:document-rotation="0"
     showgrid="false"
     units="px"
     inkscape:window-width="1500"
     inkscape:window-height="970"
     inkscape:window-x="68"
     inkscape:window-y="56"
     inkscape:window-maximized="0" />
  <metadata
     id="metadata6371">
    <rdf:RDF>
      <cc:Work
         rdf:about="">
        <dc:format>image/svg+xml</dc:format>
        <dc:type
           rdf:resource="http://purl.org/dc/dcmitype/StillImage" />
        <dc:title></dc:title>
      </cc:Work>
    </rdf:RDF>
  </metadata>
  <g
     inkscape:label="Layer 1"
     inkscape:groupmode="layer"
     id="layer1">
    <path
       id="path1652-9"
       style="color:#000000;font-style:normal;font-variant:normal;font-weight:normal;font-stretch:normal;font-size:medium;line-height:normal;font-family:sans-serif;font-variant-ligatures:normal;font-variant-position:normal;font-variant-caps:normal;font-variant-numeric:normal;font-variant-alternates:normal;font-variant-east-asian:normal;font-feature-settings:normal;font-variation-settings:normal;text-indent:0;text-align:start;text-decoration:none;text-decoration-line:none;text-decoration-style:solid;text-decoration-color:#000000;letter-spacing:normal;word-spacing:normal;text-transform:none;writing-mode:lr-tb;direction:ltr;text-orientation:mixed;dominant-baseline:auto;baseline-shift:baseline;text-anchor:start;white-space:normal;shape-padding:0;shape-margin:0;inline-size:0;clip-rule:nonzero;display:inline;overflow:visible;visibility:visible;isolation:auto;mix-blend-mode:normal;color-interpolation:sRGB;color-interpolation-filters:linearRGB;solid-color:#000000;solid-opacity:1;vector-effect:none;fill:#323234;fill-opacity:1;fill-rule:nonzero;stroke:none;stroke-linecap:round;stroke-linejoin:round;stroke-miterlimit:4;stroke-dasharray:none;stroke-dashoffset:0;stroke-opacity:1;color-rendering:auto;image-rendering:auto;shape-rendering:auto;text-rendering:auto;enable-background:accumulate;stop-color:#000000"
       d="m 32,37.222275 c -4.79248,0 -9.58659,0.8224 -14,2.5 -8.85874,3.3672 -15.49989,10.2178 -15.5,18.7051 0.002,2.8217 2.35226,5.1725 5.17383,5.1738 a 3.0003,3.0003 0 0 0 0.002,0 H 32 56.32031 c 2.8231,9e-4 5.17804,-2.3506 5.17969,-5.1738 -1e-4,-8.4869 -6.63917,-15.3378 -15.49805,-18.7051 -4.41364,-1.6777 -9.20938,-2.5 -14.00195,-2.5 z m 0,6 c 4.10229,0 8.20408,0.7135 11.87109,2.1074 6.91611,2.6289 11.03075,7.2819 11.46094,12.2735 H 32 8.66797 c 0.43034,-4.9913 4.54667,-9.6446 11.46289,-12.2735 3.66727,-1.394 7.76696,-2.1074 11.86914,-2.1074 z" />
    <path
       style="color:#000000;font-style:normal;font-variant:normal;font-weight:normal;font-stretch:normal;font-size:medium;line-height:normal;font-family:sans-serif;font-variant-ligatures:normal;font-variant-position:normal;font-variant-caps:normal;font-variant-numeric:normal;font-variant-alternates:normal;font-variant-east-asian:normal;font-feature-settings:normal;font-variation-settings:normal;text-indent:0;text-align:start;text-decoration:none;text-decoration-line:none;text-decoration-style:solid;text-decoration-color:#000000;letter-spacing:normal;word-spacing:normal;text-transform:none;writing-mode:lr-tb;direction:ltr;text-orientation:mixed;dominant-baseline:auto;baseline-shift:baseline;text-anchor:start;white-space:normal;shape-padding:0;shape-margin:0;inline-size:0;clip-rule:nonzero;display:inline;overflow:visible;visibility:visible;isolation:auto;mix-blend-mode:normal;color-interpolation:sRGB;color-interpolation-filters:linearRGB;solid-color:#000000;solid-opacity:1;vector-effect:none;fill:url(#linearGradient1668);fill-opacity:1;fill-rule:nonzero;stroke:none;stroke-width:0.823096;stroke-linecap:round;stroke-linejoin:round;stroke-miterlimit:4;stroke-dasharray:none;stroke-dashoffset:0;stroke-opacity:1;color-rendering:auto;image-rendering:auto;shape-rendering:auto;text-rendering:auto;enable-background:accumulate;stop-color:#000000"
       d="m 31.99999,40.222475 c -4.44733,0 -8.89408,0.7675 -12.93442,2.3033 -8.08069,3.0715 -13.56548,9.0052 -13.56557,15.902 a 2.1771413,2.1769718 0 0 0 2.1761,2.1757 h 24.32389 24.32215 a 2.1771413,2.1769718 0 0 0 2.17785,-2.1757 c -8e-5,-6.8968 -5.48322,-12.8305 -13.56392,-15.902 -4.04033,-1.5358 -8.48865,-2.3033 -12.93608,-2.3033 z"
       id="path1652" />
    <path
       id="path1305-3-0-7-4-1"
       style="color:#000000;font-style:normal;font-variant:normal;font-weight:normal;font-stretch:normal;font-size:medium;line-height:normal;font-family:sans-serif;font-variant-ligatures:normal;font-variant-position:normal;font-variant-caps:normal;font-variant-numeric:normal;font-variant-alternates:normal;font-variant-east-asian:normal;font-feature-settings:normal;font-variation-settings:normal;text-indent:0;text-align:start;text-decoration:none;text-decoration-line:none;text-decoration-style:solid;text-decoration-color:#000000;letter-spacing:normal;word-spacing:normal;text-transform:none;writing-mode:lr-tb;direction:ltr;text-orientation:mixed;dominant-baseline:auto;baseline-shift:baseline;text-anchor:start;white-space:normal;shape-padding:0;shape-margin:0;inline-size:0;clip-rule:nonzero;display:inline;overflow:visible;visibility:visible;isolation:auto;mix-blend-mode:normal;color-interpolation:sRGB;color-interpolation-filters:linearRGB;solid-color:#000000;solid-opacity:1;vector-effect:none;fill:#323234;fill-opacity:1;fill-rule:nonzero;stroke:none;stroke-linecap:round;stroke-linejoin:round;stroke-miterlimit:4;stroke-dasharray:none;stroke-dashoffset:0;stroke-opacity:1;color-rendering:auto;image-rendering:auto;shape-rendering:auto;text-rendering:auto;enable-background:accumulate;stop-color:#000000"
       d="m 31.8725,0.303375 a 3.0003,3.0003 0 0 0 -0.50391,0.055 c -8.5497,0.3409 -15.43383,7.394 -15.43359,16.0098 10e-6,8.8366 7.22782,16.0645 16.06445,16.0645 8.83664,0 16.06444,-7.2278 16.06445,-16.0645 -10e-6,-8.7504 -7.09373,-15.8999 -15.8125,-16.0391 a 3.0003,3.0003 0 0 0 -0.18945,-0.019 3.0003,3.0003 0 0 0 -0.008,0 c -0.0185,-10e-5 -0.0358,-0.01 -0.0545,-0.01 -0.0274,-10e-5 -0.0546,-10e-5 -0.082,0 -0.006,0 -0.0117,-10e-5 -0.0176,0 -0.003,0 -0.007,-10e-5 -0.01,0 a 3.0003,3.0003 0 0 0 -0.0117,0 c -0.002,0 -0.004,-10e-5 -0.006,0 z m 0.0508,6 c 0.0214,-10e-5 0.043,-10e-5 0.0645,0 a 3.0003,3.0003 0 0 0 0.0117,0 c 5.594,0 10.06445,4.4704 10.06445,10.0644 0,5.594 -4.47045,10.0645 -10.06445,10.0645 -5.59399,0 -10.06445,-4.4705 -10.06445,-10.0645 -1.6e-4,-5.5636 4.42482,-10.0224 9.98828,-10.0644 z" />
    <path
       style="color:#000000;font-style:normal;font-variant:normal;font-weight:normal;font-stretch:normal;font-size:medium;line-height:normal;font-family:sans-serif;font-variant-ligatures:normal;font-variant-position:normal;font-variant-caps:normal;font-variant-numeric:normal;font-variant-alternates:normal;font-variant-east-asian:normal;font-feature-settings:normal;font-variation-settings:normal;text-indent:0;text-align:start;text-decoration:none;text-decoration-line:none;text-decoration-style:solid;text-decoration-color:#000000;letter-spacing:normal;word-spacing:normal;text-transform:none;writing-mode:lr-tb;direction:ltr;text-orientation:mixed;dominant-baseline:auto;baseline-shift:baseline;text-anchor:start;white-space:normal;shape-padding:0;shape-margin:0;inline-size:0;clip-rule:nonzero;display:inline;overflow:visible;visibility:visible;isolation:auto;mix-blend-mode:normal;color-interpolation:sRGB;color-interpolation-filters:linearRGB;solid-color:#000000;solid-opacity:1;vector-effect:none;fill:url(#linearGradient1660);fill-opacity:1;fill-rule:nonzero;stroke:none;stroke-width:0.823014;stroke-linecap:round;stroke-linejoin:round;stroke-miterlimit:4;stroke-dasharray:none;stroke-dashoffset:0;stroke-opacity:1;color-rendering:auto;image-rendering:auto;shape-rendering:auto;text-rendering:auto;enable-background:accumulate;stop-color:#000000"
       d="m 31.90131,3.303675 a 13.064501,13.064516 0 0 0 -12.96581,13.0645 13.064501,13.064516 0 0 0 13.06449,13.0645 13.064501,13.064516 0 0 0 13.0645,-13.0645 13.064501,13.064516 0 0 0 -13.0645,-13.0645 13.064501,13.064516 0 0 0 -0.0987,0 z"
       id="path1305-3-0-7-4" />
  </g>
</svg>
