<?xml version="1.0" encoding="UTF-8" standalone="no"?>
<svg
   xmlns:dc="http://purl.org/dc/elements/1.1/"
   xmlns:cc="http://creativecommons.org/ns#"
   xmlns:rdf="http://www.w3.org/1999/02/22-rdf-syntax-ns#"
   xmlns:svg="http://www.w3.org/2000/svg"
   xmlns="http://www.w3.org/2000/svg"
   xmlns:sodipodi="http://sodipodi.sourceforge.net/DTD/sodipodi-0.dtd"
   xmlns:inkscape="http://www.inkscape.org/namespaces/inkscape"
   width="64"
   height="64"
   viewBox="0 0 64 64"
   version="1.1"
   id="svg6374"
   inkscape:version="1.0.2 (e86c870879, 2021-01-15)"
   sodipodi:docname="go-up.svg">
  <defs
     id="defs6368" />
  <sodipodi:namedview
     id="base"
     pagecolor="#cecece"
     bordercolor="#666666"
     borderopacity="1.0"
     inkscape:pageopacity="0"
     inkscape:pageshadow="2"
     inkscape:zoom="6.8818909"
     inkscape:cx="20.896034"
     inkscape:cy="43.723975"
     inkscape:document-units="px"
     inkscape:current-layer="layer1"
     inkscape:document-rotation="0"
     showgrid="false"
     units="px"
     inkscape:window-width="1500"
     inkscape:window-height="970"
     inkscape:window-x="68"
     inkscape:window-y="56"
     inkscape:window-maximized="0" />
  <metadata
     id="metadata6371">
    <rdf:RDF>
      <cc:Work
         rdf:about="">
        <dc:format>image/svg+xml</dc:format>
        <dc:type
           rdf:resource="http://purl.org/dc/dcmitype/StillImage" />
        <dc:title />
      </cc:Work>
    </rdf:RDF>
  </metadata>
  <g
     inkscape:label="Layer 1"
     inkscape:groupmode="layer"
     id="layer1">
    <path
       id="path1113-1-0-6-8-3-2-5-4-0-7-1-1-0"
       style="color:#000000;font-style:normal;font-variant:normal;font-weight:normal;font-stretch:normal;font-size:medium;line-height:normal;font-family:sans-serif;font-variant-ligatures:normal;font-variant-position:normal;font-variant-caps:normal;font-variant-numeric:normal;font-variant-alternates:normal;font-variant-east-asian:normal;font-feature-settings:normal;font-variation-settings:normal;text-indent:0;text-align:start;text-decoration:none;text-decoration-line:none;text-decoration-style:solid;text-decoration-color:#000000;letter-spacing:normal;word-spacing:normal;text-transform:none;writing-mode:lr-tb;direction:ltr;text-orientation:mixed;dominant-baseline:auto;baseline-shift:baseline;text-anchor:start;white-space:normal;shape-padding:0;shape-margin:0;inline-size:0;clip-rule:nonzero;display:inline;overflow:visible;visibility:visible;opacity:0.075;isolation:auto;mix-blend-mode:normal;color-interpolation:sRGB;color-interpolation-filters:linearRGB;solid-color:#000000;solid-opacity:1;vector-effect:none;fill:#0c0c0c;fill-opacity:1;fill-rule:nonzero;stroke:none;stroke-width:1.268;stroke-linecap:round;stroke-linejoin:round;stroke-miterlimit:4;stroke-dasharray:none;stroke-dashoffset:0;stroke-opacity:1;color-rendering:auto;image-rendering:auto;shape-rendering:auto;text-rendering:auto;enable-background:accumulate;stop-color:#000000"
       d="m 32.011487,10 c -0.604248,0 -1.209274,0.27328 -1.591793,0.82021 L 16.356045,30.92795 c -0.239235,0.34185 -0.364123,0.75426 -0.35564,1.17531 0.02146,1.0699 0.906178,1.92814 1.947433,1.928 h 4.336326 3.360176 V 55.50435 C 25.64434,56.8709 26.751778,58 28.092114,58 h 7.836311 c 1.340323,0 2.447749,-1.1291 2.447749,-2.49565 V 34.03126 h 3.360201 4.336326 c 1.508242,-5.9e-4 2.472044,-1.84562 1.591793,-3.10331 L 33.600833,10.82021 C 33.218326,10.27328 32.615722,10 32.011487,10 Z m 0,1.898 c 0.01983,0 0.0384,0.0115 0.05635,0.0375 l 14.061227,20.10775 c 0.05421,0.0773 0.0635,0.0675 -0.05647,0.0675 H 41.736268 37.43425 A 0.94192325,0.9603462 0 0 0 36.492434,33.071 v 22.43333 c 0,0.3358 -0.234767,0.57516 -0.564104,0.57516 h -7.83631 c -0.329362,0 -0.564117,-0.23936 -0.564117,-0.57516 V 33.071 A 0.94192325,0.9603462 0 0 0 26.586062,32.11075 H 22.28407 17.947743 c -0.05446,0 -0.06576,-0.0179 -0.06626,-0.0451 -1.25e-4,-0.006 0.0012,-0.0142 0.0075,-0.0225 L 31.952657,11.9354 c 0.01807,-0.0259 0.03903,-0.0375 0.05886,-0.0375 z" />
    <path
       id="path1113-1-0-6-8-3-2-5-4-3-3"
       style="color:#000000;font-style:normal;font-variant:normal;font-weight:normal;font-stretch:normal;font-size:medium;line-height:normal;font-family:sans-serif;font-variant-ligatures:normal;font-variant-position:normal;font-variant-caps:normal;font-variant-numeric:normal;font-variant-alternates:normal;font-variant-east-asian:normal;font-feature-settings:normal;font-variation-settings:normal;text-indent:0;text-align:start;text-decoration:none;text-decoration-line:none;text-decoration-style:solid;text-decoration-color:#000000;letter-spacing:normal;word-spacing:normal;text-transform:none;writing-mode:lr-tb;direction:ltr;text-orientation:mixed;dominant-baseline:auto;baseline-shift:baseline;text-anchor:start;white-space:normal;shape-padding:0;shape-margin:0;inline-size:0;clip-rule:nonzero;display:inline;overflow:visible;visibility:visible;isolation:auto;mix-blend-mode:normal;color-interpolation:sRGB;color-interpolation-filters:linearRGB;solid-color:#000000;solid-opacity:1;vector-effect:none;fill:#978ee1;fill-opacity:1;fill-rule:nonzero;stroke:none;stroke-width:0;stroke-linecap:round;stroke-linejoin:round;stroke-miterlimit:4;stroke-dasharray:none;stroke-dashoffset:0;stroke-opacity:1;color-rendering:auto;image-rendering:auto;shape-rendering:auto;text-rendering:auto;enable-background:accumulate;stop-color:#000000"
       d="m 28.08476,55.04 c -0.834259,0 -1.505895,-0.68507 -1.505895,-1.53601 V 31.07834 h -4.296922 -4.335172 a 1.0054581,1.007189 0 0 1 -1.00539,-0.98701 1.0054581,1.007189 0 0 1 0.181798,-0.59821 L 31.176952,9.38945 a 1.0054581,1.007189 0 0 1 1.647197,0 l 14.052618,20.10367 a 1.0054581,1.007189 0 0 1 -0.823002,1.58522 H 41.719308 37.42108 v 22.42565 c 0,0.85094 -0.671636,1.53601 -1.505894,1.53601 z" />
    <path
       id="path1113-1-0-6-8-3-2-5-4-0-7-1-6"
       style="color:#000000;font-style:normal;font-variant:normal;font-weight:normal;font-stretch:normal;font-size:medium;line-height:normal;font-family:sans-serif;font-variant-ligatures:normal;font-variant-position:normal;font-variant-caps:normal;font-variant-numeric:normal;font-variant-alternates:normal;font-variant-east-asian:normal;font-feature-settings:normal;font-variation-settings:normal;text-indent:0;text-align:start;text-decoration:none;text-decoration-line:none;text-decoration-style:solid;text-decoration-color:#000000;letter-spacing:normal;word-spacing:normal;text-transform:none;writing-mode:lr-tb;direction:ltr;text-orientation:mixed;dominant-baseline:auto;baseline-shift:baseline;text-anchor:start;white-space:normal;shape-padding:0;shape-margin:0;inline-size:0;clip-rule:nonzero;display:inline;overflow:visible;visibility:visible;opacity:0.85;isolation:auto;mix-blend-mode:normal;color-interpolation:sRGB;color-interpolation-filters:linearRGB;solid-color:#000000;solid-opacity:1;vector-effect:none;fill:#322791;fill-opacity:1;fill-rule:nonzero;stroke:none;stroke-width:1.268;stroke-linecap:round;stroke-linejoin:round;stroke-miterlimit:4;stroke-dasharray:none;stroke-dashoffset:0;stroke-opacity:1;color-rendering:auto;image-rendering:auto;shape-rendering:auto;text-rendering:auto;enable-background:accumulate;stop-color:#000000"
       d="M 32.011487,8 C 31.407239,8 30.802213,8.27328 30.419694,8.82021 L 16.356045,28.92795 c -0.239235,0.34185 -0.364123,0.75426 -0.35564,1.17531 0.02146,1.0699 0.906178,1.92814 1.947433,1.928 h 4.336326 3.360176 V 53.50435 C 25.64434,54.8709 26.751778,56 28.092114,56 h 7.836311 c 1.340323,0 2.447749,-1.1291 2.447749,-2.49565 V 32.03126 h 3.360201 4.336326 c 1.508242,-5.9e-4 2.472044,-1.84562 1.591793,-3.10331 L 33.600833,8.82021 C 33.218326,8.27328 32.615722,8 32.011487,8 Z m 0,1.898 c 0.01983,0 0.0384,0.0115 0.05635,0.0375 l 14.061227,20.10775 c 0.05421,0.0773 0.0635,0.0675 -0.05647,0.0675 H 41.736268 37.43425 A 0.94192325,0.9603462 0 0 0 36.492434,31.071 v 22.43333 c 0,0.3358 -0.234767,0.57516 -0.564104,0.57516 h -7.83631 c -0.329362,0 -0.564117,-0.23936 -0.564117,-0.57516 V 31.071 A 0.94192325,0.9603462 0 0 0 26.586062,30.11075 H 22.28407 17.947743 c -0.05446,0 -0.06576,-0.0179 -0.06626,-0.0451 -1.25e-4,-0.006 0.0012,-0.0142 0.0075,-0.0225 L 31.952657,9.9354 c 0.01807,-0.0259 0.03903,-0.0375 0.05886,-0.0375 z" />
  </g>
</svg>
