<?xml version="1.0" encoding="UTF-8" standalone="no"?>
<svg
   xmlns:dc="http://purl.org/dc/elements/1.1/"
   xmlns:cc="http://creativecommons.org/ns#"
   xmlns:rdf="http://www.w3.org/1999/02/22-rdf-syntax-ns#"
   xmlns:svg="http://www.w3.org/2000/svg"
   xmlns="http://www.w3.org/2000/svg"
   xmlns:xlink="http://www.w3.org/1999/xlink"
   xmlns:sodipodi="http://sodipodi.sourceforge.net/DTD/sodipodi-0.dtd"
   xmlns:inkscape="http://www.inkscape.org/namespaces/inkscape"
   width="64"
   height="64"
   viewBox="0 0 64 64"
   version="1.1"
   id="svg6374"
   inkscape:version="1.0.2 (e86c870879, 2021-01-15)"
   sodipodi:docname="help-faq.svg">
  <defs
     id="defs6368">
    <linearGradient
       inkscape:collect="always"
       xlink:href="#linearGradient994"
       id="linearGradient3204"
       x1="385.99927"
       y1="500.57544"
       x2="385.78787"
       y2="556.31586"
       gradientUnits="userSpaceOnUse"
       gradientTransform="translate(-354.20377,-496.48944)" />
    <linearGradient
       inkscape:collect="always"
       id="linearGradient994">
      <stop
         style="stop-color:#f9f9f7;stop-opacity:0.1"
         offset="0"
         id="stop992" />
      <stop
         style="stop-color:#f9f9f7;stop-opacity:0"
         offset="1"
         id="stop990" />
    </linearGradient>
  </defs>
  <sodipodi:namedview
     id="base"
     pagecolor="#cecece"
     bordercolor="#666666"
     borderopacity="1.0"
     inkscape:pageopacity="0"
     inkscape:pageshadow="2"
     inkscape:zoom="6.8818909"
     inkscape:cx="20.896034"
     inkscape:cy="43.723975"
     inkscape:document-units="px"
     inkscape:current-layer="layer1"
     inkscape:document-rotation="0"
     showgrid="false"
     units="px"
     inkscape:window-width="1500"
     inkscape:window-height="970"
     inkscape:window-x="68"
     inkscape:window-y="56"
     inkscape:window-maximized="0" />
  <metadata
     id="metadata6371">
    <rdf:RDF>
      <cc:Work
         rdf:about="">
        <dc:format>image/svg+xml</dc:format>
        <dc:type
           rdf:resource="http://purl.org/dc/dcmitype/StillImage" />
        <dc:title></dc:title>
      </cc:Work>
    </rdf:RDF>
  </metadata>
  <g
     inkscape:label="Layer 1"
     inkscape:groupmode="layer"
     id="layer1">
    <path
       id="rect954-7-0-7-3-0-0-0-6-6"
       style="color:#000000;font-style:normal;font-variant:normal;font-weight:normal;font-stretch:normal;font-size:medium;line-height:normal;font-family:sans-serif;font-variant-ligatures:normal;font-variant-position:normal;font-variant-caps:normal;font-variant-numeric:normal;font-variant-alternates:normal;font-variant-east-asian:normal;font-feature-settings:normal;font-variation-settings:normal;text-indent:0;text-align:start;text-decoration:none;text-decoration-line:none;text-decoration-style:solid;text-decoration-color:#000000;letter-spacing:normal;word-spacing:normal;text-transform:none;writing-mode:lr-tb;direction:ltr;text-orientation:mixed;dominant-baseline:auto;baseline-shift:baseline;text-anchor:start;white-space:normal;shape-padding:0;shape-margin:0;inline-size:0;clip-rule:nonzero;display:inline;overflow:visible;visibility:visible;opacity:0.15;isolation:auto;mix-blend-mode:normal;color-interpolation:sRGB;color-interpolation-filters:linearRGB;solid-color:#000000;solid-opacity:1;vector-effect:none;fill:#0c0c0c;fill-opacity:1;fill-rule:nonzero;stroke:none;stroke-linecap:round;stroke-linejoin:round;stroke-miterlimit:4;stroke-dasharray:none;stroke-dashoffset:2.1875;stroke-opacity:1;color-rendering:auto;image-rendering:auto;shape-rendering:auto;text-rendering:auto;enable-background:accumulate;stop-color:#000000"
       d="M 13,4 C 10.53295,4 8.5,6.03295 8.5,8.5 v 49.99999 c 0,2.46706 2.03295,4.5 4.5,4.5 h 38 c 2.467,0 4.5,-2.03294 4.5,-4.5 V 8.5 C 55.5,6.03295 53.467,4 51,4 Z m 0,3 h 38 c 0.8569,0 1.5,0.64306 1.5,1.5 v 49.99999 c 0,0.85695 -0.6431,1.5 -1.5,1.5 H 13 c -0.85695,0 -1.5,-0.64305 -1.5,-1.5 V 8.5 C 11.5,7.64306 12.14305,7 13,7 Z" />
    <path
       id="rect954-7-0-7-3-0-0-0-6"
       style="color:#000000;font-style:normal;font-variant:normal;font-weight:normal;font-stretch:normal;font-size:medium;line-height:normal;font-family:sans-serif;font-variant-ligatures:normal;font-variant-position:normal;font-variant-caps:normal;font-variant-numeric:normal;font-variant-alternates:normal;font-variant-east-asian:normal;font-feature-settings:normal;font-variation-settings:normal;text-indent:0;text-align:start;text-decoration:none;text-decoration-line:none;text-decoration-style:solid;text-decoration-color:#000000;letter-spacing:normal;word-spacing:normal;text-transform:none;writing-mode:lr-tb;direction:ltr;text-orientation:mixed;dominant-baseline:auto;baseline-shift:baseline;text-anchor:start;white-space:normal;shape-padding:0;shape-margin:0;inline-size:0;clip-rule:nonzero;display:inline;overflow:visible;visibility:visible;opacity:0.85;isolation:auto;mix-blend-mode:normal;color-interpolation:sRGB;color-interpolation-filters:linearRGB;solid-color:#000000;solid-opacity:1;vector-effect:none;fill:#48289a;fill-opacity:1;fill-rule:nonzero;stroke:none;stroke-linecap:round;stroke-linejoin:round;stroke-miterlimit:4;stroke-dasharray:none;stroke-dashoffset:2.1875;stroke-opacity:1;color-rendering:auto;image-rendering:auto;shape-rendering:auto;text-rendering:auto;enable-background:accumulate;stop-color:#000000"
       d="M 13,2.5 C 10.53295,2.5 8.5,4.53295 8.5,7 v 49.99999 c 0,2.46706 2.03295,4.5 4.5,4.5 h 38 c 2.467,0 4.5,-2.03294 4.5,-4.5 V 7 C 55.5,4.53295 53.467,2.5 51,2.5 Z m 0,3 h 38 c 0.8569,0 1.5,0.64306 1.5,1.5 v 49.99999 c 0,0.85695 -0.6431,1.5 -1.5,1.5 H 13 c -0.85695,0 -1.5,-0.64305 -1.5,-1.5 V 7 c 0,-0.85694 0.64305,-1.5 1.5,-1.5 z" />
    <rect
       style="fill:#8565d7;fill-opacity:1;stroke-width:0.495;stroke-linecap:round;stroke-linejoin:round;stroke-miterlimit:4;stroke-dasharray:none;stroke-dashoffset:2.1875"
       id="rect954-7-0-7-3-0-0"
       width="44"
       height="56"
       x="10.000051"
       y="4"
       rx="3"
       ry="3" />
    <rect
       style="fill:url(#linearGradient3204);fill-opacity:1;stroke-width:0.495;stroke-linecap:round;stroke-linejoin:round;stroke-miterlimit:4;stroke-dasharray:none;stroke-dashoffset:2.1875"
       id="rect954-7-0-7-3-0-0-5"
       width="44"
       height="56"
       x="10.000051"
       y="4"
       rx="3"
       ry="3" />
    <path
       id="rect954-7-0-7-3-0-0-0-6-6-3"
       style="color:#000000;font-style:normal;font-variant:normal;font-weight:normal;font-stretch:normal;font-size:medium;line-height:normal;font-family:sans-serif;font-variant-ligatures:normal;font-variant-position:normal;font-variant-caps:normal;font-variant-numeric:normal;font-variant-alternates:normal;font-variant-east-asian:normal;font-feature-settings:normal;font-variation-settings:normal;text-indent:0;text-align:start;text-decoration:none;text-decoration-line:none;text-decoration-style:solid;text-decoration-color:#000000;letter-spacing:normal;word-spacing:normal;text-transform:none;writing-mode:lr-tb;direction:ltr;text-orientation:mixed;dominant-baseline:auto;baseline-shift:baseline;text-anchor:start;white-space:normal;shape-padding:0;shape-margin:0;inline-size:0;clip-rule:nonzero;display:inline;overflow:visible;visibility:visible;opacity:0.15;isolation:auto;mix-blend-mode:normal;color-interpolation:sRGB;color-interpolation-filters:linearRGB;solid-color:#000000;solid-opacity:1;vector-effect:none;fill:#351d72;fill-opacity:1;fill-rule:nonzero;stroke:none;stroke-linecap:round;stroke-linejoin:round;stroke-miterlimit:4;stroke-dasharray:none;stroke-dashoffset:2.1875;stroke-opacity:1;color-rendering:auto;image-rendering:auto;shape-rendering:auto;text-rendering:auto;enable-background:accumulate;stop-color:#000000"
       d="M 13,2.5 C 10.53295,2.5 8.5,4.53295 8.5,7 v 49.99999 c 0,2.46706 2.03295,4.5 4.5,4.5 h 38 c 2.467,0 4.5,-2.03294 4.5,-4.5 V 7 C 55.5,4.53295 53.467,2.5 51,2.5 Z m 0,3 h 38 c 0.8569,0 1.5,0.64306 1.5,1.5 v 49.99999 c 0,0.85695 -0.6431,1.5 -1.5,1.5 H 13 c -0.85695,0 -1.5,-0.64305 -1.5,-1.5 V 7 c 0,-0.85694 0.64305,-1.5 1.5,-1.5 z" />
    <path
       id="path2193-6-6-3-4-6-84-1"
       style="display:inline;opacity:0.35;mix-blend-mode:normal;fill:#351d72;fill-opacity:1;stroke:none;stroke-width:0;stroke-linecap:round;stroke-linejoin:round;stroke-dashoffset:2.1875"
       d="m 32.58789,16.50171 c -4.91314,0 -9.0023,3.20043 -9.97935,8.12576 l -0.15067,0.6244 c -0.0849,0.34593 0.12448,0.69211 0.47042,0.77671 l 3.87891,0.94915 c 0.34594,0.0849 0.69377,-0.12445 0.77846,-0.47038 L 27.738,25.88132 c 0.453,-3.03216 2.45679,-4.39942 4.85156,-4.39942 2.76909,0 4.80302,1.79667 4.80302,4.85472 0,2.19315 -0.9764,3.61603 -3.09543,5.08236 -1.62103,1.10069 -2.97107,2.22915 -3.88394,3.84856 -0.82936,1.47121 -1.24901,3.2797 -1.33258,5.66159 v 0 0.64111 c 0,0.35612 0.28672,0.64283 0.64286,0.64283 h 3.88225 c 0.35614,0 0.64285,-0.28662 0.64285,-0.64283 v -0.64283 c 0.0763,-1.31308 0.29852,-2.26 0.70481,-3.0266 0.48265,-0.91084 1.25726,-1.68978 2.60659,-2.63327 3.17982,-2.20696 5.00056,-5.05545 5.00056,-8.79532 0,-4.63101 -2.82594,-8.37313 -7.0279,-9.56878 -0.28012,-0.0797 -0.5652,-0.14939 -0.85715,-0.20588 C 34.00822,16.56823 33.30943,16.5 32.58789,16.5 Z m -1.01786,29.14148 a 3.4285714,3.4284086 0 0 0 -3.37667,3.4284 3.4285714,3.4284086 0 0 0 3.42857,3.42841 3.4285714,3.4284086 0 0 0 3.42857,-3.42841 3.4285714,3.4284086 0 0 0 -3.42857,-3.4284 3.4285714,3.4284086 0 0 0 -0.0519,0 z" />
    <path
       id="path2193-6-6-3-4-6-1-1-0"
       style="color:#000000;font-style:normal;font-variant:normal;font-weight:normal;font-stretch:normal;font-size:medium;line-height:normal;font-family:sans-serif;font-variant-ligatures:normal;font-variant-position:normal;font-variant-caps:normal;font-variant-numeric:normal;font-variant-alternates:normal;font-variant-east-asian:normal;font-feature-settings:normal;font-variation-settings:normal;text-indent:0;text-align:start;text-decoration:none;text-decoration-line:none;text-decoration-style:solid;text-decoration-color:#000000;letter-spacing:normal;word-spacing:normal;text-transform:none;writing-mode:lr-tb;direction:ltr;text-orientation:mixed;dominant-baseline:auto;baseline-shift:baseline;text-anchor:start;white-space:normal;shape-padding:0;shape-margin:0;inline-size:0;clip-rule:nonzero;display:inline;overflow:visible;visibility:visible;opacity:0.75;isolation:auto;mix-blend-mode:normal;color-interpolation:sRGB;color-interpolation-filters:linearRGB;solid-color:#000000;solid-opacity:1;vector-effect:none;fill:#351d72;fill-opacity:1;fill-rule:nonzero;stroke:none;stroke-linecap:round;stroke-linejoin:round;stroke-miterlimit:4;stroke-dasharray:none;stroke-dashoffset:2.1875;stroke-opacity:1;color-rendering:auto;image-rendering:auto;shape-rendering:auto;text-rendering:auto;enable-background:accumulate;stop-color:#000000"
       d="m 32.58833,13.50003 a 0.50005,0.50005 0 0 0 -0.17577,0.0312 c -5.04902,0.0801 -9.28637,3.41587 -10.29492,8.5 l 0.004,-0.0215 -0.15039,0.62305 c -0.14866,0.60573 0.23144,1.2345 0.83789,1.38281 l 3.8789,0.94726 c 0.60607,0.14874 1.23401,-0.22812 1.38282,-0.83593 l 0.15233,-0.62696 a 0.50005,0.50005 0 0 0 0.01,-0.0449 c 0.2122,-1.42039 0.76817,-2.39203 1.52344,-3.02734 0.75526,-0.63532 1.7298,-0.94531 2.83202,-0.94531 1.27641,0 2.34044,0.40771 3.09179,1.13867 0.75135,0.73096 1.21289,1.79863 1.21289,3.21679 0,2.04476 -0.82718,3.24883 -2.88085,4.66993 -1.64414,1.1167 -3.06824,2.29838 -4.03514,4.01367 -0.88003,1.56105 -1.31118,3.45898 -1.39651,5.89062 a 0.50005,0.50005 0 0 0 0,0.0176 v 0.64063 c 0,0.62449 0.51809,1.14258 1.14259,1.14257 h 3.88281 c 0.62442,0 1.14258,-0.51807 1.14258,-1.14257 v -0.6211 c 0.0744,-1.26508 0.28564,-2.13362 0.64649,-2.81445 0.43423,-0.81948 1.13411,-1.5361 2.45117,-2.45703 3.27052,-2.27071 5.21484,-5.30386 5.21484,-9.20508 0,-4.83442 -2.98323,-8.79417 -7.39258,-10.04883 -0.29221,-0.0831 -0.5908,-0.15727 -0.89844,-0.21679 C 34.07124,13.57155 33.34171,13.5 32.58865,13.5 Z m 0,1.00196 a 0.50005,0.50005 0 0 0 0.0117,0 c 0.68565,7.7e-4 1.34872,0.065 1.98047,0.1875 0.27625,0.0534 0.54642,0.11905 0.81446,0.19531 3.99459,1.13664 6.66601,4.66029 6.66601,9.08789 0,3.57759 -1.69939,6.24174 -4.78711,8.38477 -1.38159,0.96605 -2.23066,1.80834 -2.76172,2.81054 -0.45074,0.85048 -0.68492,1.87516 -0.76367,3.23047 a 0.50005,0.50005 0 0 0 0,0.0293 v 0.64258 c 0,0.0879 -0.0547,0.14257 -0.14258,0.14257 h -3.88281 c -0.0878,0 -0.14258,-0.0548 -0.14258,-0.14257 V 38.4473 c 0.0818,-2.33213 0.48885,-4.05223 1.26758,-5.43359 0.85809,-1.52227 2.1341,-2.59574 3.73047,-3.67969 a 0.50005,0.50005 0 0 0 0.002,-0.004 c 2.18439,-1.51156 3.3125,-3.15062 3.3125,-5.49219 0,-1.63986 -0.55774,-3.0017 -1.51562,-3.93359 -0.95789,-0.93189 -2.29638,-1.42187 -3.78907,-1.42187 -1.29254,0 -2.51601,0.37333 -3.47461,1.17968 -0.95857,0.80636 -1.63029,2.03472 -1.87109,3.64649 l -0.14258,0.58008 c -0.0206,0.084 -0.088,0.12457 -0.17383,0.10351 l -3.8789,-0.94922 c -0.0854,-0.0209 -0.12466,-0.0857 -0.10352,-0.17187 a 0.50005,0.50005 0 0 0 0,-0.002 l 0.15039,-0.62305 a 0.50005,0.50005 0 0 0 0.004,-0.0215 c 0.93328,-4.7047 4.79423,-7.72265 9.49023,-7.72265 z m -1.02539,28.14258 c -2.14076,0.0324 -3.86938,1.78678 -3.86915,3.92773 0,2.16369 1.76398,3.92773 3.92775,3.92773 2.16375,0 3.92773,-1.76404 3.92773,-3.92773 0,-2.16236 -1.76191,-3.92557 -3.92383,-3.92773 -0.0198,-1.5e-4 -0.0388,-1.5e-4 -0.0586,0 a 0.50005,0.50005 0 0 0 -0.004,0 z m 0.01,1 c 0.0148,-1.2e-4 0.0301,-1.2e-4 0.0449,0 a 0.50005,0.50005 0 0 0 0.004,0 c 1.62334,0 2.92773,1.30451 2.92773,2.92773 0,1.62322 -1.30439,2.92773 -2.92773,2.92773 -1.62333,0 -2.92774,-1.30451 -2.92774,-2.92773 -1.8e-4,-1.60422 1.2754,-2.90095 2.87892,-2.92773 z" />
    <path
       id="path2193-6-6-3-4-6-3"
       style="display:inline;mix-blend-mode:normal;fill:#fdfcfb;fill-opacity:1;stroke:none;stroke-width:0;stroke-linecap:round;stroke-linejoin:round;stroke-dashoffset:2.1875"
       d="m 32.58789,14.00171 c -4.91314,0 -9.0023,3.20043 -9.97935,8.12576 l -0.15067,0.6244 c -0.0849,0.34593 0.12448,0.69211 0.47042,0.77671 l 3.87891,0.94915 c 0.34594,0.0849 0.69377,-0.12445 0.77846,-0.47038 L 27.738,23.38132 c 0.453,-3.03216 2.45679,-4.39942 4.85156,-4.39942 2.76909,0 4.80302,1.79667 4.80302,4.85472 0,2.19315 -0.9764,3.61603 -3.09543,5.08236 -1.62103,1.10069 -2.97107,2.22915 -3.88394,3.84856 -0.82936,1.47121 -1.24901,3.2797 -1.33258,5.66159 v 0 0.64111 c 0,0.35612 0.28672,0.64283 0.64286,0.64283 h 3.88225 c 0.35614,0 0.64285,-0.28662 0.64285,-0.64283 v -0.64283 c 0.0763,-1.31308 0.29852,-2.26 0.70481,-3.0266 0.48265,-0.91084 1.25726,-1.68978 2.60659,-2.63327 3.17982,-2.20696 5.00056,-5.05545 5.00056,-8.79532 0,-4.63101 -2.82594,-8.37313 -7.0279,-9.56878 -0.28012,-0.0797 -0.5652,-0.14939 -0.85715,-0.20588 C 34.00823,14.06823 33.30943,14 32.58789,14 Z m -1.01786,29.14148 a 3.4285714,3.4284086 0 0 0 -3.37667,3.4284 3.4285714,3.4284086 0 0 0 3.42857,3.42841 3.4285714,3.4284086 0 0 0 3.42857,-3.42841 3.4285714,3.4284086 0 0 0 -3.42857,-3.4284 3.4285714,3.4284086 0 0 0 -0.0519,0 z" />
  </g>
</svg>
