<?xml version="1.0" encoding="UTF-8" standalone="no"?>
<svg
   xmlns:dc="http://purl.org/dc/elements/1.1/"
   xmlns:cc="http://creativecommons.org/ns#"
   xmlns:rdf="http://www.w3.org/1999/02/22-rdf-syntax-ns#"
   xmlns:svg="http://www.w3.org/2000/svg"
   xmlns="http://www.w3.org/2000/svg"
   xmlns:xlink="http://www.w3.org/1999/xlink"
   xmlns:sodipodi="http://sodipodi.sourceforge.net/DTD/sodipodi-0.dtd"
   xmlns:inkscape="http://www.inkscape.org/namespaces/inkscape"
   width="64"
   height="64"
   viewBox="0 0 16.933333 16.933334"
   version="1.1"
   id="svg841"
   inkscape:version="1.0.2 (e86c870879, 2021-01-15)"
   sodipodi:docname="mark-location.svg">
  <defs
     id="defs835">
    <linearGradient
       inkscape:collect="always"
       xlink:href="#linearGradient979"
       id="linearGradient1016"
       gradientUnits="userSpaceOnUse"
       gradientTransform="translate(9.5548518,-0.58959229)"
       x1="-5.373538"
       y1="16.509048"
       x2="-1.0886033"
       y2="1.6505156" />
    <linearGradient
       inkscape:collect="always"
       id="linearGradient979">
      <stop
         style="stop-color:#f9f9f7;stop-opacity:0"
         offset="0"
         id="stop975" />
      <stop
         style="stop-color:#f9f9f7;stop-opacity:0.2"
         offset="1"
         id="stop977" />
    </linearGradient>
  </defs>
  <sodipodi:namedview
     id="base"
     pagecolor="#c4c4c4"
     bordercolor="#666666"
     borderopacity="1.0"
     inkscape:pageopacity="0"
     inkscape:pageshadow="2"
     inkscape:zoom="2.8903394"
     inkscape:cx="46.372831"
     inkscape:cy="36.927888"
     inkscape:document-units="px"
     inkscape:current-layer="layer1"
     inkscape:document-rotation="0"
     showgrid="false"
     units="px"
     inkscape:window-width="2048"
     inkscape:window-height="1080"
     inkscape:window-x="0"
     inkscape:window-y="0"
     inkscape:window-maximized="1" />
  <metadata
     id="metadata838">
    <rdf:RDF>
      <cc:Work
         rdf:about="">
        <dc:format>image/svg+xml</dc:format>
        <dc:type
           rdf:resource="http://purl.org/dc/dcmitype/StillImage" />
        <dc:title></dc:title>
      </cc:Work>
    </rdf:RDF>
  </metadata>
  <g
     inkscape:label="Layer 1"
     inkscape:groupmode="layer"
     id="layer1">
    <path
       id="path1622-4-2-4-7-7-7-0-9"
       style="color:#000000;font-style:normal;font-variant:normal;font-weight:normal;font-stretch:normal;font-size:medium;line-height:normal;font-family:sans-serif;font-variant-ligatures:normal;font-variant-position:normal;font-variant-caps:normal;font-variant-numeric:normal;font-variant-alternates:normal;font-variant-east-asian:normal;font-feature-settings:normal;font-variation-settings:normal;text-indent:0;text-align:start;text-decoration:none;text-decoration-line:none;text-decoration-style:solid;text-decoration-color:#000000;letter-spacing:normal;word-spacing:normal;text-transform:none;writing-mode:lr-tb;direction:ltr;text-orientation:mixed;dominant-baseline:auto;baseline-shift:baseline;text-anchor:start;white-space:normal;shape-padding:0;shape-margin:0;inline-size:0;clip-rule:nonzero;display:inline;overflow:visible;visibility:visible;opacity:0.3;isolation:auto;mix-blend-mode:normal;color-interpolation:sRGB;color-interpolation-filters:linearRGB;solid-color:#000000;solid-opacity:1;vector-effect:none;fill:#221c1b;fill-opacity:1;fill-rule:nonzero;stroke:none;stroke-width:0;stroke-linecap:round;stroke-linejoin:round;stroke-miterlimit:4;stroke-dasharray:none;stroke-dashoffset:2.1875;stroke-opacity:1;color-rendering:auto;image-rendering:auto;shape-rendering:auto;text-rendering:auto;enable-background:accumulate;stop-color:#000000"
       d="m 8.4675712,1.0585639 c -2.39557,0 -4.427446,1.767506 -4.780641,4.11661 -0.01216,0.0518 -0.02334,0.105017 -0.02739,0.158112 -0.01708,0.212176 -0.02766,0.427944 -0.02945,0.648468 -0.01159,1.546324 0.348596,3.264486 0.974523,4.9526431 0.70402,1.898765 1.750665,3.754177 3.013478,5.28075 a 0.39687628,0.39687118 0 0 0 0.03927,0.05839 0.39687628,0.39687118 0 0 0 0.0057,0.0057 0.39687628,0.39687118 0 0 0 0.0021,0.0041 0.39687628,0.39687118 0 0 0 0.0098,0.01188 c 0.09575,0.114204 0.214592,0.205451 0.349299,0.269206 a 0.39687628,0.39687118 0 0 0 0.0041,0.0021 c 0.01603,0.0074 0.03063,0.01513 0.04702,0.0217 0.01344,0.0056 0.02716,0.01048 0.04082,0.0155 a 0.39687628,0.39687118 0 0 0 0.0021,0 c 0.01165,0.0043 0.02335,0.008 0.03514,0.01189 0.0025,8.73e-4 0.0052,0.0028 0.0078,0.0036 0.0012,3.74e-4 0.0024,-3.71e-4 0.0036,0 a 0.39687628,0.39687118 0 0 0 0.01757,0.0057 c 0.0098,0.0027 0.01963,0.0059 0.02945,0.0083 0.0042,0.0011 0.0077,0.0025 0.01188,0.0036 0.0089,0.0023 0.01841,0.0036 0.02739,0.0057 0.005,0.0012 0.01046,0.003 0.0155,0.0041 a 0.39687628,0.39687118 0 0 0 0.01188,0.0021 c 0.01143,0.0021 0.02157,0.0039 0.03307,0.0057 0.006,10e-4 0.01157,0.0032 0.01757,0.0041 a 0.39687628,0.39687118 0 0 0 0.02325,0.0015 c 0.0067,6.06e-4 0.01292,0.0016 0.01964,0.0021 0.0071,6.78e-4 0.01458,0.0015 0.0217,0.0021 a 0.39687628,0.39687118 0 0 0 0.0155,0.0021 c 0.0061,3.41e-4 0.01348,-2.29e-4 0.01964,0 0.007,4.45e-4 0.0142,0.0018 0.02118,0.0021 a 0.39687628,0.39687118 0 0 0 0.03359,0 c 0.0072,-2.94e-4 0.014,-0.0016 0.02118,-0.0021 h 0.0078 c 0.0037,-1.63e-4 0.0082,2.06e-4 0.01188,0 a 0.39687628,0.39687118 0 0 0 0.0155,-0.0021 c 6.41e-4,-4.8e-5 0.0014,4.7e-5 0.0021,0 0.005,-5.06e-4 0.0084,-0.0015 0.01344,-0.0021 0.0071,-6.37e-4 0.0146,-0.0013 0.0217,-0.0021 0.0013,-1.06e-4 0.0024,1.11e-4 0.0036,0 a 0.39687628,0.39687118 0 0 0 0.02377,-0.0015 c 0.0031,-4.63e-4 0.0067,-0.0016 0.0098,-0.0021 0.0098,-0.0013 0.01917,-0.0026 0.02894,-0.0041 a 0.39687628,0.39687118 0 0 0 0.0062,-0.0016 c 0.0069,-0.0012 0.01271,-0.0028 0.01964,-0.0041 0.0059,-0.0011 0.01171,-0.0029 0.01757,-0.0041 a 0.39687628,0.39687118 0 0 0 0.01757,-0.0016 c 0.0067,-0.0016 0.01251,-0.0044 0.01912,-0.0062 l 0.01188,-0.0036 c 0.0076,-0.002 0.0157,-0.004 0.02325,-0.0062 a 0.39687628,0.39687118 0 0 0 0.0083,-0.0016 c 0.01664,-0.0052 0.03429,-0.01156 0.05064,-0.01757 0.01357,-0.005 0.02541,-0.01047 0.03875,-0.01602 l 0.0083,-0.0036 c 0.01366,-0.0056 0.02741,-0.01138 0.04082,-0.01757 a 0.39687628,0.39687118 0 0 0 0.0021,0 c 0.01585,-0.0074 0.03105,-0.01554 0.0465,-0.02377 a 0.39687628,0.39687118 0 0 0 0.0041,-0.0016 c 0.02928,-0.01598 0.05818,-0.03398 0.08578,-0.0527 l 0.0041,-0.0021 c 0.04312,-0.02908 0.08264,-0.06242 0.1209106,-0.09766 a 0.39687628,0.39687118 0 0 0 0.0057,-0.0041 c 0.01,-0.0095 0.01988,-0.01908 0.02945,-0.02894 l 0.0078,-0.0078 c 0.01529,-0.01567 0.03069,-0.03249 0.04495,-0.04908 a 0.39687628,0.39687118 0 0 0 0.0021,-0.0021 c 0.01493,-0.01757 0.01835,-0.02423 0.0217,-0.02894 C 10.56119,14.734337 11.617387,12.85476 12.32869,10.936308 12.95461,9.2481689 13.314723,7.5299559 13.303213,5.9836659 a 0.39687628,0.39687118 0 0 0 0,-0.0021 c -0.0027,-0.218134 -0.01156,-0.43262 -0.02894,-0.646401 v -0.0021 c -0.0041,-0.05198 -0.01344,-0.103231 -0.02532,-0.153978 -0.34554,-2.296759 -2.304938,-4.014928 -4.6307948,-4.091287 a 0.39687628,0.39687118 0 0 0 -0.150364,-0.02946 z m -0.0077,0.796764 a 0.39687628,0.39687118 0 0 0 0.0057,0 c 2.0097938,0 3.7115808,1.482088 4.0019528,3.452639 a 0.39687628,0.39687118 0 0 0 0.0078,0.04496 c 0.0038,0.0142 0.0066,0.02824 0.0078,0.04288 a 0.39687628,0.39687118 0 0 0 0,0.0021 c 0.01565,0.191915 0.02487,0.389067 0.02739,0.593697 0.01027,1.417312 -0.327066,3.052192 -0.925952,4.6674191 -0.682734,1.841402 -1.7056972,3.657871 -2.9235698,5.114888 a 0.39687628,0.39687118 0 0 0 -0.0057,0.0093 l -0.0021,0.0021 c -5.58e-4,6.35e-4 -9.86e-4,0.0014 -0.0016,0.0021 a 0.39687628,0.39687118 0 0 0 -0.0041,0.0057 c -0.0014,0.0015 -0.0042,0.0026 -0.0057,0.0041 a 0.39687628,0.39687118 0 0 0 -0.0062,0.0057 c -0.0012,0.0013 -0.0024,0.0029 -0.0036,0.0041 -0.0091,0.0084 -0.01914,0.01637 -0.02945,0.02326 a 0.39687628,0.39687118 0 0 0 -0.0041,0.0021 c -0.0054,0.0037 -0.0098,0.0086 -0.0155,0.01189 -0.0036,0.0019 -0.0077,0.004 -0.01137,0.0057 -0.003,0.0013 -0.0068,0.0029 -0.0098,0.0041 a 0.39687628,0.39687118 0 0 0 -0.0077,0.0016 c -0.0037,0.0016 -0.0081,0.0048 -0.01188,0.0062 -6.55e-4,2.4e-4 -0.0014,-2.36e-4 -0.0021,0 -0.0026,7.62e-4 -0.0051,0.0029 -0.0078,0.0036 a 0.39687628,0.39687118 0 0 0 -0.0021,0 c -5.44e-4,1.09e-4 -0.0015,-1.08e-4 -0.0021,0 l -0.0093,0.0021 c -0.0023,3.6e-4 -0.0039,0.0018 -0.0062,0.0021 a 0.39687628,0.39687118 0 0 0 -0.0057,0 l -0.01188,0.0021 c -9.45e-4,1.64e-4 -0.0027,-1.56e-4 -0.0036,0 -0.0012,1.33e-4 -0.0029,0.0014 -0.0041,0.0015 -0.0011,1.06e-4 -0.0025,-8.7e-5 -0.0036,0 h -0.0062 a 0.39687628,0.39687118 0 0 0 -0.0021,0 0.39687628,0.39687118 0 0 0 -0.0078,0 0.39687628,0.39687118 0 0 0 -0.0021,0 0.39687628,0.39687118 0 0 0 -0.0077,0 h -0.0098 c -0.0015,-1.38e-4 -0.0021,-0.0014 -0.0036,-0.0015 -0.0012,-1.93e-4 -0.0029,2.09e-4 -0.0041,0 a 0.39687628,0.39687118 0 0 0 -0.0057,-0.0021 0.39687628,0.39687118 0 0 0 -0.0041,0 c -6.67e-4,-1e-4 -8.84e-4,1.09e-4 -0.0016,0 h -0.0062 a 0.39687628,0.39687118 0 0 0 0,-0.0021 c -0.0024,-6.17e-4 -0.0054,-0.0014 -0.0077,-0.0021 a 0.39687628,0.39687118 0 0 0 -0.0036,0 0.39687628,0.39687118 0 0 0 -0.0062,-0.0021 0.39687628,0.39687118 0 0 0 -0.0036,-0.0016 c -0.0031,-9.58e-4 -0.0068,-9.87e-4 -0.0098,-0.0021 h -0.0021 c -0.0033,-0.0012 -0.0066,-0.0043 -0.0098,-0.0057 a 0.39687628,0.39687118 0 0 0 -0.0077,-0.0021 c -0.0025,-10e-4 -0.0053,-0.003 -0.0078,-0.0041 l -0.0041,-0.0021 c -0.02838,-0.01407 -0.05311,-0.0345 -0.07389,-0.05838 -3.41e-4,-3.94e-4 -0.0017,3.95e-4 -0.0021,0 a 0.39687628,0.39687118 0 0 0 -0.01188,-0.01757 C 7.0548573,14.312814 6.0314683,12.497882 5.3488823,10.656924 4.7497603,9.0410629 4.4148873,7.4051169 4.4255143,5.9874369 c 0.0016,-0.202229 0.0097,-0.400136 0.02532,-0.593696 0.0012,-0.01519 0.0037,-0.03026 0.0077,-0.04495 a 0.39687628,0.39687118 0 0 0 0.0098,-0.04651 c 0.291145,-1.966322 1.986455,-3.442875 3.991617,-3.446953 z" />
    <path
       id="path1622-4-2-4-7-7-7-0"
       style="color:#000000;font-style:normal;font-variant:normal;font-weight:normal;font-stretch:normal;font-size:medium;line-height:normal;font-family:sans-serif;font-variant-ligatures:normal;font-variant-position:normal;font-variant-caps:normal;font-variant-numeric:normal;font-variant-alternates:normal;font-variant-east-asian:normal;font-feature-settings:normal;font-variation-settings:normal;text-indent:0;text-align:start;text-decoration:none;text-decoration-line:none;text-decoration-style:solid;text-decoration-color:#000000;letter-spacing:normal;word-spacing:normal;text-transform:none;writing-mode:lr-tb;direction:ltr;text-orientation:mixed;dominant-baseline:auto;baseline-shift:baseline;text-anchor:start;white-space:normal;shape-padding:0;shape-margin:0;inline-size:0;clip-rule:nonzero;display:inline;overflow:visible;visibility:visible;opacity:0.85;isolation:auto;mix-blend-mode:normal;color-interpolation:sRGB;color-interpolation-filters:linearRGB;solid-color:#000000;solid-opacity:1;vector-effect:none;fill:#a22044;fill-opacity:1;fill-rule:nonzero;stroke:none;stroke-width:0;stroke-linecap:round;stroke-linejoin:round;stroke-miterlimit:4;stroke-dasharray:none;stroke-dashoffset:2.1875;stroke-opacity:1;color-rendering:auto;image-rendering:auto;shape-rendering:auto;text-rendering:auto;enable-background:accumulate;stop-color:#000000"
       d="m 8.4675712,0.66168246 c -2.39557,0 -4.427446,1.76750604 -4.780641,4.11661004 -0.01216,0.0518 -0.02334,0.105017 -0.02739,0.158112 -0.01708,0.212176 -0.02766,0.427944 -0.02945,0.648468 -0.01159,1.546324 0.348596,3.264486 0.974523,4.9526435 0.70402,1.898765 1.750665,3.754177 3.013478,5.28075 a 0.39687628,0.39687118 0 0 0 0.03927,0.05839 0.39687628,0.39687118 0 0 0 0.0057,0.0057 0.39687628,0.39687118 0 0 0 0.0021,0.0041 0.39687628,0.39687118 0 0 0 0.0098,0.01188 c 0.09575,0.114204 0.214592,0.205451 0.349299,0.269206 a 0.39687628,0.39687118 0 0 0 0.0041,0.0021 c 0.01603,0.0074 0.03063,0.01513 0.04702,0.0217 0.01344,0.0056 0.02716,0.01048 0.04082,0.0155 a 0.39687628,0.39687118 0 0 0 0.0021,0 c 0.01165,0.0043 0.02335,0.008 0.03514,0.01189 0.0025,8.73e-4 0.0052,0.0028 0.0078,0.0036 0.0012,3.74e-4 0.0024,-3.71e-4 0.0036,0 a 0.39687628,0.39687118 0 0 0 0.01757,0.0057 c 0.0098,0.0027 0.01963,0.0059 0.02945,0.0083 0.0042,0.0011 0.0077,0.0025 0.01188,0.0036 0.0089,0.0023 0.01841,0.0036 0.02739,0.0057 0.005,0.0012 0.01046,0.003 0.0155,0.0041 a 0.39687628,0.39687118 0 0 0 0.01188,0.0021 c 0.01143,0.0021 0.02157,0.0039 0.03307,0.0057 0.006,10e-4 0.01157,0.0032 0.01757,0.0041 a 0.39687628,0.39687118 0 0 0 0.02325,0.0015 c 0.0067,6.06e-4 0.01292,0.0016 0.01964,0.0021 0.0071,6.78e-4 0.01458,0.0015 0.0217,0.0021 a 0.39687628,0.39687118 0 0 0 0.0155,0.0021 c 0.0061,3.41e-4 0.01348,-2.29e-4 0.01964,0 0.007,4.45e-4 0.0142,0.0018 0.02118,0.0021 a 0.39687628,0.39687118 0 0 0 0.03359,0 c 0.0072,-2.94e-4 0.014,-0.0016 0.02118,-0.0021 h 0.0078 c 0.0037,-1.63e-4 0.0082,2.06e-4 0.01188,0 a 0.39687628,0.39687118 0 0 0 0.0155,-0.0021 c 6.41e-4,-4.8e-5 0.0014,4.7e-5 0.0021,0 0.005,-5.06e-4 0.0084,-0.0015 0.01344,-0.0021 0.0071,-6.37e-4 0.0146,-0.0013 0.0217,-0.0021 0.0013,-1.06e-4 0.0024,1.11e-4 0.0036,0 a 0.39687628,0.39687118 0 0 0 0.02377,-0.0015 c 0.0031,-4.63e-4 0.0067,-0.0016 0.0098,-0.0021 0.0098,-0.0013 0.01917,-0.0026 0.02894,-0.0041 a 0.39687628,0.39687118 0 0 0 0.0062,-0.0016 c 0.0069,-0.0012 0.01271,-0.0028 0.01964,-0.0041 0.0059,-0.0011 0.01171,-0.0029 0.01757,-0.0041 a 0.39687628,0.39687118 0 0 0 0.01757,-0.0016 c 0.0067,-0.0016 0.01251,-0.0044 0.01912,-0.0062 l 0.01188,-0.0036 c 0.0076,-0.002 0.0157,-0.004 0.02325,-0.0062 a 0.39687628,0.39687118 0 0 0 0.0083,-0.0016 c 0.01664,-0.0052 0.03429,-0.01156 0.05064,-0.01757 0.01357,-0.005 0.02541,-0.01047 0.03875,-0.01602 l 0.0083,-0.0036 c 0.01366,-0.0056 0.02741,-0.01138 0.04082,-0.01757 a 0.39687628,0.39687118 0 0 0 0.0021,0 c 0.01585,-0.0074 0.03105,-0.01554 0.0465,-0.02377 a 0.39687628,0.39687118 0 0 0 0.0041,-0.0016 c 0.02928,-0.01598 0.05818,-0.03398 0.08578,-0.0527 l 0.0041,-0.0021 c 0.04312,-0.02908 0.08264,-0.06242 0.1209106,-0.09766 a 0.39687628,0.39687118 0 0 0 0.0057,-0.0041 c 0.01,-0.0095 0.01988,-0.01908 0.02945,-0.02894 l 0.0078,-0.0078 c 0.01529,-0.01567 0.03069,-0.03249 0.04495,-0.04908 a 0.39687628,0.39687118 0 0 0 0.0021,-0.0021 c 0.01493,-0.01757 0.01835,-0.02423 0.0217,-0.02894 1.2805992,-1.535426 2.3367962,-3.415003 3.0480992,-5.333455 0.62592,-1.6881395 0.986033,-3.4063525 0.974523,-4.9526425 a 0.39687628,0.39687118 0 0 0 0,-0.0021 c -0.0027,-0.218134 -0.01156,-0.43262 -0.02894,-0.646401 v -0.0021 c -0.0041,-0.05198 -0.01344,-0.103231 -0.02532,-0.153978 -0.34554,-2.296759 -2.304938,-4.01492804 -4.6307947,-4.09128704 a 0.39687628,0.39687118 0 0 0 -0.150364,-0.02946 z m -0.0077,0.79676404 a 0.39687628,0.39687118 0 0 0 0.0057,0 c 2.0097938,0 3.7115808,1.482088 4.0019528,3.452639 a 0.39687628,0.39687118 0 0 0 0.0078,0.04496 c 0.0038,0.0142 0.0066,0.02824 0.0078,0.04288 a 0.39687628,0.39687118 0 0 0 0,0.0021 c 0.01565,0.191915 0.02487,0.389067 0.02739,0.593697 0.01027,1.417312 -0.327066,3.052192 -0.925952,4.6674195 -0.682734,1.841402 -1.7056972,3.657871 -2.9235698,5.114888 a 0.39687628,0.39687118 0 0 0 -0.0057,0.0093 l -0.0021,0.0021 c -5.58e-4,6.35e-4 -9.86e-4,0.0014 -0.0016,0.0021 a 0.39687628,0.39687118 0 0 0 -0.0041,0.0057 c -0.0014,0.0015 -0.0042,0.0026 -0.0057,0.0041 a 0.39687628,0.39687118 0 0 0 -0.0062,0.0057 c -0.0012,0.0013 -0.0024,0.0029 -0.0036,0.0041 -0.0091,0.0084 -0.01914,0.01637 -0.02945,0.02326 a 0.39687628,0.39687118 0 0 0 -0.0041,0.0021 c -0.0054,0.0037 -0.0098,0.0086 -0.0155,0.01189 -0.0036,0.0019 -0.0077,0.004 -0.01137,0.0057 -0.003,0.0013 -0.0068,0.0029 -0.0098,0.0041 a 0.39687628,0.39687118 0 0 0 -0.0077,0.0016 c -0.0037,0.0016 -0.0081,0.0048 -0.01188,0.0062 -6.55e-4,2.4e-4 -0.0014,-2.36e-4 -0.0021,0 -0.0026,7.62e-4 -0.0051,0.0029 -0.0078,0.0036 a 0.39687628,0.39687118 0 0 0 -0.0021,0 c -5.44e-4,1.09e-4 -0.0015,-1.08e-4 -0.0021,0 l -0.0093,0.0021 c -0.0023,3.6e-4 -0.0039,0.0018 -0.0062,0.0021 a 0.39687628,0.39687118 0 0 0 -0.0057,0 l -0.01188,0.0021 c -9.45e-4,1.64e-4 -0.0027,-1.56e-4 -0.0036,0 -0.0012,1.33e-4 -0.0029,0.0014 -0.0041,0.0015 -0.0011,1.06e-4 -0.0025,-8.7e-5 -0.0036,0 h -0.0062 a 0.39687628,0.39687118 0 0 0 -0.0021,0 0.39687628,0.39687118 0 0 0 -0.0078,0 0.39687628,0.39687118 0 0 0 -0.0021,0 0.39687628,0.39687118 0 0 0 -0.0077,0 h -0.0098 c -0.0015,-1.38e-4 -0.0021,-0.0014 -0.0036,-0.0015 -0.0012,-1.93e-4 -0.0029,2.09e-4 -0.0041,0 a 0.39687628,0.39687118 0 0 0 -0.0057,-0.0021 0.39687628,0.39687118 0 0 0 -0.0041,0 c -6.67e-4,-10e-5 -8.84e-4,1.09e-4 -0.0016,0 h -0.0062 a 0.39687628,0.39687118 0 0 0 0,-0.0021 c -0.0024,-6.17e-4 -0.0054,-0.0014 -0.0077,-0.0021 a 0.39687628,0.39687118 0 0 0 -0.0036,0 0.39687628,0.39687118 0 0 0 -0.0062,-0.0021 0.39687628,0.39687118 0 0 0 -0.0036,-0.0016 c -0.0031,-9.58e-4 -0.0068,-9.87e-4 -0.0098,-0.0021 h -0.0021 c -0.0033,-0.0012 -0.0066,-0.0043 -0.0098,-0.0057 a 0.39687628,0.39687118 0 0 0 -0.0077,-0.0021 c -0.0025,-0.001 -0.0053,-0.003 -0.0078,-0.0041 l -0.0041,-0.0021 c -0.02838,-0.01407 -0.05311,-0.0345 -0.07389,-0.05838 -3.41e-4,-3.94e-4 -0.0017,3.95e-4 -0.0021,0 a 0.39687628,0.39687118 0 0 0 -0.01188,-0.01757 C 7.0548573,13.915933 6.0314683,12.101001 5.3488823,10.260043 4.7497603,8.6441815 4.4148873,7.0082355 4.4255143,5.5905555 c 0.0016,-0.202229 0.0097,-0.400136 0.02532,-0.593696 0.0012,-0.01519 0.0037,-0.03026 0.0077,-0.04495 a 0.39687628,0.39687118 0 0 0 0.0098,-0.04651 c 0.291145,-1.966322 1.986455,-3.442875 3.991617,-3.446953 z" />
    <path
       id="path1622-4-2-4-7-9"
       style="display:inline;fill:#d53460;fill-opacity:1;stroke:none;stroke-width:0;stroke-linecap:round;stroke-linejoin:round;stroke-miterlimit:4;stroke-dasharray:none;stroke-dashoffset:2.1875;stroke-opacity:1"
       d="m 8.4667773,1.0609237 c 2.2039877,2.56e-4 4.0713747,1.626591 4.3914637,3.788399 a 0.63660371,0.63649163 0 0 1 0.02067,0.119373 c 0.0164,0.203197 0.02567,0.410451 0.02739,0.622184 0.01111,1.482164 -0.336713,3.158885 -0.949297,4.8110753 -0.697929,1.882365 -1.739646,3.732791 -2.9910317,5.230172 a 0.63660371,0.63649171 0 0 1 0,0.0021 c -0.0034,0.004 -0.0069,0.0082 -0.01033,0.01292 a 0.63660371,0.63649163 0 0 1 -0.215491,0.166398 0.63660371,0.63649163 0 0 1 -0.02997,0.01292 0.63660371,0.63649163 0 0 1 -0.02997,0.01188 0.63660371,0.63649163 0 0 1 -0.02894,0.0098 0.63660371,0.63649171 0 0 1 -0.0047,0.0016 0.63660371,0.63649163 0 0 1 -0.01809,0.0047 0.63660371,0.63649171 0 0 1 -0.01912,0.0052 0.63660371,0.63649163 0 0 1 -0.01654,0.0041 0.63660371,0.63649171 0 0 1 -0.0093,0.0021 0.63660371,0.63649163 0 0 1 -0.02119,0.0036 0.63660371,0.63649171 0 0 1 -0.01602,0.0026 0.63660371,0.63649163 0 0 1 -0.0124,10e-4 0.63660371,0.63649171 0 0 1 -0.02274,0.0021 0.63660371,0.63649163 0 0 1 -0.0093,10e-4 0.63660371,0.63649171 0 0 1 -0.01137,5.29e-4 0.63660371,0.63649163 0 0 1 -0.0062,0 0.63660371,0.63649163 0 0 1 -0.01757,0.001 V 1.0635077 c 1.73e-4,0 3.44e-4,0 5.29e-4,0 l -5.29e-4,-0.0016 z" />
    <path
       id="path1622-4-2-4-7-5-2"
       style="display:inline;fill:#d53460;fill-opacity:1;stroke:none;stroke-width:0;stroke-linecap:round;stroke-linejoin:round;stroke-miterlimit:4;stroke-dasharray:none;stroke-dashoffset:2.1875;stroke-opacity:1"
       d="m 8.4667223,1.0583397 c -2.203988,2.56e-4 -4.071375,1.626591 -4.391463,3.788399 a 0.63660371,0.63649163 0 0 0 -0.02067,0.119373 c -0.0164,0.203197 -0.02567,0.410451 -0.02739,0.622184 -0.01111,1.482164 0.336712,3.158885 0.949296,4.8110753 0.697929,1.882364 1.739647,3.732791 2.991032,5.230172 a 0.63660371,0.63649171 0 0 0 0,0.0021 c 0.0034,0.004 0.0069,0.0082 0.01034,0.01292 a 0.63660371,0.63649163 0 0 0 0.21549,0.166398 0.63660371,0.63649163 0 0 0 0.02997,0.01292 0.63660371,0.63649163 0 0 0 0.02997,0.01188 0.63660371,0.63649163 0 0 0 0.02894,0.0098 0.63660371,0.63649171 0 0 0 0.0047,0.0016 0.63660371,0.63649163 0 0 0 0.01809,0.0047 0.63660371,0.63649171 0 0 0 0.01912,0.0052 0.63660371,0.63649163 0 0 0 0.01654,0.0041 0.63660371,0.63649171 0 0 0 0.0093,0.0021 0.63660371,0.63649163 0 0 0 0.02119,0.0036 0.63660371,0.63649171 0 0 0 0.01602,0.0026 0.63660371,0.63649163 0 0 0 0.0124,0.001 0.63660371,0.63649171 0 0 0 0.02274,0.0021 0.63660371,0.63649163 0 0 0 0.0093,0.001 0.63660371,0.63649171 0 0 0 0.01137,5.29e-4 0.63660371,0.63649163 0 0 0 0.0062,0 0.63660371,0.63649163 0 0 0 0.01757,10e-4 V 1.0609237 c -1.74e-4,0 -3.44e-4,0 -5.291e-4,0 l 5.291e-4,-0.0016 z" />
    <path
       id="path1622-4-2-4-7-5-3-1"
       style="display:inline;fill:url(#linearGradient1016);fill-opacity:1;stroke:none;stroke-width:0;stroke-linecap:round;stroke-linejoin:round;stroke-miterlimit:4;stroke-dasharray:none;stroke-dashoffset:2.1875;stroke-opacity:1"
       d="m 8.4667223,1.0583397 c -2.203988,2.56e-4 -4.071375,1.626591 -4.391463,3.788399 a 0.63660371,0.63649163 0 0 0 -0.02067,0.119373 c -0.0164,0.203197 -0.02567,0.410451 -0.02739,0.622184 -0.01111,1.482164 0.336712,3.158885 0.949296,4.8110753 0.697929,1.882364 1.739647,3.732791 2.991032,5.230172 a 0.63660371,0.63649171 0 0 0 0,0.0021 c 0.0034,0.004 0.0069,0.0082 0.01034,0.01292 a 0.63660371,0.63649163 0 0 0 0.21549,0.166398 0.63660371,0.63649163 0 0 0 0.02997,0.01292 0.63660371,0.63649163 0 0 0 0.02997,0.01188 0.63660371,0.63649163 0 0 0 0.02894,0.0098 0.63660371,0.63649171 0 0 0 0.0047,0.0016 0.63660371,0.63649163 0 0 0 0.01809,0.0047 0.63660371,0.63649171 0 0 0 0.01912,0.0052 0.63660371,0.63649163 0 0 0 0.01654,0.0041 0.63660371,0.63649171 0 0 0 0.0093,0.0021 0.63660371,0.63649163 0 0 0 0.02119,0.0036 0.63660371,0.63649171 0 0 0 0.01602,0.0026 0.63660371,0.63649163 0 0 0 0.0124,0.001 0.63660371,0.63649171 0 0 0 0.02274,0.0021 0.63660371,0.63649163 0 0 0 0.0093,0.001 0.63660371,0.63649171 0 0 0 0.01137,5.29e-4 0.63660371,0.63649163 0 0 0 0.0062,0 0.63660371,0.63649163 0 0 0 0.01757,10e-4 V 1.0609237 c -1.74e-4,0 -3.44e-4,0 -5.291e-4,0 l 5.291e-4,-0.0016 z" />
  </g>
</svg>
