<?xml version="1.0" encoding="UTF-8" standalone="no"?>
<svg
   xmlns:dc="http://purl.org/dc/elements/1.1/"
   xmlns:cc="http://creativecommons.org/ns#"
   xmlns:rdf="http://www.w3.org/1999/02/22-rdf-syntax-ns#"
   xmlns:svg="http://www.w3.org/2000/svg"
   xmlns="http://www.w3.org/2000/svg"
   xmlns:xlink="http://www.w3.org/1999/xlink"
   xmlns:sodipodi="http://sodipodi.sourceforge.net/DTD/sodipodi-0.dtd"
   xmlns:inkscape="http://www.inkscape.org/namespaces/inkscape"
   width="64"
   height="64"
   viewBox="0 0 16.933333 16.933334"
   version="1.1"
   id="svg841"
   inkscape:version="1.0.2 (e86c870879, 2021-01-15)"
   sodipodi:docname="view-calendar-week.svg">
  <defs
     id="defs835">
    <linearGradient
       inkscape:collect="always"
       id="linearGradient1338-8">
      <stop
         style="stop-color:#fdfdfa;stop-opacity:0.44999999"
         offset="0"
         id="stop1334-9" />
      <stop
         style="stop-color:#fdfdfa;stop-opacity:0;"
         offset="1"
         id="stop1336-0" />
    </linearGradient>
    <linearGradient
       inkscape:collect="always"
       xlink:href="#linearGradient1338-8"
       id="linearGradient892"
       gradientUnits="userSpaceOnUse"
       x1="8.2020836"
       y1="1.3229167"
       x2="8.2029152"
       y2="5.0272117" />
  </defs>
  <sodipodi:namedview
     id="base"
     pagecolor="#c4c4c4"
     bordercolor="#666666"
     borderopacity="1.0"
     inkscape:pageopacity="0"
     inkscape:pageshadow="2"
     inkscape:zoom="3.4064179"
     inkscape:cx="3.7431478"
     inkscape:cy="56.572311"
     inkscape:document-units="px"
     inkscape:current-layer="layer1"
     inkscape:document-rotation="0"
     showgrid="false"
     units="px"
     inkscape:window-width="2048"
     inkscape:window-height="1080"
     inkscape:window-x="0"
     inkscape:window-y="0"
     inkscape:window-maximized="1" />
  <metadata
     id="metadata838">
    <rdf:RDF>
      <cc:Work
         rdf:about="">
        <dc:format>image/svg+xml</dc:format>
        <dc:type
           rdf:resource="http://purl.org/dc/dcmitype/StillImage" />
        <dc:title />
      </cc:Work>
    </rdf:RDF>
  </metadata>
  <g
     inkscape:label="Layer 1"
     inkscape:groupmode="layer"
     id="layer1">
    <path
       id="rect848-6-3-6-7-0-9-3-9-1-6-6-7-9-5-6-6-0"
       style="color:#000000;font-style:normal;font-variant:normal;font-weight:normal;font-stretch:normal;font-size:medium;line-height:normal;font-family:sans-serif;font-variant-ligatures:normal;font-variant-position:normal;font-variant-caps:normal;font-variant-numeric:normal;font-variant-alternates:normal;font-variant-east-asian:normal;font-feature-settings:normal;font-variation-settings:normal;text-indent:0;text-align:start;text-decoration:none;text-decoration-line:none;text-decoration-style:solid;text-decoration-color:#000000;letter-spacing:normal;word-spacing:normal;text-transform:none;writing-mode:lr-tb;direction:ltr;text-orientation:mixed;dominant-baseline:auto;baseline-shift:baseline;text-anchor:start;white-space:normal;shape-padding:0;shape-margin:0;inline-size:0;clip-rule:nonzero;display:inline;overflow:visible;visibility:visible;opacity:0.25;isolation:auto;mix-blend-mode:normal;color-interpolation:sRGB;color-interpolation-filters:linearRGB;solid-color:#000000;solid-opacity:1;vector-effect:none;fill:#0c0c0c;fill-opacity:1;fill-rule:nonzero;stroke:none;stroke-width:0;stroke-linecap:round;stroke-linejoin:round;stroke-miterlimit:4;stroke-dasharray:none;stroke-dashoffset:2.1875;stroke-opacity:1;paint-order:normal;color-rendering:auto;image-rendering:auto;shape-rendering:auto;text-rendering:auto;enable-background:accumulate;stop-color:#000000"
       d="m 1.3224013,5.1594013 a 0.26460982,0.26463435 0 0 0 -0.264068,0.264081 v 8.9966537 c 0,1.021583 0.830088,1.851739 1.851567,1.851739 H 14.023435 c 1.021477,0 1.851565,-0.830156 1.851565,-1.851739 V 5.4234823 a 0.26460982,0.26463435 0 0 0 -0.265615,-0.264081 z m 0.265618,0.529722 H 15.345836 v 8.7310127 c 0,0.737553 -0.58493,1.32252 -1.322401,1.322546 H 2.9099013 c -0.737473,0 -1.321883,-0.584993 -1.321883,-1.322546 z" />
    <path
       id="rect848-6-3-7-5-6-0-6-5-4-1-7-4-2-6-5-1-8"
       style="color:#000000;font-style:normal;font-variant:normal;font-weight:normal;font-stretch:normal;font-size:medium;line-height:normal;font-family:sans-serif;font-variant-ligatures:normal;font-variant-position:normal;font-variant-caps:normal;font-variant-numeric:normal;font-variant-alternates:normal;font-variant-east-asian:normal;font-feature-settings:normal;font-variation-settings:normal;text-indent:0;text-align:start;text-decoration:none;text-decoration-line:none;text-decoration-style:solid;text-decoration-color:#000000;letter-spacing:normal;word-spacing:normal;text-transform:none;writing-mode:lr-tb;direction:ltr;text-orientation:mixed;dominant-baseline:auto;baseline-shift:baseline;text-anchor:start;white-space:normal;shape-padding:0;shape-margin:0;inline-size:0;clip-rule:nonzero;display:inline;overflow:visible;visibility:visible;isolation:auto;mix-blend-mode:normal;color-interpolation:sRGB;color-interpolation-filters:linearRGB;solid-color:#000000;solid-opacity:1;vector-effect:none;fill:#3a3a41;fill-opacity:1;fill-rule:nonzero;stroke:none;stroke-width:0.999897;stroke-linecap:round;stroke-linejoin:round;stroke-miterlimit:4;stroke-dasharray:none;stroke-dashoffset:2.1875;stroke-opacity:1;color-rendering:auto;image-rendering:auto;shape-rendering:auto;text-rendering:auto;enable-background:accumulate;stop-color:#000000"
       d="m 2.9099643,1.0583333 c -1.021511,0 -1.851628,0.831956 -1.851628,1.853195 v 2.114603 a 0.26461898,0.26454505 0 0 0 0.265626,0.265535 H 15.611438 a 0.26461898,0.26454505 0 0 0 0.263559,-0.265535 v -2.114603 c 0,-1.021239 -0.830117,-1.853195 -1.851631,-1.853195 z m 0,0.529563 H 14.023366 c 0.7375,0 1.322446,0.586344 1.322446,1.323632 v 1.851104 H 1.5875213 v -1.851104 c 0,-0.737288 0.584946,-1.323632 1.322443,-1.323632 z" />
    <path
       id="rect848-6-3-6-7-0-9-2-0-4-8-4-1-29-6-5-8"
       style="color:#000000;font-style:normal;font-variant:normal;font-weight:normal;font-stretch:normal;font-size:medium;line-height:normal;font-family:sans-serif;font-variant-ligatures:normal;font-variant-position:normal;font-variant-caps:normal;font-variant-numeric:normal;font-variant-alternates:normal;font-variant-east-asian:normal;font-feature-settings:normal;font-variation-settings:normal;text-indent:0;text-align:start;text-decoration:none;text-decoration-line:none;text-decoration-style:solid;text-decoration-color:#000000;letter-spacing:normal;word-spacing:normal;text-transform:none;writing-mode:lr-tb;direction:ltr;text-orientation:mixed;dominant-baseline:auto;baseline-shift:baseline;text-anchor:start;white-space:normal;shape-padding:0;shape-margin:0;inline-size:0;clip-rule:nonzero;display:inline;overflow:visible;visibility:visible;isolation:auto;mix-blend-mode:normal;color-interpolation:sRGB;color-interpolation-filters:linearRGB;solid-color:#000000;solid-opacity:1;vector-effect:none;fill:#393941;fill-opacity:1;fill-rule:nonzero;stroke:none;stroke-width:1.00005;stroke-linecap:round;stroke-linejoin:round;stroke-miterlimit:4;stroke-dasharray:none;stroke-dashoffset:2.1875;stroke-opacity:1;paint-order:normal;color-rendering:auto;image-rendering:auto;shape-rendering:auto;text-rendering:auto;enable-background:accumulate;stop-color:#000000"
       d="m 1.3224013,4.7625263 a 0.26460982,0.26463435 0 0 0 -0.264068,0.264081 v 8.9966537 c 0,1.021583 0.830088,1.851739 1.851567,1.851739 H 14.023435 c 1.021477,0 1.851565,-0.830156 1.851565,-1.851739 V 5.0266073 a 0.26460982,0.26463435 0 0 0 -0.265615,-0.264081 z m 0.265618,0.529722 H 15.345836 v 8.7310127 c 0,0.737552 -0.58493,1.322546 -1.322401,1.322546 H 2.9099013 c -0.737473,0 -1.321883,-0.584994 -1.321883,-1.322546 z" />
    <path
       id="rect848-6-3-6-4-22-2-9-3-7-1-9-9-5"
       style="fill:#fcfcfc;fill-opacity:1;stroke-width:1.19063;stroke-linecap:round;stroke-linejoin:round;stroke-dashoffset:2.1875"
       d="m 1.3229173,5.0270833 v 8.9958337 c 0,0.879475 0.708025,1.5875 1.5875,1.5875 H 14.022917 c 0.879475,0 1.5875,-0.708025 1.5875,-1.5875 V 5.0270833 Z" />
    <rect
       style="fill:#9999a3;fill-opacity:1;stroke:none;stroke-width:0.529167;stroke-linecap:round;stroke-linejoin:round;stroke-miterlimit:4;stroke-dasharray:none;stroke-dashoffset:2.1875;stroke-opacity:1;paint-order:normal"
       id="rect1342-8-9-1-6-4-5-1-8-8-33-9-8-6-6-3-6-3-1-4-7"
       width="3.3514771"
       height="2.1166668"
       x="2.6458333"
       y="7.0114579"
       rx="0.13229167"
       ry="0.13229167" />
    <path
       id="rect848-6-3-7-5-6-0-5-5-2-3-6-6-2-3-4-0"
       style="color:#000000;font-style:normal;font-variant:normal;font-weight:normal;font-stretch:normal;font-size:medium;line-height:normal;font-family:sans-serif;font-variant-ligatures:normal;font-variant-position:normal;font-variant-caps:normal;font-variant-numeric:normal;font-variant-alternates:normal;font-variant-east-asian:normal;font-feature-settings:normal;font-variation-settings:normal;text-indent:0;text-align:start;text-decoration:none;text-decoration-line:none;text-decoration-style:solid;text-decoration-color:#000000;letter-spacing:normal;word-spacing:normal;text-transform:none;writing-mode:lr-tb;direction:ltr;text-orientation:mixed;dominant-baseline:auto;baseline-shift:baseline;text-anchor:start;white-space:normal;shape-padding:0;shape-margin:0;inline-size:0;clip-rule:nonzero;display:inline;overflow:visible;visibility:visible;opacity:0.2;isolation:auto;mix-blend-mode:normal;color-interpolation:sRGB;color-interpolation-filters:linearRGB;solid-color:#000000;solid-opacity:1;vector-effect:none;fill:#1c1650;fill-opacity:1;fill-rule:nonzero;stroke:none;stroke-width:0.999897;stroke-linecap:round;stroke-linejoin:round;stroke-miterlimit:4;stroke-dasharray:none;stroke-dashoffset:2.1875;stroke-opacity:1;color-rendering:auto;image-rendering:auto;shape-rendering:auto;text-rendering:auto;enable-background:accumulate;stop-color:#000000"
       d="m 2.9099643,1.0583333 c -1.021511,0 -1.851628,0.831956 -1.851628,1.853195 v 2.114603 a 0.26461898,0.26454505 0 0 0 0.265626,0.265535 H 15.611438 a 0.26461898,0.26454505 0 0 0 0.263559,-0.265535 v -2.114603 c 0,-1.021239 -0.830117,-1.853195 -1.851631,-1.853195 z m 0,0.529563 H 14.023366 c 0.7375,0 1.322446,0.586344 1.322446,1.323632 v 1.851104 H 1.5875213 v -1.851104 c 0,-0.737288 0.584946,-1.323632 1.322443,-1.323632 z" />
    <path
       id="rect848-6-3-7-5-9-29-8-7-8-0-7-7-9-9"
       style="fill:#b6b6bb;fill-opacity:1;stroke-width:1.19063;stroke-linecap:round;stroke-linejoin:round;stroke-dashoffset:2.1875"
       d="m 2.9104173,1.3229163 c -0.879475,0 -1.5875,0.708025 -1.5875,1.5875 v 2.116667 H 15.610417 v -2.116667 c 0,-0.879475 -0.708025,-1.5875 -1.5875,-1.5875 z" />
    <path
       id="rect848-6-3-7-5-6-8-9-4-0-8-3-8-6-0-4-0-6"
       style="fill:url(#linearGradient892);fill-opacity:1;stroke-width:1.19063;stroke-linecap:round;stroke-linejoin:round;stroke-dashoffset:2.1875"
       d="m 2.9104173,1.3229163 c -0.879475,0 -1.5875,0.708025 -1.5875,1.5875 v 2.116667 h 0.264583 v -2.116667 c 0,-0.732896 0.590021,-1.322916 1.322917,-1.322916 H 14.022917 c 0.732896,0 1.322916,0.59002 1.322916,1.322916 v 2.116667 h 0.264584 v -2.116667 c 0,-0.879475 -0.708025,-1.5875 -1.5875,-1.5875 z" />
    <rect
       style="fill:#3a3a41;fill-opacity:1;stroke:none;stroke-width:0.529167;stroke-linecap:round;stroke-linejoin:round;stroke-miterlimit:4;stroke-dasharray:none;stroke-dashoffset:2.1875;stroke-opacity:1;paint-order:normal"
       id="rect1239-6-2-8-2-4-2-9-5-9-3"
       width="14.2875"
       height="0.26458335"
       x="1.3229176"
       y="4.7624688" />
    <path
       id="rect848-6-3-6-7-0-9-2-0-4-8-4-1-3-0-5-7-5"
       style="color:#000000;font-style:normal;font-variant:normal;font-weight:normal;font-stretch:normal;font-size:medium;line-height:normal;font-family:sans-serif;font-variant-ligatures:normal;font-variant-position:normal;font-variant-caps:normal;font-variant-numeric:normal;font-variant-alternates:normal;font-variant-east-asian:normal;font-feature-settings:normal;font-variation-settings:normal;text-indent:0;text-align:start;text-decoration:none;text-decoration-line:none;text-decoration-style:solid;text-decoration-color:#000000;letter-spacing:normal;word-spacing:normal;text-transform:none;writing-mode:lr-tb;direction:ltr;text-orientation:mixed;dominant-baseline:auto;baseline-shift:baseline;text-anchor:start;white-space:normal;shape-padding:0;shape-margin:0;inline-size:0;clip-rule:nonzero;display:inline;overflow:visible;visibility:visible;opacity:0.2;isolation:auto;mix-blend-mode:normal;color-interpolation:sRGB;color-interpolation-filters:linearRGB;solid-color:#000000;solid-opacity:1;vector-effect:none;fill:#43434c;fill-opacity:1;fill-rule:nonzero;stroke:none;stroke-width:1.00005;stroke-linecap:round;stroke-linejoin:round;stroke-miterlimit:4;stroke-dasharray:none;stroke-dashoffset:2.1875;stroke-opacity:1;paint-order:normal;color-rendering:auto;image-rendering:auto;shape-rendering:auto;text-rendering:auto;enable-background:accumulate;stop-color:#000000"
       d="m 1.3224013,4.7625023 a 0.26460982,0.26463435 0 0 0 -0.264068,0.264081 v 8.9966537 c 0,1.021583 0.830088,1.85174 1.851567,1.85174 H 14.023435 c 1.021477,0 1.851565,-0.830157 1.851565,-1.85174 V 5.0265833 a 0.26460982,0.26463435 0 0 0 -0.265615,-0.264081 z m 0.265618,0.529723 H 15.345836 v 8.7310117 c 0,0.737553 -0.58493,1.322546 -1.322401,1.322546 H 2.9099013 c -0.737473,0 -1.321883,-0.584993 -1.321883,-1.322546 z" />
    <rect
       style="fill:#9999a3;fill-opacity:1;stroke:none;stroke-width:0.529167;stroke-linecap:round;stroke-linejoin:round;stroke-miterlimit:4;stroke-dasharray:none;stroke-dashoffset:2.1875;stroke-opacity:1;paint-order:normal"
       id="rect1342-8-9-1-6-4-5-1-8-8-33-9-8-6-6-3-6-3-0-7-1"
       width="3.3514771"
       height="2.1166668"
       x="6.7910604"
       y="7.0114579"
       rx="0.13229167"
       ry="0.13229167" />
    <rect
       style="fill:#9999a3;fill-opacity:1;stroke:none;stroke-width:0.529167;stroke-linecap:round;stroke-linejoin:round;stroke-miterlimit:4;stroke-dasharray:none;stroke-dashoffset:2.1875;stroke-opacity:1;paint-order:normal"
       id="rect1342-8-9-1-6-4-5-1-8-8-33-9-8-6-6-3-6-3-6-4-1"
       width="3.3514771"
       height="2.1166668"
       x="10.936288"
       y="7.0114579"
       rx="0.13229167"
       ry="0.13229167" />
  </g>
</svg>
