<?xml version="1.0" encoding="UTF-8" standalone="no"?>
<svg
   xmlns:dc="http://purl.org/dc/elements/1.1/"
   xmlns:cc="http://creativecommons.org/ns#"
   xmlns:rdf="http://www.w3.org/1999/02/22-rdf-syntax-ns#"
   xmlns:svg="http://www.w3.org/2000/svg"
   xmlns="http://www.w3.org/2000/svg"
   xmlns:xlink="http://www.w3.org/1999/xlink"
   xmlns:sodipodi="http://sodipodi.sourceforge.net/DTD/sodipodi-0.dtd"
   xmlns:inkscape="http://www.inkscape.org/namespaces/inkscape"
   width="64"
   height="64"
   viewBox="0 0 64 64"
   version="1.1"
   id="svg6374"
   inkscape:version="1.0.2 (e86c870879, 2021-01-15)"
   sodipodi:docname="user-info.svg">
  <defs
     id="defs6368">
    <linearGradient
       inkscape:collect="always"
       xlink:href="#linearGradient1898"
       id="linearGradient2015"
       gradientUnits="userSpaceOnUse"
       gradientTransform="matrix(1.0001982,0,0,1,-802.45213,-606.0159)"
       x1="834.2868"
       y1="644.63501"
       x2="833.90509"
       y2="664.95117" />
    <linearGradient
       inkscape:collect="always"
       id="linearGradient1898">
      <stop
         style="stop-color:#a0a0a2;stop-opacity:1"
         offset="0"
         id="stop1896" />
      <stop
         style="stop-color:#afafb1;stop-opacity:1"
         offset="1"
         id="stop1894" />
    </linearGradient>
    <linearGradient
       inkscape:collect="always"
       xlink:href="#linearGradient1898"
       id="linearGradient2017"
       gradientUnits="userSpaceOnUse"
       gradientTransform="matrix(0.99999885,0,0,1,-802.28584,-607.01589)"
       x1="834.18811"
       y1="611.01599"
       x2="834.2868"
       y2="637.14502" />
    <linearGradient
       inkscape:collect="always"
       xlink:href="#linearGradient2658"
       id="linearGradient2019"
       gradientUnits="userSpaceOnUse"
       gradientTransform="translate(-900,-600)"
       x1="932"
       y1="638.61914"
       x2="932.03491"
       y2="659.04791" />
    <linearGradient
       inkscape:collect="always"
       id="linearGradient2658">
      <stop
         style="stop-color:#fdfcfb;stop-opacity:0.55000001"
         offset="0"
         id="stop2654" />
      <stop
         style="stop-color:#fcfcfc;stop-opacity:0"
         offset="1"
         id="stop2656" />
    </linearGradient>
    <linearGradient
       inkscape:collect="always"
       xlink:href="#linearGradient2658"
       id="linearGradient2021"
       gradientUnits="userSpaceOnUse"
       gradientTransform="translate(-900.00055,-601.00001)"
       x1="931.8418"
       y1="605"
       x2="932.00555"
       y2="630.89825" />
    <linearGradient
       inkscape:collect="always"
       xlink:href="#linearGradient994-9"
       id="linearGradient2004"
       gradientUnits="userSpaceOnUse"
       gradientTransform="translate(-800.93753,-500.93768)"
       x1="847.93756"
       y1="533.50037"
       x2="848.06256"
       y2="561.50037" />
    <linearGradient
       inkscape:collect="always"
       id="linearGradient994-9">
      <stop
         style="stop-color:#f9f9f7;stop-opacity:0.1"
         offset="0"
         id="stop992" />
      <stop
         style="stop-color:#f9f9f7;stop-opacity:0"
         offset="1"
         id="stop990" />
    </linearGradient>
  </defs>
  <sodipodi:namedview
     id="base"
     pagecolor="#cecece"
     bordercolor="#666666"
     borderopacity="1.0"
     inkscape:pageopacity="0"
     inkscape:pageshadow="2"
     inkscape:zoom="5.5639287"
     inkscape:cx="8.3100654"
     inkscape:cy="29.73153"
     inkscape:document-units="px"
     inkscape:current-layer="layer1"
     inkscape:document-rotation="0"
     showgrid="false"
     units="px"
     inkscape:window-width="1500"
     inkscape:window-height="970"
     inkscape:window-x="68"
     inkscape:window-y="56"
     inkscape:window-maximized="0" />
  <metadata
     id="metadata6371">
    <rdf:RDF>
      <cc:Work
         rdf:about="">
        <dc:format>image/svg+xml</dc:format>
        <dc:type
           rdf:resource="http://purl.org/dc/dcmitype/StillImage" />
        <dc:title></dc:title>
      </cc:Work>
    </rdf:RDF>
  </metadata>
  <g
     inkscape:label="Layer 1"
     inkscape:groupmode="layer"
     id="layer1">
    <path
       id="path1652-5-6-6-0"
       style="color:#000000;font-style:normal;font-variant:normal;font-weight:normal;font-stretch:normal;font-size:medium;line-height:normal;font-family:sans-serif;font-variant-ligatures:normal;font-variant-position:normal;font-variant-caps:normal;font-variant-numeric:normal;font-variant-alternates:normal;font-variant-east-asian:normal;font-feature-settings:normal;font-variation-settings:normal;text-indent:0;text-align:start;text-decoration:none;text-decoration-line:none;text-decoration-style:solid;text-decoration-color:#000000;letter-spacing:normal;word-spacing:normal;text-transform:none;writing-mode:lr-tb;direction:ltr;text-orientation:mixed;dominant-baseline:auto;baseline-shift:baseline;text-anchor:start;white-space:normal;shape-padding:0;shape-margin:0;inline-size:0;clip-rule:nonzero;display:inline;overflow:visible;visibility:visible;opacity:0.1;isolation:auto;mix-blend-mode:normal;color-interpolation:sRGB;color-interpolation-filters:linearRGB;solid-color:#000000;solid-opacity:1;vector-effect:none;fill:#0c0c0c;fill-opacity:1;fill-rule:nonzero;stroke:none;stroke-width:1.00011;stroke-linecap:round;stroke-linejoin:round;stroke-miterlimit:4;stroke-dasharray:none;stroke-dashoffset:0;stroke-opacity:1;color-rendering:auto;image-rendering:auto;shape-rendering:auto;text-rendering:auto;enable-background:accumulate;stop-color:#000000"
       d="m 32.00001,38.619002 c -4.62005,0 -9.24069,0.793691 -13.46767,2.4004 C 10.06241,44.238813 4.00012,50.632242 4,58.324193 c 0.001,2.011429 1.66271,3.67486 3.6746,3.6758 h 24.32541 24.32148 c 2.013,6.7e-4 3.67735,-1.66326 3.67851,-3.6758 -9e-5,-7.691721 -6.06038,-14.085361 -14.53039,-17.304791 -4.22709,-1.606759 -8.84948,-2.4004 -13.4696,-2.4004 z m 0,3.000011 c 4.27482,0 8.54929,0.74028 12.40298,2.20509 7.69075,2.92325 12.59527,8.39692 12.59638,14.49815 -2.3e-4,0.39166 -0.28452,0.67786 -0.67593,0.67772 a 1.5004638,1.500159 0 0 0 -0.002,0 H 31.99996 7.67651 7.67451 c -0.38971,-0.001 -0.67291,-0.2858 -0.67397,-0.67578 v -0.002 c 0.001,-6.10098 4.90753,-11.57486 12.59834,-14.498129 3.85381,-1.46487 8.12629,-2.2051 12.40104,-2.2051 z" />
    <path
       id="path1652-5-2"
       style="color:#000000;font-style:normal;font-variant:normal;font-weight:normal;font-stretch:normal;font-size:medium;line-height:normal;font-family:sans-serif;font-variant-ligatures:normal;font-variant-position:normal;font-variant-caps:normal;font-variant-numeric:normal;font-variant-alternates:normal;font-variant-east-asian:normal;font-feature-settings:normal;font-variation-settings:normal;text-indent:0;text-align:start;text-decoration:none;text-decoration-line:none;text-decoration-style:solid;text-decoration-color:#000000;letter-spacing:normal;word-spacing:normal;text-transform:none;writing-mode:lr-tb;direction:ltr;text-orientation:mixed;dominant-baseline:auto;baseline-shift:baseline;text-anchor:start;white-space:normal;shape-padding:0;shape-margin:0;inline-size:0;clip-rule:nonzero;display:inline;overflow:visible;visibility:visible;opacity:0.85;isolation:auto;mix-blend-mode:normal;color-interpolation:sRGB;color-interpolation-filters:linearRGB;solid-color:#000000;solid-opacity:1;vector-effect:none;fill:#4c4c4d;fill-opacity:1;fill-rule:nonzero;stroke:none;stroke-width:1.00011;stroke-linecap:round;stroke-linejoin:round;stroke-miterlimit:4;stroke-dasharray:none;stroke-dashoffset:0;stroke-opacity:1;color-rendering:auto;image-rendering:auto;shape-rendering:auto;text-rendering:auto;enable-background:accumulate;stop-color:#000000"
       d="m 32.00001,37.119002 c -4.62005,0 -9.24069,0.793691 -13.46767,2.4004 C 10.06241,42.738813 4.00012,49.132242 4,56.824193 c 0.001,2.011429 1.66271,3.67486 3.6746,3.6758 h 24.32541 24.32148 c 2.013,6.7e-4 3.67735,-1.66326 3.67851,-3.6758 -9e-5,-7.691721 -6.06038,-14.085361 -14.53039,-17.304791 -4.22709,-1.606759 -8.84948,-2.4004 -13.4696,-2.4004 z m 0,3.00001 c 4.27482,0 8.54929,0.74028 12.40298,2.205091 7.69075,2.92325 12.59527,8.39692 12.59638,14.49815 -2.3e-4,0.39166 -0.28452,0.67786 -0.67593,0.67772 a 1.5004638,1.500159 0 0 0 -0.002,0 H 31.99996 7.67651 7.67451 c -0.38971,-0.001 -0.67291,-0.2858 -0.67397,-0.67578 v -0.002 c 0.001,-6.10098 4.90753,-11.57486 12.59834,-14.498129 3.85381,-1.46487 8.12629,-2.2051 12.40104,-2.2051 z" />
    <path
       style="color:#000000;font-style:normal;font-variant:normal;font-weight:normal;font-stretch:normal;font-size:medium;line-height:normal;font-family:sans-serif;font-variant-ligatures:normal;font-variant-position:normal;font-variant-caps:normal;font-variant-numeric:normal;font-variant-alternates:normal;font-variant-east-asian:normal;font-feature-settings:normal;font-variation-settings:normal;text-indent:0;text-align:start;text-decoration:none;text-decoration-line:none;text-decoration-style:solid;text-decoration-color:#000000;letter-spacing:normal;word-spacing:normal;text-transform:none;writing-mode:lr-tb;direction:ltr;text-orientation:mixed;dominant-baseline:auto;baseline-shift:baseline;text-anchor:start;white-space:normal;shape-padding:0;shape-margin:0;inline-size:0;clip-rule:nonzero;display:inline;overflow:visible;visibility:visible;isolation:auto;mix-blend-mode:normal;color-interpolation:sRGB;color-interpolation-filters:linearRGB;solid-color:#000000;solid-opacity:1;vector-effect:none;fill:url(#linearGradient2015);fill-opacity:1;fill-rule:nonzero;stroke:none;stroke-width:0.823096;stroke-linecap:round;stroke-linejoin:round;stroke-miterlimit:4;stroke-dasharray:none;stroke-dashoffset:0;stroke-opacity:1;color-rendering:auto;image-rendering:auto;shape-rendering:auto;text-rendering:auto;enable-background:accumulate;stop-color:#000000"
       d="m 32,38.619102 c -4.44734,0 -8.89408,0.767521 -12.93443,2.303301 C 10.98488,43.993873 5.50009,49.927552 5.5,56.824362 a 2.1771413,2.1769718 0 0 0 2.17611,2.17572 H 32 56.32215 A 2.1771413,2.1769718 0 0 0 58.5,56.824362 C 58.49992,49.927552 53.01678,43.993873 44.93608,40.922403 40.89574,39.386633 36.44743,38.619102 32,38.619102 Z"
       id="path1652-3" />
    <path
       id="path1305-3-0-7-7-0-2-7"
       style="color:#000000;font-style:normal;font-variant:normal;font-weight:normal;font-stretch:normal;font-size:medium;line-height:normal;font-family:sans-serif;font-variant-ligatures:normal;font-variant-position:normal;font-variant-caps:normal;font-variant-numeric:normal;font-variant-alternates:normal;font-variant-east-asian:normal;font-feature-settings:normal;font-variation-settings:normal;text-indent:0;text-align:start;text-decoration:none;text-decoration-line:none;text-decoration-style:solid;text-decoration-color:#000000;letter-spacing:normal;word-spacing:normal;text-transform:none;writing-mode:lr-tb;direction:ltr;text-orientation:mixed;dominant-baseline:auto;baseline-shift:baseline;text-anchor:start;white-space:normal;shape-padding:0;shape-margin:0;inline-size:0;clip-rule:nonzero;display:inline;overflow:visible;visibility:visible;opacity:0.1;isolation:auto;mix-blend-mode:normal;color-interpolation:sRGB;color-interpolation-filters:linearRGB;solid-color:#000000;solid-opacity:1;vector-effect:none;fill:#0c0c0c;fill-opacity:1;fill-rule:nonzero;stroke:none;stroke-linecap:round;stroke-linejoin:round;stroke-miterlimit:4;stroke-dasharray:none;stroke-dashoffset:0;stroke-opacity:1;color-rendering:auto;image-rendering:auto;shape-rendering:auto;text-rendering:auto;enable-background:accumulate;stop-color:#000000"
       d="m 31.88227,4.0001325 a 1.50015,1.50015 0 0 0 -0.24219,0.0273 C 23.7741,4.2226625 17.43478,10.665933 17.435,18.564532 c 0,8.026001 6.53846,14.56445 14.56445,14.56447 8.026,0 14.56446,-6.53846 14.56446,-14.56447 -1e-5,-8.02599 -6.53847,-14.5644495 -14.56446,-14.5644495 -0.0328,-1.1e-4 -0.0668,-1.1e-4 -0.0996,0 -0.002,10e-6 -0.004,-1e-5 -0.006,0 a 1.50015,1.50015 0 0 0 -0.006,0 c -0.002,2e-5 -0.004,-1e-5 -0.006,0 z m 0.0293,3 c 0.0272,-9e-5 0.0548,-1e-4 0.082,0 a 1.50015,1.50015 0 0 0 0.006,0 c 6.40467,0 11.56445,5.1597705 11.56446,11.5644395 0,6.40468 -5.15978,11.56446 -11.56446,11.56446 -6.40467,-9e-6 -11.56445,-5.15978 -11.56445,-11.56446 -1.8e-4,-6.370279 5.10645,-11.5163295 11.47656,-11.5644495 z" />
    <path
       id="path1305-3-0-7-7-5"
       style="color:#000000;font-style:normal;font-variant:normal;font-weight:normal;font-stretch:normal;font-size:medium;line-height:normal;font-family:sans-serif;font-variant-ligatures:normal;font-variant-position:normal;font-variant-caps:normal;font-variant-numeric:normal;font-variant-alternates:normal;font-variant-east-asian:normal;font-feature-settings:normal;font-variation-settings:normal;text-indent:0;text-align:start;text-decoration:none;text-decoration-line:none;text-decoration-style:solid;text-decoration-color:#000000;letter-spacing:normal;word-spacing:normal;text-transform:none;writing-mode:lr-tb;direction:ltr;text-orientation:mixed;dominant-baseline:auto;baseline-shift:baseline;text-anchor:start;white-space:normal;shape-padding:0;shape-margin:0;inline-size:0;clip-rule:nonzero;display:inline;overflow:visible;visibility:visible;opacity:0.85;isolation:auto;mix-blend-mode:normal;color-interpolation:sRGB;color-interpolation-filters:linearRGB;solid-color:#000000;solid-opacity:1;vector-effect:none;fill:#4c4c4d;fill-opacity:1;fill-rule:nonzero;stroke:none;stroke-linecap:round;stroke-linejoin:round;stroke-miterlimit:4;stroke-dasharray:none;stroke-dashoffset:0;stroke-opacity:1;color-rendering:auto;image-rendering:auto;shape-rendering:auto;text-rendering:auto;enable-background:accumulate;stop-color:#000000"
       d="m 31.88227,2.5001325 a 1.50015,1.50015 0 0 0 -0.24219,0.0273 c -7.86598,0.19523 -14.2053,6.6385 -14.20508,14.5371005 0,8.026 6.53846,14.56445 14.56445,14.56447 8.026,0 14.56446,-6.53846 14.56446,-14.56447 -1e-5,-8.0259905 -6.53847,-14.5644505 -14.56446,-14.5644505 -0.0328,-1.1e-4 -0.0668,-1.1e-4 -0.0996,0 -0.002,1e-5 -0.004,-1e-5 -0.006,0 a 1.50015,1.50015 0 0 0 -0.006,0 c -0.002,2e-5 -0.004,-1e-5 -0.006,0 z m 0.0293,3 c 0.0272,-9e-5 0.0548,-1e-4 0.082,0 a 1.50015,1.50015 0 0 0 0.006,0 c 6.40467,0 11.56445,5.1597705 11.56446,11.5644395 0,6.40468 -5.15978,11.56446 -11.56446,11.56446 -6.40467,-9e-6 -11.56445,-5.15978 -11.56445,-11.56446 -1.8e-4,-6.370289 5.10645,-11.5163295 11.47656,-11.5644495 z" />
    <path
       style="color:#000000;font-style:normal;font-variant:normal;font-weight:normal;font-stretch:normal;font-size:medium;line-height:normal;font-family:sans-serif;font-variant-ligatures:normal;font-variant-position:normal;font-variant-caps:normal;font-variant-numeric:normal;font-variant-alternates:normal;font-variant-east-asian:normal;font-feature-settings:normal;font-variation-settings:normal;text-indent:0;text-align:start;text-decoration:none;text-decoration-line:none;text-decoration-style:solid;text-decoration-color:#000000;letter-spacing:normal;word-spacing:normal;text-transform:none;writing-mode:lr-tb;direction:ltr;text-orientation:mixed;dominant-baseline:auto;baseline-shift:baseline;text-anchor:start;white-space:normal;shape-padding:0;shape-margin:0;inline-size:0;clip-rule:nonzero;display:inline;overflow:visible;visibility:visible;isolation:auto;mix-blend-mode:normal;color-interpolation:sRGB;color-interpolation-filters:linearRGB;solid-color:#000000;solid-opacity:1;vector-effect:none;fill:url(#linearGradient2017);fill-opacity:1;fill-rule:nonzero;stroke:none;stroke-width:0.823014;stroke-linecap:round;stroke-linejoin:round;stroke-miterlimit:4;stroke-dasharray:none;stroke-dashoffset:0;stroke-opacity:1;color-rendering:auto;image-rendering:auto;shape-rendering:auto;text-rendering:auto;enable-background:accumulate;stop-color:#000000"
       d="M 31.90132,4.0000825 A 13.064501,13.064516 0 0 0 18.9355,17.064602 13.064501,13.064516 0 0 0 32,30.129113 13.064501,13.064516 0 0 0 45.0645,17.064602 13.064501,13.064516 0 0 0 32,4.0000825 a 13.064501,13.064516 0 0 0 -0.0987,0 z"
       id="path1305-3-0-7-9" />
    <path
       id="path1652-5-6-2"
       style="color:#000000;font-style:normal;font-variant:normal;font-weight:normal;font-stretch:normal;font-size:medium;line-height:normal;font-family:sans-serif;font-variant-ligatures:normal;font-variant-position:normal;font-variant-caps:normal;font-variant-numeric:normal;font-variant-alternates:normal;font-variant-east-asian:normal;font-feature-settings:normal;font-variation-settings:normal;text-indent:0;text-align:start;text-decoration:none;text-decoration-line:none;text-decoration-style:solid;text-decoration-color:#000000;letter-spacing:normal;word-spacing:normal;text-transform:none;writing-mode:lr-tb;direction:ltr;text-orientation:mixed;dominant-baseline:auto;baseline-shift:baseline;text-anchor:start;white-space:normal;shape-padding:0;shape-margin:0;inline-size:0;clip-rule:nonzero;display:inline;overflow:visible;visibility:visible;opacity:0.25;isolation:auto;mix-blend-mode:normal;color-interpolation:sRGB;color-interpolation-filters:linearRGB;solid-color:#000000;solid-opacity:1;vector-effect:none;fill:#4c4c4d;fill-opacity:1;fill-rule:nonzero;stroke:none;stroke-width:1.00011;stroke-linecap:round;stroke-linejoin:round;stroke-miterlimit:4;stroke-dasharray:none;stroke-dashoffset:0;stroke-opacity:1;color-rendering:auto;image-rendering:auto;shape-rendering:auto;text-rendering:auto;enable-background:accumulate;stop-color:#000000"
       d="m 32.00001,37.119002 c -4.62005,0 -9.24069,0.793691 -13.46767,2.4004 C 10.06241,42.738813 4.00012,49.132242 4,56.824193 c 0.001,2.011429 1.66271,3.67486 3.6746,3.6758 h 24.32541 24.32148 c 2.013,6.7e-4 3.67735,-1.66326 3.67851,-3.6758 -9e-5,-7.691721 -6.06038,-14.085361 -14.53039,-17.304791 -4.22709,-1.606759 -8.84948,-2.4004 -13.4696,-2.4004 z m 0,3.00001 c 4.27482,0 8.54929,0.74028 12.40298,2.205091 7.69075,2.92325 12.59527,8.39692 12.59638,14.49815 -2.3e-4,0.39166 -0.28452,0.67786 -0.67593,0.67772 a 1.5004638,1.500159 0 0 0 -0.002,0 H 31.99996 7.67651 7.67451 c -0.38971,-0.001 -0.67291,-0.2858 -0.67397,-0.67578 v -0.002 c 0.001,-6.10098 4.90753,-11.57486 12.59834,-14.498129 3.85381,-1.46487 8.12629,-2.2051 12.40104,-2.2051 z" />
    <path
       id="path1652-5-9-9-2"
       style="color:#000000;font-style:normal;font-variant:normal;font-weight:normal;font-stretch:normal;font-size:medium;line-height:normal;font-family:sans-serif;font-variant-ligatures:normal;font-variant-position:normal;font-variant-caps:normal;font-variant-numeric:normal;font-variant-alternates:normal;font-variant-east-asian:normal;font-feature-settings:normal;font-variation-settings:normal;text-indent:0;text-align:start;text-decoration:none;text-decoration-line:none;text-decoration-style:solid;text-decoration-color:#000000;letter-spacing:normal;word-spacing:normal;text-transform:none;writing-mode:lr-tb;direction:ltr;text-orientation:mixed;dominant-baseline:auto;baseline-shift:baseline;text-anchor:start;white-space:normal;shape-padding:0;shape-margin:0;inline-size:0;clip-rule:nonzero;display:inline;overflow:visible;visibility:visible;opacity:0.75;isolation:auto;mix-blend-mode:normal;color-interpolation:sRGB;color-interpolation-filters:linearRGB;solid-color:#000000;solid-opacity:1;vector-effect:none;fill:url(#linearGradient2019);fill-opacity:1;fill-rule:nonzero;stroke:none;stroke-width:1.00011;stroke-linecap:round;stroke-linejoin:round;stroke-miterlimit:4;stroke-dasharray:none;stroke-dashoffset:0;stroke-opacity:1;color-rendering:auto;image-rendering:auto;shape-rendering:auto;text-rendering:auto;enable-background:accumulate;stop-color:#000000"
       d="m 32,38.619132 c -4.44734,0 -8.89324,0.76697 -12.93359,2.30274 C 10.98572,43.993332 5.50009,49.927402 5.5,56.824213 a 2.1771413,2.1769718 0 0 0 2.17578,2.17578 H 32 56.32227 A 2.1771413,2.1769718 0 0 0 58.5,56.824213 C 58.49992,49.927402 53.01625,43.993342 44.93555,40.921872 40.89521,39.386093 36.44743,38.619132 32,38.619132 Z m 0,1.5 h 0.002 c 4.27417,2.4e-4 8.54733,0.740501 12.40039,2.205081 7.6908,2.92325 12.59656,8.39683 12.59766,14.49806 -2e-4,0.39166 -0.28438,0.67786 -0.67578,0.67772 H 32.002 7.67778 7.67578 c -0.38971,-0.001 -0.67277,-0.2858 -0.67383,-0.67578 v -0.002 c 0.001,-6.100989 4.9088,-11.574779 12.59961,-14.49805 3.85323,-1.46464 8.12434,-2.20485 12.39844,-2.20507 z m -22.89648,5.29103 c -0.35399,0.35234 -0.69189,0.713701 -1.01368,1.08397 0.32182,-0.370269 0.66162,-0.73163 1.01563,-1.08397 0,0 -0.002,0 -0.002,0 z" />
    <path
       id="path1305-3-0-7-7-0-8"
       style="color:#000000;font-style:normal;font-variant:normal;font-weight:normal;font-stretch:normal;font-size:medium;line-height:normal;font-family:sans-serif;font-variant-ligatures:normal;font-variant-position:normal;font-variant-caps:normal;font-variant-numeric:normal;font-variant-alternates:normal;font-variant-east-asian:normal;font-feature-settings:normal;font-variation-settings:normal;text-indent:0;text-align:start;text-decoration:none;text-decoration-line:none;text-decoration-style:solid;text-decoration-color:#000000;letter-spacing:normal;word-spacing:normal;text-transform:none;writing-mode:lr-tb;direction:ltr;text-orientation:mixed;dominant-baseline:auto;baseline-shift:baseline;text-anchor:start;white-space:normal;shape-padding:0;shape-margin:0;inline-size:0;clip-rule:nonzero;display:inline;overflow:visible;visibility:visible;opacity:0.25;isolation:auto;mix-blend-mode:normal;color-interpolation:sRGB;color-interpolation-filters:linearRGB;solid-color:#000000;solid-opacity:1;vector-effect:none;fill:#4c4c4d;fill-opacity:1;fill-rule:nonzero;stroke:none;stroke-linecap:round;stroke-linejoin:round;stroke-miterlimit:4;stroke-dasharray:none;stroke-dashoffset:0;stroke-opacity:1;color-rendering:auto;image-rendering:auto;shape-rendering:auto;text-rendering:auto;enable-background:accumulate;stop-color:#000000"
       d="m 31.88227,2.5001325 a 1.50015,1.50015 0 0 0 -0.24219,0.0273 c -7.86598,0.19523 -14.2053,6.6385 -14.20508,14.5371005 0,8.026 6.53846,14.56445 14.56445,14.56447 8.026,0 14.56446,-6.53846 14.56446,-14.56447 -1e-5,-8.0259905 -6.53847,-14.5644505 -14.56446,-14.5644505 -0.0328,-1.1e-4 -0.0668,-1.1e-4 -0.0996,0 -0.002,1e-5 -0.004,-1e-5 -0.006,0 a 1.50015,1.50015 0 0 0 -0.006,0 c -0.002,2e-5 -0.004,-1e-5 -0.006,0 z m 0.0293,3 c 0.0272,-9e-5 0.0548,-1e-4 0.082,0 a 1.50015,1.50015 0 0 0 0.006,0 c 6.40467,0 11.56445,5.1597705 11.56446,11.5644395 0,6.40468 -5.15978,11.56446 -11.56446,11.56446 -6.40467,-9e-6 -11.56445,-5.15978 -11.56445,-11.56446 -1.8e-4,-6.370289 5.10645,-11.5163295 11.47656,-11.5644495 z" />
    <path
       id="path1305-3-0-7-7-2-3-9"
       style="color:#000000;font-style:normal;font-variant:normal;font-weight:normal;font-stretch:normal;font-size:medium;line-height:normal;font-family:sans-serif;font-variant-ligatures:normal;font-variant-position:normal;font-variant-caps:normal;font-variant-numeric:normal;font-variant-alternates:normal;font-variant-east-asian:normal;font-feature-settings:normal;font-variation-settings:normal;text-indent:0;text-align:start;text-decoration:none;text-decoration-line:none;text-decoration-style:solid;text-decoration-color:#000000;letter-spacing:normal;word-spacing:normal;text-transform:none;writing-mode:lr-tb;direction:ltr;text-orientation:mixed;dominant-baseline:auto;baseline-shift:baseline;text-anchor:start;white-space:normal;shape-padding:0;shape-margin:0;inline-size:0;clip-rule:nonzero;display:inline;overflow:visible;visibility:visible;opacity:0.75;isolation:auto;mix-blend-mode:normal;color-interpolation:sRGB;color-interpolation-filters:linearRGB;solid-color:#000000;solid-opacity:1;vector-effect:none;fill:url(#linearGradient2021);fill-opacity:1;fill-rule:nonzero;stroke:none;stroke-linecap:round;stroke-linejoin:round;stroke-miterlimit:4;stroke-dasharray:none;stroke-dashoffset:0;stroke-opacity:1;color-rendering:auto;image-rendering:auto;shape-rendering:auto;text-rendering:auto;enable-background:accumulate;stop-color:#000000"
       d="M 31.84125,3.9999925 A 13.064501,13.064516 0 0 0 18.935,17.064442 13.064501,13.064516 0 0 0 31.99945,30.128913 13.064501,13.064516 0 0 0 45.0639,17.064442 13.064501,13.064516 0 0 0 31.99945,3.9999925 a 13.064501,13.064516 0 0 0 -0.0996,0 13.064501,13.064516 0 0 0 -0.0586,0 z m 0.0703,1.5 c 0.0272,-9e-5 0.0548,-1e-4 0.082,0 a 1.50015,1.50015 0 0 0 0.006,0 c 6.40467,0 11.56444,5.1597795 11.56445,11.5644505 0,6.404679 -5.15977,11.56447 -11.56445,11.56447 C 25.59488,28.628902 20.4351,23.469132 20.4351,17.064442 20.43492,10.694153 25.54155,5.5481125 31.91166,5.4999925 Z" />
    <path
       id="path1181-0-2-9-62-2-2-7-5-6-4-5-5"
       style="color:#000000;font-style:normal;font-variant:normal;font-weight:normal;font-stretch:normal;font-size:medium;line-height:normal;font-family:sans-serif;font-variant-ligatures:normal;font-variant-position:normal;font-variant-caps:normal;font-variant-numeric:normal;font-variant-alternates:normal;font-variant-east-asian:normal;font-feature-settings:normal;font-variation-settings:normal;text-indent:0;text-align:start;text-decoration:none;text-decoration-line:none;text-decoration-style:solid;text-decoration-color:#000000;letter-spacing:normal;word-spacing:normal;text-transform:none;writing-mode:lr-tb;direction:ltr;text-orientation:mixed;dominant-baseline:auto;baseline-shift:baseline;text-anchor:start;white-space:normal;shape-padding:0;shape-margin:0;inline-size:0;clip-rule:nonzero;display:inline;overflow:visible;visibility:visible;opacity:0.25;isolation:auto;mix-blend-mode:normal;color-interpolation:sRGB;color-interpolation-filters:linearRGB;solid-color:#000000;solid-opacity:1;vector-effect:none;fill:#0c0c0c;fill-opacity:1;fill-rule:nonzero;stroke:none;stroke-width:0;stroke-linecap:round;stroke-linejoin:round;stroke-miterlimit:4;stroke-dasharray:none;stroke-dashoffset:2.1875;stroke-opacity:1;color-rendering:auto;image-rendering:auto;shape-rendering:auto;text-rendering:auto;enable-background:accumulate;stop-color:#000000"
       d="m 48,33.437502 c -8.2738,0 -15,6.727201 -15,15.000901 0,8.2736 6.7262,14.9996 15,14.9996 8.2738,0 15,-6.726 15,-14.9996 0,-8.2737 -6.7262,-15.000901 -15,-15.000901 z m 0,1.8739 c 7.2604,0 13.1273,5.866701 13.1273,13.127001 0,7.260309 -5.8669,13.1257 -13.1273,13.1257 -7.2604,0 -13.1273,-5.86539 -13.1273,-13.1257 0,-7.2603 5.8669,-13.127001 13.1273,-13.127001 z" />
    <path
       id="path1181-0-6-2-9-0-9-5-3-1-7-0-2"
       style="color:#000000;font-style:normal;font-variant:normal;font-weight:normal;font-stretch:normal;font-size:medium;line-height:normal;font-family:sans-serif;font-variant-ligatures:normal;font-variant-position:normal;font-variant-caps:normal;font-variant-numeric:normal;font-variant-alternates:normal;font-variant-east-asian:normal;font-feature-settings:normal;font-variation-settings:normal;text-indent:0;text-align:start;text-decoration:none;text-decoration-line:none;text-decoration-style:solid;text-decoration-color:#000000;letter-spacing:normal;word-spacing:normal;text-transform:none;writing-mode:lr-tb;direction:ltr;text-orientation:mixed;dominant-baseline:auto;baseline-shift:baseline;text-anchor:start;white-space:normal;shape-padding:0;shape-margin:0;inline-size:0;clip-rule:nonzero;display:inline;overflow:visible;visibility:visible;opacity:0.85;isolation:auto;mix-blend-mode:normal;color-interpolation:sRGB;color-interpolation-filters:linearRGB;solid-color:#000000;solid-opacity:1;vector-effect:none;fill:#2b37a1;fill-opacity:1;fill-rule:nonzero;stroke:none;stroke-width:2.36236;stroke-linecap:round;stroke-linejoin:round;stroke-miterlimit:4;stroke-dasharray:none;stroke-dashoffset:2.1875;stroke-opacity:1;color-rendering:auto;image-rendering:auto;shape-rendering:auto;text-rendering:auto;enable-background:accumulate;stop-color:#000000"
       d="m 48,32.500002 c -8.2738,0 -15,6.727201 -15,15.0008 0,8.2737 6.7262,14.999701 15,14.999701 8.2738,0 15,-6.726 15,-14.999701 0,-8.2736 -6.7262,-15.0008 -15,-15.0008 z m 0,1.8739 c 7.2604,0 13.1273,5.866701 13.1273,13.1269 0,7.26041 -5.8669,13.1258 -13.1273,13.1258 -7.2604,0 -13.1273,-5.86539 -13.1273,-13.1258 0,-7.2602 5.8669,-13.1269 13.1273,-13.1269 z" />
    <ellipse
       style="fill:#6571d7;fill-opacity:1;stroke:#771832;stroke-width:0;stroke-linecap:round;stroke-linejoin:round;stroke-miterlimit:4;stroke-dasharray:none;stroke-dashoffset:2.1875;stroke-opacity:1"
       id="path1181-0-1-2-1-3-5-2-8-36-5"
       cx="48.000061"
       cy="47.500431"
       rx="14.062499"
       ry="14.062726" />
    <path
       id="path1181-0-2-9-3-2-7-7-6-2-3-4-1-4"
       style="color:#000000;font-style:normal;font-variant:normal;font-weight:normal;font-stretch:normal;font-size:medium;line-height:normal;font-family:sans-serif;font-variant-ligatures:normal;font-variant-position:normal;font-variant-caps:normal;font-variant-numeric:normal;font-variant-alternates:normal;font-variant-east-asian:normal;font-feature-settings:normal;font-variation-settings:normal;text-indent:0;text-align:start;text-decoration:none;text-decoration-line:none;text-decoration-style:solid;text-decoration-color:#000000;letter-spacing:normal;word-spacing:normal;text-transform:none;writing-mode:lr-tb;direction:ltr;text-orientation:mixed;dominant-baseline:auto;baseline-shift:baseline;text-anchor:start;white-space:normal;shape-padding:0;shape-margin:0;inline-size:0;clip-rule:nonzero;display:inline;overflow:visible;visibility:visible;opacity:0.15;isolation:auto;mix-blend-mode:normal;color-interpolation:sRGB;color-interpolation-filters:linearRGB;solid-color:#000000;solid-opacity:1;vector-effect:none;fill:#1e2771;fill-opacity:1;fill-rule:nonzero;stroke:none;stroke-width:0;stroke-linecap:round;stroke-linejoin:round;stroke-miterlimit:4;stroke-dasharray:none;stroke-dashoffset:2.1875;stroke-opacity:1;color-rendering:auto;image-rendering:auto;shape-rendering:auto;text-rendering:auto;enable-background:accumulate;stop-color:#000000"
       d="m 48,32.500002 c -8.2738,0 -15,6.727201 -15,15.0008 0,8.2737 6.7262,14.999701 15,14.999701 8.2738,0 15,-6.726 15,-14.999701 0,-8.2736 -6.7262,-15.0008 -15,-15.0008 z m 0,1.8739 c 7.2604,0 13.1273,5.866701 13.1273,13.1269 0,7.26041 -5.8669,13.1258 -13.1273,13.1258 -7.2604,0 -13.1273,-5.86539 -13.1273,-13.1258 0,-7.2602 5.8669,-13.1269 13.1273,-13.1269 z" />
    <ellipse
       style="fill:url(#linearGradient2004);fill-opacity:1;stroke:#771832;stroke-width:0;stroke-linecap:round;stroke-linejoin:round;stroke-miterlimit:4;stroke-dasharray:none;stroke-dashoffset:2.1875;stroke-opacity:1"
       id="path1181-0-1-2-1-3-5-2-8-36-6-7"
       cx="47.0625"
       cy="46.562748"
       rx="14.062499"
       ry="14.062726" />
    <path
       id="rect984-3-3-6-1-9-1-3-7-4"
       style="display:inline;opacity:0.35;fill:#1e2771;fill-opacity:1;stroke:none;stroke-width:1.80067;stroke-linejoin:round"
       d="m 47.96502,37.700063 a 2.6075044,2.6068966 0 0 0 -2.5725,2.606899 2.6075044,2.6068966 0 0 0 2.60748,2.6069 2.6075044,2.6068966 0 0 0 2.60745,-2.6069 A 2.6075044,2.6068966 0 0 0 48,37.700063 a 2.6075044,2.6068966 0 0 0 -0.0348,0 z m -4.06254,8.565519 c -0.20634,0 -0.37248,0.1661 -0.37248,0.37242 v 1.30344 c 0,0.206331 0.16614,0.37242 0.37248,0.37242 h 2.42124 v 8.93793 h -2.42124 c -0.20634,0 -0.37248,0.1661 -0.37248,0.37242 v 1.30344 c 0,0.20632 0.16614,0.37242 0.37248,0.37242 h 8.19507 c 0.2063,0 0.3724,-0.1661 0.3724,-0.37242 v -1.30344 c 0,-0.20632 -0.1661,-0.37242 -0.3724,-0.37242 h -2.4213 v -9.310339 -1.30345 c 0,-0.20631 -0.1662,-0.37241 -0.37251,-0.37241 h -2.60748 z" />
    <path
       id="rect984-3-3-6-1-9-1-3-9-4-4"
       style="color:#000000;font-style:normal;font-variant:normal;font-weight:normal;font-stretch:normal;font-size:medium;line-height:normal;font-family:sans-serif;font-variant-ligatures:normal;font-variant-position:normal;font-variant-caps:normal;font-variant-numeric:normal;font-variant-alternates:normal;font-variant-east-asian:normal;font-feature-settings:normal;font-variation-settings:normal;text-indent:0;text-align:start;text-decoration:none;text-decoration-line:none;text-decoration-style:solid;text-decoration-color:#000000;letter-spacing:normal;word-spacing:normal;text-transform:none;writing-mode:lr-tb;direction:ltr;text-orientation:mixed;dominant-baseline:auto;baseline-shift:baseline;text-anchor:start;white-space:normal;shape-padding:0;shape-margin:0;inline-size:0;clip-rule:nonzero;display:inline;overflow:visible;visibility:visible;isolation:auto;mix-blend-mode:normal;color-interpolation:sRGB;color-interpolation-filters:linearRGB;solid-color:#000000;solid-opacity:1;vector-effect:none;fill:#1e2771;fill-opacity:1;fill-rule:nonzero;stroke:none;stroke-width:1.00003;stroke-linecap:round;stroke-linejoin:round;stroke-miterlimit:4;stroke-dasharray:none;stroke-dashoffset:0;stroke-opacity:1;color-rendering:auto;image-rendering:auto;shape-rendering:auto;text-rendering:auto;enable-background:accumulate;stop-color:#000000"
       d="m 47.95797,35.200063 c -1.69426,0.0227 -3.06673,1.413299 -3.06658,3.10742 0,1.71002 1.39727,3.10545 3.1076,3.10547 1.71033,-2e-5 3.10761,-1.39545 3.10761,-3.10547 0,-1.71003 -1.39728,-3.10741 -3.10761,-3.10742 -0.0118,-7.1e-5 -0.0233,-8e-5 -0.0352,0 a 0.50007767,0.50005 0 0 0 -0.006,0 z m 0.0137,1 c 0.008,-4e-5 0.0173,-6.1e-5 0.0254,0 a 0.50007767,0.50005 0 0 0 0.002,0 c 1.16999,1e-5 2.10754,0.93796 2.10754,2.10742 0,1.16946 -0.93755,2.105459 -2.10754,2.10547 -1.16999,-1.1e-5 -2.10754,-0.93601 -2.10754,-2.10547 -1e-4,-1.15827 0.92151,-2.09187 2.08019,-2.10742 z m -4.07053,7.56445 c -0.4747,0 -0.87113,0.39831 -0.87113,0.87305 v 1.302729 c 0,0.47473 0.39646,0.87305 0.87113,0.87305 h 1.92197 v 7.9375 h -1.92197 c -0.4747,0 -0.87113,0.39831 -0.87113,0.87304 v 1.30274 c 0,0.47474 0.39643,0.87303 0.87113,0.87305 h 8.19576 c 0.4747,-9e-6 0.8731,-0.39831 0.8731,-0.87305 v -1.30274 c 0,-0.47473 -0.3984,-0.87304 -0.8731,-0.87304 h -1.92197 v -8.81055 -1.302729 c 0,-0.474751 -0.39646,-0.87305 -0.87114,-0.87305 h -2.60758 z m 0.12892,1 h 2.66615 2.47866 v 1.17578 9.31055 a 0.50007767,0.50005 0 0 0 0.50004,0.5 h 2.29503 v 1.04883 h -7.93988 v -1.04883 h 2.29309 a 0.50007767,0.50005 0 0 0 0.50003,-0.5 v -8.9375 a 0.50007767,0.50005 0 0 0 -0.50003,-0.5 h -2.29309 z" />
    <path
       id="rect984-3-3-6-1-9-1-3-3"
       style="display:inline;fill:#fdfcfb;fill-opacity:1;stroke:none;stroke-width:1.80067;stroke-linejoin:round"
       d="m 47.96502,35.700063 a 2.6075044,2.6068966 0 0 0 -2.5725,2.606899 2.6075044,2.6068966 0 0 0 2.60748,2.6069 2.6075044,2.6068966 0 0 0 2.60748,-2.6069 A 2.6075044,2.6068966 0 0 0 48,35.700063 a 2.6075044,2.6068966 0 0 0 -0.0348,0 z m -4.06254,8.565519 c -0.20634,0 -0.37248,0.1661 -0.37248,0.37242 v 1.30344 c 0,0.206331 0.16614,0.37242 0.37248,0.37242 h 2.42124 v 8.93793 h -2.42124 c -0.20634,0 -0.37248,0.1661 -0.37248,0.37242 v 1.30344 c 0,0.20632 0.16614,0.37242 0.37248,0.37242 h 8.19504 c 0.20634,0 0.37248,-0.1661 0.37248,-0.37242 v -1.30344 c 0,-0.20632 -0.16614,-0.37242 -0.37248,-0.37242 h -2.4213 v -9.310339 -1.30345 c 0,-0.20631 -0.16614,-0.37241 -0.37248,-0.37241 h -2.60748 z" />
  </g>
</svg>
