<?xml version="1.0" encoding="UTF-8" standalone="no"?>
<svg
   xmlns:dc="http://purl.org/dc/elements/1.1/"
   xmlns:cc="http://creativecommons.org/ns#"
   xmlns:rdf="http://www.w3.org/1999/02/22-rdf-syntax-ns#"
   xmlns:svg="http://www.w3.org/2000/svg"
   xmlns="http://www.w3.org/2000/svg"
   xmlns:sodipodi="http://sodipodi.sourceforge.net/DTD/sodipodi-0.dtd"
   xmlns:inkscape="http://www.inkscape.org/namespaces/inkscape"
   width="64"
   height="64"
   viewBox="0 0 64 64"
   version="1.1"
   id="svg6374"
   inkscape:version="1.0.2 (e86c870879, 2021-01-15)"
   sodipodi:docname="emblem-shared-symbolic.svg">
  <defs
     id="defs6368" />
  <sodipodi:namedview
     id="base"
     pagecolor="#cecece"
     bordercolor="#666666"
     borderopacity="1.0"
     inkscape:pageopacity="0"
     inkscape:pageshadow="2"
     inkscape:zoom="1.2622617"
     inkscape:cx="108.25178"
     inkscape:cy="80.048091"
     inkscape:document-units="px"
     inkscape:current-layer="layer1"
     inkscape:document-rotation="0"
     showgrid="false"
     units="px"
     inkscape:window-width="1500"
     inkscape:window-height="970"
     inkscape:window-x="68"
     inkscape:window-y="56"
     inkscape:window-maximized="0" />
  <metadata
     id="metadata6371">
    <rdf:RDF>
      <cc:Work
         rdf:about="">
        <dc:format>image/svg+xml</dc:format>
        <dc:type
           rdf:resource="http://purl.org/dc/dcmitype/StillImage" />
        <dc:title></dc:title>
      </cc:Work>
    </rdf:RDF>
  </metadata>
  <g
     inkscape:label="Layer 1"
     inkscape:groupmode="layer"
     id="layer1">
    <path
       id="rect891-7"
       style="fill:#808084;fill-opacity:1;stroke:none;stroke-width:0;stroke-linejoin:round;stroke-miterlimit:4;stroke-dasharray:none"
       d="M 51.474128,9.0503269e-7 A 12.000006,12 0 0 0 45.065923,1.8544929 12.000006,12 0 0 0 39.474613,12.000489 12.000006,12 0 0 0 40.03174,15.612793 L 15.279288,31.07959 A 9.0000037,8.9999993 0 0 0 9.5253788,29 9.0000037,8.9999993 0 0 0 0.52537475,38 9.0000037,8.9999993 0 0 0 9.5253788,46.999999 9.0000037,8.9999993 0 0 0 15.832999,44.419922 l 17.246591,8.41162 a 10.125004,10.125 0 0 0 -0.0542,1.043457 10.125004,10.125 0 0 0 10.125004,10.125 10.125004,10.125 0 0 0 10.125005,-10.125 10.125004,10.125 0 0 0 -10.125005,-10.125 10.125004,10.125 0 0 0 -7.707033,3.559083 L 18.466301,39.028807 A 9.0000037,8.9999993 0 0 0 18.525381,38 9.0000037,8.9999993 0 0 0 18.350576,36.23584 L 43.210943,20.701172 A 12.000006,12 0 0 0 51.474618,24 12.000006,12 0 0 0 63.474625,12.000001 12.000006,12 0 0 0 51.474128,9.0503269e-7 Z" />
  </g>
</svg>
