<?xml version="1.0" encoding="UTF-8" standalone="no"?>
<svg
   xmlns:dc="http://purl.org/dc/elements/1.1/"
   xmlns:cc="http://creativecommons.org/ns#"
   xmlns:rdf="http://www.w3.org/1999/02/22-rdf-syntax-ns#"
   xmlns:svg="http://www.w3.org/2000/svg"
   xmlns="http://www.w3.org/2000/svg"
   xmlns:xlink="http://www.w3.org/1999/xlink"
   xmlns:sodipodi="http://sodipodi.sourceforge.net/DTD/sodipodi-0.dtd"
   xmlns:inkscape="http://www.inkscape.org/namespaces/inkscape"
   width="64"
   height="64"
   viewBox="0 0 64 64"
   version="1.1"
   id="svg6374"
   inkscape:version="1.0.2 (e86c870879, 2021-01-15)"
   sodipodi:docname="list-remove-all.svg">
  <defs
     id="defs6368">
    <linearGradient
       inkscape:collect="always"
       xlink:href="#linearGradient979-8"
       id="linearGradient1888"
       gradientUnits="userSpaceOnUse"
       gradientTransform="matrix(3.7795275,0,0,3.7795275,0,-100)"
       x1="8.3343754"
       y1="37.041672"
       x2="8.598959"
       y2="29.104166" />
    <linearGradient
       inkscape:collect="always"
       id="linearGradient979-8">
      <stop
         style="stop-color:#f9f9f7;stop-opacity:0"
         offset="0"
         id="stop975-7" />
      <stop
         style="stop-color:#f9f9f7;stop-opacity:0.1"
         offset="1"
         id="stop977-9" />
    </linearGradient>
  </defs>
  <sodipodi:namedview
     id="base"
     pagecolor="#cecece"
     bordercolor="#666666"
     borderopacity="1.0"
     inkscape:pageopacity="0"
     inkscape:pageshadow="2"
     inkscape:zoom="4.8709842"
     inkscape:cx="-40.173912"
     inkscape:cy="62.354041"
     inkscape:document-units="px"
     inkscape:current-layer="layer1"
     inkscape:document-rotation="0"
     showgrid="false"
     units="px"
     inkscape:window-width="2048"
     inkscape:window-height="1080"
     inkscape:window-x="0"
     inkscape:window-y="0"
     inkscape:window-maximized="1" />
  <metadata
     id="metadata6371">
    <rdf:RDF>
      <cc:Work
         rdf:about="">
        <dc:format>image/svg+xml</dc:format>
        <dc:type
           rdf:resource="http://purl.org/dc/dcmitype/StillImage" />
        <dc:title></dc:title>
      </cc:Work>
    </rdf:RDF>
  </metadata>
  <g
     inkscape:label="Layer 1"
     inkscape:groupmode="layer"
     id="layer1">
    <path
       id="path1181-0-2-9-62-2-2-0-0-6"
       style="color:#000000;font-style:normal;font-variant:normal;font-weight:normal;font-stretch:normal;font-size:medium;line-height:normal;font-family:sans-serif;font-variant-ligatures:normal;font-variant-position:normal;font-variant-caps:normal;font-variant-numeric:normal;font-variant-alternates:normal;font-variant-east-asian:normal;font-feature-settings:normal;font-variation-settings:normal;text-indent:0;text-align:start;text-decoration:none;text-decoration-line:none;text-decoration-style:solid;text-decoration-color:#000000;letter-spacing:normal;word-spacing:normal;text-transform:none;writing-mode:lr-tb;direction:ltr;text-orientation:mixed;dominant-baseline:auto;baseline-shift:baseline;text-anchor:start;white-space:normal;shape-padding:0;shape-margin:0;inline-size:0;clip-rule:nonzero;display:inline;overflow:visible;visibility:visible;opacity:0.15;isolation:auto;mix-blend-mode:normal;color-interpolation:sRGB;color-interpolation-filters:linearRGB;solid-color:#000000;solid-opacity:1;vector-effect:none;fill:#0c0c0c;fill-opacity:1;fill-rule:nonzero;stroke:none;stroke-width:0;stroke-linecap:round;stroke-linejoin:round;stroke-miterlimit:4;stroke-dasharray:none;stroke-dashoffset:2.1875;stroke-opacity:1;color-rendering:auto;image-rendering:auto;shape-rendering:auto;text-rendering:auto;enable-background:accumulate;stop-color:#000000"
       d="M 32,9.5 C 18.7619,9.5 8,20.2634 8,33.501 8,46.7386 18.7619,57.49999 32,57.49999 45.2382,57.49999 56,46.73859 56,33.501 56,20.2634 45.2382,9.5 32,9.5 Z m 0,2.9982 c 11.6167,0 21.0037,9.3866 21.0037,21.0028 0,11.6162 -9.387,21.00079 -21.0037,21.00079 -11.6166,0 -21.0036,-9.38459 -21.0036,-21.00079 0,-11.6162 9.387,-21.0028 21.0036,-21.0028 z" />
    <path
       id="path1181-0-6-2-9-0-9-2-3-1"
       style="color:#000000;font-style:normal;font-variant:normal;font-weight:normal;font-stretch:normal;font-size:medium;line-height:normal;font-family:sans-serif;font-variant-ligatures:normal;font-variant-position:normal;font-variant-caps:normal;font-variant-numeric:normal;font-variant-alternates:normal;font-variant-east-asian:normal;font-feature-settings:normal;font-variation-settings:normal;text-indent:0;text-align:start;text-decoration:none;text-decoration-line:none;text-decoration-style:solid;text-decoration-color:#000000;letter-spacing:normal;word-spacing:normal;text-transform:none;writing-mode:lr-tb;direction:ltr;text-orientation:mixed;dominant-baseline:auto;baseline-shift:baseline;text-anchor:start;white-space:normal;shape-padding:0;shape-margin:0;inline-size:0;clip-rule:nonzero;display:inline;overflow:visible;visibility:visible;opacity:0.85;isolation:auto;mix-blend-mode:normal;color-interpolation:sRGB;color-interpolation-filters:linearRGB;solid-color:#000000;solid-opacity:1;vector-effect:none;fill:#982041;fill-opacity:1;fill-rule:nonzero;stroke:none;stroke-width:3.77975;stroke-linecap:round;stroke-linejoin:round;stroke-miterlimit:4;stroke-dasharray:none;stroke-dashoffset:2.1875;stroke-opacity:1;color-rendering:auto;image-rendering:auto;shape-rendering:auto;text-rendering:auto;enable-background:accumulate;stop-color:#000000"
       d="M 32,8 C 18.7619,8 8,18.7634 8,32.001 8,45.2386 18.7619,55.99999 32,55.99999 45.2382,55.99999 56,45.23859 56,32.001 56,18.7634 45.2382,8 32,8 Z m 0,2.9982 c 11.6167,0 21.0037,9.3866 21.0037,21.0028 0,11.6162 -9.387,21.0008 -21.0037,21.0008 -11.6166,0 -21.0036,-9.3846 -21.0036,-21.0008 0,-11.6162 9.387,-21.0028 21.0036,-21.0028 z" />
    <circle
       style="fill:#d53460;fill-opacity:1;stroke:#771832;stroke-width:0;stroke-linecap:round;stroke-linejoin:round;stroke-miterlimit:4;stroke-dasharray:none;stroke-dashoffset:2.1875;stroke-opacity:1"
       id="path1181-0-1-2-1-1-6-5"
       cx="32.000015"
       cy="32"
       r="22.499998" />
    <circle
       style="display:inline;fill:url(#linearGradient1888);fill-opacity:1;stroke:#771832;stroke-width:0;stroke-linecap:round;stroke-linejoin:round;stroke-miterlimit:4;stroke-dasharray:none;stroke-dashoffset:2.1875;stroke-opacity:1"
       id="path1181-6-2-7-3-2-0-1-5"
       cx="32.000015"
       cy="32"
       r="22.499998" />
    <path
       id="path1181-0-2-9-3-2-7-7-5-0-4"
       style="color:#000000;font-style:normal;font-variant:normal;font-weight:normal;font-stretch:normal;font-size:medium;line-height:normal;font-family:sans-serif;font-variant-ligatures:normal;font-variant-position:normal;font-variant-caps:normal;font-variant-numeric:normal;font-variant-alternates:normal;font-variant-east-asian:normal;font-feature-settings:normal;font-variation-settings:normal;text-indent:0;text-align:start;text-decoration:none;text-decoration-line:none;text-decoration-style:solid;text-decoration-color:#000000;letter-spacing:normal;word-spacing:normal;text-transform:none;writing-mode:lr-tb;direction:ltr;text-orientation:mixed;dominant-baseline:auto;baseline-shift:baseline;text-anchor:start;white-space:normal;shape-padding:0;shape-margin:0;inline-size:0;clip-rule:nonzero;display:inline;overflow:visible;visibility:visible;opacity:0.15;isolation:auto;mix-blend-mode:normal;color-interpolation:sRGB;color-interpolation-filters:linearRGB;solid-color:#000000;solid-opacity:1;vector-effect:none;fill:#65152b;fill-opacity:1;fill-rule:nonzero;stroke:none;stroke-width:0;stroke-linecap:round;stroke-linejoin:round;stroke-miterlimit:4;stroke-dasharray:none;stroke-dashoffset:2.1875;stroke-opacity:1;color-rendering:auto;image-rendering:auto;shape-rendering:auto;text-rendering:auto;enable-background:accumulate;stop-color:#000000"
       d="M 32,8 C 18.7619,8 8,18.7634 8,32.001 8,45.2386 18.7619,55.99999 32,55.99999 45.2382,55.99999 56,45.23859 56,32.001 56,18.7634 45.2382,8 32,8 Z m 0,2.9982 c 11.6167,0 21.0037,9.3866 21.0037,21.0028 0,11.6162 -9.387,21.0008 -21.0037,21.0008 -11.6166,0 -21.0036,-9.3846 -21.0036,-21.0008 0,-11.6162 9.387,-21.0028 21.0036,-21.0028 z" />
    <path
       id="rect4307-0-2-9-9-3-2-7-06-9-6"
       style="color:#000000;font-style:normal;font-variant:normal;font-weight:normal;font-stretch:normal;font-size:medium;line-height:normal;font-family:sans-serif;font-variant-ligatures:normal;font-variant-position:normal;font-variant-caps:normal;font-variant-numeric:normal;font-variant-alternates:normal;font-variant-east-asian:normal;font-feature-settings:normal;font-variation-settings:normal;text-indent:0;text-align:start;text-decoration:none;text-decoration-line:none;text-decoration-style:solid;text-decoration-color:#000000;letter-spacing:normal;word-spacing:normal;text-transform:none;writing-mode:lr-tb;direction:ltr;text-orientation:mixed;dominant-baseline:auto;baseline-shift:baseline;text-anchor:start;white-space:normal;shape-padding:0;shape-margin:0;inline-size:0;clip-rule:nonzero;display:inline;overflow:visible;visibility:visible;opacity:0.25;isolation:auto;mix-blend-mode:normal;color-interpolation:sRGB;color-interpolation-filters:linearRGB;solid-color:#000000;solid-opacity:1;vector-effect:none;fill:#65152b;fill-opacity:1;fill-rule:nonzero;stroke:none;stroke-width:3.77953;stroke-linecap:round;stroke-linejoin:round;stroke-miterlimit:4;stroke-dasharray:none;stroke-dashoffset:2.1875;stroke-opacity:1;color-rendering:auto;image-rendering:auto;shape-rendering:auto;text-rendering:auto;enable-background:accumulate;stop-color:#000000"
       d="m 41.5465,21.83389 c -0.67635,-0.67635 -1.79718,-0.67769 -2.47353,-0.001 l -7.07383,7.07382 -7.07241,-7.07241 c -0.67642,-0.67642 -1.79711,-0.67776 -2.47346,-10e-4 l -2.11997,2.11997 c -0.67635,0.67635 -0.67642,1.79846 0,2.47488 l 7.07241,7.07241 -7.07249,7.07248 c -0.67634,0.67635 -0.67627,1.79845 8e-5,2.4748 l 2.11856,2.11856 c 0.67635,0.67635 1.79845,0.67642 2.4748,8e-5 l 7.07248,-7.07249 7.07241,7.07241 c 0.67642,0.67642 1.79853,0.67635 2.47488,0 l 2.11997,-2.11997 c 0.67635,-0.67635 0.67501,-1.79704 -0.001,-2.47346 l -7.07241,-7.07241 7.07382,-7.07383 c 0.67635,-0.67635 0.67501,-1.79718 -10e-4,-2.47353 z m -1.05932,1.05932 2.11856,2.11856 c 0.10713,0.10712 0.10812,0.24812 0.001,0.35504 l -7.60006,7.60005 a 0.75007497,0.75007497 0 0 0 -0.001,1.06483 l 7.59998,7.59999 c 0.10713,0.10712 0.10819,0.24819 0.002,0.35482 l -2.11991,2.11991 c -0.1072,0.1072 -0.24777,0.10564 -0.35489,-10e-4 l -7.59999,-7.59998 a 0.75007497,0.75007497 0 0 0 -1.06483,0.001 l -7.59998,7.59999 c -0.1072,0.10719 -0.24763,0.10564 -0.35476,-10e-4 l -2.11856,-2.11856 c -0.10713,-0.10713 -0.10812,-0.24812 -10e-4,-0.35476 l 7.59999,-7.59998 a 0.75007497,0.75007497 0 0 0 0.005,-1.06073 L 21.39465,25.3673 c -0.10713,-0.10712 -0.10819,-0.24819 -10e-4,-0.35489 l 2.11991,-2.11991 c 0.10719,-0.1072 0.2477,-0.10557 0.35482,0.002 l 7.60409,7.60408 a 0.75007497,0.75007497 0 0 0 1.06066,-0.006 l 7.60005,-7.60006 c 0.1072,-0.10719 0.24799,-0.10585 0.35511,10e-4 z" />
    <path
       id="rect4307-0-2-9-9-1-5-3-3-9"
       style="color:#000000;font-style:normal;font-variant:normal;font-weight:normal;font-stretch:normal;font-size:medium;line-height:normal;font-family:sans-serif;font-variant-ligatures:normal;font-variant-position:normal;font-variant-caps:normal;font-variant-numeric:normal;font-variant-alternates:normal;font-variant-east-asian:normal;font-feature-settings:normal;font-variation-settings:normal;text-indent:0;text-align:start;text-decoration:none;text-decoration-line:none;text-decoration-style:solid;text-decoration-color:#000000;letter-spacing:normal;word-spacing:normal;text-transform:none;writing-mode:lr-tb;direction:ltr;text-orientation:mixed;dominant-baseline:auto;baseline-shift:baseline;text-anchor:start;white-space:normal;shape-padding:0;shape-margin:0;inline-size:0;clip-rule:nonzero;display:inline;overflow:visible;visibility:visible;opacity:0.75;isolation:auto;mix-blend-mode:normal;color-interpolation:sRGB;color-interpolation-filters:linearRGB;solid-color:#000000;solid-opacity:1;vector-effect:none;fill:#65152b;fill-opacity:1;fill-rule:nonzero;stroke:none;stroke-width:3.77957;stroke-linecap:round;stroke-linejoin:round;stroke-miterlimit:4;stroke-dasharray:none;stroke-dashoffset:2.1875;stroke-opacity:1;color-rendering:auto;image-rendering:auto;shape-rendering:auto;text-rendering:auto;enable-background:accumulate;stop-color:#000000"
       d="m 41.54696,20.33392 c -0.67636,-0.67635 -1.79715,-0.67777 -2.47358,-10e-4 l -7.07396,7.07383 -7.07255,-7.07241 c -0.67643,-0.67642 -1.79715,-0.67777 -2.47351,-0.001 l -2.12002,2.11998 c -0.67636,0.67635 -0.67643,1.79845 0,2.47487 l 7.07255,7.07241 -7.07262,7.07249 c -0.67636,0.67634 -0.67636,1.79852 0,2.47487 l 2.1186,2.11856 c 0.67637,0.67635 1.79857,0.67635 2.47492,0 l 7.07263,-7.07248 7.07255,7.07241 c 0.67643,0.67642 1.79856,0.67635 2.47492,0 l 2.12002,-2.11998 c 0.67637,-0.67634 0.67502,-1.79704 -0.001,-2.47346 l -7.07255,-7.07241 7.07397,-7.07382 c 0.67644,-0.67642 0.67502,-1.79718 -10e-4,-2.47353 z m -1.05933,1.05931 2.1186,2.11856 c 0.10712,0.10713 0.10811,0.24813 0.001,0.35476 l -7.60013,7.59998 a 0.75008974,0.75007497 0 0 0 -10e-4,1.06484 l 7.60013,7.59998 c 0.10713,0.10713 0.10819,0.24819 0.001,0.3549 l -2.11994,2.1199 c -0.1072,0.1072 -0.24778,0.10564 -0.35491,-10e-4 l -7.60013,-7.59999 a 0.75008974,0.75007497 0 0 0 -1.06485,0.001 l -7.60014,7.59998 c -0.1072,0.1072 -0.24763,0.10564 -0.35475,-0.001 l -2.11862,-2.11857 c -0.10712,-0.10712 -0.10811,-0.24812 -10e-4,-0.35475 l 7.60013,-7.59999 a 0.75008974,0.75007497 0 0 0 0.005,-1.06073 l -7.60424,-7.60408 c -0.10712,-0.10713 -0.10818,-0.2482 -0.001,-0.3549 l 2.11995,-2.1199 c 0.1072,-0.1072 0.24777,-0.10565 0.3549,0.001 l 7.60424,7.60409 a 0.75008974,0.75007497 0 0 0 1.06068,-0.006 l 7.60013,-7.59998 c 0.10713,-0.10713 0.24771,-0.10557 0.35484,0.002 z" />
    <path
       id="rect4307-0-2-6-35-2-7-3"
       style="fill:#fbfcfd;fill-opacity:1;stroke:none;stroke-width:0;stroke-linecap:round;stroke-linejoin:round;stroke-miterlimit:4;stroke-dasharray:none;stroke-dashoffset:2.1875;stroke-opacity:1"
       d="m 41.01521,20.86283 c -0.39175,-0.39174 -1.0225,-0.39174 -1.41425,0 l -7.60154,7.6014 -7.60155,-7.6014 c -0.39175,-0.39174 -1.0225,-0.39174 -1.41432,7e-5 l -2.12129,2.12125 c -0.39173,0.39174 -0.39173,1.02248 0,1.41422 l 7.60155,7.60139 -7.60162,7.60147 c -0.39173,0.39174 -0.39166,1.02241 7e-5,1.41414 l 2.12136,2.12132 c 0.39175,0.39174 1.02243,0.39181 1.41418,8e-5 l 7.60162,-7.60147 7.60154,7.60139 c 0.39175,0.39174 1.0225,0.39174 1.41425,0 l 2.12129,-2.12124 c 0.39182,-0.39181 0.39182,-1.02255 7e-5,-1.41429 l -7.60155,-7.6014 7.60155,-7.60139 c 0.39175,-0.39174 0.39175,-1.02248 0,-1.41422 z" />
  </g>
</svg>
