<?xml version="1.0" encoding="UTF-8" standalone="no"?>
<svg
   xmlns:dc="http://purl.org/dc/elements/1.1/"
   xmlns:cc="http://creativecommons.org/ns#"
   xmlns:rdf="http://www.w3.org/1999/02/22-rdf-syntax-ns#"
   xmlns:svg="http://www.w3.org/2000/svg"
   xmlns="http://www.w3.org/2000/svg"
   xmlns:sodipodi="http://sodipodi.sourceforge.net/DTD/sodipodi-0.dtd"
   xmlns:inkscape="http://www.inkscape.org/namespaces/inkscape"
   width="64"
   height="64"
   viewBox="0 0 64 64"
   version="1.1"
   id="svg6374"
   inkscape:version="1.0.2 (e86c870879, 2021-01-15)"
   sodipodi:docname="system-run.svg">
  <defs
     id="defs6368" />
  <sodipodi:namedview
     id="base"
     pagecolor="#cecece"
     bordercolor="#666666"
     borderopacity="1.0"
     inkscape:pageopacity="0"
     inkscape:pageshadow="2"
     inkscape:zoom="5.4536202"
     inkscape:cx="7.1196352"
     inkscape:cy="35.891178"
     inkscape:document-units="px"
     inkscape:current-layer="layer1"
     inkscape:document-rotation="0"
     showgrid="false"
     units="px"
     inkscape:window-width="2048"
     inkscape:window-height="1080"
     inkscape:window-x="0"
     inkscape:window-y="0"
     inkscape:window-maximized="1" />
  <metadata
     id="metadata6371">
    <rdf:RDF>
      <cc:Work
         rdf:about="">
        <dc:format>image/svg+xml</dc:format>
        <dc:type
           rdf:resource="http://purl.org/dc/dcmitype/StillImage" />
        <dc:title></dc:title>
      </cc:Work>
    </rdf:RDF>
  </metadata>
  <g
     inkscape:label="Layer 1"
     inkscape:groupmode="layer"
     id="layer1">
    <path
       id="rect1475-9-6-4-8-9-3-3-5"
       style="color:#000000;font-style:normal;font-variant:normal;font-weight:normal;font-stretch:normal;font-size:medium;line-height:normal;font-family:sans-serif;font-variant-ligatures:normal;font-variant-position:normal;font-variant-caps:normal;font-variant-numeric:normal;font-variant-alternates:normal;font-variant-east-asian:normal;font-feature-settings:normal;font-variation-settings:normal;text-indent:0;text-align:start;text-decoration:none;text-decoration-line:none;text-decoration-style:solid;text-decoration-color:#000000;letter-spacing:normal;word-spacing:normal;text-transform:none;writing-mode:lr-tb;direction:ltr;text-orientation:mixed;dominant-baseline:auto;baseline-shift:baseline;text-anchor:start;white-space:normal;shape-padding:0;shape-margin:0;inline-size:0;clip-rule:nonzero;display:inline;overflow:visible;visibility:visible;opacity:0.15;isolation:auto;mix-blend-mode:normal;color-interpolation:sRGB;color-interpolation-filters:linearRGB;solid-color:#000000;solid-opacity:1;vector-effect:none;fill:#0c0c0c;fill-opacity:1;fill-rule:nonzero;stroke:none;stroke-width:1.06847;stroke-linecap:round;stroke-linejoin:round;stroke-miterlimit:4;stroke-dasharray:none;stroke-dashoffset:2.1875;stroke-opacity:1;color-rendering:auto;image-rendering:auto;shape-rendering:auto;text-rendering:auto;enable-background:accumulate;stop-color:#000000"
       d="m 32.000199,2.6044 c -3.82292,5e-4 -6.94553,3.1222 -6.94553,6.9445 -2e-5,0.1245 0.0247,0.2472 0.0313,0.3714 l -9.66492,5.5798 c -0.10448,-0.068 -0.19866,-0.1505 -0.30677,-0.2129 -3.31122,-1.9117 -7.5759197,-0.7693 -9.4875097,2.5416 -1.91192,3.3107 -0.76946,7.5748 2.54197,9.486 a 1.0686512,1.0684829 0 0 0 0.002,0 c 0.10765,0.062 0.22526,0.1026 0.336,0.1586 v 11.1575 c -0.11106,0.056 -0.23016,0.096 -0.33809,0.1586 -3.31079,1.9111 -4.45303,6.1755 -2.54196,9.486 1.91144,3.3102 6.1765197,4.4522 9.4875097,2.5415 0.10796,-0.062 0.20238,-0.1448 0.30677,-0.2128 l 9.66492,5.5777 c -0.006,0.1249 -0.0312,0.2483 -0.0313,0.3735 5.3e-4,3.8223 3.12265,6.9444 6.94553,6.9444 3.82293,-5e-4 6.94555,-3.1221 6.94555,-6.9444 10e-6,-0.1245 -0.0247,-0.2472 -0.0313,-0.3714 l 9.6649,-5.5798 c 0.10438,0.068 0.19879,0.1506 0.30678,0.2128 3.31119,1.9117 7.57589,0.7693 9.48751,-2.5415 1.912,-3.3107 0.76948,-7.5768 -2.54196,-9.4881 a 1.0686512,1.0684829 0 0 0 -0.002,0 c -0.10813,-0.062 -0.22687,-0.1024 -0.3381,-0.1586 V 27.4734 c 0.11151,-0.057 0.22972,-0.098 0.3381,-0.1606 3.31083,-1.9111 4.45508,-6.1755 2.54405,-9.486 -1.91144,-3.3103 -6.1765,-4.4545 -9.48751,-2.5437 -0.10845,0.063 -0.20403,0.1445 -0.30887,0.2128 l -9.66287,-5.5776 c 0.006,-0.1249 0.0312,-0.2483 0.0313,-0.3735 -2.4e-4,-2.2709 -1.20106,-4.3039 -3.04075,-5.5965 a 1.0686512,1.0684829 0 0 0 -0.38402,-0.3881 c -1.06736,-0.6277 -2.28248,-0.9579 -3.52077,-0.9578 z m 0,2.1368 c 0.85738,-10e-5 1.69858,0.229 2.43762,0.6636 1.46996,0.8645 2.37065,2.4389 2.37083,4.1441 -2.6e-4,0.2631 -0.0235,0.5271 -0.0668,0.7867 a 1.0686512,1.0684829 0 0 0 0.51967,1.0996 l 10.82945,6.2517 a 1.0686512,1.0684829 0 0 0 1.21254,-0.1001 c 0.20382,-0.1676 0.42264,-0.3188 0.65114,-0.4507 2.31078,-1.3336 5.23378,-0.5491 6.5678,1.7611 1.33374,2.3105 0.54922,5.233 -1.76143,6.5668 -0.22808,0.1317 -0.4672,0.2433 -0.71376,0.3359 a 1.0686512,1.0684829 0 0 0 -0.69289,1.0016 v 12.5034 a 1.0686512,1.0684829 0 0 0 0.69498,1.0016 c 0.24688,0.092 0.48736,0.2046 0.71585,0.3359 2.30902,1.3347 3.09114,4.2571 1.75725,6.5668 -1.33415,2.3107 -4.25689,3.0933 -6.5678,1.7591 a 1.0686512,1.0684829 0 0 0 -0.002,0 c -0.22828,-0.1317 -0.44337,-0.2815 -0.647,-0.4487 a 1.0686512,1.0684829 0 0 0 -1.21255,-0.1001 l -10.82945,6.2517 a 1.0686512,1.0684829 0 0 0 -0.51967,1.0997 c 0.0431,0.2598 0.0647,0.5233 0.0647,0.7866 0,2.6677 -2.1404,4.8074 -4.80845,4.8077 -2.66731,0 -4.80693,-2.139 -4.80844,-4.8056 v 0 c 2.6e-4,-0.2631 0.0215,-0.5271 0.0647,-0.7866 a 1.0686512,1.0684829 0 0 0 -0.51966,-1.0998 l -10.82946,-6.2516 a 1.0686512,1.0684829 0 0 0 -1.21254,0.1001 c -0.20385,0.1676 -0.42053,0.3167 -0.64905,0.4486 -2.31076,1.3335 -5.2337797,0.5512 -6.5677997,-1.759 -1.33375,-2.3105 -0.55128,-5.233 1.75935,-6.5668 a 1.0686512,1.0684829 0 0 0 0.002,0 c 0.2281,-0.1317 0.46508,-0.2454 0.71165,-0.338 A 1.0686512,1.0684829 0 0 0 10.643879,39.3069 V 26.8036 A 1.0686512,1.0684829 0 0 0 9.9488993,25.802 c -0.24627,-0.092 -0.48371,-0.205 -0.71165,-0.336 h -0.002 c -2.30998,-1.3342 -3.09342,-4.2566 -1.75934,-6.5667 1.33412,-2.3107 4.2589397,-3.0933 6.5698797,-1.7591 0.22825,0.1317 0.44538,0.2815 0.64905,0.4487 a 1.0686512,1.0684829 0 0 0 1.21254,0.1001 l 10.82946,-6.2517 a 1.0686512,1.0684829 0 0 0 0.51967,-1.0997 c -0.0431,-0.2598 -0.0647,-0.5233 -0.0647,-0.7867 0,-2.6676 2.14039,-4.8073 4.80844,-4.8077 z m 3.73156,8.2778 a 1.0686512,1.0684829 0 0 0 -0.67828,0.2442 c -0.40781,0.3349 -0.86662,0.5991 -1.36073,0.7845 a 1.0686512,1.0684829 0 0 0 -0.69287,1.0016 v 12.5055 a 1.0686512,1.0684829 0 0 0 0.69287,0.9995 c 0.49322,0.1854 0.95147,0.4502 1.35865,0.7846 a 1.0686512,1.0684829 0 0 0 1.21254,0.1001 l 10.83154,-6.2517 a 1.0686512,1.0684829 0 0 0 0.51967,-1.0997 c -0.0862,-0.5203 -0.0862,-1.053 0,-1.5733 a 1.0686512,1.0684829 0 0 0 -0.51967,-1.0997 l -10.82945,-6.2517 a 1.0686512,1.0684829 0 0 0 -0.53427,-0.1439 z m -7.4485,0 a 1.0686512,1.0684829 0 0 0 -0.54888,0.1419 l -10.83154,6.2538 a 1.0686512,1.0684829 0 0 0 -0.51966,1.0997 c 0.0864,0.5205 0.0862,1.0506 0,1.5712 a 1.0686512,1.0684829 0 0 0 0.52175,1.0997 l 10.82945,6.2537 a 1.0686512,1.0684829 0 0 0 1.21462,-0.1022 c 0.20319,-0.1673 0.41918,-0.3168 0.64698,-0.4486 0.22828,-0.1322 0.46691,-0.2451 0.71376,-0.3381 a 1.0686512,1.0684829 0 0 0 0.69079,-0.9995 l 0.002,-12.5033 a 1.0686512,1.0684829 0 0 0 -0.69288,-0.9995 c -0.49423,-0.1856 -0.95496,-0.4516 -1.36282,-0.7867 a 1.0686512,1.0684829 0 0 0 -0.66363,-0.242 z m 0,2.2933 c 0.18882,0.1216 0.38255,0.2311 0.58227,0.3338 l -0.002,11.2326 c -0.11133,0.057 -0.22988,0.098 -0.33808,0.1607 -0.10746,0.062 -0.20082,0.145 -0.30471,0.2128 l -9.72752,-5.6152 c 0.0109,-0.2251 0.008,-0.4489 -0.002,-0.674 z m 7.43389,0 9.79012,5.6507 c -0.0109,0.2245 -0.0109,0.4474 0,0.6719 l -9.79221,5.6507 c -0.18778,-0.1208 -0.37955,-0.2316 -0.57809,-0.3338 V 15.6462 c 0.19928,-0.1025 0.39174,-0.2126 0.58018,-0.3339 z m -20.34409,9.4589 a 1.0686512,1.0684829 0 0 0 -0.67826,0.242 c -0.4078,0.3349 -0.86875,0.6012 -1.36281,0.7867 a 1.0686512,1.0684829 0 0 0 -0.69289,0.9995 v 12.5034 a 1.0686512,1.0684829 0 0 0 0.69289,1.0016 c 0.49423,0.1855 0.95493,0.4515 1.36281,0.7866 a 1.0686512,1.0684829 0 0 0 1.21254,0.098 l 10.82945,-6.2516 a 1.0686512,1.0684829 0 0 0 0.51967,-1.0997 c -0.0862,-0.5203 -0.0862,-1.051 0,-1.5713 a 1.0686512,1.0684829 0 0 0 -0.51967,-1.0997 L 15.907339,24.913 a 1.0686512,1.0684829 0 0 0 -0.53428,-0.1419 z m 33.27098,0 a 1.0686512,1.0684829 0 0 0 -0.55096,0.1419 l -10.82946,6.2537 a 1.0686512,1.0684829 0 0 0 -0.51967,1.0997 c 0.0864,0.5205 0.0862,1.0507 0,1.5713 a 1.0686512,1.0684829 0 0 0 0.51967,1.0996 l 10.82946,6.2538 a 1.0686512,1.0684829 0 0 0 1.21254,-0.1001 c 0.4078,-0.335 0.86874,-0.6012 1.36281,-0.7867 a 1.0686512,1.0684829 0 0 0 0.69288,-0.9995 V 26.7995 A 1.0686512,1.0684829 0 0 0 50.668429,25.8 c -0.49423,-0.1856 -0.95494,-0.4516 -1.36281,-0.7867 a 1.0686512,1.0684829 0 0 0 -0.66158,-0.2421 z m -33.28558,2.2932 9.79012,5.6507 c -0.0109,0.2245 -0.0109,0.4474 0,0.6719 l -9.79012,5.6528 c -0.18903,-0.1217 -0.38234,-0.2331 -0.58226,-0.3359 V 27.3983 c 0.19964,-0.1026 0.39348,-0.2124 0.58226,-0.3338 z m 33.28349,0 c 0.18903,0.1217 0.38233,0.2331 0.58227,0.336 v 11.3035 c -0.2005,0.1031 -0.39483,0.2138 -0.58435,0.3359 l -9.78804,-5.6506 c 0.0109,-0.2252 0.011,-0.4489 0,-0.674 z m -20.3566,9.4589 a 1.0686512,1.0684829 0 0 0 -0.55097,0.1419 l -10.82945,6.2537 a 1.0686512,1.0684829 0 0 0 -0.51966,1.0997 c 0.0862,0.5203 0.0862,1.051 0,1.5713 a 1.0686512,1.0684829 0 0 0 0.51966,1.0997 l 10.82945,6.2516 a 1.0686512,1.0684829 0 0 0 1.21254,-0.1001 c 0.40781,-0.3349 0.86872,-0.5991 1.36282,-0.7846 a 1.0686512,1.0684829 0 0 0 0.69289,-1.0016 V 38.5516 a 1.0686512,1.0684829 0 0 0 -0.69289,-0.9995 c -0.49421,-0.1856 -0.95498,-0.4515 -1.36282,-0.7867 a 1.0686512,1.0684829 0 0 0 -0.66157,-0.242 z m 7.44432,0 a 1.0686512,1.0684829 0 0 0 -0.68037,0.2421 c -0.20318,0.1673 -0.41916,0.3188 -0.64695,0.4507 -0.22809,0.1317 -0.46512,0.2433 -0.71168,0.3359 a 1.0686512,1.0684829 0 0 0 -0.69288,0.9995 V 51.057 a 1.0686512,1.0684829 0 0 0 0.69288,0.9995 c 0.49423,0.1856 0.95494,0.4515 1.36281,0.7867 a 1.0686512,1.0684829 0 0 0 1.21255,0.1001 l 10.82945,-6.2538 a 1.0686512,1.0684829 0 0 0 0.51967,-1.0997 c -0.0863,-0.5205 -0.0862,-1.0507 0,-1.5712 a 1.0686512,1.0684829 0 0 0 -0.51967,-1.1018 l -10.83154,-6.2516 a 1.0686512,1.0684829 0 0 0 -0.53427,-0.1419 z m -7.44641,2.2933 c 0.18881,0.1215 0.38256,0.2311 0.58227,0.3338 V 50.456 c -0.19967,0.1027 -0.39349,0.2124 -0.58227,0.3339 l -9.79013,-5.6507 c 0.0109,-0.2245 0.0109,-0.4474 0,-0.6719 z m 7.49442,0.035 9.72959,5.6152 c -0.0109,0.2244 -0.0109,0.4475 0,0.6719 l -9.79012,5.6528 c -0.18903,-0.1217 -0.38232,-0.2332 -0.58227,-0.336 V 39.2251 c 0.11123,-0.057 0.22999,-0.098 0.3381,-0.1607 0.10745,-0.062 0.20081,-0.145 0.3047,-0.2128 z" />
    <path
       id="rect1475-9-6-4-8-9-38-9"
       style="color:#000000;font-style:normal;font-variant:normal;font-weight:normal;font-stretch:normal;font-size:medium;line-height:normal;font-family:sans-serif;font-variant-ligatures:normal;font-variant-position:normal;font-variant-caps:normal;font-variant-numeric:normal;font-variant-alternates:normal;font-variant-east-asian:normal;font-feature-settings:normal;font-variation-settings:normal;text-indent:0;text-align:start;text-decoration:none;text-decoration-line:none;text-decoration-style:solid;text-decoration-color:#000000;letter-spacing:normal;word-spacing:normal;text-transform:none;writing-mode:lr-tb;direction:ltr;text-orientation:mixed;dominant-baseline:auto;baseline-shift:baseline;text-anchor:start;white-space:normal;shape-padding:0;shape-margin:0;inline-size:0;clip-rule:nonzero;display:inline;overflow:visible;visibility:visible;opacity:0.95;isolation:auto;mix-blend-mode:normal;color-interpolation:sRGB;color-interpolation-filters:linearRGB;solid-color:#000000;solid-opacity:1;vector-effect:none;fill:#161817;fill-opacity:1;fill-rule:nonzero;stroke:none;stroke-width:1.06847;stroke-linecap:round;stroke-linejoin:round;stroke-miterlimit:4;stroke-dasharray:none;stroke-dashoffset:2.1875;stroke-opacity:1;color-rendering:auto;image-rendering:auto;shape-rendering:auto;text-rendering:auto;enable-background:accumulate;stop-color:#000000"
       d="m 32.000199,1.0019 c -3.82292,5e-4 -6.94553,3.1221 -6.94553,6.9444 -2e-5,0.1245 0.0247,0.2472 0.0313,0.3715 l -9.66491,5.5797 c -0.10449,-0.068 -0.19867,-0.1505 -0.30678,-0.2128 -3.31122,-1.9117 -7.5759197,-0.7694 -9.4875097,2.5415 -1.91192,3.3107 -0.76946,7.5748 2.54197,9.486 a 1.0686512,1.0684829 0 0 0 0.002,0 c 0.10765,0.062 0.22526,0.1026 0.336,0.1586 v 11.1575 c -0.11106,0.056 -0.23016,0.096 -0.33809,0.1586 -3.31079,1.9111 -4.45303,6.1755 -2.54196,9.486 1.91144,3.3102 6.1765197,4.4522 9.4875097,2.5415 0.10796,-0.062 0.20238,-0.1448 0.30677,-0.2128 l 9.66492,5.5777 c -0.006,0.1249 -0.0312,0.2483 -0.0313,0.3735 5.3e-4,3.8223 3.12265,6.9444 6.94553,6.9444 3.82293,-5e-4 6.94555,-3.1221 6.94555,-6.9444 10e-6,-0.1245 -0.0247,-0.2472 -0.0313,-0.3714 l 9.6649,-5.5798 c 0.10438,0.068 0.19879,0.1506 0.30678,0.2128 3.31119,1.9117 7.57589,0.7693 9.48751,-2.5415 1.912,-3.3107 0.76948,-7.5768 -2.54196,-9.4881 a 1.0686512,1.0684829 0 0 0 -0.002,0 c -0.10813,-0.062 -0.22687,-0.1024 -0.3381,-0.1586 V 25.871 c 0.11151,-0.057 0.22972,-0.098 0.3381,-0.1607 3.31083,-1.9111 4.45508,-6.1755 2.54405,-9.486 -1.91144,-3.3103 -6.1765,-4.4544 -9.48751,-2.5437 -0.10845,0.063 -0.20403,0.1445 -0.30887,0.2129 l -9.66287,-5.5777 c 0.006,-0.1249 0.0312,-0.2483 0.0313,-0.3735 -2.4e-4,-2.2708 -1.20107,-4.3038 -3.04076,-5.5964 A 1.0686512,1.0684829 0 0 0 35.520929,1.9577 C 34.453569,1.3301 33.238449,0.99990002 32.000159,1 Z m 0,2.1367 c 0.85738,0 1.69858,0.229 2.43762,0.6636 1.46996,0.8645 2.37065,2.439 2.37083,4.1441 -2.6e-4,0.2632 -0.0235,0.5271 -0.0668,0.7867 a 1.0686512,1.0684829 0 0 0 0.51967,1.0997 l 10.82945,6.2516 a 1.0686512,1.0684829 0 0 0 1.21254,-0.1001 c 0.20382,-0.1675 0.42264,-0.3187 0.65114,-0.4507 2.31078,-1.3335 5.23378,-0.5491 6.5678,1.7612 1.33374,2.3104 0.54922,5.2329 -1.76143,6.5667 -0.22808,0.1317 -0.4672,0.2433 -0.71376,0.336 a 1.0686512,1.0684829 0 0 0 -0.69289,1.0016 v 12.5033 a 1.0686512,1.0684829 0 0 0 0.69498,1.0016 c 0.24688,0.092 0.48736,0.2046 0.71585,0.336 2.30902,1.3346 3.09114,4.2571 1.75725,6.5667 -1.33415,2.3107 -4.25689,3.0933 -6.5678,1.7591 a 1.0686512,1.0684829 0 0 0 -0.002,0 c -0.22828,-0.1316 -0.44337,-0.2815 -0.647,-0.4486 a 1.0686512,1.0684829 0 0 0 -1.21255,-0.1001 l -10.82945,6.2516 a 1.0686512,1.0684829 0 0 0 -0.51967,1.0997 c 0.0431,0.2598 0.0647,0.5233 0.0647,0.7867 0,2.6676 -2.1404,4.8073 -4.80845,4.8077 -2.66731,0 -4.80693,-2.139 -4.80844,-4.8056 v 0 c 2.6e-4,-0.2632 0.0215,-0.5271 0.0647,-0.7867 a 1.0686512,1.0684829 0 0 0 -0.51966,-1.0997 L 15.907369,46.819 a 1.0686512,1.0684829 0 0 0 -1.21254,0.1001 c -0.20385,0.1676 -0.42053,0.3167 -0.64905,0.4487 -2.31076,1.3334 -5.2337797,0.5511 -6.5677997,-1.7591 -1.33375,-2.3104 -0.55128,-5.233 1.75935,-6.5668 a 1.0686512,1.0684829 0 0 0 0.002,0 c 0.2281,-0.1317 0.46508,-0.2454 0.71165,-0.338 A 1.0686512,1.0684829 0 0 0 10.643879,37.7044 V 25.201 A 1.0686512,1.0684829 0 0 0 9.9488993,24.1994 c -0.24627,-0.092 -0.48371,-0.205 -0.71165,-0.3359 h -0.002 c -2.30998,-1.3343 -3.09342,-4.2567 -1.75934,-6.5668 1.33412,-2.3107 4.2589397,-3.0932 6.5698797,-1.759 0.22825,0.1316 0.44538,0.2814 0.64905,0.4486 a 1.0686512,1.0684829 0 0 0 1.21254,0.1001 l 10.82946,-6.2517 a 1.0686512,1.0684829 0 0 0 0.51967,-1.0997 c -0.0431,-0.2598 -0.0647,-0.5233 -0.0647,-0.7866 0,-2.6677 2.14039,-4.8074 4.80844,-4.8077 z m 3.73156,8.2779 a 1.0686512,1.0684829 0 0 0 -0.67828,0.2441 c -0.40781,0.3349 -0.86662,0.5991 -1.36073,0.7846 a 1.0686512,1.0684829 0 0 0 -0.69287,1.0016 v 12.5054 a 1.0686512,1.0684829 0 0 0 0.69287,0.9995 c 0.49322,0.1854 0.95147,0.4502 1.35865,0.7846 a 1.0686512,1.0684829 0 0 0 1.21254,0.1001 l 10.83154,-6.2516 a 1.0686512,1.0684829 0 0 0 0.51967,-1.0997 c -0.0862,-0.5204 -0.0862,-1.053 0,-1.5734 a 1.0686512,1.0684829 0 0 0 -0.51967,-1.0997 l -10.82945,-6.2516 a 1.0686512,1.0684829 0 0 0 -0.53427,-0.144 z m -7.4485,0 a 1.0686512,1.0684829 0 0 0 -0.54888,0.1419 l -10.83154,6.2537 a 1.0686512,1.0684829 0 0 0 -0.51966,1.0997 c 0.0864,0.5205 0.0862,1.0507 0,1.5712 a 1.0686512,1.0684829 0 0 0 0.52175,1.0997 l 10.82945,6.2538 a 1.0686512,1.0684829 0 0 0 1.21462,-0.1023 c 0.20319,-0.1673 0.41918,-0.3167 0.64698,-0.4486 0.22828,-0.1322 0.46691,-0.245 0.71376,-0.338 a 1.0686512,1.0684829 0 0 0 0.69079,-0.9996 l 0.002,-12.5033 a 1.0686512,1.0684829 0 0 0 -0.69288,-0.9995 c -0.49423,-0.1856 -0.95496,-0.4515 -1.36282,-0.7867 a 1.0686512,1.0684829 0 0 0 -0.66363,-0.2419 z m 0,2.2932 c 0.18882,0.1216 0.38255,0.2312 0.58227,0.3339 l -0.002,11.2325 c -0.11133,0.057 -0.22988,0.098 -0.33808,0.1607 -0.10746,0.062 -0.20082,0.145 -0.30471,0.2129 l -9.72752,-5.6153 c 0.0109,-0.2251 0.008,-0.4489 -0.002,-0.674 z m 7.43389,0 9.79012,5.6507 c -0.0109,0.2245 -0.0109,0.4474 0,0.6719 l -9.79221,5.6507 c -0.18778,-0.1207 -0.37955,-0.2316 -0.57809,-0.3338 V 14.0436 c 0.19928,-0.1024 0.39174,-0.2126 0.58018,-0.3338 z m -20.34409,9.4589 a 1.0686512,1.0684829 0 0 0 -0.67826,0.2421 c -0.4078,0.3349 -0.86875,0.6012 -1.36281,0.7866 a 1.0686512,1.0684829 0 0 0 -0.69289,0.9995 v 12.5034 a 1.0686512,1.0684829 0 0 0 0.69289,1.0016 c 0.49423,0.1856 0.95493,0.4515 1.36281,0.7867 a 1.0686512,1.0684829 0 0 0 1.21254,0.098 l 10.82945,-6.2517 a 1.0686512,1.0684829 0 0 0 0.51967,-1.0997 c -0.0862,-0.5203 -0.0862,-1.0509 0,-1.5713 a 1.0686512,1.0684829 0 0 0 -0.51967,-1.0996 l -10.82945,-6.2538 a 1.0686512,1.0684829 0 0 0 -0.53428,-0.1419 z m 33.27098,0 a 1.0686512,1.0684829 0 0 0 -0.55096,0.1419 l -10.82946,6.2537 a 1.0686512,1.0684829 0 0 0 -0.51967,1.0997 c 0.0864,0.5206 0.0862,1.0507 0,1.5713 a 1.0686512,1.0684829 0 0 0 0.51967,1.0997 l 10.82946,6.2537 a 1.0686512,1.0684829 0 0 0 1.21254,-0.1001 c 0.4078,-0.3349 0.86874,-0.6012 1.36281,-0.7867 a 1.0686512,1.0684829 0 0 0 0.69288,-0.9995 V 25.1969 a 1.0686512,1.0684829 0 0 0 -0.69288,-0.9995 c -0.49423,-0.1856 -0.95494,-0.4515 -1.36281,-0.7867 a 1.0686512,1.0684829 0 0 0 -0.66158,-0.242 z m -33.28558,2.2933 9.79012,5.6507 c -0.0109,0.2245 -0.0109,0.4474 0,0.6719 l -9.79012,5.6528 c -0.18903,-0.1218 -0.38234,-0.2332 -0.58226,-0.336 V 25.7958 c 0.19964,-0.1027 0.39348,-0.2124 0.58226,-0.3339 z m 33.28349,0 c 0.18903,0.1217 0.38233,0.2331 0.58227,0.3359 v 11.3035 c -0.2005,0.1031 -0.39483,0.2139 -0.58435,0.336 l -9.78804,-5.6507 c 0.0109,-0.2252 0.011,-0.4489 0,-0.674 z m -20.3566,9.4588 a 1.0686512,1.0684829 0 0 0 -0.55097,0.1419 l -10.82945,6.2538 a 1.0686512,1.0684829 0 0 0 -0.51966,1.0997 c 0.0862,0.5203 0.0862,1.0509 0,1.5712 a 1.0686512,1.0684829 0 0 0 0.51966,1.0997 l 10.82945,6.2517 a 1.0686512,1.0684829 0 0 0 1.21254,-0.1001 c 0.40781,-0.335 0.86872,-0.5991 1.36282,-0.7846 a 1.0686512,1.0684829 0 0 0 0.69289,-1.0016 V 36.9491 a 1.0686512,1.0684829 0 0 0 -0.69289,-0.9995 c -0.49421,-0.1856 -0.95498,-0.4516 -1.36282,-0.7867 a 1.0686512,1.0684829 0 0 0 -0.66157,-0.2421 z m 7.44432,0 a 1.0686512,1.0684829 0 0 0 -0.68037,0.2421 c -0.20318,0.1673 -0.41916,0.3188 -0.64695,0.4507 -0.22809,0.1317 -0.46512,0.2433 -0.71168,0.336 a 1.0686512,1.0684829 0 0 0 -0.69288,0.9995 v 12.5054 a 1.0686512,1.0684829 0 0 0 0.69288,0.9995 c 0.49423,0.1856 0.95494,0.4516 1.36281,0.7867 a 1.0686512,1.0684829 0 0 0 1.21255,0.1001 l 10.82945,-6.2538 a 1.0686512,1.0684829 0 0 0 0.51967,-1.0996 c -0.0863,-0.5206 -0.0862,-1.0507 0,-1.5713 a 1.0686512,1.0684829 0 0 0 -0.51967,-1.1017 l -10.83154,-6.2517 a 1.0686512,1.0684829 0 0 0 -0.53427,-0.1419 z m -7.44641,2.2933 c 0.18881,0.1216 0.38256,0.2311 0.58227,0.3339 v 11.3055 c -0.19967,0.1027 -0.39349,0.2124 -0.58227,0.3339 l -9.79013,-5.6507 c 0.0109,-0.2245 0.0109,-0.4474 0,-0.6719 z m 7.49442,0.035 9.72959,5.6152 c -0.0109,0.2244 -0.0109,0.4475 0,0.6719 l -9.79012,5.6528 c -0.18903,-0.1217 -0.38232,-0.2331 -0.58227,-0.3359 V 37.6226 c 0.11123,-0.056 0.22999,-0.098 0.3381,-0.1607 0.10745,-0.062 0.20081,-0.145 0.3047,-0.2128 z" />
    <path
       id="rect1475-9-6-4-8-0-2"
       style="display:inline;fill:#f1f0f1;fill-opacity:1;stroke-width:0.918135;stroke-linecap:round;stroke-linejoin:round;stroke-dashoffset:2.1875;stroke-opacity:0.74902"
       d="m 34.979399,2.8813 a 5.8760686,5.8760686 0 0 0 -2.97936,-0.811 5.8760686,5.8760686 0 0 0 -5.87533,5.876 5.8760686,5.8760686 0 0 0 0.0789,0.9609 l -10.82749,6.2513 a 5.8760686,5.8760686 0 0 0 -0.79308,-0.5488 5.8760686,5.8760686 0 0 0 -8.0273597,2.1509 5.8760686,5.8760686 0 0 0 2.15102,8.0273 5.8760686,5.8760686 0 0 0 0.87278,0.4106 v 12.504 a 5.8760686,5.8760686 0 0 0 -0.87159,0.4121 5.8760686,5.8760686 0 0 0 -2.15119,8.0263 5.8760686,5.8760686 0 0 0 8.0261497,2.1511 5.8760686,5.8760686 0 0 0 0.79392,-0.55 l 10.82738,6.2512 a 5.8760686,5.8760686 0 0 0 -0.0799,0.9625 5.8760686,5.8760686 0 0 0 5.87607,5.8752 5.8760686,5.8760686 0 0 0 5.87533,-5.876 5.8760686,5.8760686 0 0 0 -0.079,-0.9608 l 10.82749,-6.2513 a 5.8760686,5.8760686 0 0 0 0.79299,0.5488 5.8760686,5.8760686 0 0 0 8.02735,-2.1508 5.8760686,5.8760686 0 0 0 -2.15092,-8.0274 5.8760686,5.8760686 0 0 0 -0.87286,-0.4106 V 25.1987 a 5.8760686,5.8760686 0 0 0 0.87148,-0.412 5.8760686,5.8760686 0 0 0 2.1513,-8.0263 5.8760686,5.8760686 0 0 0 -8.02625,-2.1512 5.8760686,5.8760686 0 0 0 -0.79383,0.5501 L 37.795989,8.9081 a 5.8760686,5.8760686 0 0 0 0.0799,-0.9625 5.8760686,5.8760686 0 0 0 -2.89681,-5.0642 z m 0.75149,9.6048 10.82895,6.2521 a 5.8760686,5.8760686 0 0 0 0,1.9209 l -10.82996,6.252 a 5.8760686,5.8760686 0 0 0 -1.66164,-0.9594 l -6.5e-4,-12.505 a 5.8760686,5.8760686 0 0 0 1.66449,-0.9606 z m -7.46196,0 a 5.8760686,5.8760686 0 0 0 1.66485,0.9612 l -10e-5,12.5026 a 5.8760686,5.8760686 0 0 0 -0.8724,0.4135 5.8760686,5.8760686 0 0 0 -0.79135,0.5494 l -10.82903,-6.252 a 5.8760686,5.8760686 0 0 0 -3.8e-4,-1.9218 z m 20.35653,11.7529 a 5.8760686,5.8760686 0 0 0 1.66486,0.9611 v 12.5041 a 5.8760686,5.8760686 0 0 0 -1.6644,0.9605 l -10.82904,-6.252 a 5.8760686,5.8760686 0 0 0 -2.8e-4,-1.9217 z m -33.25038,-2e-4 10.82896,6.2522 a 5.8760686,5.8760686 0 0 0 0,1.9208 l -10.82832,6.2529 a 5.8760686,5.8760686 0 0 0 -1.66485,-0.9612 V 25.1994 a 5.8760686,5.8760686 0 0 0 1.6644,-0.9606 z m 20.35498,11.752 10.82905,6.2521 a 5.8760686,5.8760686 0 0 0 2.7e-4,1.9218 l -10.8283,6.2527 a 5.8760686,5.8760686 0 0 0 -1.66486,-0.9611 V 36.9522 a 5.8760686,5.8760686 0 0 0 0.87149,-0.412 5.8760686,5.8760686 0 0 0 0.79135,-0.5494 z m -7.46031,-3e-4 a 5.8760686,5.8760686 0 0 0 1.66477,0.9612 v 12.504 a 5.8760686,5.8760686 0 0 0 -1.66449,0.9606 l -10.82895,-6.2521 a 5.8760686,5.8760686 0 0 0 0,-1.9208 z" />
    <circle
       style="fill:#084438;fill-opacity:1;stroke:none;stroke-width:6.05742;stroke-linecap:round;stroke-linejoin:round;stroke-miterlimit:4;stroke-dasharray:none;stroke-opacity:1;paint-order:stroke fill markers"
       id="path3739-03-5-2"
       cx="52.352783"
       cy="19.698486"
       r="6.9444447" />
    <circle
       style="fill:#1adbb2;fill-opacity:1;stroke:none;stroke-width:4.68931;stroke-linecap:round;stroke-linejoin:round;stroke-miterlimit:4;stroke-dasharray:none;stroke-opacity:1;paint-order:stroke fill markers"
       id="path3739-5-0-8-6-8"
       cx="52.352478"
       cy="19.698914"
       r="5.3759999" />
    <circle
       style="fill:#084438;fill-opacity:1;stroke:none;stroke-width:6.05742;stroke-linecap:round;stroke-linejoin:round;stroke-miterlimit:4;stroke-dasharray:none;stroke-opacity:1;paint-order:stroke fill markers"
       id="path3739-03-4-6-9"
       cx="52.352783"
       cy="43.202637"
       r="6.9444447" />
    <circle
       style="fill:#1adbb2;fill-opacity:1;stroke:none;stroke-width:4.68931;stroke-linecap:round;stroke-linejoin:round;stroke-miterlimit:4;stroke-dasharray:none;stroke-opacity:1;paint-order:stroke fill markers"
       id="path3739-5-0-2-4-7"
       cx="52.352783"
       cy="43.202271"
       r="5.3759999" />
    <circle
       style="fill:#084438;fill-opacity:1;stroke:none;stroke-width:6.05742;stroke-linecap:round;stroke-linejoin:round;stroke-miterlimit:4;stroke-dasharray:none;stroke-opacity:1;paint-order:stroke fill markers"
       id="path3739-03-0-0-3"
       cx="32.000244"
       cy="31.450563"
       r="6.9444447" />
    <circle
       style="fill:#1adbb2;fill-opacity:1;stroke:none;stroke-width:4.68931;stroke-linecap:round;stroke-linejoin:round;stroke-miterlimit:4;stroke-dasharray:none;stroke-opacity:1;paint-order:stroke fill markers"
       id="path3739-5-0-6-0-6"
       cx="32.000244"
       cy="31.450075"
       r="5.3759999" />
    <circle
       style="fill:#084438;fill-opacity:1;stroke:none;stroke-width:6.05742;stroke-linecap:round;stroke-linejoin:round;stroke-miterlimit:4;stroke-dasharray:none;stroke-opacity:1;paint-order:stroke fill markers"
       id="path3739-03-0-9-4-1"
       cx="32.000244"
       cy="54.954834"
       r="6.9444447" />
    <circle
       style="fill:#1adbb2;fill-opacity:1;stroke:none;stroke-width:4.68931;stroke-linecap:round;stroke-linejoin:round;stroke-miterlimit:4;stroke-dasharray:none;stroke-opacity:1;paint-order:stroke fill markers"
       id="path3739-5-0-6-1-6-2"
       cx="32.000244"
       cy="54.954346"
       r="5.3759999" />
    <circle
       style="fill:#084438;fill-opacity:1;stroke:none;stroke-width:6.05742;stroke-linecap:round;stroke-linejoin:round;stroke-miterlimit:4;stroke-dasharray:none;stroke-opacity:1;paint-order:stroke fill markers"
       id="path3739-03-3-2-9"
       cx="11.64453"
       cy="43.202637"
       r="6.9444447" />
    <circle
       style="fill:#1adbb2;fill-opacity:1;stroke:none;stroke-width:4.68931;stroke-linecap:round;stroke-linejoin:round;stroke-miterlimit:4;stroke-dasharray:none;stroke-opacity:1;paint-order:stroke fill markers"
       id="path3739-5-0-9-6-3"
       cx="11.644591"
       cy="43.202271"
       r="5.3759999" />
    <circle
       style="fill:#084438;fill-opacity:1;stroke:none;stroke-width:6.05742;stroke-linecap:round;stroke-linejoin:round;stroke-miterlimit:4;stroke-dasharray:none;stroke-opacity:1;paint-order:stroke fill markers"
       id="path3739-03-9-7-1"
       cx="11.64453"
       cy="19.698486"
       r="6.9444447" />
    <circle
       style="fill:#1adbb2;fill-opacity:1;stroke:none;stroke-width:4.68931;stroke-linecap:round;stroke-linejoin:round;stroke-miterlimit:4;stroke-dasharray:none;stroke-opacity:1;paint-order:stroke fill markers"
       id="path3739-5-0-1-5-9"
       cx="11.644591"
       cy="19.697998"
       r="5.3759999" />
    <circle
       style="fill:#084438;fill-opacity:1;stroke:none;stroke-width:6.05742;stroke-linecap:round;stroke-linejoin:round;stroke-miterlimit:4;stroke-dasharray:none;stroke-opacity:1;paint-order:stroke fill markers"
       id="path3739-03-1-6-7"
       cx="32.000244"
       cy="7.9462891"
       r="6.9444447" />
    <circle
       style="fill:#1adbb2;fill-opacity:1;stroke:none;stroke-width:4.68931;stroke-linecap:round;stroke-linejoin:round;stroke-miterlimit:4;stroke-dasharray:none;stroke-opacity:1;paint-order:stroke fill markers"
       id="path3739-5-0-98-8"
       cx="32.000244"
       cy="7.9458008"
       r="5.3759999" />
  </g>
</svg>
