<?xml version="1.0" encoding="UTF-8" standalone="no"?>
<svg
   xmlns:dc="http://purl.org/dc/elements/1.1/"
   xmlns:cc="http://creativecommons.org/ns#"
   xmlns:rdf="http://www.w3.org/1999/02/22-rdf-syntax-ns#"
   xmlns:svg="http://www.w3.org/2000/svg"
   xmlns="http://www.w3.org/2000/svg"
   xmlns:xlink="http://www.w3.org/1999/xlink"
   xmlns:sodipodi="http://sodipodi.sourceforge.net/DTD/sodipodi-0.dtd"
   xmlns:inkscape="http://www.inkscape.org/namespaces/inkscape"
   width="64"
   height="64"
   viewBox="0 0 16.933333 16.933334"
   version="1.1"
   id="svg841"
   inkscape:version="1.0.2 (e86c870879, 2021-01-15)"
   sodipodi:docname="drive-harddisk-solidstate.svg">
  <defs
     id="defs835">
    <linearGradient
       inkscape:collect="always"
       xlink:href="#linearGradient2273-6"
       id="linearGradient4834"
       gradientUnits="userSpaceOnUse"
       gradientTransform="translate(17.810692,-26.529908)"
       x1="-9.6086082"
       y1="27.455952"
       x2="-9.6086092"
       y2="42.272617" />
    <linearGradient
       inkscape:collect="always"
       id="linearGradient2273-6">
      <stop
         style="stop-color:#e4e4e8;stop-opacity:1"
         offset="0"
         id="stop2269-4" />
      <stop
         style="stop-color:#d6d6db;stop-opacity:1"
         offset="1"
         id="stop2271-9" />
    </linearGradient>
  </defs>
  <sodipodi:namedview
     id="base"
     pagecolor="#c4c4c4"
     bordercolor="#666666"
     borderopacity="1.0"
     inkscape:pageopacity="0"
     inkscape:pageshadow="2"
     inkscape:zoom="4.1367616"
     inkscape:cx="7.2167024"
     inkscape:cy="83.007677"
     inkscape:document-units="px"
     inkscape:current-layer="layer1"
     inkscape:document-rotation="0"
     showgrid="false"
     units="px"
     inkscape:window-width="2048"
     inkscape:window-height="1080"
     inkscape:window-x="0"
     inkscape:window-y="0"
     inkscape:window-maximized="1" />
  <metadata
     id="metadata838">
    <rdf:RDF>
      <cc:Work
         rdf:about="">
        <dc:format>image/svg+xml</dc:format>
        <dc:type
           rdf:resource="http://purl.org/dc/dcmitype/StillImage" />
        <dc:title />
      </cc:Work>
    </rdf:RDF>
  </metadata>
  <g
     inkscape:label="Layer 1"
     inkscape:groupmode="layer"
     id="layer1">
    <path
       id="rect3559-1-9-6-2-7-34"
       style="color:#000000;font-style:normal;font-variant:normal;font-weight:normal;font-stretch:normal;font-size:medium;line-height:normal;font-family:sans-serif;font-variant-ligatures:normal;font-variant-position:normal;font-variant-caps:normal;font-variant-numeric:normal;font-variant-alternates:normal;font-variant-east-asian:normal;font-feature-settings:normal;font-variation-settings:normal;text-indent:0;text-align:start;text-decoration:none;text-decoration-line:none;text-decoration-style:solid;text-decoration-color:#000000;letter-spacing:normal;word-spacing:normal;text-transform:none;writing-mode:lr-tb;direction:ltr;text-orientation:mixed;dominant-baseline:auto;baseline-shift:baseline;text-anchor:start;white-space:normal;shape-padding:0;shape-margin:0;inline-size:0;clip-rule:nonzero;display:inline;overflow:visible;visibility:visible;opacity:0.15;isolation:auto;mix-blend-mode:normal;color-interpolation:sRGB;color-interpolation-filters:linearRGB;solid-color:#000000;solid-opacity:1;vector-effect:none;fill:#0c0c0c;fill-opacity:1;fill-rule:nonzero;stroke:none;stroke-width:1.00001;stroke-linecap:round;stroke-linejoin:round;stroke-miterlimit:4;stroke-dasharray:none;stroke-dashoffset:2.1875;stroke-opacity:1;paint-order:normal;color-rendering:auto;image-rendering:auto;shape-rendering:auto;text-rendering:auto;enable-background:accumulate;stop-color:#000000"
       d="m 3.705132,0.52916634 c -0.945862,0 -1.720757,0.77497596 -1.720757,1.72093396 V 14.949882 c 0,0.945959 0.774895,1.718867 1.720757,1.718867 h 9.525137 c 0.945862,0 1.71869,-0.772908 1.71869,-1.718867 V 2.2501003 c 0,-0.945958 -0.772828,-1.72093396 -1.71869,-1.72093396 z m 0,0.79328396 h 9.525137 c 0.519871,0 0.925488,0.407726 0.925488,0.92765 V 14.949882 c 0,0.519924 -0.405617,0.926101 -0.925488,0.926101 H 3.705132 c -0.519871,0 -0.925488,-0.406177 -0.925488,-0.926101 V 2.2501003 c 0,-0.519924 0.405617,-0.92765 0.925488,-0.92765 z" />
    <path
       id="rect3559-1-9-6-0"
       style="color:#000000;font-style:normal;font-variant:normal;font-weight:normal;font-stretch:normal;font-size:medium;line-height:normal;font-family:sans-serif;font-variant-ligatures:normal;font-variant-position:normal;font-variant-caps:normal;font-variant-numeric:normal;font-variant-alternates:normal;font-variant-east-asian:normal;font-feature-settings:normal;font-variation-settings:normal;text-indent:0;text-align:start;text-decoration:none;text-decoration-line:none;text-decoration-style:solid;text-decoration-color:#000000;letter-spacing:normal;word-spacing:normal;text-transform:none;writing-mode:lr-tb;direction:ltr;text-orientation:mixed;dominant-baseline:auto;baseline-shift:baseline;text-anchor:start;white-space:normal;shape-padding:0;shape-margin:0;inline-size:0;clip-rule:nonzero;display:inline;overflow:visible;visibility:visible;opacity:0.75;isolation:auto;mix-blend-mode:normal;color-interpolation:sRGB;color-interpolation-filters:linearRGB;solid-color:#000000;solid-opacity:1;vector-effect:none;fill:#43434c;fill-opacity:1;fill-rule:nonzero;stroke:none;stroke-width:1.00001;stroke-linecap:round;stroke-linejoin:round;stroke-miterlimit:4;stroke-dasharray:none;stroke-dashoffset:2.1875;stroke-opacity:1;paint-order:normal;color-rendering:auto;image-rendering:auto;shape-rendering:auto;text-rendering:auto;enable-background:accumulate;stop-color:#000000"
       d="m 3.705132,0.26458334 c -0.945862,0 -1.720757,0.77497596 -1.720757,1.72093396 V 14.685299 c 0,0.945959 0.774895,1.718867 1.720757,1.718867 h 9.525137 c 0.945862,0 1.71869,-0.772908 1.71869,-1.718867 V 1.9855173 c 0,-0.945958 -0.772828,-1.72093396 -1.71869,-1.72093396 z m 0,0.79328396 h 9.525137 c 0.519871,0 0.925488,0.407726 0.925488,0.92765 V 14.685299 c 0,0.519924 -0.405617,0.926101 -0.925488,0.926101 H 3.705132 c -0.519871,0 -0.925488,-0.406177 -0.925488,-0.926101 V 1.9855173 c 0,-0.519924 0.405617,-0.92765 0.925488,-0.92765 z" />
    <rect
       style="fill:url(#linearGradient4834);fill-opacity:1;stroke:none;stroke-width:0.79375;stroke-linecap:round;stroke-linejoin:round;stroke-miterlimit:4;stroke-dasharray:none;stroke-dashoffset:2.1875;stroke-opacity:1;paint-order:normal"
       id="rect3559-1-3"
       width="12.170834"
       height="15.345834"
       x="2.3812504"
       y="0.66145736"
       rx="1.3229167"
       ry="1.3229167" />
    <path
       id="rect3559-1-9-6-2-9"
       style="color:#000000;font-style:normal;font-variant:normal;font-weight:normal;font-stretch:normal;font-size:medium;line-height:normal;font-family:sans-serif;font-variant-ligatures:normal;font-variant-position:normal;font-variant-caps:normal;font-variant-numeric:normal;font-variant-alternates:normal;font-variant-east-asian:normal;font-feature-settings:normal;font-variation-settings:normal;text-indent:0;text-align:start;text-decoration:none;text-decoration-line:none;text-decoration-style:solid;text-decoration-color:#000000;letter-spacing:normal;word-spacing:normal;text-transform:none;writing-mode:lr-tb;direction:ltr;text-orientation:mixed;dominant-baseline:auto;baseline-shift:baseline;text-anchor:start;white-space:normal;shape-padding:0;shape-margin:0;inline-size:0;clip-rule:nonzero;display:inline;overflow:visible;visibility:visible;opacity:0.15;isolation:auto;mix-blend-mode:normal;color-interpolation:sRGB;color-interpolation-filters:linearRGB;solid-color:#000000;solid-opacity:1;vector-effect:none;fill:#0c0c0c;fill-opacity:1;fill-rule:nonzero;stroke:none;stroke-width:1.00001;stroke-linecap:round;stroke-linejoin:round;stroke-miterlimit:4;stroke-dasharray:none;stroke-dashoffset:2.1875;stroke-opacity:1;paint-order:normal;color-rendering:auto;image-rendering:auto;shape-rendering:auto;text-rendering:auto;enable-background:accumulate;stop-color:#000000"
       d="m 3.705132,0.26458334 c -0.945862,0 -1.720757,0.77497596 -1.720757,1.72093396 V 14.685299 c 0,0.945959 0.774895,1.718867 1.720757,1.718867 h 9.525137 c 0.945862,0 1.71869,-0.772908 1.71869,-1.718867 V 1.9855173 c 0,-0.945958 -0.772828,-1.72093396 -1.71869,-1.72093396 z m 0,0.79328396 h 9.525137 c 0.519871,0 0.925488,0.407726 0.925488,0.92765 V 14.685299 c 0,0.519924 -0.405617,0.926101 -0.925488,0.926101 H 3.705132 c -0.519871,0 -0.925488,-0.406177 -0.925488,-0.926101 V 1.9855173 c 0,-0.519924 0.405617,-0.92765 0.925488,-0.92765 z" />
    <path
       id="path912-6-2-6-8-7-9-6-9-3"
       style="opacity:0.95;fill:#fcfcfc;fill-opacity:1;stroke-width:1.32292;stroke-linecap:round;stroke-linejoin:round;stroke-dashoffset:2.1875"
       d="m 5.012101,2.7781253 a 0.59531249,0.59531249 0 0 1 -0.580326,0.463022 0.59531249,0.59531249 0 0 1 -0.580327,-0.462505 0.59531249,0.59531249 0 0 0 -0.01499,0.131775 0.59531249,0.59531249 0 0 0 0.595313,0.595314 0.59531249,0.59531249 0 0 0 0.595312,-0.595314 0.59531249,0.59531249 0 0 0 -0.01499,-0.132292 z" />
    <path
       id="path912-6-2-6-8-2-2-3-7-4-8"
       style="opacity:0.95;fill:#fcfcfc;fill-opacity:1;stroke-width:1.32292;stroke-linecap:round;stroke-linejoin:round;stroke-dashoffset:2.1875"
       d="m 13.081895,2.7781253 a 0.59531249,0.59531249 0 0 1 -0.580326,0.463022 0.59531249,0.59531249 0 0 1 -0.580327,-0.462505 0.59531249,0.59531249 0 0 0 -0.01499,0.131775 0.59531249,0.59531249 0 0 0 0.595313,0.595314 0.59531249,0.59531249 0 0 0 0.595312,-0.595314 0.59531249,0.59531249 0 0 0 -0.01499,-0.132292 z" />
    <circle
       style="fill:#222222;fill-opacity:1;stroke-width:1.03871;stroke-linecap:round;stroke-linejoin:round;stroke-dashoffset:2.1875"
       id="path859-6-0"
       cx="12.501562"
       cy="2.7119811"
       r="0.59531248" />
    <circle
       style="fill:#222222;fill-opacity:1;stroke-width:1.03871;stroke-linecap:round;stroke-linejoin:round;stroke-dashoffset:2.1875"
       id="path859-7-92-5"
       cx="4.4317713"
       cy="2.7119811"
       r="0.59531248" />
    <path
       id="path912-6-2-6-8-7-9-6-0-6"
       style="opacity:0.95;fill:#fcfcfc;fill-opacity:1;stroke-width:1.32292;stroke-linecap:round;stroke-linejoin:round;stroke-dashoffset:2.1875"
       d="m 5.0121024,14.02291 a 0.59531249,0.59531249 0 0 1 -0.580326,0.463022 0.59531249,0.59531249 0 0 1 -0.580328,-0.462505 0.59531249,0.59531249 0 0 0 -0.01499,0.131775 0.59531249,0.59531249 0 0 0 0.595313,0.595314 0.59531249,0.59531249 0 0 0 0.595312,-0.595314 0.59531249,0.59531249 0 0 0 -0.01499,-0.132292 z" />
    <path
       id="path912-6-2-6-8-2-2-3-7-3-6"
       style="opacity:0.95;fill:#fcfcfc;fill-opacity:1;stroke-width:1.32292;stroke-linecap:round;stroke-linejoin:round;stroke-dashoffset:2.1875"
       d="m 13.081894,14.02291 a 0.59531249,0.59531249 0 0 1 -0.580326,0.463022 0.59531249,0.59531249 0 0 1 -0.580327,-0.462505 0.59531249,0.59531249 0 0 0 -0.01499,0.131775 0.59531249,0.59531249 0 0 0 0.595313,0.595314 0.59531249,0.59531249 0 0 0 0.595312,-0.595314 0.59531249,0.59531249 0 0 0 -0.01499,-0.132292 z" />
    <circle
       style="fill:#222222;fill-opacity:1;stroke-width:1.03871;stroke-linecap:round;stroke-linejoin:round;stroke-dashoffset:2.1875"
       id="path859-7-5-4"
       cx="4.4317765"
       cy="13.95677"
       r="0.59531248" />
    <circle
       style="fill:#222222;fill-opacity:1;stroke-width:1.03871;stroke-linecap:round;stroke-linejoin:round;stroke-dashoffset:2.1875"
       id="path859-7-9-0"
       cx="12.501569"
       cy="13.95677"
       r="0.59531248" />
  </g>
</svg>
