<?xml version="1.0" encoding="UTF-8" standalone="no"?>
<svg
   xmlns:dc="http://purl.org/dc/elements/1.1/"
   xmlns:cc="http://creativecommons.org/ns#"
   xmlns:rdf="http://www.w3.org/1999/02/22-rdf-syntax-ns#"
   xmlns:svg="http://www.w3.org/2000/svg"
   xmlns="http://www.w3.org/2000/svg"
   xmlns:xlink="http://www.w3.org/1999/xlink"
   xmlns:sodipodi="http://sodipodi.sourceforge.net/DTD/sodipodi-0.dtd"
   xmlns:inkscape="http://www.inkscape.org/namespaces/inkscape"
   width="64"
   height="64"
   viewBox="0 0 64 64"
   version="1.1"
   id="svg6374"
   inkscape:version="1.0.2 (e86c870879, 2021-01-15)"
   sodipodi:docname="application-x-iso.svg">
  <defs
     id="defs6368">
    <linearGradient
       inkscape:collect="always"
       xlink:href="#linearGradient1280"
       id="linearGradient2365-5"
       gradientUnits="userSpaceOnUse"
       gradientTransform="matrix(0.76604422,0.64279262,-0.64278742,0.76605042,79.47686,-74.372775)"
       x1="6.131248"
       y1="101.275"
       x2="15.900798"
       y2="115.72787" />
    <linearGradient
       inkscape:collect="always"
       id="linearGradient1280">
      <stop
         style="stop-color:#66666f;stop-opacity:0.25"
         offset="0"
         id="stop1276" />
      <stop
         style="stop-color:#66666f;stop-opacity:0.05"
         offset="1"
         id="stop1278" />
    </linearGradient>
    <linearGradient
       inkscape:collect="always"
       xlink:href="#linearGradient1288"
       id="linearGradient2367-3"
       gradientUnits="userSpaceOnUse"
       gradientTransform="matrix(0.76604422,0.64279262,-0.64278742,0.76605042,79.47716,-74.374235)"
       x1="51.406845"
       y1="105.72131"
       x2="60.902527"
       y2="120.013" />
    <linearGradient
       inkscape:collect="always"
       id="linearGradient1288">
      <stop
         style="stop-color:#f6f6f6;stop-opacity:0.2"
         offset="0"
         id="stop1284" />
      <stop
         style="stop-color:#66666f;stop-opacity:0.15000001"
         offset="1"
         id="stop1286" />
    </linearGradient>
  </defs>
  <sodipodi:namedview
     id="base"
     pagecolor="#cecece"
     bordercolor="#666666"
     borderopacity="1.0"
     inkscape:pageopacity="0"
     inkscape:pageshadow="2"
     inkscape:zoom="12.951558"
     inkscape:cx="21.050578"
     inkscape:cy="21.720853"
     inkscape:document-units="px"
     inkscape:current-layer="layer1"
     inkscape:document-rotation="0"
     showgrid="false"
     units="px"
     inkscape:window-width="2048"
     inkscape:window-height="1080"
     inkscape:window-x="0"
     inkscape:window-y="0"
     inkscape:window-maximized="1" />
  <metadata
     id="metadata6371">
    <rdf:RDF>
      <cc:Work
         rdf:about="">
        <dc:format>image/svg+xml</dc:format>
        <dc:type
           rdf:resource="http://purl.org/dc/dcmitype/StillImage" />
        <dc:title />
      </cc:Work>
    </rdf:RDF>
  </metadata>
  <g
     inkscape:label="Layer 1"
     inkscape:groupmode="layer"
     id="layer1">
    <circle
       style="opacity:0.25;fill:#f6f6f6;fill-opacity:1;stroke-width:0.667996;stroke-linecap:round;stroke-linejoin:round;stroke-dashoffset:2.1875"
       id="path849-1-2"
       cx="32.000458"
       cy="32.000053"
       r="10" />
    <path
       id="path934-7-9"
       style="fill:#e3e3e9;fill-opacity:1;stroke-width:0.463386;stroke-linecap:round;stroke-linejoin:round;stroke-dashoffset:2.1875"
       d="m 49.99806,10.550915 a 27.999992,28.000217 0 0 0 -39.4473,3.45121 27.999992,28.000217 0 0 0 3.4512,39.44762 27.999992,28.000217 0 0 0 39.4473,-3.45123 27.999992,28.000217 0 0 0 -3.4512,-39.4476 z m -11.5851,13.77635 a 9.9999971,10.000078 0 0 1 0.016,0.0106 9.9999971,10.000078 0 0 1 1.2325,14.08842 9.9999971,10.000078 0 0 1 -14.0883,1.23259 9.9999971,10.000078 0 0 1 -1.2325,-14.08844 9.9999971,10.000078 0 0 1 14.0733,-1.24513 z" />
    <path
       style="fill:url(#linearGradient2365-5);fill-opacity:1;stroke-width:0.463386;stroke-linecap:round;stroke-linejoin:round;stroke-dashoffset:2.1875"
       d="M 19.07536,7.1500951 A 27.999992,28.000217 0 0 0 5.30046,23.566825 l 17.1678,5.41302 a 9.9999971,10.000078 0 0 1 4.9013,-5.85444 9.9999971,10.000078 0 0 1 0.017,-0.009 z"
       id="path934-20-9-1" />
    <path
       style="fill:url(#linearGradient2367-3);fill-opacity:1;stroke-width:0.463386;stroke-linecap:round;stroke-linejoin:round;stroke-dashoffset:2.1875"
       d="m 44.93166,56.819845 a 27.999992,28.000217 0 0 0 13.7748,-16.41676 l -17.1676,-5.41299 a 9.9999971,10.000078 0 0 1 -4.9014,5.85442 9.9999971,10.000078 0 0 1 -0.017,0.009 z"
       id="path934-20-2-3-2" />
    <path
       id="path1292-6-7"
       style="color:#000000;font-style:normal;font-variant:normal;font-weight:normal;font-stretch:normal;font-size:medium;line-height:normal;font-family:sans-serif;font-variant-ligatures:normal;font-variant-position:normal;font-variant-caps:normal;font-variant-numeric:normal;font-variant-alternates:normal;font-variant-east-asian:normal;font-feature-settings:normal;font-variation-settings:normal;text-indent:0;text-align:start;text-decoration:none;text-decoration-line:none;text-decoration-style:solid;text-decoration-color:#000000;letter-spacing:normal;word-spacing:normal;text-transform:none;writing-mode:lr-tb;direction:ltr;text-orientation:mixed;dominant-baseline:auto;baseline-shift:baseline;text-anchor:start;white-space:normal;shape-padding:0;shape-margin:0;inline-size:0;clip-rule:nonzero;display:inline;overflow:visible;visibility:visible;opacity:0.6;isolation:auto;mix-blend-mode:normal;color-interpolation:sRGB;color-interpolation-filters:linearRGB;solid-color:#000000;solid-opacity:1;vector-effect:none;fill:#4a4a5e;fill-opacity:1;fill-rule:nonzero;stroke:none;stroke-width:1.00008;stroke-linecap:round;stroke-linejoin:round;stroke-miterlimit:4;stroke-dasharray:none;stroke-dashoffset:2.1875;stroke-opacity:1;color-rendering:auto;image-rendering:auto;shape-rendering:auto;text-rendering:auto;enable-background:accumulate;stop-color:#000000"
       d="m 50.00006,10.549005 c -11.8425,-9.93708995 -29.5135,-8.3910799 -39.4506,3.45148 -9.93719999,11.84258 -8.3912,29.5136 3.4515,39.4507 11.8426,9.9371 29.5136,8.39106 39.4506,-3.4515 9.9371,-11.84258 8.3911,-29.51358 -3.4515,-39.45068 z m -0.6428,0.76611 c 11.4285,9.58969 12.9179,26.61319 3.3282,38.04174 -9.5897,11.42853 -26.6132,12.91792 -38.0417,3.32821 -11.4286,-9.58968 -12.9179,-26.61319 -3.3282,-38.04172 9.5896,-11.4285399 26.6132,-12.9178999 38.0417,-3.32822 z" />
    <path
       id="path848-3"
       style="opacity:0.75;fill:#4a4a5e;fill-opacity:1;stroke:none;stroke-width:3.56999;stroke-linecap:round;stroke-linejoin:round;paint-order:markers stroke fill"
       d="M 31.79102,2.5001851 A 29.5,29.5 0 0 0 2.5,32.000185 a 29.5,29.5 0 0 0 29.5,29.5 29.5,29.5 0 0 0 29.5,-29.5 A 29.5,29.5 0 0 0 32,2.5001851 a 29.5,29.5 0 0 0 -0.20898,0 z m 0.20898,1.5 a 28,28 0 0 1 28,27.9999999 28,28 0 0 1 -28,28 28,28 0 0 1 -28,-28 28,28 0 0 1 28,-27.9999999 z" />
    <path
       id="path903-6-5-3"
       style="color:#000000;font-style:normal;font-variant:normal;font-weight:normal;font-stretch:normal;font-size:medium;line-height:normal;font-family:sans-serif;font-variant-ligatures:normal;font-variant-position:normal;font-variant-caps:normal;font-variant-numeric:normal;font-variant-alternates:normal;font-variant-east-asian:normal;font-feature-settings:normal;font-variation-settings:normal;text-indent:0;text-align:start;text-decoration:none;text-decoration-line:none;text-decoration-style:solid;text-decoration-color:#000000;letter-spacing:normal;word-spacing:normal;text-transform:none;writing-mode:lr-tb;direction:ltr;text-orientation:mixed;dominant-baseline:auto;baseline-shift:baseline;text-anchor:start;white-space:normal;shape-padding:0;shape-margin:0;inline-size:0;clip-rule:nonzero;display:inline;overflow:visible;visibility:visible;opacity:0.95;isolation:auto;mix-blend-mode:normal;color-interpolation:sRGB;color-interpolation-filters:linearRGB;solid-color:#000000;solid-opacity:1;vector-effect:none;fill:#f6f6f6;fill-opacity:1;fill-rule:nonzero;stroke:none;stroke-linecap:round;stroke-linejoin:round;stroke-miterlimit:4;stroke-dasharray:none;stroke-dashoffset:0;stroke-opacity:1;paint-order:markers stroke fill;color-rendering:auto;image-rendering:auto;shape-rendering:auto;text-rendering:auto;enable-background:accumulate;stop-color:#000000"
       d="m 37.96325,8.7832951 a 1,1 0 0 0 -0.97461,0.74024 1,1 0 0 0 0.70703,1.2246099 c 6.28209,1.68328 11.49558,6.05878 14.24414,11.95312 a 1,1 0 0 0 1.32813,0.48438 1,1 0 0 0 0.48437,-1.33008 C 50.75444,15.426595 45.06512,10.652455 38.21325,8.8165051 a 1,1 0 0 0 -0.25,-0.0332 z M 11.11364,40.720795 a 1,1 0 0 0 -0.38086,0.0918 1,1 0 0 0 -0.48242,1.33008 c 2.99788,6.42897 8.6872,11.20311 15.53906,13.03906 a 1,1 0 0 0 1.22461,-0.70703 1,1 0 0 0 -0.70703,-1.22461 c -6.28208,-1.68328 -11.49556,-6.05878 -14.24414,-11.95312 a 1,1 0 0 0 -0.94922,-0.57618 z" />
    <path
       id="path871-7"
       style="opacity:0.85;fill:#4a4a5e;fill-opacity:1;stroke:none;stroke-width:2.02635;stroke-linecap:round;stroke-linejoin:round;paint-order:markers stroke fill"
       d="m 32,21.000095 a 11,11 0 0 0 -11,11 11,11 0 0 0 11,11 11,11 0 0 0 11,-11 11,11 0 0 0 -11,-11 z m 0,1.5 a 9.5,9.5 0 0 1 9.5,9.5 9.5,9.5 0 0 1 -9.5,9.5 9.5,9.5 0 0 1 -9.5,-9.5 9.5,9.5 0 0 1 9.5,-9.5 z" />
    <circle
       style="opacity:0.85;fill:#cfcfd5;fill-opacity:1;stroke:none;stroke-width:4.53311;stroke-linecap:round;stroke-linejoin:round"
       id="path2399"
       cx="32"
       cy="32"
       r="6" />
    <circle
       style="opacity:0.75;fill:#4a4a5e;fill-opacity:1;stroke:none;stroke-width:2.26656;stroke-linecap:round;stroke-linejoin:round"
       id="path2399-3"
       cx="31.999996"
       cy="32"
       r="3" />
  </g>
</svg>
