<?xml version="1.0" encoding="UTF-8" standalone="no"?>
<svg
   xmlns:dc="http://purl.org/dc/elements/1.1/"
   xmlns:cc="http://creativecommons.org/ns#"
   xmlns:rdf="http://www.w3.org/1999/02/22-rdf-syntax-ns#"
   xmlns:svg="http://www.w3.org/2000/svg"
   xmlns="http://www.w3.org/2000/svg"
   xmlns:xlink="http://www.w3.org/1999/xlink"
   xmlns:sodipodi="http://sodipodi.sourceforge.net/DTD/sodipodi-0.dtd"
   xmlns:inkscape="http://www.inkscape.org/namespaces/inkscape"
   width="64"
   height="64"
   viewBox="0 0 16.933333 16.933334"
   version="1.1"
   id="svg841"
   inkscape:version="1.0.2 (e86c870879, 2021-01-15)"
   sodipodi:docname="other-driver.svg">
  <defs
     id="defs835">
    <linearGradient
       inkscape:collect="always"
       xlink:href="#linearGradient979-8"
       id="linearGradient1315-5-1"
       gradientUnits="userSpaceOnUse"
       x1="8.3343754"
       y1="37.041672"
       x2="8.598959"
       y2="29.104166"
       gradientTransform="translate(-1.2500002e-8,-26.458334)" />
    <linearGradient
       inkscape:collect="always"
       id="linearGradient979-8">
      <stop
         style="stop-color:#f9f9f7;stop-opacity:0"
         offset="0"
         id="stop975-7" />
      <stop
         style="stop-color:#f9f9f7;stop-opacity:0.1"
         offset="1"
         id="stop977-9" />
    </linearGradient>
  </defs>
  <sodipodi:namedview
     id="base"
     pagecolor="#c4c4c4"
     bordercolor="#666666"
     borderopacity="1.0"
     inkscape:pageopacity="0"
     inkscape:pageshadow="2"
     inkscape:zoom="6.1936656"
     inkscape:cx="-4.6508747"
     inkscape:cy="54.581777"
     inkscape:document-units="px"
     inkscape:current-layer="layer1"
     inkscape:document-rotation="0"
     showgrid="false"
     units="px"
     inkscape:window-width="2048"
     inkscape:window-height="1080"
     inkscape:window-x="0"
     inkscape:window-y="0"
     inkscape:window-maximized="1" />
  <metadata
     id="metadata838">
    <rdf:RDF>
      <cc:Work
         rdf:about="">
        <dc:format>image/svg+xml</dc:format>
        <dc:type
           rdf:resource="http://purl.org/dc/dcmitype/StillImage" />
        <dc:title />
      </cc:Work>
    </rdf:RDF>
  </metadata>
  <g
     inkscape:label="Layer 1"
     inkscape:groupmode="layer"
     id="layer1">
    <path
       id="path1181-0-2-9-62-2"
       style="color:#000000;font-style:normal;font-variant:normal;font-weight:normal;font-stretch:normal;font-size:medium;line-height:normal;font-family:sans-serif;font-variant-ligatures:normal;font-variant-position:normal;font-variant-caps:normal;font-variant-numeric:normal;font-variant-alternates:normal;font-variant-east-asian:normal;font-feature-settings:normal;font-variation-settings:normal;text-indent:0;text-align:start;text-decoration:none;text-decoration-line:none;text-decoration-style:solid;text-decoration-color:#000000;letter-spacing:normal;word-spacing:normal;text-transform:none;writing-mode:lr-tb;direction:ltr;text-orientation:mixed;dominant-baseline:auto;baseline-shift:baseline;text-anchor:start;white-space:normal;shape-padding:0;shape-margin:0;inline-size:0;clip-rule:nonzero;display:inline;overflow:visible;visibility:visible;opacity:0.15;isolation:auto;mix-blend-mode:normal;color-interpolation:sRGB;color-interpolation-filters:linearRGB;solid-color:#000000;solid-opacity:1;vector-effect:none;fill:#0c0c0c;fill-opacity:1;fill-rule:nonzero;stroke:none;stroke-width:0;stroke-linecap:round;stroke-linejoin:round;stroke-miterlimit:4;stroke-dasharray:none;stroke-dashoffset:2.1875;stroke-opacity:1;color-rendering:auto;image-rendering:auto;shape-rendering:auto;text-rendering:auto;enable-background:accumulate;stop-color:#000000"
       d="m 8.466667,2.5135417 c -3.5025914,0 -6.3500003,2.8478164 -6.3500003,6.3502643 0,3.502449 2.8474089,6.349736 6.3500003,6.349736 3.502591,0 6.35,-2.847287 6.35,-6.349736 0,-3.5024479 -2.847409,-6.3502643 -6.35,-6.3502643 z m 0,0.7932738 c 3.073583,0 5.557218,2.483538 5.557218,5.5569905 0,3.073453 -2.483635,5.556462 -5.557218,5.556462 -3.0735828,0 -5.5572186,-2.483009 -5.5572186,-5.556462 0,-3.0734525 2.4836358,-5.5569905 5.5572186,-5.5569905 z" />
    <path
       id="path1181-0-6-2-9-0"
       style="color:#000000;font-style:normal;font-variant:normal;font-weight:normal;font-stretch:normal;font-size:medium;line-height:normal;font-family:sans-serif;font-variant-ligatures:normal;font-variant-position:normal;font-variant-caps:normal;font-variant-numeric:normal;font-variant-alternates:normal;font-variant-east-asian:normal;font-feature-settings:normal;font-variation-settings:normal;text-indent:0;text-align:start;text-decoration:none;text-decoration-line:none;text-decoration-style:solid;text-decoration-color:#000000;letter-spacing:normal;word-spacing:normal;text-transform:none;writing-mode:lr-tb;direction:ltr;text-orientation:mixed;dominant-baseline:auto;baseline-shift:baseline;text-anchor:start;white-space:normal;shape-padding:0;shape-margin:0;inline-size:0;clip-rule:nonzero;display:inline;overflow:visible;visibility:visible;opacity:0.85;isolation:auto;mix-blend-mode:normal;color-interpolation:sRGB;color-interpolation-filters:linearRGB;solid-color:#000000;solid-opacity:1;vector-effect:none;fill:#723149;fill-opacity:1;fill-rule:nonzero;stroke:none;stroke-width:1.00006;stroke-linecap:round;stroke-linejoin:round;stroke-miterlimit:4;stroke-dasharray:none;stroke-dashoffset:2.1875;stroke-opacity:1;color-rendering:auto;image-rendering:auto;shape-rendering:auto;text-rendering:auto;enable-background:accumulate;stop-color:#000000"
       d="m 8.466667,2.1166667 c -3.5025914,0 -6.3500003,2.8478163 -6.3500003,6.3502643 0,3.502449 2.8474089,6.349736 6.3500003,6.349736 3.502591,0 6.35,-2.847287 6.35,-6.349736 0,-3.502448 -2.847409,-6.3502643 -6.35,-6.3502643 z m 0,0.7932738 c 3.073583,0 5.557218,2.483538 5.557218,5.5569905 0,3.073453 -2.483635,5.556462 -5.557218,5.556462 -3.0735828,0 -5.5572186,-2.483009 -5.5572186,-5.556462 0,-3.0734525 2.4836358,-5.5569905 5.5572186,-5.5569905 z" />
    <circle
       style="fill:#b95b7d;fill-opacity:1;stroke:#771832;stroke-width:0;stroke-linecap:round;stroke-linejoin:round;stroke-miterlimit:4;stroke-dasharray:none;stroke-dashoffset:2.1875;stroke-opacity:1"
       id="path1181-0-1-2"
       cx="8.4666672"
       cy="8.4666662"
       r="5.9531245" />
    <circle
       style="display:inline;fill:url(#linearGradient1315-5-1);fill-opacity:1;stroke:#771832;stroke-width:0;stroke-linecap:round;stroke-linejoin:round;stroke-miterlimit:4;stroke-dasharray:none;stroke-dashoffset:2.1875;stroke-opacity:1"
       id="path1181-6-2-7-3"
       cx="8.4666672"
       cy="8.4666662"
       r="5.9531245" />
    <path
       id="path1181-0-2-9-3-2-7"
       style="color:#000000;font-style:normal;font-variant:normal;font-weight:normal;font-stretch:normal;font-size:medium;line-height:normal;font-family:sans-serif;font-variant-ligatures:normal;font-variant-position:normal;font-variant-caps:normal;font-variant-numeric:normal;font-variant-alternates:normal;font-variant-east-asian:normal;font-feature-settings:normal;font-variation-settings:normal;text-indent:0;text-align:start;text-decoration:none;text-decoration-line:none;text-decoration-style:solid;text-decoration-color:#000000;letter-spacing:normal;word-spacing:normal;text-transform:none;writing-mode:lr-tb;direction:ltr;text-orientation:mixed;dominant-baseline:auto;baseline-shift:baseline;text-anchor:start;white-space:normal;shape-padding:0;shape-margin:0;inline-size:0;clip-rule:nonzero;display:inline;overflow:visible;visibility:visible;opacity:0.15;isolation:auto;mix-blend-mode:normal;color-interpolation:sRGB;color-interpolation-filters:linearRGB;solid-color:#000000;solid-opacity:1;vector-effect:none;fill:#562537;fill-opacity:1;fill-rule:nonzero;stroke:none;stroke-width:0;stroke-linecap:round;stroke-linejoin:round;stroke-miterlimit:4;stroke-dasharray:none;stroke-dashoffset:2.1875;stroke-opacity:1;color-rendering:auto;image-rendering:auto;shape-rendering:auto;text-rendering:auto;enable-background:accumulate;stop-color:#000000"
       d="m 8.466667,2.1166667 c -3.5025914,0 -6.3500003,2.8478163 -6.3500003,6.3502643 0,3.502449 2.8474089,6.349736 6.3500003,6.349736 3.502591,0 6.35,-2.847287 6.35,-6.349736 0,-3.502448 -2.847409,-6.3502643 -6.35,-6.3502643 z m 0,0.7932738 c 3.073583,0 5.557218,2.483538 5.557218,5.5569905 0,3.073453 -2.483635,5.556462 -5.557218,5.556462 -3.0735801,0 -5.5572186,-2.483009 -5.5572186,-5.556462 0,-3.0734525 2.4836385,-5.5569905 5.5572186,-5.5569905 z" />
    <path
       id="rect16-6-1-5-5-9-7-6-0-1-6-7"
       style="display:inline;opacity:0.35;fill:#562537;fill-opacity:1;stroke:none;stroke-width:0;stroke-miterlimit:4;stroke-dasharray:none"
       d="M 11.710382,5.5566734 C 11.421989,5.5516434 11.136075,5.6853932 10.957481,5.939843 L 7.496244,10.87091 5.928384,9.0064436 C 5.6081482,8.6256816 5.0430881,8.5759926 4.6614478,8.8954766 4.2798101,9.2149616 4.2299706,9.7787096 4.5502037,10.159471 l 2.3125669,2.748836 c 0.1347285,0.160179 0.3128328,0.258974 0.5023247,0.299059 0.014393,0.0034 0.028795,0.0056 0.04332,0.0082 0.033105,0.0053 0.066059,0.01005 0.099536,0.01164 0.045903,0.0032 0.091411,0.0026 0.1369907,-0.0026 0.2557251,-0.02223 0.4998349,-0.14904 0.659227,-0.376159 L 12.43049,6.9686489 C 12.716246,6.5614816 12.61845,6.004904 12.210357,5.7198155 12.057314,5.6129238 11.883411,5.5593192 11.710377,5.5562501 Z" />
    <path
       id="rect16-6-1-5-5-9-7-6-0-1-6-5-3"
       style="color:#000000;font-style:normal;font-variant:normal;font-weight:normal;font-stretch:normal;font-size:medium;line-height:normal;font-family:sans-serif;font-variant-ligatures:normal;font-variant-position:normal;font-variant-caps:normal;font-variant-numeric:normal;font-variant-alternates:normal;font-variant-east-asian:normal;font-feature-settings:normal;font-variation-settings:normal;text-indent:0;text-align:start;text-decoration:none;text-decoration-line:none;text-decoration-style:solid;text-decoration-color:#000000;letter-spacing:normal;word-spacing:normal;text-transform:none;writing-mode:lr-tb;direction:ltr;text-orientation:mixed;dominant-baseline:auto;baseline-shift:baseline;text-anchor:start;white-space:normal;shape-padding:0;shape-margin:0;inline-size:0;clip-rule:nonzero;display:inline;overflow:visible;visibility:visible;opacity:0.75;isolation:auto;mix-blend-mode:normal;color-interpolation:sRGB;color-interpolation-filters:linearRGB;solid-color:#000000;solid-opacity:1;vector-effect:none;fill:#562537;fill-opacity:1;fill-rule:nonzero;stroke:none;stroke-width:0.26462;stroke-linecap:round;stroke-linejoin:round;stroke-miterlimit:4;stroke-dasharray:none;stroke-dashoffset:0;stroke-opacity:1;color-rendering:auto;image-rendering:auto;shape-rendering:auto;text-rendering:auto;enable-background:accumulate;stop-color:#000000"
       d="m 11.713784,4.7630028 a 0.13234231,0.1323049 0 0 0 -0.06203,0.014552 c -0.308751,0.013758 -0.610661,0.1531408 -0.801728,0.4252913 L 7.4864914,9.993763 6.0288039,8.260556 C 5.662774,7.825449 5.011473,7.768352 4.5752518,8.133424 4.1391047,8.498443 4.0820024,9.148816 4.4480931,9.583976 l 2.3131728,2.748677 c 0.1544902,0.183621 0.3601587,0.297418 0.5763577,0.343138 0.019659,0.0045 0.036256,0.0074 0.047038,0.0093 a 0.13234231,0.1323049 0 0 0 0.00265,0 c 0.034253,0.0056 0.072051,0.01085 0.1137179,0.01296 h 5.292e-4 c 0.050596,0.0034 0.1024202,0.0026 0.1545563,-0.0032 0.2918169,-0.0254 0.573611,-0.171873 0.756237,-0.432012 L 12.539877,6.3830731 C 12.866447,5.9178826 12.753467,5.2757918 12.28711,4.9500897 12.112472,4.8281432 11.912685,4.7660191 11.713856,4.7625001 Z m -0.0047,0.2651125 a 0.13234231,0.1323049 0 0 0 0.0016,0 c 0.146804,0.00291 0.293847,0.048022 0.4249,0.1395148 0.350062,0.244475 0.432745,0.7148778 0.18764,1.0640219 l -4.127501,5.879756 c -0.1362472,0.194046 -0.3426196,0.301281 -0.5623984,0.320384 a 0.13234231,0.1323049 0 0 0 -0.00362,0 c -0.036573,0.0042 -0.073787,0.0048 -0.112686,0.0026 a 0.13234231,0.1323049 0 0 0 -0.0031,0 c -0.024315,0 -0.051573,-0.005 -0.082187,-0.0098 h -0.00265 c -0.015478,-0.0029 -0.027167,-0.0048 -0.033599,-0.0061 a 0.13234231,0.1323049 0 0 0 -0.0031,0 C 7.229484,12.384042 7.0789043,12.299932 6.9638661,12.163222 L 4.6501721,9.414545 C 4.3756166,9.088182 4.417942,8.611032 4.7452841,8.337082 5.0725552,8.063186 5.5520411,8.105228 5.82666,8.431642 l 1.5683072,1.864493 a 0.13234231,0.1323049 0 0 0 0.2093489,-0.0087 L 11.06659,5.3565162 c 0.153016,-0.2179638 0.396459,-0.3313907 0.642519,-0.3271044 z" />
    <path
       id="rect16-6-1-5-5-9-7-6-0-1-6"
       style="display:inline;fill:#fbfcfd;fill-opacity:1;stroke:none;stroke-width:0;stroke-miterlimit:4;stroke-dasharray:none"
       d="M 11.710382,4.8952151 C 11.421986,4.890188 11.136075,5.0239349 10.957481,5.2783847 L 7.496244,10.209451 5.928384,8.344985 C 5.6081482,7.964223 5.0430881,7.914534 4.6614478,8.234019 4.2798101,8.553503 4.2299706,9.117251 4.5502037,9.498013 l 2.3125669,2.748835 c 0.1347285,0.160179 0.3128328,0.258975 0.5023247,0.299059 0.014393,0.0034 0.028795,0.0056 0.04332,0.0082 0.033105,0.0053 0.066059,0.01005 0.099536,0.01164 0.045903,0.0032 0.091411,0.0026 0.1369907,-0.0026 0.2557251,-0.02222 0.4998349,-0.14904 0.659227,-0.376158 L 12.43049,6.3071906 C 12.716246,5.9000233 12.61845,5.3434458 12.210357,5.0583572 12.057314,4.9514655 11.883411,4.897861 11.710377,4.8947918 Z" />
  </g>
</svg>
