<?xml version="1.0" encoding="UTF-8" standalone="no"?>
<svg
   xmlns:dc="http://purl.org/dc/elements/1.1/"
   xmlns:cc="http://creativecommons.org/ns#"
   xmlns:rdf="http://www.w3.org/1999/02/22-rdf-syntax-ns#"
   xmlns:svg="http://www.w3.org/2000/svg"
   xmlns="http://www.w3.org/2000/svg"
   xmlns:sodipodi="http://sodipodi.sourceforge.net/DTD/sodipodi-0.dtd"
   xmlns:inkscape="http://www.inkscape.org/namespaces/inkscape"
   width="64"
   height="64"
   viewBox="0 0 64 64"
   version="1.1"
   id="svg6374"
   inkscape:version="1.0.2 (e86c870879, 2021-01-15)"
   sodipodi:docname="gtk-orientation-portrait.svg">
  <defs
     id="defs6368" />
  <sodipodi:namedview
     id="base"
     pagecolor="#cecece"
     bordercolor="#666666"
     borderopacity="1.0"
     inkscape:pageopacity="0"
     inkscape:pageshadow="2"
     inkscape:zoom="2.3858194"
     inkscape:cx="48.944976"
     inkscape:cy="52.264955"
     inkscape:document-units="px"
     inkscape:current-layer="layer1"
     inkscape:document-rotation="0"
     showgrid="false"
     units="px"
     inkscape:window-width="1518"
     inkscape:window-height="964"
     inkscape:window-x="68"
     inkscape:window-y="56"
     inkscape:window-maximized="0" />
  <metadata
     id="metadata6371">
    <rdf:RDF>
      <cc:Work
         rdf:about="">
        <dc:format>image/svg+xml</dc:format>
        <dc:type
           rdf:resource="http://purl.org/dc/dcmitype/StillImage" />
        <dc:title></dc:title>
      </cc:Work>
    </rdf:RDF>
  </metadata>
  <g
     inkscape:label="Layer 1"
     inkscape:groupmode="layer"
     id="layer1">
    <path
       id="rect954-7-0-7-3-0-0-0-6-7-8-9-6-9"
       style="color:#000000;font-style:normal;font-variant:normal;font-weight:normal;font-stretch:normal;font-size:medium;line-height:normal;font-family:sans-serif;font-variant-ligatures:normal;font-variant-position:normal;font-variant-caps:normal;font-variant-numeric:normal;font-variant-alternates:normal;font-variant-east-asian:normal;font-feature-settings:normal;font-variation-settings:normal;text-indent:0;text-align:start;text-decoration:none;text-decoration-line:none;text-decoration-style:solid;text-decoration-color:#000000;letter-spacing:normal;word-spacing:normal;text-transform:none;writing-mode:lr-tb;direction:ltr;text-orientation:mixed;dominant-baseline:auto;baseline-shift:baseline;text-anchor:start;white-space:normal;shape-padding:0;shape-margin:0;inline-size:0;clip-rule:nonzero;display:inline;overflow:visible;visibility:visible;opacity:0.95;isolation:auto;mix-blend-mode:normal;color-interpolation:sRGB;color-interpolation-filters:linearRGB;solid-color:#000000;solid-opacity:1;vector-effect:none;fill:#373739;fill-opacity:1;fill-rule:nonzero;stroke:none;stroke-linecap:round;stroke-linejoin:round;stroke-miterlimit:4;stroke-dasharray:none;stroke-dashoffset:2.1875;stroke-opacity:1;color-rendering:auto;image-rendering:auto;shape-rendering:auto;text-rendering:auto;enable-background:accumulate;stop-color:#000000"
       d="M 13,2.5 C 10.533,2.5 8.5,4.53295 8.5,6.9999998 V 56.99999 c 0,2.46706 2.033,4.5 4.5,4.5 h 37.999995 c 2.467,0 4.5,-2.03294 4.5,-4.5 V 6.9999998 C 55.499995,4.53295 53.466995,2.5 50.999995,2.5 Z m 0,3 h 37.999995 c 0.8569,0 1.5,0.6430598 1.5,1.4999998 V 56.99999 c 0,0.85695 -0.6431,1.5 -1.5,1.5 H 13 c -0.8569,0 -1.5,-0.64305 -1.5,-1.5 V 6.9999998 C 11.5,6.1430598 12.1431,5.5 13,5.5 Z" />
    <rect
       style="fill:#fbfaf9;fill-opacity:1;stroke-width:0.495;stroke-linecap:round;stroke-linejoin:round;stroke-miterlimit:4;stroke-dasharray:none;stroke-dashoffset:2.1875"
       id="rect954-7-0-7-3-0-0-5-4-1-3-3"
       width="44"
       height="56"
       x="10.000004"
       y="4.0000072"
       rx="3"
       ry="3" />
    <path
       style="color:#000000;font-style:normal;font-variant:normal;font-weight:normal;font-stretch:normal;font-size:medium;line-height:normal;font-family:sans-serif;font-variant-ligatures:normal;font-variant-position:normal;font-variant-caps:normal;font-variant-numeric:normal;font-variant-alternates:normal;font-variant-east-asian:normal;font-feature-settings:normal;font-variation-settings:normal;text-indent:0;text-align:start;text-decoration:none;text-decoration-line:none;text-decoration-style:solid;text-decoration-color:#000000;letter-spacing:normal;word-spacing:normal;text-transform:none;writing-mode:lr-tb;direction:ltr;text-orientation:mixed;dominant-baseline:auto;baseline-shift:baseline;text-anchor:start;white-space:normal;shape-padding:0;shape-margin:0;inline-size:0;clip-rule:nonzero;display:inline;overflow:visible;visibility:visible;opacity:0.075;isolation:auto;mix-blend-mode:normal;color-interpolation:sRGB;color-interpolation-filters:linearRGB;solid-color:#000000;solid-opacity:1;vector-effect:none;fill:#0c0c0c;fill-opacity:1;fill-rule:nonzero;stroke:none;stroke-width:0.945295;stroke-linecap:round;stroke-linejoin:round;stroke-miterlimit:4;stroke-dasharray:none;stroke-dashoffset:0;stroke-opacity:1;color-rendering:auto;image-rendering:auto;shape-rendering:auto;text-rendering:auto;enable-background:accumulate;stop-color:#000000"
       d="m 32.000125,21.456 c -1.27855,-10e-6 -2.56389,0.49409 -3.53764,1.46773 L 15.37554,36.01147 c -1.94738,1.94721 -1.94738,5.1256 0,7.07281 1.94744,1.94729 5.12779,1.94729 7.07524,0 l 9.549345,-9.54857 9.5512,9.54857 c 1.94739,1.94721 5.12604,1.94721 7.0734,0 1.94735,-1.94721 1.94735,-5.1256 0,-7.07281 L 35.537745,22.92373 c -0.97358,-0.9735 -2.25907,-1.46773 -3.53762,-1.46773 z m 0,1.99943 c 0.76739,0 1.52918,0.29027 2.12329,0.88434 l 13.087,13.08589 c 1.18804,1.18793 1.18803,3.0565 0,4.24443 -1.18804,1.18793 -3.05674,1.18793 -4.24478,0 L 32.707275,31.41257 a 1.0005792,1.0004965 0 0 0 -1.4143,0 L 21.03462,41.67009 c -1.18795,1.18785 -3.05682,1.18785 -4.24478,0 -1.18803,-1.18793 -1.18803,-3.0565 0,-4.24443 L 29.878645,24.33977 c 0.594,-0.59393 1.3541,-0.88434 2.12148,-0.88434 z"
       id="rect887-3-3-6-4-0-7-7" />
    <path
       id="rect887-3-1-6-5-5"
       style="fill:#37373a;fill-opacity:1;stroke:none;stroke-width:0"
       d="m 32.000365,21.456 c -1.02248,0 -2.04513,0.39182 -2.82862,1.1753 L 16.0902,35.71284 c -1.56694,1.56694 -1.56694,4.08979 0,5.65673 1.56696,1.56696 4.09029,1.56696 5.65723,0 l 10.252935,-10.25292 10.25292,10.25292 c 1.56696,1.56696 4.08978,1.56696 5.65675,0 1.56695,-1.56694 1.56695,-4.08979 0,-5.65673 L 34.828475,22.6313 c -0.78348,-0.78348 -1.80565,-1.1753 -2.82811,-1.1753 z" />
  </g>
</svg>
