<?xml version="1.0" encoding="UTF-8" standalone="no"?>
<svg
   xmlns:dc="http://purl.org/dc/elements/1.1/"
   xmlns:cc="http://creativecommons.org/ns#"
   xmlns:rdf="http://www.w3.org/1999/02/22-rdf-syntax-ns#"
   xmlns:svg="http://www.w3.org/2000/svg"
   xmlns="http://www.w3.org/2000/svg"
   xmlns:xlink="http://www.w3.org/1999/xlink"
   xmlns:sodipodi="http://sodipodi.sourceforge.net/DTD/sodipodi-0.dtd"
   xmlns:inkscape="http://www.inkscape.org/namespaces/inkscape"
   width="64"
   height="64"
   viewBox="0 0 16.933333 16.933334"
   version="1.1"
   id="svg841"
   inkscape:version="1.0.2 (e86c870879, 2021-01-15)"
   sodipodi:docname="network-idle.svg">
  <defs
     id="defs835">
    <linearGradient
       inkscape:collect="always"
       xlink:href="#linearGradient1139-3"
       id="linearGradient1942"
       gradientUnits="userSpaceOnUse"
       gradientTransform="translate(0.26458333,0.26458328)"
       x1="8.1944265"
       y1="1.0125455"
       x2="8.2493715"
       y2="15.385565" />
    <linearGradient
       inkscape:collect="always"
       id="linearGradient1139-3">
      <stop
         style="stop-color:#faf9fb;stop-opacity:1"
         offset="0"
         id="stop1135-6" />
      <stop
         style="stop-color:#d8d7d9;stop-opacity:1"
         offset="1"
         id="stop1137-7" />
    </linearGradient>
  </defs>
  <sodipodi:namedview
     id="base"
     pagecolor="#c4c4c4"
     bordercolor="#666666"
     borderopacity="1.0"
     inkscape:pageopacity="0"
     inkscape:pageshadow="2"
     inkscape:zoom="4.6280654"
     inkscape:cx="7.5245157"
     inkscape:cy="46.680114"
     inkscape:document-units="px"
     inkscape:current-layer="layer1"
     inkscape:document-rotation="0"
     showgrid="false"
     units="px"
     inkscape:window-width="2048"
     inkscape:window-height="1080"
     inkscape:window-x="0"
     inkscape:window-y="0"
     inkscape:window-maximized="1" />
  <metadata
     id="metadata838">
    <rdf:RDF>
      <cc:Work
         rdf:about="">
        <dc:format>image/svg+xml</dc:format>
        <dc:type
           rdf:resource="http://purl.org/dc/dcmitype/StillImage" />
        <dc:title></dc:title>
      </cc:Work>
    </rdf:RDF>
  </metadata>
  <g
     inkscape:label="Layer 1"
     inkscape:groupmode="layer"
     id="layer1">
    <path
       id="rect831-360-6-7-9-7-5-7-3"
       style="color:#000000;font-style:normal;font-variant:normal;font-weight:normal;font-stretch:normal;font-size:medium;line-height:normal;font-family:sans-serif;font-variant-ligatures:normal;font-variant-position:normal;font-variant-caps:normal;font-variant-numeric:normal;font-variant-alternates:normal;font-variant-east-asian:normal;font-feature-settings:normal;font-variation-settings:normal;text-indent:0;text-align:start;text-decoration:none;text-decoration-line:none;text-decoration-style:solid;text-decoration-color:#000000;letter-spacing:normal;word-spacing:normal;text-transform:none;writing-mode:lr-tb;direction:ltr;text-orientation:mixed;dominant-baseline:auto;baseline-shift:baseline;text-anchor:start;white-space:normal;shape-padding:0;shape-margin:0;inline-size:0;clip-rule:nonzero;display:inline;overflow:visible;visibility:visible;opacity:0.15;isolation:auto;mix-blend-mode:normal;color-interpolation:sRGB;color-interpolation-filters:linearRGB;solid-color:#000000;solid-opacity:1;vector-effect:none;fill:#0c0c0c;fill-opacity:1;fill-rule:nonzero;stroke:none;stroke-width:0;stroke-linecap:round;stroke-linejoin:round;stroke-miterlimit:4;stroke-dasharray:none;stroke-dashoffset:2.1875;stroke-opacity:1;color-rendering:auto;image-rendering:auto;shape-rendering:auto;text-rendering:auto;enable-background:accumulate;stop-color:#000000"
       d="m 2.6467488,1.3229167 c -0.9458352,0 -1.72070712,0.7729114 -1.72070712,1.7188763 v 11.643498 c 0,0.945965 0.77487192,1.718876 1.72070712,1.718876 H 14.286585 c 0.945835,0 1.720707,-0.772911 1.720707,-1.718876 V 3.041793 c 0,-0.9459649 -0.774872,-1.7188763 -1.720707,-1.7188763 z m 0,0.793287 H 14.286585 c 0.519856,0 0.927529,0.4056618 0.927529,0.9255893 v 11.643498 c 0,0.519927 -0.407673,0.926105 -0.927529,0.926105 H 2.6467488 c -0.519856,0 -0.9254623,-0.406178 -0.9254623,-0.926105 V 3.041793 c 0,-0.5199275 0.4056063,-0.9255893 0.9254623,-0.9255893 z" />
    <path
       id="rect831-360-6-5-0-5-7"
       style="color:#000000;font-style:normal;font-variant:normal;font-weight:normal;font-stretch:normal;font-size:medium;line-height:normal;font-family:sans-serif;font-variant-ligatures:normal;font-variant-position:normal;font-variant-caps:normal;font-variant-numeric:normal;font-variant-alternates:normal;font-variant-east-asian:normal;font-feature-settings:normal;font-variation-settings:normal;text-indent:0;text-align:start;text-decoration:none;text-decoration-line:none;text-decoration-style:solid;text-decoration-color:#000000;letter-spacing:normal;word-spacing:normal;text-transform:none;writing-mode:lr-tb;direction:ltr;text-orientation:mixed;dominant-baseline:auto;baseline-shift:baseline;text-anchor:start;white-space:normal;shape-padding:0;shape-margin:0;inline-size:0;clip-rule:nonzero;display:inline;overflow:visible;visibility:visible;isolation:auto;mix-blend-mode:normal;color-interpolation:sRGB;color-interpolation-filters:linearRGB;solid-color:#000000;solid-opacity:1;vector-effect:none;fill:#525054;fill-opacity:1;fill-rule:nonzero;stroke:none;stroke-width:0;stroke-linecap:round;stroke-linejoin:round;stroke-miterlimit:4;stroke-dasharray:none;stroke-dashoffset:2.1875;stroke-opacity:1;color-rendering:auto;image-rendering:auto;shape-rendering:auto;text-rendering:auto;enable-background:accumulate;stop-color:#000000"
       d="m 2.6467488,0.92604168 c -0.9458352,0 -1.72070712,0.77291142 -1.72070712,1.71887622 V 14.288416 c 0,0.945965 0.77487192,1.718876 1.72070712,1.718876 H 14.286585 c 0.945835,0 1.720707,-0.772911 1.720707,-1.718876 V 2.6449179 c 0,-0.9459648 -0.774872,-1.71887622 -1.720707,-1.71887622 z m 0,0.79328702 H 14.286585 c 0.519856,0 0.927529,0.4056618 0.927529,0.9255892 V 14.288416 c 0,0.519927 -0.407673,0.926105 -0.927529,0.926105 H 2.6467488 c -0.519856,0 -0.9254623,-0.406178 -0.9254623,-0.926105 V 2.6449179 c 0,-0.5199274 0.4056063,-0.9255892 0.9254623,-0.9255892 z" />
    <rect
       style="fill:url(#linearGradient1942);fill-opacity:1;stroke-width:0;stroke-linecap:round;stroke-linejoin:round;stroke-dashoffset:2.1875"
       id="rect831-9-3-3-5"
       width="14.2875"
       height="14.2875"
       x="1.322915"
       y="1.3229166"
       rx="1.3229167"
       ry="1.3229167" />
    <path
       id="rect831-360-6-7-7-6-5-9"
       style="color:#000000;font-style:normal;font-variant:normal;font-weight:normal;font-stretch:normal;font-size:medium;line-height:normal;font-family:sans-serif;font-variant-ligatures:normal;font-variant-position:normal;font-variant-caps:normal;font-variant-numeric:normal;font-variant-alternates:normal;font-variant-east-asian:normal;font-feature-settings:normal;font-variation-settings:normal;text-indent:0;text-align:start;text-decoration:none;text-decoration-line:none;text-decoration-style:solid;text-decoration-color:#000000;letter-spacing:normal;word-spacing:normal;text-transform:none;writing-mode:lr-tb;direction:ltr;text-orientation:mixed;dominant-baseline:auto;baseline-shift:baseline;text-anchor:start;white-space:normal;shape-padding:0;shape-margin:0;inline-size:0;clip-rule:nonzero;display:inline;overflow:visible;visibility:visible;opacity:0.15;isolation:auto;mix-blend-mode:normal;color-interpolation:sRGB;color-interpolation-filters:linearRGB;solid-color:#000000;solid-opacity:1;vector-effect:none;fill:#333234;fill-opacity:1;fill-rule:nonzero;stroke:none;stroke-width:0;stroke-linecap:round;stroke-linejoin:round;stroke-miterlimit:4;stroke-dasharray:none;stroke-dashoffset:2.1875;stroke-opacity:1;color-rendering:auto;image-rendering:auto;shape-rendering:auto;text-rendering:auto;enable-background:accumulate;stop-color:#000000"
       d="m 2.6467488,0.92604168 c -0.9458353,0 -1.72070712,0.77291142 -1.72070712,1.71887622 V 14.288416 c 0,0.945965 0.77487182,1.718876 1.72070712,1.718876 H 14.286585 c 0.945835,0 1.720707,-0.772911 1.720707,-1.718876 V 2.6449179 c 0,-0.9459648 -0.774872,-1.71887622 -1.720707,-1.71887622 z m 0,0.79328702 H 14.286585 c 0.519856,0 0.927529,0.4056618 0.927529,0.9255892 V 14.288416 c 0,0.519927 -0.407673,0.926105 -0.927529,0.926105 H 2.6467488 c -0.5198587,0 -0.9254623,-0.406178 -0.9254623,-0.926105 V 2.6449179 c 0,-0.5199274 0.4056036,-0.9255892 0.9254623,-0.9255892 z" />
    <path
       id="rect3612-4-1-6-0-67-7-5-3-0-2-6-4"
       style="display:inline;opacity:0.25;fill:#333234;fill-opacity:1;stroke:none;stroke-width:0;stroke-linecap:round;stroke-linejoin:round;stroke-miterlimit:4;stroke-dasharray:none;stroke-dashoffset:2.1875;stroke-opacity:1"
       d="m 11.549172,4.7722341 c -0.04636,-0.00413 -0.09419,0.00897 -0.132809,0.041341 l -0.558105,0.4676828 v 5.292e-4 c -0.01924,0.016139 -0.03419,0.035401 -0.04496,0.056327 -0.01073,0.020902 -0.01703,0.04364 -0.01912,0.066667 v 5.291e-4 c -0.002,0.023045 1.41e-4,0.046257 0.0072,0.068728 v 5.292e-4 c 0.0069,0.022463 0.01853,0.043294 0.03462,0.062532 v 5.292e-4 l 0.730704,0.8702463 H 8.1023509 c -0.1007689,0 -0.181901,0.081137 -0.181901,0.1819037 v 0.6366669 c 0,0.1007772 0.081132,0.1819037 0.181901,0.1819037 H 12.406998 L 12.919112,8.018661 12.406998,8.629489 H 8.4666695 v -0.0031 H 5.3660835 L 6.0967883,7.75614 v -5.29e-4 c 0.01619,-0.01921 0.028155,-0.04057 0.03514,-0.06305 v -5.29e-4 c 0.00691,-0.02246 0.00872,-0.0457 0.00672,-0.068731 v -5.292e-4 c -0.00201,-0.023019 -0.0085,-0.045223 -0.019121,-0.066149 V 7.5561007 C 6.1087932,7.5351721 6.0937728,7.5164449 6.0745665,7.5002895 V 7.4997603 L 5.516461,7.0320775 c -0.038616,-0.032374 -0.086425,-0.045993 -0.1328087,-0.04186 -0.046383,0.00413 -0.091111,0.026008 -0.1235064,0.064598 L 2.6861426,10.119805 v 5.29e-4 c -0.00491,0.0059 -0.00667,0.01355 -0.010853,0.01963 -0.00637,0.0097 -0.012171,0.01934 -0.016536,0.02997 -0.00455,0.01087 -0.00712,0.02177 -0.0093,0.03308 -0.00235,0.0114 -0.00343,0.02249 -0.00362,0.03411 0,0.01161 0.0018,0.0227 0.00362,0.0341 v 5.29e-4 c 0.00217,0.01127 0.00494,0.02172 0.0093,0.03255 0.00437,0.01053 0.010171,0.02024 0.016536,0.02998 v 5.29e-4 c 0.004,0.0063 0.00576,0.01299 0.010853,0.01913 v 5.29e-4 l 2.5740033,3.064987 v 5.29e-4 c 0.032395,0.0386 0.077124,0.05995 0.1235064,0.06408 0.046365,0.0041 0.094193,-0.009 0.1328087,-0.04134 l 0.5581055,-0.468196 c 0.019243,-0.01614 0.034191,-0.0354 0.044958,-0.05633 v -5.3e-4 c 0.010732,-0.0209 0.017029,-0.04364 0.019121,-0.06666 0.00201,-0.02304 3.704e-4,-0.04677 -0.00672,-0.06925 -0.00691,-0.02246 -0.019042,-0.04381 -0.03514,-0.06305 l -0.730702,-0.870762 h 3.4643881 c 0.1007689,0 0.181901,-0.08114 0.181901,-0.181906 v -0.636664 c 0,-0.100777 -0.081132,-0.181907 -0.181901,-0.181907 H 4.5258247 L 4.0137112,10.237163 4.5258247,9.626852 h 3.940328 v 0.0031 h 3.1005863 l -0.730705,0.870249 c -0.01619,0.01921 -0.02764,0.04109 -0.03462,0.06356 -0.0069,0.02246 -0.0092,0.04622 -0.0072,0.06925 0.002,0.02302 0.0085,0.04574 0.01912,0.06666 0.01073,0.02093 0.02575,0.04018 0.04496,0.05633 l 0.558106,0.468196 c 0.03862,0.03238 0.08644,0.04599 0.132808,0.04186 0.04638,-0.0041 0.09111,-0.02601 0.123507,-0.0646 v -5.29e-4 l 2.574003,-3.064989 c 0.0049,-0.0059 0.0067,-0.01349 0.01085,-0.01963 V 8.11578 c 0.0064,-0.0098 0.01217,-0.01881 0.01654,-0.02946 v -5.29e-4 c 0.0045,-0.01088 0.0071,-0.02125 0.0093,-0.03256 v -5.29e-4 c 0.0024,-0.0114 0.004,-0.02249 0.0041,-0.03411 0,-0.01161 -0.0023,-0.0227 -0.0041,-0.03411 -0.0022,-0.0113 -0.0049,-0.02172 -0.0093,-0.03256 v -5.29e-4 c -0.0044,-0.01053 -0.01017,-0.02024 -0.01654,-0.02998 -0.004,-0.0063 -0.0058,-0.01352 -0.01085,-0.01963 l -2.57404,-3.0649746 v -5.292e-4 c -0.03239,-0.038597 -0.07714,-0.059949 -0.123507,-0.06408 z" />
    <path
       id="rect3612-4-1-6-0-67-7-5-3-0-2-65"
       style="display:inline;fill:#c3c3c6;fill-opacity:1;stroke:none;stroke-width:0;stroke-linecap:round;stroke-linejoin:round;stroke-miterlimit:4;stroke-dasharray:none;stroke-dashoffset:2.1875;stroke-opacity:1"
       d="m 11.549167,4.1107758 c -0.04636,-0.00413 -0.09419,0.00897 -0.132808,0.041341 l -0.558106,0.4676828 v 5.292e-4 c -0.01924,0.01614 -0.03419,0.035401 -0.04496,0.056327 -0.01073,0.020902 -0.01703,0.04364 -0.01912,0.066667 v 5.292e-4 c -0.002,0.023045 1.41e-4,0.046257 0.0072,0.068728 v 5.291e-4 c 0.0069,0.022463 0.01853,0.043294 0.03462,0.062532 v 5.292e-4 l 0.730705,0.8702464 H 8.1023467 c -0.100769,0 -0.1819011,0.081137 -0.1819011,0.1819037 v 0.6366669 c 0,0.1007771 0.081132,0.1819036 0.1819011,0.1819036 H 12.406994 L 12.919107,7.3572028 12.406994,7.96803 H 8.4666652 V 7.96493 H 5.3660792 L 6.0967841,7.0946858 v -5.291e-4 c 0.01619,-0.019209 0.028155,-0.040571 0.03514,-0.063048 v -5.292e-4 c 0.00691,-0.022463 0.00872,-0.045696 0.00672,-0.068731 V 6.96132 C 6.1366341,6.938301 6.1301441,6.916097 6.1195231,6.895172 V 6.8946423 C 6.108789,6.8737138 6.0937686,6.8549866 6.0745622,6.8388311 V 6.8383019 L 5.5164567,6.3706191 c -0.038616,-0.032374 -0.086425,-0.045992 -0.1328086,-0.04186 -0.046383,0.00413 -0.091111,0.026009 -0.1235065,0.064598 L 2.6861384,9.458346 v 5.3e-4 c -0.00491,0.0059 -0.00667,0.01355 -0.010853,0.01963 -0.00637,0.0097 -0.012171,0.01934 -0.016536,0.02997 -0.00455,0.01087 -0.00712,0.02177 -0.0093,0.03308 -0.00235,0.0114 -0.00343,0.02249 -0.00362,0.03411 0,0.01162 0.0018,0.0227 0.00362,0.0341 v 5.3e-4 c 0.00217,0.01127 0.00494,0.02172 0.0093,0.03255 0.00437,0.01053 0.010171,0.02024 0.016536,0.02998 v 5.29e-4 c 0.004,0.0063 0.00576,0.01299 0.010853,0.01913 v 5.29e-4 L 5.2601416,12.758 v 5.29e-4 c 0.032395,0.0386 0.077124,0.05995 0.1235065,0.06408 0.046365,0.0041 0.094193,-0.009 0.1328086,-0.04134 l 0.5581055,-0.468196 c 0.019243,-0.01614 0.03419,-0.0354 0.044958,-0.05633 v -5.29e-4 c 0.010732,-0.0209 0.017029,-0.04364 0.019121,-0.06666 0.00201,-0.02305 3.704e-4,-0.04677 -0.00672,-0.06925 -0.00691,-0.02246 -0.019042,-0.04381 -0.03514,-0.06305 l -0.730702,-0.870763 h 3.4643881 c 0.100769,0 0.1819011,-0.08114 0.1819011,-0.181906 V 10.36792 c 0,-0.100777 -0.081132,-0.181906 -0.1819011,-0.181906 H 4.5258205 L 4.013707,9.575705 4.5258205,8.965393 h 3.940328 v 0.0031 H 11.566735 L 10.83603,9.838742 c -0.01619,0.01921 -0.02764,0.04109 -0.03462,0.06356 -0.0069,0.02246 -0.0092,0.04622 -0.0072,0.06925 0.002,0.02302 0.0085,0.04574 0.01912,0.06666 0.01073,0.02093 0.02575,0.04018 0.04496,0.05633 l 0.558106,0.468196 c 0.03862,0.03238 0.08644,0.04599 0.132808,0.04186 0.04638,-0.0041 0.09111,-0.02601 0.123507,-0.0646 v -5.29e-4 l 2.573966,-3.064987 c 0.0049,-0.00593 0.0067,-0.013494 0.01085,-0.019632 v -5.291e-4 c 0.0064,-0.00976 0.01217,-0.018812 0.01654,-0.029456 v -5.292e-4 c 0.0045,-0.010874 0.0071,-0.021246 0.0093,-0.032557 v -5.291e-4 c 0.0024,-0.011404 0.0039,-0.02249 0.0041,-0.034107 0,-0.011615 -0.0023,-0.022701 -0.0041,-0.034107 -0.0022,-0.011298 -0.0049,-0.021722 -0.0093,-0.032557 v -5.291e-4 c -0.0044,-0.010531 -0.01017,-0.020241 -0.01654,-0.029975 -0.004,-0.00632 -0.0058,-0.01352 -0.01085,-0.019632 L 11.672674,4.17535 v -5.292e-4 c -0.0324,-0.038597 -0.07714,-0.059949 -0.123507,-0.064079 z" />
    <path
       id="rect3612-4-1-6-0-67-7-5-3-0-2-1-7-9-7"
       style="color:#000000;font-style:normal;font-variant:normal;font-weight:normal;font-stretch:normal;font-size:medium;line-height:normal;font-family:sans-serif;font-variant-ligatures:normal;font-variant-position:normal;font-variant-caps:normal;font-variant-numeric:normal;font-variant-alternates:normal;font-variant-east-asian:normal;font-feature-settings:normal;font-variation-settings:normal;text-indent:0;text-align:start;text-decoration:none;text-decoration-line:none;text-decoration-style:solid;text-decoration-color:#000000;letter-spacing:normal;word-spacing:normal;text-transform:none;writing-mode:lr-tb;direction:ltr;text-orientation:mixed;dominant-baseline:auto;baseline-shift:baseline;text-anchor:start;white-space:normal;shape-padding:0;shape-margin:0;inline-size:0;clip-rule:nonzero;display:inline;overflow:visible;visibility:visible;isolation:auto;mix-blend-mode:normal;color-interpolation:sRGB;color-interpolation-filters:linearRGB;solid-color:#000000;solid-opacity:1;vector-effect:none;fill:#555558;fill-opacity:1;fill-rule:nonzero;stroke:none;stroke-width:0.264589;stroke-linecap:round;stroke-linejoin:round;stroke-miterlimit:4;stroke-dasharray:none;stroke-dashoffset:2.1875;stroke-opacity:1;color-rendering:auto;image-rendering:auto;shape-rendering:auto;text-rendering:auto;enable-background:accumulate;stop-color:#000000"
       d="m 11.544875,3.9780687 a 0.13230231,0.13231162 0 0 0 -0.08061,0.030491 c -0.04609,0.010848 -0.09475,0.00953 -0.133322,0.041862 l -0.558095,0.4676934 a 0.13230231,0.13231162 0 0 0 -0.03256,0.041344 c -0.01569,0.018574 -0.03426,0.035544 -0.04496,0.05633 -0.01893,0.036875 -0.02952,0.076213 -0.03307,0.1152445 a 0.13230231,0.13231162 0 0 0 0,0.00106 c -0.0034,0.038523 1.2e-5,0.079105 0.0124,0.118864 a 0.13230231,0.13231162 0 0 0 0,5.292e-4 c 0,0 0,5.292e-4 0,5.292e-4 0.0074,0.024024 0.02283,0.043463 0.03566,0.064598 a 0.13230231,0.13231162 0 0 0 0.02377,0.04341 0.13230231,0.13231162 0 0 0 5.29e-4,0.00106 l 0.54776,0.6527033 H 8.1022686 c -0.1717781,0 -0.3141866,0.1424226 -0.3141866,0.3142086 v 0.6366854 c 0,0.1717887 0.1424178,0.3142086 0.3141866,0.3142086 H 12.344821 L 12.745823,7.3569205 12.344821,7.835473 H 8.4929347 a 0.13230231,0.13231162 0 0 0 -0.026355,-0.0031 H 5.6497522 L 6.1980285,7.1796674 a 0.13230231,0.13231162 0 0 0 0.024805,-0.045995 c 0.012509,-0.020796 0.027775,-0.039868 0.035139,-0.063564 a 0.13230231,0.13231162 0 0 0 0,-0.00106 c 0.012544,-0.040775 0.015661,-0.081346 0.012401,-0.1188615 a 0.13230231,0.13231162 0 0 0 0,-5.291e-4 c -0.00206,-0.023601 -0.012396,-0.044934 -0.019637,-0.06718 a 0.13230231,0.13231162 0 0 0 -0.013435,-0.04703 0.13230231,0.13231162 0 0 0 -5.292e-4,-0.00159 c -0.01098,-0.021405 -0.029302,-0.037536 -0.044958,-0.055814 0,0 0,-5.292e-4 0,-5.292e-4 A 0.13230231,0.13231162 0 0 0 6.1592583,6.736694 L 5.6011636,6.268998 C 5.5353496,6.213814 5.4516992,6.189522 5.3717246,6.196648 5.2917066,6.203768 5.2139377,6.242095 5.1588218,6.3077571 L 2.5848696,9.372844 a 0.13230231,0.13231162 0 0 0 -5.291e-4,0.0011 0.13230231,0.13231162 0 0 0 -0.019632,0.03152 0.13230231,0.13231162 0 0 0 -5.292e-4,5.3e-4 c -0.00802,0.01225 -0.018521,0.02934 -0.027906,0.05219 -0.00918,0.02225 -0.013732,0.04194 -0.016536,0.05633 0,0 0,5.29e-4 0,5.29e-4 -0.0041,0.02 -0.00593,0.04007 -0.00619,0.0584 a 0.13230231,0.13231162 0 0 0 0,0.0021 c 0,0.0186 0.00185,0.02928 0.00362,0.04031 a 0.13230231,0.13231162 0 0 0 0.00159,0.01447 0.13230231,0.13231162 0 0 0 5.292e-4,0.0047 c 0.00325,0.01688 0.00839,0.03715 0.016536,0.05737 a 0.13230231,0.13231162 0 0 0 5.292e-4,0.0011 c 0.00611,0.01474 0.012382,0.02379 0.0186,0.03411 a 0.13230231,0.13231162 0 0 0 0.00826,0.01654 c -2.646e-4,-5.29e-4 0.00132,0.0016 0.00106,0.0011 -0.00106,-0.0016 0.00315,0.0047 0.00265,0.0041 a 0.13230231,0.13231162 0 0 0 0.017568,0.02791 0.13230231,0.13231162 0 0 0 5.292e-4,0.0011 l 2.5429478,3.028392 v -0.04806 a 0.13230231,0.13231162 0 0 0 0.031005,0.08527 c 0.0555,0.06613 0.1338946,0.103553 0.2129029,0.110593 0.078986,0.007 0.1630735,-0.01619 0.229439,-0.07183 l 0.5580946,-0.468212 c 0.033105,-0.02777 0.059067,-0.0613 0.077513,-0.09716 a 0.13230231,0.13231162 0 0 0 0,-5.29e-4 0.13230231,0.13231162 0 0 0 0.01447,-0.0491 c 0.00695,-0.02204 0.017084,-0.04376 0.019121,-0.06615 0.00321,-0.03677 6.615e-4,-0.07791 -0.012401,-0.119896 -0.012777,-0.04154 -0.033919,-0.07795 -0.059944,-0.109043 L 5.649374,11.318888 h 3.1811392 c 0.1717778,0 0.3141867,-0.142423 0.3141867,-0.314209 v -0.636688 c 0,-0.171783 -0.1424157,-0.314208 -0.3141867,-0.314208 H 4.5874364 L 4.1864352,9.575578 4.5874364,9.097547 h 3.851886 a 0.13230231,0.13231162 0 0 0 0.026871,0.0031 h 2.8168276 l -0.548276,0.653224 c -0.02812,0.03347 -0.04807,0.07082 -0.05994,0.109043 a 0.13230231,0.13231162 0 0 0 0,5.29e-4 c -0.01217,0.03956 -0.01585,0.07974 -0.0124,0.11938 0.0035,0.04008 0.01427,0.07924 0.03256,0.115242 a 0.13230231,0.13231162 0 0 0 5.29e-4,5.29e-4 c 0.01857,0.03622 0.0447,0.06955 0.07751,0.09716 l 0.558094,0.468209 c 0.06584,0.05521 0.149483,0.07947 0.229439,0.07235 0.08002,-0.0071 0.158303,-0.04546 0.21342,-0.111109 a 0.13230231,0.13231162 0 0 0 0.031,-0.08527 v 0.04755 l 2.542948,-3.0278759 a 0.13230231,0.13231162 0 0 0 5.29e-4,-0.00106 c 0.03032,-0.036592 0.0327,-0.050898 0.01809,-0.029456 a 0.13230231,0.13231162 0 0 0 0.0016,-0.00265 0.13230231,0.13231162 0 0 0 0.0098,-0.0186 c 0.0059,-0.00958 0.01173,-0.017171 0.01809,-0.032557 v -5.292e-4 a 0.13230231,0.13231162 0 0 0 0,-5.291e-4 l 0.001,-0.00265 a 0.13230231,0.13231162 0 0 0 0.0072,-0.024289 0.13230231,0.13231162 0 0 0 5.29e-4,-0.00265 c 0.0025,-0.00908 0.0063,-0.019659 0.0078,-0.026876 5.7e-5,-2.646e-4 4.5e-4,-7.938e-4 5.29e-4,-0.00106 a 0.13230231,0.13231162 0 0 0 0.0026,-0.023257 0.13230231,0.13231162 0 0 0 0,-0.00212 v -5.292e-4 c 0.0014,-0.010557 0.0039,-0.01987 0.0041,-0.032041 a 0.13230231,0.13231162 0 0 0 0,-0.00212 c 0,-0.029295 -0.0051,-0.047633 -0.0062,-0.054779 a 0.13230231,0.13231162 0 0 0 -5.03e-4,-0.00413 c -0.0019,-0.010081 -0.0063,-0.02249 -0.0098,-0.034107 a 0.13230231,0.13231162 0 0 0 -0.0057,-0.020161 0.13230231,0.13231162 0 0 0 -0.001,-0.0031 0.13230231,0.13231162 0 0 0 -5.29e-4,-0.00159 c -0.0089,-0.021564 -0.01874,-0.037637 -0.02687,-0.050128 l -0.001,-0.00159 c 0.009,0.013362 0.0067,2.09e-4 -0.02015,-0.032038 a 0.13230231,0.13231162 0 0 0 0,-5.292e-4 l -2.543,-3.0278501 v 0.047543 a 0.13230231,0.13231162 0 0 0 -0.031,-0.085267 C 11.71851,4.0227603 11.639607,3.985353 11.5606,3.9783151 A 0.13230231,0.13231162 0 0 0 11.5451,3.9777859 Z M 6.2579619,7.0689948 a 0.13230231,0.13231162 0 0 0 0.0062,-0.038245 z m 4.4166991,-2.2180656 -0.0057,-0.03824 a 0.13230231,0.13231162 0 0 0 0.0057,0.03824 z m 0.862463,-0.6087798 c 0.01347,0.00132 0.02442,0.0059 0.03359,0.016536 0,0 5.29e-4,5.292e-4 5.29e-4,5.292e-4 a 0.13230231,0.13231162 0 0 0 0,5.291e-4 l 2.56155,3.0506116 c 8.47e-4,0.00159 0.0039,0.00669 0.0124,0.020161 a 0.13230231,0.13231162 0 0 0 10e-4,0.00159 c 0.0039,0.00603 0.0047,0.00751 0.0047,0.00722 a 0.13230231,0.13231162 0 0 0 0,5.292e-4 c 6.08e-4,0.00159 9.79e-4,0.00212 0.0021,0.00775 7.68e-4,0.00537 0.0021,0.011113 0.0021,0.00828 -3.9e-5,0.00106 -3.7e-4,0.00265 -0.0016,0.00826 a 0.13230231,0.13231162 0 0 0 -5.29e-4,0.00212 c -0.0014,0.00709 -0.0017,0.00709 -0.0016,0.00672 a 0.13230231,0.13231162 0 0 0 -10e-4,0.0031 c 2.55e-4,-5.292e-4 -6.88e-4,0.00106 -0.0026,0.00413 -8.46e-4,0.00132 -8.2e-5,-7.938e-4 -0.0016,0.00159 a 0.13230231,0.13231162 0 0 0 -0.0088,0.016536 l -2.566201,3.0563005 a 0.13230231,0.13231162 0 0 0 -5.3e-4,0.0011 c -0.0096,0.01109 -0.02107,0.01593 -0.03359,0.01707 -0.01277,0.0011 -0.02478,-0.0019 -0.03617,-0.01138 L 10.942779,9.993217 c -0.0054,-0.0045 -0.009,-0.0096 -0.01188,-0.01497 -0.003,-0.0058 -0.0046,-0.01212 -0.0052,-0.0181 -5.55e-4,-0.0062 -1.3e-5,-0.01328 0.0016,-0.0186 v -5.29e-4 c 0.0021,-0.0064 0.0053,-0.0123 0.0093,-0.01707 a 0.13230231,0.13231162 0 0 0 5.29e-4,0 L 11.667827,9.053616 A 0.13230231,0.13231162 0 0 0 11.566543,8.836046 H 8.4923719 a 0.13230231,0.13231162 0 0 0 -0.026355,-0.0031 H 4.5257659 A 0.13230231,0.13231162 0 0 0 4.4239653,8.880486 L 3.9118619,9.490817 a 0.13230231,0.13231162 0 0 0 0,0.170026 l 0.5121034,0.610328 a 0.13230231,0.13231162 0 0 0 0.1018006,0.04702 h 4.3045627 c 0.029763,0 0.049608,0.01984 0.049608,0.04961 v 0.636688 c 0,0.02976 -0.019852,0.04961 -0.049608,0.04961 H 5.366008 a 0.13230231,0.13231162 0 0 0 -0.1012838,0.21757 l 0.7306906,0.870807 h -5.292e-4 c 0.00617,0.0074 0.00929,0.01365 0.010335,0.01707 a 0.13230231,0.13231162 0 0 0 0,5.29e-4 c 8.202e-4,0.0026 0.00233,0.0091 0.00156,0.0181 -6.879e-4,0.0068 -0.0027,0.01275 -0.00517,0.01757 a 0.13230231,0.13231162 0 0 0 0,5.29e-4 0.13230231,0.13231162 0 0 0 -5.292e-4,5.3e-4 c -0.00303,0.0057 -0.0067,0.01064 -0.011885,0.015 l -0.5580946,0.468212 c -0.010867,0.0091 -0.022431,0.01206 -0.036173,0.01085 -0.013502,-0.0013 -0.023897,-0.0059 -0.033072,-0.01654 0,0 -5.292e-4,-5.29e-4 -5.292e-4,-5.29e-4 a 0.13230231,0.13231162 0 0 0 0,-5.29e-4 L 2.818383,9.64487 V 9.69241 A 0.13230231,0.13231162 0 0 0 2.794623,9.61696 0.13230231,0.13231162 0 0 0 2.793563,9.61536 c 0.00558,0.007 0.00548,0.0059 -0.00516,-0.01085 -5.292e-4,-0.0011 -5.292e-4,-5.29e-4 -0.00106,-0.0016 a 0.13230231,0.13231162 0 0 0 -5.291e-4,-5.3e-4 0.13230231,0.13231162 0 0 0 -0.00106,-0.0021 c -0.00394,-0.006 -0.00474,-0.0075 -0.00466,-0.0072 v -5.3e-4 c 0,0 -5.292e-4,-5.29e-4 -5.292e-4,-5.29e-4 -5.292e-4,-0.0011 -7.938e-4,-0.0021 -0.00159,-0.0062 0,0 0,-5.29e-4 0,-5.29e-4 -5.292e-4,-0.0043 -0.00106,-0.0079 -0.00106,-0.0078 v -0.0016 c 0,0 0,-5.29e-4 0,-5.29e-4 1.323e-4,-0.0029 9.52e-5,-0.0052 5.291e-4,-0.0072 a 0.13230231,0.13231162 0 0 0 5.292e-4,-0.0016 c 0.00159,-0.0079 0.00238,-0.009 0.00159,-0.0072 a 0.13230231,0.13231162 0 0 0 0,-0.0011 c -5.292e-4,0.0011 0.00185,-0.0024 0.00362,-0.0052 v -5.29e-4 c 0.020505,-0.02978 0.023204,-0.03346 0.0031,-0.0093 a 0.13230231,0.13231162 0 0 0 0.031004,-0.08475 v 0.04755 L 5.3612474,6.4782172 c 0.00967,-0.011509 0.020844,-0.01696 0.033589,-0.018097 0.01279,-0.00106 0.024757,0.00185 0.036173,0.011377 l 0.51107,0.4279027 v -0.060981 a 0.13230231,0.13231162 0 0 0 0.047025,0.1012904 c 0.00617,0.00519 0.00895,0.00953 0.011369,0.013943 a 0.13230231,0.13231162 0 0 0 5.292e-4,0.00106 c 0.00336,0.00661 0.00518,0.011774 0.00568,0.017568 a 0.13230231,0.13231162 0 0 0 0,5.292e-4 c 7.409e-4,0.00855 -2.646e-4,0.014446 -0.00156,0.0186 -0.00132,0.00429 -0.00408,0.010239 -0.00982,0.017039 a 0.13230231,0.13231162 0 0 0 -0.031005,0.08527 V 7.0461745 L 5.2646149,7.879758 a 0.13230231,0.13231162 0 0 0 0.1012839,0.217053 h 3.073654 a 0.13230231,0.13231162 0 0 0 0.026871,0.0031 h 3.9403052 a 0.13230231,0.13231162 0 0 0 0.101284,-0.04703 l 0.512103,-0.6108435 a 0.13230231,0.13231162 0 0 0 0,-0.1700265 L 12.508013,6.6616767 A 0.13230231,0.13231162 0 0 0 12.406729,6.614221 H 8.1021662 c -0.029765,0 -0.049608,-0.019844 -0.049608,-0.049612 V 5.9279236 c 0,-0.029758 0.019852,-0.049612 0.049608,-0.049612 H 11.566487 A 0.13230231,0.13231162 0 0 0 11.667771,5.6607447 L 10.968085,4.8276749 v 0.047546 a 0.13230231,0.13231162 0 0 0 -0.03101,-0.084751 c -0.0057,-0.00677 -0.0079,-0.011139 -0.0093,-0.015505 a 0.13230231,0.13231162 0 0 0 -5.29e-4,-0.00265 c -0.0015,-0.00487 -0.0022,-0.010319 -0.0016,-0.017568 6.35e-4,-0.00701 0.0021,-0.01315 0.0047,-0.018097 0.0031,-0.00601 0.007,-0.011007 0.0124,-0.015505 a 0.13230231,0.13231162 0 0 0 0.04754,-0.096123 v 0.055814 l 0.510553,-0.4279027 c 0.01087,-0.0091 0.02243,-0.012065 0.03617,-0.010848 z" />
  </g>
</svg>
