<?xml version="1.0" encoding="UTF-8" standalone="no"?>
<svg
   xmlns:dc="http://purl.org/dc/elements/1.1/"
   xmlns:cc="http://creativecommons.org/ns#"
   xmlns:rdf="http://www.w3.org/1999/02/22-rdf-syntax-ns#"
   xmlns:svg="http://www.w3.org/2000/svg"
   xmlns="http://www.w3.org/2000/svg"
   xmlns:xlink="http://www.w3.org/1999/xlink"
   xmlns:sodipodi="http://sodipodi.sourceforge.net/DTD/sodipodi-0.dtd"
   xmlns:inkscape="http://www.inkscape.org/namespaces/inkscape"
   width="64"
   height="64"
   viewBox="0 0 16.933333 16.933334"
   version="1.1"
   id="svg841"
   inkscape:version="1.0.2 (e86c870879, 2021-01-15)"
   sodipodi:docname="audio-card.svg">
  <defs
     id="defs835">
    <linearGradient
       inkscape:collect="always"
       xlink:href="#linearGradient870-8"
       id="linearGradient1092-4-5"
       gradientUnits="userSpaceOnUse"
       gradientTransform="translate(-0.5685896,-20.419316)"
       x1="10.548038"
       y1="24.225462"
       x2="10.556611"
       y2="33.185467" />
    <linearGradient
       inkscape:collect="always"
       id="linearGradient870-8">
      <stop
         style="stop-color:#50b473;stop-opacity:1"
         offset="0"
         id="stop866-1" />
      <stop
         style="stop-color:#48a76d;stop-opacity:1"
         offset="1"
         id="stop868-0" />
    </linearGradient>
  </defs>
  <sodipodi:namedview
     id="base"
     pagecolor="#c4c4c4"
     bordercolor="#666666"
     borderopacity="1.0"
     inkscape:pageopacity="0"
     inkscape:pageshadow="2"
     inkscape:zoom="3.3020558"
     inkscape:cx="-2.3199683"
     inkscape:cy="64.984048"
     inkscape:document-units="px"
     inkscape:current-layer="layer1"
     inkscape:document-rotation="0"
     showgrid="false"
     units="px"
     inkscape:window-width="2048"
     inkscape:window-height="1080"
     inkscape:window-x="0"
     inkscape:window-y="0"
     inkscape:window-maximized="1" />
  <metadata
     id="metadata838">
    <rdf:RDF>
      <cc:Work
         rdf:about="">
        <dc:format>image/svg+xml</dc:format>
        <dc:type
           rdf:resource="http://purl.org/dc/dcmitype/StillImage" />
        <dc:title />
      </cc:Work>
    </rdf:RDF>
  </metadata>
  <g
     inkscape:label="Layer 1"
     inkscape:groupmode="layer"
     id="layer1">
    <path
       id="rect848-9-6-6-1-6-3-17"
       style="color:#000000;font-style:normal;font-variant:normal;font-weight:normal;font-stretch:normal;font-size:medium;line-height:normal;font-family:sans-serif;font-variant-ligatures:normal;font-variant-position:normal;font-variant-caps:normal;font-variant-numeric:normal;font-variant-alternates:normal;font-variant-east-asian:normal;font-feature-settings:normal;font-variation-settings:normal;text-indent:0;text-align:start;text-decoration:none;text-decoration-line:none;text-decoration-style:solid;text-decoration-color:#000000;letter-spacing:normal;word-spacing:normal;text-transform:none;writing-mode:lr-tb;direction:ltr;text-orientation:mixed;dominant-baseline:auto;baseline-shift:baseline;text-anchor:start;white-space:normal;shape-padding:0;shape-margin:0;inline-size:0;clip-rule:nonzero;display:inline;overflow:visible;visibility:visible;opacity:0.15;isolation:auto;mix-blend-mode:normal;color-interpolation:sRGB;color-interpolation-filters:linearRGB;solid-color:#000000;solid-opacity:1;vector-effect:none;fill:#0c0c0c;fill-opacity:1;fill-rule:nonzero;stroke:none;stroke-width:1.00001;stroke-linecap:round;stroke-linejoin:round;stroke-miterlimit:4;stroke-dasharray:none;stroke-dashoffset:2.1875;stroke-opacity:1;color-rendering:auto;image-rendering:auto;shape-rendering:auto;text-rendering:auto;enable-background:accumulate;stop-color:#000000"
       d="m 3.7707915,3.6380206 c -0.5794322,0 -1.0588123,0.4794229 -1.0588123,1.0589059 v 7.6722885 c 0,0.579485 0.4793801,1.05839 1.0588123,1.05839 H 4.6962802 A 0.39690007,0.39693568 0 0 0 5.092626,13.031227 v -1.324021 c 0,-0.08015 0.05265,-0.131263 0.1328024,-0.131263 h 3.1759155 c 0.08015,0 0.1307386,0.0511 0.1307386,0.131263 v 1.324021 a 0.39690007,0.39693568 0 0 0 0.3963435,0.396378 h 6.748177 c 0.579432,0 1.058293,-0.478905 1.058293,-1.05839 V 4.6969265 c 0,-0.579482 -0.478864,-1.0589059 -1.058293,-1.0589059 z m 0,0.7932737 H 15.676603 c 0.153439,0 0.26354,0.1121791 0.26354,0.2656322 v 7.6722885 c 0,0.153454 -0.110101,0.265633 -0.26354,0.265633 H 9.326835 v -0.927642 c 0,-0.50619 -0.419346,-0.92609 -0.9254911,-0.92609 H 5.2254284 c -0.5061453,0 -0.9254914,0.419903 -0.9254914,0.92609 v 0.927642 H 3.7707915 c -0.1534372,0 -0.2656073,-0.112179 -0.2656073,-0.265633 V 4.6969265 c 0,-0.1534531 0.1121701,-0.2656322 0.2656073,-0.2656322 z" />
    <path
       id="rect848-9-6-2-6-2"
       style="color:#000000;font-style:normal;font-variant:normal;font-weight:normal;font-stretch:normal;font-size:medium;line-height:normal;font-family:sans-serif;font-variant-ligatures:normal;font-variant-position:normal;font-variant-caps:normal;font-variant-numeric:normal;font-variant-alternates:normal;font-variant-east-asian:normal;font-feature-settings:normal;font-variation-settings:normal;text-indent:0;text-align:start;text-decoration:none;text-decoration-line:none;text-decoration-style:solid;text-decoration-color:#000000;letter-spacing:normal;word-spacing:normal;text-transform:none;writing-mode:lr-tb;direction:ltr;text-orientation:mixed;dominant-baseline:auto;baseline-shift:baseline;text-anchor:start;white-space:normal;shape-padding:0;shape-margin:0;inline-size:0;clip-rule:nonzero;display:inline;overflow:visible;visibility:visible;opacity:0.75;isolation:auto;mix-blend-mode:normal;color-interpolation:sRGB;color-interpolation-filters:linearRGB;solid-color:#000000;solid-opacity:1;vector-effect:none;fill:#2b643f;fill-opacity:1;fill-rule:nonzero;stroke:none;stroke-width:1.00001;stroke-linecap:round;stroke-linejoin:round;stroke-miterlimit:4;stroke-dasharray:none;stroke-dashoffset:2.1875;stroke-opacity:1;color-rendering:auto;image-rendering:auto;shape-rendering:auto;text-rendering:auto;enable-background:accumulate;stop-color:#000000"
       d="m 3.7707915,3.3734375 c -0.5794322,0 -1.0588123,0.4794229 -1.0588123,1.0589059 v 7.6722886 c 0,0.579485 0.4793801,1.05839 1.0588123,1.05839 H 4.6962802 A 0.39690007,0.39693568 0 0 0 5.092626,12.766644 v -1.324021 c 0,-0.08015 0.05265,-0.131263 0.1328024,-0.131263 h 3.1759181 c 0.080148,0 0.130736,0.0511 0.130736,0.131263 v 1.324021 a 0.39690007,0.39693568 0 0 0 0.3963435,0.396378 h 6.748177 c 0.579432,0 1.058293,-0.478905 1.058293,-1.05839 V 4.4323434 c 0,-0.579482 -0.478864,-1.0589059 -1.058293,-1.0589059 z m 0,0.7932748 H 15.676603 c 0.153439,0 0.26354,0.1121791 0.26354,0.2656311 v 7.6722886 c 0,0.153454 -0.110101,0.265633 -0.26354,0.265633 H 9.326835 v -0.927642 c 0,-0.50619 -0.419346,-0.92609 -0.9254885,-0.92609 H 5.2254284 c -0.5061453,0 -0.9254914,0.419903 -0.9254914,0.92609 v 0.927642 H 3.7707915 c -0.1534372,0 -0.2656073,-0.112179 -0.2656073,-0.265633 V 4.4323434 c 0,-0.153452 0.1121701,-0.2656311 0.2656073,-0.2656311 z" />
    <path
       id="rect848-9-3-7-1-7"
       style="display:inline;fill:url(#linearGradient1092-4-5);fill-opacity:1;stroke-width:1.32292;stroke-linecap:round;stroke-linejoin:round;stroke-dashoffset:2.1875"
       d="m 3.7703126,3.7703125 c -0.3664479,0 -0.6614584,0.2950099 -0.6614584,0.6614578 v 7.6729187 c 0,0.366448 0.2950105,0.661459 0.6614584,0.661459 h 0.9260417 v -1.322917 c 0,-0.293158 0.2360083,-0.529167 0.5291667,-0.529167 h 3.175 c 0.2931584,0 0.529167,0.236009 0.529167,0.529167 v 1.322917 h 6.746875 c 0.366448,0 0.661458,-0.295011 0.661458,-0.661459 V 4.4317703 c 0,-0.3664479 -0.29501,-0.6614578 -0.661458,-0.6614578 z" />
    <path
       id="rect848-9-6-6-9-0-2"
       style="color:#000000;font-style:normal;font-variant:normal;font-weight:normal;font-stretch:normal;font-size:medium;line-height:normal;font-family:sans-serif;font-variant-ligatures:normal;font-variant-position:normal;font-variant-caps:normal;font-variant-numeric:normal;font-variant-alternates:normal;font-variant-east-asian:normal;font-feature-settings:normal;font-variation-settings:normal;text-indent:0;text-align:start;text-decoration:none;text-decoration-line:none;text-decoration-style:solid;text-decoration-color:#000000;letter-spacing:normal;word-spacing:normal;text-transform:none;writing-mode:lr-tb;direction:ltr;text-orientation:mixed;dominant-baseline:auto;baseline-shift:baseline;text-anchor:start;white-space:normal;shape-padding:0;shape-margin:0;inline-size:0;clip-rule:nonzero;display:inline;overflow:visible;visibility:visible;opacity:0.15;isolation:auto;mix-blend-mode:normal;color-interpolation:sRGB;color-interpolation-filters:linearRGB;solid-color:#000000;solid-opacity:1;vector-effect:none;fill:#0c0c0c;fill-opacity:1;fill-rule:nonzero;stroke:none;stroke-width:1.00001;stroke-linecap:round;stroke-linejoin:round;stroke-miterlimit:4;stroke-dasharray:none;stroke-dashoffset:2.1875;stroke-opacity:1;color-rendering:auto;image-rendering:auto;shape-rendering:auto;text-rendering:auto;enable-background:accumulate;stop-color:#000000"
       d="m 3.7707915,3.3734375 c -0.5794322,0 -1.0588123,0.4794229 -1.0588123,1.0589059 v 7.6722886 c 0,0.579485 0.4793801,1.05839 1.0588123,1.05839 H 4.6962802 A 0.39690007,0.39693568 0 0 0 5.092626,12.766644 v -1.324021 c 0,-0.08015 0.05265,-0.131263 0.1328024,-0.131263 h 3.1759181 c 0.080148,0 0.130736,0.0511 0.130736,0.131263 v 1.324021 a 0.39690007,0.39693568 0 0 0 0.3963435,0.396378 h 6.748177 c 0.579432,0 1.058293,-0.478905 1.058293,-1.05839 V 4.4323434 c 0,-0.579482 -0.478864,-1.0589059 -1.058293,-1.0589059 z m 0,0.7932748 H 15.676603 c 0.153439,0 0.26354,0.1121791 0.26354,0.2656311 v 7.6722886 c 0,0.153454 -0.110101,0.265633 -0.26354,0.265633 H 9.326835 v -0.927642 c 0,-0.50619 -0.419346,-0.92609 -0.9254885,-0.92609 H 5.2254284 c -0.5061453,0 -0.9254914,0.419903 -0.9254914,0.92609 v 0.927642 H 3.7707915 c -0.1534372,0 -0.2656073,-0.112179 -0.2656073,-0.265633 V 4.4323434 c 0,-0.153452 0.1121701,-0.2656311 0.2656073,-0.2656311 z" />
    <path
       id="rect854-9-2-8-3-2"
       style="opacity:0.15;fill:#0c0c0c;fill-opacity:1;stroke-width:1.32292;stroke-linecap:round;stroke-linejoin:round;stroke-dashoffset:2.1875"
       d="m 14.816667,11.443231 c -0.109934,0 -0.198437,0.0885 -0.198437,0.198438 v 1.984375 c 0,0.109934 0.0885,0.198437 0.198437,0.198437 h 0.79375 c 0.109934,0 0.198438,-0.0885 0.198438,-0.198437 v -1.984375 c 0,-0.109935 -0.0885,-0.198438 -0.198438,-0.198438 z m 0.165365,0.264584 h 0.46302 c 0.05497,0 0.09922,0.04425 0.09922,0.09922 v 1.653646 c 0,0.05497 -0.04425,0.09922 -0.09922,0.09922 h -0.46302 c -0.05497,0 -0.09922,-0.04425 -0.09922,-0.09922 v -1.653646 c 0,-0.05497 0.04425,-0.09922 0.09922,-0.09922 z" />
    <path
       id="rect854-9-2-8-61"
       style="opacity:0.15;fill:#0c0c0c;fill-opacity:1;stroke-width:1.32292;stroke-linecap:round;stroke-linejoin:round;stroke-dashoffset:2.1875"
       d="m 9.657292,11.44323 c -0.109934,0 -0.198438,0.0885 -0.198438,0.198438 v 1.984375 c 0,0.109934 0.0885,0.198437 0.198438,0.198437 h 0.79375 c 0.109934,0 0.198435,-0.0885 0.198435,-0.198437 v -1.984375 c 0,-0.109935 -0.0885,-0.198438 -0.198435,-0.198438 z m 0.165364,0.264584 h 0.463021 c 0.05497,0 0.09922,0.04425 0.09922,0.09922 v 1.653646 c 0,0.05497 -0.04425,0.09922 -0.09922,0.09922 H 9.822656 c -0.05497,0 -0.09922,-0.04425 -0.09922,-0.09922 v -1.653646 c 0,-0.05497 0.04425,-0.09922 0.09922,-0.09922 z" />
    <path
       id="rect850-0-6-1-2-0"
       style="color:#000000;font-style:normal;font-variant:normal;font-weight:normal;font-stretch:normal;font-size:medium;line-height:normal;font-family:sans-serif;font-variant-ligatures:normal;font-variant-position:normal;font-variant-caps:normal;font-variant-numeric:normal;font-variant-alternates:normal;font-variant-east-asian:normal;font-feature-settings:normal;font-variation-settings:normal;text-indent:0;text-align:start;text-decoration:none;text-decoration-line:none;text-decoration-style:solid;text-decoration-color:#000000;letter-spacing:normal;word-spacing:normal;text-transform:none;writing-mode:lr-tb;direction:ltr;text-orientation:mixed;dominant-baseline:auto;baseline-shift:baseline;text-anchor:start;white-space:normal;shape-padding:0;shape-margin:0;inline-size:0;clip-rule:nonzero;display:inline;overflow:visible;visibility:visible;opacity:0.15;isolation:auto;mix-blend-mode:normal;color-interpolation:sRGB;color-interpolation-filters:linearRGB;solid-color:#000000;solid-opacity:1;vector-effect:none;fill:#0c0c0c;fill-opacity:1;fill-rule:nonzero;stroke:none;stroke-width:1.00012;stroke-linecap:round;stroke-linejoin:round;stroke-miterlimit:4;stroke-dasharray:none;stroke-dashoffset:2.1875;stroke-opacity:1;color-rendering:auto;image-rendering:auto;shape-rendering:auto;text-rendering:auto;enable-background:accumulate;stop-color:#000000"
       d="m 1.1247808,2.0505208 c -0.5086165,0 -0.9263433,0.417041 -0.9263433,0.925453 0,0.5084109 0.4177268,0.9275188 0.9263433,0.9275188 H 1.5212695 V 14.35217 c 0,0.50841 0.4177269,0.92752 0.9263407,0.92752 0.5086165,0 0.9258274,-0.41911 0.9258274,-0.92752 V 2.9759738 c 0,-0.508412 -0.4172083,-0.925453 -0.9258274,-0.925453 z m 0,0.5291249 h 1.3228294 c 0.2245201,0 0.3964887,0.1719 0.3964887,0.3963281 V 14.35217 c 0,0.224429 -0.1719686,0.398394 -0.3964887,0.398394 -0.2245175,0 -0.397002,-0.173965 -0.397002,-0.398394 V 3.6378967 A 0.26469597,0.26458913 0 0 0 1.784903,3.3743678 H 1.1247808 c -0.2245201,0 -0.3964887,-0.173967 -0.3964887,-0.398394 0,-0.2244281 0.1719712,-0.3963281 0.3964887,-0.3963281 z" />
    <path
       id="rect854-9-2-8-7-61"
       style="opacity:0.15;fill:#0c0c0c;fill-opacity:1;stroke-width:1.32292;stroke-linecap:round;stroke-linejoin:round;stroke-dashoffset:2.1875"
       d="m 13.096875,11.443231 c -0.109934,0 -0.198437,0.0885 -0.198437,0.198438 v 1.984375 c 0,0.109934 0.0885,0.198437 0.198437,0.198437 h 0.79375 c 0.109935,0 0.198435,-0.0885 0.198435,-0.198437 v -1.984375 c 0,-0.109935 -0.0885,-0.198438 -0.198435,-0.198438 z m 0.165365,0.264584 h 0.463018 c 0.05497,0 0.09922,0.04425 0.09922,0.09922 v 1.653646 c 0,0.05497 -0.04425,0.09922 -0.09922,0.09922 H 13.26224 c -0.05497,0 -0.09922,-0.04425 -0.09922,-0.09922 v -1.653646 c 0,-0.05497 0.04425,-0.09922 0.09922,-0.09922 z" />
    <path
       id="rect854-9-2-8-9-5"
       style="opacity:0.15;fill:#0c0c0c;fill-opacity:1;stroke-width:1.32292;stroke-linecap:round;stroke-linejoin:round;stroke-dashoffset:2.1875"
       d="m 11.377084,11.44323 c -0.109935,0 -0.198438,0.0885 -0.198438,0.198438 v 1.984375 c 0,0.109934 0.0885,0.198437 0.198438,0.198437 h 0.79375 c 0.109934,0 0.198437,-0.0885 0.198437,-0.198437 v -1.984375 c 0,-0.109935 -0.0885,-0.198438 -0.198437,-0.198438 z m 0.165364,0.264584 h 0.463021 c 0.05497,0 0.09922,0.04425 0.09922,0.09922 v 1.653646 c 0,0.05497 -0.04425,0.09922 -0.09922,0.09922 h -0.463021 c -0.05497,0 -0.09922,-0.04425 -0.09922,-0.09922 v -1.653646 c 0,-0.05497 0.04425,-0.09922 0.09922,-0.09922 z" />
    <path
       id="rect850-0-6-1-9"
       style="color:#000000;font-style:normal;font-variant:normal;font-weight:normal;font-stretch:normal;font-size:medium;line-height:normal;font-family:sans-serif;font-variant-ligatures:normal;font-variant-position:normal;font-variant-caps:normal;font-variant-numeric:normal;font-variant-alternates:normal;font-variant-east-asian:normal;font-feature-settings:normal;font-variation-settings:normal;text-indent:0;text-align:start;text-decoration:none;text-decoration-line:none;text-decoration-style:solid;text-decoration-color:#000000;letter-spacing:normal;word-spacing:normal;text-transform:none;writing-mode:lr-tb;direction:ltr;text-orientation:mixed;dominant-baseline:auto;baseline-shift:baseline;text-anchor:start;white-space:normal;shape-padding:0;shape-margin:0;inline-size:0;clip-rule:nonzero;display:inline;overflow:visible;visibility:visible;opacity:0.75;isolation:auto;mix-blend-mode:normal;color-interpolation:sRGB;color-interpolation-filters:linearRGB;solid-color:#000000;solid-opacity:1;vector-effect:none;fill:#45454a;fill-opacity:1;fill-rule:nonzero;stroke:none;stroke-width:1.00012;stroke-linecap:round;stroke-linejoin:round;stroke-miterlimit:4;stroke-dasharray:none;stroke-dashoffset:2.1875;stroke-opacity:1;color-rendering:auto;image-rendering:auto;shape-rendering:auto;text-rendering:auto;enable-background:accumulate;stop-color:#000000"
       d="m 1.1247808,1.6536458 c -0.5086165,0 -0.9263433,0.417041 -0.9263433,0.925453 0,0.5084109 0.4177268,0.9275188 0.9263433,0.9275188 H 1.5212695 V 13.955294 c 0,0.50841 0.4177269,0.92752 0.9263407,0.92752 0.5086165,0 0.9258274,-0.41911 0.9258274,-0.92752 V 2.5790988 c 0,-0.508412 -0.4172083,-0.925453 -0.9258274,-0.925453 z m 0,0.5291249 h 1.3228294 c 0.2245201,0 0.3964887,0.1719 0.3964887,0.3963281 V 13.955294 c 0,0.224429 -0.1719686,0.398394 -0.3964887,0.398394 -0.2245175,0 -0.397002,-0.173965 -0.397002,-0.398394 V 3.2410217 A 0.26469597,0.26458913 0 0 0 1.784903,2.9774928 H 1.1247808 c -0.2245201,0 -0.3964887,-0.173967 -0.3964887,-0.398394 0,-0.2244281 0.1719712,-0.3963281 0.3964887,-0.3963281 z" />
    <path
       id="rect850-3-8-9-49"
       style="fill:#d6d6db;fill-opacity:1;stroke-width:1.32292;stroke-linecap:round;stroke-linejoin:round;stroke-dashoffset:2.1875"
       d="m 1.1244792,1.9182297 c -0.3664479,0 -0.6614584,0.2950109 -0.6614584,0.6614591 0,0.3664479 0.2950105,0.6614578 0.6614584,0.6614578 H 1.7859375 V 13.956771 c 0,0.366448 0.2950105,0.661459 0.6614584,0.661459 0.3664479,0 0.6614583,-0.295011 0.6614583,-0.661459 V 2.5796888 c 0,-0.3664482 -0.2950104,-0.6614591 -0.6614583,-0.6614591 z" />
    <rect
       style="fill:#edcd03;fill-opacity:1;stroke-width:1.32292;stroke-linecap:round;stroke-linejoin:round;stroke-dashoffset:2.1875"
       id="rect854-3-0"
       width="1.190625"
       height="2.3812499"
       x="9.4588547"
       y="11.178648"
       rx="0.19843751"
       ry="0.19843751" />
    <path
       id="rect854-9-2-91"
       style="opacity:0.65;fill:#8d7a02;fill-opacity:1;stroke-width:1.32292;stroke-linecap:round;stroke-linejoin:round;stroke-dashoffset:2.1875"
       d="m 9.657292,11.178647 c -0.109934,0 -0.198438,0.0885 -0.198438,0.198438 v 1.984375 c 0,0.109934 0.0885,0.198437 0.198438,0.198437 h 0.79375 c 0.109934,0 0.198437,-0.0885 0.198437,-0.198437 v -1.984375 c 0,-0.109935 -0.0885,-0.198438 -0.198437,-0.198438 z m 0.165364,0.264584 h 0.463021 c 0.05497,0 0.09922,0.04425 0.09922,0.09922 v 1.653646 c 0,0.05497 -0.04425,0.09922 -0.09922,0.09922 H 9.822656 c -0.05497,0 -0.09922,-0.04425 -0.09922,-0.09922 v -1.653646 c 0,-0.05497 0.04425,-0.09922 0.09922,-0.09922 z" />
    <rect
       style="fill:#edcd03;fill-opacity:1;stroke-width:1.32292;stroke-linecap:round;stroke-linejoin:round;stroke-dashoffset:2.1875"
       id="rect854-5-6-7"
       width="1.190625"
       height="2.3812499"
       x="11.178638"
       y="11.178646"
       rx="0.19843751"
       ry="0.19843751" />
    <rect
       style="fill:#edcd03;fill-opacity:1;stroke-width:1.32292;stroke-linecap:round;stroke-linejoin:round;stroke-dashoffset:2.1875"
       id="rect854-6-7-71"
       width="1.190625"
       height="2.3812499"
       x="12.898438"
       y="11.178646"
       rx="0.19843751"
       ry="0.19843751" />
    <rect
       style="fill:#edcd03;fill-opacity:1;stroke-width:1.32292;stroke-linecap:round;stroke-linejoin:round;stroke-dashoffset:2.1875"
       id="rect854-2-5-1"
       width="1.190625"
       height="2.3812499"
       x="14.61823"
       y="11.178646"
       rx="0.19843751"
       ry="0.19843751" />
    <path
       id="rect854-7-3-59"
       style="opacity:0.65;fill:#8d7a02;fill-opacity:1;stroke-width:1.32292;stroke-linecap:round;stroke-linejoin:round;stroke-dashoffset:2.1875"
       d="m 9.657292,11.178647 c -0.109934,0 -0.198438,0.0885 -0.198438,0.198437 v 0.529167 c 0,-0.109935 0.0885,-0.198438 0.198438,-0.198438 h 0.79375 c 0.109934,0 0.198435,0.0885 0.198435,0.198438 v -0.529167 c 0,-0.109934 -0.0885,-0.198437 -0.198435,-0.198437 z" />
    <path
       id="rect854-7-3-5-7"
       style="opacity:0.65;fill:#8d7a02;fill-opacity:1;stroke-width:1.32292;stroke-linecap:round;stroke-linejoin:round;stroke-dashoffset:2.1875"
       d="m 11.377084,11.178646 c -0.109935,0 -0.198438,0.0885 -0.198438,0.198437 v 0.529167 c 0,-0.109935 0.0885,-0.198438 0.198438,-0.198438 h 0.79375 c 0.109934,0 0.198437,0.0885 0.198437,0.198438 v -0.529167 c 0,-0.109934 -0.0885,-0.198437 -0.198437,-0.198437 z" />
    <path
       id="rect854-7-3-6-76"
       style="opacity:0.65;fill:#8d7a02;fill-opacity:1;stroke-width:1.32292;stroke-linecap:round;stroke-linejoin:round;stroke-dashoffset:2.1875"
       d="m 13.096875,11.178647 c -0.109934,0 -0.198437,0.0885 -0.198437,0.198437 v 0.529167 c 0,-0.109935 0.0885,-0.198438 0.198437,-0.198438 h 0.79375 c 0.109932,0 0.198435,0.0885 0.198435,0.198438 v -0.529167 c 0,-0.109934 -0.0885,-0.198437 -0.198435,-0.198437 z" />
    <path
       id="rect854-7-3-2-7"
       style="opacity:0.65;fill:#8d7a02;fill-opacity:1;stroke-width:1.32292;stroke-linecap:round;stroke-linejoin:round;stroke-dashoffset:2.1875"
       d="m 14.816667,11.178647 c -0.109934,0 -0.198437,0.0885 -0.198437,0.198437 v 0.529167 c 0,-0.109935 0.0885,-0.198438 0.198437,-0.198438 h 0.79375 c 0.109934,0 0.198435,0.0885 0.198435,0.198438 v -0.529167 c 0,-0.109934 -0.0885,-0.198437 -0.198435,-0.198437 z" />
    <path
       id="rect854-9-2-7-3"
       style="opacity:0.65;fill:#8d7a02;fill-opacity:1;stroke-width:1.32292;stroke-linecap:round;stroke-linejoin:round;stroke-dashoffset:2.1875"
       d="m 11.377084,11.178646 c -0.109935,0 -0.198438,0.0885 -0.198438,0.198438 v 1.984375 c 0,0.109934 0.0885,0.198437 0.198438,0.198437 h 0.79375 c 0.109934,0 0.198437,-0.0885 0.198437,-0.198437 v -1.984375 c 0,-0.109935 -0.0885,-0.198438 -0.198437,-0.198438 z m 0.165364,0.264584 h 0.463021 c 0.05497,0 0.09922,0.04425 0.09922,0.09922 v 1.653646 c 0,0.05497 -0.04425,0.09922 -0.09922,0.09922 h -0.463021 c -0.05497,0 -0.09922,-0.04425 -0.09922,-0.09922 V 11.54245 c 0,-0.05497 0.04425,-0.09922 0.09922,-0.09922 z" />
    <path
       id="rect854-9-2-0-65"
       style="opacity:0.65;fill:#8d7a02;fill-opacity:1;stroke-width:1.32292;stroke-linecap:round;stroke-linejoin:round;stroke-dashoffset:2.1875"
       d="m 13.096875,11.178647 c -0.109934,0 -0.198437,0.0885 -0.198437,0.198438 v 1.984375 c 0,0.109934 0.0885,0.198437 0.198437,0.198437 h 0.79375 c 0.109935,0 0.198438,-0.0885 0.198438,-0.198437 v -1.984375 c 0,-0.109935 -0.0885,-0.198438 -0.198438,-0.198438 z m 0.165365,0.264584 h 0.463021 c 0.05497,0 0.09922,0.04425 0.09922,0.09922 v 1.653646 c 0,0.05497 -0.04425,0.09922 -0.09922,0.09922 H 13.26224 c -0.05497,0 -0.09922,-0.04425 -0.09922,-0.09922 v -1.653646 c 0,-0.05497 0.04425,-0.09922 0.09922,-0.09922 z" />
    <path
       id="rect854-9-2-9-6"
       style="opacity:0.65;fill:#8d7a02;fill-opacity:1;stroke-width:1.32292;stroke-linecap:round;stroke-linejoin:round;stroke-dashoffset:2.1875"
       d="m 14.816667,11.178647 c -0.109934,0 -0.198437,0.0885 -0.198437,0.198438 v 1.984375 c 0,0.109934 0.0885,0.198437 0.198437,0.198437 h 0.79375 c 0.109934,0 0.198438,-0.0885 0.198438,-0.198437 v -1.984375 c 0,-0.109935 -0.0885,-0.198438 -0.198438,-0.198438 z m 0.165365,0.264584 h 0.46302 c 0.05497,0 0.09922,0.04425 0.09922,0.09922 v 1.653646 c 0,0.05497 -0.04425,0.09922 -0.09922,0.09922 h -0.46302 c -0.05497,0 -0.09922,-0.04425 -0.09922,-0.09922 v -1.653646 c 0,-0.05497 0.04425,-0.09922 0.09922,-0.09922 z" />
    <rect
       style="opacity:0.2;fill:#0c0c0c;fill-opacity:1;stroke-width:1.32292;stroke-linecap:round;stroke-linejoin:round;stroke-dashoffset:2.1875"
       id="rect1032-9-2-5-39"
       width="0.66145837"
       height="1.5875001"
       x="8.7312508"
       y="8.797389"
       rx="0.13229167"
       ry="0.13229167" />
    <rect
       style="fill:#eeeef2;fill-opacity:1;stroke-width:1.32292;stroke-linecap:round;stroke-linejoin:round;stroke-dashoffset:2.1875"
       id="rect1032-5-4"
       width="0.66145837"
       height="1.5875001"
       x="8.7312508"
       y="5.2255206"
       rx="0.13229167"
       ry="0.13229167" />
    <rect
       style="fill:#eeeef2;fill-opacity:1;stroke-width:1.32292;stroke-linecap:round;stroke-linejoin:round;stroke-dashoffset:2.1875"
       id="rect1032-0-9-81"
       width="0.66145837"
       height="1.5875001"
       x="10.054168"
       y="5.2255206"
       rx="0.13229167"
       ry="0.13229167" />
    <rect
       style="opacity:0.2;fill:#0c0c0c;fill-opacity:1;stroke-width:1.32292;stroke-linecap:round;stroke-linejoin:round;stroke-dashoffset:2.1875"
       id="rect986-0-4-29"
       width="1.5875001"
       height="0.66145837"
       x="10.64948"
       y="6.8791618"
       rx="0.13229167"
       ry="0.13229167" />
    <rect
       style="fill:#eeeef2;fill-opacity:1;stroke-width:1.32292;stroke-linecap:round;stroke-linejoin:round;stroke-dashoffset:2.1875"
       id="rect986-0-3"
       width="1.5875001"
       height="0.66145837"
       x="10.64948"
       y="6.7468681"
       rx="0.13229167"
       ry="0.13229167" />
    <rect
       style="opacity:0.2;fill:#0c0c0c;fill-opacity:1;stroke-width:1.32292;stroke-linecap:round;stroke-linejoin:round;stroke-dashoffset:2.1875"
       id="rect986-1-2-7-9"
       width="1.5875001"
       height="0.66145837"
       x="10.64948"
       y="8.2020826"
       rx="0.13229167"
       ry="0.13229167" />
    <rect
       style="fill:#eeeef2;fill-opacity:1;stroke-width:1.32292;stroke-linecap:round;stroke-linejoin:round;stroke-dashoffset:2.1875"
       id="rect986-1-2-0"
       width="1.5875001"
       height="0.66145837"
       x="10.64948"
       y="8.0697889"
       rx="0.13229167"
       ry="0.13229167" />
    <rect
       style="opacity:0.2;fill:#0c0c0c;fill-opacity:1;stroke-width:1.32292;stroke-linecap:round;stroke-linejoin:round;stroke-dashoffset:2.1875"
       id="rect986-2-3-8-8"
       width="1.5875001"
       height="0.66145837"
       x="7.2098956"
       y="6.8791618"
       rx="0.13229167"
       ry="0.13229167" />
    <rect
       style="fill:#eeeef2;fill-opacity:1;stroke-width:1.32292;stroke-linecap:round;stroke-linejoin:round;stroke-dashoffset:2.1875"
       id="rect986-2-3-85"
       width="1.5875001"
       height="0.66145837"
       x="7.2098956"
       y="6.7468681"
       rx="0.13229167"
       ry="0.13229167" />
    <rect
       style="opacity:0.2;fill:#0c0c0c;fill-opacity:1;stroke-width:1.32292;stroke-linecap:round;stroke-linejoin:round;stroke-dashoffset:2.1875"
       id="rect986-1-7-7-4-0"
       width="1.5875001"
       height="0.66145837"
       x="7.2098956"
       y="8.2020826"
       rx="0.13229167"
       ry="0.13229167" />
    <rect
       style="fill:#eeeef2;fill-opacity:1;stroke-width:1.32292;stroke-linecap:round;stroke-linejoin:round;stroke-dashoffset:2.1875"
       id="rect986-1-7-7-9"
       width="1.5875001"
       height="0.66145837"
       x="7.2098956"
       y="8.0697889"
       rx="0.13229167"
       ry="0.13229167" />
    <rect
       style="opacity:0.2;fill:#0c0c0c;fill-opacity:1;stroke-width:1.32292;stroke-linecap:round;stroke-linejoin:round;stroke-dashoffset:2.1875"
       id="rect1032-0-3-2-0-63"
       width="0.66145837"
       height="1.5875001"
       x="10.054168"
       y="8.797389"
       rx="0.13229167"
       ry="0.13229167" />
    <rect
       style="fill:#eeeef2;fill-opacity:1;stroke-width:1.32292;stroke-linecap:round;stroke-linejoin:round;stroke-dashoffset:2.1875"
       id="rect1032-9-2-85"
       width="0.66145837"
       height="1.5875001"
       x="8.7312508"
       y="8.6650953"
       rx="0.13229167"
       ry="0.13229167" />
    <rect
       style="fill:#eeeef2;fill-opacity:1;stroke-width:1.32292;stroke-linecap:round;stroke-linejoin:round;stroke-dashoffset:2.1875"
       id="rect1032-0-3-2-6"
       width="0.66145837"
       height="1.5875001"
       x="10.054168"
       y="8.6650953"
       rx="0.13229167"
       ry="0.13229167" />
    <rect
       style="fill:#504b50;fill-opacity:1;stroke-width:1.32292;stroke-linecap:round;stroke-linejoin:round;stroke-dashoffset:2.1875"
       id="rect984-2-11"
       width="3.1750002"
       height="3.1750002"
       x="8.1359377"
       y="6.1515617"
       rx="0.79375005"
       ry="0.79375005" />
    <path
       id="rect984-2-62-1-5"
       style="opacity:0.1;fill:#0c0c0c;fill-opacity:1;stroke-width:1.32292;stroke-linecap:round;stroke-linejoin:round;stroke-dashoffset:2.1875"
       d="m 8.92969,6.1515589 c -0.4397371,0 -0.7937496,0.354013 -0.7937496,0.793751 v 1.587499 c 0,0.4397399 0.3540125,0.7937501 0.7937496,0.7937501 h 1.5875 c 0.439738,0 0.79375,-0.3540102 0.79375,-0.7937501 v -1.587499 c 0,-0.439738 -0.354012,-0.793751 -0.79375,-0.793751 z m 0,0.2645841 h 1.5875 c 0.293159,0 0.529167,0.2360078 0.529167,0.5291669 v 1.587499 c 0,0.2931599 -0.236008,0.5291699 -0.529167,0.5291699 h -1.5875 c -0.293158,0 -0.5291663,-0.23601 -0.5291663,-0.5291699 v -1.587499 c 0,-0.2931591 0.2360083,-0.5291669 0.5291663,-0.5291669 z" />
    <path
       id="rect984-2-9-8-98"
       style="opacity:0.25;fill:#c0c0c0;fill-opacity:1;stroke-width:1.32292;stroke-linecap:round;stroke-linejoin:round;stroke-dashoffset:2.1875"
       d="m 8.92969,6.416143 c -0.2931606,0 -0.5291663,0.2360099 -0.5291663,0.5291598 v 1.5875 c 0,0.29316 0.2360057,0.5291702 0.5291663,0.5291702 h 1.5875 c 0.293159,0 0.529167,-0.2360102 0.529167,-0.5291702 v -1.5875 c 0,-0.2931499 -0.236008,-0.5291598 -0.529167,-0.5291598 z m 0,0.2645799 h 1.5875 c 0.14658,0 0.264584,0.1179999 0.264584,0.2645799 v 1.5875 c 0,0.14658 -0.118004,0.26459 -0.264584,0.26459 h -1.5875 c -0.146579,0 -0.2645856,-0.11801 -0.2645856,-0.26459 v -1.5875 c 0,-0.14658 0.1180066,-0.2645799 0.2645856,-0.2645799 z" />
  </g>
</svg>
