<?xml version="1.0" encoding="UTF-8" standalone="no"?>
<svg
   xmlns:dc="http://purl.org/dc/elements/1.1/"
   xmlns:cc="http://creativecommons.org/ns#"
   xmlns:rdf="http://www.w3.org/1999/02/22-rdf-syntax-ns#"
   xmlns:svg="http://www.w3.org/2000/svg"
   xmlns="http://www.w3.org/2000/svg"
   xmlns:xlink="http://www.w3.org/1999/xlink"
   xmlns:sodipodi="http://sodipodi.sourceforge.net/DTD/sodipodi-0.dtd"
   xmlns:inkscape="http://www.inkscape.org/namespaces/inkscape"
   width="64"
   height="64"
   viewBox="0 0 64 64"
   version="1.1"
   id="svg6374"
   inkscape:version="1.0.2 (e86c870879, 2021-01-15)"
   sodipodi:docname="folder-saved-search.svg">
  <defs
     id="defs6368">
    <linearGradient
       inkscape:collect="always"
       xlink:href="#linearGradient840"
       id="linearGradient842"
       x1="-18.586054"
       y1="35.771"
       x2="21.414059"
       y2="35.771"
       gradientUnits="userSpaceOnUse"
       gradientTransform="rotate(-45,-7.7793479e-4,-3.5959065e-4)" />
    <linearGradient
       inkscape:collect="always"
       id="linearGradient840">
      <stop
         style="stop-color:#f7f7fa;stop-opacity:1"
         offset="0"
         id="stop838" />
      <stop
         style="stop-color:#c1c1c4;stop-opacity:1"
         offset="1"
         id="stop836" />
    </linearGradient>
  </defs>
  <sodipodi:namedview
     id="base"
     pagecolor="#cecece"
     bordercolor="#666666"
     borderopacity="1.0"
     inkscape:pageopacity="0"
     inkscape:pageshadow="2"
     inkscape:zoom="4.3497237"
     inkscape:cx="1.9941514"
     inkscape:cy="68.762066"
     inkscape:document-units="px"
     inkscape:current-layer="layer1"
     inkscape:document-rotation="0"
     showgrid="false"
     units="px"
     inkscape:window-width="1500"
     inkscape:window-height="970"
     inkscape:window-x="68"
     inkscape:window-y="56"
     inkscape:window-maximized="0" />
  <metadata
     id="metadata6371">
    <rdf:RDF>
      <cc:Work
         rdf:about="">
        <dc:format>image/svg+xml</dc:format>
        <dc:type
           rdf:resource="http://purl.org/dc/dcmitype/StillImage" />
        <dc:title></dc:title>
      </cc:Work>
    </rdf:RDF>
  </metadata>
  <g
     inkscape:label="Layer 1"
     inkscape:groupmode="layer"
     id="layer1">
    <rect
       style="opacity:0.25;fill:#343135;fill-opacity:1;stroke:none;stroke-width:4.00001;stroke-linecap:round;stroke-linejoin:round;stroke-miterlimit:4;stroke-dasharray:none;stroke-opacity:1;paint-order:stroke fill markers"
       id="rect4567-0-3"
       width="14.000039"
       height="40.000111"
       x="-6.9995389"
       y="47.184235"
       rx="7.0000196"
       ry="7.0000196"
       transform="rotate(-45)" />
    <path
       id="rect4567-0"
       style="fill:#323234;fill-opacity:1;stroke:none;stroke-width:4.00001;stroke-linecap:round;stroke-linejoin:round;stroke-miterlimit:4;stroke-dasharray:none;stroke-opacity:1;paint-order:stroke fill markers"
       d="m 38.314446,29.307885 c -1.78934,0 -3.57813,0.68556 -4.94922,2.05664 -2.74216,2.74217 -2.74216,7.15823 0,9.90039 l 18.38477,18.38477 c 2.74217,2.74217 7.15627,2.74217 9.89844,0 2.74217,-2.74217 2.74217,-7.15822 0,-9.90039 l -18.38477,-18.38477 c -1.37108,-1.37108 -3.15988,-2.05664 -4.94922,-2.05664 z" />
    <path
       id="rect4567"
       style="fill:#c1c1c4;fill-opacity:1;stroke:none;stroke-width:4.00001;stroke-linecap:round;stroke-linejoin:round;stroke-miterlimit:4;stroke-dasharray:none;stroke-opacity:1;paint-order:stroke fill markers"
       d="m 39.728516,33.723905 c -1.02248,0 -2.04466,0.39231 -2.82813,1.17578 -1.56695,1.56695 -1.56695,4.0893 0,5.65625 l 16.9707,16.9707 c 1.56695,1.56695 4.08931,1.56695 5.65625,0 1.56695,-1.56694 1.56695,-4.0893 0,-5.65625 l -16.9707,-16.9707 c -0.78347,-0.78347 -1.80565,-1.17578 -2.82812,-1.17578 z" />
    <path
       id="path4505-2"
       style="fill:#323234;fill-opacity:1;stroke:none;stroke-width:4.74824;stroke-linecap:round;stroke-linejoin:round;stroke-miterlimit:4;stroke-dasharray:none;stroke-opacity:1;paint-order:stroke fill markers"
       d="M 26.394526,0.29421502 A 24.000067,24.000067 0 0 0 9.322266,7.323515 a 24.000067,24.000067 0 0 0 0,33.9414 24.000067,24.000067 0 0 0 33.9414,0 24.000067,24.000067 0 0 0 0,-33.9414 24.000067,24.000067 0 0 0 -16.86914,-7.02929998 z" />
    <path
       id="path4505"
       style="fill:url(#linearGradient842);fill-opacity:1;stroke:none;stroke-width:3.95687;stroke-linecap:round;stroke-linejoin:round;stroke-miterlimit:4;stroke-dasharray:none;stroke-opacity:1;paint-order:stroke fill markers"
       d="m 26.380856,4.294215 a 20.000055,20.000055 0 0 0 -14.22852,5.85742 20.000055,20.000055 0 0 0 0,28.28321 20.000055,20.000055 0 0 0 28.28321,0 20.000055,20.000055 0 0 0 0,-28.28321 20.000055,20.000055 0 0 0 -14.05469,-5.85742 z" />
    <path
       id="path4505-2-8"
       style="opacity:0.35;fill:#343135;fill-opacity:1;stroke:none;stroke-width:4.74824;stroke-linecap:round;stroke-linejoin:round;stroke-miterlimit:4;stroke-dasharray:none;stroke-opacity:1;paint-order:stroke fill markers"
       d="m 24.394016,2.293555 a 24.000127,24.000008 0 0 0 -17.0704,7.0293 24.000127,24.000008 0 0 0 0,33.94142 24.000127,24.000008 0 0 0 33.94157,0 24.000127,24.000008 0 0 0 0,-33.94142 24.000127,24.000008 0 0 0 -16.87117,-7.0293 z m -0.0137,4 a 20.000105,20.000006 0 0 1 14.0567,5.85743 20.000105,20.000006 0 0 1 0,28.28515 20.000105,20.000006 0 0 1 -28.28529,0 20.000105,20.000006 0 0 1 0,-28.28515 20.000105,20.000006 0 0 1 14.22859,-5.85743 z" />
  </g>
</svg>
