<?xml version="1.0" encoding="UTF-8" standalone="no"?>
<svg
   xmlns:dc="http://purl.org/dc/elements/1.1/"
   xmlns:cc="http://creativecommons.org/ns#"
   xmlns:rdf="http://www.w3.org/1999/02/22-rdf-syntax-ns#"
   xmlns:svg="http://www.w3.org/2000/svg"
   xmlns="http://www.w3.org/2000/svg"
   xmlns:sodipodi="http://sodipodi.sourceforge.net/DTD/sodipodi-0.dtd"
   xmlns:inkscape="http://www.inkscape.org/namespaces/inkscape"
   width="64"
   height="64"
   viewBox="0 0 64 64"
   version="1.1"
   id="svg6374"
   inkscape:version="1.0.2 (e86c870879, 2021-01-15)"
   sodipodi:docname="preferences-system-power.svg">
  <defs
     id="defs6368" />
  <sodipodi:namedview
     id="base"
     pagecolor="#cecece"
     bordercolor="#666666"
     borderopacity="1.0"
     inkscape:pageopacity="0"
     inkscape:pageshadow="2"
     inkscape:zoom="5.5639287"
     inkscape:cx="8.3100654"
     inkscape:cy="29.73153"
     inkscape:document-units="px"
     inkscape:current-layer="layer1"
     inkscape:document-rotation="0"
     showgrid="false"
     units="px"
     inkscape:window-width="1500"
     inkscape:window-height="970"
     inkscape:window-x="68"
     inkscape:window-y="56"
     inkscape:window-maximized="0" />
  <metadata
     id="metadata6371">
    <rdf:RDF>
      <cc:Work
         rdf:about="">
        <dc:format>image/svg+xml</dc:format>
        <dc:type
           rdf:resource="http://purl.org/dc/dcmitype/StillImage" />
        <dc:title></dc:title>
      </cc:Work>
    </rdf:RDF>
  </metadata>
  <g
     inkscape:label="Layer 1"
     inkscape:groupmode="layer"
     id="layer1">
    <circle
       style="opacity:0.15;fill:#0c0c0c;fill-opacity:1;stroke:none;stroke-width:2;stroke-linecap:round;stroke-linejoin:round;stroke-miterlimit:4;stroke-dasharray:none;stroke-dashoffset:2.1875;stroke-opacity:1"
       id="path5729-9-1-3-3"
       cx="32"
       cy="33.5"
       r="30" />
    <path
       id="path5729-7-5-6"
       style="color:#000000;font-style:normal;font-variant:normal;font-weight:normal;font-stretch:normal;font-size:medium;line-height:normal;font-family:sans-serif;font-variant-ligatures:normal;font-variant-position:normal;font-variant-caps:normal;font-variant-numeric:normal;font-variant-alternates:normal;font-variant-east-asian:normal;font-feature-settings:normal;font-variation-settings:normal;text-indent:0;text-align:start;text-decoration:none;text-decoration-line:none;text-decoration-style:solid;text-decoration-color:#000000;letter-spacing:normal;word-spacing:normal;text-transform:none;writing-mode:lr-tb;direction:ltr;text-orientation:mixed;dominant-baseline:auto;baseline-shift:baseline;text-anchor:start;white-space:normal;shape-padding:0;shape-margin:0;inline-size:0;clip-rule:nonzero;display:inline;overflow:visible;visibility:visible;opacity:0.8;isolation:auto;mix-blend-mode:normal;color-interpolation:sRGB;color-interpolation-filters:linearRGB;solid-color:#000000;solid-opacity:1;vector-effect:none;fill:#b69e02;fill-opacity:1;fill-rule:nonzero;stroke:none;stroke-linecap:round;stroke-linejoin:round;stroke-miterlimit:4;stroke-dasharray:none;stroke-dashoffset:2.1875;stroke-opacity:1;color-rendering:auto;image-rendering:auto;shape-rendering:auto;text-rendering:auto;enable-background:accumulate;stop-color:#000000"
       d="M 32.000001,2 C 15.449221,2 2.0000015,15.44923 2.0000015,32 c 0,16.55078 13.4492195,30 29.9999995,30 16.55078,0 30,-13.44922 30,-30 0,-16.55077 -13.44922,-30 -30,-30 z m 0,3 c 14.92946,0 27,12.07055 27,27 0,14.92946 -12.07054,27 -27,27 C 17.070551,59 5.0000015,46.92946 5.0000015,32 5.0000015,17.07055 17.070551,5 32.000001,5 Z" />
    <circle
       style="fill:#fcdd17;fill-opacity:1;stroke:none;stroke-width:1.9;stroke-linecap:round;stroke-linejoin:round;stroke-miterlimit:4;stroke-dasharray:none;stroke-dashoffset:2.1875;stroke-opacity:1"
       id="path5729-7-7"
       cx="32"
       cy="32"
       r="28.5" />
    <path
       id="path1054-6-5-6-9-0-7-3"
       style="color:#000000;font-style:normal;font-variant:normal;font-weight:normal;font-stretch:normal;font-size:medium;line-height:normal;font-family:sans-serif;font-variant-ligatures:normal;font-variant-position:normal;font-variant-caps:normal;font-variant-numeric:normal;font-variant-alternates:normal;font-variant-east-asian:normal;font-feature-settings:normal;font-variation-settings:normal;text-indent:0;text-align:start;text-decoration:none;text-decoration-line:none;text-decoration-style:solid;text-decoration-color:#000000;letter-spacing:normal;word-spacing:normal;text-transform:none;writing-mode:lr-tb;direction:ltr;text-orientation:mixed;dominant-baseline:auto;baseline-shift:baseline;text-anchor:start;white-space:normal;shape-padding:0;shape-margin:0;inline-size:0;clip-rule:nonzero;display:inline;overflow:visible;visibility:visible;isolation:auto;mix-blend-mode:normal;color-interpolation:sRGB;color-interpolation-filters:linearRGB;solid-color:#000000;solid-opacity:1;vector-effect:none;fill:#fdeb68;fill-opacity:1;fill-rule:nonzero;stroke:none;stroke-width:1.00041;stroke-linecap:round;stroke-linejoin:round;stroke-miterlimit:4;stroke-dasharray:none;stroke-dashoffset:2.1875;stroke-opacity:1;color-rendering:auto;image-rendering:auto;shape-rendering:auto;text-rendering:auto;enable-background:accumulate;stop-color:#000000"
       d="m 36.108221,11.50041 c -0.46517,-0.0119 -0.90351,0.23076 -1.13748,0.63292 l -4.24891,7.35859 a 0.50038259,0.50012927 0 0 0 -0.002,0 l -4.87043,8.44079 -3.95966,6.86045 c -0.47811,0.82823 0.14363,1.90886 1.10034,1.91241 a 0.50038259,0.50012927 0 0 0 0.002,0 h 6.70563 l -1.30947,6.17481 -1.71598,8.08136 c -0.14089,0.66091 0.27126,1.25713 0.79154,1.45727 0.52028,0.20012 1.22305,0.0341 1.56159,-0.55087 a 0.50038259,0.50012927 0 0 0 0.002,-0.002 l 4.24696,-7.35859 4.87629,-8.44079 3.95966,-6.85459 c 0.4797,-0.831 -0.14826,-1.9168 -1.10816,-1.91437 h -6.70758 l 1.31533,-6.17285 1.71793,-8.08722 a 0.50038259,0.50012927 0 0 0 0,-0.002 c 0.16125,-0.77024 -0.43287,-1.51581 -1.21956,-1.5354 z m -0.0254,0.99821 a 0.50038259,0.50012927 0 0 0 0.002,0 c 0.18257,0.004 0.30131,0.15313 0.26384,0.33208 l -1.71793,8.08722 -1.44432,6.77647 a 0.50038259,0.50012927 0 0 0 0.4886,0.60361 h 7.32909 c 0.23674,-6e-4 0.35885,0.20893 0.2404,0.41413 l -3.95967,6.8546 -4.87628,8.44078 -4.24892,7.35859 c -0.10406,0.1798 -0.20752,0.1694 -0.33812,0.11917 -0.13059,-0.0502 -0.21335,-0.11132 -0.17003,-0.31451 l 1.71403,-8.08331 1.44041,-6.77647 a 0.50038259,0.50012927 0 0 0 -0.49056,-0.60556 h -7.32127 c -0.23563,-8.7e-4 -0.35634,-0.20794 -0.23844,-0.41218 l 3.96161,-6.86045 4.87043,-8.4408 4.24892,-7.35663 c 0.0512,-0.0881 0.14448,-0.13956 0.24625,-0.13674 z" />
    <path
       id="path1054-6-5-6-5"
       style="color:#000000;font-style:normal;font-variant:normal;font-weight:normal;font-stretch:normal;font-size:medium;line-height:normal;font-family:sans-serif;font-variant-ligatures:normal;font-variant-position:normal;font-variant-caps:normal;font-variant-numeric:normal;font-variant-alternates:normal;font-variant-east-asian:normal;font-feature-settings:normal;font-variation-settings:normal;text-indent:0;text-align:start;text-decoration:none;text-decoration-line:none;text-decoration-style:solid;text-decoration-color:#000000;letter-spacing:normal;word-spacing:normal;text-transform:none;writing-mode:lr-tb;direction:ltr;text-orientation:mixed;dominant-baseline:auto;baseline-shift:baseline;text-anchor:start;white-space:normal;shape-padding:0;shape-margin:0;inline-size:0;clip-rule:nonzero;display:inline;overflow:visible;visibility:visible;isolation:auto;mix-blend-mode:normal;color-interpolation:sRGB;color-interpolation-filters:linearRGB;solid-color:#000000;solid-opacity:1;vector-effect:none;fill:#363636;fill-opacity:1;fill-rule:nonzero;stroke:none;stroke-width:1.5514;stroke-linecap:round;stroke-linejoin:round;stroke-miterlimit:4;stroke-dasharray:none;stroke-dashoffset:2.1875;stroke-opacity:1;color-rendering:auto;image-rendering:auto;shape-rendering:auto;text-rendering:auto;enable-background:accumulate;stop-color:#000000"
       d="m 36.093041,12.0003 a 0.77566188,0.77588847 0 0 0 -0.69201,0.38549 l -4.24629,7.35685 -4.868,8.4394 -3.9579,6.85866 a 0.77566188,0.77588847 0 0 0 0.66893,1.16372 h 7.31959 l -1.43849,6.77618 -1.71355,8.08177 a 0.77566188,0.77588847 0 0 0 1.42999,0.55033 l 4.24511,-7.35804 4.87402,-8.43939 3.95673,-6.85382 a 0.77566188,0.77588847 0 0 0 -0.67377,-1.16372 h -7.32325 l 1.44333,-6.77618 1.7172,-8.08662 a 0.77566188,0.77588847 0 0 0 -0.74164,-0.93463 z" />
    <path
       id="path1054-6-5-6-2-7-6"
       style="color:#000000;font-style:normal;font-variant:normal;font-weight:normal;font-stretch:normal;font-size:medium;line-height:normal;font-family:sans-serif;font-variant-ligatures:normal;font-variant-position:normal;font-variant-caps:normal;font-variant-numeric:normal;font-variant-alternates:normal;font-variant-east-asian:normal;font-feature-settings:normal;font-variation-settings:normal;text-indent:0;text-align:start;text-decoration:none;text-decoration-line:none;text-decoration-style:solid;text-decoration-color:#000000;letter-spacing:normal;word-spacing:normal;text-transform:none;writing-mode:lr-tb;direction:ltr;text-orientation:mixed;dominant-baseline:auto;baseline-shift:baseline;text-anchor:start;white-space:normal;shape-padding:0;shape-margin:0;inline-size:0;clip-rule:nonzero;display:inline;overflow:visible;visibility:visible;opacity:0.85;isolation:auto;mix-blend-mode:normal;color-interpolation:sRGB;color-interpolation-filters:linearRGB;solid-color:#000000;solid-opacity:1;vector-effect:none;fill:#fdeb68;fill-opacity:1;fill-rule:nonzero;stroke:none;stroke-width:1.5514;stroke-linecap:round;stroke-linejoin:round;stroke-miterlimit:4;stroke-dasharray:none;stroke-dashoffset:2.1875;stroke-opacity:1;color-rendering:auto;image-rendering:auto;shape-rendering:auto;text-rendering:auto;enable-background:accumulate;stop-color:#000000"
       d="m 36.093041,12.0003 a 0.77566188,0.77588847 0 0 0 -0.69141,0.38477 l -4.24609,7.35742 -4.86914,8.43945 -3.95703,6.85938 a 0.77566188,0.77588847 0 0 0 0.49414,1.14258 l 3.46289,-6.00196 4.86914,-8.43945 4.24609,-7.35742 a 0.77566188,0.77588847 0 0 1 0.69141,-0.38477 0.77566188,0.77588847 0 0 1 0.47851,0.17969 l 0.26368,-1.24414 a 0.77566188,0.77588847 0 0 0 -0.74219,-0.93555 z m -1.99219,15.79688 -0.42578,2 h 7.32227 a 0.77566188,0.77588847 0 0 1 0.17773,0.0215 l 0.49609,-0.85742 a 0.77566188,0.77588847 0 0 0 -0.67382,-1.16406 z m -4.20703,10.40625 -1.01563,4.77734 -1.71289,8.08203 a 0.77566188,0.77588847 0 0 0 0.26368,0.75782 l 1.44921,-6.83985 1.43946,-6.77734 z" />
  </g>
</svg>
