<?xml version="1.0" encoding="UTF-8" standalone="no"?>
<svg
   xmlns:dc="http://purl.org/dc/elements/1.1/"
   xmlns:cc="http://creativecommons.org/ns#"
   xmlns:rdf="http://www.w3.org/1999/02/22-rdf-syntax-ns#"
   xmlns:svg="http://www.w3.org/2000/svg"
   xmlns="http://www.w3.org/2000/svg"
   xmlns:xlink="http://www.w3.org/1999/xlink"
   xmlns:sodipodi="http://sodipodi.sourceforge.net/DTD/sodipodi-0.dtd"
   xmlns:inkscape="http://www.inkscape.org/namespaces/inkscape"
   width="64"
   height="64"
   viewBox="0 0 64 64"
   version="1.1"
   id="svg6374"
   inkscape:version="1.0.2 (e86c870879, 2021-01-15)"
   sodipodi:docname="window.svg">
  <defs
     id="defs6368">
    <linearGradient
       inkscape:collect="always"
       xlink:href="#linearGradient901"
       id="linearGradient1240"
       gradientUnits="userSpaceOnUse"
       gradientTransform="translate(-71.02536,0.91518)"
       x1="102.97813"
       y1="3.1932061"
       x2="103.04669"
       y2="17.226297" />
    <linearGradient
       inkscape:collect="always"
       id="linearGradient901">
      <stop
         style="stop-color:#e0e0e4;stop-opacity:1"
         offset="0"
         id="stop897" />
      <stop
         style="stop-color:#b4b4b8;stop-opacity:1"
         offset="1"
         id="stop899" />
    </linearGradient>
  </defs>
  <sodipodi:namedview
     id="base"
     pagecolor="#cecece"
     bordercolor="#666666"
     borderopacity="1.0"
     inkscape:pageopacity="0"
     inkscape:pageshadow="2"
     inkscape:zoom="6.7666484"
     inkscape:cx="23.360015"
     inkscape:cy="49.079299"
     inkscape:document-units="px"
     inkscape:current-layer="layer1"
     inkscape:document-rotation="0"
     showgrid="false"
     units="px"
     inkscape:window-width="1500"
     inkscape:window-height="970"
     inkscape:window-x="68"
     inkscape:window-y="56"
     inkscape:window-maximized="0" />
  <metadata
     id="metadata6371">
    <rdf:RDF>
      <cc:Work
         rdf:about="">
        <dc:format>image/svg+xml</dc:format>
        <dc:type
           rdf:resource="http://purl.org/dc/dcmitype/StillImage" />
        <dc:title></dc:title>
      </cc:Work>
    </rdf:RDF>
  </metadata>
  <g
     inkscape:label="Layer 1"
     inkscape:groupmode="layer"
     id="layer1">
    <rect
       style="opacity:0.15;fill:#0c0c0c;fill-opacity:1;stroke-width:5.5;stroke-linecap:round;stroke-linejoin:round;stroke-dashoffset:2.1875"
       id="rect848-3-3-5"
       width="60"
       height="56"
       x="2"
       y="6"
       rx="3"
       ry="3" />
    <rect
       style="fill:#f6f5f6;fill-opacity:1;stroke-width:5.5;stroke-linecap:round;stroke-linejoin:round;stroke-dashoffset:2.1875"
       id="rect848-3-35"
       width="60"
       height="56"
       x="2"
       y="4"
       rx="3"
       ry="3" />
    <path
       id="rect848-6"
       style="fill:url(#linearGradient1240);fill-opacity:1;stroke-width:5.5;stroke-linecap:round;stroke-linejoin:round;stroke-dashoffset:2.1875"
       d="M 5,4 C 3.338,4 2,5.338 2,7 V 18 H 62 V 7 C 62,5.338 60.66201,4 59,4 Z" />
    <path
       id="rect848-3-7-2"
       style="color:#000000;font-style:normal;font-variant:normal;font-weight:normal;font-stretch:normal;font-size:medium;line-height:normal;font-family:sans-serif;font-variant-ligatures:normal;font-variant-position:normal;font-variant-caps:normal;font-variant-numeric:normal;font-variant-alternates:normal;font-variant-east-asian:normal;font-feature-settings:normal;font-variation-settings:normal;text-indent:0;text-align:start;text-decoration:none;text-decoration-line:none;text-decoration-style:solid;text-decoration-color:#000000;letter-spacing:normal;word-spacing:normal;text-transform:none;writing-mode:lr-tb;direction:ltr;text-orientation:mixed;dominant-baseline:auto;baseline-shift:baseline;text-anchor:start;white-space:normal;shape-padding:0;shape-margin:0;inline-size:0;clip-rule:nonzero;display:inline;overflow:visible;visibility:visible;opacity:0.75;isolation:auto;mix-blend-mode:normal;color-interpolation:sRGB;color-interpolation-filters:linearRGB;solid-color:#000000;solid-opacity:1;vector-effect:none;fill:#343434;fill-opacity:1;fill-rule:nonzero;stroke:none;stroke-linecap:round;stroke-linejoin:round;stroke-miterlimit:4;stroke-dasharray:none;stroke-dashoffset:2.1875;stroke-opacity:1;color-rendering:auto;image-rendering:auto;shape-rendering:auto;text-rendering:auto;enable-background:accumulate;stop-color:#000000"
       d="M 5,3.5 C 3.06966,3.5 1.5,5.06965 1.5,7 v 50 c 0,1.93035 1.56966,3.5 3.5,3.5 h 54 c 1.93036,0 3.5,-1.56965 3.5,-3.5 V 7 C 62.5,5.06965 60.93036,3.5 59,3.5 Z m 0,1 h 54 c 1.39365,0 2.5,1.10635 2.5,2.5 v 50 c 0,1.39365 -1.10635,2.5 -2.5,2.5 H 5 C 3.60635,59.5 2.5,58.39365 2.5,57 V 7 C 2.5,5.60635 3.60635,4.5 5,4.5 Z" />
    <rect
       style="opacity:0.6;fill:#343434;fill-opacity:1;stroke:none;stroke-width:0;stroke-linecap:round;stroke-linejoin:round;stroke-miterlimit:4;stroke-dasharray:none;stroke-dashoffset:2.1875;stroke-opacity:1"
       id="rect950-9"
       width="61"
       height="1"
       x="1.5"
       y="17.999998" />
    <path
       id="rect1598-3-1"
       style="opacity:0.75;fill:#3c3c3f;fill-opacity:1;stroke-width:0;stroke-dashoffset:2.1875"
       d="m 57.79365,8.20636 c -0.27514,-0.27514 -0.71816,-0.27514 -0.9933,0 L 55,10.00671 53.19965,8.20636 c -0.27513,-0.27514 -0.71813,-0.27514 -0.99328,0 -0.27516,0.27514 -0.27516,0.71815 0,0.99329 L 54.00672,11 52.20637,12.80035 c -0.27516,0.27514 -0.27516,0.71815 0,0.99329 0.27514,0.27515 0.71814,0.27515 0.99328,0 L 55,11.9933 l 1.80035,1.80034 c 0.27514,0.27515 0.71816,0.27515 0.9933,0 0.27514,-0.27514 0.27514,-0.71815 0,-0.99329 L 55.9933,11 57.79365,9.19965 c 0.27514,-0.27514 0.27514,-0.71815 0,-0.99329 z" />
    <rect
       style="opacity:0.75;fill:#3c3c3f;fill-opacity:1;stroke:none;stroke-width:0;stroke-linecap:round;stroke-linejoin:round;stroke-miterlimit:4;stroke-dasharray:none;stroke-dashoffset:2.1875;stroke-opacity:1"
       id="rect992-2"
       width="18"
       height="3.5"
       x="23"
       y="9.25"
       rx="1.75"
       ry="1.75" />
  </g>
</svg>
