<?xml version="1.0" encoding="UTF-8" standalone="no"?>
<svg
   xmlns:dc="http://purl.org/dc/elements/1.1/"
   xmlns:cc="http://creativecommons.org/ns#"
   xmlns:rdf="http://www.w3.org/1999/02/22-rdf-syntax-ns#"
   xmlns:svg="http://www.w3.org/2000/svg"
   xmlns="http://www.w3.org/2000/svg"
   xmlns:xlink="http://www.w3.org/1999/xlink"
   xmlns:sodipodi="http://sodipodi.sourceforge.net/DTD/sodipodi-0.dtd"
   xmlns:inkscape="http://www.inkscape.org/namespaces/inkscape"
   width="64"
   height="64"
   viewBox="0 0 64 64"
   version="1.1"
   id="svg6374"
   inkscape:version="1.0.2 (e86c870879, 2021-01-15)"
   sodipodi:docname="window-duplicate.svg">
  <defs
     id="defs6368">
    <linearGradient
       inkscape:collect="always"
       xlink:href="#linearGradient901"
       id="linearGradient1430"
       gradientUnits="userSpaceOnUse"
       gradientTransform="matrix(0.9,0,0,0.9,-64.77279,-1.82634)"
       x1="102.97813"
       y1="3.1932061"
       x2="103.04669"
       y2="17.226297" />
    <linearGradient
       inkscape:collect="always"
       id="linearGradient901">
      <stop
         style="stop-color:#e0e0e4;stop-opacity:1"
         offset="0"
         id="stop897" />
      <stop
         style="stop-color:#b4b4b8;stop-opacity:1"
         offset="1"
         id="stop899" />
    </linearGradient>
    <linearGradient
       inkscape:collect="always"
       xlink:href="#linearGradient901"
       id="linearGradient1432"
       gradientUnits="userSpaceOnUse"
       gradientTransform="matrix(0.75,0,0,0.75,-36.89392,17.18638)"
       x1="102.97813"
       y1="3.1932061"
       x2="103.04669"
       y2="17.226297" />
  </defs>
  <sodipodi:namedview
     id="base"
     pagecolor="#cecece"
     bordercolor="#666666"
     borderopacity="1.0"
     inkscape:pageopacity="0"
     inkscape:pageshadow="2"
     inkscape:zoom="8.0763523"
     inkscape:cx="17.465534"
     inkscape:cy="51.361256"
     inkscape:document-units="px"
     inkscape:current-layer="layer1"
     inkscape:document-rotation="0"
     showgrid="false"
     units="px"
     inkscape:window-width="1500"
     inkscape:window-height="970"
     inkscape:window-x="68"
     inkscape:window-y="56"
     inkscape:window-maximized="0" />
  <metadata
     id="metadata6371">
    <rdf:RDF>
      <cc:Work
         rdf:about="">
        <dc:format>image/svg+xml</dc:format>
        <dc:type
           rdf:resource="http://purl.org/dc/dcmitype/StillImage" />
        <dc:title></dc:title>
      </cc:Work>
    </rdf:RDF>
  </metadata>
  <g
     inkscape:label="Layer 1"
     inkscape:groupmode="layer"
     id="layer1">
    <rect
       style="opacity:0.15;fill:#0c0c0c;fill-opacity:1;stroke-width:4.95;stroke-linecap:round;stroke-linejoin:round;stroke-dashoffset:2.1875"
       id="rect848-3-3-5-02"
       width="54"
       height="50.400002"
       x="0.95001221"
       y="2.9497526"
       rx="2.7"
       ry="2.7" />
    <rect
       style="fill:#f6f5f6;fill-opacity:1;stroke-width:4.95;stroke-linecap:round;stroke-linejoin:round;stroke-dashoffset:2.1875"
       id="rect848-3-35-3"
       width="54"
       height="50.400002"
       x="0.95001221"
       y="0.94999683"
       rx="2.7"
       ry="2.7" />
    <path
       id="rect848-6-7"
       style="fill:url(#linearGradient1430);fill-opacity:1;stroke-width:4.95;stroke-linecap:round;stroke-linejoin:round;stroke-dashoffset:2.1875"
       d="m 3.65003,0.95 c -1.4958,0 -2.7,1.2042 -2.7,2.7 v 9.9 h 53.99999 v -9.9 c 0,-1.4958 -1.20419,-2.7 -2.7,-2.7 z" />
    <path
       id="rect848-3-35-3-3-9"
       style="color:#000000;font-style:normal;font-variant:normal;font-weight:normal;font-stretch:normal;font-size:medium;line-height:normal;font-family:sans-serif;font-variant-ligatures:normal;font-variant-position:normal;font-variant-caps:normal;font-variant-numeric:normal;font-variant-alternates:normal;font-variant-east-asian:normal;font-feature-settings:normal;font-variation-settings:normal;text-indent:0;text-align:start;text-decoration:none;text-decoration-line:none;text-decoration-style:solid;text-decoration-color:#000000;letter-spacing:normal;word-spacing:normal;text-transform:none;writing-mode:lr-tb;direction:ltr;text-orientation:mixed;dominant-baseline:auto;baseline-shift:baseline;text-anchor:start;white-space:normal;shape-padding:0;shape-margin:0;inline-size:0;clip-rule:nonzero;display:inline;overflow:visible;visibility:visible;opacity:0.75;isolation:auto;mix-blend-mode:normal;color-interpolation:sRGB;color-interpolation-filters:linearRGB;solid-color:#000000;solid-opacity:1;vector-effect:none;fill:#343434;fill-opacity:1;fill-rule:nonzero;stroke:none;stroke-linecap:round;stroke-linejoin:round;stroke-miterlimit:4;stroke-dasharray:none;stroke-dashoffset:2.1875;stroke-opacity:1;color-rendering:auto;image-rendering:auto;shape-rendering:auto;text-rendering:auto;enable-background:accumulate;stop-color:#000000"
       d="M 3.69922,0.5 C 1.93506,0.5 0.5,1.93507 0.5,3.69922 v 45 c 0,1.76415 1.43506,3.20117 3.19922,3.20117 h 48.60156 c 1.76415,0 3.19922,-1.43702 3.19922,-3.20117 v -45 C 55.5,1.93507 54.06493,0.5 52.30079,0.5 Z m 0,1 H 52.30078 C 53.52823,1.5 54.5,2.47177 54.5,3.69922 v 45 c 0,1.22745 -0.97177,2.20117 -2.19922,2.20117 H 3.69922 C 2.47177,50.90039 1.5,49.92667 1.5,48.69922 v -45 C 1.5,2.47177 2.47177,1.5 3.69922,1.5 Z" />
    <rect
       style="opacity:0.6;fill:#343434;fill-opacity:1;stroke:none;stroke-width:0;stroke-linecap:round;stroke-linejoin:round;stroke-miterlimit:4;stroke-dasharray:none;stroke-dashoffset:2.1875;stroke-opacity:1"
       id="rect950-9-9"
       width="54.900002"
       height="1"
       x="0.5"
       y="13.550003" />
    <path
       id="rect1598-3-1-2"
       style="opacity:0.75;fill:#3c3c3f;fill-opacity:1;stroke-width:0;stroke-dashoffset:2.1875"
       d="m 51.16431,4.73572 c -0.24762,-0.24762 -0.64634,-0.24762 -0.89396,0 L 48.65003,6.35604 47.02971,4.73572 c -0.24761,-0.24762 -0.64631,-0.24762 -0.89395,0 -0.24764,0.24763 -0.24764,0.64634 0,0.89396 L 47.75607,7.25 46.13576,8.87031 c -0.24764,0.24763 -0.24764,0.64634 0,0.89397 0.24763,0.24763 0.64634,0.24763 0.89395,0 l 1.62032,-1.62031 1.62032,1.62031 c 0.24762,0.24763 0.64634,0.24763 0.89396,0 0.24763,-0.24763 0.24763,-0.64634 0,-0.89397 L 49.544,7.25 51.16431,5.62968 c 0.24763,-0.24762 0.24763,-0.64633 0,-0.89396 z" />
    <rect
       style="opacity:0.75;fill:#3c3c3f;fill-opacity:1;stroke:none;stroke-width:0;stroke-linecap:round;stroke-linejoin:round;stroke-miterlimit:4;stroke-dasharray:none;stroke-dashoffset:2.1875;stroke-opacity:1"
       id="rect992-2-2"
       width="16.200001"
       height="3.1500001"
       x="19.849976"
       y="5.6750031"
       rx="1.575"
       ry="1.575" />
    <rect
       style="opacity:0.05;fill:#0c0c0c;fill-opacity:1;stroke-width:4.125;stroke-linecap:round;stroke-linejoin:round;stroke-dashoffset:2.1875"
       id="rect848-3-3-5-0-8-0"
       width="45"
       height="42"
       x="16.375"
       y="18"
       rx="2.25"
       ry="2.25" />
    <rect
       style="opacity:0.15;fill:#0c0c0c;fill-opacity:1;stroke-width:4.125;stroke-linecap:round;stroke-linejoin:round;stroke-dashoffset:2.1875"
       id="rect848-3-3-5-0-8"
       width="45"
       height="42"
       x="17.875"
       y="21.499758"
       rx="2.25"
       ry="2.25" />
    <rect
       style="fill:#f6f5f6;fill-opacity:1;stroke-width:4.125;stroke-linecap:round;stroke-linejoin:round;stroke-dashoffset:2.1875"
       id="rect848-3-35-6-9"
       width="45"
       height="42"
       x="17.875"
       y="19.499987"
       rx="2.25"
       ry="2.25" />
    <path
       id="rect848-6-2-7"
       style="fill:url(#linearGradient1432);fill-opacity:1;stroke-width:4.125;stroke-linecap:round;stroke-linejoin:round;stroke-dashoffset:2.1875"
       d="m 20.1251,19.5 c -1.2465,0 -2.25,1.0035 -2.25,2.25 V 30 h 44.99999 v -8.25 c 0,-1.2465 -1.00349,-2.25 -2.25,-2.25 z" />
    <rect
       style="opacity:0.6;fill:#343434;fill-opacity:1;stroke:none;stroke-width:0;stroke-linecap:round;stroke-linejoin:round;stroke-miterlimit:4;stroke-dasharray:none;stroke-dashoffset:2.1875;stroke-opacity:1"
       id="rect950-9-1-6"
       width="45.75"
       height="1"
       x="17.5"
       y="29.999987" />
    <path
       id="rect1598-3-1-8-1"
       style="opacity:0.75;fill:#3c3c3f;fill-opacity:1;stroke-width:0;stroke-dashoffset:2.1875"
       d="m 59.72034,22.65477 c -0.20636,-0.20636 -0.53862,-0.20636 -0.74498,0 l -1.35026,1.35026 -1.35026,-1.35026 c -0.20636,-0.20636 -0.53861,-0.20636 -0.74496,0 -0.20637,0.20635 -0.20637,0.53861 0,0.74497 l 1.35026,1.35026 -1.35026,1.35026 c -0.20637,0.20636 -0.20637,0.53861 0,0.74497 0.20635,0.20636 0.5386,0.20636 0.74496,0 l 1.35026,-1.35026 1.35026,1.35026 c 0.20636,0.20636 0.53862,0.20636 0.74498,0 0.20635,-0.20636 0.20635,-0.53861 0,-0.74497 L 58.37007,24.75 59.72034,23.39974 c 0.20635,-0.20636 0.20635,-0.53862 0,-0.74497 z" />
    <rect
       style="opacity:0.75;fill:#3c3c3f;fill-opacity:1;stroke:none;stroke-width:0;stroke-linecap:round;stroke-linejoin:round;stroke-miterlimit:4;stroke-dasharray:none;stroke-dashoffset:2.1875;stroke-opacity:1"
       id="rect992-2-7-2"
       width="13.5"
       height="2.625"
       x="33.625"
       y="23.437487"
       rx="1.3125"
       ry="1.3125" />
    <path
       id="rect848-3-35-6-9-9-1"
       style="color:#000000;font-style:normal;font-variant:normal;font-weight:normal;font-stretch:normal;font-size:medium;line-height:normal;font-family:sans-serif;font-variant-ligatures:normal;font-variant-position:normal;font-variant-caps:normal;font-variant-numeric:normal;font-variant-alternates:normal;font-variant-east-asian:normal;font-feature-settings:normal;font-variation-settings:normal;text-indent:0;text-align:start;text-decoration:none;text-decoration-line:none;text-decoration-style:solid;text-decoration-color:#000000;letter-spacing:normal;word-spacing:normal;text-transform:none;writing-mode:lr-tb;direction:ltr;text-orientation:mixed;dominant-baseline:auto;baseline-shift:baseline;text-anchor:start;white-space:normal;shape-padding:0;shape-margin:0;inline-size:0;clip-rule:nonzero;display:inline;overflow:visible;visibility:visible;opacity:0.75;isolation:auto;mix-blend-mode:normal;color-interpolation:sRGB;color-interpolation-filters:linearRGB;solid-color:#000000;solid-opacity:1;vector-effect:none;fill:#343434;fill-opacity:1;fill-rule:nonzero;stroke:none;stroke-linecap:round;stroke-linejoin:round;stroke-miterlimit:4;stroke-dasharray:none;stroke-dashoffset:2.1875;stroke-opacity:1;color-rendering:auto;image-rendering:auto;shape-rendering:auto;text-rendering:auto;enable-background:accumulate;stop-color:#000000"
       d="m 20.25,19.125 c -1.51485,0 -2.75,1.23514 -2.75,2.75 v 37.5 c 0,1.51485 1.23515,2.75 2.75,2.75 h 40.5 c 1.51485,0 2.75,-1.23515 2.75,-2.75 v -37.5 c 0,-1.51486 -1.23515,-2.75001 -2.75,-2.75 z m 0,1 h 40.5 c 0.97816,0 1.75,0.77185 1.75,1.75 v 37.5 c 0,0.97813 -0.77184,1.75 -1.75,1.75 h -40.5 c -0.97816,0 -1.75,-0.77186 -1.75,-1.75 v -37.5 c 0,-0.97815 0.77184,-1.75001 1.75,-1.75 z" />
  </g>
</svg>
