<?xml version="1.0" encoding="UTF-8" standalone="no"?>
<svg
   xmlns:dc="http://purl.org/dc/elements/1.1/"
   xmlns:cc="http://creativecommons.org/ns#"
   xmlns:rdf="http://www.w3.org/1999/02/22-rdf-syntax-ns#"
   xmlns:svg="http://www.w3.org/2000/svg"
   xmlns="http://www.w3.org/2000/svg"
   xmlns:sodipodi="http://sodipodi.sourceforge.net/DTD/sodipodi-0.dtd"
   xmlns:inkscape="http://www.inkscape.org/namespaces/inkscape"
   width="64"
   height="64"
   viewBox="0 0 64 64"
   version="1.1"
   id="svg6374"
   inkscape:version="1.0.2 (e86c870879, 2021-01-15)"
   sodipodi:docname="application-vnd.debian.binary-package.svg">
  <defs
     id="defs6368" />
  <sodipodi:namedview
     id="base"
     pagecolor="#cecece"
     bordercolor="#666666"
     borderopacity="1.0"
     inkscape:pageopacity="0"
     inkscape:pageshadow="2"
     inkscape:zoom="7.9107419"
     inkscape:cx="6.2522862"
     inkscape:cy="45.410522"
     inkscape:document-units="px"
     inkscape:current-layer="layer1"
     inkscape:document-rotation="0"
     showgrid="false"
     units="px"
     inkscape:window-width="2048"
     inkscape:window-height="1080"
     inkscape:window-x="0"
     inkscape:window-y="0"
     inkscape:window-maximized="1" />
  <metadata
     id="metadata6371">
    <rdf:RDF>
      <cc:Work
         rdf:about="">
        <dc:format>image/svg+xml</dc:format>
        <dc:type
           rdf:resource="http://purl.org/dc/dcmitype/StillImage" />
        <dc:title />
      </cc:Work>
    </rdf:RDF>
  </metadata>
  <g
     inkscape:label="Layer 1"
     inkscape:groupmode="layer"
     id="layer1">
    <rect
       style="opacity:0.45;fill:#0c0c0c;fill-opacity:1;stroke-width:0.495;stroke-linecap:round;stroke-linejoin:round;stroke-miterlimit:4;stroke-dasharray:none;stroke-dashoffset:2.1875"
       id="rect954-6-3-2-2-6-9-7-1-0-1"
       width="44"
       height="56"
       x="10"
       y="5.5000005"
       rx="3"
       ry="3" />
    <path
       id="rect954-60-6-7-3-1-9-5-0-6-32"
       style="color:#000000;font-style:normal;font-variant:normal;font-weight:normal;font-stretch:normal;font-size:medium;line-height:normal;font-family:sans-serif;font-variant-ligatures:normal;font-variant-position:normal;font-variant-caps:normal;font-variant-numeric:normal;font-variant-alternates:normal;font-variant-east-asian:normal;font-feature-settings:normal;font-variation-settings:normal;text-indent:0;text-align:start;text-decoration:none;text-decoration-line:none;text-decoration-style:solid;text-decoration-color:#000000;letter-spacing:normal;word-spacing:normal;text-transform:none;writing-mode:lr-tb;direction:ltr;text-orientation:mixed;dominant-baseline:auto;baseline-shift:baseline;text-anchor:start;white-space:normal;shape-padding:0;shape-margin:0;inline-size:0;clip-rule:nonzero;display:inline;overflow:visible;visibility:visible;opacity:0.8;isolation:auto;mix-blend-mode:normal;color-interpolation:sRGB;color-interpolation-filters:linearRGB;solid-color:#000000;solid-opacity:1;vector-effect:none;fill:#69696d;fill-opacity:1;fill-rule:nonzero;stroke:none;stroke-linecap:round;stroke-linejoin:round;stroke-miterlimit:4;stroke-dasharray:none;stroke-dashoffset:2.1875;stroke-opacity:1;color-rendering:auto;image-rendering:auto;shape-rendering:auto;text-rendering:auto;enable-background:accumulate;stop-color:#000000"
       d="M 13,3.5 C 11.0696,3.5 9.5,5.06965 9.5,7 v 50 c 0,1.93034 1.5696,3.5 3.5,3.5 h 38 c 1.9304,0 3.5,-1.56966 3.5,-3.5 V 7 C 54.5,5.06965 52.9304,3.5 51,3.5 Z m 0,1 h 38 c 1.3936,0 2.5,1.10635 2.5,2.5 v 50 c 0,1.39364 -1.1064,2.5 -2.5,2.5 H 13 c -1.3936,0 -2.5,-1.10636 -2.5,-2.5 V 7 c 0,-1.39365 1.1064,-2.5 2.5,-2.5 z" />
    <rect
       style="fill:#fcfcfa;fill-opacity:1;stroke-width:0.495;stroke-linecap:round;stroke-linejoin:round;stroke-miterlimit:4;stroke-dasharray:none;stroke-dashoffset:2.1875"
       id="rect954-7-0-7-3-1-8-4-0-1"
       width="44"
       height="56"
       x="10"
       y="3.9999998"
       rx="3"
       ry="3" />
    <path
       id="rect1000-1"
       style="opacity:0.075;fill:#0c0c10;fill-opacity:1;stroke:none;stroke-width:0.749991;stroke-linecap:round;stroke-linejoin:round"
       d="m 34.36015,13.165 c -0.62996,0.0529 -1.25726,0.0842 -1.87635,0.16407 l 0.27245,0.0381 c 0.45559,-0.16691 1.12056,-0.0923 1.6039,-0.20216 z m -2.75081,0.29005 c -1.02444,0.0622 -2.4469,0.59551 -2.00817,0.10987 -1.6709,0.74553 -4.63757,1.79305 -6.30285,3.35461 l -0.0527,-0.3501 c -0.76308,0.91616 -3.32716,2.73645 -3.53152,3.92299 l -0.20507,0.0469 c -0.3971,0.67239 -0.65322,1.43512 -0.9682,2.12703 -0.51935,0.88503 -0.76085,0.34026 -0.68697,0.47902 -1.02144,2.07119 -1.52882,3.81117 -1.96717,5.23847 0.31236,0.4669 0.008,2.81185 0.12597,4.68767 -0.51297,9.26435 6.49996,18.2589 14.16711,20.33573 1.12382,0.40203 2.79549,0.3865 4.21703,0.42775 -1.67727,-0.47965 -1.89335,-0.25363 -3.52713,-0.82327 -1.17855,-0.55502 -1.43713,-1.19011 -2.27183,-1.91463 l 0.32956,0.5845 c -1.63715,-0.5794 -0.95163,-0.71634 -2.28355,-1.13823 l 0.35301,-0.46144 c -0.53059,-0.0401 -1.40568,-0.89385 -1.64492,-1.36675 l -0.58004,0.022 c -0.69746,-0.86065 -1.06845,-1.48111 -1.04145,-1.96149 l -0.18749,0.334 c -0.2126,-0.36489 -2.56703,-3.22705 -1.3461,-2.56066 -0.22687,-0.20737 -0.52844,-0.33764 -0.85542,-0.93166 l 0.249,-0.28419 c -0.58758,-0.75604 -1.08186,-1.72505 -1.04437,-2.04794 0.31349,0.4234 0.53179,0.50187 0.74703,0.57425 -1.48378,-3.68189 -1.56695,-0.20221 -2.69075,-3.74722 l 0.23729,-0.019 C 18.6574,37.81875 18.54683,37.52002 18.4002,37.22751 l 0.10401,-1.03129 c -1.06831,-1.2353 -0.29912,-5.25167 -0.14501,-7.45487 0.10687,-0.89591 0.89122,-1.85026 1.48819,-3.34582 l -0.36326,-0.0615 c 0.69521,-1.21279 3.9691,-4.87153 5.48551,-4.68327 0.73457,-0.92291 -0.14641,-0.003 -0.29002,-0.23585 1.61352,-1.66994 2.12181,-1.17916 3.21074,-1.47955 1.17443,-0.69715 -1.00799,0.27116 -0.45114,-0.26661 2.03013,-0.51864 1.4382,-1.1782 4.08666,-1.44146 0.27937,0.15901 -0.64746,0.24493 -0.88031,0.45119 1.69151,-0.82766 5.35286,-0.63882 7.73097,0.45998 2.75946,1.28966 5.85983,5.10131 5.98207,8.68831 l 0.13914,0.0381 c -0.0705,1.42581 0.21753,3.07485 -0.28269,4.58953 l 0.33982,-0.7178 c 0.0401,1.08979 -0.31795,1.61875 -0.64156,2.55478 l -0.58298,0.29151 c -0.47659,0.92554 0.0468,0.58666 -0.29441,1.32281 -0.74396,0.66153 -2.25756,2.07018 -2.74203,2.19881 -0.3536,-0.008 0.23878,-0.41666 0.31639,-0.57717 -0.99594,0.68403 -0.79847,1.02595 -2.32163,1.44147 l -0.0455,-0.0982 c -3.75653,1.76745 -8.97434,-1.73522 -8.90572,-6.5144 -0.0401,0.30339 -0.11303,0.22749 -0.19627,0.35011 -0.19387,-2.45896 1.13426,-4.92882 3.37625,-5.93723 2.19287,-1.08567 4.76429,-0.64078 6.33507,0.82327 -0.86282,-1.13029 -2.58006,-2.32852 -4.61544,-2.21639 -1.99376,0.0315 -3.85969,1.29936 -4.48215,2.67491 -1.02144,0.64314 -1.13977,2.47951 -1.58487,2.81552 -0.59885,4.40155 1.12721,6.30341 4.04565,8.54036 0.45935,0.30976 0.12964,0.35594 0.19189,0.59183 -0.96969,-0.45415 -1.85815,-1.1398 -2.58823,-1.97908 0.38735,0.56702 0.80578,1.11818 1.34611,1.55133 -0.91419,-0.30976 -2.13641,-2.21494 -2.49301,-2.29257 1.57603,2.82198 6.39458,4.94899 8.91743,3.8937 -1.1673,0.0431 -2.65049,0.0235 -3.96216,-0.46145 -0.55084,-0.28351 -1.29982,-0.87013 -1.16595,-0.98001 3.44304,1.28629 7.00019,0.9734 9.97937,-1.4151 0.75784,-0.59027 1.58586,-1.59312 1.82509,-1.60698 -0.36034,0.54189 0.0614,0.25978 -0.21531,0.7383 0.75519,-1.21805 -0.3281,-0.49591 0.78071,-2.10359 l 0.40866,0.56399 c -0.15224,-1.01104 1.25609,-2.23898 1.11322,-3.83804 0.32286,-0.48902 0.36031,0.5259 0.0175,1.65094 0.47547,-1.24805 0.1253,-1.44735 0.24754,-2.47714 0.13199,0.34614 0.30515,0.7129 0.39403,1.07817 -0.30973,-1.20605 0.31787,-2.03114 0.47311,-2.73204 -0.15299,-0.0679 -0.47797,0.53402 -0.55222,-0.89066 0.0109,-0.61877 0.17212,-0.3253 0.23437,-0.47755 -0.12149,-0.0697 -0.44038,-0.5434 -0.63424,-1.45319 0.14062,-0.21376 0.37562,0.55446 0.56685,0.58596 -0.12299,-0.72339 -0.33559,-1.27463 -0.34421,-1.82966 -0.55871,-1.16779 -0.197,0.15457 -0.65036,-0.50245 -0.59471,-1.8552 0.49337,-0.42997 0.56687,-1.273 0.90144,1.30618 1.41638,3.33056 1.65225,4.16909 -0.17999,-1.02228 -0.47102,-2.01265 -0.82613,-2.97081 0.27374,0.11513 -0.4409,-2.10361 0.35594,-0.6343 -0.8512,-3.13212 -3.64381,-6.05813 -6.21203,-7.43143 0.31423,0.28764 0.71081,0.648 0.56832,0.70462 -1.27718,-0.76053 -1.0518,-0.81976 -1.23479,-1.14115 -1.04056,-0.42336 -1.10951,0.0348 -1.79872,0.002 -1.96113,-1.04029 -2.33902,-0.93032 -4.14379,-1.58209 l 0.082,0.3838 c -1.29931,-0.43274 -1.51351,0.16423 -2.91781,10e-4 -0.0854,-0.0667 0.44878,-0.2419 0.88912,-0.30617 -1.25448,0.16518 -1.19701,-0.24625 -2.42565,0.0469 0.30299,-0.21263 0.62448,-0.35392 0.9477,-0.53468 z m 1.01508,0.23438 c 0.3596,0.0645 0.77623,0.11482 0.71773,0.2007 0.39335,-0.0863 0.48332,-0.16657 -0.71773,-0.2007 z m 0.71773,0.2007 -0.2534,0.0527 0.23582,-0.022 z m -16.57957,7.98223 c 0.105,0.97203 -0.73188,1.34991 0.18456,0.70901 0.49122,-1.10667 -0.19131,-0.30625 -0.18456,-0.70901 z m -0.74702,3.08654 c -0.58347,0.7459 -0.26808,0.90477 -0.32957,1.41216 0.21111,-0.64802 0.24894,-1.03715 0.32957,-1.41216 z m 24.0132,4.50603 c -0.0833,0.002 -0.19081,0.21376 -0.24462,0.44533 0.12562,0.0652 0.22419,0.85487 0.34568,0.36622 0.0407,-0.60677 -0.0177,-0.8138 -0.10106,-0.81155 z m 7.36771,2.045 -0.0996,0.24756 c -0.18149,1.2893 -0.57255,2.56588 -1.17327,3.74867 0.66371,-1.24804 1.0929,-2.61318 1.27287,-3.99623 z m -7.80421,0.45411 c -0.09,0.44702 -0.33263,0.83204 -0.561,1.23931 -1.25954,0.79315 -0.11774,-0.47033 0,-0.95073 -1.35442,1.70482 -0.18671,1.02233 -0.23583,1.4986 0.40123,-0.55389 0.69371,-1.16015 0.79683,-1.78718 z m -2.74642,2.60167 c -0.54784,0.13427 -1.10517,0.13779 -1.66689,0.0864 -0.67383,0.009 0.12805,0.34804 1.00775,0.48342 0.24299,-0.18976 0.46265,-0.38308 0.65914,-0.56984 z m -8.50291,0.0879 c 0.1485,0.5464 0.45221,1.01681 0.73531,1.4942 L 28.87171,35.53696 C 28.63736,35.27782 28.49817,34.9645 28.34293,34.65361 Z m -0.51851,0.92436 -0.0952,0.4717 c 0.44285,0.60152 0.7953,1.25391 1.36077,1.72418 -0.40686,-0.79428 -0.70946,-1.12221 -1.26555,-2.19588 z" />
    <path
       id="rect1000"
       style="fill:#d53460;fill-opacity:1;stroke:none;stroke-width:0.749991;stroke-linecap:round;stroke-linejoin:round"
       d="m 34.36015,11.665 c -0.62996,0.0529 -1.25726,0.0842 -1.87635,0.16407 l 0.27245,0.0381 c 0.45559,-0.16691 1.12056,-0.0923 1.6039,-0.20216 z m -2.75081,0.29005 c -1.02444,0.0622 -2.4469,0.59551 -2.00817,0.10987 -1.6709,0.74553 -4.63757,1.79305 -6.30285,3.35461 l -0.0527,-0.3501 c -0.76308,0.91616 -3.32716,2.73645 -3.53152,3.92299 l -0.20507,0.0469 c -0.3971,0.67239 -0.65322,1.43512 -0.9682,2.12703 -0.51935,0.88503 -0.76085,0.34026 -0.68697,0.47902 -1.02144,2.07119 -1.52882,3.81117 -1.96717,5.23847 0.31236,0.4669 0.008,2.81185 0.12597,4.68767 -0.51297,9.26435 6.49996,18.2589 14.16711,20.33573 1.12382,0.40203 2.79549,0.3865 4.21703,0.42775 -1.67727,-0.47965 -1.89335,-0.25363 -3.52713,-0.82327 -1.17855,-0.55502 -1.43713,-1.19011 -2.27183,-1.91463 l 0.32956,0.5845 c -1.63715,-0.5794 -0.95163,-0.71634 -2.28355,-1.13823 l 0.35301,-0.46144 c -0.53059,-0.0401 -1.40568,-0.89385 -1.64492,-1.36675 l -0.58004,0.022 c -0.69746,-0.86065 -1.06845,-1.48111 -1.04145,-1.96149 l -0.18749,0.334 c -0.2126,-0.36489 -2.56703,-3.22705 -1.3461,-2.56066 -0.22687,-0.20737 -0.52844,-0.33764 -0.85542,-0.93166 l 0.249,-0.28419 c -0.58758,-0.75604 -1.08186,-1.72505 -1.04437,-2.04794 0.31349,0.4234 0.53179,0.50187 0.74703,0.57425 -1.48378,-3.68189 -1.56695,-0.20221 -2.69075,-3.74722 l 0.23729,-0.019 C 18.6574,36.31875 18.54683,36.02002 18.4002,35.72751 l 0.10401,-1.03129 c -1.06831,-1.2353 -0.29912,-5.25167 -0.14501,-7.45487 0.10687,-0.89591 0.89122,-1.85026 1.48819,-3.34582 l -0.36326,-0.0615 c 0.69521,-1.21279 3.9691,-4.87153 5.48551,-4.68327 0.73457,-0.92291 -0.14641,-0.003 -0.29002,-0.23585 1.61352,-1.66994 2.12181,-1.17916 3.21074,-1.47955 1.17443,-0.69715 -1.00799,0.27116 -0.45114,-0.26661 2.03013,-0.51864 1.4382,-1.1782 4.08666,-1.44146 0.27937,0.15901 -0.64746,0.24493 -0.88031,0.45119 1.69151,-0.82766 5.35286,-0.63882 7.73097,0.45998 2.75946,1.28966 5.85983,5.10131 5.98207,8.68831 l 0.13914,0.0381 c -0.0705,1.42581 0.21753,3.07485 -0.28269,4.58953 l 0.33982,-0.7178 c 0.0401,1.08979 -0.31795,1.61875 -0.64156,2.55478 l -0.58298,0.29151 c -0.47659,0.92554 0.0468,0.58666 -0.29441,1.32281 -0.74396,0.66153 -2.25756,2.07018 -2.74203,2.19881 -0.3536,-0.008 0.23878,-0.41666 0.31639,-0.57717 -0.99594,0.68403 -0.79847,1.02595 -2.32163,1.44147 l -0.0455,-0.0982 c -3.75653,1.76745 -8.97434,-1.73522 -8.90572,-6.5144 -0.0401,0.30339 -0.11303,0.22749 -0.19627,0.35011 -0.19387,-2.45896 1.13426,-4.92882 3.37625,-5.93723 2.19287,-1.08567 4.76429,-0.64078 6.33507,0.82327 -0.86282,-1.13029 -2.58006,-2.32852 -4.61544,-2.21639 -1.99376,0.0315 -3.85969,1.29936 -4.48215,2.67491 -1.02144,0.64314 -1.13977,2.47951 -1.58487,2.81552 -0.59885,4.40155 1.12721,6.30341 4.04565,8.54036 0.45935,0.30976 0.12964,0.35594 0.19189,0.59183 -0.96969,-0.45415 -1.85815,-1.1398 -2.58823,-1.97908 0.38735,0.56702 0.80578,1.11818 1.34611,1.55133 -0.91419,-0.30976 -2.13641,-2.21494 -2.49301,-2.29257 1.57603,2.82198 6.39458,4.94899 8.91743,3.8937 -1.1673,0.0431 -2.65049,0.0235 -3.96216,-0.46145 -0.55084,-0.28351 -1.29982,-0.87013 -1.16595,-0.98001 3.44304,1.28629 7.00019,0.9734 9.97937,-1.4151 0.75784,-0.59027 1.58586,-1.59312 1.82509,-1.60698 -0.36034,0.54189 0.0614,0.25978 -0.21531,0.7383 0.75519,-1.21805 -0.3281,-0.49591 0.78071,-2.10359 l 0.40866,0.56399 c -0.15224,-1.01104 1.25609,-2.23898 1.11322,-3.83804 0.32286,-0.48902 0.36031,0.5259 0.0175,1.65094 0.47547,-1.24805 0.1253,-1.44735 0.24754,-2.47714 0.13199,0.34614 0.30515,0.7129 0.39403,1.07817 -0.30973,-1.20605 0.31787,-2.03114 0.47311,-2.73204 -0.15299,-0.0679 -0.47797,0.53402 -0.55222,-0.89066 0.0109,-0.61877 0.17212,-0.3253 0.23437,-0.47755 -0.12149,-0.0697 -0.44038,-0.5434 -0.63424,-1.45319 0.14062,-0.21376 0.37562,0.55446 0.56685,0.58596 -0.12299,-0.72339 -0.33559,-1.27463 -0.34421,-1.82966 -0.55871,-1.16779 -0.197,0.15457 -0.65036,-0.50245 -0.59471,-1.8552 0.49337,-0.42997 0.56687,-1.273 0.90144,1.30618 1.41638,3.33056 1.65225,4.16909 -0.17999,-1.02228 -0.47102,-2.01265 -0.82613,-2.97081 0.27374,0.11513 -0.4409,-2.10361 0.35594,-0.6343 -0.8512,-3.13212 -3.64381,-6.05813 -6.21203,-7.43143 0.31423,0.28764 0.71081,0.648 0.56832,0.70462 -1.27718,-0.76053 -1.0518,-0.81976 -1.23479,-1.14115 -1.04056,-0.42336 -1.10951,0.0348 -1.79872,0.002 -1.96113,-1.04029 -2.33902,-0.93032 -4.14379,-1.58209 l 0.082,0.3838 c -1.29931,-0.43274 -1.51351,0.16423 -2.91781,10e-4 -0.0854,-0.0667 0.44878,-0.2419 0.88912,-0.30617 -1.25448,0.16518 -1.19701,-0.24625 -2.42565,0.0469 0.30299,-0.21263 0.62448,-0.35392 0.9477,-0.53468 z m 1.01508,0.23438 c 0.3596,0.0645 0.77623,0.11482 0.71773,0.2007 0.39335,-0.0863 0.48332,-0.16657 -0.71773,-0.2007 z m 0.71773,0.2007 -0.2534,0.0527 0.23582,-0.022 z m -16.57957,7.98223 c 0.105,0.97203 -0.73188,1.34991 0.18456,0.70901 0.49122,-1.10667 -0.19131,-0.30625 -0.18456,-0.70901 z m -0.74702,3.08654 c -0.58347,0.7459 -0.26808,0.90477 -0.32957,1.41216 0.21111,-0.64802 0.24894,-1.03715 0.32957,-1.41216 z m 24.0132,4.50603 c -0.0833,0.002 -0.19081,0.21376 -0.24462,0.44533 0.12562,0.0652 0.22419,0.85487 0.34568,0.36622 0.0407,-0.60677 -0.0177,-0.8138 -0.10106,-0.81155 z m 7.36771,2.045 -0.0996,0.24756 c -0.18149,1.2893 -0.57255,2.56588 -1.17327,3.74867 0.66371,-1.24804 1.0929,-2.61318 1.27287,-3.99623 z m -7.80421,0.45411 c -0.09,0.44702 -0.33263,0.83204 -0.561,1.23931 -1.25954,0.79315 -0.11774,-0.47033 0,-0.95073 -1.35442,1.70482 -0.18671,1.02233 -0.23583,1.4986 0.40123,-0.55389 0.69371,-1.16015 0.79683,-1.78718 z m -2.74642,2.60167 c -0.54784,0.13427 -1.10517,0.13779 -1.66689,0.0864 -0.67383,0.009 0.12805,0.34804 1.00775,0.48342 0.24299,-0.18976 0.46265,-0.38308 0.65914,-0.56984 z m -8.50291,0.0879 c 0.1485,0.5464 0.45221,1.01681 0.73531,1.4942 L 28.87171,34.03696 C 28.63736,33.77782 28.49817,33.4645 28.34293,33.15361 Z m -0.51851,0.92436 -0.0952,0.4717 c 0.44285,0.60152 0.7953,1.25391 1.36077,1.72418 -0.40686,-0.79428 -0.70946,-1.12221 -1.26555,-2.19588 z" />
  </g>
</svg>
