<?xml version="1.0" encoding="UTF-8" standalone="no"?>
<svg
   xmlns:dc="http://purl.org/dc/elements/1.1/"
   xmlns:cc="http://creativecommons.org/ns#"
   xmlns:rdf="http://www.w3.org/1999/02/22-rdf-syntax-ns#"
   xmlns:svg="http://www.w3.org/2000/svg"
   xmlns="http://www.w3.org/2000/svg"
   xmlns:sodipodi="http://sodipodi.sourceforge.net/DTD/sodipodi-0.dtd"
   xmlns:inkscape="http://www.inkscape.org/namespaces/inkscape"
   width="64"
   height="64"
   viewBox="0 0 64 64"
   version="1.1"
   id="svg6374"
   inkscape:version="1.0.2 (e86c870879, 2021-01-15)"
   sodipodi:docname="application-x-executable.svg">
  <defs
     id="defs6368" />
  <sodipodi:namedview
     id="base"
     pagecolor="#cecece"
     bordercolor="#666666"
     borderopacity="1.0"
     inkscape:pageopacity="0"
     inkscape:pageshadow="2"
     inkscape:zoom="4.0085802"
     inkscape:cx="47.108576"
     inkscape:cy="29.539689"
     inkscape:document-units="px"
     inkscape:current-layer="layer1"
     inkscape:document-rotation="0"
     showgrid="false"
     units="px"
     inkscape:window-width="1500"
     inkscape:window-height="970"
     inkscape:window-x="68"
     inkscape:window-y="56"
     inkscape:window-maximized="0" />
  <metadata
     id="metadata6371">
    <rdf:RDF>
      <cc:Work
         rdf:about="">
        <dc:format>image/svg+xml</dc:format>
        <dc:type
           rdf:resource="http://purl.org/dc/dcmitype/StillImage" />
        <dc:title></dc:title>
      </cc:Work>
    </rdf:RDF>
  </metadata>
  <g
     inkscape:label="Layer 1"
     inkscape:groupmode="layer"
     id="layer1">
    <path
       id="rect1074-3-2-2-6"
       style="fill:#99adcc;fill-opacity:1;stroke:none;stroke-width:0.543288;stroke-linejoin:round;stroke-miterlimit:4;stroke-dasharray:none;stroke-opacity:1"
       d="M 31.916995,1.2500032 5.5000047,16.512143 v 30.87982 l 26.5834103,15.35804 26.41659,-15.26166 v -30.88077 z" />
    <path
       id="path1043-6-0-8-3"
       style="color:#000000;font-style:normal;font-variant:normal;font-weight:normal;font-stretch:normal;font-size:medium;line-height:normal;font-family:sans-serif;font-variant-ligatures:normal;font-variant-position:normal;font-variant-caps:normal;font-variant-numeric:normal;font-variant-alternates:normal;font-variant-east-asian:normal;font-feature-settings:normal;font-variation-settings:normal;text-indent:0;text-align:start;text-decoration:none;text-decoration-line:none;text-decoration-style:solid;text-decoration-color:#000000;letter-spacing:normal;word-spacing:normal;text-transform:none;writing-mode:lr-tb;direction:ltr;text-orientation:mixed;dominant-baseline:auto;baseline-shift:baseline;text-anchor:start;white-space:normal;shape-padding:0;shape-margin:0;inline-size:0;clip-rule:nonzero;display:inline;overflow:visible;visibility:visible;isolation:auto;mix-blend-mode:normal;color-interpolation:sRGB;color-interpolation-filters:linearRGB;solid-color:#000000;solid-opacity:1;vector-effect:none;fill:#231e23;fill-opacity:1;fill-rule:nonzero;stroke:none;stroke-width:0.742198;stroke-linecap:butt;stroke-linejoin:round;stroke-miterlimit:4;stroke-dasharray:none;stroke-dashoffset:0;stroke-opacity:1;color-rendering:auto;image-rendering:auto;shape-rendering:auto;text-rendering:auto;enable-background:accumulate;stop-color:#000000"
       d="m 31.940895,1.2501932 c -0.22081,-0.004 -0.43813,0.0542 -0.62855,0.16661 L 6.1011547,16.247713 c -0.37363,0.2199 -0.60235,0.62684 -0.60115,1.06215 l 0.08,29.52523 c 0,0.43569 0.23171,0.83983 0.60694,1.05779 l 25.2893103,14.69239 c 0.18021,0.1051 0.38363,0.16249 0.59204,0.16468 0.21772,0.002 0.43343,-0.0577 0.62135,-0.16855 l 25.2087,-14.83285 c 0.37333,-0.21969 0.60244,-0.62339 0.60164,-1.05828 l -0.078,-29.52716 c 0,-0.43529 -0.23162,-0.83861 -0.60645,-1.05635 L 32.526135,1.4129332 c -0.17772,-0.1032 -0.37953,-0.15939 -0.58475,-0.16274 z m -0.016,2.63577 24.07752,13.9891198 0.075,28.1158 -22.78402,13.40551 v -28.24754 l 4.51324,-2.3597 -0.16201,-0.0954 a 0.37026525,0.37200857 0 0 0 0.35673,0.007 l 1.94615,-1.03068 13.3257,-7.06601 a 0.37026525,0.37200857 0 0 0 -0.17301,-0.70131 h -0.56115 a 0.37026525,0.37200857 0 0 0 -0.14951,0.0329 l -11.18874,4.94267 -2.17706,0.96286 0.13841,0.0678 a 0.37026525,0.37200857 0 0 0 -0.31003,-0.007 l -6.58779,2.87019 c -0.032,0.014 -0.22862,0.014 -0.26092,0 l -6.5864,-2.87019 a 0.37026525,0.37200857 0 0 0 -0.28592,-0.004 l 0.11811,-0.0547 -2.18087,-0.96286 -11.19064,-4.94461 a 0.37026525,0.37200857 0 0 0 -0.14901,-0.0329 h -0.63975 a 0.37026525,0.37200857 0 0 0 -0.17301,0.70132 l 13.3277,7.066 1.94615,1.03067 a 0.37026525,0.37200857 0 0 0 0.32972,0.009 l -0.13511,0.0785 4.48234,2.34517 v 28.27466 l -22.8658203,-13.28619 -0.077,-28.11533 z" />
  </g>
</svg>
