<?xml version="1.0" encoding="UTF-8" standalone="no"?>
<svg
   xmlns:dc="http://purl.org/dc/elements/1.1/"
   xmlns:cc="http://creativecommons.org/ns#"
   xmlns:rdf="http://www.w3.org/1999/02/22-rdf-syntax-ns#"
   xmlns:svg="http://www.w3.org/2000/svg"
   xmlns="http://www.w3.org/2000/svg"
   xmlns:xlink="http://www.w3.org/1999/xlink"
   xmlns:sodipodi="http://sodipodi.sourceforge.net/DTD/sodipodi-0.dtd"
   xmlns:inkscape="http://www.inkscape.org/namespaces/inkscape"
   width="64"
   height="64"
   viewBox="0 0 64 64"
   version="1.1"
   id="svg6374"
   inkscape:version="1.0.2 (e86c870879, 2021-01-15)"
   sodipodi:docname="video-x-matroska.svg">
  <defs
     id="defs6368">
    <linearGradient
       inkscape:collect="always"
       xlink:href="#linearGradient935"
       id="linearGradient7723"
       gradientUnits="userSpaceOnUse"
       x1="733.23187"
       y1="16.957952"
       x2="733.14349"
       y2="59.221127"
       gradientTransform="translate(-700)" />
    <linearGradient
       inkscape:collect="always"
       id="linearGradient935">
      <stop
         style="stop-color:#a583bf;stop-opacity:1"
         offset="0"
         id="stop931" />
      <stop
         style="stop-color:#946bb3;stop-opacity:1"
         offset="1"
         id="stop933" />
    </linearGradient>
  </defs>
  <sodipodi:namedview
     id="base"
     pagecolor="#cecece"
     bordercolor="#666666"
     borderopacity="1.0"
     inkscape:pageopacity="0"
     inkscape:pageshadow="2"
     inkscape:zoom="4.7373963"
     inkscape:cx="14.513545"
     inkscape:cy="31.677071"
     inkscape:document-units="px"
     inkscape:current-layer="layer1"
     inkscape:document-rotation="0"
     showgrid="false"
     units="px"
     inkscape:window-width="1500"
     inkscape:window-height="970"
     inkscape:window-x="68"
     inkscape:window-y="56"
     inkscape:window-maximized="0" />
  <metadata
     id="metadata6371">
    <rdf:RDF>
      <cc:Work
         rdf:about="">
        <dc:format>image/svg+xml</dc:format>
        <dc:type
           rdf:resource="http://purl.org/dc/dcmitype/StillImage" />
        <dc:title></dc:title>
      </cc:Work>
    </rdf:RDF>
  </metadata>
  <g
     inkscape:label="Layer 1"
     inkscape:groupmode="layer"
     id="layer1">
    <rect
       style="opacity:0.45;fill:#0c0c0c;fill-opacity:1;stroke:none;stroke-width:0;stroke-linecap:round;stroke-linejoin:round;stroke-miterlimit:4;stroke-dasharray:none;stroke-dashoffset:0;stroke-opacity:1"
       id="rect7326-4-1"
       width="54"
       height="42"
       x="5.000001"
       y="18.5"
       rx="3"
       ry="3" />
    <path
       id="rect7326-2-7-8"
       style="color:#000000;font-style:normal;font-variant:normal;font-weight:normal;font-stretch:normal;font-size:medium;line-height:normal;font-family:sans-serif;font-variant-ligatures:normal;font-variant-position:normal;font-variant-caps:normal;font-variant-numeric:normal;font-variant-alternates:normal;font-variant-east-asian:normal;font-feature-settings:normal;font-variation-settings:normal;text-indent:0;text-align:start;text-decoration:none;text-decoration-line:none;text-decoration-style:solid;text-decoration-color:#000000;letter-spacing:normal;word-spacing:normal;text-transform:none;writing-mode:lr-tb;direction:ltr;text-orientation:mixed;dominant-baseline:auto;baseline-shift:baseline;text-anchor:start;white-space:normal;shape-padding:0;shape-margin:0;inline-size:0;clip-rule:nonzero;display:inline;overflow:visible;visibility:visible;isolation:auto;mix-blend-mode:normal;color-interpolation:sRGB;color-interpolation-filters:linearRGB;solid-color:#000000;solid-opacity:1;vector-effect:none;fill:#946bb3;fill-opacity:1;fill-rule:nonzero;stroke:none;stroke-linecap:round;stroke-linejoin:round;stroke-miterlimit:4;stroke-dasharray:none;stroke-dashoffset:0;stroke-opacity:1;color-rendering:auto;image-rendering:auto;shape-rendering:auto;text-rendering:auto;enable-background:accumulate;stop-color:#000000"
       d="m 8,16.5 c -1.93035,0 -3.5,1.56965 -3.5,3.5 v 36.00001 c 0,1.93034 1.56965,3.5 3.5,3.5 h 48 c 1.93035,0 3.5,-1.56966 3.5,-3.5 V 20 c 0,-1.93035 -1.56965,-3.5 -3.5,-3.5 z m 0,1 h 48 c 1.39365,0 2.5,1.10636 2.5,2.5 v 36.00001 c 0,1.39364 -1.10635,2.5 -2.5,2.5 H 8 c -1.39365,0 -2.5,-1.10636 -2.5,-2.5 V 20 c 0,-1.39364 1.10635,-2.5 2.5,-2.5 z" />
    <rect
       style="fill:url(#linearGradient7723);fill-opacity:1;stroke:none;stroke-width:0;stroke-linecap:round;stroke-linejoin:round;stroke-miterlimit:4;stroke-dasharray:none;stroke-dashoffset:0;stroke-opacity:1"
       id="rect7326-3"
       width="54"
       height="42"
       x="5.000001"
       y="17"
       rx="3"
       ry="3" />
    <path
       id="rect1323-3-5-2-4"
       style="display:inline;opacity:0.125;fill:#0c0c0c;fill-opacity:1;stroke:none;stroke-width:1.0003;stroke-linecap:round;stroke-linejoin:round;stroke-miterlimit:4;stroke-dasharray:none;stroke-dashoffset:2.1875;stroke-opacity:1"
       d="m 25.17568,28 v 0.001 c -0.029,0 -0.057,0.004 -0.0861,0.005 -0.0375,0.001 -0.0748,0.002 -0.11237,0.005 -0.0465,0.004 -0.0923,0.0102 -0.13778,0.0166 -0.029,0.004 -0.0589,0.008 -0.088,0.0127 -0.0566,0.01 -0.11182,0.0232 -0.16705,0.0371 -0.016,0.004 -0.0315,0.007 -0.047,0.0117 -0.0629,0.0172 -0.12493,0.0374 -0.18567,0.0596 -0.009,0.003 -0.018,0.006 -0.0265,0.01 -0.0658,0.0248 -0.13063,0.0528 -0.19347,0.083 -0.005,0.002 -0.008,0.004 -0.0125,0.006 -0.704,0.34414 -1.21102,1.02022 -1.3202,1.82808 -0.007,0.0146 -0.007,0.0293 -0.007,0.0439 -0.005,0.0443 -0.009,0.0887 -0.009,0.13379 -0.007,0.0399 -0.008,0.0803 -0.008,0.12011 -10e-5,0.01 0,0.0179 0,0.0273 v 19.19965 0.0283 c 0,0.0404 0.008,0.0807 0.008,0.12109 0.005,0.044 0.005,0.0885 0.009,0.13183 0,0.0162 0.007,0.0317 0.007,0.0478 0.0774,0.56608 0.35018,1.06675 0.74953,1.43453 0.0577,0.0532 0.11798,0.10304 0.18077,0.15039 0.062,0.0468 0.12593,0.0912 0.19247,0.13182 0.0653,0.0399 0.13199,0.0767 0.20133,0.11035 0.0653,0.0317 0.13278,0.0611 0.20127,0.0869 0.009,0.003 0.018,0.007 0.0265,0.01 0.0595,0.0216 0.12013,0.0416 0.18171,0.0586 0.0195,0.005 0.0395,0.01 0.0596,0.0147 0.0521,0.013 0.10377,0.0247 0.1573,0.0342 0.0315,0.006 0.0638,0.0101 0.0958,0.0147 0.04,0.005 0.0802,0.0101 0.12117,0.0136 0.046,0.004 0.0923,0.006 0.1388,0.008 0.023,10e-4 0.046,0.003 0.0693,0.003 0.01,0 0.0205,-0.002 0.0305,-0.002 0.0485,-4e-4 0.0962,-0.004 0.14464,-0.007 0.031,-0.002 0.0632,-0.004 0.0938,-0.007 0.0365,-0.004 0.0729,-0.0108 0.10942,-0.0166 0.0501,-0.008 0.0996,-0.0155 0.14854,-0.0263 0,0 -2e-4,-10e-4 0.005,-10e-4 0.005,-5e-4 0.009,-0.002 0.009,-0.003 0.23811,-0.0539 0.4614,-0.14322 0.66648,-0.26171 l 0.0125,-0.008 16.47633,-9.50656 c 0,-5e-4 0.006,-4.5e-4 0.006,-10e-4 0.31905,-0.15609 0.60369,-0.38699 0.83258,-0.68065 0.0115,-0.0148 0.024,-0.0298 0.035,-0.0449 0.0305,-0.0409 0.0589,-0.0837 0.087,-0.12695 0.0155,-0.0241 0.032,-0.0486 0.047,-0.0732 0.007,-0.0113 0.0155,-0.0207 0.0225,-0.0322 0.014,-0.0243 0.024,-0.0497 0.037,-0.0742 0.021,-0.0394 0.0415,-0.0788 0.0606,-0.11913 0.013,-0.0286 0.0245,-0.058 0.037,-0.0869 0.017,-0.0414 0.035,-0.0828 0.05,-0.125 0.013,-0.0369 0.025,-0.0732 0.036,-0.11035 0.0105,-0.037 0.0225,-0.0747 0.031,-0.1123 0.009,-0.0363 0.016,-0.0728 0.0235,-0.10937 0.008,-0.0405 0.0165,-0.0802 0.0225,-0.12109 0.005,-0.0391 0.007,-0.0781 0.0125,-0.11718 0.005,-0.0346 0.005,-0.0697 0.009,-0.1045 0.005,-0.0407 0.005,-0.0814 0.005,-0.12206 0,-0.0411 3e-4,-0.0818 -0.005,-0.12304 0,-0.0343 -0.005,-0.0684 -0.009,-0.10254 -0.005,-0.0401 -0.007,-0.0801 -0.0125,-0.12011 -0.006,-0.0395 -0.0135,-0.079 -0.0215,-0.11816 -0.007,-0.0374 -0.0145,-0.0741 -0.0235,-0.11133 -0.009,-0.0368 -0.0205,-0.0731 -0.031,-0.10937 -0.0115,-0.039 -0.023,-0.0776 -0.037,-0.11621 -0.0135,-0.0379 -0.029,-0.076 -0.044,-0.11328 -0.014,-0.0335 -0.0275,-0.0665 -0.043,-0.0996 -0.018,-0.0389 -0.0385,-0.0773 -0.0586,-0.11523 -0.013,-0.0245 -0.024,-0.0491 -0.038,-0.0732 -0.005,-0.0101 -0.0125,-0.0183 -0.0185,-0.0283 -0.018,-0.03 -0.037,-0.0596 -0.0566,-0.0889 -0.026,-0.0395 -0.0511,-0.0788 -0.0791,-0.1162 -0.0105,-0.0139 -0.022,-0.0263 -0.033,-0.04 -0.04,-0.0518 -0.0815,-0.10269 -0.12507,-0.15039 -0.19873,-0.217 -0.43188,-0.39139 -0.68599,-0.51952 L 26.38242,28.32383 C 26.17524,28.20415 25.95,28.11391 25.70914,28.06017 c 0,-5e-4 -0.006,-4.5e-4 -0.006,-10e-4 -0.0552,-0.0122 -0.11152,-0.0218 -0.16805,-0.0302 -0.0265,-0.004 -0.0526,-0.009 -0.0791,-0.0117 -0.038,-0.004 -0.0778,-0.006 -0.11627,-0.009 -0.0435,-0.003 -0.0865,-0.006 -0.12998,-0.007 -0.0105,0 -0.0215,-0.001 -0.031,-0.001 z" />
    <path
       id="rect1323-3-5-22"
       style="display:inline;fill:#fcfcfa;fill-opacity:1;stroke:none;stroke-width:1.0003;stroke-linecap:round;stroke-linejoin:round;stroke-miterlimit:4;stroke-dasharray:none;stroke-dashoffset:2.1875;stroke-opacity:1"
       d="m 24.67568,26 v 0.001 c -0.029,0 -0.057,0.004 -0.0861,0.005 -0.0375,0.001 -0.0748,0.002 -0.11237,0.005 -0.0465,0.004 -0.0923,0.0102 -0.13778,0.0166 -0.029,0.004 -0.0589,0.008 -0.088,0.0127 -0.0566,0.01 -0.11182,0.0232 -0.16705,0.0371 -0.016,0.004 -0.0315,0.007 -0.047,0.0117 -0.0629,0.0172 -0.12493,0.0374 -0.18567,0.0596 -0.009,0.003 -0.018,0.006 -0.0265,0.01 -0.0658,0.0248 -0.13063,0.0528 -0.19347,0.083 -0.005,0.002 -0.008,0.004 -0.0125,0.006 -0.704,0.34414 -1.21102,1.02022 -1.3202,1.82808 -0.007,0.0146 -0.007,0.0293 -0.007,0.0439 -0.005,0.0443 -0.009,0.0887 -0.009,0.13379 -0.007,0.0399 -0.008,0.0803 -0.008,0.12011 -10e-5,0.01 0,0.0179 0,0.0273 v 19.19965 0.0283 c 0,0.0404 0.008,0.0807 0.008,0.12109 0.005,0.044 0.005,0.0885 0.009,0.13183 0,0.0162 0.007,0.0317 0.007,0.0478 0.0774,0.56608 0.35018,1.06675 0.74953,1.43453 0.0577,0.0532 0.11798,0.10304 0.18077,0.15039 0.062,0.0468 0.12593,0.0912 0.19247,0.13182 0.0653,0.0399 0.13199,0.0767 0.20133,0.11035 0.0653,0.0317 0.13278,0.0611 0.20127,0.0869 0.009,0.003 0.018,0.007 0.0265,0.01 0.0595,0.0216 0.12013,0.0416 0.18171,0.0586 0.0195,0.005 0.0395,0.01 0.0596,0.0147 0.0521,0.013 0.10377,0.0247 0.1573,0.0342 0.0315,0.006 0.0638,0.0101 0.0958,0.0147 0.04,0.005 0.0802,0.0101 0.12117,0.0136 0.046,0.004 0.0923,0.006 0.1388,0.008 0.023,10e-4 0.046,0.003 0.0693,0.003 0.01,0 0.0205,-0.002 0.0305,-0.002 0.0485,-4e-4 0.0962,-0.004 0.14464,-0.007 0.031,-0.002 0.0632,-0.004 0.0938,-0.007 0.0365,-0.004 0.0729,-0.0108 0.10942,-0.0166 0.0501,-0.008 0.0996,-0.0155 0.14854,-0.0263 0,0 -2e-4,-10e-4 0.005,-10e-4 0.005,-5e-4 0.009,-0.002 0.009,-0.003 0.23811,-0.0539 0.4614,-0.14322 0.66648,-0.26171 l 0.0125,-0.008 16.47633,-9.50656 c 0,-5e-4 0.006,-4.5e-4 0.006,-10e-4 0.31905,-0.15609 0.60369,-0.38699 0.83258,-0.68064 0.0115,-0.0148 0.024,-0.0297 0.035,-0.0449 0.0305,-0.0409 0.0589,-0.0836 0.087,-0.12695 0.0155,-0.0241 0.032,-0.0486 0.047,-0.0732 0.007,-0.0114 0.0155,-0.0207 0.0225,-0.0322 0.014,-0.0243 0.024,-0.0496 0.037,-0.0742 0.021,-0.0393 0.0415,-0.0788 0.0606,-0.11913 0.013,-0.0286 0.0245,-0.058 0.037,-0.0869 0.017,-0.0414 0.035,-0.0828 0.05,-0.125 0.013,-0.0369 0.025,-0.0732 0.036,-0.11035 0.0105,-0.0371 0.0225,-0.0748 0.031,-0.1123 0.009,-0.0363 0.016,-0.0728 0.0235,-0.10937 0.008,-0.0405 0.0165,-0.0802 0.0225,-0.12109 0.005,-0.0391 0.007,-0.0781 0.0125,-0.11718 0.005,-0.0346 0.005,-0.0697 0.009,-0.10449 0.005,-0.0408 0.005,-0.0814 0.005,-0.12207 0,-0.0411 3e-4,-0.0818 -0.005,-0.12304 0,-0.0343 -0.005,-0.0684 -0.009,-0.10254 -0.005,-0.0401 -0.007,-0.0801 -0.0125,-0.12011 -0.006,-0.0395 -0.0135,-0.079 -0.0215,-0.11816 -0.007,-0.0374 -0.0145,-0.0741 -0.0235,-0.11133 -0.009,-0.0368 -0.0205,-0.0731 -0.031,-0.10937 -0.0115,-0.039 -0.023,-0.0776 -0.037,-0.11621 -0.0135,-0.0379 -0.029,-0.076 -0.044,-0.11328 -0.014,-0.0335 -0.0275,-0.0665 -0.043,-0.0996 -0.018,-0.0389 -0.0385,-0.0773 -0.0586,-0.11523 -0.013,-0.0245 -0.024,-0.0491 -0.038,-0.0732 -0.005,-0.0101 -0.0125,-0.0183 -0.0185,-0.0283 -0.018,-0.03 -0.037,-0.0596 -0.0566,-0.0889 -0.026,-0.0395 -0.0511,-0.0788 -0.0791,-0.1162 -0.0105,-0.0139 -0.022,-0.0263 -0.033,-0.04 -0.04,-0.0518 -0.0815,-0.10269 -0.12507,-0.15039 -0.19873,-0.217 -0.43188,-0.39139 -0.68599,-0.51952 L 25.88242,26.32384 C 25.67524,26.20416 25.45,26.11392 25.20914,26.06018 c 0,-5e-4 -0.006,-4.5e-4 -0.006,-10e-4 -0.0552,-0.0122 -0.11152,-0.0218 -0.16805,-0.0302 -0.0265,-0.004 -0.0526,-0.009 -0.0791,-0.0117 -0.038,-0.004 -0.0778,-0.006 -0.11627,-0.009 -0.0435,-0.003 -0.0865,-0.006 -0.12998,-0.007 -0.0105,0 -0.0215,-0.001 -0.031,-0.001 z" />
  </g>
</svg>
