<?xml version="1.0" encoding="UTF-8" standalone="no"?>
<svg
   xmlns:dc="http://purl.org/dc/elements/1.1/"
   xmlns:cc="http://creativecommons.org/ns#"
   xmlns:rdf="http://www.w3.org/1999/02/22-rdf-syntax-ns#"
   xmlns:svg="http://www.w3.org/2000/svg"
   xmlns="http://www.w3.org/2000/svg"
   xmlns:sodipodi="http://sodipodi.sourceforge.net/DTD/sodipodi-0.dtd"
   xmlns:inkscape="http://www.inkscape.org/namespaces/inkscape"
   width="64"
   height="64"
   viewBox="0 0 16.933333 16.933334"
   version="1.1"
   id="svg841"
   inkscape:version="1.0.2 (e86c870879, 2021-01-15)"
   sodipodi:docname="filter-normal-24.svg">
  <defs
     id="defs835" />
  <sodipodi:namedview
     id="base"
     pagecolor="#c4c4c4"
     bordercolor="#666666"
     borderopacity="1.0"
     inkscape:pageopacity="0"
     inkscape:pageshadow="2"
     inkscape:zoom="7.0365186"
     inkscape:cx="-4.2589711"
     inkscape:cy="49.141872"
     inkscape:document-units="px"
     inkscape:current-layer="layer1"
     inkscape:document-rotation="0"
     showgrid="false"
     units="px"
     inkscape:window-width="2048"
     inkscape:window-height="1080"
     inkscape:window-x="0"
     inkscape:window-y="0"
     inkscape:window-maximized="1" />
  <metadata
     id="metadata838">
    <rdf:RDF>
      <cc:Work
         rdf:about="">
        <dc:format>image/svg+xml</dc:format>
        <dc:type
           rdf:resource="http://purl.org/dc/dcmitype/StillImage" />
        <dc:title />
      </cc:Work>
    </rdf:RDF>
  </metadata>
  <g
     inkscape:label="Layer 1"
     inkscape:groupmode="layer"
     id="layer1">
    <path
       id="rect954-7-0-7-3-0-0-5-1-3-4-5-0-1-4-1-0-1"
       style="color:#000000;font-style:normal;font-variant:normal;font-weight:normal;font-stretch:normal;font-size:medium;line-height:normal;font-family:sans-serif;font-variant-ligatures:normal;font-variant-position:normal;font-variant-caps:normal;font-variant-numeric:normal;font-variant-alternates:normal;font-variant-east-asian:normal;font-feature-settings:normal;font-variation-settings:normal;text-indent:0;text-align:start;text-decoration:none;text-decoration-line:none;text-decoration-style:solid;text-decoration-color:#000000;letter-spacing:normal;word-spacing:normal;text-transform:none;writing-mode:lr-tb;direction:ltr;text-orientation:mixed;dominant-baseline:auto;baseline-shift:baseline;text-anchor:start;white-space:normal;shape-padding:0;shape-margin:0;inline-size:0;clip-rule:nonzero;display:inline;overflow:visible;visibility:visible;opacity:0.15;isolation:auto;mix-blend-mode:normal;color-interpolation:sRGB;color-interpolation-filters:linearRGB;solid-color:#000000;solid-opacity:1;vector-effect:none;fill:#0c0c0c;fill-opacity:1;fill-rule:nonzero;stroke:none;stroke-width:0.264583;stroke-linecap:round;stroke-linejoin:round;stroke-miterlimit:4;stroke-dasharray:none;stroke-dashoffset:2.1875;stroke-opacity:1;color-rendering:auto;image-rendering:auto;shape-rendering:auto;text-rendering:auto;enable-background:accumulate;stop-color:#000000"
       d="m 3.4395834,2.6458334 c -0.652743,0 -1.190625,0.5378979 -1.190625,1.190625 V 13.890625 c 0,0.652754 0.537882,1.190625 1.190625,1.190625 H 13.49375 c 0.652762,0 1.190633,-0.537871 1.190633,-1.190625 V 3.8364584 c 0,-0.6527271 -0.537871,-1.190625 -1.190633,-1.190625 z m 0,0.79375 H 13.49375 c 0.226722,0 0.396875,0.1701536 0.396875,0.396875 V 13.890625 c 0,0.226748 -0.170153,0.396875 -0.396875,0.396875 H 3.4395834 c -0.2267347,0 -0.396875,-0.170127 -0.396875,-0.396875 V 3.8364584 c 0,-0.2267214 0.1701403,-0.396875 0.396875,-0.396875 z" />
    <path
       id="rect954-7-0-7-3-0-0-5-1-3-4-5-0-6-3-7-5"
       style="color:#000000;font-style:normal;font-variant:normal;font-weight:normal;font-stretch:normal;font-size:medium;line-height:normal;font-family:sans-serif;font-variant-ligatures:normal;font-variant-position:normal;font-variant-caps:normal;font-variant-numeric:normal;font-variant-alternates:normal;font-variant-east-asian:normal;font-feature-settings:normal;font-variation-settings:normal;text-indent:0;text-align:start;text-decoration:none;text-decoration-line:none;text-decoration-style:solid;text-decoration-color:#000000;letter-spacing:normal;word-spacing:normal;text-transform:none;writing-mode:lr-tb;direction:ltr;text-orientation:mixed;dominant-baseline:auto;baseline-shift:baseline;text-anchor:start;white-space:normal;shape-padding:0;shape-margin:0;inline-size:0;clip-rule:nonzero;display:inline;overflow:visible;visibility:visible;opacity:0.95;isolation:auto;mix-blend-mode:normal;color-interpolation:sRGB;color-interpolation-filters:linearRGB;solid-color:#000000;solid-opacity:1;vector-effect:none;fill:#414143;fill-opacity:1;fill-rule:nonzero;stroke:none;stroke-width:0.264583;stroke-linecap:round;stroke-linejoin:round;stroke-miterlimit:4;stroke-dasharray:none;stroke-dashoffset:2.1875;stroke-opacity:1;color-rendering:auto;image-rendering:auto;shape-rendering:auto;text-rendering:auto;enable-background:accumulate;stop-color:#000000"
       d="m 3.4395834,2.2489584 c -0.652743,0 -1.190625,0.5378979 -1.190625,1.190625 V 13.49375 c 0,0.652754 0.537882,1.190625 1.190625,1.190625 H 13.49375 c 0.652754,0 1.190625,-0.537871 1.190625,-1.190625 V 3.4395834 c 0,-0.6527271 -0.537871,-1.190625 -1.190625,-1.190625 z m 0,0.79375 H 13.49375 c 0.226722,0 0.396875,0.1701536 0.396875,0.396875 V 13.49375 c 0,0.226748 -0.170153,0.396875 -0.396875,0.396875 H 3.4395834 c -0.2267347,0 -0.396875,-0.170127 -0.396875,-0.396875 V 3.4395834 c 0,-0.2267214 0.1701403,-0.396875 0.396875,-0.396875 z" />
    <rect
       style="fill:#fbfaf9;fill-opacity:1;stroke-width:0.130969;stroke-linecap:round;stroke-linejoin:round;stroke-miterlimit:4;stroke-dasharray:none;stroke-dashoffset:2.1875"
       id="rect954-7-0-7-3-0-0-5-1-3-4-9-1-5-5"
       width="11.641668"
       height="11.641668"
       x="2.6458173"
       y="2.6458333"
       rx="0.79375011"
       ry="0.79375011" />
    <rect
       style="fill:#323234;fill-opacity:1;stroke:none;stroke-width:0;stroke-linecap:round;stroke-linejoin:round;stroke-miterlimit:4;stroke-dasharray:none;stroke-dashoffset:2.1875;stroke-opacity:1"
       id="rect3498-7-4-7-8-4"
       width="1.8520833"
       height="1.0583334"
       x="10.583333"
       y="10.980208"
       rx="0.5291667"
       ry="0.5291667" />
    <rect
       style="fill:#323234;fill-opacity:1;stroke:none;stroke-width:0;stroke-linecap:round;stroke-linejoin:round;stroke-miterlimit:4;stroke-dasharray:none;stroke-dashoffset:2.1875;stroke-opacity:1"
       id="rect3498-5"
       width="7.9375"
       height="1.0583334"
       x="4.4979167"
       y="5.0270834"
       rx="0.5291667"
       ry="0.5291667" />
    <rect
       style="fill:#323234;fill-opacity:1;stroke:none;stroke-width:0;stroke-linecap:round;stroke-linejoin:round;stroke-miterlimit:4;stroke-dasharray:none;stroke-dashoffset:2.1875;stroke-opacity:1"
       id="rect3498-7-4"
       width="2.3812501"
       height="1.0583334"
       x="4.4979167"
       y="8.0036459"
       rx="0.5291667"
       ry="0.5291667" />
    <rect
       style="fill:#323234;fill-opacity:1;stroke:none;stroke-width:0;stroke-linecap:round;stroke-linejoin:round;stroke-miterlimit:4;stroke-dasharray:none;stroke-dashoffset:2.1875;stroke-opacity:1"
       id="rect3498-7-4-7"
       width="1.8520833"
       height="1.0583334"
       x="7.6729164"
       y="8.0036459"
       rx="0.5291667"
       ry="0.5291667" />
    <rect
       style="fill:#323234;fill-opacity:1;stroke:none;stroke-width:0;stroke-linecap:round;stroke-linejoin:round;stroke-miterlimit:4;stroke-dasharray:none;stroke-dashoffset:2.1875;stroke-opacity:1"
       id="rect3498-7-4-7-8"
       width="2.1166668"
       height="1.0583334"
       x="10.31875"
       y="8.0036459"
       rx="0.5291667"
       ry="0.5291667" />
    <rect
       style="fill:#323234;fill-opacity:1;stroke:none;stroke-width:0;stroke-linecap:round;stroke-linejoin:round;stroke-miterlimit:4;stroke-dasharray:none;stroke-dashoffset:2.1875;stroke-opacity:1"
       id="rect3498-7-4-6"
       width="2.1166668"
       height="1.0583334"
       x="4.4979167"
       y="10.980208"
       rx="0.5291667"
       ry="0.5291667" />
    <rect
       style="fill:#323234;fill-opacity:1;stroke:none;stroke-width:0;stroke-linecap:round;stroke-linejoin:round;stroke-miterlimit:4;stroke-dasharray:none;stroke-dashoffset:2.1875;stroke-opacity:1"
       id="rect3498-7-4-7-88"
       width="2.3812501"
       height="1.0583334"
       x="7.4083338"
       y="10.980208"
       rx="0.5291667"
       ry="0.5291667" />
  </g>
</svg>
