<?xml version="1.0" encoding="UTF-8" standalone="no"?>
<svg
   xmlns:dc="http://purl.org/dc/elements/1.1/"
   xmlns:cc="http://creativecommons.org/ns#"
   xmlns:rdf="http://www.w3.org/1999/02/22-rdf-syntax-ns#"
   xmlns:svg="http://www.w3.org/2000/svg"
   xmlns="http://www.w3.org/2000/svg"
   xmlns:sodipodi="http://sodipodi.sourceforge.net/DTD/sodipodi-0.dtd"
   xmlns:inkscape="http://www.inkscape.org/namespaces/inkscape"
   width="64"
   height="64"
   viewBox="0 0 64 64"
   version="1.1"
   id="svg6374"
   inkscape:version="1.0.2 (e86c870879, 2021-01-15)"
   sodipodi:docname="go-top.svg">
  <defs
     id="defs6368" />
  <sodipodi:namedview
     id="base"
     pagecolor="#cecece"
     bordercolor="#666666"
     borderopacity="1.0"
     inkscape:pageopacity="0"
     inkscape:pageshadow="2"
     inkscape:zoom="6.8818909"
     inkscape:cx="20.896034"
     inkscape:cy="43.723975"
     inkscape:document-units="px"
     inkscape:current-layer="layer1"
     inkscape:document-rotation="0"
     showgrid="false"
     units="px"
     inkscape:window-width="1500"
     inkscape:window-height="970"
     inkscape:window-x="68"
     inkscape:window-y="56"
     inkscape:window-maximized="0" />
  <metadata
     id="metadata6371">
    <rdf:RDF>
      <cc:Work
         rdf:about="">
        <dc:format>image/svg+xml</dc:format>
        <dc:type
           rdf:resource="http://purl.org/dc/dcmitype/StillImage" />
        <dc:title />
      </cc:Work>
    </rdf:RDF>
  </metadata>
  <g
     inkscape:label="Layer 1"
     inkscape:groupmode="layer"
     id="layer1">
    <path
       style="color:#000000;font-style:normal;font-variant:normal;font-weight:normal;font-stretch:normal;font-size:medium;line-height:normal;font-family:sans-serif;font-variant-ligatures:normal;font-variant-position:normal;font-variant-caps:normal;font-variant-numeric:normal;font-variant-alternates:normal;font-variant-east-asian:normal;font-feature-settings:normal;font-variation-settings:normal;text-indent:0;text-align:start;text-decoration:none;text-decoration-line:none;text-decoration-style:solid;text-decoration-color:#000000;letter-spacing:normal;word-spacing:normal;text-transform:none;writing-mode:lr-tb;direction:ltr;text-orientation:mixed;dominant-baseline:auto;baseline-shift:baseline;text-anchor:start;white-space:normal;shape-padding:0;shape-margin:0;inline-size:0;clip-rule:nonzero;display:inline;overflow:visible;visibility:visible;opacity:0.075;isolation:auto;mix-blend-mode:normal;color-interpolation:sRGB;color-interpolation-filters:linearRGB;solid-color:#000000;solid-opacity:1;vector-effect:none;fill:#0c0c0c;fill-opacity:1;fill-rule:nonzero;stroke:none;stroke-width:0.94491;stroke-linecap:butt;stroke-linejoin:miter;stroke-miterlimit:4;stroke-dasharray:none;stroke-dashoffset:0;stroke-opacity:1;color-rendering:auto;image-rendering:auto;shape-rendering:auto;text-rendering:auto;enable-background:accumulate;stop-color:#000000"
       d="M 7.0504136,13 C 5.6550276,13 4.5,11.84672 4.5,10.45121 V 4.05063 C 4.5,2.65513 5.6550276,1.5 7.0504136,1.5 H 56.949587 c 1.395387,0 2.550415,1.15513 2.550415,2.55063 v 6.40058 C 59.500002,11.84672 58.344974,13 56.949587,13 Z m 0,-1.9988 H 56.949587 c 0.321995,0 0.549945,-0.22797 0.549945,-0.54999 V 4.05063 c 0,-0.32202 -0.22795,-0.54999 -0.549945,-0.54999 H 7.0504136 c -0.321993,0 -0.549944,0.22797 -0.549944,0.54999 v 6.40058 c 0,0.32202 0.227951,0.54999 0.549944,0.54999 z"
       id="rect850-3-2-0" />
    <rect
       style="fill:#978ee1;fill-opacity:1;stroke-width:8.9881"
       id="rect850-6"
       width="53"
       height="9.5"
       x="5.4999981"
       y="-11"
       rx="1.5500001"
       ry="1.5500001"
       transform="scale(1,-1)" />
    <path
       style="color:#000000;font-style:normal;font-variant:normal;font-weight:normal;font-stretch:normal;font-size:medium;line-height:normal;font-family:sans-serif;font-variant-ligatures:normal;font-variant-position:normal;font-variant-caps:normal;font-variant-numeric:normal;font-variant-alternates:normal;font-variant-east-asian:normal;font-feature-settings:normal;font-variation-settings:normal;text-indent:0;text-align:start;text-decoration:none;text-decoration-line:none;text-decoration-style:solid;text-decoration-color:#000000;letter-spacing:normal;word-spacing:normal;text-transform:none;writing-mode:lr-tb;direction:ltr;text-orientation:mixed;dominant-baseline:auto;baseline-shift:baseline;text-anchor:start;white-space:normal;shape-padding:0;shape-margin:0;inline-size:0;clip-rule:nonzero;display:inline;overflow:visible;visibility:visible;opacity:0.85;isolation:auto;mix-blend-mode:normal;color-interpolation:sRGB;color-interpolation-filters:linearRGB;solid-color:#000000;solid-opacity:1;vector-effect:none;fill:#322791;fill-opacity:1;fill-rule:nonzero;stroke:none;stroke-width:0.94491;stroke-linecap:butt;stroke-linejoin:miter;stroke-miterlimit:4;stroke-dasharray:none;stroke-dashoffset:0;stroke-opacity:1;color-rendering:auto;image-rendering:auto;shape-rendering:auto;text-rendering:auto;enable-background:accumulate;stop-color:#000000"
       d="M 7.0504136,12 C 5.6550286,12 4.5000002,10.84672 4.5000002,9.45121 V 3.05063 C 4.5000002,1.65513 5.6550286,0.5 7.0504136,0.5 H 56.949587 c 1.395387,0 2.550415,1.15513 2.550415,2.55063 V 9.45121 C 59.500002,10.84672 58.344974,12 56.949587,12 Z m 0,-1.9988 H 56.949587 c 0.321995,0 0.549945,-0.22797 0.549945,-0.54999 V 3.05063 c 0,-0.32202 -0.22795,-0.54999 -0.549945,-0.54999 H 7.0504136 c -0.321992,0 -0.549943,0.22797 -0.549943,0.54999 v 6.40058 c 0,0.32202 0.227951,0.54999 0.549943,0.54999 z"
       id="rect850-3-1" />
    <path
       id="path1113-1-0-6-8-3-2-5-4-0-7-1-1-1-5"
       style="color:#000000;font-style:normal;font-variant:normal;font-weight:normal;font-stretch:normal;font-size:medium;line-height:normal;font-family:sans-serif;font-variant-ligatures:normal;font-variant-position:normal;font-variant-caps:normal;font-variant-numeric:normal;font-variant-alternates:normal;font-variant-east-asian:normal;font-feature-settings:normal;font-variation-settings:normal;text-indent:0;text-align:start;text-decoration:none;text-decoration-line:none;text-decoration-style:solid;text-decoration-color:#000000;letter-spacing:normal;word-spacing:normal;text-transform:none;writing-mode:lr-tb;direction:ltr;text-orientation:mixed;dominant-baseline:auto;baseline-shift:baseline;text-anchor:start;white-space:normal;shape-padding:0;shape-margin:0;inline-size:0;clip-rule:nonzero;display:inline;overflow:visible;visibility:visible;opacity:0.075;isolation:auto;mix-blend-mode:normal;color-interpolation:sRGB;color-interpolation-filters:linearRGB;solid-color:#000000;solid-opacity:1;vector-effect:none;fill:#0c0c0c;fill-opacity:1;fill-rule:nonzero;stroke:none;stroke-width:1.268;stroke-linecap:round;stroke-linejoin:round;stroke-miterlimit:4;stroke-dasharray:none;stroke-dashoffset:0;stroke-opacity:1;color-rendering:auto;image-rendering:auto;shape-rendering:auto;text-rendering:auto;enable-background:accumulate;stop-color:#000000"
       d="m 32.011488,15.5 c -0.604248,0 -1.209274,0.27328 -1.591793,0.82021 L 16.356046,36.42795 c -0.239235,0.34185 -0.364123,0.75426 -0.35564,1.17531 0.02146,1.0699 0.906178,1.92814 1.947433,1.928 h 4.336326 3.360176 v 21.47309 c 0,1.36655 1.107438,2.49565 2.447774,2.49565 h 7.836311 c 1.340323,0 2.447749,-1.1291 2.447749,-2.49565 V 39.53126 h 3.360201 4.336326 c 1.508242,-5.9e-4 2.472044,-1.84562 1.591793,-3.10331 L 33.600834,16.32021 C 33.218327,15.77328 32.615723,15.5 32.011488,15.5 Z m 0,1.898 c 0.01983,0 0.0384,0.0115 0.05635,0.0375 l 14.061227,20.10775 c 0.05421,0.0773 0.0635,0.0675 -0.05647,0.0675 H 41.736269 37.434251 A 0.94192325,0.9603462 0 0 0 36.492435,38.571 v 22.43333 c 0,0.3358 -0.234767,0.57516 -0.564104,0.57516 h -7.83631 c -0.329362,0 -0.564117,-0.23936 -0.564117,-0.57516 V 38.571 a 0.94192325,0.9603462 0 0 0 -0.941841,-0.96025 h -4.301992 -4.336327 c -0.05446,0 -0.06576,-0.0179 -0.06626,-0.0451 -1.25e-4,-0.006 0.0012,-0.0142 0.0075,-0.0225 L 31.952658,17.4354 c 0.01807,-0.0259 0.03903,-0.0375 0.05886,-0.0375 z" />
    <path
       id="path1113-1-0-6-8-3-2-5-4-3-0-5"
       style="color:#000000;font-style:normal;font-variant:normal;font-weight:normal;font-stretch:normal;font-size:medium;line-height:normal;font-family:sans-serif;font-variant-ligatures:normal;font-variant-position:normal;font-variant-caps:normal;font-variant-numeric:normal;font-variant-alternates:normal;font-variant-east-asian:normal;font-feature-settings:normal;font-variation-settings:normal;text-indent:0;text-align:start;text-decoration:none;text-decoration-line:none;text-decoration-style:solid;text-decoration-color:#000000;letter-spacing:normal;word-spacing:normal;text-transform:none;writing-mode:lr-tb;direction:ltr;text-orientation:mixed;dominant-baseline:auto;baseline-shift:baseline;text-anchor:start;white-space:normal;shape-padding:0;shape-margin:0;inline-size:0;clip-rule:nonzero;display:inline;overflow:visible;visibility:visible;isolation:auto;mix-blend-mode:normal;color-interpolation:sRGB;color-interpolation-filters:linearRGB;solid-color:#000000;solid-opacity:1;vector-effect:none;fill:#978ee1;fill-opacity:1;fill-rule:nonzero;stroke:none;stroke-width:0;stroke-linecap:round;stroke-linejoin:round;stroke-miterlimit:4;stroke-dasharray:none;stroke-dashoffset:0;stroke-opacity:1;color-rendering:auto;image-rendering:auto;shape-rendering:auto;text-rendering:auto;enable-background:accumulate;stop-color:#000000"
       d="m 28.084761,61.54 c -0.834259,0 -1.505895,-0.68507 -1.505895,-1.53601 V 37.57834 h -4.296922 -4.335172 a 1.0054581,1.007189 0 0 1 -1.00539,-0.98701 1.0054581,1.007189 0 0 1 0.181798,-0.59821 L 31.176953,15.88945 a 1.0054581,1.007189 0 0 1 1.647197,0 l 14.052618,20.10367 a 1.0054581,1.007189 0 0 1 -0.823002,1.58522 h -4.334457 -4.298228 v 22.42565 c 0,0.85094 -0.671636,1.53601 -1.505894,1.53601 z" />
    <path
       id="path1113-1-0-6-8-3-2-5-4-0-7-1-63-4"
       style="color:#000000;font-style:normal;font-variant:normal;font-weight:normal;font-stretch:normal;font-size:medium;line-height:normal;font-family:sans-serif;font-variant-ligatures:normal;font-variant-position:normal;font-variant-caps:normal;font-variant-numeric:normal;font-variant-alternates:normal;font-variant-east-asian:normal;font-feature-settings:normal;font-variation-settings:normal;text-indent:0;text-align:start;text-decoration:none;text-decoration-line:none;text-decoration-style:solid;text-decoration-color:#000000;letter-spacing:normal;word-spacing:normal;text-transform:none;writing-mode:lr-tb;direction:ltr;text-orientation:mixed;dominant-baseline:auto;baseline-shift:baseline;text-anchor:start;white-space:normal;shape-padding:0;shape-margin:0;inline-size:0;clip-rule:nonzero;display:inline;overflow:visible;visibility:visible;opacity:0.85;isolation:auto;mix-blend-mode:normal;color-interpolation:sRGB;color-interpolation-filters:linearRGB;solid-color:#000000;solid-opacity:1;vector-effect:none;fill:#322791;fill-opacity:1;fill-rule:nonzero;stroke:none;stroke-width:1.268;stroke-linecap:round;stroke-linejoin:round;stroke-miterlimit:4;stroke-dasharray:none;stroke-dashoffset:0;stroke-opacity:1;color-rendering:auto;image-rendering:auto;shape-rendering:auto;text-rendering:auto;enable-background:accumulate;stop-color:#000000"
       d="m 32.011488,14.5 c -0.604248,0 -1.209274,0.27328 -1.591793,0.82021 L 16.356046,35.42795 c -0.239235,0.34185 -0.364123,0.75426 -0.35564,1.17531 0.02146,1.0699 0.906178,1.92814 1.947433,1.928 h 4.336326 3.360176 v 21.47309 c 0,1.36655 1.107438,2.49565 2.447774,2.49565 h 7.836311 c 1.340323,0 2.447749,-1.1291 2.447749,-2.49565 V 38.53126 h 3.360201 4.336326 c 1.508242,-5.9e-4 2.472044,-1.84562 1.591793,-3.10331 L 33.600834,15.32021 C 33.218327,14.77328 32.615723,14.5 32.011488,14.5 Z m 0,1.898 c 0.01983,0 0.0384,0.0115 0.05635,0.0375 l 14.061227,20.10775 c 0.05421,0.0773 0.0635,0.0675 -0.05647,0.0675 H 41.736269 37.434251 A 0.94192325,0.9603462 0 0 0 36.492435,37.571 v 22.43333 c 0,0.3358 -0.234767,0.57516 -0.564104,0.57516 h -7.83631 c -0.329362,0 -0.564117,-0.23936 -0.564117,-0.57516 V 37.571 a 0.94192325,0.9603462 0 0 0 -0.941841,-0.96025 h -4.301992 -4.336327 c -0.05446,0 -0.06576,-0.0179 -0.06626,-0.0451 -1.25e-4,-0.006 0.0012,-0.0142 0.0075,-0.0225 L 31.952658,16.4354 c 0.01807,-0.0259 0.03903,-0.0375 0.05886,-0.0375 z" />
  </g>
</svg>
