<?xml version="1.0" encoding="UTF-8" standalone="no"?>
<svg
   xmlns:dc="http://purl.org/dc/elements/1.1/"
   xmlns:cc="http://creativecommons.org/ns#"
   xmlns:rdf="http://www.w3.org/1999/02/22-rdf-syntax-ns#"
   xmlns:svg="http://www.w3.org/2000/svg"
   xmlns="http://www.w3.org/2000/svg"
   xmlns:sodipodi="http://sodipodi.sourceforge.net/DTD/sodipodi-0.dtd"
   xmlns:inkscape="http://www.inkscape.org/namespaces/inkscape"
   width="64"
   height="64"
   viewBox="0 0 64 64"
   version="1.1"
   id="svg6374"
   inkscape:version="1.0.2 (e86c870879, 2021-01-15)"
   sodipodi:docname="object-rotate-right.svg">
  <defs
     id="defs6368" />
  <sodipodi:namedview
     id="base"
     pagecolor="#cecece"
     bordercolor="#666666"
     borderopacity="1.0"
     inkscape:pageopacity="0"
     inkscape:pageshadow="2"
     inkscape:zoom="6.8818909"
     inkscape:cx="20.896034"
     inkscape:cy="43.578666"
     inkscape:document-units="px"
     inkscape:current-layer="layer1"
     inkscape:document-rotation="0"
     showgrid="false"
     units="px"
     inkscape:window-width="1500"
     inkscape:window-height="970"
     inkscape:window-x="68"
     inkscape:window-y="56"
     inkscape:window-maximized="0" />
  <metadata
     id="metadata6371">
    <rdf:RDF>
      <cc:Work
         rdf:about="">
        <dc:format>image/svg+xml</dc:format>
        <dc:type
           rdf:resource="http://purl.org/dc/dcmitype/StillImage" />
        <dc:title></dc:title>
      </cc:Work>
    </rdf:RDF>
  </metadata>
  <g
     inkscape:label="Layer 1"
     inkscape:groupmode="layer"
     id="layer1">
    <path
       style="color:#000000;font-style:normal;font-variant:normal;font-weight:normal;font-stretch:normal;font-size:medium;line-height:normal;font-family:sans-serif;font-variant-ligatures:normal;font-variant-position:normal;font-variant-caps:normal;font-variant-numeric:normal;font-variant-alternates:normal;font-variant-east-asian:normal;font-feature-settings:normal;font-variation-settings:normal;text-indent:0;text-align:start;text-decoration:none;text-decoration-line:none;text-decoration-style:solid;text-decoration-color:#000000;letter-spacing:normal;word-spacing:normal;text-transform:none;writing-mode:lr-tb;direction:ltr;text-orientation:mixed;dominant-baseline:auto;baseline-shift:baseline;text-anchor:start;white-space:normal;shape-padding:0;shape-margin:0;inline-size:0;clip-rule:nonzero;display:inline;overflow:visible;visibility:visible;opacity:0.075;isolation:auto;mix-blend-mode:normal;color-interpolation:sRGB;color-interpolation-filters:linearRGB;solid-color:#000000;solid-opacity:1;vector-effect:none;fill:#0c0c0c;fill-opacity:1;fill-rule:nonzero;stroke:none;stroke-width:0.945087;stroke-linecap:round;stroke-linejoin:round;stroke-miterlimit:4;stroke-dasharray:none;stroke-dashoffset:0;stroke-opacity:1;color-rendering:auto;image-rendering:auto;shape-rendering:auto;text-rendering:auto;enable-background:accumulate;stop-color:#000000"
       d="m 35.309298,4.8122611 c 0.36922,0.009 0.72799,0.1276 1.03025,0.33956 l 17.45864,12.2389099 c 1.03975,0.7292 1.03975,2.3416 0,3.0708 l -17.45864,12.23707 c -1.19453,0.83777 -2.95185,-0.0776 -2.95225,-1.5354 v -3.77391 -0.67912 -1.86758 c -5.04108,0.39579 -9.47606,3.45102 -11.43601,8.18081 -2.09785,5.06263 -0.94802,10.83894 2.92825,14.71363 2.58291,2.58186 6.01112,3.95027 9.51031,3.95846 a 1.0005501,1.0000786 0 0 1 0.99884,1.00022 v 9.49106 a 1.0005501,1.0000786 0 0 1 -1.00254,1.00023 c -6.49262,-0.0157 -12.87806,-2.55386 -17.64327,-7.31715 -7.1429299,-7.14004 -9.2864399,-17.91896 -5.42075,-27.24781 3.73076,-9.00319 12.38596,-14.94787 22.06517,-15.35586 v -2.06134 -0.74187 -3.7757499 c -1.6e-4,-1.00744 0.82555,-1.84969 1.83338,-1.87311 h 0.002 c 0.002,-4e-5 0.002,-0.002 0.004,-0.002 0.0123,-2.5e-4 0.0247,0 0.0369,0 h 0.0406 a 1.0005501,1.0000786 0 0 1 0.006,0 z m 0.0794,2.11487 v 3.5358399 0.74187 2.98222 0.002 a 1.0005501,1.0000786 0 0 1 -0.99885,1.00022 c -9.27901,0.0164 -17.66767,5.62721 -21.21957,14.19876 -3.5571099,8.58418 -1.58393,18.49837 4.98871,25.06837 4.13702,4.13533 9.60595,6.37086 15.22831,6.63064 v -7.49062 c -3.66498,-0.24745 -7.20988,-1.73276 -9.92203,-4.4438 -4.44121,-4.43941 -5.76563,-11.09468 -3.36212,-16.89494 2.39774,-5.7863 8.02053,-9.54861 14.283,-9.56672 a 1.0005501,1.0000786 0 0 1 1.00255,0.99838 v 3.02097 0.67913 3.53399 l 17.1171,-11.99716 z"
       id="rect867-2-7-5-7-3-7-7" />
    <path
       id="rect867-2-7-5-7-1"
       style="display:inline;fill:#e187ca;fill-opacity:1;stroke:none;stroke-width:2.00005;stroke-linecap:round;stroke-miterlimit:4;stroke-dasharray:none;stroke-opacity:1"
       d="m 35.273738,3.8123611 a 0.87428924,0.87556517 0 0 1 0.47998,0.15821 l 17.45167,12.2384599 a 0.87428924,0.87556517 0 0 1 0,1.43416 l -17.45167,12.23699 a 0.87428924,0.87556517 0 0 1 -1.37597,-0.71683 v -3.77413 -0.67875 -3.02019 c -5.86157,0.017 -11.11025,3.53229 -13.35449,8.95069 -2.24967,5.43152 -1.0138,11.64746 3.14306,15.80457 2.77006,2.7702 6.45429,4.24143 10.21143,4.25023 v 9.49123 c -6.23079,-0.0151 -12.35689,-2.44977 -16.92969,-7.02284 -6.8547,-6.85512 -8.9123799,-17.20249 -5.20264,-26.15914 3.7043,-8.94351 12.45517,-14.79908 22.13233,-14.81623 v -10e-4 -2.9830699 -0.74174 -3.77511 a 0.87428924,0.87556517 0 0 1 0.85693,-0.87554 0.87428924,0.87556517 0 0 1 0.0386,0 z" />
    <path
       style="color:#000000;font-style:normal;font-variant:normal;font-weight:normal;font-stretch:normal;font-size:medium;line-height:normal;font-family:sans-serif;font-variant-ligatures:normal;font-variant-position:normal;font-variant-caps:normal;font-variant-numeric:normal;font-variant-alternates:normal;font-variant-east-asian:normal;font-feature-settings:normal;font-variation-settings:normal;text-indent:0;text-align:start;text-decoration:none;text-decoration-line:none;text-decoration-style:solid;text-decoration-color:#000000;letter-spacing:normal;word-spacing:normal;text-transform:none;writing-mode:lr-tb;direction:ltr;text-orientation:mixed;dominant-baseline:auto;baseline-shift:baseline;text-anchor:start;white-space:normal;shape-padding:0;shape-margin:0;inline-size:0;clip-rule:nonzero;display:inline;overflow:visible;visibility:visible;opacity:0.95;isolation:auto;mix-blend-mode:normal;color-interpolation:sRGB;color-interpolation-filters:linearRGB;solid-color:#000000;solid-opacity:1;vector-effect:none;fill:#721d5c;fill-opacity:1;fill-rule:nonzero;stroke:none;stroke-width:0.945087;stroke-linecap:round;stroke-linejoin:round;stroke-miterlimit:4;stroke-dasharray:none;stroke-dashoffset:0;stroke-opacity:1;color-rendering:auto;image-rendering:auto;shape-rendering:auto;text-rendering:auto;enable-background:accumulate;stop-color:#000000"
       d="m 35.309298,2.8122611 c 0.36922,0.009 0.72799,0.1276 1.03025,0.33956 l 17.45864,12.2389099 c 1.03975,0.7292 1.03975,2.3416 0,3.0708 l -17.45864,12.23707 c -1.19453,0.83777 -2.95185,-0.0776 -2.95225,-1.5354 v -3.77391 -0.67912 -1.86758 c -5.04108,0.39579 -9.47606,3.45102 -11.43601,8.18081 -2.09785,5.06263 -0.94802,10.83894 2.92825,14.71363 2.58291,2.58186 6.01112,3.95027 9.51031,3.95846 a 1.0005501,1.0000786 0 0 1 0.99884,1.00022 v 9.49106 a 1.0005501,1.0000786 0 0 1 -1.00254,1.00023 c -6.49262,-0.0157 -12.87806,-2.55386 -17.64327,-7.31715 -7.1429299,-7.14004 -9.2864399,-17.91896 -5.42075,-27.24781 3.73076,-9.00319 12.38596,-14.94787 22.06517,-15.35586 v -2.0613399 -0.74187 -3.77575 c -1.6e-4,-1.00744 0.82555,-1.84969 1.83338,-1.87311 h 0.002 c 0.002,-4e-5 0.002,-0.002 0.004,-0.002 0.0123,-2.5e-4 0.0247,0 0.0369,0 h 0.0406 a 1.0005501,1.0000786 0 0 1 0.006,0 z m 0.0794,2.11487 v 3.53584 0.74187 2.9822199 0.002 a 1.0005501,1.0000786 0 0 1 -0.99885,1.00022 c -9.27901,0.0164 -17.66767,5.62721 -21.21957,14.19876 -3.5571099,8.58418 -1.58393,18.49837 4.98871,25.06837 4.13702,4.13533 9.60595,6.37086 15.22831,6.63064 v -7.49062 c -3.66498,-0.24745 -7.20988,-1.73276 -9.92203,-4.4438 -4.44121,-4.43941 -5.76563,-11.09468 -3.36212,-16.89494 2.39774,-5.7863 8.02053,-9.54861 14.283,-9.56672 a 1.0005501,1.0000786 0 0 1 1.00255,0.99838 v 3.02097 0.67913 3.53399 l 17.1171,-11.99716 z"
       id="rect867-2-7-5-7-3-1" />
  </g>
</svg>
