<?xml version="1.0" encoding="UTF-8" standalone="no"?>
<svg
   xmlns:dc="http://purl.org/dc/elements/1.1/"
   xmlns:cc="http://creativecommons.org/ns#"
   xmlns:rdf="http://www.w3.org/1999/02/22-rdf-syntax-ns#"
   xmlns:svg="http://www.w3.org/2000/svg"
   xmlns="http://www.w3.org/2000/svg"
   xmlns:xlink="http://www.w3.org/1999/xlink"
   xmlns:sodipodi="http://sodipodi.sourceforge.net/DTD/sodipodi-0.dtd"
   xmlns:inkscape="http://www.inkscape.org/namespaces/inkscape"
   width="64"
   height="64"
   viewBox="0 0 64 64"
   version="1.1"
   id="svg6374"
   inkscape:version="1.0.2 (e86c870879, 2021-01-15)"
   sodipodi:docname="object-select.svg">
  <defs
     id="defs6368">
    <linearGradient
       inkscape:collect="always"
       xlink:href="#linearGradient877"
       id="linearGradient1810"
       x1="628.31403"
       y1="711.99969"
       x2="627.76831"
       y2="753.29602"
       gradientUnits="userSpaceOnUse"
       gradientTransform="translate(-600,-700)" />
    <linearGradient
       inkscape:collect="always"
       id="linearGradient877">
      <stop
         style="stop-color:#16c5a0;stop-opacity:1"
         offset="0"
         id="stop873" />
      <stop
         style="stop-color:#13ae8d;stop-opacity:1"
         offset="1"
         id="stop875" />
    </linearGradient>
  </defs>
  <sodipodi:namedview
     id="base"
     pagecolor="#cecece"
     bordercolor="#666666"
     borderopacity="1.0"
     inkscape:pageopacity="0"
     inkscape:pageshadow="2"
     inkscape:zoom="6.9370665"
     inkscape:cx="21.75777"
     inkscape:cy="50.960064"
     inkscape:document-units="px"
     inkscape:current-layer="layer1"
     inkscape:document-rotation="0"
     showgrid="false"
     units="px"
     inkscape:window-width="1500"
     inkscape:window-height="970"
     inkscape:window-x="68"
     inkscape:window-y="56"
     inkscape:window-maximized="0" />
  <metadata
     id="metadata6371">
    <rdf:RDF>
      <cc:Work
         rdf:about="">
        <dc:format>image/svg+xml</dc:format>
        <dc:type
           rdf:resource="http://purl.org/dc/dcmitype/StillImage" />
        <dc:title />
      </cc:Work>
    </rdf:RDF>
  </metadata>
  <g
     inkscape:label="Layer 1"
     inkscape:groupmode="layer"
     id="layer1">
    <path
       id="rect16-6-1-7-6-7-6-1-5"
       style="color:#000000;font-style:normal;font-variant:normal;font-weight:normal;font-stretch:normal;font-size:medium;line-height:normal;font-family:sans-serif;font-variant-ligatures:normal;font-variant-position:normal;font-variant-caps:normal;font-variant-numeric:normal;font-variant-alternates:normal;font-variant-east-asian:normal;font-feature-settings:normal;font-variation-settings:normal;text-indent:0;text-align:start;text-decoration:none;text-decoration-line:none;text-decoration-style:solid;text-decoration-color:#000000;letter-spacing:normal;word-spacing:normal;text-transform:none;writing-mode:lr-tb;direction:ltr;text-orientation:mixed;dominant-baseline:auto;baseline-shift:baseline;text-anchor:start;white-space:normal;shape-padding:0;shape-margin:0;inline-size:0;clip-rule:nonzero;display:inline;overflow:visible;visibility:visible;opacity:0.075;isolation:auto;mix-blend-mode:normal;color-interpolation:sRGB;color-interpolation-filters:linearRGB;solid-color:#000000;solid-opacity:1;vector-effect:none;fill:#0c0c0c;fill-opacity:1;fill-rule:nonzero;stroke:none;stroke-width:0.989854;stroke-linecap:round;stroke-linejoin:round;stroke-miterlimit:4;stroke-dasharray:none;stroke-dashoffset:0;stroke-opacity:1;color-rendering:auto;image-rendering:auto;shape-rendering:auto;text-rendering:auto;enable-background:accumulate;stop-color:#000000"
       d="m 49.065197,12.679883 c -1.85186,-0.0326 -3.69088,0.83821 -4.8316,2.47242 l -17.40957,24.93586 -7.36384,-8.80462 c -2.04371,-2.44315 -5.69631,-2.76673 -8.1325,-0.71622 -2.4355796,2.05006 -2.7587696,5.71383 -0.71455,8.15758 l 12.15562,14.52615 c 0.86275,1.03131 2.01414,1.67314 3.2197,1.93039 0.001,2.6e-4 0.002,0.002 0.004,0.002 0.11491,0.0262 0.20794,0.0398 0.25689,0.0487 a 1.0460779,1.0493253 0 0 0 0.023,0.004 c 0.17877,0.0289 0.38657,0.0614 0.62158,0.0738 0.31223,0.0214 0.60509,0.009 0.87437,-0.0139 a 1.0460779,1.0493253 0 0 0 0.002,0 c 1.63022,-0.14148 3.21304,-0.96999 4.23352,-2.43195 l 21.68702,-31.06979 c 1.82305,-2.61167 1.18922,-6.23139 -1.41527,-8.06074 -0.88906,-0.62448 -1.9025,-0.93433 -2.91836,-1.00517 a 1.0460779,1.0493253 0 0 0 -0.29162,-0.0482 z m -0.0367,2.09845 v 5.2e-4 c 0.70528,0.0124 1.41206,0.22839 2.04602,0.67369 1.6852,1.18368 2.0821,3.44762 0.90147,5.13903 l -21.68705,31.06978 c -0.65503,0.93838 -1.64041,1.45127 -2.69821,1.54308 -0.20632,0.0171 -0.39146,0.0235 -0.55826,0.0118 a 1.0460779,1.0493253 0 0 0 -0.0209,-0.002 c -0.1087,-0.005 -0.24333,-0.0237 -0.40756,-0.0501 -0.0769,-0.014 -0.13396,-0.0237 -0.14863,-0.0272 a 1.0460779,1.0493253 0 0 0 -0.0286,-0.006 c -0.78485,-0.16687 -1.50324,-0.56912 -2.0557,-1.22955 l -12.15357,-14.52399 c -1.32196,-1.58031 -1.12046,-3.87446 0.45558,-5.20101 1.57542,-1.32604 3.86257,-1.12396 5.18502,0.45697 l 8.24027,9.85232 a 1.0460779,1.0493253 0 0 0 1.65837,-0.0738 l 18.191,-26.05681 c 0.73658,-1.05525 1.90117,-1.59716 3.08077,-1.57638 z" />
    <path
       id="rect16-6-1-7-6-7-63-4"
       style="color:#000000;font-style:normal;font-variant:normal;font-weight:normal;font-stretch:normal;font-size:medium;line-height:normal;font-family:sans-serif;font-variant-ligatures:normal;font-variant-position:normal;font-variant-caps:normal;font-variant-numeric:normal;font-variant-alternates:normal;font-variant-east-asian:normal;font-feature-settings:normal;font-variation-settings:normal;text-indent:0;text-align:start;text-decoration:none;text-decoration-line:none;text-decoration-style:solid;text-decoration-color:#000000;letter-spacing:normal;word-spacing:normal;text-transform:none;writing-mode:lr-tb;direction:ltr;text-orientation:mixed;dominant-baseline:auto;baseline-shift:baseline;text-anchor:start;white-space:normal;shape-padding:0;shape-margin:0;inline-size:0;clip-rule:nonzero;display:inline;overflow:visible;visibility:visible;opacity:0.85;isolation:auto;mix-blend-mode:normal;color-interpolation:sRGB;color-interpolation-filters:linearRGB;solid-color:#000000;solid-opacity:1;vector-effect:none;fill:#0a5c4a;fill-opacity:1;fill-rule:nonzero;stroke:none;stroke-width:0.989854;stroke-linecap:round;stroke-linejoin:round;stroke-miterlimit:4;stroke-dasharray:none;stroke-dashoffset:0;stroke-opacity:1;color-rendering:auto;image-rendering:auto;shape-rendering:auto;text-rendering:auto;enable-background:accumulate;stop-color:#000000"
       d="m 49.065197,10.679883 c -1.85186,-0.0326 -3.69088,0.83821 -4.8316,2.47242 l -17.40957,24.93586 -7.36384,-8.80462 c -2.04371,-2.44315 -5.69631,-2.76673 -8.1325,-0.71622 -2.4355796,2.05006 -2.7587696,5.71383 -0.71455,8.15758 l 12.15562,14.52615 c 0.86275,1.03131 2.01414,1.67314 3.2197,1.93039 0.001,2.6e-4 0.002,0.002 0.004,0.002 0.11491,0.0262 0.20794,0.0398 0.25689,0.0487 a 1.0460779,1.0493253 0 0 0 0.023,0.004 c 0.17877,0.0289 0.38657,0.0614 0.62158,0.0738 0.31223,0.0214 0.60509,0.009 0.87437,-0.0139 a 1.0460779,1.0493253 0 0 0 0.002,0 c 1.63022,-0.14148 3.21304,-0.96999 4.23352,-2.43195 l 21.68702,-31.06979 c 1.82305,-2.61167 1.18922,-6.23139 -1.41527,-8.06074 -0.88906,-0.62448 -1.9025,-0.93433 -2.91836,-1.00517 a 1.0460779,1.0493253 0 0 0 -0.29162,-0.0482 z m -0.0367,2.09845 v 5.2e-4 c 0.70528,0.0124 1.41206,0.22839 2.04602,0.67369 1.6852,1.18368 2.0821,3.44762 0.90147,5.13903 l -21.68705,31.06978 c -0.65503,0.93838 -1.64041,1.45127 -2.69821,1.54308 -0.20632,0.0171 -0.39146,0.0235 -0.55826,0.0118 a 1.0460779,1.0493253 0 0 0 -0.0209,-0.002 c -0.1087,-0.005 -0.24333,-0.0237 -0.40756,-0.0501 -0.0769,-0.014 -0.13396,-0.0237 -0.14863,-0.0272 a 1.0460779,1.0493253 0 0 0 -0.0286,-0.006 c -0.78485,-0.16687 -1.50324,-0.56912 -2.0557,-1.22955 l -12.15357,-14.52399 c -1.32196,-1.58031 -1.12046,-3.87446 0.45558,-5.20101 1.57542,-1.32604 3.86257,-1.12396 5.18502,0.45697 l 8.24027,9.85232 a 1.0460779,1.0493253 0 0 0 1.65837,-0.0738 l 18.191,-26.05681 c 0.73658,-1.05525 1.90117,-1.59716 3.08077,-1.57638 z" />
    <path
       id="rect16-6-1-7-0-5"
       style="fill:url(#linearGradient1810);fill-opacity:1;stroke:none;stroke-width:0;stroke-miterlimit:4;stroke-dasharray:none"
       d="m 49.056847,11.728943 c -1.5158,-0.0267 -3.01855,0.68007 -3.95722,2.0248 l -18.19214,26.0569 -8.24059,-9.85237 c -1.68317,-2.01202 -4.6531,-2.27473 -6.65899,-0.58646 -2.00588,1.68828 -2.2678096,4.66734 -0.58466,6.67935 l 12.15476,14.52545 c 0.70813,0.84647 1.64419,1.36856 2.64021,1.58033 0.0756,0.0183 0.15131,0.0295 0.22766,0.0435 0.17401,0.0281 0.34718,0.0534 0.52317,0.0618 0.24126,0.0169 0.48044,0.008 0.72002,-0.012 1.34407,-0.11665 2.62708,-0.78757 3.46488,-1.98774 l 21.68778,-31.0701 c 1.50192,-2.15151 0.98791,-5.0926 -1.15701,-6.5991 -0.80437,-0.56497 -1.7184,-0.8483 -2.62787,-0.86432 z" />
  </g>
</svg>
