<?xml version="1.0" encoding="UTF-8" standalone="no"?>
<svg
   xmlns:dc="http://purl.org/dc/elements/1.1/"
   xmlns:cc="http://creativecommons.org/ns#"
   xmlns:rdf="http://www.w3.org/1999/02/22-rdf-syntax-ns#"
   xmlns:svg="http://www.w3.org/2000/svg"
   xmlns="http://www.w3.org/2000/svg"
   xmlns:xlink="http://www.w3.org/1999/xlink"
   xmlns:sodipodi="http://sodipodi.sourceforge.net/DTD/sodipodi-0.dtd"
   xmlns:inkscape="http://www.inkscape.org/namespaces/inkscape"
   width="64"
   height="64"
   viewBox="0 0 64 64"
   version="1.1"
   id="svg6374"
   inkscape:version="1.0.2 (e86c870879, 2021-01-15)"
   sodipodi:docname="selection-checked.svg">
  <defs
     id="defs6368">
    <linearGradient
       inkscape:collect="always"
       xlink:href="#linearGradient979-8"
       id="linearGradient2522"
       gradientUnits="userSpaceOnUse"
       gradientTransform="matrix(3.7795275,0,0,3.7795275,0,-100)"
       x1="8.3343754"
       y1="37.041672"
       x2="8.598959"
       y2="29.104166" />
    <linearGradient
       inkscape:collect="always"
       id="linearGradient979-8">
      <stop
         style="stop-color:#f9f9f7;stop-opacity:0"
         offset="0"
         id="stop975-7" />
      <stop
         style="stop-color:#f9f9f7;stop-opacity:0.1"
         offset="1"
         id="stop977-9" />
    </linearGradient>
  </defs>
  <sodipodi:namedview
     id="base"
     pagecolor="#c8c8c8"
     bordercolor="#666666"
     borderopacity="1.0"
     inkscape:pageopacity="0"
     inkscape:pageshadow="2"
     inkscape:zoom="23.693789"
     inkscape:cx="25.497633"
     inkscape:cy="42.753363"
     inkscape:document-units="px"
     inkscape:current-layer="layer1"
     inkscape:document-rotation="0"
     showgrid="false"
     units="px"
     inkscape:window-width="2048"
     inkscape:window-height="1080"
     inkscape:window-x="0"
     inkscape:window-y="0"
     inkscape:window-maximized="1" />
  <metadata
     id="metadata6371">
    <rdf:RDF>
      <cc:Work
         rdf:about="">
        <dc:format>image/svg+xml</dc:format>
        <dc:type
           rdf:resource="http://purl.org/dc/dcmitype/StillImage" />
        <dc:title />
      </cc:Work>
    </rdf:RDF>
  </metadata>
  <g
     inkscape:label="Layer 1"
     inkscape:groupmode="layer"
     id="layer1">
    <path
       id="path1181-0-2-9-62-2-6"
       style="color:#000000;font-style:normal;font-variant:normal;font-weight:normal;font-stretch:normal;font-size:medium;line-height:normal;font-family:sans-serif;font-variant-ligatures:normal;font-variant-position:normal;font-variant-caps:normal;font-variant-numeric:normal;font-variant-alternates:normal;font-variant-east-asian:normal;font-feature-settings:normal;font-variation-settings:normal;text-indent:0;text-align:start;text-decoration:none;text-decoration-line:none;text-decoration-style:solid;text-decoration-color:#000000;letter-spacing:normal;word-spacing:normal;text-transform:none;writing-mode:lr-tb;direction:ltr;text-orientation:mixed;dominant-baseline:auto;baseline-shift:baseline;text-anchor:start;white-space:normal;shape-padding:0;shape-margin:0;inline-size:0;clip-rule:nonzero;display:inline;overflow:visible;visibility:visible;opacity:0.15;isolation:auto;mix-blend-mode:normal;color-interpolation:sRGB;color-interpolation-filters:linearRGB;solid-color:#000000;solid-opacity:1;vector-effect:none;fill:#0c0c0c;fill-opacity:1;fill-rule:nonzero;stroke:none;stroke-width:0;stroke-linecap:round;stroke-linejoin:round;stroke-miterlimit:4;stroke-dasharray:none;stroke-dashoffset:2.1875;stroke-opacity:1;color-rendering:auto;image-rendering:auto;shape-rendering:auto;text-rendering:auto;enable-background:accumulate;stop-color:#000000"
       d="M 32,9.5 C 18.76186,9.5 8,20.2634 8,33.501 8,46.7386 18.76186,57.5 32,57.5 45.23814,57.5 56,46.7386 56,33.501 56,20.2634 45.23814,9.5 32,9.5 Z m 0,2.9982 c 11.61669,0 21.00366,9.3866 21.00366,21.0028 0,11.6162 -9.38697,21.0008 -21.00366,21.0008 -11.61669,0 -21.00366,-9.3846 -21.00366,-21.0008 0,-11.6162 9.38697,-21.0028 21.00366,-21.0028 z" />
    <path
       id="path1181-0-6-2-9-0-2"
       style="color:#000000;font-style:normal;font-variant:normal;font-weight:normal;font-stretch:normal;font-size:medium;line-height:normal;font-family:sans-serif;font-variant-ligatures:normal;font-variant-position:normal;font-variant-caps:normal;font-variant-numeric:normal;font-variant-alternates:normal;font-variant-east-asian:normal;font-feature-settings:normal;font-variation-settings:normal;text-indent:0;text-align:start;text-decoration:none;text-decoration-line:none;text-decoration-style:solid;text-decoration-color:#000000;letter-spacing:normal;word-spacing:normal;text-transform:none;writing-mode:lr-tb;direction:ltr;text-orientation:mixed;dominant-baseline:auto;baseline-shift:baseline;text-anchor:start;white-space:normal;shape-padding:0;shape-margin:0;inline-size:0;clip-rule:nonzero;display:inline;overflow:visible;visibility:visible;opacity:0.85;isolation:auto;mix-blend-mode:normal;color-interpolation:sRGB;color-interpolation-filters:linearRGB;solid-color:#000000;solid-opacity:1;vector-effect:none;fill:#2c5d7c;fill-opacity:1;fill-rule:nonzero;stroke:none;stroke-width:3.77975;stroke-linecap:round;stroke-linejoin:round;stroke-miterlimit:4;stroke-dasharray:none;stroke-dashoffset:2.1875;stroke-opacity:1;color-rendering:auto;image-rendering:auto;shape-rendering:auto;text-rendering:auto;enable-background:accumulate;stop-color:#000000"
       d="M 32,8 C 18.76186,8 8,18.7634 8,32.001 8,45.2386 18.76186,56 32,56 45.23814,56 56,45.2386 56,32.001 56,18.7634 45.23814,8 32,8 Z m 0,2.9982 c 11.61669,0 21.00366,9.3866 21.00366,21.0028 0,11.6162 -9.38697,21.0008 -21.00366,21.0008 -11.61669,0 -21.00366,-9.3846 -21.00366,-21.0008 0,-11.6162 9.38697,-21.0028 21.00366,-21.0028 z" />
    <circle
       style="fill:#5296c2;fill-opacity:1;stroke:#771832;stroke-width:0;stroke-linecap:round;stroke-linejoin:round;stroke-miterlimit:4;stroke-dasharray:none;stroke-dashoffset:2.1875;stroke-opacity:1"
       id="path1181-0-1-2-6"
       cx="32"
       cy="32"
       r="22.499998" />
    <circle
       style="display:inline;fill:url(#linearGradient2522);fill-opacity:1;stroke:#771832;stroke-width:0;stroke-linecap:round;stroke-linejoin:round;stroke-miterlimit:4;stroke-dasharray:none;stroke-dashoffset:2.1875;stroke-opacity:1"
       id="path1181-6-2-7-3-1"
       cx="32"
       cy="32"
       r="22.499998" />
    <path
       id="path1181-0-2-9-3-2-7-8"
       style="color:#000000;font-style:normal;font-variant:normal;font-weight:normal;font-stretch:normal;font-size:medium;line-height:normal;font-family:sans-serif;font-variant-ligatures:normal;font-variant-position:normal;font-variant-caps:normal;font-variant-numeric:normal;font-variant-alternates:normal;font-variant-east-asian:normal;font-feature-settings:normal;font-variation-settings:normal;text-indent:0;text-align:start;text-decoration:none;text-decoration-line:none;text-decoration-style:solid;text-decoration-color:#000000;letter-spacing:normal;word-spacing:normal;text-transform:none;writing-mode:lr-tb;direction:ltr;text-orientation:mixed;dominant-baseline:auto;baseline-shift:baseline;text-anchor:start;white-space:normal;shape-padding:0;shape-margin:0;inline-size:0;clip-rule:nonzero;display:inline;overflow:visible;visibility:visible;opacity:0.15;isolation:auto;mix-blend-mode:normal;color-interpolation:sRGB;color-interpolation-filters:linearRGB;solid-color:#000000;solid-opacity:1;vector-effect:none;fill:#1b384b;fill-opacity:1;fill-rule:nonzero;stroke:none;stroke-width:0;stroke-linecap:round;stroke-linejoin:round;stroke-miterlimit:4;stroke-dasharray:none;stroke-dashoffset:2.1875;stroke-opacity:1;color-rendering:auto;image-rendering:auto;shape-rendering:auto;text-rendering:auto;enable-background:accumulate;stop-color:#000000"
       d="M 32,8 C 18.76186,8 8,18.7634 8,32.001 8,45.2386 18.76186,56 32,56 45.23814,56 56,45.2386 56,32.001 56,18.7634 45.23814,8 32,8 Z m 0,2.9982 c 11.61669,0 21.00366,9.3866 21.00366,21.0028 0,11.6162 -9.38697,21.0008 -21.00366,21.0008 -11.61668,0 -21.00366,-9.3846 -21.00366,-21.0008 0,-11.6162 9.38698,-21.0028 21.00366,-21.0028 z" />
    <path
       id="rect16-6-1-5-5-9-7-6-0-1-6-7-7"
       style="display:inline;opacity:0.35;fill:#1b384b;fill-opacity:1;stroke:none;stroke-width:0;stroke-miterlimit:4;stroke-dasharray:none"
       d="m 44.25971,21.0016 c -1.08999,-0.019 -2.17061,0.4865 -2.84561,1.4482 L 28.33226,41.0869 22.40649,34.0401 c -1.21034,-1.4391 -3.346,-1.6269 -4.78842,-0.4194 -1.44241,1.2075 -1.63078,3.3382 -0.42045,4.7773 l 8.74041,10.3893 c 0.50921,0.6054 1.18236,0.9788 1.89855,1.1303 0.0544,0.013 0.10883,0.021 0.16373,0.031 0.12512,0.02 0.24967,0.038 0.3762,0.044 0.17349,0.012 0.34549,0.01 0.51776,-0.01 0.96652,-0.084 1.88914,-0.5633 2.49157,-1.4217 L 46.98138,26.3382 c 1.08002,-1.5389 0.7104,-3.6425 -0.832,-4.72 C 45.57095,21.2142 44.91368,21.0116 44.25969,21 Z" />
    <path
       id="rect16-6-1-5-5-9-7-6-0-1-6-5-3-92"
       style="color:#000000;font-style:normal;font-variant:normal;font-weight:normal;font-stretch:normal;font-size:medium;line-height:normal;font-family:sans-serif;font-variant-ligatures:normal;font-variant-position:normal;font-variant-caps:normal;font-variant-numeric:normal;font-variant-alternates:normal;font-variant-east-asian:normal;font-feature-settings:normal;font-variation-settings:normal;text-indent:0;text-align:start;text-decoration:none;text-decoration-line:none;text-decoration-style:solid;text-decoration-color:#000000;letter-spacing:normal;word-spacing:normal;text-transform:none;writing-mode:lr-tb;direction:ltr;text-orientation:mixed;dominant-baseline:auto;baseline-shift:baseline;text-anchor:start;white-space:normal;shape-padding:0;shape-margin:0;inline-size:0;clip-rule:nonzero;display:inline;overflow:visible;visibility:visible;opacity:0.75;isolation:auto;mix-blend-mode:normal;color-interpolation:sRGB;color-interpolation-filters:linearRGB;solid-color:#000000;solid-opacity:1;vector-effect:none;fill:#1b384b;fill-opacity:1;fill-rule:nonzero;stroke:none;stroke-width:1.00014;stroke-linecap:round;stroke-linejoin:round;stroke-miterlimit:4;stroke-dasharray:none;stroke-dashoffset:0;stroke-opacity:1;color-rendering:auto;image-rendering:auto;shape-rendering:auto;text-rendering:auto;enable-background:accumulate;stop-color:#000000"
       d="m 44.27257,18.0019 a 0.5001914,0.50005 0 0 0 -0.23444,0.055 c -1.16693,0.052 -2.30801,0.5788 -3.03015,1.6074 L 28.2954,37.7717 22.78603,31.221 c -1.38342,-1.6445 -3.84503,-1.8603 -5.49374,-0.4805 -1.64843,1.3796 -1.86425,3.8377 -0.4806,5.4824 l 8.7427,10.3887 c 0.5839,0.694 1.36123,1.1241 2.17836,1.2969 0.0743,0.017 0.13703,0.028 0.17778,0.035 a 0.5001914,0.50005 0 0 0 0.01,0 c 0.12946,0.021 0.27232,0.041 0.4298,0.049 h 0.002 c 0.19123,0.013 0.3871,0.01 0.58415,-0.012 1.10293,-0.096 2.16798,-0.6496 2.85822,-1.6328 L 47.39481,24.125 C 48.62909,22.3668 48.20208,19.94 46.43947,18.709 45.77942,18.2481 45.02432,18.0133 44.27284,18 Z m -0.0176,1.002 a 0.5001914,0.50005 0 0 0 0.006,0 c 0.55485,0.011 1.1106,0.1815 1.60592,0.5273 1.32307,0.924 1.63557,2.7019 0.70919,4.0215 L 30.97596,45.7754 c -0.51495,0.7334 -1.29494,1.1387 -2.1256,1.2109 a 0.5001914,0.50005 0 0 0 -0.0137,0 c -0.13823,0.016 -0.27888,0.018 -0.4259,0.01 a 0.5001914,0.50005 0 0 0 -0.0117,0 c -0.0919,0 -0.19492,-0.019 -0.31063,-0.037 h -0.01 c -0.0585,-0.011 -0.10268,-0.018 -0.12699,-0.023 a 0.5001914,0.50005 0 0 0 -0.0117,0 c -0.61568,-0.1302 -1.1848,-0.4481 -1.61959,-0.9648 L 17.57548,35.5828 c -1.03769,-1.2335 -0.87772,-3.0369 0.35948,-4.0723 1.23693,-1.0352 3.04916,-0.8763 4.08709,0.3574 l 5.92746,7.0469 a 0.5001914,0.50005 0 0 0 0.79124,-0.033 L 41.82648,20.2451 c 0.57833,-0.8238 1.49843,-1.2525 2.42842,-1.2363 z" />
    <path
       id="rect16-6-1-5-5-9-7-6-0-1-6-0"
       style="display:inline;fill:#fdfdfa;fill-opacity:1;stroke:none;stroke-width:0;stroke-miterlimit:4;stroke-dasharray:none"
       d="m 44.25971,18.5016 c -1.09,-0.019 -2.17061,0.4865 -2.84561,1.4482 L 28.33226,38.5869 22.40649,31.5401 c -1.21034,-1.4391 -3.346,-1.6269 -4.78842,-0.4194 -1.44241,1.2075 -1.63078,3.3382 -0.42045,4.7773 l 8.74041,10.3893 c 0.50921,0.6054 1.18236,0.9788 1.89855,1.1303 0.0544,0.013 0.10883,0.021 0.16373,0.031 0.12512,0.02 0.24967,0.038 0.3762,0.044 0.17349,0.012 0.34549,0.01 0.51776,-0.01 0.96652,-0.084 1.88914,-0.5633 2.49157,-1.4217 L 46.98138,23.8382 c 1.08002,-1.5389 0.7104,-3.6425 -0.832,-4.72 -0.57843,-0.404 -1.2357,-0.6066 -1.88969,-0.6182 z" />
  </g>
</svg>
