<?xml version="1.0" encoding="UTF-8" standalone="no"?>
<svg
   xmlns:dc="http://purl.org/dc/elements/1.1/"
   xmlns:cc="http://creativecommons.org/ns#"
   xmlns:rdf="http://www.w3.org/1999/02/22-rdf-syntax-ns#"
   xmlns:svg="http://www.w3.org/2000/svg"
   xmlns="http://www.w3.org/2000/svg"
   xmlns:xlink="http://www.w3.org/1999/xlink"
   xmlns:sodipodi="http://sodipodi.sourceforge.net/DTD/sodipodi-0.dtd"
   xmlns:inkscape="http://www.inkscape.org/namespaces/inkscape"
   width="64"
   height="64"
   viewBox="0 0 64 64"
   version="1.1"
   id="svg6374"
   inkscape:version="1.0.2 (e86c870879, 2021-01-15)"
   sodipodi:docname="view-presentation.svg">
  <defs
     id="defs6368">
    <linearGradient
       inkscape:collect="always"
       xlink:href="#linearGradient917-6"
       id="linearGradient919-3"
       x1="-29.42473"
       y1="5.5276093"
       x2="-18.312229"
       y2="16.110943"
       gradientUnits="userSpaceOnUse"
       gradientTransform="matrix(3.7795275,0,0,3.7795275,122.2116,-8.3917359)" />
    <linearGradient
       inkscape:collect="always"
       id="linearGradient917-6">
      <stop
         style="stop-color:#eed0f2;stop-opacity:1"
         offset="0"
         id="stop913-7" />
      <stop
         style="stop-color:#d0eef2;stop-opacity:1"
         offset="1"
         id="stop915-5" />
    </linearGradient>
  </defs>
  <sodipodi:namedview
     id="base"
     pagecolor="#cecece"
     bordercolor="#666666"
     borderopacity="1.0"
     inkscape:pageopacity="0"
     inkscape:pageshadow="2"
     inkscape:zoom="6.8818909"
     inkscape:cx="20.896034"
     inkscape:cy="43.723975"
     inkscape:document-units="px"
     inkscape:current-layer="layer1"
     inkscape:document-rotation="0"
     showgrid="false"
     units="px"
     inkscape:window-width="1500"
     inkscape:window-height="970"
     inkscape:window-x="68"
     inkscape:window-y="56"
     inkscape:window-maximized="0" />
  <metadata
     id="metadata6371">
    <rdf:RDF>
      <cc:Work
         rdf:about="">
        <dc:format>image/svg+xml</dc:format>
        <dc:type
           rdf:resource="http://purl.org/dc/dcmitype/StillImage" />
        <dc:title></dc:title>
      </cc:Work>
    </rdf:RDF>
  </metadata>
  <g
     inkscape:label="Layer 1"
     inkscape:groupmode="layer"
     id="layer1">
    <rect
       style="opacity:0.15;fill:#0c0c10;fill-opacity:1;stroke-width:0;stroke-linecap:round;stroke-linejoin:round;stroke-dashoffset:2.1875"
       id="rect896-3-3-6-7-3-6-2-1"
       width="24.000002"
       height="24.000002"
       x="0"
       y="21.999985"
       rx="4.4999995"
       ry="4.4999995" />
    <rect
       style="fill:#666670;fill-opacity:1;stroke-width:0;stroke-linecap:round;stroke-linejoin:round;stroke-dashoffset:2.1875"
       id="rect896-3-3-6-7-8"
       width="24.000002"
       height="24.000002"
       x="0"
       y="20.5"
       rx="4.4999995"
       ry="4.4999995" />
    <rect
       style="opacity:0.15;fill:#0c0c10;fill-opacity:1;stroke-width:0;stroke-linecap:round;stroke-linejoin:round;stroke-dashoffset:2.1875"
       id="rect896-3-3-6-6-7"
       width="32"
       height="32"
       x="3.9999995"
       y="17"
       rx="6.0000005"
       ry="6.0000005" />
    <rect
       style="fill:#85858e;fill-opacity:1;stroke-width:0;stroke-linecap:round;stroke-linejoin:round;stroke-dashoffset:2.1875"
       id="rect896-3-3-6-9"
       width="32"
       height="32"
       x="5.4999995"
       y="16.5"
       rx="6.0000005"
       ry="6.0000005" />
    <rect
       style="opacity:0.15;fill:#0c0c10;fill-opacity:1;stroke-width:0;stroke-linecap:round;stroke-linejoin:round;stroke-dashoffset:2.1875"
       id="rect896-3-3-6-7-3-6-20"
       width="24.000002"
       height="24.000002"
       x="39.999939"
       y="21.999985"
       rx="4.4999995"
       ry="4.4999995" />
    <rect
       style="fill:#67676f;fill-opacity:1;stroke-width:0;stroke-linecap:round;stroke-linejoin:round;stroke-dashoffset:2.1875"
       id="rect896-3-3-6-7-3-2"
       width="24.000002"
       height="24.000002"
       x="39.999939"
       y="20.5"
       rx="4.4999995"
       ry="4.4999995" />
    <rect
       style="opacity:0.15;fill:#0c0c10;fill-opacity:1;stroke-width:0;stroke-linecap:round;stroke-linejoin:round;stroke-dashoffset:2.1875"
       id="rect896-3-3-6-6-0-3"
       width="32"
       height="32"
       x="28.000002"
       y="17"
       rx="6.0000005"
       ry="6.0000005" />
    <rect
       style="fill:#85858e;fill-opacity:1;stroke-width:0;stroke-linecap:round;stroke-linejoin:round;stroke-dashoffset:2.1875"
       id="rect896-3-3-6-5-7"
       width="32"
       height="32"
       x="26.500002"
       y="16.5"
       rx="6.0000005"
       ry="6.0000005" />
    <rect
       style="opacity:0.15;fill:#0c0c10;fill-opacity:1;stroke-width:0;stroke-linecap:round;stroke-linejoin:round;stroke-dashoffset:2.1875"
       id="rect896-3-3-62-5"
       width="44.000004"
       height="44.000004"
       x="10"
       y="11"
       rx="8.999999"
       ry="8.999999" />
    <rect
       style="fill:#b8b8bd;fill-opacity:1;stroke-width:0;stroke-linecap:round;stroke-linejoin:round;stroke-dashoffset:2.1875"
       id="rect896-3-3-9"
       width="42"
       height="42"
       x="11"
       y="11.5"
       rx="8"
       ry="8" />
    <rect
       style="opacity:0.749;fill:url(#linearGradient919-3);fill-opacity:1;stroke-width:0;stroke-linecap:round;stroke-linejoin:round;stroke-dashoffset:2.1875"
       id="rect896-3-3-3-2"
       width="42"
       height="42"
       x="11"
       y="11.5"
       rx="8"
       ry="8" />
    <path
       id="rect896-3-3-1-0-3-2"
       style="opacity:0.6;fill:#202020;fill-opacity:1;stroke-width:0;stroke-linecap:round;stroke-linejoin:round;stroke-dashoffset:2.1875"
       d="m 18.99996,11.499999 c -4.432,0 -8,3.568 -8,8 v 26 c 0,4.432 3.568,8 8,8 h 25.99997 c 4.432,0 8,-3.568 8,-8 v -26 c 0,-4.432 -3.568,-8 -8,-8 z m 0,1 h 25.99997 c 3.878,0 7,3.122 7,7 v 26 c 0,3.878 -3.122,7 -7,7 H 18.99996 c -3.878,0 -7,-3.122 -7,-7 v -26 c 0,-3.878 3.122,-7 7,-7 z" />
    <path
       id="rect1323-3-6-7-6-9"
       style="opacity:0.25;fill:#0c0c0c;fill-opacity:1;stroke:none;stroke-width:1.14841;stroke-linecap:round;stroke-linejoin:round;stroke-miterlimit:4;stroke-dasharray:none;stroke-dashoffset:2.1875;stroke-opacity:1"
       d="m 23.75458,21.217999 v 0 c -0.0333,0 -0.0654,0.01 -0.0987,0.01 -0.043,0 -0.0859,0 -0.12896,0.01 -0.0534,0 -0.1059,0.012 -0.15814,0.019 -0.0333,0 -0.0677,0.01 -0.10095,0.015 -0.065,0.011 -0.12835,0.026 -0.19174,0.043 -0.0185,0.01 -0.0363,0.01 -0.0539,0.013 -0.0723,0.02 -0.14339,0.043 -0.21309,0.068 -0.0102,0 -0.0204,0.01 -0.0306,0.011 -0.0755,0.028 -0.14993,0.061 -0.22205,0.095 -0.006,0 -0.009,0.01 -0.0144,0.01 -0.80798,0.3952 -1.38988,1.1717 -1.51518,2.0994 -0.008,0.017 -0.008,0.034 -0.008,0.05 -0.006,0.051 -0.01,0.102 -0.01,0.15369 -0.008,0.046 -0.009,0.092 -0.009,0.1379 -1.2e-4,0.011 0,0.02 0,0.031 v 22.04971 0.0329 c 0,0.046 0.009,0.093 0.009,0.13909 0.006,0.051 0.006,0.10171 0.01,0.15141 0,0.0189 0.008,0.0359 0.008,0.055 0.0888,0.6501 0.4019,1.2251 0.86023,1.6475 0.0663,0.061 0.13538,0.1183 0.20746,0.17269 0.0711,0.054 0.14453,0.10469 0.22091,0.1514 0.075,0.046 0.15149,0.088 0.23108,0.12669 0.075,0.0359 0.15239,0.07 0.23101,0.10001 0.01,0 0.0204,0.01 0.0306,0.011 0.0683,0.025 0.13788,0.048 0.20856,0.067 0.0223,0.01 0.0454,0.011 0.0684,0.017 0.0599,0.0151 0.1191,0.028 0.18055,0.039 0.0363,0.01 0.0732,0.0121 0.10991,0.017 0.0459,0.01 0.092,0.0121 0.13909,0.0151 0.0528,0.01 0.1059,0.01 0.15927,0.01 0.0264,0 0.0528,0 0.0796,0 0.0113,0 0.0234,0 0.0352,0 0.0557,-4e-4 0.1103,0 0.16601,-0.01 0.0355,0 0.0726,0 0.10764,-0.01 0.0419,-0.01 0.0837,-0.0129 0.12559,-0.0189 0.0575,-0.01 0.11422,-0.0181 0.17046,-0.0299 0,0 -2.3e-4,-10e-4 0.006,-10e-4 0.006,-5e-4 0.0106,0 0.0106,0 0.27326,-0.062 0.52954,-0.16448 0.76491,-0.30051 l 0.0144,-0.01 18.90978,-10.9178 c 0,-5e-4 0.01,-5e-4 0.01,-0.001 0.3662,-0.17918 0.6928,-0.4444 0.9555,-0.78159 0.013,-0.017 0.028,-0.034 0.04,-0.052 0.035,-0.047 0.068,-0.096 0.1,-0.14581 0.018,-0.028 0.037,-0.056 0.054,-0.084 0.01,-0.0129 0.018,-0.0238 0.026,-0.037 0.016,-0.028 0.028,-0.057 0.043,-0.085 0.024,-0.045 0.048,-0.091 0.069,-0.13682 0.015,-0.0329 0.028,-0.067 0.043,-0.10001 0.02,-0.048 0.04,-0.095 0.057,-0.14358 0.015,-0.042 0.029,-0.084 0.041,-0.12669 0.012,-0.043 0.026,-0.086 0.036,-0.129 0.011,-0.042 0.019,-0.084 0.027,-0.12559 0.01,-0.047 0.019,-0.092 0.026,-0.13909 0.01,-0.045 0.01,-0.09 0.014,-0.13451 0.01,-0.04 0.01,-0.08 0.011,-0.12 0.01,-0.047 0.01,-0.093 0.01,-0.14019 0,-0.047 3e-4,-0.094 -0.01,-0.14131 0,-0.039 -0.01,-0.079 -0.011,-0.11781 -0.01,-0.046 -0.01,-0.092 -0.014,-0.13791 -0.01,-0.045 -0.016,-0.091 -0.025,-0.13569 -0.01,-0.043 -0.017,-0.085 -0.027,-0.1279 -0.011,-0.042 -0.024,-0.084 -0.036,-0.12552 -0.013,-0.045 -0.026,-0.089 -0.042,-0.1335 -0.015,-0.044 -0.033,-0.087 -0.051,-0.13009 -0.016,-0.038 -0.032,-0.076 -0.049,-0.1144 -0.02,-0.045 -0.044,-0.089 -0.067,-0.13229 -0.015,-0.028 -0.028,-0.056 -0.044,-0.084 -0.01,-0.0121 -0.014,-0.0212 -0.021,-0.0329 -0.02,-0.034 -0.043,-0.068 -0.065,-0.10208 -0.03,-0.045 -0.059,-0.091 -0.091,-0.1335 -0.012,-0.0159 -0.025,-0.0299 -0.038,-0.046 -0.046,-0.06 -0.094,-0.11788 -0.1436,-0.17268 -0.228,-0.24919 -0.4956,-0.4494 -0.7873,-0.5966 L 25.13985,21.595329 c -0.23777,-0.1375 -0.49629,-0.2411 -0.77272,-0.3028 0,-6e-4 -0.007,-5e-4 -0.007,-10e-4 -0.0633,-0.014 -0.12797,-0.025 -0.19287,-0.035 -0.0306,-0.01 -0.0604,-0.01 -0.0909,-0.013 -0.0436,0 -0.0892,-0.01 -0.13346,-0.01 -0.0499,0 -0.0992,-0.01 -0.14917,-0.01 -0.0121,0 -0.0246,0 -0.0355,0 z" />
    <path
       id="rect1323-3-6-7-6"
       style="fill:#f2f2f2;fill-opacity:1;stroke:none;stroke-width:1.14841;stroke-linecap:round;stroke-linejoin:round;stroke-miterlimit:4;stroke-dasharray:none;stroke-dashoffset:2.1875;stroke-opacity:1"
       d="m 23.75458,18.718299 v 0.001 c -0.0333,0 -0.0654,0 -0.0987,0.01 -0.043,0 -0.0859,0 -0.12896,0.01 -0.0534,0 -0.1059,0.012 -0.15814,0.019 -0.0333,0.01 -0.0677,0.01 -0.10095,0.015 -0.065,0.011 -0.12835,0.026 -0.19174,0.043 -0.0185,0 -0.0363,0.01 -0.0539,0.013 -0.0723,0.02 -0.14339,0.043 -0.21309,0.068 -0.0102,0 -0.0204,0.01 -0.0306,0.011 -0.0755,0.028 -0.14993,0.061 -0.22205,0.095 -0.006,0 -0.009,0.01 -0.0144,0.01 -0.80796,0.39513 -1.38986,1.17163 -1.51516,2.09933 -0.008,0.017 -0.008,0.034 -0.008,0.051 -0.006,0.051 -0.01,0.102 -0.01,0.1537 -0.008,0.046 -0.009,0.092 -0.009,0.1379 -1.2e-4,0.011 0,0.02 0,0.031 v 22.0497 0.0329 c 0,0.046 0.009,0.093 0.009,0.13908 0.006,0.05 0.006,0.1016 0.01,0.15141 0,0.0181 0.008,0.0359 0.008,0.055 0.0888,0.6501 0.4019,1.2251 0.86023,1.6475 0.0663,0.061 0.13537,0.1183 0.20745,0.17269 0.0711,0.054 0.14453,0.10469 0.22091,0.15141 0.075,0.046 0.15149,0.088 0.23108,0.12669 0.075,0.0359 0.15239,0.07 0.23101,0.1 0.01,0 0.0204,0.01 0.0306,0.011 0.0683,0.025 0.13788,0.048 0.20856,0.067 0.0223,0.01 0.0454,0.011 0.0684,0.017 0.0599,0.0151 0.1191,0.028 0.18054,0.039 0.0363,0.01 0.0732,0.0121 0.10991,0.017 0.0459,0.01 0.092,0.0121 0.13909,0.0151 0.0528,0 0.1059,0.01 0.15927,0.01 0.0264,0 0.0528,0 0.0796,0 0.0113,0 0.0234,0 0.0352,0 0.0557,-4e-4 0.11029,0 0.166,-0.01 0.0355,0 0.0726,0 0.10764,-0.01 0.0419,0 0.0837,-0.0129 0.12559,-0.0189 0.0575,-0.01 0.11422,-0.0181 0.17046,-0.0299 0,0 -2.3e-4,-0.001 0.006,-0.001 0.006,-6e-4 0.0106,0 0.0106,0 0.27326,-0.062 0.52954,-0.16448 0.76491,-0.30051 l 0.0144,-0.01 18.90979,-10.9178 c 0,-5.1e-4 0.01,-5.1e-4 0.01,0 0.3662,-0.17919 0.6928,-0.44441 0.9555,-0.78161 0.013,-0.017 0.028,-0.034 0.04,-0.052 0.035,-0.047 0.068,-0.096 0.1,-0.14581 0.018,-0.028 0.037,-0.056 0.054,-0.084 0.01,-0.0128 0.018,-0.0238 0.026,-0.037 0.016,-0.028 0.028,-0.057 0.043,-0.085 0.024,-0.045 0.048,-0.09 0.069,-0.13678 0.015,-0.0329 0.028,-0.067 0.043,-0.10001 0.02,-0.048 0.04,-0.095 0.057,-0.14358 0.015,-0.042 0.029,-0.084 0.041,-0.12681 0.012,-0.043 0.026,-0.086 0.036,-0.12892 0.011,-0.042 0.019,-0.084 0.027,-0.12559 0.01,-0.047 0.019,-0.092 0.026,-0.13909 0.01,-0.045 0.01,-0.09 0.014,-0.13451 0.01,-0.04 0.01,-0.08 0.011,-0.12 0.01,-0.047 0.01,-0.093 0.01,-0.14018 0,-0.047 3e-4,-0.094 -0.01,-0.14132 0,-0.039 -0.01,-0.079 -0.011,-0.11781 -0.01,-0.046 -0.01,-0.092 -0.014,-0.13791 -0.01,-0.045 -0.016,-0.091 -0.025,-0.13569 -0.01,-0.043 -0.017,-0.085 -0.027,-0.1279 -0.011,-0.042 -0.024,-0.084 -0.035,-0.12559 -0.013,-0.045 -0.027,-0.089 -0.043,-0.13342 -0.015,-0.044 -0.033,-0.087 -0.051,-0.13009 -0.016,-0.038 -0.032,-0.076 -0.049,-0.11441 -0.02,-0.045 -0.044,-0.089 -0.067,-0.13228 -0.015,-0.028 -0.028,-0.056 -0.044,-0.084 -0.01,-0.0121 -0.014,-0.0212 -0.021,-0.0329 -0.02,-0.034 -0.043,-0.068 -0.065,-0.10208 -0.03,-0.045 -0.059,-0.091 -0.091,-0.1335 -0.012,-0.0159 -0.025,-0.0299 -0.038,-0.046 -0.046,-0.059 -0.094,-0.11788 -0.1436,-0.17268 -0.228,-0.24919 -0.4956,-0.44951 -0.7873,-0.59661 L 25.13985,19.098709 c -0.23777,-0.1375 -0.49629,-0.2411 -0.77272,-0.3028 0,-6e-4 -0.007,-5e-4 -0.007,-0.001 -0.0633,-0.014 -0.12797,-0.025 -0.19287,-0.035 -0.0306,0 -0.0604,-0.01 -0.0909,-0.013 -0.0436,-0.01 -0.0892,-0.01 -0.13346,-0.01 -0.0499,0 -0.0992,-0.01 -0.14917,-0.01 -0.0121,0 -0.0246,-10e-4 -0.0355,-10e-4 z" />
    <path
       id="rect1323-3-6-7-6-3-5-1-9"
       style="color:#000000;font-style:normal;font-variant:normal;font-weight:normal;font-stretch:normal;font-size:medium;line-height:normal;font-family:sans-serif;font-variant-ligatures:normal;font-variant-position:normal;font-variant-caps:normal;font-variant-numeric:normal;font-variant-alternates:normal;font-variant-east-asian:normal;font-feature-settings:normal;font-variation-settings:normal;text-indent:0;text-align:start;text-decoration:none;text-decoration-line:none;text-decoration-style:solid;text-decoration-color:#000000;letter-spacing:normal;word-spacing:normal;text-transform:none;writing-mode:lr-tb;direction:ltr;text-orientation:mixed;dominant-baseline:auto;baseline-shift:baseline;text-anchor:start;white-space:normal;shape-padding:0;shape-margin:0;inline-size:0;clip-rule:nonzero;display:inline;overflow:visible;visibility:visible;opacity:0.6;isolation:auto;mix-blend-mode:normal;color-interpolation:sRGB;color-interpolation-filters:linearRGB;solid-color:#000000;solid-opacity:1;vector-effect:none;fill:#0c0c0c;fill-opacity:1;fill-rule:nonzero;stroke:none;stroke-width:3.7795;stroke-linecap:round;stroke-linejoin:round;stroke-miterlimit:4;stroke-dasharray:none;stroke-dashoffset:2.1875;stroke-opacity:1;color-rendering:auto;image-rendering:auto;shape-rendering:auto;text-rendering:auto;enable-background:accumulate;stop-color:#000000"
       d="m 23.73842,18.219199 c -0.0586,0.001 -0.0993,0.01 -0.10156,0.01 -0.0378,0 -0.0903,0 -0.15625,0.01 -0.0718,0.01 -0.1372,0.015 -0.1836,0.022 -0.025,0 -0.0678,0.011 -0.12499,0.022 -0.0781,0.014 -0.15134,0.029 -0.21483,0.045 -0.009,0 -0.0291,0 -0.0664,0.014 -0.0856,0.024 -0.16838,0.052 -0.25001,0.082 -0.0185,0.01 -0.0418,0.017 -0.0527,0.022 -0.0782,0.03 -0.15522,0.061 -0.22851,0.096 -0.005,0 -0.011,0.01 -0.0155,0.01 -0.002,9e-4 -0.004,-0.001 -0.006,0 a 0.50000866,0.50008452 0 0 0 -0.0155,0.016 c -0.94666,0.46309 -1.61565,1.37489 -1.77148,2.45699 -0.007,0.052 -0.0295,0.1318 -0.0295,0.1406 -0.004,0.044 -0.007,0.084 -0.008,0.1328 -6e-5,0 0,0.01 0,0.016 -0.004,0.051 -0.0136,0.1064 -0.0136,0.1407 -6e-5,0.013 0,0.024 0,0.029 v 22.0508 0.037 c 0,0.1116 0.0136,0.1593 0.0136,0.14059 a 0.50000866,0.50008452 0 0 0 0,0.059 c 9.3e-4,0.01 0.006,0.048 0.008,0.088 0,0.16139 0.008,0.18391 0.008,0.061 a 0.50000866,0.50008452 0 0 0 0.006,0.066 c 0.10477,0.7672 0.4706,1.4505 1.01172,1.9492 0.079,0.073 0.16778,0.1358 0.25195,0.1993 0.0814,0.061 0.16456,0.11879 0.2578,0.17571 0.0876,0.053 0.17862,0.11021 0.27345,0.15628 0.0864,0.042 0.17835,0.081 0.27344,0.1172 a 0.50000866,0.50008452 0 0 0 0.0215,0.01 h 0.008 a 0.50000866,0.50008452 0 0 0 0.008,0 c 0.0765,0.028 0.15285,0.057 0.23634,0.08 0.0452,0.0129 0.0746,0.02 0.0879,0.0231 0.0647,0.0159 0.13715,0.031 0.21482,0.045 0.0472,0.01 0.0886,0.0159 0.12499,0.0219 0.0541,0.01 0.11168,0.017 0.16992,0.0219 v -0.01 c 0.0622,0.01 0.11974,0.014 0.17579,0.0151 0.0189,9e-4 0.0529,0 0.10352,0 h 0.037 c 0.073,-6e-4 0.14128,0 0.19922,-0.01 0.0178,-10e-4 0.0667,-10e-4 0.12695,-0.01 0.0655,-0.01 0.1135,-0.0159 0.1465,-0.0219 0.0403,-0.01 0.0971,-0.0189 0.14842,-0.0291 0.0204,0 0.0367,0 0.0586,-0.01 a 0.50000866,0.50008452 0 0 0 0.0155,-0.01 0.50000866,0.50008452 0 0 0 0.0295,0 0.50000866,0.50008452 0 0 0 0.0295,-0.01 c 4.3e-4,-2e-4 0.0132,-0.01 0.0295,-0.0151 0.0193,-0.01 0.0367,-0.014 0.037,-0.014 4e-5,0 0.01,0 0.0136,-0.01 0.26877,-0.074 0.53288,-0.16709 0.76758,-0.3027 a 0.50000866,0.50008452 0 0 0 0.0155,-0.01 l 0.008,-0.01 18.84373,-10.8809 0.029,-0.014 0.01,-0.01 c 0,0 0.01,0 0.014,-0.01 a 0.50000866,0.50008452 0 0 0 0.1191,-0.096 c 0.3712,-0.2087 0.718,-0.4654 0.9883,-0.8125 0,-0.01 0.025,-0.0321 0.045,-0.059 l 0.01,-0.014 c 0.042,-0.057 0.086,-0.11539 0.1172,-0.16411 0.014,-0.023 0.034,-0.056 0.059,-0.096 -0.025,0.042 -0.01,0.031 0.031,-0.037 a 0.50000866,0.50008452 0 0 0 0,-0.01 c 0.041,-0.071 0.053,-0.10832 0.051,-0.10352 0.026,-0.049 0.055,-0.099 0.082,-0.15621 a 0.50000866,0.50008452 0 0 0 0.01,-0.014 c 0.021,-0.048 0.035,-0.082 0.045,-0.1036 a 0.50000866,0.50008452 0 0 0 0,-0.01 c 0.017,-0.042 0.041,-0.10001 0.066,-0.16989 0.016,-0.046 0.035,-0.092 0.051,-0.14649 a 0.50000866,0.50008452 0 0 0 0,-0.01 c 0.01,-0.0299 0.023,-0.081 0.037,-0.1406 l 0.01,-0.0159 c 0.013,-0.053 0.023,-0.10341 0.029,-0.13871 0.01,-0.04 0.019,-0.095 0.029,-0.16399 0.01,-0.071 0.013,-0.11078 0.016,-0.13282 v -0.01 c 0.011,-0.08 0.015,-0.1305 0.015,-0.13281 l -0.01,0.01 c 0.011,-0.089 0.014,-0.15262 0.014,-0.19929 0,-0.045 -0.001,-0.11199 -0.014,-0.205 0,-0.041 -0.01,-0.095 -0.01,-0.11139 a 0.50000866,0.50008452 0 0 0 0,-0.01 c 0,-0.02 -0.01,-0.068 -0.016,-0.1406 -0.01,-0.062 -0.02,-0.11769 -0.029,-0.1621 v -0.01 c -0.01,-0.047 -0.017,-0.089 -0.029,-0.13871 a 0.50000866,0.50008452 0 0 0 0,-0.01 c -0.015,-0.06 -0.034,-0.11221 -0.045,-0.14838 -0.013,-0.044 -0.03,-0.096 -0.051,-0.15428 v -0.01 c -0.02,-0.055 -0.042,-0.10829 -0.059,-0.14839 a 0.50000866,0.50008452 0 0 0 0,-0.01 c -0.015,-0.0352 -0.035,-0.075 -0.059,-0.12699 -0.03,-0.065 -0.053,-0.11338 -0.074,-0.15432 0,-0.01 -0.026,-0.048 -0.053,-0.096 l -0.01,-0.01 c -0.022,-0.037 -0.038,-0.062 -0.023,-0.037 -0.027,-0.046 -0.055,-0.086 -0.08,-0.12298 h 0.01 c -0.026,-0.041 -0.062,-0.091 -0.1089,-0.15428 a 0.50000866,0.50008452 0 0 0 0,-0.01 c -0.028,-0.037 -0.044,-0.044 -0.045,-0.045 v -0.01 c -0.051,-0.065 -0.1088,-0.13221 -0.1699,-0.19918 -0.2695,-0.29462 -0.585,-0.52731 -0.9297,-0.70121 L 25.39381,18.622439 c -0.25678,-0.14851 -0.5417,-0.2496 -0.83985,-0.3242 -5e-5,10e-5 -0.003,0 -0.004,0 l -0.11524,-0.035 c 2e-5,-10e-5 10e-6,-0.01 0,-0.01 -0.0113,0 -0.0204,10e-5 -0.0215,0 -0.0577,-0.011 -0.11724,-0.029 -0.16993,-0.037 -0.02,0 -0.0573,-0.01 -0.10352,-0.016 h -0.008 c -0.0661,-0.01 -0.12076,-0.011 -0.15428,-0.014 -0.0448,0 -0.1039,-0.01 -0.17772,-0.01 a 0.50000866,0.50008452 0 0 0 -0.0215,0 0.50000866,0.50008452 0 0 0 -0.0295,0 0.50000866,0.50008452 0 0 0 -0.008,0 z m -0.0644,1.0019 a 0.50000866,0.50008452 0 0 0 0.008,0 c 0.064,0 0.0845,0 0.0723,0 a 0.50000866,0.50008452 0 0 0 0.008,0 h 0.037 c 0.0261,5e-4 0.0597,0 0.11135,0.01 0.0534,0 0.0928,0.01 0.10938,0.01 0.009,0 0.0344,-2e-4 0.0742,0.01 0.0374,0.01 0.0707,0.011 0.10352,0.018 l 0.0586,0.014 h 0.002 c 0.005,0 0.009,0 0.0136,0.01 0.002,5e-4 0.006,-5e-4 0.008,0 0.21627,0.051 0.42195,0.1347 0.61133,0.2441 l 18.96293,10.9473 a 0.50000866,0.50008452 0 0 0 0.021,0.0159 c 0.2386,0.12041 0.456,0.2824 0.6426,0.4863 0.036,0.04 0.08,0.09 0.1192,0.14071 a 0.50000866,0.50008452 0 0 0 0.01,0 c 0.027,0.034 0.037,0.051 0.031,0.043 0.017,0.0231 0.041,0.056 0.072,0.10348 0.02,0.0299 0.039,0.059 0.053,0.082 0.032,0.053 0.03,0.057 0.01,0.0159 a 0.50000866,0.50008452 0 0 0 0.01,0.014 c -3e-4,-6e-4 0.013,0.0212 0.037,0.066 0.025,0.046 0.042,0.08 0.053,0.10349 a 0.50000866,0.50008452 0 0 0 0,0.01 c 0.011,0.0249 0.025,0.054 0.043,0.096 0.016,0.04 0.027,0.076 0.037,0.10348 a 0.50000866,0.50008452 0 0 0 0.01,0 c 0.01,0.0268 0.016,0.06 0.029,0.10352 0.014,0.047 0.023,0.085 0.029,0.10938 0.01,0.031 0.017,0.064 0.023,0.098 a 0.50000866,0.50008452 0 0 0 0,0.01 c 0.01,0.044 0.018,0.085 0.022,0.11131 0,0.0212 0.01,0.064 0.015,0.13289 l -0.01,-0.01 c 0.01,0.052 0.01,0.072 0.01,0.061 a 0.50000866,0.50008452 0 0 0 0.01,0.066 c 2e-4,0 0,0.0231 0,0.072 0,0.047 6e-4,0.069 0,0.074 a 0.50000866,0.50008452 0 0 0 0,0.01 c -0.01,0.077 -0.01,0.11331 -0.01,0.10348 a 0.50000866,0.50008452 0 0 0 0,0.014 c -0.01,0.069 -0.014,0.1118 -0.015,0.12692 0,0.025 -0.011,0.056 -0.022,0.10941 -0.01,0.045 -0.018,0.074 -0.023,0.096 a 0.50000866,0.50008452 0 0 0 0,0.0159 c 0,0.0159 -0.014,0.052 -0.029,0.10353 -0.01,0.0299 -0.025,0.067 -0.037,0.10348 -0.01,0.0268 -0.022,0.061 -0.043,0.11138 -0.018,0.041 -0.029,0.071 -0.037,0.088 -0.016,0.0329 -0.033,0.065 -0.053,0.10349 a 0.50000866,0.50008452 0 0 0 -0.01,0.01 c -0.033,0.061 -0.038,0.081 -0.029,0.066 0.01,-0.0151 0.011,-0.0238 -0.022,0.0291 -0.011,0.017 -0.025,0.044 -0.045,0.074 -0.029,0.044 -0.057,0.079 -0.08,0.10941 a 0.50000866,0.50008452 0 0 0 -0.01,0.01 c 0,0 -0.01,0.01 -0.03,0.037 -0.2173,0.27901 -0.4787,0.49731 -0.7754,0.64261 a 0.50000866,0.50008452 0 0 0 -0.037,0.0219 v -0.01 l -18.91025,10.9199 a 0.50000866,0.50008452 0 0 0 -0.0155,0.0151 l -0.0136,0.01 c -0.18077,0.1028 -0.3778,0.17881 -0.58398,0.22851 -0.01,0 -0.0193,0 -0.0295,0.01 -0.005,0 -0.007,0.01 -0.0136,0.01 v -0.01 c -0.0348,0.01 -0.0817,0.0219 -0.14063,0.031 -0.0508,0.01 -0.0805,0.0121 -0.0957,0.014 a 0.50000866,0.50008452 0 0 0 -0.008,0 c -0.004,4e-4 -0.0374,0 -0.0898,0.01 -0.0498,0 -0.0964,0.01 -0.13281,0.01 -0.0367,5e-4 -0.0663,0 -0.0295,0 -0.003,0 -0.0166,0 -0.0508,0 a 0.50000866,0.50008452 0 0 0 -0.008,0 c -0.0486,0 -0.0997,0 -0.14063,-0.01 a 0.50000866,0.50008452 0 0 0 0,-0.01 c -0.0336,0 -0.0685,0 -0.10352,-0.01 h -0.006 c -0.0336,-0.01 -0.0664,-0.01 -0.0898,-0.014 -0.0452,-0.01 -0.0914,-0.0181 -0.14649,-0.031 a 0.50000866,0.50008452 0 0 0 0,-0.01 c -0.0329,-0.01 -0.0534,-0.01 -0.0527,-0.01 a 0.50000866,0.50008452 0 0 0 -0.008,0 c -0.0553,-0.0151 -0.11194,-0.037 -0.16992,-0.059 4.9e-4,2e-4 -0.0136,-0.01 -0.0215,-0.01 l -0.0215,-0.01 c -0.0555,-0.0219 -0.11339,-0.045 -0.16993,-0.072 -0.0644,-0.031 -0.12306,-0.065 -0.18553,-0.10352 -0.0596,-0.0359 -0.1228,-0.081 -0.18361,-0.12699 -0.06,-0.045 -0.11645,-0.089 -0.16993,-0.1386 -0.37546,-0.34609 -0.62837,-0.8185 -0.70117,-1.3516 v 0.074 c 0,-0.1606 -0.008,-0.1849 -0.008,-0.061 a 0.50000866,0.50008452 0 0 0 0,-0.0351 c -0.001,-0.0151 -0.005,-0.067 -0.008,-0.11139 0,-0.11149 -0.006,-0.15949 -0.006,-0.1406 v -0.037 -22.0508 c 0,-0.015 -5e-5,-0.019 0,-0.023 a 0.50000866,0.50008452 0 0 0 0,-0.01 c 0,-0.037 3.8e-4,-0.055 0,-0.053 a 0.50000866,0.50008452 0 0 0 0.006,-0.088 c 0,-0.027 0.003,-0.053 0.008,-0.09 a 0.50000866,0.50008452 0 0 0 0,-0.01 0.50000866,0.50008452 0 0 0 0.008,-0.037 c 0.10259,-0.76055 0.57921,-1.39695 1.24006,-1.72025 a 0.50000866,0.50008452 0 0 0 0.008,-0.01 c 0.0598,-0.029 0.12371,-0.05 0.18361,-0.072 0.0106,0 0.0208,-0.01 0.0155,-0.01 a 0.50000866,0.50008452 0 0 0 0.006,0 c 0.0577,-0.021 0.11879,-0.042 0.17775,-0.059 -0.002,6e-4 0.009,-8e-4 0.037,-0.01 a 0.50000866,0.50008452 0 0 0 0.008,0 c 0.0586,-0.015 0.10923,-0.029 0.15428,-0.037 a 0.50000866,0.50008452 0 0 0 0.008,0 c 0.006,0 0.0321,-0.01 0.0742,-0.016 a 0.50000866,0.50008452 0 0 0 0.008,0 c 0.0543,-0.01 0.0899,-0.012 0.1172,-0.014 a 0.50000866,0.50008452 0 0 0 0.0155,0 c 0.017,0 0.0476,-0.01 0.0957,-0.01 z m 0.53124,26.5195 c -2.4e-4,10e-5 0.0106,7e-4 0.0136,0 -0.0291,0.01 -0.0531,0.02 -0.0586,0.0219 0.0204,-0.01 0.0456,-0.0219 0.0449,-0.0219 z m -0.0527,0.0219 a 0.50000866,0.50008452 0 0 0 -0.0136,0.0151 c -8e-5,-1e-4 10e-6,-0.01 0,-0.01 -1.2e-4,1e-4 0.008,0 0.0136,-0.01 z" />
  </g>
</svg>
