<?xml version="1.0" encoding="UTF-8" standalone="no"?>
<svg
   xmlns:dc="http://purl.org/dc/elements/1.1/"
   xmlns:cc="http://creativecommons.org/ns#"
   xmlns:rdf="http://www.w3.org/1999/02/22-rdf-syntax-ns#"
   xmlns:svg="http://www.w3.org/2000/svg"
   xmlns="http://www.w3.org/2000/svg"
   xmlns:xlink="http://www.w3.org/1999/xlink"
   xmlns:sodipodi="http://sodipodi.sourceforge.net/DTD/sodipodi-0.dtd"
   xmlns:inkscape="http://www.inkscape.org/namespaces/inkscape"
   width="64"
   height="64"
   viewBox="0 0 16.933333 16.933334"
   version="1.1"
   id="svg841"
   inkscape:version="1.0.2 (e86c870879, 2021-01-15)"
   sodipodi:docname="drive-removable-media.svg">
  <defs
     id="defs835">
    <linearGradient
       inkscape:collect="always"
       xlink:href="#linearGradient4411"
       id="linearGradient4371"
       gradientUnits="userSpaceOnUse"
       gradientTransform="translate(17.810692,-26.529908)"
       x1="-9.6086082"
       y1="27.455952"
       x2="-9.6086092"
       y2="42.272617" />
    <linearGradient
       inkscape:collect="always"
       id="linearGradient4411">
      <stop
         style="stop-color:#69b6bf;stop-opacity:1"
         offset="0"
         id="stop4407" />
      <stop
         style="stop-color:#50aab4;stop-opacity:1"
         offset="1"
         id="stop4409" />
    </linearGradient>
  </defs>
  <sodipodi:namedview
     id="base"
     pagecolor="#c4c4c4"
     bordercolor="#666666"
     borderopacity="1.0"
     inkscape:pageopacity="0"
     inkscape:pageshadow="2"
     inkscape:zoom="2.2848319"
     inkscape:cx="80.466597"
     inkscape:cy="103.45024"
     inkscape:document-units="px"
     inkscape:current-layer="layer1"
     inkscape:document-rotation="0"
     showgrid="false"
     units="px"
     inkscape:window-width="1297"
     inkscape:window-height="970"
     inkscape:window-x="68"
     inkscape:window-y="56"
     inkscape:window-maximized="0" />
  <metadata
     id="metadata838">
    <rdf:RDF>
      <cc:Work
         rdf:about="">
        <dc:format>image/svg+xml</dc:format>
        <dc:type
           rdf:resource="http://purl.org/dc/dcmitype/StillImage" />
        <dc:title />
      </cc:Work>
    </rdf:RDF>
  </metadata>
  <g
     inkscape:label="Layer 1"
     inkscape:groupmode="layer"
     id="layer1">
    <path
       id="rect3559-1-9-6-2-7-3-7"
       style="color:#000000;font-style:normal;font-variant:normal;font-weight:normal;font-stretch:normal;font-size:medium;line-height:normal;font-family:sans-serif;font-variant-ligatures:normal;font-variant-position:normal;font-variant-caps:normal;font-variant-numeric:normal;font-variant-alternates:normal;font-variant-east-asian:normal;font-feature-settings:normal;font-variation-settings:normal;text-indent:0;text-align:start;text-decoration:none;text-decoration-line:none;text-decoration-style:solid;text-decoration-color:#000000;letter-spacing:normal;word-spacing:normal;text-transform:none;writing-mode:lr-tb;direction:ltr;text-orientation:mixed;dominant-baseline:auto;baseline-shift:baseline;text-anchor:start;white-space:normal;shape-padding:0;shape-margin:0;inline-size:0;clip-rule:nonzero;display:inline;overflow:visible;visibility:visible;opacity:0.15;isolation:auto;mix-blend-mode:normal;color-interpolation:sRGB;color-interpolation-filters:linearRGB;solid-color:#000000;solid-opacity:1;vector-effect:none;fill:#0c0c0c;fill-opacity:1;fill-rule:nonzero;stroke:none;stroke-width:1.00001;stroke-linecap:round;stroke-linejoin:round;stroke-miterlimit:4;stroke-dasharray:none;stroke-dashoffset:2.1875;stroke-opacity:1;paint-order:normal;color-rendering:auto;image-rendering:auto;shape-rendering:auto;text-rendering:auto;enable-background:accumulate;stop-color:#000000"
       d="m 3.7051324,0.52916674 c -0.9458616,0 -1.7207574,0.77497516 -1.7207574,1.72093466 V 14.949882 c 0,0.94596 0.7748958,1.718868 1.7207574,1.718868 H 13.23027 c 0.945862,0 1.718689,-0.772908 1.718689,-1.718868 V 2.2501014 c 0,-0.9459595 -0.772827,-1.72093466 -1.718689,-1.72093466 z m 0,0.79328426 H 13.23027 c 0.51987,0 0.925486,0.4077256 0.925486,0.9276504 V 14.949882 c 0,0.519925 -0.405616,0.926103 -0.925486,0.926103 H 3.7051324 c -0.5198719,0 -0.9254887,-0.406178 -0.9254887,-0.926103 V 2.2501014 c 0,-0.5199248 0.4056168,-0.9276504 0.9254887,-0.9276504 z" />
    <path
       id="rect3559-1-9-6-3-7"
       style="color:#000000;font-style:normal;font-variant:normal;font-weight:normal;font-stretch:normal;font-size:medium;line-height:normal;font-family:sans-serif;font-variant-ligatures:normal;font-variant-position:normal;font-variant-caps:normal;font-variant-numeric:normal;font-variant-alternates:normal;font-variant-east-asian:normal;font-feature-settings:normal;font-variation-settings:normal;text-indent:0;text-align:start;text-decoration:none;text-decoration-line:none;text-decoration-style:solid;text-decoration-color:#000000;letter-spacing:normal;word-spacing:normal;text-transform:none;writing-mode:lr-tb;direction:ltr;text-orientation:mixed;dominant-baseline:auto;baseline-shift:baseline;text-anchor:start;white-space:normal;shape-padding:0;shape-margin:0;inline-size:0;clip-rule:nonzero;display:inline;overflow:visible;visibility:visible;opacity:0.85;isolation:auto;mix-blend-mode:normal;color-interpolation:sRGB;color-interpolation-filters:linearRGB;solid-color:#000000;solid-opacity:1;vector-effect:none;fill:#316c72;fill-opacity:1;fill-rule:nonzero;stroke:none;stroke-width:1.00001;stroke-linecap:round;stroke-linejoin:round;stroke-miterlimit:4;stroke-dasharray:none;stroke-dashoffset:2.1875;stroke-opacity:1;paint-order:normal;color-rendering:auto;image-rendering:auto;shape-rendering:auto;text-rendering:auto;enable-background:accumulate;stop-color:#000000"
       d="m 3.7051324,0.26458334 c -0.9458616,0 -1.7207574,0.77497516 -1.7207574,1.72093476 V 14.685299 c 0,0.945959 0.7748958,1.718868 1.7207574,1.718868 H 13.23027 c 0.945862,0 1.718689,-0.772909 1.718689,-1.718868 V 1.9855181 c 0,-0.9459596 -0.772827,-1.72093476 -1.718689,-1.72093476 z m 0,0.79328436 H 13.23027 c 0.51987,0 0.925486,0.4077256 0.925486,0.9276504 V 14.685299 c 0,0.519925 -0.405616,0.926102 -0.925486,0.926102 H 3.7051324 c -0.5198719,0 -0.9254887,-0.406177 -0.9254887,-0.926102 V 1.9855181 c 0,-0.5199248 0.4056168,-0.9276504 0.9254887,-0.9276504 z" />
    <rect
       style="fill:url(#linearGradient4371);fill-opacity:1;stroke:none;stroke-width:0.79375;stroke-linecap:round;stroke-linejoin:round;stroke-miterlimit:4;stroke-dasharray:none;stroke-dashoffset:2.1875;stroke-opacity:1;paint-order:normal"
       id="rect3559-1-8-5"
       width="12.170834"
       height="15.345834"
       x="2.3812499"
       y="0.66145849"
       rx="1.3229167"
       ry="1.3229167" />
    <path
       id="rect3559-1-9-6-2-0-8"
       style="color:#000000;font-style:normal;font-variant:normal;font-weight:normal;font-stretch:normal;font-size:medium;line-height:normal;font-family:sans-serif;font-variant-ligatures:normal;font-variant-position:normal;font-variant-caps:normal;font-variant-numeric:normal;font-variant-alternates:normal;font-variant-east-asian:normal;font-feature-settings:normal;font-variation-settings:normal;text-indent:0;text-align:start;text-decoration:none;text-decoration-line:none;text-decoration-style:solid;text-decoration-color:#000000;letter-spacing:normal;word-spacing:normal;text-transform:none;writing-mode:lr-tb;direction:ltr;text-orientation:mixed;dominant-baseline:auto;baseline-shift:baseline;text-anchor:start;white-space:normal;shape-padding:0;shape-margin:0;inline-size:0;clip-rule:nonzero;display:inline;overflow:visible;visibility:visible;opacity:0.15;isolation:auto;mix-blend-mode:normal;color-interpolation:sRGB;color-interpolation-filters:linearRGB;solid-color:#000000;solid-opacity:1;vector-effect:none;fill:#255255;fill-opacity:1;fill-rule:nonzero;stroke:none;stroke-width:1.00001;stroke-linecap:round;stroke-linejoin:round;stroke-miterlimit:4;stroke-dasharray:none;stroke-dashoffset:2.1875;stroke-opacity:1;paint-order:normal;color-rendering:auto;image-rendering:auto;shape-rendering:auto;text-rendering:auto;enable-background:accumulate;stop-color:#000000"
       d="m 3.7051324,0.26458334 c -0.9458616,0 -1.7207574,0.77497516 -1.7207574,1.72093476 V 14.685299 c 0,0.945959 0.7748958,1.718868 1.7207574,1.718868 H 13.23027 c 0.945862,0 1.718689,-0.772909 1.718689,-1.718868 V 1.9855181 c 0,-0.9459596 -0.772827,-1.72093476 -1.718689,-1.72093476 z m 0,0.79328436 H 13.23027 c 0.51987,0 0.925486,0.4077256 0.925486,0.9276504 V 14.685299 c 0,0.519925 -0.405616,0.926102 -0.925486,0.926102 H 3.7051324 c -0.5198719,0 -0.9254887,-0.406177 -0.9254887,-0.926102 V 1.9855181 c 0,-0.5199248 0.4056168,-0.9276504 0.9254887,-0.9276504 z" />
    <path
       id="rect1044-1-2-0-1-5-3-58-6"
       style="opacity:0.35;fill:#1f4547;fill-opacity:1;stroke:none;stroke-width:0;stroke-linecap:round;stroke-linejoin:round;stroke-miterlimit:4;stroke-dasharray:none;stroke-dashoffset:2.1875"
       d="M 8.4538689,5.1593751 A 0.66133863,0.40934641 1.3077569e-6 0 0 7.8969479,5.3636229 L 4.5864119,8.909122 A 0.66133863,0.40934641 1.3077569e-6 0 0 5.158449,9.523026 l 6.614869,0.0021 A 0.66133863,0.40934641 1.3077569e-6 0 0 12.346909,8.911208 L 9.0421859,5.3642103 A 0.66133863,0.40934641 1.3077569e-6 0 0 8.4538689,5.1595207 Z M 4.6964785,11.50932 c -0.109929,0 -0.1984295,0.0885 -0.1984295,0.198437 v 1.190609 c 0,0.10994 0.0885,0.198441 0.1984295,0.198441 h 7.5403605 c 0.109932,0 0.198432,-0.0885 0.198432,-0.198441 v -1.190609 c 0,-0.109939 -0.0885,-0.198437 -0.198432,-0.198437 z" />
    <path
       id="rect1044-1-2-0-1-5-3-58-7-8"
       style="color:#000000;font-style:normal;font-variant:normal;font-weight:normal;font-stretch:normal;font-size:medium;line-height:normal;font-family:sans-serif;font-variant-ligatures:normal;font-variant-position:normal;font-variant-caps:normal;font-variant-numeric:normal;font-variant-alternates:normal;font-variant-east-asian:normal;font-feature-settings:normal;font-variation-settings:normal;text-indent:0;text-align:start;text-decoration:none;text-decoration-line:none;text-decoration-style:solid;text-decoration-color:#000000;letter-spacing:normal;word-spacing:normal;text-transform:none;writing-mode:lr-tb;direction:ltr;text-orientation:mixed;dominant-baseline:auto;baseline-shift:baseline;text-anchor:start;white-space:normal;shape-padding:0;shape-margin:0;inline-size:0;clip-rule:nonzero;display:inline;overflow:visible;visibility:visible;opacity:0.75;isolation:auto;mix-blend-mode:normal;color-interpolation:sRGB;color-interpolation-filters:linearRGB;solid-color:#000000;solid-opacity:1;vector-effect:none;fill:#1f4547;fill-opacity:1;fill-rule:nonzero;stroke:none;stroke-width:0.264553;stroke-linecap:round;stroke-linejoin:round;stroke-miterlimit:4;stroke-dasharray:none;stroke-dashoffset:2.1875;stroke-opacity:1;color-rendering:auto;image-rendering:auto;shape-rendering:auto;text-rendering:auto;enable-background:accumulate;stop-color:#000000"
       d="m 8.4498789,4.2333334 c -0.287263,0.00418 -0.558456,0.087617 -0.746038,0.2883535 a 0.26454935,0.2646098 0 0 0 -5.29e-4,0 l -3.3096331,3.54552 C 4.2926794,8.175593 4.2294413,8.321053 4.2335185,8.466151 c 0.00407,0.145097 0.070313,0.27459 0.1601603,0.371036 0.1796944,0.192889 0.4518475,0.289152 0.7651512,0.289388 l 6.613591,0.0021 c 0.313722,2.25e-4 0.586058,-0.09552 0.766186,-0.288353 0.09006,-0.09642 0.156964,-0.226296 0.161195,-0.371554 0.0042,-0.145259 -0.05954,-0.29042 -0.160679,-0.3989419 h 5.29e-4 L 9.2351809,4.5227717 C 9.0578519,4.3324596 8.8030109,4.257982 8.5340929,4.2463033 a 0.26454935,0.2646098 0 0 0 -0.08421,-0.012912 z m 0.0062,0.5296827 a 0.26454935,0.2646098 0 0 0 0.0016,0 c 0.182163,-0.00265 0.345382,0.071895 0.390583,0.1204065 L 12.152215,8.430493 c 0.02611,0.02802 0.01847,0.02723 0.0186,0.02273 1.3e-4,-0.0045 0.0029,0.0029 -0.0186,0.02585 -0.04292,0.04594 -0.184222,0.120544 -0.379733,0.120403 L 5.1594093,8.597376 C 4.9641838,8.597228 4.8233646,8.522246 4.7807085,8.476453 c -0.021325,-0.02289 -0.018733,-0.0298 -0.0186,-0.02532 1.27e-4,0.0045 -0.00746,0.0052 0.0186,-0.02273 l 3.3096364,-3.54552 c 0.04306,-0.046085 0.193153,-0.1167977 0.365783,-0.1198906 z M 4.6969601,10.583334 c -0.2518754,0 -0.462915,0.211089 -0.462915,0.46302 v 1.190625 c 0,0.251931 0.2110396,0.463021 0.462915,0.463021 h 7.5389029 c 0.251875,0 0.462915,-0.21109 0.462915,-0.463021 v -1.190625 c 0,-0.251931 -0.21104,-0.46302 -0.462915,-0.46302 z m 0.06613,0.529166 h 7.4066429 v 1.058334 H 4.76309 Z" />
    <path
       id="rect1044-1-2-0-1-5-3-58"
       style="fill:#fdfbfc;fill-opacity:1;stroke:none;stroke-width:0;stroke-linecap:round;stroke-linejoin:round;stroke-miterlimit:4;stroke-dasharray:none;stroke-dashoffset:2.1875"
       d="M 8.4538689,4.4979856 A 0.66133863,0.40934641 1.3077569e-6 0 0 7.8969479,4.7022333 L 4.5864119,8.247732 A 0.66133863,0.40934641 1.3077569e-6 0 0 5.158449,8.861637 l 6.614869,0.0021 A 0.66133863,0.40934641 1.3077569e-6 0 0 12.346909,8.249819 L 9.0421859,4.7028233 A 0.66133863,0.40934641 1.3077569e-6 0 0 8.4538689,4.4981337 Z M 4.6964785,10.84793 c -0.109929,0 -0.1984295,0.0885 -0.1984295,0.198438 v 1.190609 c 0,0.109939 0.0885,0.19844 0.1984295,0.19844 h 7.5403605 c 0.109932,0 0.198432,-0.0885 0.198432,-0.19844 v -1.190609 c 0,-0.109937 -0.0885,-0.198438 -0.198432,-0.198438 z" />
  </g>
</svg>
