<?xml version="1.0" encoding="UTF-8" standalone="no"?>
<svg
   xmlns:dc="http://purl.org/dc/elements/1.1/"
   xmlns:cc="http://creativecommons.org/ns#"
   xmlns:rdf="http://www.w3.org/1999/02/22-rdf-syntax-ns#"
   xmlns:svg="http://www.w3.org/2000/svg"
   xmlns="http://www.w3.org/2000/svg"
   xmlns:xlink="http://www.w3.org/1999/xlink"
   xmlns:sodipodi="http://sodipodi.sourceforge.net/DTD/sodipodi-0.dtd"
   xmlns:inkscape="http://www.inkscape.org/namespaces/inkscape"
   width="64"
   height="64"
   viewBox="0 0 64 64"
   version="1.1"
   id="svg6374"
   inkscape:version="1.0.2 (e86c870879, 2021-01-15)"
   sodipodi:docname="preferences-desktop-display.svg">
  <defs
     id="defs6368">
    <linearGradient
       id="linearGradient1688-9"
       x1="49.570999"
       x2="51.714001"
       y1="52.714001"
       y2="54.856998"
       gradientTransform="matrix(2.3333,0,0,2.3333,-68.667,-72.001)"
       gradientUnits="userSpaceOnUse">
      <stop
         offset="0"
         id="stop1684-4"
         style="stop-color:#e1dce1;stop-opacity:0.25" />
      <stop
         stop-opacity="0"
         offset="1"
         id="stop1686-9"
         style="stop-color:#050005;stop-opacity:0" />
    </linearGradient>
    <linearGradient
       inkscape:collect="always"
       xlink:href="#linearGradient1688-9"
       id="linearGradient1148"
       gradientUnits="userSpaceOnUse"
       gradientTransform="matrix(0.93633551,0,0,0.93781584,2.383552,54.00238)"
       x1="27.277746"
       y1="-39.599663"
       x2="43.865101"
       y2="-24.526985" />
    <radialGradient
       inkscape:collect="always"
       xlink:href="#linearGradient1567-9"
       id="radialGradient1569-8-3"
       cx="32.854942"
       cy="167.80858"
       fx="32.854942"
       fy="167.80858"
       r="2"
       gradientTransform="matrix(0.77479547,0,0,5.5,6.63362,-873.58661)"
       gradientUnits="userSpaceOnUse" />
    <linearGradient
       inkscape:collect="always"
       id="linearGradient1567-9">
      <stop
         style="stop-color:#fdfdfd;stop-opacity:0"
         offset="0"
         id="stop1563-4" />
      <stop
         style="stop-color:#44444b;stop-opacity:0.75"
         offset="1"
         id="stop1565-8" />
    </linearGradient>
    <linearGradient
       inkscape:collect="always"
       xlink:href="#linearGradient1471"
       id="linearGradient1473"
       x1="31.972605"
       y1="45.130196"
       x2="32.114594"
       y2="55.611042"
       gradientUnits="userSpaceOnUse" />
    <linearGradient
       inkscape:collect="always"
       id="linearGradient1471">
      <stop
         style="stop-color:#2d282d;stop-opacity:1"
         offset="0"
         id="stop1467" />
      <stop
         style="stop-color:#898891;stop-opacity:1"
         offset="1"
         id="stop1469" />
    </linearGradient>
    <linearGradient
       inkscape:collect="always"
       xlink:href="#linearGradient1378-2"
       id="linearGradient1339-7-1"
       gradientUnits="userSpaceOnUse"
       gradientTransform="matrix(0.70149475,0,0,0.70149826,10.111371,-60.972573)"
       x1="21.677887"
       y1="170.7903"
       x2="29.086224"
       y2="160.20695" />
    <linearGradient
       inkscape:collect="always"
       id="linearGradient1378-2">
      <stop
         style="stop-color:#4b464b;stop-opacity:0"
         offset="0"
         id="stop1374-9" />
      <stop
         style="stop-color:#373237;stop-opacity:0.34999999"
         offset="1"
         id="stop1376-3" />
    </linearGradient>
  </defs>
  <sodipodi:namedview
     id="base"
     pagecolor="#cecece"
     bordercolor="#666666"
     borderopacity="1.0"
     inkscape:pageopacity="0"
     inkscape:pageshadow="2"
     inkscape:zoom="2.6746233"
     inkscape:cx="62.253554"
     inkscape:cy="38.446997"
     inkscape:document-units="px"
     inkscape:current-layer="layer1"
     inkscape:document-rotation="0"
     showgrid="false"
     units="px"
     inkscape:window-width="1500"
     inkscape:window-height="970"
     inkscape:window-x="68"
     inkscape:window-y="56"
     inkscape:window-maximized="0" />
  <metadata
     id="metadata6371">
    <rdf:RDF>
      <cc:Work
         rdf:about="">
        <dc:format>image/svg+xml</dc:format>
        <dc:type
           rdf:resource="http://purl.org/dc/dcmitype/StillImage" />
        <dc:title />
      </cc:Work>
    </rdf:RDF>
  </metadata>
  <g
     inkscape:label="Layer 1"
     inkscape:groupmode="layer"
     id="layer1">
    <path
       style="color:#000000;font-style:normal;font-variant:normal;font-weight:normal;font-stretch:normal;font-size:medium;line-height:normal;font-family:sans-serif;font-variant-ligatures:normal;font-variant-position:normal;font-variant-caps:normal;font-variant-numeric:normal;font-variant-alternates:normal;font-variant-east-asian:normal;font-feature-settings:normal;font-variation-settings:normal;text-indent:0;text-align:start;text-decoration:none;text-decoration-line:none;text-decoration-style:solid;text-decoration-color:#000000;letter-spacing:normal;word-spacing:normal;text-transform:none;writing-mode:lr-tb;direction:ltr;text-orientation:mixed;dominant-baseline:auto;baseline-shift:baseline;text-anchor:start;white-space:normal;shape-padding:0;shape-margin:0;inline-size:0;clip-rule:nonzero;display:inline;overflow:visible;visibility:visible;opacity:0.25;isolation:auto;mix-blend-mode:normal;color-interpolation:sRGB;color-interpolation-filters:linearRGB;solid-color:#000000;solid-opacity:1;vector-effect:none;fill:#0c0c0c;fill-opacity:1;fill-rule:nonzero;stroke:none;stroke-width:0.701501;stroke-linecap:round;stroke-linejoin:round;stroke-miterlimit:4;stroke-dasharray:none;stroke-dashoffset:0;stroke-opacity:1;color-rendering:auto;image-rendering:auto;shape-rendering:auto;text-rendering:auto;enable-background:accumulate;stop-color:#000000"
       d="m 32.00001,51.648 c -4.22791,0 -8.054111,0.42691 -10.85145,1.12623 -1.39867,0.34966 -2.539772,0.76419 -3.36093,1.24955 -0.82116,0.48535 -1.37835,1.07436 -1.37835,1.80033 0,0.72596 0.557189,1.31497 1.37835,1.80032 0.821159,0.48536 1.96226,0.90126 3.36093,1.25092 2.797339,0.69932 6.62354,1.12486 10.85145,1.12486 4.227887,0 8.054087,-0.42554 10.851417,-1.12486 1.39868,-0.34966 2.53978,-0.76556 3.36093,-1.25092 0.82117,-0.48535 1.37836,-1.07436 1.37836,-1.80032 0,-0.72597 -0.55719,-1.31498 -1.37836,-1.80033 -0.82115,-0.48536 -1.96225,-0.89989 -3.36093,-1.24955 C 40.054097,52.07491 36.227897,51.648 32.00001,51.648 Z m 0,0.7426 c 4.177737,0 7.960797,0.42517 10.671937,1.10294 1.35557,0.33889 2.4431,0.74501 3.16226,1.17008 0.71917,0.42507 1.0139,0.83576 1.0139,1.16049 0,0.32473 -0.29473,0.73678 -1.0139,1.16185 -0.71916,0.42507 -1.80669,0.82982 -3.16226,1.1687 -2.71114,0.67779 -6.4942,1.10295 -10.671938,1.10295 -4.17776,0 -7.96082,-0.42516 -10.67196,-1.10295 -1.35557,-0.33888 -2.4431,-0.74363 -3.162259,-1.1687 -0.71917,-0.42507 -1.0139,-0.83712 -1.0139,-1.16185 0,-0.32473 0.29473,-0.73542 1.0139,-1.16049 0.719159,-0.42507 1.806689,-0.83119 3.162259,-1.17008 2.71114,-0.67777 6.4942,-1.10294 10.671961,-1.10294 z"
       id="path1860-4-5-8-7-4-6-9" />
    <ellipse
       style="fill:#e3e3e9;fill-opacity:1;stroke:none;stroke-width:0.685254;stroke-linecap:round;stroke-linejoin:round;stroke-miterlimit:4;stroke-dasharray:none;stroke-opacity:1"
       id="path1860-4-4-4-9-0"
       cx="31.999992"
       cy="55.124504"
       rx="15.219514"
       ry="3.8048975" />
    <ellipse
       style="fill:url(#linearGradient1339-7-1);fill-opacity:1;stroke:none;stroke-width:0.685254;stroke-linecap:round;stroke-linejoin:round;stroke-miterlimit:4;stroke-dasharray:none;stroke-opacity:1"
       id="path1860-4-7-6-8"
       cx="32.000038"
       cy="55.124428"
       rx="15.219514"
       ry="3.8048975" />
    <path
       style="color:#000000;font-style:normal;font-variant:normal;font-weight:normal;font-stretch:normal;font-size:medium;line-height:normal;font-family:sans-serif;font-variant-ligatures:normal;font-variant-position:normal;font-variant-caps:normal;font-variant-numeric:normal;font-variant-alternates:normal;font-variant-east-asian:normal;font-feature-settings:normal;font-variation-settings:normal;text-indent:0;text-align:start;text-decoration:none;text-decoration-line:none;text-decoration-style:solid;text-decoration-color:#000000;letter-spacing:normal;word-spacing:normal;text-transform:none;writing-mode:lr-tb;direction:ltr;text-orientation:mixed;dominant-baseline:auto;baseline-shift:baseline;text-anchor:start;white-space:normal;shape-padding:0;shape-margin:0;inline-size:0;clip-rule:nonzero;display:inline;overflow:visible;visibility:visible;opacity:0.9;isolation:auto;mix-blend-mode:normal;color-interpolation:sRGB;color-interpolation-filters:linearRGB;solid-color:#000000;solid-opacity:1;vector-effect:none;fill:#2d282d;fill-opacity:1;fill-rule:nonzero;stroke:none;stroke-width:0.701501;stroke-linecap:round;stroke-linejoin:round;stroke-miterlimit:4;stroke-dasharray:none;stroke-dashoffset:0;stroke-opacity:1;color-rendering:auto;image-rendering:auto;shape-rendering:auto;text-rendering:auto;enable-background:accumulate;stop-color:#000000"
       d="m 32.00001,50.9484 c -4.22791,0 -8.054111,0.42691 -10.85145,1.12623 -1.39867,0.34966 -2.539772,0.76419 -3.36093,1.24955 -0.82116,0.48535 -1.37835,1.07436 -1.37835,1.80033 0,0.72596 0.557189,1.31497 1.37835,1.80032 0.821159,0.48536 1.96226,0.90126 3.36093,1.25092 2.797339,0.69932 6.62354,1.12486 10.85145,1.12486 4.227887,0 8.054087,-0.42554 10.851417,-1.12486 1.39868,-0.34966 2.53978,-0.76556 3.36093,-1.25092 0.82117,-0.48535 1.37836,-1.07436 1.37836,-1.80032 0,-0.72597 -0.55719,-1.31498 -1.37836,-1.80033 -0.82115,-0.48536 -1.96225,-0.89989 -3.36093,-1.24955 -2.79733,-0.69932 -6.62353,-1.12623 -10.851417,-1.12623 z m 0,0.7426 c 4.177737,0 7.960797,0.42517 10.671937,1.10294 1.35557,0.33889 2.4431,0.74501 3.16226,1.17008 0.71917,0.42507 1.0139,0.83576 1.0139,1.16049 0,0.32473 -0.29473,0.73678 -1.0139,1.16185 -0.71916,0.42507 -1.80669,0.82982 -3.16226,1.1687 -2.71114,0.67779 -6.4942,1.10295 -10.671938,1.10295 -4.17776,0 -7.96082,-0.42516 -10.67196,-1.10295 -1.35557,-0.33888 -2.4431,-0.74363 -3.162259,-1.1687 -0.71917,-0.42507 -1.0139,-0.83712 -1.0139,-1.16185 0,-0.32473 0.29473,-0.73542 1.0139,-1.16049 0.719159,-0.42507 1.806689,-0.83119 3.162259,-1.17008 2.71114,-0.67777 6.4942,-1.10294 10.671961,-1.10294 z"
       id="path1860-4-5-8-8-8" />
    <path
       style="color:#000000;font-style:normal;font-variant:normal;font-weight:normal;font-stretch:normal;font-size:medium;line-height:normal;font-family:sans-serif;font-variant-ligatures:normal;font-variant-position:normal;font-variant-caps:normal;font-variant-numeric:normal;font-variant-alternates:normal;font-variant-east-asian:normal;font-feature-settings:normal;font-variation-settings:normal;text-indent:0;text-align:start;text-decoration:none;text-decoration-line:none;text-decoration-style:solid;text-decoration-color:#000000;letter-spacing:normal;word-spacing:normal;text-transform:none;writing-mode:lr-tb;direction:ltr;text-orientation:mixed;dominant-baseline:auto;baseline-shift:baseline;text-anchor:start;white-space:normal;shape-padding:0;shape-margin:0;inline-size:0;clip-rule:nonzero;display:inline;overflow:visible;visibility:visible;opacity:0.4;isolation:auto;mix-blend-mode:normal;color-interpolation:sRGB;color-interpolation-filters:linearRGB;solid-color:#000000;solid-opacity:1;vector-effect:none;fill:#2d282d;fill-opacity:1;fill-rule:nonzero;stroke:none;stroke-width:0.701501;stroke-linecap:round;stroke-linejoin:round;stroke-miterlimit:4;stroke-dasharray:none;stroke-dashoffset:0;stroke-opacity:1;color-rendering:auto;image-rendering:auto;shape-rendering:auto;text-rendering:auto;enable-background:accumulate;stop-color:#000000"
       d="m 32.00001,50.9484 c -4.22791,0 -8.054111,0.42691 -10.85145,1.12623 -1.39867,0.34966 -2.539772,0.76419 -3.36093,1.24955 -0.82116,0.48535 -1.37835,1.07436 -1.37835,1.80033 0,0.72596 0.557189,1.31497 1.37835,1.80032 0.821159,0.48536 1.96226,0.90126 3.36093,1.25092 2.797339,0.69932 6.62354,1.12486 10.85145,1.12486 4.227887,0 8.054087,-0.42554 10.851417,-1.12486 1.39868,-0.34966 2.53978,-0.76556 3.36093,-1.25092 0.82117,-0.48535 1.37836,-1.07436 1.37836,-1.80032 0,-0.72597 -0.55719,-1.31498 -1.37836,-1.80033 -0.82115,-0.48536 -1.96225,-0.89989 -3.36093,-1.24955 -2.79733,-0.69932 -6.62353,-1.12623 -10.851417,-1.12623 z m 0,0.7426 c 4.177737,0 7.960797,0.42517 10.671937,1.10294 1.35557,0.33889 2.4431,0.74501 3.16226,1.17008 0.71917,0.42507 1.0139,0.83576 1.0139,1.16049 0,0.32473 -0.29473,0.73678 -1.0139,1.16185 -0.71916,0.42507 -1.80669,0.82982 -3.16226,1.1687 -2.71114,0.67779 -6.4942,1.10295 -10.671938,1.10295 -4.17776,0 -7.96082,-0.42516 -10.67196,-1.10295 -1.35557,-0.33888 -2.4431,-0.74363 -3.162259,-1.1687 -0.71917,-0.42507 -1.0139,-0.83712 -1.0139,-1.16185 0,-0.32473 0.29473,-0.73542 1.0139,-1.16049 0.719159,-0.42507 1.806689,-0.83119 3.162259,-1.17008 2.71114,-0.67777 6.4942,-1.10294 10.671961,-1.10294 z"
       id="path1860-4-5-8-8-6" />
    <path
       id="rect1392-6-6-4-5"
       style="color:#000000;font-style:normal;font-variant:normal;font-weight:normal;font-stretch:normal;font-size:medium;line-height:normal;font-family:sans-serif;font-variant-ligatures:normal;font-variant-position:normal;font-variant-caps:normal;font-variant-numeric:normal;font-variant-alternates:normal;font-variant-east-asian:normal;font-feature-settings:normal;font-variation-settings:normal;text-indent:0;text-align:start;text-decoration:none;text-decoration-line:none;text-decoration-style:solid;text-decoration-color:#000000;letter-spacing:normal;word-spacing:normal;text-transform:none;writing-mode:lr-tb;direction:ltr;text-orientation:mixed;dominant-baseline:auto;baseline-shift:baseline;text-anchor:start;white-space:normal;shape-padding:0;shape-margin:0;inline-size:0;clip-rule:nonzero;display:inline;overflow:visible;visibility:visible;isolation:auto;mix-blend-mode:normal;color-interpolation:sRGB;color-interpolation-filters:linearRGB;solid-color:#000000;solid-opacity:1;vector-effect:none;fill:url(#linearGradient1473);fill-opacity:1;fill-rule:nonzero;stroke:none;stroke-linecap:round;stroke-linejoin:round;stroke-miterlimit:4;stroke-dasharray:none;stroke-dashoffset:2.1875;stroke-opacity:1;color-rendering:auto;image-rendering:auto;shape-rendering:auto;text-rendering:auto;enable-background:accumulate;stop-color:#000000"
       d="m 31,32.566 c -0.82235,0 -1.5,0.67765 -1.5,1.5 v 21.5 h 1 v -21.5 c 0,-0.28565 0.214349,-0.5 0.5,-0.5 h 2 c 0.285649,0 0.5,0.21435 0.5,0.5 v 21.5 h 0.999997 v -21.5 c 0,-0.82235 -0.67765,-1.5 -1.499997,-1.5 z" />
    <path
       id="rect1392-2-5-9-0"
       style="fill:#f7f7fd;fill-opacity:1;stroke:none;stroke-width:3;stroke-linecap:round;stroke-linejoin:round;stroke-miterlimit:4;stroke-dasharray:none;stroke-dashoffset:2.1875;stroke-opacity:1"
       d="m 31,33.566 c -0.554001,0 -1,0.446 -1,1 v 21 h 3.999997 v -21 c 0,-0.554 -0.445997,-1 -0.999997,-1 z" />
    <path
       id="rect1392-6-6-6-5-9"
       style="color:#000000;font-style:normal;font-variant:normal;font-weight:normal;font-stretch:normal;font-size:medium;line-height:normal;font-family:sans-serif;font-variant-ligatures:normal;font-variant-position:normal;font-variant-caps:normal;font-variant-numeric:normal;font-variant-alternates:normal;font-variant-east-asian:normal;font-feature-settings:normal;font-variation-settings:normal;text-indent:0;text-align:start;text-decoration:none;text-decoration-line:none;text-decoration-style:solid;text-decoration-color:#000000;letter-spacing:normal;word-spacing:normal;text-transform:none;writing-mode:lr-tb;direction:ltr;text-orientation:mixed;dominant-baseline:auto;baseline-shift:baseline;text-anchor:start;white-space:normal;shape-padding:0;shape-margin:0;inline-size:0;clip-rule:nonzero;display:inline;overflow:visible;visibility:visible;opacity:0.15;isolation:auto;mix-blend-mode:normal;color-interpolation:sRGB;color-interpolation-filters:linearRGB;solid-color:#000000;solid-opacity:1;vector-effect:none;fill:#0c0c0c;fill-opacity:1;fill-rule:nonzero;stroke:none;stroke-linecap:round;stroke-linejoin:round;stroke-miterlimit:4;stroke-dasharray:none;stroke-dashoffset:2.1875;stroke-opacity:1;color-rendering:auto;image-rendering:auto;shape-rendering:auto;text-rendering:auto;enable-background:accumulate;stop-color:#000000"
       d="m 31,32.566 c -0.82235,0 -1.5,0.67765 -1.5,1.5 v 21.5 h 1 v -21.5 c 0,-0.28565 0.214349,-0.5 0.5,-0.5 h 2 c 0.285649,0 0.5,0.21435 0.5,0.5 v 21.5 h 0.999997 v -21.5 c 0,-0.82235 -0.67765,-1.5 -1.499997,-1.5 z" />
    <path
       id="rect1392-2-5-5-0-6"
       style="opacity:0.749;fill:url(#radialGradient1569-8-3);fill-opacity:1;stroke:none;stroke-width:3;stroke-linecap:round;stroke-linejoin:round;stroke-miterlimit:4;stroke-dasharray:none;stroke-dashoffset:2.1875;stroke-opacity:1"
       d="m 31,33.566 c -0.554001,0 -1,0.446 -1,1 v 21 h 3.999997 v -21 c 0,-0.554 -0.445997,-1 -0.999997,-1 z" />
    <path
       id="rect1055-2-0-4-3"
       style="color:#000000;font-style:normal;font-variant:normal;font-weight:normal;font-stretch:normal;font-size:medium;line-height:normal;font-family:sans-serif;font-variant-ligatures:normal;font-variant-position:normal;font-variant-caps:normal;font-variant-numeric:normal;font-variant-alternates:normal;font-variant-east-asian:normal;font-feature-settings:normal;font-variation-settings:normal;text-indent:0;text-align:start;text-decoration:none;text-decoration-line:none;text-decoration-style:solid;text-decoration-color:#000000;letter-spacing:normal;word-spacing:normal;text-transform:none;writing-mode:lr-tb;direction:ltr;text-orientation:mixed;dominant-baseline:auto;baseline-shift:baseline;text-anchor:start;white-space:normal;shape-padding:0;shape-margin:0;inline-size:0;clip-rule:nonzero;display:inline;overflow:visible;visibility:visible;opacity:0.25;isolation:auto;mix-blend-mode:normal;color-interpolation:sRGB;color-interpolation-filters:linearRGB;solid-color:#000000;solid-opacity:1;vector-effect:none;fill:#0c0c0c;fill-opacity:1;fill-rule:nonzero;stroke:none;stroke-linecap:round;stroke-linejoin:round;stroke-miterlimit:4;stroke-dasharray:none;stroke-dashoffset:2.1875;stroke-opacity:1;color-rendering:auto;image-rendering:auto;shape-rendering:auto;text-rendering:auto;enable-background:accumulate;stop-color:#000000"
       d="M 5.5,5 C 3.586951,5 2,6.58695 2,8.5 v 33 C 2,43.41306 3.586951,45 5.5,45 h 52.999997 c 1.91306,0 3.5,-1.58694 3.5,-3.5 v -33 c 0,-1.91305 -1.58694,-3.5 -3.5,-3.5 z m 0,3 h 52.999997 c 0.302949,0 0.5,0.19706 0.5,0.5 v 33 c 0,0.30295 -0.197051,0.5 -0.5,0.5 H 5.5 C 5.197051,42 5,41.80295 5,41.5 V 8.5 C 5,8.19706 5.197051,8 5.5,8 Z" />
    <path
       id="rect1055-2-8-8"
       style="color:#000000;font-style:normal;font-variant:normal;font-weight:normal;font-stretch:normal;font-size:medium;line-height:normal;font-family:sans-serif;font-variant-ligatures:normal;font-variant-position:normal;font-variant-caps:normal;font-variant-numeric:normal;font-variant-alternates:normal;font-variant-east-asian:normal;font-feature-settings:normal;font-variation-settings:normal;text-indent:0;text-align:start;text-decoration:none;text-decoration-line:none;text-decoration-style:solid;text-decoration-color:#000000;letter-spacing:normal;word-spacing:normal;text-transform:none;writing-mode:lr-tb;direction:ltr;text-orientation:mixed;dominant-baseline:auto;baseline-shift:baseline;text-anchor:start;white-space:normal;shape-padding:0;shape-margin:0;inline-size:0;clip-rule:nonzero;display:inline;overflow:visible;visibility:visible;opacity:0.85;isolation:auto;mix-blend-mode:normal;color-interpolation:sRGB;color-interpolation-filters:linearRGB;solid-color:#000000;solid-opacity:1;vector-effect:none;fill:#2d282d;fill-opacity:1;fill-rule:nonzero;stroke:none;stroke-linecap:round;stroke-linejoin:round;stroke-miterlimit:4;stroke-dasharray:none;stroke-dashoffset:2.1875;stroke-opacity:1;color-rendering:auto;image-rendering:auto;shape-rendering:auto;text-rendering:auto;enable-background:accumulate;stop-color:#000000"
       d="M 5.5,4 C 3.586951,4 2,5.58695 2,7.5 v 33 C 2,42.41306 3.586951,44 5.5,44 h 52.999997 c 1.91305,0 3.5,-1.58694 3.5,-3.5 v -33 c 0,-1.91305 -1.58695,-3.5 -3.5,-3.5 z m 0,3 h 52.999997 c 0.302949,0 0.5,0.19706 0.5,0.5 v 33 c 0,0.30295 -0.197051,0.5 -0.5,0.5 H 5.5 C 5.197051,41 5,40.80295 5,40.5 V 7.5 C 5,7.19706 5.197051,7 5.5,7 Z" />
    <rect
       style="fill:#e3e3e9;fill-opacity:1;stroke-width:5;stroke-linecap:round;stroke-linejoin:round;stroke-dashoffset:2.1875"
       id="rect1055-7-5"
       width="57"
       height="37"
       x="3.5000024"
       y="5.4999995"
       rx="2"
       ry="2" />
    <rect
       style="fill:#2d282d;fill-opacity:1;stroke-width:5;stroke-linecap:round;stroke-linejoin:round;stroke-dashoffset:2.1875"
       id="rect1055-9-2-1-6"
       width="54"
       height="34"
       x="5.0000024"
       y="6.9999995"
       rx="1.25"
       ry="1.25" />
    <rect
       style="fill:#231e23;fill-opacity:1;stroke-width:5;stroke-linecap:round;stroke-linejoin:round;stroke-dashoffset:2.1875"
       id="rect1055-9-7-1"
       width="52"
       height="32"
       x="6.0000024"
       y="8"
       rx="0.75"
       ry="0.75" />
    <rect
       style="display:inline;mix-blend-mode:normal;fill:url(#linearGradient1148);fill-opacity:1;stroke:none;stroke-width:0.991734;stroke-linecap:round;stroke-linejoin:round;stroke-miterlimit:4;stroke-dasharray:none;stroke-opacity:1"
       id="rect1612-5-6-6-3-3-2-1"
       width="52"
       height="32"
       x="6.0000024"
       y="8"
       rx="0.75"
       ry="0.75" />
    <path
       id="rect1055-7-8-7"
       style="color:#000000;font-style:normal;font-variant:normal;font-weight:normal;font-stretch:normal;font-size:medium;line-height:normal;font-family:sans-serif;font-variant-ligatures:normal;font-variant-position:normal;font-variant-caps:normal;font-variant-numeric:normal;font-variant-alternates:normal;font-variant-east-asian:normal;font-feature-settings:normal;font-variation-settings:normal;text-indent:0;text-align:start;text-decoration:none;text-decoration-line:none;text-decoration-style:solid;text-decoration-color:#000000;letter-spacing:normal;word-spacing:normal;text-transform:none;writing-mode:lr-tb;direction:ltr;text-orientation:mixed;dominant-baseline:auto;baseline-shift:baseline;text-anchor:start;white-space:normal;shape-padding:0;shape-margin:0;inline-size:0;clip-rule:nonzero;display:inline;overflow:visible;visibility:visible;opacity:0.2;isolation:auto;mix-blend-mode:normal;color-interpolation:sRGB;color-interpolation-filters:linearRGB;solid-color:#000000;solid-opacity:1;vector-effect:none;fill:#2d282d;fill-opacity:1;fill-rule:nonzero;stroke:none;stroke-linecap:round;stroke-linejoin:round;stroke-miterlimit:4;stroke-dasharray:none;stroke-dashoffset:2.1875;stroke-opacity:1;color-rendering:auto;image-rendering:auto;shape-rendering:auto;text-rendering:auto;enable-background:accumulate;stop-color:#000000"
       d="m 5.500003,4.750002 c -1.510527,0 -2.75,1.239473 -2.75,2.75 v 32.999997 c 0,1.51053 1.239473,2.75 2.75,2.75 h 52.999994 c 1.510531,0 2.75,-1.23947 2.75,-2.75 V 7.500002 c 0,-1.510527 -1.239469,-2.75 -2.75,-2.75 z m 0,1.5 h 52.999994 c 0.705482,0 1.25,0.544527 1.25,1.25 v 32.999997 c 0,0.705479 -0.544518,1.25 -1.25,1.25 H 5.500003 c -0.705473,0 -1.25,-0.544521 -1.25,-1.25 V 7.500002 c 0,-0.705473 0.544527,-1.25 1.25,-1.25 z" />
  </g>
</svg>
