<?xml version="1.0" encoding="UTF-8" standalone="no"?>
<svg
   xmlns:dc="http://purl.org/dc/elements/1.1/"
   xmlns:cc="http://creativecommons.org/ns#"
   xmlns:rdf="http://www.w3.org/1999/02/22-rdf-syntax-ns#"
   xmlns:svg="http://www.w3.org/2000/svg"
   xmlns="http://www.w3.org/2000/svg"
   xmlns:xlink="http://www.w3.org/1999/xlink"
   xmlns:sodipodi="http://sodipodi.sourceforge.net/DTD/sodipodi-0.dtd"
   xmlns:inkscape="http://www.inkscape.org/namespaces/inkscape"
   width="64"
   height="64"
   viewBox="0 0 64 64"
   version="1.1"
   id="svg6374"
   inkscape:version="1.0.2 (e86c870879, 2021-01-15)"
   sodipodi:docname="user-trash-full.svg">
  <defs
     id="defs6368">
    <radialGradient
       inkscape:collect="always"
       xlink:href="#linearGradient1191-2"
       id="radialGradient1293"
       cx="-18.523867"
       cy="81.932487"
       fx="-18.523867"
       fy="81.932487"
       r="29.999916"
       gradientTransform="matrix(0.99999995,0,0,1.0000029,50.523911,-49.932732)"
       gradientUnits="userSpaceOnUse" />
    <linearGradient
       inkscape:collect="always"
       id="linearGradient1191-2">
      <stop
         style="stop-color:#d2d2d8;stop-opacity:0;"
         offset="0"
         id="stop1189-8" />
      <stop
         style="stop-color:#bebec4;stop-opacity:0.44999999"
         offset="1"
         id="stop1187-9" />
    </linearGradient>
  </defs>
  <sodipodi:namedview
     id="base"
     pagecolor="#cecece"
     bordercolor="#666666"
     borderopacity="1.0"
     inkscape:pageopacity="0"
     inkscape:pageshadow="2"
     inkscape:zoom="5.5639287"
     inkscape:cx="8.3100654"
     inkscape:cy="29.551801"
     inkscape:document-units="px"
     inkscape:current-layer="layer1"
     inkscape:document-rotation="0"
     showgrid="false"
     units="px"
     inkscape:window-width="1500"
     inkscape:window-height="970"
     inkscape:window-x="68"
     inkscape:window-y="56"
     inkscape:window-maximized="0" />
  <metadata
     id="metadata6371">
    <rdf:RDF>
      <cc:Work
         rdf:about="">
        <dc:format>image/svg+xml</dc:format>
        <dc:type
           rdf:resource="http://purl.org/dc/dcmitype/StillImage" />
        <dc:title></dc:title>
      </cc:Work>
    </rdf:RDF>
  </metadata>
  <g
     inkscape:label="Layer 1"
     inkscape:groupmode="layer"
     id="layer1">
    <path
       id="path1200-8-9-3-6-1-5-1-2"
       style="color:#000000;font-style:normal;font-variant:normal;font-weight:normal;font-stretch:normal;font-size:medium;line-height:normal;font-family:sans-serif;font-variant-ligatures:normal;font-variant-position:normal;font-variant-caps:normal;font-variant-numeric:normal;font-variant-alternates:normal;font-variant-east-asian:normal;font-feature-settings:normal;font-variation-settings:normal;text-indent:0;text-align:start;text-decoration:none;text-decoration-line:none;text-decoration-style:solid;text-decoration-color:#000000;letter-spacing:normal;word-spacing:normal;text-transform:none;writing-mode:lr-tb;direction:ltr;text-orientation:mixed;dominant-baseline:auto;baseline-shift:baseline;text-anchor:start;white-space:normal;shape-padding:0;shape-margin:0;inline-size:0;clip-rule:nonzero;display:inline;overflow:visible;visibility:visible;opacity:0.15;isolation:auto;mix-blend-mode:normal;color-interpolation:sRGB;color-interpolation-filters:linearRGB;solid-color:#000000;solid-opacity:1;vector-effect:none;fill:#0c0c0c;fill-opacity:1;fill-rule:nonzero;stroke:none;stroke-linecap:round;stroke-linejoin:round;stroke-miterlimit:4;stroke-dasharray:none;stroke-dashoffset:0;stroke-opacity:1;paint-order:stroke fill markers;color-rendering:auto;image-rendering:auto;shape-rendering:auto;text-rendering:auto;enable-background:accumulate;stop-color:#000000"
       d="m 31.852574,1.751027 c -5.28093,0.025 -10.55719,0.50795 -15.01562,1.45898 -4.45842,0.95104 -8.106729,2.30951 -10.1972599,4.41993 -2.09059,2.1104697 -3.41377,5.77294 -4.32227,10.24023 -0.90849,4.46729 -1.34141001,9.74654 -1.3164,15.02735 0.025,5.2808 0.50821,10.55715 1.45898,15.01562 0.95078,4.45849 2.30746,8.10671 4.41797,10.19727 2.1105009,2.09056 5.7728799,3.41379 10.2402299,4.32226 4.46735,0.90849 9.74841,1.34142 15.02929,1.31641 5.28089,-0.025 10.55514,-0.50822 15.01368,-1.45898 4.45853,-0.95076 8.10862,-2.3075 10.19921,-4.41797 2.09059,-2.11048 3.41376,-5.77295 4.32226,-10.24024 0.90851,-4.46727 1.34142,-9.74654 1.31642,-15.02734 -0.025,-5.28081 -0.50822,-10.55716 -1.45899,-15.01563 -0.95077,-4.45847 -2.30746,-8.1086603 -4.41797,-10.19922 -2.11048,-2.09053 -5.77277,-3.4135 -10.24023,-4.32227 -4.46747,-0.90876 -9.74835,-1.34144 -15.0293,-1.3164 z m 0.01,2 c 5.16461,-0.0245 10.33478,0.40543 14.6211,1.27735 3.48421,0.70875 6.0926,1.79261 7.88671,2.9824097 -0.21809,-0.003 -0.38799,-0.0122 -0.64648,-0.008 a 1.0001,1.0001 0 0 0 -0.16797,0.0176 1.0001,1.0001 0 0 0 -0.006,0.002 c -1.76469,0.0427 -4.30222,0.32593 -6.87305,1.75196 -2.83688,1.5736603 -5.44105,4.3383003 -7.95703,6.6582003 -2.51598,2.3199 -4.91809,4.07384 -6.81836,4.07617 -1.89987,0.002 -4.15834,-1.73188 -6.54296,-4.04687 -2.38463,-2.31499 -4.85437,-5.08535 -7.67383,-6.6640703 -2.14528,-1.20117 -4.34646,-1.59644 -6.08984,-1.71679 -0.75619,-0.0522 -1.37557,-0.0417 -1.917969,-0.0312 1.796869,-1.1349097 4.270119,-2.1771697 7.578119,-2.8827997 4.27762,-0.91248 9.44281,-1.39155 14.60742,-1.41602 z m 21.89453,6.25195 c 0.36155,-0.006 0.64889,0.002 0.9336,0.01 -3.4e-4,0.0366 -0.007,0.0586 -0.008,0.0977 -0.014,0.54641 -0.0384,1.22959 -0.1211,2.00391 -0.16534,1.54863 -0.56876,3.45317 -1.59375,5.2832 -1.32635,2.36834 -3.87031,4.8245 -6.16211,7.3086 -2.2918,2.4841 -4.42931,5.02811 -4.55273,8.00391 a 1.0001,1.0001 0 0 0 0,0.082 c 0.12369,2.97566 2.26099,5.51978 4.55273,8.0039 2.29175,2.48414 4.83578,4.94034 6.16211,7.3086 1.02502,1.83009 1.42841,3.73508 1.59375,5.2832 0.0827,0.77406 0.10706,1.45574 0.1211,2.00196 10e-4,0.0391 0.008,0.0611 0.008,0.0977 -0.28469,0.008 -0.57206,0.0179 -0.9336,0.0117 -1.59092,-0.0266 -3.86794,-0.27816 -6.10937,-1.52148 -2.40316,-1.33308 -4.9875,-3.99726 -7.57031,-6.37891 -2.58282,-2.38165 -5.18966,-4.60241 -8.17383,-4.60547 -2.98454,-0.004 -5.48671,2.2315 -7.9375,4.61133 -2.45079,2.37982 -4.89313,5.03053 -7.25586,6.35351 -2.80324,1.56956 -5.75078,1.5303 -7.384759,1.48438 5.6e-4,-0.0259 0.005,-0.0412 0.006,-0.0684 0.0189,-0.54682 0.047,-1.2279 0.13476,-2.00195 0.17549,-1.54812 0.589949,-3.45263 1.623049,-5.27735 1.33834,-2.36382 3.88752,-4.81788 6.18164,-7.30078 2.29412,-2.4829 4.43103,-5.02658 4.55469,-8.00195 a 1.0001,1.0001 0 0 0 0,-0.082 c -0.12338,-2.97552 -2.26051,-5.51958 -4.55469,-8.00196 -2.29418,-2.48237 -4.84331,-4.935 -6.18164,-7.29883 -1.03306,-1.82465 -1.447559,-3.72872 -1.623049,-5.27734 -0.0877,-0.77432 -0.1159,-1.4569 -0.13476,-2.00391 -10e-4,-0.0334 -0.007,-0.0525 -0.008,-0.084 0.0425,-0.002 0.0657,10e-4 0.11132,0 0.55376,-0.0141 1.245039,-0.0205 2.023439,0.0332 1.5568,0.10747 3.45213,0.46014 5.25,1.4668 2.36282,1.32302 4.80459,3.97383 7.25586,6.35351 2.45127,2.37969 4.95505,4.61439 7.93945,4.61133 2.98403,-0.004 5.59102,-2.2259 8.17383,-4.60742 2.58281,-2.38152 5.16712,-5.04387 7.57031,-6.37695 2.2414,-1.2433 4.51829,-1.49467 6.10938,-1.52149 z m -46.4220994,0.24805 c 0.0193,0.55245 0.0479,1.26961 0.142579,2.10547 0.19436,1.71514 0.658191,3.89482 1.8710914,6.03711 1.571199,2.77512 4.222559,5.25834 6.453119,7.67188 2.21628,2.39807 3.90666,4.69372 4.00977,6.68554 -0.10329,1.9918 -1.79352,4.28694 -4.00977,6.68555 -2.23051,2.41406 -4.88199,4.89885 -6.45312,7.67383 -1.2128604,2.14224 -1.6767304,4.3205 -1.8710904,6.03515 -0.0898,0.79221 -0.11522,1.45535 -0.13477,1.9961 -1.1524295,-1.79454 -2.2134295,-4.29688 -2.9277295,-7.64649 -0.91222,-4.27768 -1.3896,-9.44287 -1.41406,-14.60741 -0.0245,-5.16455 0.40373,-10.33301 1.27539,-14.61915 0.72416,-3.56084 1.83607,-6.23387 3.0585905,-8.01758 z m 49.3320194,0.12695 c 1.14798,1.7952 2.20591,4.28982 2.91797,7.62891 0.91222,4.27768 1.38961,9.44288 1.41407,14.60742 0.0245,5.16455 -0.40373,10.33302 -1.27539,14.61914 -0.72218,3.55112 -1.83048,6.21484 -3.04883,8 -0.0147,-0.54916 -0.0358,-1.24128 -0.12305,-2.05859 -0.18335,-1.7168 -0.63628,-3.89801 -1.83984,-6.04687 -1.5594,-2.78442 -4.20649,-5.27327 -6.43555,-7.68946 -2.21479,-2.40071 -3.90646,-4.69595 -4.00977,-6.6875 0.10313,-1.99159 1.79494,-4.28683 4.00977,-6.6875 2.2291,-2.41613 4.8761,-4.90492 6.43555,-7.68945 1.20359,-2.14893 1.65649,-4.33156 1.83984,-6.04883 0.0826,-0.7733 0.1,-1.41086 0.11523,-1.94727 z m -24.76562,34.61525 c 1.90013,0.002 4.30239,1.75615 6.81836,4.07616 2.51597,2.32001 5.1201,5.08256 7.95703,6.65625 2.64271,1.46593 5.27926,1.74387 7.04688,1.77344 0.21163,0.004 0.34423,-0.006 0.52929,-0.008 -1.79842,1.11746 -4.24072,2.14706 -7.50781,2.84375 -4.27775,0.91221 -9.44279,1.3896 -14.60742,1.41406 -5.16463,0.0245 -10.33489,-0.40374 -14.62109,-1.27539 -3.54339,-0.72058 -6.2,-1.826 -7.986329,-3.04102 1.717389,0.046 4.935809,0.0738 8.158199,-1.73045 2.81954,-1.57878 5.28579,-4.34898 7.66993,-6.66408 2.38412,-2.3151 4.64322,-4.04725 6.54296,-4.04491 z" />
    <path
       id="path1200-8-9-3-6-1-6"
       style="color:#000000;font-style:normal;font-variant:normal;font-weight:normal;font-stretch:normal;font-size:medium;line-height:normal;font-family:sans-serif;font-variant-ligatures:normal;font-variant-position:normal;font-variant-caps:normal;font-variant-numeric:normal;font-variant-alternates:normal;font-variant-east-asian:normal;font-feature-settings:normal;font-variation-settings:normal;text-indent:0;text-align:start;text-decoration:none;text-decoration-line:none;text-decoration-style:solid;text-decoration-color:#000000;letter-spacing:normal;word-spacing:normal;text-transform:none;writing-mode:lr-tb;direction:ltr;text-orientation:mixed;dominant-baseline:auto;baseline-shift:baseline;text-anchor:start;white-space:normal;shape-padding:0;shape-margin:0;inline-size:0;clip-rule:nonzero;display:inline;overflow:visible;visibility:visible;isolation:auto;mix-blend-mode:normal;color-interpolation:sRGB;color-interpolation-filters:linearRGB;solid-color:#000000;solid-opacity:1;vector-effect:none;fill:#8c8c92;fill-opacity:1;fill-rule:nonzero;stroke:none;stroke-linecap:round;stroke-linejoin:round;stroke-miterlimit:4;stroke-dasharray:none;stroke-dashoffset:0;stroke-opacity:1;paint-order:stroke fill markers;color-rendering:auto;image-rendering:auto;shape-rendering:auto;text-rendering:auto;enable-background:accumulate;stop-color:#000000"
       d="m 31.852618,1.001027 c -5.28093,0.025 -10.55719,0.50795 -15.01562,1.45898 -4.45842,0.95104 -8.10673,2.3095 -10.1972605,4.41993 -2.0905897,2.1104697 -3.4137697,5.77294 -4.3222697,10.24023 -0.90849,4.46729 -1.34141001,9.74654 -1.3164,15.02735 0.025,5.2808 0.50821,10.55715 1.45898,15.01562 0.95078,4.45848 2.30746,8.10671 4.4179697,10.19727 2.1105005,2.09055 5.7728805,3.41378 10.2402305,4.32226 4.46735,0.90849 9.74841,1.34142 15.02929,1.31641 5.28089,-0.025 10.55514,-0.50822 15.01368,-1.45898 4.45853,-0.95076 8.10862,-2.3075 10.19921,-4.41797 2.09059,-2.11048 3.41377,-5.77295 4.32227,-10.24024 0.9085,-4.46728 1.34142,-9.74654 1.31641,-15.02734 -0.025,-5.28081 -0.50821,-10.55716 -1.45899,-15.01563 -0.95077,-4.45847 -2.30746,-8.1086603 -4.41797,-10.19922 -2.11048,-2.09053 -5.77277,-3.4135 -10.24023,-4.32227 -4.46747,-0.90876 -9.74835,-1.34144 -15.0293,-1.3164 z m 0.01,2 c 5.16461,-0.0245 10.33478,0.40542 14.6211,1.27734 3.48421,0.70876 6.0926,1.79262 7.88671,2.98242 -0.21809,-0.003 -0.38799,-0.0122 -0.64648,-0.008 a 1.0001,1.0001 0 0 0 -0.16797,0.0176 1.0001,1.0001 0 0 0 -0.006,0.002 c -1.76469,0.0427 -4.30222,0.32593 -6.87305,1.7519597 -2.83688,1.5736603 -5.44105,4.3383003 -7.95703,6.6582003 -2.51598,2.3199 -4.91809,4.07384 -6.81836,4.07617 -1.89987,0.002 -4.15834,-1.73188 -6.54296,-4.04687 -2.38463,-2.31499 -4.85437,-5.08535 -7.67383,-6.6640703 -2.14528,-1.20117 -4.34646,-1.5964397 -6.08984,-1.7167897 -0.75619,-0.0522 -1.37557,-0.0417 -1.91797,-0.0312 1.79687,-1.13491 4.27012,-2.17718 7.57812,-2.88281 4.27762,-0.91247 9.44281,-1.39155 14.60742,-1.41602 z m 21.89453,6.2519497 c 0.36155,-0.006 0.64889,0.002 0.9336,0.01 -3.4e-4,0.0366 -0.007,0.0586 -0.008,0.0977 -0.014,0.5464 -0.0384,1.2295903 -0.1211,2.0039103 -0.16534,1.54863 -0.56876,3.45317 -1.59375,5.2832 -1.32635,2.36834 -3.87031,4.8245 -6.16211,7.3086 -2.2918,2.4841 -4.42931,5.02811 -4.55273,8.00391 a 1.0001,1.0001 0 0 0 0,0.082 c 0.12369,2.97566 2.26099,5.51978 4.55273,8.0039 2.29175,2.48414 4.83578,4.94034 6.16211,7.3086 1.02502,1.83009 1.42841,3.73508 1.59375,5.2832 0.0827,0.77406 0.10706,1.45574 0.1211,2.00196 0.001,0.0391 0.008,0.0611 0.008,0.0977 -0.28469,0.008 -0.57206,0.0179 -0.9336,0.0117 -1.59092,-0.0266 -3.86794,-0.27816 -6.10937,-1.52148 -2.40316,-1.33308 -4.9875,-3.99726 -7.57031,-6.37891 -2.58282,-2.38165 -5.18966,-4.60241 -8.17383,-4.60547 -2.98454,-0.004 -5.48671,2.2315 -7.9375,4.61133 -2.45079,2.37982 -4.89313,5.03053 -7.25586,6.35351 -2.80324,1.56956 -5.75078,1.5303 -7.38476,1.48438 5.6e-4,-0.0259 0.005,-0.0412 0.006,-0.0684 0.0189,-0.54682 0.047,-1.2279 0.13476,-2.00195 0.17549,-1.54812 0.58995,-3.45263 1.62305,-5.27735 1.33834,-2.36382 3.88752,-4.81788 6.18164,-7.30078 2.29412,-2.4829 4.43103,-5.02658 4.55469,-8.00195 a 1.0001,1.0001 0 0 0 0,-0.082 c -0.12338,-2.97552 -2.26051,-5.51958 -4.55469,-8.00196 -2.29418,-2.48237 -4.84331,-4.935 -6.18164,-7.29883 -1.03306,-1.82465 -1.44756,-3.72872 -1.62305,-5.27734 -0.0877,-0.77432 -0.1159,-1.4569003 -0.13476,-2.0039103 -0.001,-0.0334 -0.007,-0.0525 -0.008,-0.084 0.0425,-0.002 0.0657,10e-4 0.11132,0 0.55376,-0.0141 1.24504,-0.0205 2.02344,0.0332 1.5568,0.10747 3.45213,0.46014 5.25,1.4668003 2.36282,1.32302 4.80459,3.97383 7.25586,6.35351 2.45127,2.37969 4.95505,4.61439 7.93945,4.61133 2.98403,-0.004 5.59102,-2.2259 8.17383,-4.60742 2.58281,-2.38152 5.16712,-5.04387 7.57031,-6.37695 2.2414,-1.2433003 4.51829,-1.4946703 6.10938,-1.5214903 z m -46.4221004,0.24805 c 0.0193,0.5524503 0.0479,1.2696103 0.14258,2.1054703 0.19436,1.71514 0.65819,3.89482 1.8710904,6.03711 1.5712,2.77512 4.22256,5.25834 6.45312,7.67188 2.21628,2.39807 3.90666,4.69372 4.00977,6.68554 -0.10329,1.9918 -1.79352,4.28694 -4.00977,6.68555 -2.23051,2.41406 -4.88199,4.89885 -6.45312,7.67383 -1.2128604,2.14223 -1.6767304,4.32049 -1.8710904,6.03515 -0.0898,0.79221 -0.11522,1.45535 -0.13477,1.9961 -1.1524301,-1.79454 -2.2134298,-4.29689 -2.9277298,-7.64649 -0.91222,-4.27768 -1.3896,-9.44287 -1.41406,-14.60742 -0.0245,-5.16454 0.40373,-10.33301 1.27539,-14.61914 0.72416,-3.56085 1.8360697,-6.23387 3.0585898,-8.0175803 z m 49.3320204,0.12695 c 1.14798,1.7952003 2.20591,4.2898203 2.91797,7.6289103 0.91222,4.27768 1.38961,9.44288 1.41407,14.60742 0.0245,5.16455 -0.40374,10.33302 -1.27539,14.61914 -0.72218,3.55112 -1.83048,6.21484 -3.04883,8 -0.0147,-0.54916 -0.0358,-1.24128 -0.12305,-2.05859 -0.18335,-1.7168 -0.63628,-3.89801 -1.83984,-6.04687 -1.5594,-2.78442 -4.20649,-5.27327 -6.43555,-7.68946 -2.21479,-2.40071 -3.90646,-4.69595 -4.00977,-6.6875 0.10313,-1.99159 1.79494,-4.28683 4.00977,-6.6875 2.2291,-2.41613 4.8761,-4.90492 6.43555,-7.68945 1.20359,-2.14893 1.65649,-4.33156 1.83984,-6.04883 0.0826,-0.7733 0.1,-1.41086 0.11523,-1.9472703 z M 31.901448,44.243217 c 1.90013,0.002 4.30239,1.75616 6.81836,4.07617 2.51597,2.32001 5.1201,5.08256 7.95703,6.65625 2.64271,1.46592 5.27926,1.74386 7.04688,1.77344 0.21163,0.004 0.34423,-0.006 0.52929,-0.008 -1.79842,1.11746 -4.24072,2.14706 -7.50781,2.84375 -4.27775,0.91221 -9.44279,1.3896 -14.60742,1.41406 -5.16463,0.0245 -10.33489,-0.40374 -14.62109,-1.27539 -3.54339,-0.72059 -6.2,-1.82601 -7.98633,-3.04102 1.71739,0.046 4.93581,0.0738 8.1582,-1.73046 2.81954,-1.57878 5.28579,-4.34897 7.66993,-6.66407 2.38412,-2.3151 4.64322,-4.04725 6.54296,-4.04492 z" />
    <path
       id="path1200-8-9-0-2"
       style="fill:#fcfcfc;fill-opacity:1;stroke:none;stroke-width:0;stroke-linecap:round;stroke-linejoin:round;stroke-miterlimit:4;stroke-dasharray:none;stroke-opacity:1;paint-order:stroke fill markers"
       d="m 31.857508,2.001057 c -10.44555,0.0495 -20.88194,1.92157 -24.5078104,5.58194 -7.25175981,7.32074 -7.08842981,41.81596 0.23242,49.06761 7.3208504,7.25165 41.8166004,7.08832 49.0683604,-0.23242 7.25176,-7.32074 7.08843,-41.81595 -0.23242,-49.0676 -3.66043,-3.62583 -14.11499,-5.39906 -24.56055,-5.34953 z m 21.88282,6.2518497 c 1.00752,-0.0169 1.73452,0.051 2.00976,0.0156 -0.19696,0.69155 0.31842,4.8880903 -1.91016,8.8670503 -2.8858,5.15287 -10.3815,9.88879 -10.58789,14.86501 0.20684,4.97605 7.70216,9.71232 10.58789,14.865 2.22858,3.97895 1.7132,8.17355 1.91016,8.8651 -0.27524,-0.0354 -1.00223,0.0347 -2.00976,0.0176 -1.67927,-0.0281 -4.13606,-0.29184 -6.57813,-1.64646 -5.24009,-2.90677 -10.37547,-10.85421 -15.25977,-10.85921 -4.88428,-0.006 -9.52085,7.93597 -14.70312,10.83773 -3.15553,1.7668 -6.47928,1.66395 -8.07813,1.61715 -0.003,-7e-5 -0.006,0 -0.008,0 -0.39469,-0.0117 -0.7144004,-0.0198 -0.8632804,0.006 0.2121,-0.68477 -0.27722,-4.88447 1.9687404,-8.85142 2.90948,-5.13881 10.40062,-9.87532 10.60743,-14.85133 -0.20634,-4.9762 -7.69789,-9.71043 -10.60743,-14.84938 -2.2459604,-3.96694 -1.7566204,-8.1686403 -1.9687404,-8.8533903 0.7506504,0.12695 5.0041204,-0.5848 8.9472704,1.62303 5.18228,2.9017403 9.8208,10.8427203 14.70507,10.8377203 4.8843,-0.006 10.01969,-7.95245 15.25977,-10.8592003 2.44207,-1.35461 4.89888,-1.61817 6.57813,-1.64647 z" />
    <path
       id="path1200-8-9-0-2-7"
       style="fill:url(#radialGradient1293);fill-opacity:1;stroke:none;stroke-width:0;stroke-linecap:round;stroke-linejoin:round;stroke-miterlimit:4;stroke-dasharray:none;stroke-opacity:1;paint-order:stroke fill markers"
       d="m 31.857464,2.001007 c -10.44555,0.0495 -20.88194,1.92157 -24.5078104,5.58194 -7.25175991,7.32074 -7.08842991,41.81596 0.23242,49.06761 7.3208504,7.25165 41.8166004,7.08832 49.0683604,-0.23242 7.25176,-7.32074 7.08843,-41.81595 -0.23242,-49.0676 -3.66043,-3.62583 -14.11499,-5.39906 -24.56055,-5.34953 z m 21.88282,6.2518497 c 1.00752,-0.0169 1.73452,0.051 2.00976,0.0156 -0.19696,0.69155 0.31842,4.8880903 -1.91016,8.8670503 -2.8858,5.15287 -10.3815,9.88879 -10.58789,14.86501 0.20684,4.97605 7.70216,9.71232 10.58789,14.865 2.22858,3.97895 1.7132,8.17355 1.91016,8.8651 -0.27524,-0.0354 -1.00223,0.0347 -2.00976,0.0176 -1.67927,-0.0281 -4.13606,-0.29184 -6.57813,-1.64646 -5.24009,-2.90677 -10.37547,-10.85421 -15.25977,-10.85921 -4.88428,-0.006 -9.52085,7.93597 -14.70312,10.83773 -3.15553,1.7668 -6.47928,1.66395 -8.07813,1.61715 -0.003,-7e-5 -0.006,0 -0.008,0 -0.39469,-0.0117 -0.7144004,-0.0198 -0.8632804,0.006 0.2121,-0.68477 -0.27722,-4.88447 1.9687404,-8.85142 2.90948,-5.13881 10.40062,-9.87532 10.60743,-14.85133 -0.20634,-4.9762 -7.69789,-9.71043 -10.60743,-14.84938 -2.2459604,-3.96694 -1.7566204,-8.1686403 -1.9687404,-8.8533903 0.7506504,0.12695 5.0041204,-0.5848 8.9472704,1.62303 5.18228,2.9017403 9.8208,10.8427203 14.70507,10.8377203 4.8843,-0.006 10.01969,-7.95245 15.25977,-10.8592003 2.44207,-1.35461 4.89888,-1.61817 6.57813,-1.64647 z" />
    <path
       id="path1200-8-9-3-6-1-5-1"
       style="color:#000000;font-style:normal;font-variant:normal;font-weight:normal;font-stretch:normal;font-size:medium;line-height:normal;font-family:sans-serif;font-variant-ligatures:normal;font-variant-position:normal;font-variant-caps:normal;font-variant-numeric:normal;font-variant-alternates:normal;font-variant-east-asian:normal;font-feature-settings:normal;font-variation-settings:normal;text-indent:0;text-align:start;text-decoration:none;text-decoration-line:none;text-decoration-style:solid;text-decoration-color:#000000;letter-spacing:normal;word-spacing:normal;text-transform:none;writing-mode:lr-tb;direction:ltr;text-orientation:mixed;dominant-baseline:auto;baseline-shift:baseline;text-anchor:start;white-space:normal;shape-padding:0;shape-margin:0;inline-size:0;clip-rule:nonzero;display:inline;overflow:visible;visibility:visible;opacity:0.1;isolation:auto;mix-blend-mode:normal;color-interpolation:sRGB;color-interpolation-filters:linearRGB;solid-color:#000000;solid-opacity:1;vector-effect:none;fill:#43434c;fill-opacity:1;fill-rule:nonzero;stroke:none;stroke-linecap:round;stroke-linejoin:round;stroke-miterlimit:4;stroke-dasharray:none;stroke-dashoffset:0;stroke-opacity:1;paint-order:stroke fill markers;color-rendering:auto;image-rendering:auto;shape-rendering:auto;text-rendering:auto;enable-background:accumulate;stop-color:#000000"
       d="m 31.852618,1.001027 c -5.28093,0.025 -10.55719,0.50795 -15.01562,1.45898 -4.45842,0.95104 -8.10673,2.3095 -10.1972603,4.41993 -2.09059,2.1104697 -3.4137699,5.77294 -4.3222699,10.24023 -0.90849,4.46729 -1.34141001,9.74654 -1.3164,15.02735 0.025,5.2808 0.50821,10.55715 1.45898,15.01562 0.95078,4.45848 2.3074599,8.10671 4.4179699,10.19727 2.1105003,2.09055 5.7728803,3.41378 10.2402303,4.32226 4.46735,0.90849 9.74841,1.34142 15.02929,1.31641 5.28089,-0.025 10.55514,-0.50822 15.01368,-1.45898 4.45853,-0.95076 8.10862,-2.3075 10.19921,-4.41797 2.09059,-2.11048 3.41377,-5.77295 4.32227,-10.24024 0.9085,-4.46728 1.34142,-9.74654 1.31641,-15.02734 -0.025,-5.28081 -0.50821,-10.55716 -1.45899,-15.01563 -0.95077,-4.45847 -2.30746,-8.1086603 -4.41797,-10.19922 -2.11048,-2.09053 -5.77277,-3.4135 -10.24023,-4.32227 -4.46747,-0.90876 -9.74835,-1.34144 -15.0293,-1.3164 z m 0.01,2 c 5.16461,-0.0245 10.33478,0.40542 14.6211,1.27734 3.48421,0.70876 6.0926,1.79262 7.88671,2.98242 -0.21809,-0.003 -0.38799,-0.0122 -0.64648,-0.008 a 1.0001,1.0001 0 0 0 -0.16797,0.0176 1.0001,1.0001 0 0 0 -0.006,0.002 c -1.76469,0.0427 -4.30222,0.32593 -6.87305,1.7519597 -2.83688,1.5736603 -5.44105,4.3383003 -7.95703,6.6582003 -2.51598,2.3199 -4.91809,4.07384 -6.81836,4.07617 -1.89987,0.002 -4.15834,-1.73188 -6.54296,-4.04687 -2.38463,-2.31499 -4.85437,-5.08535 -7.67383,-6.6640703 -2.14528,-1.20117 -4.34646,-1.5964397 -6.08984,-1.7167897 -0.75619,-0.0522 -1.37557,-0.0417 -1.91797,-0.0312 1.79687,-1.13491 4.27012,-2.17718 7.57812,-2.88281 4.27762,-0.91247 9.44281,-1.39155 14.60742,-1.41602 z m 21.89453,6.2519497 c 0.36155,-0.006 0.64889,0.002 0.9336,0.01 -3.4e-4,0.0366 -0.007,0.0586 -0.008,0.0977 -0.014,0.5464 -0.0384,1.2295903 -0.1211,2.0039103 -0.16534,1.54863 -0.56876,3.45317 -1.59375,5.2832 -1.32635,2.36834 -3.87031,4.8245 -6.16211,7.3086 -2.2918,2.4841 -4.42931,5.02811 -4.55273,8.00391 a 1.0001,1.0001 0 0 0 0,0.082 c 0.12369,2.97566 2.26099,5.51978 4.55273,8.0039 2.29175,2.48414 4.83578,4.94034 6.16211,7.3086 1.02502,1.83009 1.42841,3.73508 1.59375,5.2832 0.0827,0.77406 0.10706,1.45574 0.1211,2.00196 0.001,0.0391 0.008,0.0611 0.008,0.0977 -0.28469,0.008 -0.57206,0.0179 -0.9336,0.0117 -1.59092,-0.0266 -3.86794,-0.27816 -6.10937,-1.52148 -2.40316,-1.33308 -4.9875,-3.99726 -7.57031,-6.37891 -2.58282,-2.38165 -5.18966,-4.60241 -8.17383,-4.60547 -2.98454,-0.004 -5.48671,2.2315 -7.9375,4.61133 -2.45079,2.37982 -4.89313,5.03053 -7.25586,6.35351 -2.80324,1.56956 -5.75078,1.5303 -7.38476,1.48438 5.6e-4,-0.0259 0.005,-0.0412 0.006,-0.0684 0.0189,-0.54682 0.047,-1.2279 0.13476,-2.00195 0.17549,-1.54812 0.58995,-3.45263 1.62305,-5.27735 1.33834,-2.36382 3.88752,-4.81788 6.18164,-7.30078 2.29412,-2.4829 4.43103,-5.02658 4.55469,-8.00195 a 1.0001,1.0001 0 0 0 0,-0.082 c -0.12338,-2.97552 -2.26051,-5.51958 -4.55469,-8.00196 -2.29418,-2.48237 -4.84331,-4.935 -6.18164,-7.29883 -1.03306,-1.82465 -1.44756,-3.72872 -1.62305,-5.27734 -0.0877,-0.77432 -0.1159,-1.4569003 -0.13476,-2.0039103 -0.001,-0.0334 -0.007,-0.0525 -0.008,-0.084 0.0425,-0.002 0.0657,10e-4 0.11132,0 0.55376,-0.0141 1.24504,-0.0205 2.02344,0.0332 1.5568,0.10747 3.45213,0.46014 5.25,1.4668003 2.36282,1.32302 4.80459,3.97383 7.25586,6.35351 2.45127,2.37969 4.95505,4.61439 7.93945,4.61133 2.98403,-0.004 5.59102,-2.2259 8.17383,-4.60742 2.58281,-2.38152 5.16712,-5.04387 7.57031,-6.37695 2.2414,-1.2433003 4.51829,-1.4946703 6.10938,-1.5214903 z m -46.4221004,0.24805 c 0.0193,0.5524503 0.0479,1.2696103 0.14258,2.1054703 0.19436,1.71514 0.65819,3.89482 1.8710904,6.03711 1.5712,2.77512 4.22256,5.25834 6.45312,7.67188 2.21628,2.39807 3.90666,4.69372 4.00977,6.68554 -0.10329,1.9918 -1.79352,4.28694 -4.00977,6.68555 -2.23051,2.41406 -4.88199,4.89885 -6.45312,7.67383 -1.2128604,2.14223 -1.6767304,4.32049 -1.8710904,6.03515 -0.0898,0.79221 -0.11522,1.45535 -0.13477,1.9961 -1.1524299,-1.79454 -2.2134299,-4.29689 -2.9277299,-7.64649 -0.9122199,-4.27768 -1.3895999,-9.44287 -1.4140599,-14.60742 -0.0245,-5.16454 0.40373,-10.33301 1.2753899,-14.61914 0.72416,-3.56085 1.83607,-6.23387 3.0585899,-8.0175803 z m 49.3320204,0.12695 c 1.14798,1.7952003 2.20591,4.2898203 2.91797,7.6289103 0.91222,4.27768 1.38961,9.44288 1.41407,14.60742 0.0245,5.16455 -0.40374,10.33302 -1.27539,14.61914 -0.72218,3.55112 -1.83048,6.21484 -3.04883,8 -0.0147,-0.54916 -0.0358,-1.24128 -0.12305,-2.05859 -0.18335,-1.7168 -0.63628,-3.89801 -1.83984,-6.04687 -1.5594,-2.78442 -4.20649,-5.27327 -6.43555,-7.68946 -2.21479,-2.40071 -3.90646,-4.69595 -4.00977,-6.6875 0.10313,-1.99159 1.79494,-4.28683 4.00977,-6.6875 2.2291,-2.41613 4.8761,-4.90492 6.43555,-7.68945 1.20359,-2.14893 1.65649,-4.33156 1.83984,-6.04883 0.0826,-0.7733 0.1,-1.41086 0.11523,-1.9472703 z M 31.901448,44.243217 c 1.90013,0.002 4.30239,1.75616 6.81836,4.07617 2.51597,2.32001 5.1201,5.08256 7.95703,6.65625 2.64271,1.46592 5.27926,1.74386 7.04688,1.77344 0.21163,0.004 0.34423,-0.006 0.52929,-0.008 -1.79842,1.11746 -4.24072,2.14706 -7.50781,2.84375 -4.27775,0.91221 -9.44279,1.3896 -14.60742,1.41406 -5.16463,0.0245 -10.33489,-0.40374 -14.62109,-1.27539 -3.54339,-0.72059 -6.2,-1.82601 -7.98633,-3.04102 1.71739,0.046 4.93581,0.0738 8.1582,-1.73046 2.81954,-1.57878 5.28579,-4.34897 7.66993,-6.66407 2.38412,-2.3151 4.64322,-4.04725 6.54296,-4.04492 z" />
  </g>
</svg>
