<?xml version="1.0" encoding="UTF-8" standalone="no"?>
<svg
   xmlns:dc="http://purl.org/dc/elements/1.1/"
   xmlns:cc="http://creativecommons.org/ns#"
   xmlns:rdf="http://www.w3.org/1999/02/22-rdf-syntax-ns#"
   xmlns:svg="http://www.w3.org/2000/svg"
   xmlns="http://www.w3.org/2000/svg"
   xmlns:sodipodi="http://sodipodi.sourceforge.net/DTD/sodipodi-0.dtd"
   xmlns:inkscape="http://www.inkscape.org/namespaces/inkscape"
   width="64"
   height="64"
   viewBox="0 0 16.933333 16.933334"
   version="1.1"
   id="svg841"
   inkscape:version="1.0.2 (e86c870879, 2021-01-15)"
   sodipodi:docname="multimedia-volume-control-symbolic.svg">
  <defs
     id="defs835" />
  <sodipodi:namedview
     id="base"
     pagecolor="#c4c4c4"
     bordercolor="#666666"
     borderopacity="1.0"
     inkscape:pageopacity="0"
     inkscape:pageshadow="2"
     inkscape:zoom="4.4950457"
     inkscape:cx="71.811534"
     inkscape:cy="28.49246"
     inkscape:document-units="px"
     inkscape:current-layer="layer1"
     inkscape:document-rotation="0"
     showgrid="false"
     units="px"
     inkscape:window-width="2048"
     inkscape:window-height="1080"
     inkscape:window-x="0"
     inkscape:window-y="0"
     inkscape:window-maximized="1" />
  <metadata
     id="metadata838">
    <rdf:RDF>
      <cc:Work
         rdf:about="">
        <dc:format>image/svg+xml</dc:format>
        <dc:type
           rdf:resource="http://purl.org/dc/dcmitype/StillImage" />
        <dc:title />
      </cc:Work>
    </rdf:RDF>
  </metadata>
  <g
     inkscape:label="Layer 1"
     inkscape:groupmode="layer"
     id="layer1">
    <path
       id="rect2877-4-9-6-9-5-9-4-3"
       style="fill:#808084;fill-opacity:1;stroke:none;stroke-width:1.4552;stroke-linecap:round;stroke-linejoin:round;stroke-miterlimit:4;stroke-dasharray:none;stroke-dashoffset:2.1875;stroke-opacity:1"
       d="m 14.642517,1.4104073 c -0.185876,-0.00649 -0.37453,0.058398 -0.521931,0.1958499 l -3.966684,3.6989291 c -0.2948032,0.2749035 -0.3105652,0.7335439 -0.03566,1.0283416 0.274908,0.2947977 0.733557,0.3110761 1.028361,0.036173 L 15.11329,2.6702549 C 15.408093,2.3953515 15.423855,1.9367111 15.148946,1.6419133 15.011492,1.4945144 14.828394,1.4168981 14.642517,1.4104073 Z M 6.5763429,2.6459674 v 5.167e-4 5.167e-4 c -0.13475,-0.0068 -0.272185,0.038077 -0.380855,0.1359065 L 2.821533,5.8209074 H 0.529167 C 0.236008,5.8209074 0,6.0569105 0,6.3500641 v 4.2332539 c 0,0.293152 0.236008,0.529157 0.529167,0.529157 H 2.8205 l 3.3749879,3.039033 c 0.0945,0.08509 0.210338,0.127555 0.327628,0.133323 l 0.0031,0.0026 h 0.701249 c 0.14658,0 0.264584,-0.118003 0.264584,-0.264579 V 2.9105457 c 0,-0.1465761 -0.118003,-0.2645783 -0.264583,-0.2645783 z m 4.0731361,5.0931329 c -0.403092,0 -0.7276042,0.3245053 -0.7276042,0.7275903 0,0.403085 0.3245122,0.727591 0.7276042,0.727591 h 4.894792 c 0.403093,0 0.727604,-0.324506 0.727604,-0.727591 0,-0.403085 -0.324511,-0.7275903 -0.727604,-0.7275903 z m -0.0248,2.6292477 c -0.185876,0.0065 -0.368975,0.08411 -0.506429,0.231506 -0.2749092,0.294798 -0.2591472,0.753438 0.03566,1.028342 l 3.966684,3.698929 c 0.294803,0.274903 0.753452,0.259141 1.02836,-0.03566 0.274909,-0.294798 0.259147,-0.753438 -0.03566,-1.028342 L 11.146607,10.563681 C 10.999205,10.42623 10.810551,10.361857 10.624675,10.368348 Z" />
  </g>
</svg>
