<?xml version="1.0" encoding="UTF-8" standalone="no"?>
<svg
   xmlns:dc="http://purl.org/dc/elements/1.1/"
   xmlns:cc="http://creativecommons.org/ns#"
   xmlns:rdf="http://www.w3.org/1999/02/22-rdf-syntax-ns#"
   xmlns:svg="http://www.w3.org/2000/svg"
   xmlns="http://www.w3.org/2000/svg"
   xmlns:xlink="http://www.w3.org/1999/xlink"
   xmlns:sodipodi="http://sodipodi.sourceforge.net/DTD/sodipodi-0.dtd"
   xmlns:inkscape="http://www.inkscape.org/namespaces/inkscape"
   width="64"
   height="64"
   viewBox="0 0 16.933333 16.933334"
   version="1.1"
   id="svg841"
   inkscape:version="1.0.2 (e86c870879, 2021-01-15)"
   sodipodi:docname="address-book-new.svg">
  <defs
     id="defs835">
    <linearGradient
       inkscape:collect="always"
       xlink:href="#linearGradient877"
       id="linearGradient1474"
       gradientUnits="userSpaceOnUse"
       x1="847.93756"
       y1="533.50037"
       x2="848.06256"
       y2="561.50037"
       gradientTransform="matrix(0.26458334,0,0,0.26458334,-211.40209,-132.29167)" />
    <linearGradient
       inkscape:collect="always"
       id="linearGradient877">
      <stop
         style="stop-color:#17cea7;stop-opacity:1"
         offset="0"
         id="stop873" />
      <stop
         style="stop-color:#13ae8d;stop-opacity:1"
         offset="1"
         id="stop875" />
    </linearGradient>
  </defs>
  <sodipodi:namedview
     id="base"
     pagecolor="#c4c4c4"
     bordercolor="#666666"
     borderopacity="1.0"
     inkscape:pageopacity="0"
     inkscape:pageshadow="2"
     inkscape:zoom="7.9895668"
     inkscape:cx="20.458177"
     inkscape:cy="56.343189"
     inkscape:document-units="px"
     inkscape:current-layer="layer1"
     inkscape:document-rotation="0"
     showgrid="false"
     units="px"
     inkscape:window-width="2048"
     inkscape:window-height="1080"
     inkscape:window-x="0"
     inkscape:window-y="0"
     inkscape:window-maximized="1" />
  <metadata
     id="metadata838">
    <rdf:RDF>
      <cc:Work
         rdf:about="">
        <dc:format>image/svg+xml</dc:format>
        <dc:type
           rdf:resource="http://purl.org/dc/dcmitype/StillImage" />
        <dc:title />
      </cc:Work>
    </rdf:RDF>
  </metadata>
  <g
     inkscape:label="Layer 1"
     inkscape:groupmode="layer"
     id="layer1">
    <path
       id="rect869-36-0-1-8-7-9-9-3-0"
       style="color:#000000;font-style:normal;font-variant:normal;font-weight:normal;font-stretch:normal;font-size:medium;line-height:normal;font-family:sans-serif;font-variant-ligatures:normal;font-variant-position:normal;font-variant-caps:normal;font-variant-numeric:normal;font-variant-alternates:normal;font-variant-east-asian:normal;font-feature-settings:normal;font-variation-settings:normal;text-indent:0;text-align:start;text-decoration:none;text-decoration-line:none;text-decoration-style:solid;text-decoration-color:#000000;letter-spacing:normal;word-spacing:normal;text-transform:none;writing-mode:lr-tb;direction:ltr;text-orientation:mixed;dominant-baseline:auto;baseline-shift:baseline;text-anchor:start;white-space:normal;shape-padding:0;shape-margin:0;inline-size:0;clip-rule:nonzero;display:inline;overflow:visible;visibility:visible;opacity:0.25;isolation:auto;mix-blend-mode:normal;color-interpolation:sRGB;color-interpolation-filters:linearRGB;solid-color:#000000;solid-opacity:1;vector-effect:none;fill:#0c0c10;fill-opacity:1;fill-rule:nonzero;stroke:none;stroke-width:1.00002;stroke-linecap:round;stroke-linejoin:round;stroke-miterlimit:4;stroke-dasharray:none;stroke-dashoffset:2.1875;stroke-opacity:1;color-rendering:auto;image-rendering:auto;shape-rendering:auto;text-rendering:auto;enable-background:accumulate;stop-color:#000000"
       d="m 3.1734495,0.59531255 c -0.6527403,0 -1.1890745,0.53686605 -1.1890745,1.18964605 V 15.545277 c 0,0.65278 0.5363342,1.189619 1.1890745,1.189619 h 5.2932173 4.2322992 c 1.239059,0 2.249995,-1.009412 2.249993,-2.248508 V 2.8438211 c 0,-1.2390702 -1.010934,-2.24850855 -2.249993,-2.24850855 H 8.4666668 Z m 0,0.79327375 h 5.2932173 4.2322992 c 0.813051,0 1.455208,0.6421967 1.455208,1.4552348 V 14.486388 c 3e-6,0.813064 -0.642157,1.455261 -1.455208,1.455261 H 8.4666668 3.1734495 c -0.2267373,0 -0.3963591,-0.169624 -0.3963591,-0.396372 V 1.7849586 c 0,-0.2267479 0.1696218,-0.3963723 0.3963591,-0.3963723 z" />
    <path
       id="rect869-36-0-1-8-2-6-6"
       style="fill:#e37d7d;fill-opacity:1;stroke-width:1.19063;stroke-linecap:round;stroke-linejoin:round;stroke-dashoffset:2.1875"
       d="m 3.175,0.59531255 c -0.4397375,0 -0.79375,0.3540125 -0.79375,0.79374995 V 15.147396 c 0,0.439764 0.3540125,0.79375 0.79375,0.79375 H 8.4666668 12.7 c 1.026055,0 1.852086,-0.826029 1.852084,-1.852057 V 2.4473959 C 14.552084,1.4213682 13.726055,0.59531255 12.7,0.59531255 H 8.4666668 Z" />
    <path
       id="path1204-1-0-9-3-6-2"
       style="color:#000000;font-style:normal;font-variant:normal;font-weight:normal;font-stretch:normal;font-size:medium;line-height:normal;font-family:sans-serif;font-variant-ligatures:normal;font-variant-position:normal;font-variant-caps:normal;font-variant-numeric:normal;font-variant-alternates:normal;font-variant-east-asian:normal;font-feature-settings:normal;font-variation-settings:normal;text-indent:0;text-align:start;text-decoration:none;text-decoration-line:none;text-decoration-style:solid;text-decoration-color:#000000;letter-spacing:normal;word-spacing:normal;text-transform:none;writing-mode:lr-tb;direction:ltr;text-orientation:mixed;dominant-baseline:auto;baseline-shift:baseline;text-anchor:start;white-space:normal;shape-padding:0;shape-margin:0;inline-size:0;clip-rule:nonzero;display:inline;overflow:visible;visibility:visible;opacity:0.35;isolation:auto;mix-blend-mode:normal;color-interpolation:sRGB;color-interpolation-filters:linearRGB;solid-color:#000000;solid-opacity:1;vector-effect:none;fill:#0c0c0c;fill-opacity:1;fill-rule:nonzero;stroke:none;stroke-width:0;stroke-linecap:round;stroke-linejoin:round;stroke-miterlimit:4;stroke-dasharray:none;stroke-dashoffset:2.1875;stroke-opacity:1;color-rendering:auto;image-rendering:auto;shape-rendering:auto;text-rendering:auto;enable-background:accumulate;stop-color:#000000"
       d="m 9.2650576,4.6319812 c -0.055541,-5.3e-5 -0.1101461,0.00265 -0.1643327,0.00397 C 8.2221441,4.672383 7.3548691,5.0100178 6.6672805,5.6398585 5.2920689,6.8995927 5.0236173,8.976995 6.0326958,10.54526 c 1.0090495,1.568238 3.0094106,2.183501 4.7263262,1.45497 0.287745,-0.122449 0.427107,-0.460586 0.304893,-0.750226 C 10.941622,10.96055 10.602098,10.822411 10.312022,10.94568 9.1011032,11.459475 7.7070136,11.030109 6.9954273,9.924204 6.2838304,8.8182717 6.4730234,7.3715829 7.4429436,6.4830856 8.4128426,5.5946412 9.8671249,5.5353481 10.907334,6.3404752 c 0.667481,0.5166783 1.030185,1.2886796 1.043348,2.083779 V 8.885158 c 0,0.306467 -0.213212,0.519774 -0.468707,0.519774 -0.25549,0 -0.468704,-0.213307 -0.468704,-0.519774 V 8.4671431 8.0357135 8.0298927 c 3.7e-5,-0.0037 1.14e-4,-0.0082 0,-0.011906 a 0.1323049,0.13228394 0 0 0 0,-0.00265 c -3e-6,-7.94e-5 -0.0019,-0.00423 -0.0021,-0.00582 2.65e-4,-0.0037 0.0021,-0.0037 0.0021,-0.00794 v -1.041109 c 0,-0.3145102 -0.260038,-0.57404 -0.574643,-0.57404 -0.135263,0 -0.247457,0.071332 -0.318326,0.1565539 -0.04036,0.048551 -0.05849,0.1012296 -0.08371,0.1539876 C 9.7444969,6.4786879 9.4250019,6.2774193 9.0402686,6.2774193 c -1.1075935,0 -1.97249,1.0025063 -1.97249,2.1886599 0,1.1861528 0.8647086,2.1933158 1.97249,2.1933158 0.5398823,-2.6e-5 0.9785744,-0.334195 1.3280864,-0.734192 0.27821,0.327369 0.634162,0.624655 1.113626,0.624655 0.896372,0 1.61489,-0.755042 1.61489,-1.66579 v -0.4412457 -0.00265 c -5.29e-4,-0.050879 -0.01252,-0.072125 -0.0098,-0.056303 a 0.1323049,0.13228394 0 0 0 -0.0016,-0.00979 l -0.01342,-0.047536 C 13.030293,7.2244481 12.53602,6.1493931 11.610645,5.4331395 10.919206,4.8979139 10.089491,4.6312139 9.2650497,4.6302085 Z m 0,0.2655623 c 0.7678024,0 1.5392904,0.2475706 2.1833284,0.7460985 0.864928,0.6694752 1.327132,1.6771409 1.361676,2.7125878 a 0.1323049,0.13228394 0 0 0 0.0036,0.029448 l 0.01188,0.044953 c 0.0068,0.039767 0.0055,0.042307 0.0057,0.011377 V 8.885317 c 0,0.772451 -0.601237,1.400202 -1.349272,1.400202 -0.418798,0 -0.756589,-0.249026 -1.008208,-0.578168 a 0.1323049,0.13228394 0 0 0 -0.206708,-0.0026 c -0.3246051,0.406506 -0.7492159,0.68924 -1.2267968,0.689266 -0.9468485,0 -1.7068747,-0.869235 -1.7068747,-1.9277538 0,-1.0585186 0.759886,-1.9230711 1.7068747,-1.9230711 0.3542427,0 0.6787833,0.1748631 0.9725498,0.4195233 a 0.1323049,0.13228394 0 0 0 0.209289,-0.054769 c 0.02939,-0.078079 0.06428,-0.1507861 0.101287,-0.195289 0.03701,-0.044529 0.06273,-0.062521 0.115237,-0.062521 0.169164,0 0.309025,0.1414462 0.309025,0.310515 v 1.041109 c -7.93e-4,0.00582 -0.0021,0.00741 -0.0021,0.013494 0,1.852e-4 0.0013,0.00741 0.0021,0.011906 v 0.00265 0.4371181 0.4180155 c 0,0.435239 0.328597,0.785336 0.734325,0.785336 0.405728,0 0.734322,-0.350097 0.734322,-0.785336 V 8.4219258 a 0.1323049,0.13228394 0 0 0 0,-0.00265 C 12.201859,7.5466048 11.80151,6.6968954 11.069603,6.130396 9.9295319,5.2479576 8.3261148,5.3147385 7.2631169,6.2884845 6.2001401,7.2622041 5.9927067,8.853197 6.7727063,10.065438 c 0.7800076,1.212242 2.3154482,1.685872 3.6426727,1.12276 0.155363,-0.06601 0.338222,0.0082 0.404108,0.164306 0.06546,0.155125 -0.0083,0.335783 -0.163814,0.401981 C 9.0560262,12.433247 7.1955105,11.860266 6.2554247,10.39921 5.3153205,8.938154 5.5638806,7.0073839 6.845054,5.8337981 7.4856844,5.2469787 8.2944892,4.9320187 9.1126153,4.8980991 c 0.051012,-0.00265 0.1012454,-0.00265 0.1524449,-0.00265 z M 9.0268268,7.1590696 a 0.1323049,0.13228394 0 0 0 -0.1038702,0.052705 0.1323049,0.13228394 0 0 0 -0.00159,0.00265 C 8.3857545,7.2953829 7.9503192,7.7963185 7.9503694,8.467884 c 0,0.728742 0.4929453,1.312386 1.0919249,1.312386 0.5984108,0 1.0889327,-0.582506 1.0898537,-1.3102958 v -0.00265 c 1.8e-5,-0.00423 2.6e-5,-0.00926 0,-0.013494 -0.0067,-0.684949 -0.4581134,-1.1999075 -1.0097564,-1.2555494 a 0.1323049,0.13228394 0 0 0 -0.00212,-0.00265 0.1323049,0.13228394 0 0 0 -0.073901,-0.03511 0.1323049,0.13228394 0 0 0 -0.017568,-0.00265 0.1323049,0.13228394 0 0 0 -0.00212,0 z m 0.00212,0.263525 c 5.292e-4,0 0.00106,0 0.00159,0 5.292e-4,0 0.00159,0 0.00212,0 a 0.1323049,0.13228394 0 0 0 0.00569,0 0.1323049,0.13228394 0 0 0 0.00212,0 c 0,0 0.00185,0 0.0041,0 0.4192218,0 0.8183611,0.4281752 0.8242411,1.0333567 2.1e-5,0.0037 2.1e-5,0.00767 0,0.011377 0,0.6108967 -0.4030799,1.0467977 -0.8263075,1.0467977 -0.4232222,0 -0.8283734,-0.435954 -0.8283734,-1.0467977 -5.79e-5,-0.6039379 0.3965551,-1.0365846 0.8149249,-1.0447337 z" />
    <rect
       style="opacity:0.25;fill:#0c0c0c;fill-opacity:1;stroke:none;stroke-width:0.79375;stroke-linecap:round;stroke-linejoin:round;stroke-miterlimit:4;stroke-dasharray:none;stroke-dashoffset:2.1875;stroke-opacity:1"
       id="rect2031-7-0-7-6"
       width="0.39687505"
       height="16.139584"
       x="4.6302085"
       y="0.1984375" />
    <rect
       style="opacity:0.25;fill:#0c0c0c;fill-opacity:1;stroke:none;stroke-width:0.79375;stroke-linecap:round;stroke-linejoin:round;stroke-miterlimit:4;stroke-dasharray:none;stroke-dashoffset:2.1875;stroke-opacity:1"
       id="rect2246-3-8-2-5-1"
       width="0.39687496"
       height="8.9164562"
       x="17.1651"
       y="-3.4758143"
       rx="0.19843748"
       ry="0.19843748"
       transform="rotate(45)" />
    <rect
       style="opacity:0.25;fill:#0c0c0c;fill-opacity:1;stroke:none;stroke-width:0.79375;stroke-linecap:round;stroke-linejoin:round;stroke-miterlimit:4;stroke-dasharray:none;stroke-dashoffset:2.1875;stroke-opacity:1"
       id="rect2246-8-1-3-3-8"
       width="0.39687496"
       height="8.9164562"
       x="5.4718409"
       y="6.2530069"
       rx="0.19843748"
       ry="0.19843748"
       transform="rotate(-45)" />
    <rect
       style="fill:#d34f4f;fill-opacity:1;stroke:none;stroke-width:0.79375;stroke-linecap:round;stroke-linejoin:round;stroke-miterlimit:4;stroke-dasharray:none;stroke-dashoffset:2.1875;stroke-opacity:1"
       id="rect2029-7-5-7"
       width="2.3812499"
       height="15.345834"
       x="2.3812499"
       y="0.59534484"
       rx="0.79375011"
       ry="0.79375011" />
    <rect
       style="fill:#3d0f0f;fill-opacity:1;stroke:none;stroke-width:0.79375;stroke-linecap:round;stroke-linejoin:round;stroke-miterlimit:4;stroke-dasharray:none;stroke-dashoffset:2.1875;stroke-opacity:1"
       id="rect2031-5-6-6-9"
       width="0.39687505"
       height="16.139584"
       x="4.4979167"
       y="0.1984375" />
    <path
       style="fill:#d34f4f;fill-opacity:1;stroke:none;stroke-width:0.793742;stroke-linecap:round;stroke-linejoin:round;stroke-miterlimit:4;stroke-dasharray:none;stroke-dashoffset:2.1875;stroke-opacity:1"
       d="m 9.1280854,0.19862275 h 0.1963685 0.3875776 0.7394895 2.247402 c 1.239277,0 2.250007,1.00954415 2.249996,2.24890545 l 3e-6,2.2489319 -6e-6,0.9259888 6e-6,0.396875 c -3e-6,0.1466056 -0.117986,0.2645833 -0.264584,0.2645833 h -0.264586 c -0.03829,-2.64e-5 -0.07418,-0.009 -0.106963,-0.023283 -0.04067,-0.012171 -0.07991,-0.030797 -0.112149,-0.063103 L 14.154682,6.1515097 13.26533,5.2621922 9.8862039,1.8826163 8.9958255,0.99276965 8.9503648,0.94726135 c -0.031959,-0.031988 -0.050811,-0.070776 -0.06305,-0.1110986 -0.01479,-0.032994 -0.02376,-0.069294 -0.023786,-0.1080293 l 5.1e-6,-0.2645834 c 0,-0.1466056 0.117975,-0.265086 0.2645806,-0.265086 z"
       id="path1865-3-0-8-8-9-2-2" />
    <rect
       style="fill:#3e0f0f;fill-opacity:1;stroke:none;stroke-width:0.79375;stroke-linecap:round;stroke-linejoin:round;stroke-miterlimit:4;stroke-dasharray:none;stroke-dashoffset:2.1875;stroke-opacity:1"
       id="rect2246-8-2-9-0"
       width="0.39687496"
       height="8.9164562"
       x="5.6589012"
       y="6.2528458"
       rx="0.19843748"
       ry="0.19843748"
       transform="rotate(-45)" />
    <path
       style="fill:#d34f4f;fill-opacity:1;stroke:none;stroke-width:0.793742;stroke-linecap:round;stroke-linejoin:round;stroke-miterlimit:4;stroke-dasharray:none;stroke-dashoffset:2.1875;stroke-opacity:1"
       d="m 14.948882,10.51732 3e-6,0.196347 -3e-6,0.387588 -3e-6,0.739484 6e-6,2.247398 c 2e-6,1.239282 -1.009545,2.250017 -2.248914,2.250017 H 10.45106 9.5250451 9.128178 c -0.1466135,0 -0.2645833,-0.117978 -0.2645859,-0.264584 v -0.264583 c 3.7e-5,-0.03831 0.009,-0.07422 0.023283,-0.106971 0.012092,-0.04069 0.030819,-0.0799 0.0631,-0.112157 l 0.045969,-0.04599 0.8893328,-0.88937 3.3795711,-3.3791 0.889847,-0.890376 0.04548,-0.04551 c 0.03197,-0.03201 0.07081,-0.0508 0.11111,-0.0631 0.03302,-0.01482 0.0693,-0.02381 0.108024,-0.02381 h 0.264573 c 0.146611,0 0.265094,0.117978 0.265094,0.264584 z"
       id="path1865-3-0-8-4-2-1-2" />
    <rect
       style="fill:#3d0f0f;fill-opacity:1;stroke:none;stroke-width:0.79375;stroke-linecap:round;stroke-linejoin:round;stroke-miterlimit:4;stroke-dasharray:none;stroke-dashoffset:2.1875;stroke-opacity:1"
       id="rect2246-3-89-2-3"
       width="0.39687496"
       height="8.9164562"
       x="17.352201"
       y="-3.4758062"
       rx="0.19843748"
       ry="0.19843748"
       transform="rotate(45)" />
    <path
       id="rect869-36-0-1-8-7-9-2-0-7-7-7"
       style="color:#000000;font-style:normal;font-variant:normal;font-weight:normal;font-stretch:normal;font-size:medium;line-height:normal;font-family:sans-serif;font-variant-ligatures:normal;font-variant-position:normal;font-variant-caps:normal;font-variant-numeric:normal;font-variant-alternates:normal;font-variant-east-asian:normal;font-feature-settings:normal;font-variation-settings:normal;text-indent:0;text-align:start;text-decoration:none;text-decoration-line:none;text-decoration-style:solid;text-decoration-color:#000000;letter-spacing:normal;word-spacing:normal;text-transform:none;writing-mode:lr-tb;direction:ltr;text-orientation:mixed;dominant-baseline:auto;baseline-shift:baseline;text-anchor:start;white-space:normal;shape-padding:0;shape-margin:0;inline-size:0;clip-rule:nonzero;display:inline;overflow:visible;visibility:visible;isolation:auto;mix-blend-mode:normal;color-interpolation:sRGB;color-interpolation-filters:linearRGB;solid-color:#000000;solid-opacity:1;vector-effect:none;fill:#5a1616;fill-opacity:1;fill-rule:nonzero;stroke:none;stroke-width:1.00002;stroke-linecap:round;stroke-linejoin:round;stroke-miterlimit:4;stroke-dasharray:none;stroke-dashoffset:2.1875;stroke-opacity:1;color-rendering:auto;image-rendering:auto;shape-rendering:auto;text-rendering:auto;enable-background:accumulate;stop-color:#000000"
       d="m 3.1734495,0.19846405 c -0.6527403,0 -1.1890745,0.536866 -1.1890745,1.18961955 V 15.148402 c 0,0.65278 0.5363342,1.189619 1.1890745,1.189619 h 5.2932146 4.2322989 c 1.239062,0 2.250001,-1.009412 2.250001,-2.248482 V 2.4469726 c 0,-1.2390967 -1.010939,-2.24850855 -2.250001,-2.24850855 H 8.4666641 Z m 0,0.7932473 h 5.2932146 4.2322989 c 0.813054,0 1.455211,0.64219665 1.455211,1.45526125 V 14.089539 c 0,0.813065 -0.642157,1.455235 -1.455211,1.455235 H 8.4666641 3.1734495 c -0.2267373,0 -0.3963591,-0.169624 -0.3963591,-0.396372 V 1.3880836 c 0,-0.2267479 0.1696218,-0.39637225 0.3963591,-0.39637225 z" />
    <path
       id="path1204-1-0-9"
       style="color:#000000;font-style:normal;font-variant:normal;font-weight:normal;font-stretch:normal;font-size:medium;line-height:normal;font-family:sans-serif;font-variant-ligatures:normal;font-variant-position:normal;font-variant-caps:normal;font-variant-numeric:normal;font-variant-alternates:normal;font-variant-east-asian:normal;font-feature-settings:normal;font-variation-settings:normal;text-indent:0;text-align:start;text-decoration:none;text-decoration-line:none;text-decoration-style:solid;text-decoration-color:#000000;letter-spacing:normal;word-spacing:normal;text-transform:none;writing-mode:lr-tb;direction:ltr;text-orientation:mixed;dominant-baseline:auto;baseline-shift:baseline;text-anchor:start;white-space:normal;shape-padding:0;shape-margin:0;inline-size:0;clip-rule:nonzero;display:inline;overflow:visible;visibility:visible;isolation:auto;mix-blend-mode:normal;color-interpolation:sRGB;color-interpolation-filters:linearRGB;solid-color:#000000;solid-opacity:1;vector-effect:none;fill:#ffcbcb;fill-opacity:1;fill-rule:nonzero;stroke:none;stroke-width:0.246941;stroke-linecap:round;stroke-linejoin:round;stroke-miterlimit:4;stroke-dasharray:none;stroke-dashoffset:2.1875;stroke-opacity:1;color-rendering:auto;image-rendering:auto;shape-rendering:auto;text-rendering:auto;enable-background:accumulate;stop-color:#000000"
       d="m 9.2654994,4.6302085 c -0.053369,-5.3e-5 -0.1060846,0 -0.1586838,0.00344 C 8.2584609,4.6688376 7.4209726,4.9950689 6.7568657,5.6035047 5.4286732,6.82035 5.1697044,8.8240925 6.1442945,10.338991 c 0.9745662,1.514872 2.9046594,2.109126 4.5629435,1.405361 0.221634,-0.09435 0.329203,-0.353404 0.235365,-0.575813 -0.09409,-0.222753 -0.35511,-0.330041 -0.577828,-0.235373 C 9.0957004,11.471752 7.6304802,11.020822 6.8846833,9.86155 6.1388864,8.7022783 6.336591,7.1834377 7.3530381,6.2521837 8.369488,5.3209297 9.8997529,5.2573239 10.989892,6.1012389 c 0.699694,0.541655 1.080135,1.3531057 1.093941,2.1871253 v 0.4629944 c 0,0.3709194 -0.270875,0.6525154 -0.601485,0.6525154 -0.33061,0 -0.601482,-0.281596 -0.601482,-0.6525154 V 8.33419 7.8967544 a 0.12349147,0.12347536 0 0 0 0,-0.00767 c -1.22e-4,-0.00265 -0.0024,-0.00476 -0.0024,-0.00741 0,-0.00582 0.0024,-0.00767 0.0024,-0.012435 v -1.04267 c 0,-0.2418557 -0.199459,-0.4412986 -0.441341,-0.4412986 -0.187778,0 -0.278281,0.1761861 -0.341006,0.3429 C 9.7920359,6.4728727 9.4390529,6.2762872 9.0412254,6.2762872 c -1.0272898,0 -1.8396374,0.9353551 -1.8396374,2.0578763 0,1.1224945 0.8123238,2.0598075 1.8396374,2.0598075 0.5297196,-2.6e-5 0.9878776,-0.313213 1.3288566,-0.740304 0.266975,0.349277 0.6408,0.63082 1.112266,0.63082 0.822203,0 1.482236,-0.691436 1.482236,-1.5331549 V 8.3086048 c 7.4e-5,-0.011906 -0.0057,-0.023019 -0.0077,-0.03474 l -0.01458,-0.056409 C 12.906545,7.1453377 12.427228,6.0997308 11.529537,5.4047762 10.861797,4.8878332 10.061546,4.6312139 9.2654227,4.6302614 Z M 9.0286815,7.1563708 a 0.12349147,0.12347536 0 0 0 0.00238,0 c 0.00339,0 0.00619,-2.65e-5 0.0091,0 0,2.65e-5 0.0027,2.65e-5 0.00389,0 0.5061876,0 0.9505134,0.5010415 0.9569615,1.1647223 2.4e-5,0.00423 2.4e-5,0.00873 0,0.012965 0,0.6699249 -0.4477868,1.1791679 -0.9588877,1.1791679 -0.5111009,0 -0.9588844,-0.50927 -0.9588844,-1.1791679 -4.8e-5,-0.6634431 0.4404753,-1.1692735 0.9463428,-1.1777402 z" />
    <path
       id="path1181-0-2-9-62-2-2-7-5-6-4"
       style="color:#000000;font-style:normal;font-variant:normal;font-weight:normal;font-stretch:normal;font-size:medium;line-height:normal;font-family:sans-serif;font-variant-ligatures:normal;font-variant-position:normal;font-variant-caps:normal;font-variant-numeric:normal;font-variant-alternates:normal;font-variant-east-asian:normal;font-feature-settings:normal;font-variation-settings:normal;text-indent:0;text-align:start;text-decoration:none;text-decoration-line:none;text-decoration-style:solid;text-decoration-color:#000000;letter-spacing:normal;word-spacing:normal;text-transform:none;writing-mode:lr-tb;direction:ltr;text-orientation:mixed;dominant-baseline:auto;baseline-shift:baseline;text-anchor:start;white-space:normal;shape-padding:0;shape-margin:0;inline-size:0;clip-rule:nonzero;display:inline;overflow:visible;visibility:visible;opacity:0.25;isolation:auto;mix-blend-mode:normal;color-interpolation:sRGB;color-interpolation-filters:linearRGB;solid-color:#000000;solid-opacity:1;vector-effect:none;fill:#0c0c0c;fill-opacity:1;fill-rule:nonzero;stroke:none;stroke-width:0;stroke-linecap:round;stroke-linejoin:round;stroke-miterlimit:4;stroke-dasharray:none;stroke-dashoffset:2.1875;stroke-opacity:1;color-rendering:auto;image-rendering:auto;shape-rendering:auto;text-rendering:auto;enable-background:accumulate;stop-color:#000000"
       d="m 12.964583,8.8470044 c -2.189109,0 -3.9687496,1.7799046 -3.9687496,3.9689886 0,2.189056 1.7796406,3.968644 3.9687496,3.968644 2.18911,0 3.96875,-1.779588 3.96875,-3.968644 0,-2.189084 -1.77964,-3.9689886 -3.96875,-3.9689886 z m 0,0.495803 c 1.920981,0 3.473265,1.5522306 3.473265,3.4731856 0,1.920954 -1.552284,3.472841 -3.473265,3.472841 -1.920981,0 -3.4732646,-1.551887 -3.4732646,-3.472841 0,-1.920955 1.5522836,-3.4731856 3.4732646,-3.4731856 z" />
    <path
       id="path1181-0-6-2-9-0-9-5-3-1-7"
       style="color:#000000;font-style:normal;font-variant:normal;font-weight:normal;font-stretch:normal;font-size:medium;line-height:normal;font-family:sans-serif;font-variant-ligatures:normal;font-variant-position:normal;font-variant-caps:normal;font-variant-numeric:normal;font-variant-alternates:normal;font-variant-east-asian:normal;font-feature-settings:normal;font-variation-settings:normal;text-indent:0;text-align:start;text-decoration:none;text-decoration-line:none;text-decoration-style:solid;text-decoration-color:#000000;letter-spacing:normal;word-spacing:normal;text-transform:none;writing-mode:lr-tb;direction:ltr;text-orientation:mixed;dominant-baseline:auto;baseline-shift:baseline;text-anchor:start;white-space:normal;shape-padding:0;shape-margin:0;inline-size:0;clip-rule:nonzero;display:inline;overflow:visible;visibility:visible;opacity:0.85;isolation:auto;mix-blend-mode:normal;color-interpolation:sRGB;color-interpolation-filters:linearRGB;solid-color:#000000;solid-opacity:1;vector-effect:none;fill:#0c6e59;fill-opacity:1;fill-rule:nonzero;stroke:none;stroke-width:0.625041;stroke-linecap:round;stroke-linejoin:round;stroke-miterlimit:4;stroke-dasharray:none;stroke-dashoffset:2.1875;stroke-opacity:1;color-rendering:auto;image-rendering:auto;shape-rendering:auto;text-rendering:auto;enable-background:accumulate;stop-color:#000000"
       d="m 12.964583,8.5989584 c -2.189109,0 -3.9687496,1.7799046 -3.9687496,3.9689606 0,2.189083 1.7796406,3.968671 3.9687496,3.968671 2.18911,0 3.96875,-1.779588 3.96875,-3.968671 0,-2.189056 -1.77964,-3.9689606 -3.96875,-3.9689606 z m 0,0.495802 c 1.920981,0 3.473265,1.5522306 3.473265,3.4731586 0,1.920981 -1.552284,3.472868 -3.473265,3.472868 -1.920981,0 -3.4732646,-1.551887 -3.4732646,-3.472868 0,-1.920928 1.5522836,-3.4731586 3.4732646,-3.4731586 z" />
    <ellipse
       style="fill:url(#linearGradient1474);fill-opacity:1;stroke:#771832;stroke-width:0;stroke-linecap:round;stroke-linejoin:round;stroke-miterlimit:4;stroke-dasharray:none;stroke-dashoffset:2.1875;stroke-opacity:1"
       id="path1181-0-1-2-1-3-5-2-8"
       cx="12.964599"
       cy="12.567805"
       rx="3.7207029"
       ry="3.720763" />
    <path
       id="path1181-0-2-9-3-2-7-7-6-2-3-4"
       style="color:#000000;font-style:normal;font-variant:normal;font-weight:normal;font-stretch:normal;font-size:medium;line-height:normal;font-family:sans-serif;font-variant-ligatures:normal;font-variant-position:normal;font-variant-caps:normal;font-variant-numeric:normal;font-variant-alternates:normal;font-variant-east-asian:normal;font-feature-settings:normal;font-variation-settings:normal;text-indent:0;text-align:start;text-decoration:none;text-decoration-line:none;text-decoration-style:solid;text-decoration-color:#000000;letter-spacing:normal;word-spacing:normal;text-transform:none;writing-mode:lr-tb;direction:ltr;text-orientation:mixed;dominant-baseline:auto;baseline-shift:baseline;text-anchor:start;white-space:normal;shape-padding:0;shape-margin:0;inline-size:0;clip-rule:nonzero;display:inline;overflow:visible;visibility:visible;opacity:0.15;isolation:auto;mix-blend-mode:normal;color-interpolation:sRGB;color-interpolation-filters:linearRGB;solid-color:#000000;solid-opacity:1;vector-effect:none;fill:#0a5c4a;fill-opacity:1;fill-rule:nonzero;stroke:none;stroke-width:0;stroke-linecap:round;stroke-linejoin:round;stroke-miterlimit:4;stroke-dasharray:none;stroke-dashoffset:2.1875;stroke-opacity:1;color-rendering:auto;image-rendering:auto;shape-rendering:auto;text-rendering:auto;enable-background:accumulate;stop-color:#000000"
       d="m 12.964583,8.5989584 c -2.189109,0 -3.9687496,1.7799046 -3.9687496,3.9689606 0,2.189083 1.7796406,3.968671 3.9687496,3.968671 2.18911,0 3.96875,-1.779588 3.96875,-3.968671 0,-2.189056 -1.77964,-3.9689606 -3.96875,-3.9689606 z m 0,0.495802 c 1.920981,0 3.473265,1.5522306 3.473265,3.4731586 0,1.920981 -1.552284,3.472868 -3.473265,3.472868 -1.920981,0 -3.4732646,-1.551887 -3.4732646,-3.472868 0,-1.920928 1.5522836,-3.4731586 3.4732646,-3.4731586 z" />
    <path
       id="rect2388-9-6-0-6-2-9-1-5"
       style="color:#000000;font-style:normal;font-variant:normal;font-weight:normal;font-stretch:normal;font-size:medium;line-height:normal;font-family:sans-serif;font-variant-ligatures:normal;font-variant-position:normal;font-variant-caps:normal;font-variant-numeric:normal;font-variant-alternates:normal;font-variant-east-asian:normal;font-feature-settings:normal;font-variation-settings:normal;text-indent:0;text-align:start;text-decoration:none;text-decoration-line:none;text-decoration-style:solid;text-decoration-color:#000000;letter-spacing:normal;word-spacing:normal;text-transform:none;writing-mode:lr-tb;direction:ltr;text-orientation:mixed;dominant-baseline:auto;baseline-shift:baseline;text-anchor:start;white-space:normal;shape-padding:0;shape-margin:0;inline-size:0;clip-rule:nonzero;display:inline;overflow:visible;visibility:visible;opacity:0.35;isolation:auto;mix-blend-mode:normal;color-interpolation:sRGB;color-interpolation-filters:linearRGB;solid-color:#000000;solid-opacity:1;vector-effect:none;fill:#0a5c4a;fill-opacity:1;fill-rule:nonzero;stroke:none;stroke-width:0.264583;stroke-linecap:round;stroke-linejoin:round;stroke-miterlimit:4;stroke-dasharray:none;stroke-dashoffset:2.1875;stroke-opacity:1;color-rendering:auto;image-rendering:auto;shape-rendering:auto;text-rendering:auto;enable-background:accumulate;stop-color:#000000"
       d="m 12.7,10.351822 c -0.217593,0 -0.396875,0.179308 -0.396875,0.396875 v 1.422136 H 10.88099 c -0.217567,0 -0.396875,0.179308 -0.396875,0.396875 v 0.529166 c 0,0.217594 0.179308,0.396875 0.396875,0.396875 h 1.422135 v 1.422136 c 0,0.217593 0.179308,0.396875 0.396875,0.396875 h 0.529167 c 0.217593,0 0.396875,-0.179282 0.396875,-0.396875 v -1.422136 h 1.422135 c 0.217593,0 0.396875,-0.179281 0.396875,-0.396875 v -0.529166 c 0,-0.217567 -0.179282,-0.396875 -0.396875,-0.396875 h -1.422135 v -1.422136 c 0,-0.217567 -0.179282,-0.396875 -0.396875,-0.396875 z m 0,0.264584 h 0.529167 c 0.07557,0 0.132291,0.05675 0.132291,0.132291 v 1.554427 a 0.1323049,0.1323049 0 0 0 0.132292,0.132292 h 1.554427 c 0.07559,0 0.132292,0.05673 0.132292,0.132292 v 0.529166 c 0,0.07559 -0.0567,0.132292 -0.132292,0.132292 H 13.49375 a 0.1323049,0.1323049 0 0 0 -0.132292,0.132292 v 1.554427 c 0,0.07559 -0.0567,0.132291 -0.132291,0.132291 H 12.7 c -0.07559,0 -0.132292,-0.0567 -0.132292,-0.132291 V 13.361458 A 0.1323049,0.1323049 0 0 0 12.435417,13.229166 H 10.88099 c -0.07559,0 -0.132292,-0.0567 -0.132292,-0.132292 v -0.529166 c 0,-0.07556 0.0567,-0.132292 0.132292,-0.132292 h 1.554427 a 0.1323049,0.1323049 0 0 0 0.132291,-0.132292 v -1.554427 c 0,-0.07554 0.05673,-0.132291 0.132292,-0.132291 z" />
    <path
       id="rect2388-9-6-0-6-1-9-0"
       style="color:#000000;font-style:normal;font-variant:normal;font-weight:normal;font-stretch:normal;font-size:medium;line-height:normal;font-family:sans-serif;font-variant-ligatures:normal;font-variant-position:normal;font-variant-caps:normal;font-variant-numeric:normal;font-variant-alternates:normal;font-variant-east-asian:normal;font-feature-settings:normal;font-variation-settings:normal;text-indent:0;text-align:start;text-decoration:none;text-decoration-line:none;text-decoration-style:solid;text-decoration-color:#000000;letter-spacing:normal;word-spacing:normal;text-transform:none;writing-mode:lr-tb;direction:ltr;text-orientation:mixed;dominant-baseline:auto;baseline-shift:baseline;text-anchor:start;white-space:normal;shape-padding:0;shape-margin:0;inline-size:0;clip-rule:nonzero;display:inline;overflow:visible;visibility:visible;isolation:auto;mix-blend-mode:normal;color-interpolation:sRGB;color-interpolation-filters:linearRGB;solid-color:#000000;solid-opacity:1;vector-effect:none;fill:#0a5c4a;fill-opacity:1;fill-rule:nonzero;stroke:none;stroke-width:0.264583;stroke-linecap:round;stroke-linejoin:round;stroke-miterlimit:4;stroke-dasharray:none;stroke-dashoffset:2.1875;stroke-opacity:1;color-rendering:auto;image-rendering:auto;shape-rendering:auto;text-rendering:auto;enable-background:accumulate;stop-color:#000000"
       d="m 12.7,10.087239 c -0.217593,0 -0.396875,0.179308 -0.396875,0.396875 v 1.422135 H 10.88099 c -0.217567,0 -0.396875,0.179308 -0.396875,0.396875 v 0.529167 c 0,0.217593 0.179308,0.396875 0.396875,0.396875 h 1.422135 v 1.422135 c 0,0.217594 0.179308,0.396875 0.396875,0.396875 h 0.529167 c 0.217593,0 0.396875,-0.179281 0.396875,-0.396875 v -1.422135 h 1.422135 c 0.217593,0 0.396875,-0.179282 0.396875,-0.396875 v -0.529167 c 0,-0.217567 -0.179282,-0.396875 -0.396875,-0.396875 h -1.422135 v -1.422135 c 0,-0.217567 -0.179282,-0.396875 -0.396875,-0.396875 z m 0,0.264583 h 0.529167 c 0.07557,0 0.132291,0.05675 0.132291,0.132292 v 1.554427 a 0.1323049,0.1323049 0 0 0 0.132292,0.132292 h 1.554427 c 0.07559,0 0.132292,0.05673 0.132292,0.132291 v 0.529167 c 0,0.07559 -0.0567,0.132292 -0.132292,0.132292 H 13.49375 a 0.1323049,0.1323049 0 0 0 -0.132292,0.132291 v 1.554427 c 0,0.07559 -0.0567,0.132292 -0.132291,0.132292 H 12.7 c -0.07559,0 -0.132292,-0.0567 -0.132292,-0.132292 V 13.096874 A 0.1323049,0.1323049 0 0 0 12.435417,12.964583 H 10.88099 c -0.07559,0 -0.132292,-0.0567 -0.132292,-0.132292 v -0.529167 c 0,-0.07556 0.0567,-0.132291 0.132292,-0.132291 h 1.554427 a 0.1323049,0.1323049 0 0 0 0.132291,-0.132292 v -1.554427 c 0,-0.07554 0.05673,-0.132292 0.132292,-0.132292 z" />
    <path
       id="rect2388-9-6-2-4-3"
       style="fill:#fdfbfc;fill-opacity:1;stroke-width:0.309621;stroke-linecap:round;stroke-linejoin:round;stroke-dashoffset:2.1875"
       d="m 12.7,10.219531 c -0.146579,0 -0.264583,0.11803 -0.264583,0.264583 v 1.554427 H 10.88099 c -0.14658,0 -0.264584,0.118004 -0.264584,0.264583 v 0.529167 c 0,0.146579 0.118004,0.264583 0.264584,0.264583 h 1.554427 v 1.554427 c 0,0.14658 0.118004,0.264584 0.264583,0.264584 h 0.529167 c 0.146579,0 0.264583,-0.118004 0.264583,-0.264584 v -1.554427 h 1.554427 c 0.146579,0 0.264583,-0.118004 0.264583,-0.264583 v -0.529167 c 0,-0.146579 -0.118004,-0.264583 -0.264583,-0.264583 H 13.49375 v -1.554427 c 0,-0.146553 -0.118004,-0.264583 -0.264583,-0.264583 z" />
  </g>
</svg>
