<?xml version="1.0" encoding="UTF-8" standalone="no"?>
<svg
   xmlns:dc="http://purl.org/dc/elements/1.1/"
   xmlns:cc="http://creativecommons.org/ns#"
   xmlns:rdf="http://www.w3.org/1999/02/22-rdf-syntax-ns#"
   xmlns:svg="http://www.w3.org/2000/svg"
   xmlns="http://www.w3.org/2000/svg"
   xmlns:xlink="http://www.w3.org/1999/xlink"
   xmlns:sodipodi="http://sodipodi.sourceforge.net/DTD/sodipodi-0.dtd"
   xmlns:inkscape="http://www.inkscape.org/namespaces/inkscape"
   width="64"
   height="64"
   viewBox="0 0 64 64"
   version="1.1"
   id="svg6374"
   inkscape:version="1.0.2 (e86c870879, 2021-01-15)"
   sodipodi:docname="bookmark-new.svg">
  <defs
     id="defs6368">
    <linearGradient
       inkscape:collect="always"
       xlink:href="#linearGradient2081-0"
       id="linearGradient2083-1-2"
       x1="932.95593"
       y1="407.50018"
       x2="932.76898"
       y2="458.03909"
       gradientUnits="userSpaceOnUse"
       gradientTransform="translate(-900.00052,-400)" />
    <linearGradient
       inkscape:collect="always"
       id="linearGradient2081-0">
      <stop
         style="stop-color:#fdeb68;stop-opacity:0.875"
         offset="0"
         id="stop2077-6" />
      <stop
         style="stop-color:#fdeb68;stop-opacity:0.44999999"
         offset="1"
         id="stop2079-3" />
    </linearGradient>
    <linearGradient
       inkscape:collect="always"
       xlink:href="#linearGradient877"
       id="linearGradient1474"
       gradientUnits="userSpaceOnUse"
       x1="847.93756"
       y1="533.50037"
       x2="848.06256"
       y2="561.50037"
       gradientTransform="translate(-800,-500)" />
    <linearGradient
       inkscape:collect="always"
       id="linearGradient877">
      <stop
         style="stop-color:#17cea7;stop-opacity:1"
         offset="0"
         id="stop873" />
      <stop
         style="stop-color:#13ae8d;stop-opacity:1"
         offset="1"
         id="stop875" />
    </linearGradient>
  </defs>
  <sodipodi:namedview
     id="base"
     pagecolor="#cecece"
     bordercolor="#666666"
     borderopacity="1.0"
     inkscape:pageopacity="0"
     inkscape:pageshadow="2"
     inkscape:zoom="4.9094357"
     inkscape:cx="12.026185"
     inkscape:cy="52.042142"
     inkscape:document-units="px"
     inkscape:current-layer="layer1"
     inkscape:document-rotation="0"
     showgrid="false"
     units="px"
     inkscape:window-width="2048"
     inkscape:window-height="1080"
     inkscape:window-x="0"
     inkscape:window-y="0"
     inkscape:window-maximized="1" />
  <metadata
     id="metadata6371">
    <rdf:RDF>
      <cc:Work
         rdf:about="">
        <dc:format>image/svg+xml</dc:format>
        <dc:type
           rdf:resource="http://purl.org/dc/dcmitype/StillImage" />
        <dc:title />
      </cc:Work>
    </rdf:RDF>
  </metadata>
  <g
     inkscape:label="Layer 1"
     inkscape:groupmode="layer"
     id="layer1">
    <path
       id="rect2288-3-1-2-0-9-2-7"
       style="color:#000000;font-style:normal;font-variant:normal;font-weight:normal;font-stretch:normal;font-size:medium;line-height:normal;font-family:sans-serif;font-variant-ligatures:normal;font-variant-position:normal;font-variant-caps:normal;font-variant-numeric:normal;font-variant-alternates:normal;font-variant-east-asian:normal;font-feature-settings:normal;font-variation-settings:normal;text-indent:0;text-align:start;text-decoration:none;text-decoration-line:none;text-decoration-style:solid;text-decoration-color:#000000;letter-spacing:normal;word-spacing:normal;text-transform:none;writing-mode:lr-tb;direction:ltr;text-orientation:mixed;dominant-baseline:auto;baseline-shift:baseline;text-anchor:start;white-space:normal;shape-padding:0;shape-margin:0;inline-size:0;clip-rule:nonzero;display:inline;overflow:visible;visibility:visible;opacity:0.1;isolation:auto;mix-blend-mode:normal;color-interpolation:sRGB;color-interpolation-filters:linearRGB;solid-color:#000000;solid-opacity:1;vector-effect:none;fill:#0c0c0c;fill-opacity:1;fill-rule:nonzero;stroke:none;stroke-width:1.00008;stroke-linecap:round;stroke-linejoin:round;stroke-miterlimit:4;stroke-dasharray:none;stroke-dashoffset:2.1875;stroke-opacity:1;color-rendering:auto;image-rendering:auto;shape-rendering:auto;text-rendering:auto;enable-background:accumulate;stop-color:#000000"
       d="m 32.956281,7.5001902 c -0.893,0.0343 -1.4716,0.69762 -1.8418,1.36156 -0.3702,0.66393 -0.6356,1.4735698 -0.877,2.4203198 -0.4826,1.89348 -0.8348,4.32785 -1.1718,6.80582 -0.3371,2.47796 -0.6553,4.99491 -1.0352,6.96991 -0.1899,0.98749 -0.3988,1.8412 -0.6133,2.45744 -0.2145,0.61623 -0.4919,0.96878 -0.4844,0.96305 0.01,-0.006 -0.3677,0.15085 -0.9843,0.1719 -0.6166,0.021 -1.453,-0.0371 -2.4063,-0.15628 -1.9065,-0.23841 -4.292,-0.70874 -6.6465,-1.14667 -2.3545,-0.43794 -4.6711,-0.84724 -6.5449,-0.95133 -0.9368999,-0.0521 -1.7614999,-0.036 -2.4921999,0.1387 -0.7307,0.17468 -1.5171,0.607 -1.7754,1.43773 -0.2583,0.83074 0.1243,1.61767 0.6075,2.20154 0.4831,0.58388 1.1363,1.10508 1.9199,1.64285 1.5671999,1.07554 3.6659999,2.18484 5.8124999,3.29156 2.1464,1.10674 4.3371,2.20679 6.0117,3.1978 0.8373,0.49551 1.5452,0.96668 2.0351,1.36937 0.49,0.40269 0.72,0.76759 0.7266,0.78919 0.01,0.0217 0.024,0.47918 -0.1504,1.11347 -0.1747,0.63429 -0.4887,1.45464 -0.8926,2.37344 -0.8076,1.83762 -1.9702,4.07746 -3.0937,6.29402 -1.1235,2.21656 -2.2082,4.40347 -2.877,6.2315 -0.3344,0.91402 -0.571,1.73192 -0.6367,2.49261 -0.066,0.76068 0.049,1.63007 0.752,2.16833 0.7027,0.53813 1.6076,0.39641 2.2949,0.0899 0.6872,-0.30655 1.3576,-0.79794 2.0859,-1.41429 1.4567,-1.23272 3.1068,-2.98547 4.7715,-4.78791 1.6648,-1.80244 3.3382,-3.65209 4.7539,-5.02036 0.7079,-0.68415 1.354,-1.24901 1.8692,-1.61356 0.5151,-0.36454 0.9232,-0.46877 0.8926,-0.46883 h 0.033 a 1.0001,1.0002663 0 0 0 0.012,0 1.0001,1.0002663 0 0 0 0.021,0 c -0.03,0 0.3792,0.1058 0.8945,0.47079 0.5153,0.36498 1.1612,0.92926 1.8691,1.61355 1.4159,1.36859 3.0892,3.21822 4.7539,5.02036 1.6648,1.80214 3.3148,3.5556 4.7715,4.78791 0.7284,0.61615 1.3987,1.10595 2.086,1.41234 0.6872,0.30639 1.5922,0.44822 2.2949,-0.0899 0.7026,-0.53828 0.8176,-1.40765 0.7519,-2.16833 -0.066,-0.76069 -0.3042,-1.57859 -0.6386,-2.49261 -0.669,-1.82803 -1.7513,-4.01495 -2.875,-6.2315 -1.1238,-2.21655 -2.288,-4.45641 -3.0957,-6.29402 -0.4039,-0.9188 -0.7179,-1.73916 -0.8926,-2.37344 -0.1748,-0.63428 -0.1571,-1.09179 -0.1504,-1.11347 0.01,-0.0216 0.2366,-0.3865 0.7265,-0.78919 0.49,-0.40269 1.1979,-0.87386 2.0352,-1.36937 1.6746,-0.991 3.8653,-2.09106 6.0117,-3.1978 2.1464,-1.10672 4.2453,-2.21602 5.8125,-3.29156 0.7836,-0.53777 1.4368,-1.05897 1.9199,-1.64285 0.4832,-0.58388 0.8657,-1.37079 0.6075,-2.20154 -0.2583,-0.83073 -1.0447,-1.26305 -1.7754,-1.43773 -0.7307,-0.1747 -1.5553,-0.19075 -2.4922,-0.1387 -1.8738,0.10409 -4.1904,0.51339 -6.5449,0.95133 -2.3545,0.43793 -4.7401,0.90826 -6.6465,1.14667 -0.9533,0.11921 -1.7877,0.17732 -2.4043,0.15628 -0.6166,-0.0211 -0.9939,-0.17767 -0.9863,-0.1719 0.01,0.006 -0.2699,-0.34683 -0.4844,-0.96305 -0.2145,-0.61623 -0.4214,-1.46996 -0.6113,-2.45744 -0.3799,-1.97498 -0.7001,-4.49197 -1.0372,-6.96991 -0.337,-2.47795 -0.6892,-4.91233 -1.1718,-6.80582 -0.2414,-0.94675 -0.5068,-1.7563698 -0.877,-2.4203198 -0.3702,-0.66395 -0.9488,-1.32718 -1.8418,-1.36156 a 1.0001,1.0002663 0 0 0 -0.039,0 h -0.01 a 1.0001,1.0002663 0 0 0 -0.039,0 z m 0.045,2.098 c 0.02,0.0329 0.057,0.0918 0.1387,0.23833 0.2186,0.3921898 0.4666,1.0810898 0.6855,1.9397698 0.4378,1.71736 0.7936,4.11641 1.1289,6.58118 0.3353,2.46476 0.6528,5.00003 1.0527,7.07929 0.2,1.03964 0.4187,1.96433 0.6875,2.73679 0.2689,0.77246 0.5333,1.41834 1.1622,1.8968 0.6309,0.4801 1.332,0.55299 2.1289,0.58017 0.7968,0.0272 1.7098,-0.0455 2.7207,-0.1719 2.0217,-0.25282 4.4261,-0.73107 6.7656,-1.16621 2.3394,-0.43515 4.619,-0.82535 6.2891,-0.91813 0.835,-0.0464 1.5215,-0.008 1.916,0.086 0.1936,0.0463 0.2776,0.0818 0.3144,0.0996 -0.01,0.0261 -0.042,0.0999 -0.2226,0.31841 -0.274,0.33111 -0.8078,0.78798 -1.5098,1.26974 -1.404,0.96352 -3.4646,2.06085 -5.5977,3.16069 -2.133,1.09983 -4.3429,2.20758 -6.1152,3.2564 -0.8861,0.5244 -1.6631,1.03035 -2.2871,1.54322 -0.624,0.51287 -1.1371,1.00053 -1.3672,1.74833 -0.23,0.74783 -0.084,1.43978 0.1348,2.2328 0.2184,0.79302 0.5628,1.67904 0.9883,2.64693 0.8509,1.93575 2.0252,4.18974 3.1425,6.39364 1.1173,2.20389 2.1786,4.36245 2.7832,6.01467 0.3023,0.82611 0.4849,1.53206 0.5235,1.97884 0.017,0.19574 0,0.28455 0,0.34577 -0.044,-0.013 -0.09,-0.0227 -0.2363,-0.0879 -0.3749,-0.16714 -0.9559,-0.56066 -1.6094,-1.11346 -1.307,-1.10563 -2.9389,-2.82657 -4.5938,-4.61796 -1.6548,-1.79139 -3.3384,-3.65483 -4.834,-5.10046 -0.7477,-0.72281 -1.4459,-1.34315 -2.1035,-1.80889 -0.6575,-0.46577 -1.2492,-0.83804 -2.0488,-0.83804 0,-3e-5 0,3e-5 -0.012,0 -0.01,-2e-5 -0.012,-4e-5 -0.021,0 h -0.031 v 0 c -0.012,4.9e-4 -0.029,0.002 -0.029,0.002 -10e-5,10e-6 -0.076,0.008 -0.076,0.008 0,0 -0.061,0.0211 -0.1016,0.0352 -0.691,0.0585 -1.247,0.37223 -1.8418,0.7931 -0.6577,0.46546 -1.3556,1.08225 -2.1035,1.80498 -1.4956,1.44546 -3.1791,3.31069 -4.834,5.10241 -1.6548,1.79174 -3.2867,3.51193 -4.5937,4.61796 -0.6535,0.55301 -1.2364,0.94818 -1.6113,1.11542 -0.146,0.0651 -0.1908,0.0749 -0.2344,0.0879 -0.01,-0.0612 -0.021,-0.15002 0,-0.34577 0.039,-0.44678 0.2212,-1.15273 0.5234,-1.97884 0.6045,-1.65222 1.6642,-3.81078 2.7813,-6.01467 1.1171,-2.20389 2.2918,-4.4579 3.1426,-6.39364 0.4254,-0.96788 0.7698,-1.85393 0.9882,-2.64693 0.2185,-0.793 0.3648,-1.48502 0.1348,-2.2328 -0.23,-0.7478 -0.7432,-1.23546 -1.3672,-1.74833 -0.6239,-0.51287 -1.401,-1.01882 -2.2871,-1.54322 -1.7723,-1.04882 -3.9802,-2.15657 -6.1133,-3.2564 -2.133,-1.09985 -4.1956,-2.19717 -5.5995999,-3.16069 -0.702,-0.48176 -1.2358,-0.93864 -1.5098,-1.26974 -0.1807,-0.21848 -0.2124,-0.29229 -0.2226,-0.31841 0.037,-0.0178 0.1208,-0.0533 0.3144,-0.0996 0.3945,-0.0943 1.081,-0.13233 1.9160999,-0.086 1.67,0.0928 3.9515,0.48298 6.291,0.91813 2.3394,0.43514 4.7419,0.91339 6.7636,1.16621 1.0109,0.12641 1.9239,0.19909 2.7208,0.1719 0.7968,-0.0272 1.4979,-0.10007 2.1289,-0.58017 0.6288,-0.47847 0.8932,-1.12433 1.1621,-1.8968 0.2689,-0.77247 0.4875,-1.69714 0.6875,-2.73679 0.3999,-2.07928 0.7194,-4.61451 1.0547,-7.07929 0.3352,-2.46479 0.6892,-4.86384 1.1269,-6.58118 0.2189,-0.85867 0.4669,-1.54956 0.6856,-1.9417298 0.082,-0.14638 0.1198,-0.20391 0.1406,-0.23637 z" />
    <path
       id="rect2288-3-1-2-9-4-0-4"
       style="color:#000000;font-style:normal;font-variant:normal;font-weight:normal;font-stretch:normal;font-size:medium;line-height:normal;font-family:sans-serif;font-variant-ligatures:normal;font-variant-position:normal;font-variant-caps:normal;font-variant-numeric:normal;font-variant-alternates:normal;font-variant-east-asian:normal;font-feature-settings:normal;font-variation-settings:normal;text-indent:0;text-align:start;text-decoration:none;text-decoration-line:none;text-decoration-style:solid;text-decoration-color:#000000;letter-spacing:normal;word-spacing:normal;text-transform:none;writing-mode:lr-tb;direction:ltr;text-orientation:mixed;dominant-baseline:auto;baseline-shift:baseline;text-anchor:start;white-space:normal;shape-padding:0;shape-margin:0;inline-size:0;clip-rule:nonzero;display:inline;overflow:visible;visibility:visible;opacity:0.9;isolation:auto;mix-blend-mode:normal;color-interpolation:sRGB;color-interpolation-filters:linearRGB;solid-color:#000000;solid-opacity:1;vector-effect:none;fill:#4b464b;fill-opacity:1;fill-rule:nonzero;stroke:none;stroke-width:1.00008;stroke-linecap:round;stroke-linejoin:round;stroke-miterlimit:4;stroke-dasharray:none;stroke-dashoffset:2.1875;stroke-opacity:1;color-rendering:auto;image-rendering:auto;shape-rendering:auto;text-rendering:auto;enable-background:accumulate;stop-color:#000000"
       d="m 32.956281,6.0001902 c -0.893,0.0343 -1.4716,0.69762 -1.8418,1.36156 -0.3702,0.66393 -0.6356,1.47357 -0.877,2.42032 -0.4826,1.8934798 -0.8348,4.3278498 -1.1718,6.8058198 -0.3371,2.47796 -0.6553,4.99491 -1.0352,6.96991 -0.1899,0.98749 -0.3988,1.8412 -0.6133,2.45744 -0.2145,0.61623 -0.4919,0.96878 -0.4844,0.96305 0.01,-0.006 -0.3677,0.15085 -0.9843,0.1719 -0.6166,0.021 -1.453,-0.0371 -2.4063,-0.15628 -1.9065,-0.23841 -4.292,-0.70874 -6.6465,-1.14667 -2.3545,-0.43794 -4.6711,-0.84724 -6.5449,-0.95133 -0.9368999,-0.0521 -1.7614999,-0.036 -2.4921999,0.1387 -0.7307,0.17468 -1.5171,0.607 -1.7754,1.43773 -0.2583,0.83074 0.1243,1.61767 0.6075,2.20154 0.4831,0.58388 1.1363,1.10508 1.9199,1.64285 1.5671999,1.07554 3.6659999,2.18484 5.8124999,3.29156 2.1464,1.10674 4.3371,2.20679 6.0117,3.1978 0.8373,0.49551 1.5452,0.96668 2.0351,1.36937 0.49,0.40269 0.72,0.76759 0.7266,0.78919 0.01,0.0217 0.024,0.47918 -0.1504,1.11347 -0.1747,0.63429 -0.4887,1.45464 -0.8926,2.37344 -0.8076,1.83762 -1.9702,4.07746 -3.0937,6.29402 -1.1235,2.21656 -2.2082,4.40347 -2.877,6.2315 -0.3344,0.91402 -0.571,1.73192 -0.6367,2.49261 -0.066,0.76068 0.049,1.63007 0.752,2.16833 0.7027,0.53813 1.6076,0.39641 2.2949,0.0899 0.6872,-0.30655 1.3576,-0.79794 2.0859,-1.41429 1.4567,-1.23272 3.1068,-2.98547 4.7715,-4.78791 1.6648,-1.80244 3.3382,-3.65209 4.7539,-5.02036 0.7079,-0.68415 1.354,-1.24901 1.8692,-1.61356 0.5151,-0.36454 0.9232,-0.46877 0.8926,-0.46883 h 0.033 a 1.0001,1.0002663 0 0 0 0.012,0 1.0001,1.0002663 0 0 0 0.021,0 c -0.03,0 0.3792,0.1058 0.8945,0.47079 0.5153,0.36498 1.1612,0.92926 1.8691,1.61355 1.4159,1.36859 3.0892,3.21822 4.7539,5.02036 1.6648,1.80214 3.3148,3.5556 4.7715,4.78791 0.7284,0.61615 1.3987,1.10595 2.086,1.41234 0.6872,0.30639 1.5922,0.44822 2.2949,-0.0899 0.7026,-0.53828 0.8176,-1.40765 0.7519,-2.16833 -0.066,-0.76069 -0.3042,-1.57859 -0.6386,-2.49261 -0.669,-1.82803 -1.7513,-4.01495 -2.875,-6.2315 -1.1238,-2.21655 -2.288,-4.45641 -3.0957,-6.29402 -0.4039,-0.9188 -0.7179,-1.73916 -0.8926,-2.37344 -0.1748,-0.63428 -0.1571,-1.09179 -0.1504,-1.11347 0.01,-0.0216 0.2366,-0.3865 0.7265,-0.78919 0.49,-0.40269 1.1979,-0.87386 2.0352,-1.36937 1.6746,-0.991 3.8653,-2.09106 6.0117,-3.1978 2.1464,-1.10672 4.2453,-2.21602 5.8125,-3.29156 0.7836,-0.53777 1.4368,-1.05897 1.9199,-1.64285 0.4832,-0.58388 0.8657,-1.37079 0.6075,-2.20154 -0.2583,-0.83073 -1.0447,-1.26305 -1.7754,-1.43773 -0.7307,-0.1747 -1.5553,-0.19075 -2.4922,-0.1387 -1.8738,0.10409 -4.1904,0.51339 -6.5449,0.95133 -2.3545,0.43793 -4.7401,0.90826 -6.6465,1.14667 -0.9533,0.11921 -1.7877,0.17732 -2.4043,0.15628 -0.6166,-0.0211 -0.9939,-0.17767 -0.9863,-0.1719 0.01,0.006 -0.2699,-0.34683 -0.4844,-0.96305 -0.2145,-0.61623 -0.4214,-1.46996 -0.6113,-2.45744 -0.3799,-1.97498 -0.7001,-4.49197 -1.0372,-6.96991 -0.337,-2.47795 -0.6892,-4.91233 -1.1718,-6.8058198 -0.2414,-0.94675 -0.5068,-1.75637 -0.877,-2.42032 -0.3702,-0.66395 -0.9488,-1.32718 -1.8418,-1.36156 a 1.0001,1.0002663 0 0 0 -0.039,0 h -0.01 a 1.0001,1.0002663 0 0 0 -0.039,0 z m 0.045,2.098 c 0.02,0.0329 0.057,0.0918 0.1387,0.23833 0.2186,0.39219 0.4666,1.08109 0.6855,1.9397698 0.4378,1.71736 0.7936,4.11641 1.1289,6.58118 0.3353,2.46476 0.6528,5.00003 1.0527,7.07929 0.2,1.03964 0.4187,1.96433 0.6875,2.73679 0.2689,0.77246 0.5333,1.41834 1.1622,1.8968 0.6309,0.4801 1.332,0.55299 2.1289,0.58017 0.7968,0.0272 1.7098,-0.0455 2.7207,-0.1719 2.0217,-0.25282 4.4261,-0.73107 6.7656,-1.16621 2.3394,-0.43515 4.619,-0.82535 6.2891,-0.91813 0.835,-0.0464 1.5215,-0.008 1.916,0.086 0.1936,0.0463 0.2776,0.0818 0.3144,0.0996 -0.01,0.0261 -0.042,0.0999 -0.2226,0.31841 -0.274,0.33111 -0.8078,0.78798 -1.5098,1.26974 -1.404,0.96352 -3.4646,2.06085 -5.5977,3.16069 -2.133,1.09983 -4.3429,2.20758 -6.1152,3.2564 -0.8861,0.5244 -1.6631,1.03035 -2.2871,1.54322 -0.624,0.51287 -1.1371,1.00053 -1.3672,1.74833 -0.23,0.74783 -0.084,1.43978 0.1348,2.2328 0.2184,0.79302 0.5628,1.67904 0.9883,2.64693 0.8509,1.93575 2.0252,4.18974 3.1425,6.39364 1.1173,2.20389 2.1786,4.36245 2.7832,6.01467 0.3023,0.82611 0.4849,1.53206 0.5235,1.97884 0.017,0.19574 0,0.28455 0,0.34577 -0.044,-0.013 -0.09,-0.0227 -0.2363,-0.0879 -0.3749,-0.16714 -0.9559,-0.56066 -1.6094,-1.11346 -1.307,-1.10563 -2.9389,-2.82657 -4.5938,-4.61796 -1.6548,-1.79139 -3.3384,-3.65483 -4.834,-5.10046 -0.7477,-0.72281 -1.4459,-1.34315 -2.1035,-1.80889 -0.6575,-0.46577 -1.2492,-0.83804 -2.0488,-0.83804 0,-3e-5 0,3e-5 -0.012,0 -0.01,-2e-5 -0.012,-4e-5 -0.021,0 h -0.031 v 0 c -0.012,4.9e-4 -0.029,0.002 -0.029,0.002 -10e-5,10e-6 -0.076,0.008 -0.076,0.008 0,0 -0.061,0.0211 -0.1016,0.0352 -0.691,0.0585 -1.247,0.37223 -1.8418,0.7931 -0.6577,0.46546 -1.3556,1.08225 -2.1035,1.80498 -1.4956,1.44546 -3.1791,3.31069 -4.834,5.10241 -1.6548,1.79174 -3.2867,3.51193 -4.5937,4.61796 -0.6535,0.55301 -1.2364,0.94818 -1.6113,1.11542 -0.146,0.0651 -0.1908,0.0749 -0.2344,0.0879 -0.01,-0.0612 -0.021,-0.15002 0,-0.34577 0.039,-0.44678 0.2212,-1.15273 0.5234,-1.97884 0.6045,-1.65222 1.6642,-3.81078 2.7813,-6.01467 1.1171,-2.20389 2.2918,-4.4579 3.1426,-6.39364 0.4254,-0.96788 0.7698,-1.85393 0.9882,-2.64693 0.2185,-0.793 0.3648,-1.48502 0.1348,-2.2328 -0.23,-0.7478 -0.7432,-1.23546 -1.3672,-1.74833 -0.6239,-0.51287 -1.401,-1.01882 -2.2871,-1.54322 -1.7723,-1.04882 -3.9802,-2.15657 -6.1133,-3.2564 -2.133,-1.09985 -4.1956,-2.19717 -5.5995999,-3.16069 -0.702,-0.48176 -1.2358,-0.93864 -1.5098,-1.26974 -0.1807,-0.21848 -0.2124,-0.29229 -0.2226,-0.31841 0.037,-0.0178 0.1208,-0.0533 0.3144,-0.0996 0.3945,-0.0943 1.081,-0.13233 1.9160999,-0.086 1.67,0.0928 3.9515,0.48298 6.291,0.91813 2.3394,0.43514 4.7419,0.91339 6.7636,1.16621 1.0109,0.12641 1.9239,0.19909 2.7208,0.1719 0.7968,-0.0272 1.4979,-0.10007 2.1289,-0.58017 0.6288,-0.47847 0.8932,-1.12433 1.1621,-1.8968 0.2689,-0.77247 0.4875,-1.69714 0.6875,-2.73679 0.3999,-2.07928 0.7194,-4.61451 1.0547,-7.07929 0.3352,-2.46479 0.6892,-4.86384 1.1269,-6.58118 0.2189,-0.8586698 0.4669,-1.5495598 0.6856,-1.9417298 0.082,-0.14638 0.1198,-0.20391 0.1406,-0.23637 z" />
    <path
       id="rect2288-3-78-6-43"
       style="fill:#fcd217;fill-opacity:1;stroke-width:0;stroke-linecap:round;stroke-linejoin:round;stroke-dashoffset:2.1875;stroke-opacity:0.5"
       d="m 32.994281,7.0000002 c -3.0477,0.117 -2.9706,18.8809398 -5.4559,20.7714998 -2.4933,1.89705 -19.5444999,-4.08038 -20.5002999,-1.00604 -0.9559,3.07408 16.1664999,8.82326 17.1131999,11.90043 0.9465,3.07748 -9.7329,18.26496 -7.2454,20.17018 2.4878,1.90485 12.9829,-13.42449 16.0614,-13.41929 h 0.033 c 0,-3.2e-4 0.034,0 0.034,0 3.0783,0 13.5735,15.32414 16.0614,13.41929 2.4875,-1.90522 -8.1938,-17.0927 -7.247,-20.17018 0.9468,-3.07717 18.0691,-8.82629 17.1133,-11.90043 -0.9559,-3.07434 -18.007,2.90309 -20.5004,1.00604 -2.4852,-1.89056 -2.4083,-20.6541798 -5.4559,-20.7714998 z" />
    <path
       id="rect2288-3-1-2-7-4-3-5-7"
       style="color:#000000;font-style:normal;font-variant:normal;font-weight:normal;font-stretch:normal;font-size:medium;line-height:normal;font-family:sans-serif;font-variant-ligatures:normal;font-variant-position:normal;font-variant-caps:normal;font-variant-numeric:normal;font-variant-alternates:normal;font-variant-east-asian:normal;font-feature-settings:normal;font-variation-settings:normal;text-indent:0;text-align:start;text-decoration:none;text-decoration-line:none;text-decoration-style:solid;text-decoration-color:#000000;letter-spacing:normal;word-spacing:normal;text-transform:none;writing-mode:lr-tb;direction:ltr;text-orientation:mixed;dominant-baseline:auto;baseline-shift:baseline;text-anchor:start;white-space:normal;shape-padding:0;shape-margin:0;inline-size:0;clip-rule:nonzero;display:inline;overflow:visible;visibility:visible;isolation:auto;mix-blend-mode:normal;color-interpolation:sRGB;color-interpolation-filters:linearRGB;solid-color:#000000;solid-opacity:1;vector-effect:none;fill:url(#linearGradient2083-1-2);fill-opacity:1;fill-rule:nonzero;stroke:none;stroke-width:1.00006;stroke-linecap:round;stroke-linejoin:round;stroke-miterlimit:4;stroke-dasharray:none;stroke-dashoffset:2.1875;stroke-opacity:1;color-rendering:auto;image-rendering:auto;shape-rendering:auto;text-rendering:auto;enable-background:accumulate;stop-color:#000000"
       d="m 32.992681,7.0000002 c -3.0476,0.117 -2.9694,18.8813598 -5.4546,20.7718998 -2.4932,1.89704 -19.5441999,-4.07972 -20.4999999,-1.0054 -0.9559,3.07405 16.1668999,8.8218 17.1135999,11.89894 0.9465,3.07746 -9.7347,18.2654 -7.2474,20.17062 2.4878,1.90483 12.9826,-13.4228 16.061,-13.4178 h 0.033 c 0,-3.2e-4 0.035,0 0.035,0 3.0782,0 13.5714,15.32262 16.059,13.4178 2.4875,-1.90521 -8.1921,-17.09316 -7.2454,-20.17062 0.9468,-3.07714 18.0694,-8.82483 17.1137,-11.89894 -0.9559,-3.07432 -18.0067,2.90244 -20.5001,1.0054 -2.4851,-1.89054 -2.409,-20.6545798 -5.4565,-20.7718998 z m 0.012,1.10497 c 0.02,0.0335 0.056,0.0885 0.1347,0.23037 0.2187,0.39218 0.4667,1.08186 0.6855,1.9405398 0.4378,1.71734 0.7935,4.11626 1.1288,6.58101 0.3352,2.46476 0.6527,5.00155 1.0526,7.0808 0.1999,1.03963 0.4186,1.9646 0.6875,2.73706 0.2689,0.77245 0.5332,1.41716 1.162,1.89562 0.6309,0.4801 1.332,0.55265 2.1287,0.57982 0.7969,0.0272 1.7096,-0.0454 2.7204,-0.1718 2.0218,-0.25283 4.4257,-0.73035 6.7651,-1.16548 2.3394,-0.43515 4.6204,-0.82477 6.2904,-0.91756 0.8349,-0.0464 1.5214,-0.008 1.9158,0.0859 0.1936,0.0463 0.2776,0.0818 0.3145,0.0995 -0.01,0.0261 -0.042,0.0998 -0.2227,0.31822 -0.274,0.3311 -0.8077,0.78719 -1.5096,1.26896 -1.4039,0.9635 -3.4662,2.06085 -5.5991,3.16069 -2.133,1.09981 -4.3425,2.20753 -6.1146,3.25634 -0.8863,0.5244 -1.663,1.03136 -2.2869,1.54423 -0.624,0.51287 -1.1371,0.99947 -1.3671,1.74726 -0.2301,0.74783 -0.084,1.44034 0.1348,2.23337 0.2186,0.79301 0.5626,1.67743 0.9881,2.6453 0.8509,1.93574 2.025,4.19166 3.1423,6.39555 1.1173,2.20387 2.1784,4.36072 2.7829,6.01292 0.3023,0.8261 0.4849,1.53281 0.5235,1.97958 0.017,0.19575 0.01,0.28627 0,0.3475 -0.044,-0.013 -0.09,-0.0227 -0.2364,-0.0879 -0.3749,-0.16715 -0.9556,-0.56388 -1.6091,-1.11668 -1.3069,-1.10561 -2.9387,-2.8257 -4.5934,-4.61707 -1.6547,-1.79137 -3.3381,-3.65365 -4.8336,-5.09927 -0.7478,-0.7228 -1.4458,-1.34399 -2.1033,-1.80972 -0.6576,-0.46578 -1.249,-0.83753 -2.0486,-0.83753 0,-2e-5 0,3e-5 -0.014,0 -0.01,-2e-5 -0.011,-5e-5 -0.022,0 h -0.031 c -0.012,5e-4 -0.029,0.002 -0.029,0.002 l -0.074,0.008 c 0,0 -0.061,0.023 -0.1016,0.0371 -0.6911,0.0585 -1.2469,0.37174 -1.8416,0.79261 -0.6578,0.46545 -1.3556,1.08118 -2.1033,1.80388 -1.4957,1.44546 -3.1788,3.30951 -4.8336,5.10122 -1.6548,1.79172 -3.2882,3.51301 -4.5952,4.61902 -0.6535,0.55301 -1.2363,0.94943 -1.6112,1.11668 -0.146,0.0651 -0.1907,0.0749 -0.2344,0.0879 -0.01,-0.0612 -0.021,-0.1498 0,-0.34555 0.039,-0.44677 0.2212,-1.15543 0.5234,-1.98153 0.6044,-1.6522 1.6659,-3.80905 2.783,-6.01292 1.117,-2.20388 2.2915,-4.45979 3.1423,-6.39555 0.4253,-0.96786 0.7698,-1.85231 0.9882,-2.6453 0.2183,-0.79301 0.3646,-1.48559 0.1347,-2.23337 -0.2301,-0.74779 -0.7432,-1.23439 -1.3671,-1.74726 -0.624,-0.51287 -1.4008,-1.01788 -2.2869,-1.54228 -1.7722,-1.04882 -3.9817,-2.15848 -6.1146,-3.25829 -2.1331,-1.09985 -4.1952,-2.1972 -5.5990999,-3.16069 -0.702,-0.48175 -1.2356,-0.93788 -1.5096,-1.26896 -0.1808,-0.21848 -0.2125,-0.2921 -0.2227,-0.31822 0.037,-0.0178 0.1208,-0.0533 0.3145,-0.0996 0.3945,-0.0943 1.0808,-0.13235 1.9157999,-0.0859 1.67,0.0928 3.9511,0.48241 6.2904,0.91756 2.3394,0.43513 4.7434,0.91265 6.765,1.16548 1.0109,0.1264 1.9237,0.19899 2.7205,0.1718 0.7967,-0.0272 1.4978,-0.0998 2.1287,-0.57982 0.6288,-0.47847 0.8931,-1.12316 1.162,-1.89562 0.2689,-0.77248 0.4875,-1.69742 0.6874,-2.73706 0.3999,-2.07927 0.7193,-4.61603 1.0546,-7.0808 0.3353,-2.46478 0.6891,-4.86174 1.1268,-6.57906 0.2188,-0.8586598 0.4669,-1.5503298 0.6855,-1.9424898 0.079,-0.14122 0.1135,-0.19726 0.1348,-0.23037 z m 9.792,30.8591698 c -0.01,0.0217 -0.024,0.48046 0.1504,1.11473 -0.1747,-0.63427 -0.157,-1.09305 -0.1504,-1.11473 z" />
    <path
       id="path1181-0-2-9-62-2-2-7-5-6-4"
       style="color:#000000;font-style:normal;font-variant:normal;font-weight:normal;font-stretch:normal;font-size:medium;line-height:normal;font-family:sans-serif;font-variant-ligatures:normal;font-variant-position:normal;font-variant-caps:normal;font-variant-numeric:normal;font-variant-alternates:normal;font-variant-east-asian:normal;font-feature-settings:normal;font-variation-settings:normal;text-indent:0;text-align:start;text-decoration:none;text-decoration-line:none;text-decoration-style:solid;text-decoration-color:#000000;letter-spacing:normal;word-spacing:normal;text-transform:none;writing-mode:lr-tb;direction:ltr;text-orientation:mixed;dominant-baseline:auto;baseline-shift:baseline;text-anchor:start;white-space:normal;shape-padding:0;shape-margin:0;inline-size:0;clip-rule:nonzero;display:inline;overflow:visible;visibility:visible;opacity:0.25;isolation:auto;mix-blend-mode:normal;color-interpolation:sRGB;color-interpolation-filters:linearRGB;solid-color:#000000;solid-opacity:1;vector-effect:none;fill:#0c0c0c;fill-opacity:1;fill-rule:nonzero;stroke:none;stroke-width:0;stroke-linecap:round;stroke-linejoin:round;stroke-miterlimit:4;stroke-dasharray:none;stroke-dashoffset:2.1875;stroke-opacity:1;color-rendering:auto;image-rendering:auto;shape-rendering:auto;text-rendering:auto;enable-background:accumulate;stop-color:#000000"
       d="m 48,33.4375 c -8.2738,0 -15,6.7272 -15,15.0009 0,8.2736 6.7262,14.9996 15,14.9996 8.2738,0 15,-6.726 15,-14.9996 0,-8.2737 -6.7262,-15.0009 -15,-15.0009 z m 0,1.8739 c 7.2604,0 13.1273,5.8667 13.1273,13.127 0,7.2603 -5.8669,13.1257 -13.1273,13.1257 -7.2604,0 -13.1273,-5.8654 -13.1273,-13.1257 0,-7.2603 5.8669,-13.127 13.1273,-13.127 z" />
    <path
       id="path1181-0-6-2-9-0-9-5-3-1-7"
       style="color:#000000;font-style:normal;font-variant:normal;font-weight:normal;font-stretch:normal;font-size:medium;line-height:normal;font-family:sans-serif;font-variant-ligatures:normal;font-variant-position:normal;font-variant-caps:normal;font-variant-numeric:normal;font-variant-alternates:normal;font-variant-east-asian:normal;font-feature-settings:normal;font-variation-settings:normal;text-indent:0;text-align:start;text-decoration:none;text-decoration-line:none;text-decoration-style:solid;text-decoration-color:#000000;letter-spacing:normal;word-spacing:normal;text-transform:none;writing-mode:lr-tb;direction:ltr;text-orientation:mixed;dominant-baseline:auto;baseline-shift:baseline;text-anchor:start;white-space:normal;shape-padding:0;shape-margin:0;inline-size:0;clip-rule:nonzero;display:inline;overflow:visible;visibility:visible;opacity:0.85;isolation:auto;mix-blend-mode:normal;color-interpolation:sRGB;color-interpolation-filters:linearRGB;solid-color:#000000;solid-opacity:1;vector-effect:none;fill:#0c6e59;fill-opacity:1;fill-rule:nonzero;stroke:none;stroke-width:2.36236;stroke-linecap:round;stroke-linejoin:round;stroke-miterlimit:4;stroke-dasharray:none;stroke-dashoffset:2.1875;stroke-opacity:1;color-rendering:auto;image-rendering:auto;shape-rendering:auto;text-rendering:auto;enable-background:accumulate;stop-color:#000000"
       d="m 48,32.5 c -8.2738,0 -15,6.7272 -15,15.0008 0,8.2737 6.7262,14.9997 15,14.9997 8.2738,0 15,-6.726 15,-14.9997 C 63,39.2272 56.2738,32.5 48,32.5 Z m 0,1.8739 c 7.2604,0 13.1273,5.8667 13.1273,13.1269 0,7.2604 -5.8669,13.1258 -13.1273,13.1258 -7.2604,0 -13.1273,-5.8654 -13.1273,-13.1258 0,-7.2602 5.8669,-13.1269 13.1273,-13.1269 z" />
    <ellipse
       style="fill:url(#linearGradient1474);fill-opacity:1;stroke:#771832;stroke-width:0;stroke-linecap:round;stroke-linejoin:round;stroke-miterlimit:4;stroke-dasharray:none;stroke-dashoffset:2.1875;stroke-opacity:1"
       id="path1181-0-1-2-1-3-5-2-8"
       cx="48.000061"
       cy="47.500366"
       rx="14.062499"
       ry="14.062726" />
    <path
       id="path1181-0-2-9-3-2-7-7-6-2-3-4"
       style="color:#000000;font-style:normal;font-variant:normal;font-weight:normal;font-stretch:normal;font-size:medium;line-height:normal;font-family:sans-serif;font-variant-ligatures:normal;font-variant-position:normal;font-variant-caps:normal;font-variant-numeric:normal;font-variant-alternates:normal;font-variant-east-asian:normal;font-feature-settings:normal;font-variation-settings:normal;text-indent:0;text-align:start;text-decoration:none;text-decoration-line:none;text-decoration-style:solid;text-decoration-color:#000000;letter-spacing:normal;word-spacing:normal;text-transform:none;writing-mode:lr-tb;direction:ltr;text-orientation:mixed;dominant-baseline:auto;baseline-shift:baseline;text-anchor:start;white-space:normal;shape-padding:0;shape-margin:0;inline-size:0;clip-rule:nonzero;display:inline;overflow:visible;visibility:visible;opacity:0.15;isolation:auto;mix-blend-mode:normal;color-interpolation:sRGB;color-interpolation-filters:linearRGB;solid-color:#000000;solid-opacity:1;vector-effect:none;fill:#0a5c4a;fill-opacity:1;fill-rule:nonzero;stroke:none;stroke-width:0;stroke-linecap:round;stroke-linejoin:round;stroke-miterlimit:4;stroke-dasharray:none;stroke-dashoffset:2.1875;stroke-opacity:1;color-rendering:auto;image-rendering:auto;shape-rendering:auto;text-rendering:auto;enable-background:accumulate;stop-color:#000000"
       d="m 48,32.5 c -8.2738,0 -15,6.7272 -15,15.0008 0,8.2737 6.7262,14.9997 15,14.9997 8.2738,0 15,-6.726 15,-14.9997 C 63,39.2272 56.2738,32.5 48,32.5 Z m 0,1.8739 c 7.2604,0 13.1273,5.8667 13.1273,13.1269 0,7.2604 -5.8669,13.1258 -13.1273,13.1258 -7.2604,0 -13.1273,-5.8654 -13.1273,-13.1258 0,-7.2602 5.8669,-13.1269 13.1273,-13.1269 z" />
    <path
       id="rect2388-9-6-0-6-2-9-1-5"
       style="color:#000000;font-style:normal;font-variant:normal;font-weight:normal;font-stretch:normal;font-size:medium;line-height:normal;font-family:sans-serif;font-variant-ligatures:normal;font-variant-position:normal;font-variant-caps:normal;font-variant-numeric:normal;font-variant-alternates:normal;font-variant-east-asian:normal;font-feature-settings:normal;font-variation-settings:normal;text-indent:0;text-align:start;text-decoration:none;text-decoration-line:none;text-decoration-style:solid;text-decoration-color:#000000;letter-spacing:normal;word-spacing:normal;text-transform:none;writing-mode:lr-tb;direction:ltr;text-orientation:mixed;dominant-baseline:auto;baseline-shift:baseline;text-anchor:start;white-space:normal;shape-padding:0;shape-margin:0;inline-size:0;clip-rule:nonzero;display:inline;overflow:visible;visibility:visible;opacity:0.35;isolation:auto;mix-blend-mode:normal;color-interpolation:sRGB;color-interpolation-filters:linearRGB;solid-color:#000000;solid-opacity:1;vector-effect:none;fill:#0a5c4a;fill-opacity:1;fill-rule:nonzero;stroke:none;stroke-width:0.999999;stroke-linecap:round;stroke-linejoin:round;stroke-miterlimit:4;stroke-dasharray:none;stroke-dashoffset:2.1875;stroke-opacity:1;color-rendering:auto;image-rendering:auto;shape-rendering:auto;text-rendering:auto;enable-background:accumulate;stop-color:#000000"
       d="m 47,39.125 c -0.8224,0 -1.5,0.6777 -1.5,1.5 V 46 h -5.375 c -0.8223,0 -1.5,0.6777 -1.5,1.5 v 2 c 0,0.8224 0.6777,1.5 1.5,1.5 H 45.5 v 5.375 c 0,0.8224 0.6777,1.5 1.5,1.5 h 2 c 0.8224,0 1.5,-0.6776 1.5,-1.5 V 51 h 5.375 c 0.8224,0 1.5,-0.6776 1.5,-1.5 v -2 c 0,-0.8223 -0.6776,-1.5 -1.5,-1.5 H 50.5 v -5.375 c 0,-0.8223 -0.6776,-1.5 -1.5,-1.5 z m 0,1 h 2 c 0.2856,0 0.5,0.21449 0.5,0.5 V 46.5 A 0.50005001,0.50005001 0 0 0 50,47 h 5.875 c 0.2857,0 0.5,0.21441 0.5,0.5 v 2 c 0,0.28569 -0.2143,0.5 -0.5,0.5 H 50 a 0.50005001,0.50005001 0 0 0 -0.5,0.5 v 5.875 c 0,0.28569 -0.2143,0.5 -0.5,0.5 h -2 c -0.2857,0 -0.5,-0.2143 -0.5,-0.5 V 50.5 A 0.50005001,0.50005001 0 0 0 46,50 h -5.875 c -0.2857,0 -0.5,-0.2143 -0.5,-0.5 v -2 c 0,-0.28558 0.2143,-0.5 0.5,-0.5 H 46 a 0.50005001,0.50005001 0 0 0 0.5,-0.5 v -5.875 c 0,-0.28551 0.2144,-0.5 0.5,-0.5 z" />
    <path
       id="rect2388-9-6-0-6-1-9-0"
       style="color:#000000;font-style:normal;font-variant:normal;font-weight:normal;font-stretch:normal;font-size:medium;line-height:normal;font-family:sans-serif;font-variant-ligatures:normal;font-variant-position:normal;font-variant-caps:normal;font-variant-numeric:normal;font-variant-alternates:normal;font-variant-east-asian:normal;font-feature-settings:normal;font-variation-settings:normal;text-indent:0;text-align:start;text-decoration:none;text-decoration-line:none;text-decoration-style:solid;text-decoration-color:#000000;letter-spacing:normal;word-spacing:normal;text-transform:none;writing-mode:lr-tb;direction:ltr;text-orientation:mixed;dominant-baseline:auto;baseline-shift:baseline;text-anchor:start;white-space:normal;shape-padding:0;shape-margin:0;inline-size:0;clip-rule:nonzero;display:inline;overflow:visible;visibility:visible;isolation:auto;mix-blend-mode:normal;color-interpolation:sRGB;color-interpolation-filters:linearRGB;solid-color:#000000;solid-opacity:1;vector-effect:none;fill:#0a5c4a;fill-opacity:1;fill-rule:nonzero;stroke:none;stroke-width:0.999999;stroke-linecap:round;stroke-linejoin:round;stroke-miterlimit:4;stroke-dasharray:none;stroke-dashoffset:2.1875;stroke-opacity:1;color-rendering:auto;image-rendering:auto;shape-rendering:auto;text-rendering:auto;enable-background:accumulate;stop-color:#000000"
       d="m 47,38.125 c -0.8224,0 -1.5,0.6777 -1.5,1.5 V 45 h -5.375 c -0.8223,0 -1.5,0.6777 -1.5,1.5 v 2 c 0,0.8224 0.6777,1.5 1.5,1.5 H 45.5 v 5.375 c 0,0.8224 0.6777,1.5 1.5,1.5 h 2 c 0.8224,0 1.5,-0.6776 1.5,-1.5 V 50 h 5.375 c 0.8224,0 1.5,-0.6776 1.5,-1.5 v -2 c 0,-0.8223 -0.6776,-1.5 -1.5,-1.5 H 50.5 v -5.375 c 0,-0.8223 -0.6776,-1.5 -1.5,-1.5 z m 0,1 h 2 c 0.2856,0 0.5,0.21449 0.5,0.5 V 45.5 A 0.50005001,0.50005001 0 0 0 50,46 h 5.875 c 0.2857,0 0.5,0.21441 0.5,0.5 v 2 c 0,0.28569 -0.2143,0.5 -0.5,0.5 H 50 a 0.50005001,0.50005001 0 0 0 -0.5,0.5 v 5.875 c 0,0.28569 -0.2143,0.5 -0.5,0.5 h -2 c -0.2857,0 -0.5,-0.2143 -0.5,-0.5 V 49.5 A 0.50005001,0.50005001 0 0 0 46,49 h -5.875 c -0.2857,0 -0.5,-0.2143 -0.5,-0.5 v -2 c 0,-0.28558 0.2143,-0.5 0.5,-0.5 H 46 a 0.50005001,0.50005001 0 0 0 0.5,-0.5 v -5.875 c 0,-0.28551 0.2144,-0.5 0.5,-0.5 z" />
    <path
       id="rect2388-9-6-2-4-3"
       style="fill:#fdfbfc;fill-opacity:1;stroke-width:1.17022;stroke-linecap:round;stroke-linejoin:round;stroke-dashoffset:2.1875"
       d="m 47,38.625 c -0.554,0 -1,0.4461 -1,1 V 45.5 h -5.875 c -0.554,0 -1,0.446 -1,1 v 2 c 0,0.554 0.446,1 1,1 H 46 v 5.875 c 0,0.554 0.446,1 1,1 h 2 c 0.554,0 1,-0.446 1,-1 V 49.5 h 5.875 c 0.554,0 1,-0.446 1,-1 v -2 c 0,-0.554 -0.446,-1 -1,-1 H 50 v -5.875 c 0,-0.5539 -0.446,-1 -1,-1 z" />
  </g>
</svg>
