<?xml version="1.0" encoding="UTF-8" standalone="no"?>
<svg
   xmlns:dc="http://purl.org/dc/elements/1.1/"
   xmlns:cc="http://creativecommons.org/ns#"
   xmlns:rdf="http://www.w3.org/1999/02/22-rdf-syntax-ns#"
   xmlns:svg="http://www.w3.org/2000/svg"
   xmlns="http://www.w3.org/2000/svg"
   xmlns:sodipodi="http://sodipodi.sourceforge.net/DTD/sodipodi-0.dtd"
   xmlns:inkscape="http://www.inkscape.org/namespaces/inkscape"
   width="64"
   height="64"
   viewBox="0 0 64 64"
   version="1.1"
   id="svg6374"
   inkscape:version="1.0.2 (e86c870879, 2021-01-15)"
   sodipodi:docname="document-save-as.svg">
  <defs
     id="defs6368" />
  <sodipodi:namedview
     id="base"
     pagecolor="#cecece"
     bordercolor="#666666"
     borderopacity="1.0"
     inkscape:pageopacity="0"
     inkscape:pageshadow="2"
     inkscape:zoom="7.5046773"
     inkscape:cx="15.961847"
     inkscape:cy="37.861521"
     inkscape:document-units="px"
     inkscape:current-layer="layer1"
     inkscape:document-rotation="0"
     showgrid="false"
     units="px"
     inkscape:window-width="2048"
     inkscape:window-height="1080"
     inkscape:window-x="0"
     inkscape:window-y="0"
     inkscape:window-maximized="1" />
  <metadata
     id="metadata6371">
    <rdf:RDF>
      <cc:Work
         rdf:about="">
        <dc:format>image/svg+xml</dc:format>
        <dc:type
           rdf:resource="http://purl.org/dc/dcmitype/StillImage" />
        <dc:title></dc:title>
      </cc:Work>
    </rdf:RDF>
  </metadata>
  <g
     inkscape:label="Layer 1"
     inkscape:groupmode="layer"
     id="layer1">
    <path
       id="rect954-7-0-7-3-0-0-0-6-7-68-4"
       style="color:#000000;font-style:normal;font-variant:normal;font-weight:normal;font-stretch:normal;font-size:medium;line-height:normal;font-family:sans-serif;font-variant-ligatures:normal;font-variant-position:normal;font-variant-caps:normal;font-variant-numeric:normal;font-variant-alternates:normal;font-variant-east-asian:normal;font-feature-settings:normal;font-variation-settings:normal;text-indent:0;text-align:start;text-decoration:none;text-decoration-line:none;text-decoration-style:solid;text-decoration-color:#000000;letter-spacing:normal;word-spacing:normal;text-transform:none;writing-mode:lr-tb;direction:ltr;text-orientation:mixed;dominant-baseline:auto;baseline-shift:baseline;text-anchor:start;white-space:normal;shape-padding:0;shape-margin:0;inline-size:0;clip-rule:nonzero;display:inline;overflow:visible;visibility:visible;opacity:0.85;isolation:auto;mix-blend-mode:normal;color-interpolation:sRGB;color-interpolation-filters:linearRGB;solid-color:#000000;solid-opacity:1;vector-effect:none;fill:#7d3312;fill-opacity:1;fill-rule:nonzero;stroke:none;stroke-linecap:round;stroke-linejoin:round;stroke-miterlimit:4;stroke-dasharray:none;stroke-dashoffset:2.1875;stroke-opacity:1;color-rendering:auto;image-rendering:auto;shape-rendering:auto;text-rendering:auto;enable-background:accumulate;stop-color:#000000"
       d="M 13,2.5 C 10.53295,2.5 8.5,4.53295 8.5,7 v 49.99999 c 0,2.46706 2.03295,4.5 4.5,4.5 h 38 c 2.467,0 4.5,-2.03294 4.5,-4.5 V 7 C 55.5,4.53295 53.467,2.5 51,2.5 Z m 0,3 h 38 c 0.8569,0 1.5,0.64306 1.5,1.5 v 49.99999 c 0,0.85695 -0.6431,1.5 -1.5,1.5 H 13 c -0.85695,0 -1.5,-0.64305 -1.5,-1.5 V 7 c 0,-0.85694 0.64305,-1.5 1.5,-1.5 z" />
    <rect
       style="fill:#fcfcfc;fill-opacity:1;stroke-width:0.495;stroke-linecap:round;stroke-linejoin:round;stroke-miterlimit:4;stroke-dasharray:none;stroke-dashoffset:2.1875"
       id="rect954-7-0-7-3-0-0-5-8-9"
       width="44"
       height="56"
       x="10.000092"
       y="3.9999993"
       rx="3"
       ry="3" />
    <path
       style="color:#000000;font-style:normal;font-variant:normal;font-weight:normal;font-stretch:normal;font-size:medium;line-height:normal;font-family:sans-serif;font-variant-ligatures:normal;font-variant-position:normal;font-variant-caps:normal;font-variant-numeric:normal;font-variant-alternates:normal;font-variant-east-asian:normal;font-feature-settings:normal;font-variation-settings:normal;text-indent:0;text-align:start;text-decoration:none;text-decoration-line:none;text-decoration-style:solid;text-decoration-color:#000000;letter-spacing:normal;word-spacing:normal;text-transform:none;writing-mode:lr-tb;direction:ltr;text-orientation:mixed;dominant-baseline:auto;baseline-shift:baseline;text-anchor:start;white-space:normal;shape-padding:0;shape-margin:0;inline-size:0;clip-rule:nonzero;display:inline;overflow:visible;visibility:visible;opacity:0.075;isolation:auto;mix-blend-mode:normal;color-interpolation:sRGB;color-interpolation-filters:linearRGB;solid-color:#000000;solid-opacity:1;vector-effect:none;fill:#0c0c0c;fill-opacity:1;fill-rule:nonzero;stroke:none;stroke-width:0.938235;stroke-linecap:butt;stroke-linejoin:round;stroke-miterlimit:4;stroke-dasharray:none;stroke-dashoffset:0;stroke-opacity:1;color-rendering:auto;image-rendering:auto;shape-rendering:auto;text-rendering:auto;enable-background:accumulate;stop-color:#000000"
       d="M 14.85137,8.5 C 13.56259,8.5 12.5,9.55408 12.5,10.83252 v 5.83496 C 12.5,17.94592 13.56259,19 14.85137,19 h 34.29724 c 1.28878,0 2.3514,-1.05408 2.3514,-2.33252 V 10.83252 C 51.50001,9.55408 50.43739,8.5 49.14861,8.5 Z m 0,1.60064 h 34.29724 c 0.42343,0 0.7378,0.31185 0.7378,0.73188 v 5.83496 c 0,0.42003 -0.31437,0.7337 -0.7378,0.7337 H 14.85137 c -0.42342,0 -0.73779,-0.31367 -0.73779,-0.7337 v -5.83496 c 0,-0.42003 0.31437,-0.73188 0.73779,-0.73188 z"
       id="rect974-4-2" />
    <path
       id="path1113-1-0-6-8-3-2-5-4-3-0-8-6-4-7"
       style="color:#000000;font-style:normal;font-variant:normal;font-weight:normal;font-stretch:normal;font-size:medium;line-height:normal;font-family:sans-serif;font-variant-ligatures:normal;font-variant-position:normal;font-variant-caps:normal;font-variant-numeric:normal;font-variant-alternates:normal;font-variant-east-asian:normal;font-feature-settings:normal;font-variation-settings:normal;text-indent:0;text-align:start;text-decoration:none;text-decoration-line:none;text-decoration-style:solid;text-decoration-color:#000000;letter-spacing:normal;word-spacing:normal;text-transform:none;writing-mode:lr-tb;direction:ltr;text-orientation:mixed;dominant-baseline:auto;baseline-shift:baseline;text-anchor:start;white-space:normal;shape-padding:0;shape-margin:0;inline-size:0;clip-rule:nonzero;display:inline;overflow:visible;visibility:visible;opacity:0.15;isolation:auto;mix-blend-mode:normal;color-interpolation:sRGB;color-interpolation-filters:linearRGB;solid-color:#000000;solid-opacity:1;vector-effect:none;fill:#0c0c0c;fill-opacity:1;fill-rule:nonzero;stroke:none;stroke-width:0;stroke-linecap:round;stroke-linejoin:round;stroke-miterlimit:4;stroke-dasharray:none;stroke-dashoffset:0;stroke-opacity:1;color-rendering:auto;image-rendering:auto;shape-rendering:auto;text-rendering:auto;enable-background:accumulate;stop-color:#000000"
       d="m 28.83039,26 c -0.63709,0 -1.15036,0.5133 -1.15036,1.15041 v 1.42386 2.05472 6.0919 H 24.25629 20.8013 a 0.80120327,0.78688058 0 0 0 -0.80076,0.76955 0.80120327,0.78688058 0 0 0 0.14453,0.46875 l 11.19892,15.70537 a 0.80120327,0.78688058 0 0 0 1.31247,0 L 43.85538,37.95919 a 0.80120327,0.78688058 0 0 0 -0.65623,-1.2383 h -3.45499 -3.42374 v -6.0919 -2.05472 -1.42386 C 36.32042,26.5133 35.80714,26 35.17006,26 Z" />
    <path
       id="path1113-1-0-6-8-3-2-5-4-3-0-8-6-4"
       style="color:#000000;font-style:normal;font-variant:normal;font-weight:normal;font-stretch:normal;font-size:medium;line-height:normal;font-family:sans-serif;font-variant-ligatures:normal;font-variant-position:normal;font-variant-caps:normal;font-variant-numeric:normal;font-variant-alternates:normal;font-variant-east-asian:normal;font-feature-settings:normal;font-variation-settings:normal;text-indent:0;text-align:start;text-decoration:none;text-decoration-line:none;text-decoration-style:solid;text-decoration-color:#000000;letter-spacing:normal;word-spacing:normal;text-transform:none;writing-mode:lr-tb;direction:ltr;text-orientation:mixed;dominant-baseline:auto;baseline-shift:baseline;text-anchor:start;white-space:normal;shape-padding:0;shape-margin:0;inline-size:0;clip-rule:nonzero;display:inline;overflow:visible;visibility:visible;isolation:auto;mix-blend-mode:normal;color-interpolation:sRGB;color-interpolation-filters:linearRGB;solid-color:#000000;solid-opacity:1;vector-effect:none;fill:#e57b4d;fill-opacity:1;fill-rule:nonzero;stroke:none;stroke-width:0;stroke-linecap:round;stroke-linejoin:round;stroke-miterlimit:4;stroke-dasharray:none;stroke-dashoffset:0;stroke-opacity:1;color-rendering:auto;image-rendering:auto;shape-rendering:auto;text-rendering:auto;enable-background:accumulate;stop-color:#000000"
       d="m 28.83039,24 c -0.63709,0 -1.15036,0.5133 -1.15036,1.15041 v 1.42386 2.05472 6.0919 H 24.25629 20.8013 a 0.80120327,0.78688058 0 0 0 -0.80076,0.76955 0.80120327,0.78688058 0 0 0 0.14453,0.46875 l 11.19892,15.70537 a 0.80120327,0.78688058 0 0 0 1.31247,0 L 43.85538,35.95919 a 0.80120327,0.78688058 0 0 0 -0.65623,-1.2383 h -3.45499 -3.42374 v -6.0919 -2.05472 -1.42386 C 36.32042,24.5133 35.80714,24 35.17006,24 Z" />
    <path
       id="path1113-1-0-6-8-3-2-5-4-3-0-8-6-4-9-5"
       style="color:#000000;font-style:normal;font-variant:normal;font-weight:normal;font-stretch:normal;font-size:medium;line-height:normal;font-family:sans-serif;font-variant-ligatures:normal;font-variant-position:normal;font-variant-caps:normal;font-variant-numeric:normal;font-variant-alternates:normal;font-variant-east-asian:normal;font-feature-settings:normal;font-variation-settings:normal;text-indent:0;text-align:start;text-decoration:none;text-decoration-line:none;text-decoration-style:solid;text-decoration-color:#000000;letter-spacing:normal;word-spacing:normal;text-transform:none;writing-mode:lr-tb;direction:ltr;text-orientation:mixed;dominant-baseline:auto;baseline-shift:baseline;text-anchor:start;white-space:normal;shape-padding:0;shape-margin:0;inline-size:0;clip-rule:nonzero;display:inline;overflow:visible;visibility:visible;opacity:0.925;isolation:auto;mix-blend-mode:normal;color-interpolation:sRGB;color-interpolation-filters:linearRGB;solid-color:#000000;solid-opacity:1;vector-effect:none;fill:#7d3312;fill-opacity:1;fill-rule:nonzero;stroke:none;stroke-width:1.00044;stroke-linecap:round;stroke-linejoin:round;stroke-miterlimit:4;stroke-dasharray:none;stroke-dashoffset:0;stroke-opacity:1;color-rendering:auto;image-rendering:auto;shape-rendering:auto;text-rendering:auto;enable-background:accumulate;stop-color:#000000"
       d="m 28.83643,23.25 c -1.04058,0 -1.90156,0.8607 -1.90156,1.90089 v 1.42421 2.05523 5.3432 h -2.67548 -3.45721 c -0.82829,2.6e-4 -1.53302,0.66989 -1.55174,1.50431 -0.008,0.32979 0.0924,0.65225 0.28338,0.92017 a 0.75053802,0.75027331 0 0 0 0.002,0 l 11.20417,15.71118 c 0.60957,0.85441 1.92715,0.85441 2.53672,0 L 44.48285,36.39801 c 0.70114,-0.98282 -0.0665,-2.42445 -1.26837,-2.42448 h -3.45721 -2.67548 v -5.3432 -2.05523 -1.42421 c 0,-1.0402 -0.86098,-1.90089 -1.90156,-1.90089 z m 0,1.5004 h 6.34376 c 0.23437,0 0.40063,0.16614 0.40063,0.40049 v 1.42421 2.05523 6.0934 a 0.75053802,0.75027331 0 0 0 0.75047,0.7502 h 3.42594 3.45721 c 0.0955,10e-6 0.0881,-0.006 0.045,0.0547 L 32.05331,51.23786 c -0.0288,0.0403 -0.0611,0.0403 -0.0899,0 L 20.75728,35.52863 c -0.005,-0.007 -0.006,-0.0125 -0.006,-0.0176 4.7e-4,-0.0211 0.008,-0.0371 0.0508,-0.0371 h 3.45721 3.42594 a 0.75053802,0.75027331 0 0 0 0.75047,-0.7502 v -6.0934 -2.05523 -1.42421 c 0,-0.23436 0.16625,-0.40049 0.40063,-0.40049 z" />
    <rect
       style="fill:#e3e3e6;fill-opacity:1;stroke:none;stroke-width:1.61725;stroke-linejoin:round"
       id="rect842-0"
       width="37.5"
       height="9"
       x="13.25"
       y="8.249999"
       rx="1.5500001"
       ry="1.55" />
    <path
       style="color:#000000;font-style:normal;font-variant:normal;font-weight:normal;font-stretch:normal;font-size:medium;line-height:normal;font-family:sans-serif;font-variant-ligatures:normal;font-variant-position:normal;font-variant-caps:normal;font-variant-numeric:normal;font-variant-alternates:normal;font-variant-east-asian:normal;font-feature-settings:normal;font-variation-settings:normal;text-indent:0;text-align:start;text-decoration:none;text-decoration-line:none;text-decoration-style:solid;text-decoration-color:#000000;letter-spacing:normal;word-spacing:normal;text-transform:none;writing-mode:lr-tb;direction:ltr;text-orientation:mixed;dominant-baseline:auto;baseline-shift:baseline;text-anchor:start;white-space:normal;shape-padding:0;shape-margin:0;inline-size:0;clip-rule:nonzero;display:inline;overflow:visible;visibility:visible;isolation:auto;mix-blend-mode:normal;color-interpolation:sRGB;color-interpolation-filters:linearRGB;solid-color:#000000;solid-opacity:1;vector-effect:none;fill:#363636;fill-opacity:1;fill-rule:nonzero;stroke:none;stroke-width:0.938235;stroke-linecap:butt;stroke-linejoin:round;stroke-miterlimit:4;stroke-dasharray:none;stroke-dashoffset:0;stroke-opacity:1;color-rendering:auto;image-rendering:auto;shape-rendering:auto;text-rendering:auto;enable-background:accumulate;stop-color:#000000"
       d="M 14.85137,7.5 C 13.56259,7.5 12.5,8.55408 12.5,9.83252 v 5.83496 C 12.5,16.94592 13.56259,18 14.85137,18 h 34.29724 c 1.28878,0 2.3514,-1.05408 2.3514,-2.33252 V 9.83252 C 51.50001,8.55408 50.43739,7.5 49.14861,7.5 Z m 0,1.60064 h 34.29724 c 0.42343,0 0.7378,0.31185 0.7378,0.73188 v 5.83496 c 0,0.42003 -0.31437,0.7337 -0.7378,0.7337 H 14.85137 c -0.42342,0 -0.73779,-0.31367 -0.73779,-0.7337 V 9.83252 c 0,-0.42003 0.31437,-0.73188 0.73779,-0.73188 z"
       id="rect974-4" />
    <circle
       style="fill:#363636;fill-opacity:1;stroke:none;stroke-width:0.491867;stroke-linejoin:round;stroke-miterlimit:4;stroke-dasharray:none;stroke-opacity:1"
       id="path1000-7"
       cx="21.75"
       cy="14.249999"
       r="1.25" />
    <rect
       style="fill:#363636;fill-opacity:1;stroke:none;stroke-width:1.17668;stroke-linejoin:round;stroke-miterlimit:4;stroke-dasharray:none;stroke-opacity:1"
       id="rect1031-1"
       width="2"
       height="5.5"
       x="15.75"
       y="9.999999"
       rx="0.125"
       ry="0.125" />
    <circle
       style="fill:#363636;fill-opacity:1;stroke:none;stroke-width:0.491867;stroke-linejoin:round;stroke-miterlimit:4;stroke-dasharray:none;stroke-opacity:1"
       id="path1000-6-7"
       cx="26.75"
       cy="14.249999"
       r="1.25" />
    <circle
       style="fill:#363636;fill-opacity:1;stroke:none;stroke-width:0.491867;stroke-linejoin:round;stroke-miterlimit:4;stroke-dasharray:none;stroke-opacity:1"
       id="path1000-0-2"
       cx="31.75"
       cy="14.249999"
       r="1.25" />
  </g>
</svg>
