<?xml version="1.0" encoding="UTF-8" standalone="no"?>
<svg
   xmlns:dc="http://purl.org/dc/elements/1.1/"
   xmlns:cc="http://creativecommons.org/ns#"
   xmlns:rdf="http://www.w3.org/1999/02/22-rdf-syntax-ns#"
   xmlns:svg="http://www.w3.org/2000/svg"
   xmlns="http://www.w3.org/2000/svg"
   xmlns:sodipodi="http://sodipodi.sourceforge.net/DTD/sodipodi-0.dtd"
   xmlns:inkscape="http://www.inkscape.org/namespaces/inkscape"
   width="64"
   height="64"
   viewBox="0 0 64 64"
   version="1.1"
   id="svg6374"
   inkscape:version="1.0.2 (e86c870879, 2021-01-15)"
   sodipodi:docname="go-first.svg">
  <defs
     id="defs6368" />
  <sodipodi:namedview
     id="base"
     pagecolor="#cecece"
     bordercolor="#666666"
     borderopacity="1.0"
     inkscape:pageopacity="0"
     inkscape:pageshadow="2"
     inkscape:zoom="6.8818909"
     inkscape:cx="20.896034"
     inkscape:cy="43.723975"
     inkscape:document-units="px"
     inkscape:current-layer="layer1"
     inkscape:document-rotation="0"
     showgrid="false"
     units="px"
     inkscape:window-width="1500"
     inkscape:window-height="970"
     inkscape:window-x="68"
     inkscape:window-y="56"
     inkscape:window-maximized="0" />
  <metadata
     id="metadata6371">
    <rdf:RDF>
      <cc:Work
         rdf:about="">
        <dc:format>image/svg+xml</dc:format>
        <dc:type
           rdf:resource="http://purl.org/dc/dcmitype/StillImage" />
        <dc:title />
      </cc:Work>
    </rdf:RDF>
  </metadata>
  <g
     inkscape:label="Layer 1"
     inkscape:groupmode="layer"
     id="layer1">
    <path
       style="color:#000000;font-style:normal;font-variant:normal;font-weight:normal;font-stretch:normal;font-size:medium;line-height:normal;font-family:sans-serif;font-variant-ligatures:normal;font-variant-position:normal;font-variant-caps:normal;font-variant-numeric:normal;font-variant-alternates:normal;font-variant-east-asian:normal;font-feature-settings:normal;font-variation-settings:normal;text-indent:0;text-align:start;text-decoration:none;text-decoration-line:none;text-decoration-style:solid;text-decoration-color:#000000;letter-spacing:normal;word-spacing:normal;text-transform:none;writing-mode:lr-tb;direction:ltr;text-orientation:mixed;dominant-baseline:auto;baseline-shift:baseline;text-anchor:start;white-space:normal;shape-padding:0;shape-margin:0;inline-size:0;clip-rule:nonzero;display:inline;overflow:visible;visibility:visible;opacity:0.075;isolation:auto;mix-blend-mode:normal;color-interpolation:sRGB;color-interpolation-filters:linearRGB;solid-color:#000000;solid-opacity:1;vector-effect:none;fill:#0c0c0c;fill-opacity:1;fill-rule:nonzero;stroke:none;stroke-width:0.94491;stroke-linecap:butt;stroke-linejoin:miter;stroke-miterlimit:4;stroke-dasharray:none;stroke-dashoffset:0;stroke-opacity:1;color-rendering:auto;image-rendering:auto;shape-rendering:auto;text-rendering:auto;enable-background:accumulate;stop-color:#000000"
       d="M 12,57.94959 C 12,59.34497 10.84672,60.5 9.45121,60.5 H 3.05063 C 1.65513,60.5 0.5,59.34497 0.5,57.94959 V 8.05041 C 0.5,6.65503 1.65513,5.5 3.05063,5.5 H 9.45121 C 10.84672,5.5 12,6.65503 12,8.05041 Z m -1.9988,0 V 8.05041 c 0,-0.32199 -0.22797,-0.54994 -0.54999,-0.54994 H 3.05063 c -0.32202,0 -0.54999,0.22795 -0.54999,0.54994 v 49.89918 c 0,0.32199 0.22797,0.54994 0.54999,0.54994 h 6.40058 c 0.32202,0 0.54999,-0.22795 0.54999,-0.54994 z"
       id="rect850-3-2-0-8" />
    <rect
       style="fill:#978ee1;fill-opacity:1;stroke-width:8.9881"
       id="rect850-6-4"
       width="53"
       height="9.5"
       x="-58.5"
       y="-10.999999"
       rx="1.5500001"
       ry="1.5500001"
       transform="matrix(0,-1,-1,0,0,0)" />
    <path
       style="color:#000000;font-style:normal;font-variant:normal;font-weight:normal;font-stretch:normal;font-size:medium;line-height:normal;font-family:sans-serif;font-variant-ligatures:normal;font-variant-position:normal;font-variant-caps:normal;font-variant-numeric:normal;font-variant-alternates:normal;font-variant-east-asian:normal;font-feature-settings:normal;font-variation-settings:normal;text-indent:0;text-align:start;text-decoration:none;text-decoration-line:none;text-decoration-style:solid;text-decoration-color:#000000;letter-spacing:normal;word-spacing:normal;text-transform:none;writing-mode:lr-tb;direction:ltr;text-orientation:mixed;dominant-baseline:auto;baseline-shift:baseline;text-anchor:start;white-space:normal;shape-padding:0;shape-margin:0;inline-size:0;clip-rule:nonzero;display:inline;overflow:visible;visibility:visible;opacity:0.85;isolation:auto;mix-blend-mode:normal;color-interpolation:sRGB;color-interpolation-filters:linearRGB;solid-color:#000000;solid-opacity:1;vector-effect:none;fill:#322791;fill-opacity:1;fill-rule:nonzero;stroke:none;stroke-width:0.94491;stroke-linecap:butt;stroke-linejoin:miter;stroke-miterlimit:4;stroke-dasharray:none;stroke-dashoffset:0;stroke-opacity:1;color-rendering:auto;image-rendering:auto;shape-rendering:auto;text-rendering:auto;enable-background:accumulate;stop-color:#000000"
       d="M 12,56.94959 C 12,58.34497 10.84672,59.5 9.45121,59.5 H 3.05063 C 1.65513,59.5 0.5,58.34497 0.5,56.94959 V 7.05041 C 0.5,5.65503 1.65513,4.5 3.05063,4.5 H 9.45121 C 10.84672,4.5 12,5.65503 12,7.05041 Z m -1.9988,0 V 7.05041 c 0,-0.32199 -0.22797,-0.54994 -0.54999,-0.54994 H 3.05063 c -0.32202,0 -0.54999,0.22795 -0.54999,0.54994 v 49.89918 c 0,0.32199 0.22797,0.54994 0.54999,0.54994 h 6.40058 c 0.32202,0 0.54999,-0.22795 0.54999,-0.54994 z"
       id="rect850-3-1-3" />
    <path
       id="path1113-1-0-6-8-3-2-5-4-0-7-1-1-1-5-1"
       style="color:#000000;font-style:normal;font-variant:normal;font-weight:normal;font-stretch:normal;font-size:medium;line-height:normal;font-family:sans-serif;font-variant-ligatures:normal;font-variant-position:normal;font-variant-caps:normal;font-variant-numeric:normal;font-variant-alternates:normal;font-variant-east-asian:normal;font-feature-settings:normal;font-variation-settings:normal;text-indent:0;text-align:start;text-decoration:none;text-decoration-line:none;text-decoration-style:solid;text-decoration-color:#000000;letter-spacing:normal;word-spacing:normal;text-transform:none;writing-mode:lr-tb;direction:ltr;text-orientation:mixed;dominant-baseline:auto;baseline-shift:baseline;text-anchor:start;white-space:normal;shape-padding:0;shape-margin:0;inline-size:0;clip-rule:nonzero;display:inline;overflow:visible;visibility:visible;opacity:0.075;isolation:auto;mix-blend-mode:normal;color-interpolation:sRGB;color-interpolation-filters:linearRGB;solid-color:#000000;solid-opacity:1;vector-effect:none;fill:#0c0c0c;fill-opacity:1;fill-rule:nonzero;stroke:none;stroke-width:1.268;stroke-linecap:round;stroke-linejoin:round;stroke-miterlimit:4;stroke-dasharray:none;stroke-dashoffset:0;stroke-opacity:1;color-rendering:auto;image-rendering:auto;shape-rendering:auto;text-rendering:auto;enable-background:accumulate;stop-color:#000000"
       d="m 14.5,32.98851 c 0,0.60425 0.27328,1.20928 0.82021,1.5918 l 20.10774,14.06364 c 0.34185,0.23924 0.75426,0.36413 1.17531,0.35564 1.0699,-0.0215 1.92814,-0.90617 1.928,-1.94743 v -4.33632 -3.36018 h 21.47309 c 1.36655,0 2.49565,-1.10744 2.49565,-2.44777 v -7.83632 c 0,-1.34032 -1.1291,-2.44774 -2.49565,-2.44774 H 38.53126 V 23.26362 18.9273 c -5.9e-4,-1.50824 -1.84562,-2.47205 -3.10331,-1.59179 L 15.32021,31.39917 C 14.77328,31.78167 14.5,32.38428 14.5,32.98851 Z m 1.898,0 c 0,-0.0198 0.0115,-0.0384 0.0375,-0.0564 L 36.54325,18.87094 c 0.0773,-0.0542 0.0675,-0.0635 0.0675,0.0565 v 4.33632 4.30202 A 0.9603462,0.94192325 0 0 0 37.571,28.5076 h 22.43333 c 0.3358,0 0.57516,0.23476 0.57516,0.5641 v 7.83631 c 0,0.32936 -0.23936,0.56412 -0.57516,0.56412 H 37.571 a 0.9603462,0.94192325 0 0 0 -0.96025,0.94184 v 4.30199 4.33633 c 0,0.0545 -0.0179,0.0658 -0.0451,0.0663 -0.006,1.2e-4 -0.0142,-10e-4 -0.0225,-0.007 L 16.4354,33.04734 c -0.0259,-0.0181 -0.0375,-0.039 -0.0375,-0.0589 z" />
    <path
       id="path1113-1-0-6-8-3-2-5-4-3-0-5-4"
       style="color:#000000;font-style:normal;font-variant:normal;font-weight:normal;font-stretch:normal;font-size:medium;line-height:normal;font-family:sans-serif;font-variant-ligatures:normal;font-variant-position:normal;font-variant-caps:normal;font-variant-numeric:normal;font-variant-alternates:normal;font-variant-east-asian:normal;font-feature-settings:normal;font-variation-settings:normal;text-indent:0;text-align:start;text-decoration:none;text-decoration-line:none;text-decoration-style:solid;text-decoration-color:#000000;letter-spacing:normal;word-spacing:normal;text-transform:none;writing-mode:lr-tb;direction:ltr;text-orientation:mixed;dominant-baseline:auto;baseline-shift:baseline;text-anchor:start;white-space:normal;shape-padding:0;shape-margin:0;inline-size:0;clip-rule:nonzero;display:inline;overflow:visible;visibility:visible;isolation:auto;mix-blend-mode:normal;color-interpolation:sRGB;color-interpolation-filters:linearRGB;solid-color:#000000;solid-opacity:1;vector-effect:none;fill:#978ee1;fill-opacity:1;fill-rule:nonzero;stroke:none;stroke-width:0;stroke-linecap:round;stroke-linejoin:round;stroke-miterlimit:4;stroke-dasharray:none;stroke-dashoffset:0;stroke-opacity:1;color-rendering:auto;image-rendering:auto;shape-rendering:auto;text-rendering:auto;enable-background:accumulate;stop-color:#000000"
       d="m 61.540007,35.91524 c 0,0.83426 -0.68507,1.5059 -1.53601,1.5059 h -22.42565 v 4.29692 4.33517 a 1.007189,1.0054581 0 0 1 -0.98701,1.00539 1.007189,1.0054581 0 0 1 -0.59821,-0.1818 L 15.889457,32.82305 a 1.007189,1.0054581 0 0 1 0,-1.6472 l 20.10367,-14.05261 a 1.007189,1.0054581 0 0 1 1.58522,0.823 v 4.33446 4.29822 h 22.42565 c 0.85094,0 1.53601,0.67164 1.53601,1.5059 z" />
    <path
       id="path1113-1-0-6-8-3-2-5-4-0-7-1-63-4-9"
       style="color:#000000;font-style:normal;font-variant:normal;font-weight:normal;font-stretch:normal;font-size:medium;line-height:normal;font-family:sans-serif;font-variant-ligatures:normal;font-variant-position:normal;font-variant-caps:normal;font-variant-numeric:normal;font-variant-alternates:normal;font-variant-east-asian:normal;font-feature-settings:normal;font-variation-settings:normal;text-indent:0;text-align:start;text-decoration:none;text-decoration-line:none;text-decoration-style:solid;text-decoration-color:#000000;letter-spacing:normal;word-spacing:normal;text-transform:none;writing-mode:lr-tb;direction:ltr;text-orientation:mixed;dominant-baseline:auto;baseline-shift:baseline;text-anchor:start;white-space:normal;shape-padding:0;shape-margin:0;inline-size:0;clip-rule:nonzero;display:inline;overflow:visible;visibility:visible;opacity:0.85;isolation:auto;mix-blend-mode:normal;color-interpolation:sRGB;color-interpolation-filters:linearRGB;solid-color:#000000;solid-opacity:1;vector-effect:none;fill:#322791;fill-opacity:1;fill-rule:nonzero;stroke:none;stroke-width:1.268;stroke-linecap:round;stroke-linejoin:round;stroke-miterlimit:4;stroke-dasharray:none;stroke-dashoffset:0;stroke-opacity:1;color-rendering:auto;image-rendering:auto;shape-rendering:auto;text-rendering:auto;enable-background:accumulate;stop-color:#000000"
       d="m 14.5,31.98851 c 0,0.60425 0.27328,1.20928 0.82021,1.5918 l 20.10774,14.06364 c 0.34185,0.23924 0.75426,0.36413 1.17531,0.35564 1.0699,-0.0215 1.92814,-0.90617 1.928,-1.94743 v -4.33632 -3.36018 h 21.47309 c 1.36655,0 2.49565,-1.10744 2.49565,-2.44777 v -7.83632 c 0,-1.34032 -1.1291,-2.44774 -2.49565,-2.44774 H 38.53126 V 22.26362 17.9273 c -5.9e-4,-1.50824 -1.84562,-2.47205 -3.10331,-1.59179 L 15.32021,30.39917 C 14.77328,30.78167 14.5,31.38428 14.5,31.98851 Z m 1.898,0 c 0,-0.0198 0.0115,-0.0384 0.0375,-0.0564 L 36.54325,17.87094 c 0.0773,-0.0542 0.0675,-0.0635 0.0675,0.0565 v 4.33632 4.30202 A 0.9603462,0.94192325 0 0 0 37.571,27.5076 h 22.43333 c 0.3358,0 0.57516,0.23476 0.57516,0.5641 v 7.83631 c 0,0.32936 -0.23936,0.56412 -0.57516,0.56412 H 37.571 a 0.9603462,0.94192325 0 0 0 -0.96025,0.94184 v 4.30199 4.33633 c 0,0.0545 -0.0179,0.0658 -0.0451,0.0663 -0.006,1.2e-4 -0.0142,-10e-4 -0.0225,-0.007 L 16.4354,32.04734 c -0.0259,-0.0181 -0.0375,-0.039 -0.0375,-0.0589 z" />
  </g>
</svg>
