<?xml version="1.0" encoding="UTF-8" standalone="no"?>
<svg
   xmlns:dc="http://purl.org/dc/elements/1.1/"
   xmlns:cc="http://creativecommons.org/ns#"
   xmlns:rdf="http://www.w3.org/1999/02/22-rdf-syntax-ns#"
   xmlns:svg="http://www.w3.org/2000/svg"
   xmlns="http://www.w3.org/2000/svg"
   xmlns:xlink="http://www.w3.org/1999/xlink"
   xmlns:sodipodi="http://sodipodi.sourceforge.net/DTD/sodipodi-0.dtd"
   xmlns:inkscape="http://www.inkscape.org/namespaces/inkscape"
   width="64"
   height="64"
   viewBox="0 0 64 64"
   version="1.1"
   id="svg6374"
   inkscape:version="1.0.2 (e86c870879, 2021-01-15)"
   sodipodi:docname="avatar-default.svg">
  <defs
     id="defs6368">
    <linearGradient
       inkscape:collect="always"
       xlink:href="#linearGradient1898"
       id="linearGradient1668"
       x1="834.2868"
       y1="644.63501"
       x2="833.90509"
       y2="664.95117"
       gradientUnits="userSpaceOnUse"
       gradientTransform="matrix(1.0001982,0,0,1,-802.45213,-606.01589)" />
    <linearGradient
       inkscape:collect="always"
       id="linearGradient1898">
      <stop
         style="stop-color:#a0a0a2;stop-opacity:1"
         offset="0"
         id="stop1896" />
      <stop
         style="stop-color:#afafb1;stop-opacity:1"
         offset="1"
         id="stop1894" />
    </linearGradient>
    <linearGradient
       inkscape:collect="always"
       xlink:href="#linearGradient1898"
       id="linearGradient1660"
       x1="834.18811"
       y1="611.01599"
       x2="834.2868"
       y2="637.14502"
       gradientUnits="userSpaceOnUse"
       gradientTransform="matrix(0.99999885,0,0,1,-802.28584,-607.01588)" />
    <linearGradient
       inkscape:collect="always"
       xlink:href="#linearGradient2658"
       id="linearGradient1872"
       x1="932"
       y1="638.61914"
       x2="932.03491"
       y2="659.04791"
       gradientUnits="userSpaceOnUse"
       gradientTransform="translate(-900,-600)" />
    <linearGradient
       inkscape:collect="always"
       id="linearGradient2658">
      <stop
         style="stop-color:#fdfcfb;stop-opacity:0.55000001"
         offset="0"
         id="stop2654" />
      <stop
         style="stop-color:#fcfcfc;stop-opacity:0"
         offset="1"
         id="stop2656" />
    </linearGradient>
    <linearGradient
       inkscape:collect="always"
       xlink:href="#linearGradient2658"
       id="linearGradient1880"
       x1="931.8418"
       y1="605"
       x2="932.00555"
       y2="630.89825"
       gradientUnits="userSpaceOnUse"
       gradientTransform="translate(-900.00055,-601)" />
  </defs>
  <sodipodi:namedview
     id="base"
     pagecolor="#cecece"
     bordercolor="#666666"
     borderopacity="1.0"
     inkscape:pageopacity="0"
     inkscape:pageshadow="2"
     inkscape:zoom="6.8818909"
     inkscape:cx="20.896034"
     inkscape:cy="44.014593"
     inkscape:document-units="px"
     inkscape:current-layer="layer1"
     inkscape:document-rotation="0"
     showgrid="false"
     units="px"
     inkscape:window-width="2048"
     inkscape:window-height="1080"
     inkscape:window-x="0"
     inkscape:window-y="0"
     inkscape:window-maximized="1" />
  <metadata
     id="metadata6371">
    <rdf:RDF>
      <cc:Work
         rdf:about="">
        <dc:format>image/svg+xml</dc:format>
        <dc:type
           rdf:resource="http://purl.org/dc/dcmitype/StillImage" />
        <dc:title></dc:title>
      </cc:Work>
    </rdf:RDF>
  </metadata>
  <g
     inkscape:label="Layer 1"
     inkscape:groupmode="layer"
     id="layer1">
    <path
       id="path1652-5-6-6"
       style="color:#000000;font-style:normal;font-variant:normal;font-weight:normal;font-stretch:normal;font-size:medium;line-height:normal;font-family:sans-serif;font-variant-ligatures:normal;font-variant-position:normal;font-variant-caps:normal;font-variant-numeric:normal;font-variant-alternates:normal;font-variant-east-asian:normal;font-feature-settings:normal;font-variation-settings:normal;text-indent:0;text-align:start;text-decoration:none;text-decoration-line:none;text-decoration-style:solid;text-decoration-color:#000000;letter-spacing:normal;word-spacing:normal;text-transform:none;writing-mode:lr-tb;direction:ltr;text-orientation:mixed;dominant-baseline:auto;baseline-shift:baseline;text-anchor:start;white-space:normal;shape-padding:0;shape-margin:0;inline-size:0;clip-rule:nonzero;display:inline;overflow:visible;visibility:visible;opacity:0.1;isolation:auto;mix-blend-mode:normal;color-interpolation:sRGB;color-interpolation-filters:linearRGB;solid-color:#000000;solid-opacity:1;vector-effect:none;fill:#0c0c0c;fill-opacity:1;fill-rule:nonzero;stroke:none;stroke-width:1.00011;stroke-linecap:round;stroke-linejoin:round;stroke-miterlimit:4;stroke-dasharray:none;stroke-dashoffset:0;stroke-opacity:1;color-rendering:auto;image-rendering:auto;shape-rendering:auto;text-rendering:auto;enable-background:accumulate;stop-color:#000000"
       d="m 32.00001,38.619002 c -4.62005,0 -9.24069,0.793701 -13.46767,2.4004 C 10.06241,44.238823 4.00012,50.632243 4,58.324203 c 0.001,2.01143 1.66271,3.67485 3.6746,3.675799 h 24.32541 24.32148 c 2.013,6.6e-4 3.67735,-1.663259 3.67851,-3.675799 -9e-5,-7.69172 -6.06038,-14.08536 -14.53039,-17.3048 -4.22709,-1.60675 -8.84948,-2.4004 -13.4696,-2.400401 z m 0,3.00002 c 4.27482,0 8.54929,0.74028 12.40298,2.20509 7.69075,2.92325 12.59527,8.39691 12.59638,14.49814 -2.3e-4,0.39166 -0.28452,0.67786 -0.67593,0.67773 a 1.5004638,1.500159 0 0 0 -0.002,0 H 31.99996 7.67651 7.67451 C 7.2848,58.998983 7.0016,58.714172 7.00054,58.324203 v -0.002 c 0.001,-6.10099 4.90753,-11.57487 12.59834,-14.49814 3.85381,-1.46486 8.12629,-2.20509 12.40104,-2.20509 z" />
    <path
       id="path1652-5"
       style="color:#000000;font-style:normal;font-variant:normal;font-weight:normal;font-stretch:normal;font-size:medium;line-height:normal;font-family:sans-serif;font-variant-ligatures:normal;font-variant-position:normal;font-variant-caps:normal;font-variant-numeric:normal;font-variant-alternates:normal;font-variant-east-asian:normal;font-feature-settings:normal;font-variation-settings:normal;text-indent:0;text-align:start;text-decoration:none;text-decoration-line:none;text-decoration-style:solid;text-decoration-color:#000000;letter-spacing:normal;word-spacing:normal;text-transform:none;writing-mode:lr-tb;direction:ltr;text-orientation:mixed;dominant-baseline:auto;baseline-shift:baseline;text-anchor:start;white-space:normal;shape-padding:0;shape-margin:0;inline-size:0;clip-rule:nonzero;display:inline;overflow:visible;visibility:visible;opacity:0.85;isolation:auto;mix-blend-mode:normal;color-interpolation:sRGB;color-interpolation-filters:linearRGB;solid-color:#000000;solid-opacity:1;vector-effect:none;fill:#4c4c4d;fill-opacity:1;fill-rule:nonzero;stroke:none;stroke-width:1.00011;stroke-linecap:round;stroke-linejoin:round;stroke-miterlimit:4;stroke-dasharray:none;stroke-dashoffset:0;stroke-opacity:1;color-rendering:auto;image-rendering:auto;shape-rendering:auto;text-rendering:auto;enable-background:accumulate;stop-color:#000000"
       d="m 32.00001,37.119002 c -4.62005,0 -9.24069,0.793701 -13.46767,2.4004 C 10.06241,42.738823 4.00012,49.132243 4,56.824203 c 0.001,2.01143 1.66271,3.67485 3.6746,3.675799 h 24.32541 24.32148 c 2.013,6.6e-4 3.67735,-1.663259 3.67851,-3.6758 -9e-5,-7.691719 -6.06038,-14.08536 -14.53039,-17.3048 -4.22709,-1.60675 -8.84948,-2.4004 -13.4696,-2.4004 z m 0,3.00002 c 4.27482,0 8.54929,0.74028 12.40298,2.20509 7.69075,2.92325 12.59527,8.39691 12.59638,14.49814 -2.3e-4,0.39166 -0.28452,0.67786 -0.67593,0.67773 a 1.5004638,1.500159 0 0 0 -0.002,0 H 31.99996 7.67651 7.67451 C 7.2848,57.498983 7.0016,57.214173 7.00054,56.824203 v -0.002 c 0.001,-6.100991 4.90753,-11.57487 12.59834,-14.49814 3.85381,-1.46486 8.12629,-2.20509 12.40104,-2.20509 z" />
    <path
       style="color:#000000;font-style:normal;font-variant:normal;font-weight:normal;font-stretch:normal;font-size:medium;line-height:normal;font-family:sans-serif;font-variant-ligatures:normal;font-variant-position:normal;font-variant-caps:normal;font-variant-numeric:normal;font-variant-alternates:normal;font-variant-east-asian:normal;font-feature-settings:normal;font-variation-settings:normal;text-indent:0;text-align:start;text-decoration:none;text-decoration-line:none;text-decoration-style:solid;text-decoration-color:#000000;letter-spacing:normal;word-spacing:normal;text-transform:none;writing-mode:lr-tb;direction:ltr;text-orientation:mixed;dominant-baseline:auto;baseline-shift:baseline;text-anchor:start;white-space:normal;shape-padding:0;shape-margin:0;inline-size:0;clip-rule:nonzero;display:inline;overflow:visible;visibility:visible;isolation:auto;mix-blend-mode:normal;color-interpolation:sRGB;color-interpolation-filters:linearRGB;solid-color:#000000;solid-opacity:1;vector-effect:none;fill:url(#linearGradient1668);fill-opacity:1;fill-rule:nonzero;stroke:none;stroke-width:0.823096;stroke-linecap:round;stroke-linejoin:round;stroke-miterlimit:4;stroke-dasharray:none;stroke-dashoffset:0;stroke-opacity:1;color-rendering:auto;image-rendering:auto;shape-rendering:auto;text-rendering:auto;enable-background:accumulate;stop-color:#000000"
       d="m 32,38.619103 c -4.44734,0 -8.89408,0.76753 -12.93443,2.3033 C 10.98488,43.993883 5.50009,49.927562 5.5,56.824373 a 2.1771413,2.1769718 0 0 0 2.17611,2.175719 H 32 56.32215 A 2.1771413,2.1769718 0 0 0 58.5,56.824373 c -8e-5,-6.896811 -5.48322,-12.83049 -13.56392,-15.90197 -4.04034,-1.53577 -8.48865,-2.3033 -12.93608,-2.3033 z"
       id="path1652" />
    <path
       id="path1305-3-0-7-7-0-2"
       style="color:#000000;font-style:normal;font-variant:normal;font-weight:normal;font-stretch:normal;font-size:medium;line-height:normal;font-family:sans-serif;font-variant-ligatures:normal;font-variant-position:normal;font-variant-caps:normal;font-variant-numeric:normal;font-variant-alternates:normal;font-variant-east-asian:normal;font-feature-settings:normal;font-variation-settings:normal;text-indent:0;text-align:start;text-decoration:none;text-decoration-line:none;text-decoration-style:solid;text-decoration-color:#000000;letter-spacing:normal;word-spacing:normal;text-transform:none;writing-mode:lr-tb;direction:ltr;text-orientation:mixed;dominant-baseline:auto;baseline-shift:baseline;text-anchor:start;white-space:normal;shape-padding:0;shape-margin:0;inline-size:0;clip-rule:nonzero;display:inline;overflow:visible;visibility:visible;opacity:0.1;isolation:auto;mix-blend-mode:normal;color-interpolation:sRGB;color-interpolation-filters:linearRGB;solid-color:#000000;solid-opacity:1;vector-effect:none;fill:#0c0c0c;fill-opacity:1;fill-rule:nonzero;stroke:none;stroke-linecap:round;stroke-linejoin:round;stroke-miterlimit:4;stroke-dasharray:none;stroke-dashoffset:0;stroke-opacity:1;color-rendering:auto;image-rendering:auto;shape-rendering:auto;text-rendering:auto;enable-background:accumulate;stop-color:#000000"
       d="m 31.88227,4.0001325 a 1.50015,1.50015 0 0 0 -0.24219,0.0273 C 23.7741,4.2226525 17.43478,10.665923 17.435,18.564533 c 0,8.026 6.53846,14.56445 14.56445,14.56446 8.026,0 14.56446,-6.53846 14.56446,-14.564461 -1e-5,-8.025989 -6.53847,-14.5644495 -14.56446,-14.5644495 -0.0328,-1.1e-4 -0.0668,-1.1e-4 -0.0996,0 -0.002,10e-6 -0.004,-1e-5 -0.006,0 a 1.50015,1.50015 0 0 0 -0.006,0 c -0.002,2e-5 -0.004,-1e-5 -0.006,0 z m 0.0293,3 c 0.0272,-9e-5 0.0548,-1e-4 0.082,0 a 1.50015,1.50015 0 0 0 0.006,0 c 6.40467,0 11.56445,5.1597805 11.56446,11.5644495 0,6.40468 -5.15978,11.564461 -11.56446,11.564461 C 25.5949,30.129032 20.43512,24.969262 20.43512,18.564582 20.43494,12.194293 25.54157,7.0482525 31.91168,7.0001325 Z" />
    <path
       id="path1305-3-0-7-7"
       style="color:#000000;font-style:normal;font-variant:normal;font-weight:normal;font-stretch:normal;font-size:medium;line-height:normal;font-family:sans-serif;font-variant-ligatures:normal;font-variant-position:normal;font-variant-caps:normal;font-variant-numeric:normal;font-variant-alternates:normal;font-variant-east-asian:normal;font-feature-settings:normal;font-variation-settings:normal;text-indent:0;text-align:start;text-decoration:none;text-decoration-line:none;text-decoration-style:solid;text-decoration-color:#000000;letter-spacing:normal;word-spacing:normal;text-transform:none;writing-mode:lr-tb;direction:ltr;text-orientation:mixed;dominant-baseline:auto;baseline-shift:baseline;text-anchor:start;white-space:normal;shape-padding:0;shape-margin:0;inline-size:0;clip-rule:nonzero;display:inline;overflow:visible;visibility:visible;opacity:0.85;isolation:auto;mix-blend-mode:normal;color-interpolation:sRGB;color-interpolation-filters:linearRGB;solid-color:#000000;solid-opacity:1;vector-effect:none;fill:#4c4c4d;fill-opacity:1;fill-rule:nonzero;stroke:none;stroke-linecap:round;stroke-linejoin:round;stroke-miterlimit:4;stroke-dasharray:none;stroke-dashoffset:0;stroke-opacity:1;color-rendering:auto;image-rendering:auto;shape-rendering:auto;text-rendering:auto;enable-background:accumulate;stop-color:#000000"
       d="m 31.88227,2.5001325 a 1.50015,1.50015 0 0 0 -0.24219,0.0273 c -7.86598,0.19522 -14.2053,6.63849 -14.20508,14.5370995 0,8.026001 6.53846,14.56445 14.56445,14.564461 8.026,0 14.56446,-6.53846 14.56446,-14.564461 -1e-5,-8.0259895 -6.53847,-14.5644495 -14.56446,-14.5644495 -0.0328,-1.1e-4 -0.0668,-1.1e-4 -0.0996,0 -0.002,1e-5 -0.004,-1e-5 -0.006,0 a 1.50015,1.50015 0 0 0 -0.006,0 c -0.002,2e-5 -0.004,-1e-5 -0.006,0 z m 0.0293,3 c 0.0272,-9e-5 0.0548,-1e-4 0.082,0 a 1.50015,1.50015 0 0 0 0.006,0 c 6.40467,0 11.56445,5.1597805 11.56446,11.5644495 0,6.40468 -5.15978,11.564461 -11.56446,11.564461 C 25.5949,28.629032 20.43512,23.469262 20.43512,17.064582 20.43494,10.694293 25.54157,5.5482525 31.91168,5.5001325 Z" />
    <path
       style="color:#000000;font-style:normal;font-variant:normal;font-weight:normal;font-stretch:normal;font-size:medium;line-height:normal;font-family:sans-serif;font-variant-ligatures:normal;font-variant-position:normal;font-variant-caps:normal;font-variant-numeric:normal;font-variant-alternates:normal;font-variant-east-asian:normal;font-feature-settings:normal;font-variation-settings:normal;text-indent:0;text-align:start;text-decoration:none;text-decoration-line:none;text-decoration-style:solid;text-decoration-color:#000000;letter-spacing:normal;word-spacing:normal;text-transform:none;writing-mode:lr-tb;direction:ltr;text-orientation:mixed;dominant-baseline:auto;baseline-shift:baseline;text-anchor:start;white-space:normal;shape-padding:0;shape-margin:0;inline-size:0;clip-rule:nonzero;display:inline;overflow:visible;visibility:visible;isolation:auto;mix-blend-mode:normal;color-interpolation:sRGB;color-interpolation-filters:linearRGB;solid-color:#000000;solid-opacity:1;vector-effect:none;fill:url(#linearGradient1660);fill-opacity:1;fill-rule:nonzero;stroke:none;stroke-width:0.823014;stroke-linecap:round;stroke-linejoin:round;stroke-miterlimit:4;stroke-dasharray:none;stroke-dashoffset:0;stroke-opacity:1;color-rendering:auto;image-rendering:auto;shape-rendering:auto;text-rendering:auto;enable-background:accumulate;stop-color:#000000"
       d="M 31.90132,4.0000925 A 13.064501,13.064516 0 0 0 18.9355,17.064602 13.064501,13.064516 0 0 0 32,30.129122 13.064501,13.064516 0 0 0 45.0645,17.064602 13.064501,13.064516 0 0 0 32,4.0000925 a 13.064501,13.064516 0 0 0 -0.0987,0 z"
       id="path1305-3-0-7" />
    <path
       id="path1652-5-6"
       style="color:#000000;font-style:normal;font-variant:normal;font-weight:normal;font-stretch:normal;font-size:medium;line-height:normal;font-family:sans-serif;font-variant-ligatures:normal;font-variant-position:normal;font-variant-caps:normal;font-variant-numeric:normal;font-variant-alternates:normal;font-variant-east-asian:normal;font-feature-settings:normal;font-variation-settings:normal;text-indent:0;text-align:start;text-decoration:none;text-decoration-line:none;text-decoration-style:solid;text-decoration-color:#000000;letter-spacing:normal;word-spacing:normal;text-transform:none;writing-mode:lr-tb;direction:ltr;text-orientation:mixed;dominant-baseline:auto;baseline-shift:baseline;text-anchor:start;white-space:normal;shape-padding:0;shape-margin:0;inline-size:0;clip-rule:nonzero;display:inline;overflow:visible;visibility:visible;opacity:0.25;isolation:auto;mix-blend-mode:normal;color-interpolation:sRGB;color-interpolation-filters:linearRGB;solid-color:#000000;solid-opacity:1;vector-effect:none;fill:#4c4c4d;fill-opacity:1;fill-rule:nonzero;stroke:none;stroke-width:1.00011;stroke-linecap:round;stroke-linejoin:round;stroke-miterlimit:4;stroke-dasharray:none;stroke-dashoffset:0;stroke-opacity:1;color-rendering:auto;image-rendering:auto;shape-rendering:auto;text-rendering:auto;enable-background:accumulate;stop-color:#000000"
       d="m 32.00001,37.119002 c -4.62005,0 -9.24069,0.793701 -13.46767,2.4004 C 10.06241,42.738823 4.00012,49.132243 4,56.824203 c 0.001,2.01143 1.66271,3.67485 3.6746,3.675799 h 24.32541 24.32148 c 2.013,6.6e-4 3.67735,-1.663259 3.67851,-3.6758 -9e-5,-7.691719 -6.06038,-14.08536 -14.53039,-17.3048 -4.22709,-1.60675 -8.84948,-2.4004 -13.4696,-2.4004 z m 0,3.00002 c 4.27482,0 8.54929,0.74028 12.40298,2.20509 7.69075,2.92325 12.59527,8.39691 12.59638,14.49814 -2.3e-4,0.39166 -0.28452,0.67786 -0.67593,0.67773 a 1.5004638,1.500159 0 0 0 -0.002,0 H 31.99996 7.67651 7.67451 C 7.2848,57.498983 7.0016,57.214173 7.00054,56.824203 v -0.002 c 0.001,-6.100991 4.90753,-11.57487 12.59834,-14.49814 3.85381,-1.46486 8.12629,-2.20509 12.40104,-2.20509 z" />
    <path
       id="path1652-5-9-9"
       style="color:#000000;font-style:normal;font-variant:normal;font-weight:normal;font-stretch:normal;font-size:medium;line-height:normal;font-family:sans-serif;font-variant-ligatures:normal;font-variant-position:normal;font-variant-caps:normal;font-variant-numeric:normal;font-variant-alternates:normal;font-variant-east-asian:normal;font-feature-settings:normal;font-variation-settings:normal;text-indent:0;text-align:start;text-decoration:none;text-decoration-line:none;text-decoration-style:solid;text-decoration-color:#000000;letter-spacing:normal;word-spacing:normal;text-transform:none;writing-mode:lr-tb;direction:ltr;text-orientation:mixed;dominant-baseline:auto;baseline-shift:baseline;text-anchor:start;white-space:normal;shape-padding:0;shape-margin:0;inline-size:0;clip-rule:nonzero;display:inline;overflow:visible;visibility:visible;opacity:0.75;isolation:auto;mix-blend-mode:normal;color-interpolation:sRGB;color-interpolation-filters:linearRGB;solid-color:#000000;solid-opacity:1;vector-effect:none;fill:url(#linearGradient1872);fill-opacity:1;fill-rule:nonzero;stroke:none;stroke-width:1.00011;stroke-linecap:round;stroke-linejoin:round;stroke-miterlimit:4;stroke-dasharray:none;stroke-dashoffset:0;stroke-opacity:1;color-rendering:auto;image-rendering:auto;shape-rendering:auto;text-rendering:auto;enable-background:accumulate;stop-color:#000000"
       d="m 32,38.619143 c -4.44734,0 -8.89324,0.766959 -12.93359,2.30274 C 10.98572,43.993343 5.50009,49.927413 5.5,56.824223 a 2.1771413,2.1769718 0 0 0 2.17578,2.175779 H 32 56.32227 A 2.1771413,2.1769718 0 0 0 58.5,56.824223 C 58.49992,49.927413 53.01625,43.993352 44.93555,40.921883 40.89521,39.386102 36.44743,38.619143 32,38.619143 Z m 0,1.5 h 0.002 c 4.27417,2.3e-4 8.54733,0.74049 12.40039,2.20508 7.6908,2.92325 12.59656,8.39682 12.59766,14.49805 -2e-4,0.39166 -0.28438,0.67786 -0.67578,0.677729 H 32.002 7.67778 7.67578 C 7.28607,57.499003 7.00301,57.214193 7.00195,56.824223 v -0.002 c 0.001,-6.100991 4.9088,-11.57478 12.59961,-14.49805 C 23.45479,40.859532 27.7259,40.119323 32,40.119092 Z m -22.89648,5.29102 c -0.35399,0.35235 -0.69189,0.7137 -1.01368,1.08398 0.32182,-0.37028 0.66162,-0.731631 1.01563,-1.08398 0,0 -0.002,0 -0.002,0 z" />
    <path
       id="path1305-3-0-7-7-0"
       style="color:#000000;font-style:normal;font-variant:normal;font-weight:normal;font-stretch:normal;font-size:medium;line-height:normal;font-family:sans-serif;font-variant-ligatures:normal;font-variant-position:normal;font-variant-caps:normal;font-variant-numeric:normal;font-variant-alternates:normal;font-variant-east-asian:normal;font-feature-settings:normal;font-variation-settings:normal;text-indent:0;text-align:start;text-decoration:none;text-decoration-line:none;text-decoration-style:solid;text-decoration-color:#000000;letter-spacing:normal;word-spacing:normal;text-transform:none;writing-mode:lr-tb;direction:ltr;text-orientation:mixed;dominant-baseline:auto;baseline-shift:baseline;text-anchor:start;white-space:normal;shape-padding:0;shape-margin:0;inline-size:0;clip-rule:nonzero;display:inline;overflow:visible;visibility:visible;opacity:0.25;isolation:auto;mix-blend-mode:normal;color-interpolation:sRGB;color-interpolation-filters:linearRGB;solid-color:#000000;solid-opacity:1;vector-effect:none;fill:#4c4c4d;fill-opacity:1;fill-rule:nonzero;stroke:none;stroke-linecap:round;stroke-linejoin:round;stroke-miterlimit:4;stroke-dasharray:none;stroke-dashoffset:0;stroke-opacity:1;color-rendering:auto;image-rendering:auto;shape-rendering:auto;text-rendering:auto;enable-background:accumulate;stop-color:#000000"
       d="m 31.88227,2.5001325 a 1.50015,1.50015 0 0 0 -0.24219,0.0273 c -7.86598,0.19522 -14.2053,6.63849 -14.20508,14.5370995 0,8.026001 6.53846,14.56445 14.56445,14.564461 8.026,0 14.56446,-6.53846 14.56446,-14.564461 -1e-5,-8.0259895 -6.53847,-14.5644495 -14.56446,-14.5644495 -0.0328,-1.1e-4 -0.0668,-1.1e-4 -0.0996,0 -0.002,1e-5 -0.004,-1e-5 -0.006,0 a 1.50015,1.50015 0 0 0 -0.006,0 c -0.002,2e-5 -0.004,-1e-5 -0.006,0 z m 0.0293,3 c 0.0272,-9e-5 0.0548,-1e-4 0.082,0 a 1.50015,1.50015 0 0 0 0.006,0 c 6.40467,0 11.56445,5.1597805 11.56446,11.5644495 0,6.40468 -5.15978,11.564461 -11.56446,11.564461 C 25.5949,28.629032 20.43512,23.469262 20.43512,17.064582 20.43494,10.694293 25.54157,5.5482525 31.91168,5.5001325 Z" />
    <path
       id="path1305-3-0-7-7-2-3"
       style="color:#000000;font-style:normal;font-variant:normal;font-weight:normal;font-stretch:normal;font-size:medium;line-height:normal;font-family:sans-serif;font-variant-ligatures:normal;font-variant-position:normal;font-variant-caps:normal;font-variant-numeric:normal;font-variant-alternates:normal;font-variant-east-asian:normal;font-feature-settings:normal;font-variation-settings:normal;text-indent:0;text-align:start;text-decoration:none;text-decoration-line:none;text-decoration-style:solid;text-decoration-color:#000000;letter-spacing:normal;word-spacing:normal;text-transform:none;writing-mode:lr-tb;direction:ltr;text-orientation:mixed;dominant-baseline:auto;baseline-shift:baseline;text-anchor:start;white-space:normal;shape-padding:0;shape-margin:0;inline-size:0;clip-rule:nonzero;display:inline;overflow:visible;visibility:visible;opacity:0.75;isolation:auto;mix-blend-mode:normal;color-interpolation:sRGB;color-interpolation-filters:linearRGB;solid-color:#000000;solid-opacity:1;vector-effect:none;fill:url(#linearGradient1880);fill-opacity:1;fill-rule:nonzero;stroke:none;stroke-linecap:round;stroke-linejoin:round;stroke-miterlimit:4;stroke-dasharray:none;stroke-dashoffset:0;stroke-opacity:1;color-rendering:auto;image-rendering:auto;shape-rendering:auto;text-rendering:auto;enable-background:accumulate;stop-color:#000000"
       d="M 31.84125,4.0000025 A 13.064501,13.064516 0 0 0 18.935,17.064453 13.064501,13.064516 0 0 0 31.99945,30.128913 13.064501,13.064516 0 0 0 45.0639,17.064453 13.064501,13.064516 0 0 0 31.99945,4.0000025 a 13.064501,13.064516 0 0 0 -0.0996,0 13.064501,13.064516 0 0 0 -0.0586,0 z m 0.0703,1.5 c 0.0272,-9e-5 0.0548,-10e-5 0.082,0 a 1.50015,1.50015 0 0 0 0.006,0 c 6.40467,0 11.56444,5.1597805 11.56445,11.5644505 0,6.404679 -5.15977,11.56446 -11.56445,11.56446 C 25.59488,28.628903 20.4351,23.469132 20.4351,17.064453 20.43492,10.694162 25.54155,5.5481225 31.91166,5.5000025 Z" />
  </g>
</svg>
