<?xml version="1.0" encoding="UTF-8" standalone="no"?>
<svg
   xmlns:dc="http://purl.org/dc/elements/1.1/"
   xmlns:cc="http://creativecommons.org/ns#"
   xmlns:rdf="http://www.w3.org/1999/02/22-rdf-syntax-ns#"
   xmlns:svg="http://www.w3.org/2000/svg"
   xmlns="http://www.w3.org/2000/svg"
   xmlns:xlink="http://www.w3.org/1999/xlink"
   xmlns:sodipodi="http://sodipodi.sourceforge.net/DTD/sodipodi-0.dtd"
   xmlns:inkscape="http://www.inkscape.org/namespaces/inkscape"
   width="64"
   height="64"
   viewBox="0 0 64 64"
   version="1.1"
   id="svg6374"
   inkscape:version="1.0.2 (e86c870879, 2021-01-15)"
   sodipodi:docname="help-about.svg">
  <defs
     id="defs6368">
    <linearGradient
       inkscape:collect="always"
       xlink:href="#linearGradient994"
       id="linearGradient2978"
       gradientUnits="userSpaceOnUse"
       gradientTransform="translate(-12.59366,-60.67725)"
       x1="44.592453"
       y1="67.342995"
       x2="44.093658"
       y2="92.677246" />
    <linearGradient
       inkscape:collect="always"
       id="linearGradient994">
      <stop
         style="stop-color:#f9f9f7;stop-opacity:0.1"
         offset="0"
         id="stop992" />
      <stop
         style="stop-color:#f9f9f7;stop-opacity:0"
         offset="1"
         id="stop990" />
    </linearGradient>
  </defs>
  <sodipodi:namedview
     id="base"
     pagecolor="#cecece"
     bordercolor="#666666"
     borderopacity="1.0"
     inkscape:pageopacity="0"
     inkscape:pageshadow="2"
     inkscape:zoom="6.8818909"
     inkscape:cx="20.896034"
     inkscape:cy="43.723975"
     inkscape:document-units="px"
     inkscape:current-layer="layer1"
     inkscape:document-rotation="0"
     showgrid="false"
     units="px"
     inkscape:window-width="1500"
     inkscape:window-height="970"
     inkscape:window-x="68"
     inkscape:window-y="56"
     inkscape:window-maximized="0" />
  <metadata
     id="metadata6371">
    <rdf:RDF>
      <cc:Work
         rdf:about="">
        <dc:format>image/svg+xml</dc:format>
        <dc:type
           rdf:resource="http://purl.org/dc/dcmitype/StillImage" />
        <dc:title />
      </cc:Work>
    </rdf:RDF>
  </metadata>
  <g
     inkscape:label="Layer 1"
     inkscape:groupmode="layer"
     id="layer1">
    <path
       id="path895-3-6-7-6-6"
       style="color:#000000;font-style:normal;font-variant:normal;font-weight:normal;font-stretch:normal;font-size:medium;line-height:normal;font-family:sans-serif;font-variant-ligatures:normal;font-variant-position:normal;font-variant-caps:normal;font-variant-numeric:normal;font-variant-alternates:normal;font-variant-east-asian:normal;font-feature-settings:normal;font-variation-settings:normal;text-indent:0;text-align:start;text-decoration:none;text-decoration-line:none;text-decoration-style:solid;text-decoration-color:#000000;letter-spacing:normal;word-spacing:normal;text-transform:none;writing-mode:lr-tb;direction:ltr;text-orientation:mixed;dominant-baseline:auto;baseline-shift:baseline;text-anchor:start;white-space:normal;shape-padding:0;shape-margin:0;inline-size:0;clip-rule:nonzero;display:inline;overflow:visible;visibility:visible;opacity:0.15;isolation:auto;mix-blend-mode:normal;color-interpolation:sRGB;color-interpolation-filters:linearRGB;solid-color:#000000;solid-opacity:1;vector-effect:none;fill:#0c0c0c;fill-opacity:1;fill-rule:nonzero;stroke:none;stroke-linecap:round;stroke-linejoin:round;stroke-miterlimit:4;stroke-dasharray:none;stroke-dashoffset:0;stroke-opacity:1;color-rendering:auto;image-rendering:auto;shape-rendering:auto;text-rendering:auto;enable-background:accumulate;stop-color:#000000"
       d="m 32,6.5 c -14.89392,0 -27,12.10608 -27,27 0,14.89392 12.10608,27 27,27 14.89392,0 27,-12.10608 27,-27 0,-14.89392 -12.10608,-27 -27,-27 z m 0,3 c 13.2726,0 24,10.7274 24,24 0,13.2726 -10.7274,24 -24,24 C 18.7274,57.5 8,46.7726 8,33.5 8,20.2274 18.7274,9.5 32,9.5 Z" />
    <path
       id="path895-3-6-5"
       style="color:#000000;font-style:normal;font-variant:normal;font-weight:normal;font-stretch:normal;font-size:medium;line-height:normal;font-family:sans-serif;font-variant-ligatures:normal;font-variant-position:normal;font-variant-caps:normal;font-variant-numeric:normal;font-variant-alternates:normal;font-variant-east-asian:normal;font-feature-settings:normal;font-variation-settings:normal;text-indent:0;text-align:start;text-decoration:none;text-decoration-line:none;text-decoration-style:solid;text-decoration-color:#000000;letter-spacing:normal;word-spacing:normal;text-transform:none;writing-mode:lr-tb;direction:ltr;text-orientation:mixed;dominant-baseline:auto;baseline-shift:baseline;text-anchor:start;white-space:normal;shape-padding:0;shape-margin:0;inline-size:0;clip-rule:nonzero;display:inline;overflow:visible;visibility:visible;opacity:0.85;isolation:auto;mix-blend-mode:normal;color-interpolation:sRGB;color-interpolation-filters:linearRGB;solid-color:#000000;solid-opacity:1;vector-effect:none;fill:#2b37a1;fill-opacity:1;fill-rule:nonzero;stroke:none;stroke-linecap:round;stroke-linejoin:round;stroke-miterlimit:4;stroke-dasharray:none;stroke-dashoffset:0;stroke-opacity:1;color-rendering:auto;image-rendering:auto;shape-rendering:auto;text-rendering:auto;enable-background:accumulate;stop-color:#000000"
       d="M 32,5 C 17.10608,5 5,17.10608 5,32 5,46.89392 17.10608,59 32,59 46.89392,59 59,46.89392 59,32 59,17.10608 46.89392,5 32,5 Z m 0,3 C 45.2726,8 56,18.7274 56,32 56,45.2726 45.2726,56 32,56 18.7274,56 8,45.2726 8,32 8,18.7274 18.7274,8 32,8 Z" />
    <circle
       style="fill:#6571d7;fill-opacity:1;stroke:none;stroke-width:0;stroke-linecap:round;stroke-linejoin:round;stroke-miterlimit:4;stroke-dasharray:none"
       id="path895-6"
       cx="31.99999"
       cy="32.000031"
       r="25.5" />
    <path
       id="path895-3-6-7-3"
       style="color:#000000;font-style:normal;font-variant:normal;font-weight:normal;font-stretch:normal;font-size:medium;line-height:normal;font-family:sans-serif;font-variant-ligatures:normal;font-variant-position:normal;font-variant-caps:normal;font-variant-numeric:normal;font-variant-alternates:normal;font-variant-east-asian:normal;font-feature-settings:normal;font-variation-settings:normal;text-indent:0;text-align:start;text-decoration:none;text-decoration-line:none;text-decoration-style:solid;text-decoration-color:#000000;letter-spacing:normal;word-spacing:normal;text-transform:none;writing-mode:lr-tb;direction:ltr;text-orientation:mixed;dominant-baseline:auto;baseline-shift:baseline;text-anchor:start;white-space:normal;shape-padding:0;shape-margin:0;inline-size:0;clip-rule:nonzero;display:inline;overflow:visible;visibility:visible;opacity:0.15;isolation:auto;mix-blend-mode:normal;color-interpolation:sRGB;color-interpolation-filters:linearRGB;solid-color:#000000;solid-opacity:1;vector-effect:none;fill:#1e2771;fill-opacity:1;fill-rule:nonzero;stroke:none;stroke-linecap:round;stroke-linejoin:round;stroke-miterlimit:4;stroke-dasharray:none;stroke-dashoffset:0;stroke-opacity:1;color-rendering:auto;image-rendering:auto;shape-rendering:auto;text-rendering:auto;enable-background:accumulate;stop-color:#000000"
       d="M 32,5 C 17.10608,5 5,17.10608 5,32 5,46.89392 17.10608,59 32,59 46.89392,59 59,46.89392 59,32 59,17.10608 46.89392,5 32,5 Z m 0,3 C 45.2726,8 56,18.7274 56,32 56,45.2726 45.2726,56 32,56 18.7274,56 8,45.2726 8,32 8,18.7274 18.7274,8 32,8 Z" />
    <circle
       style="fill:url(#linearGradient2978);fill-opacity:1;stroke:none;stroke-width:0;stroke-linecap:round;stroke-linejoin:round;stroke-miterlimit:4;stroke-dasharray:none"
       id="path895-5-9"
       cx="31.99999"
       cy="32.000031"
       r="25.5" />
    <path
       id="rect984-3-3-6-1-9-2-4"
       style="display:inline;opacity:0.35;fill:#1e2771;fill-opacity:1;stroke:none;stroke-width:3.00111;stroke-linejoin:round"
       d="m 31.94349,15.5001 a 4.3458406,4.3448276 0 0 0 -4.28758,4.34483 4.3458406,4.3448276 0 0 0 4.34581,4.34482 4.3458406,4.3448276 0 0 0 4.34584,-4.34482 4.3458406,4.3448276 0 0 0 -4.34584,-4.34483 4.3458406,4.3448276 0 0 0 -0.0584,0 z m -6.77092,14.27586 c -0.34394,0 -0.62083,0.27683 -0.62083,0.62069 v 2.17241 c 0,0.34387 0.27689,0.62069 0.62083,0.62069 h 4.03542 v 14.89656 h -4.03542 c -0.34394,0 -0.62083,0.27682 -0.62083,0.62069 v 2.17241 c 0,0.34386 0.27689,0.62069 0.62083,0.62069 H 38.8309 c 0.34393,0 0.62084,-0.27683 0.62084,-0.62069 V 48.707 c 0,-0.34387 -0.27691,-0.62069 -0.62084,-0.62069 H 34.79548 V 32.56906 30.39665 c 0,-0.34386 -0.27689,-0.62069 -0.62084,-0.62069 h -4.34581 z" />
    <path
       id="rect984-3-3-6-1-9-0-6-8"
       style="color:#000000;font-style:normal;font-variant:normal;font-weight:normal;font-stretch:normal;font-size:medium;line-height:normal;font-family:sans-serif;font-variant-ligatures:normal;font-variant-position:normal;font-variant-caps:normal;font-variant-numeric:normal;font-variant-alternates:normal;font-variant-east-asian:normal;font-feature-settings:normal;font-variation-settings:normal;text-indent:0;text-align:start;text-decoration:none;text-decoration-line:none;text-decoration-style:solid;text-decoration-color:#000000;letter-spacing:normal;word-spacing:normal;text-transform:none;writing-mode:lr-tb;direction:ltr;text-orientation:mixed;dominant-baseline:auto;baseline-shift:baseline;text-anchor:start;white-space:normal;shape-padding:0;shape-margin:0;inline-size:0;clip-rule:nonzero;display:inline;overflow:visible;visibility:visible;opacity:0.75;isolation:auto;mix-blend-mode:normal;color-interpolation:sRGB;color-interpolation-filters:linearRGB;solid-color:#000000;solid-opacity:1;vector-effect:none;fill:#1e2771;fill-opacity:1;fill-rule:nonzero;stroke:none;stroke-width:1.00011;stroke-linecap:round;stroke-linejoin:round;stroke-miterlimit:4;stroke-dasharray:none;stroke-dashoffset:0;stroke-opacity:1;color-rendering:auto;image-rendering:auto;shape-rendering:auto;text-rendering:auto;enable-background:accumulate;stop-color:#000000"
       d="m 31.9346,12.50007 a 0.50016057,0.50005 0 0 0 -0.18167,0.0391 c -2.55458,0.13597 -4.59695,2.22499 -4.59672,4.80469 0,2.66979 2.1764,4.84569 4.84678,4.8457 2.67039,0 4.84482,-2.1759 4.84482,-4.8457 0,-2.6698 -2.17443,-4.84375 -4.84482,-4.84375 -0.0171,-1.1e-4 -0.0337,-7e-5 -0.0508,0 -0.003,1e-5 -0.005,-2e-5 -0.008,0 -10e-4,1e-5 -0.003,-10e-6 -0.004,0 a 0.50016057,0.50005 0 0 0 -0.004,0 c 0,0 -0.002,0 -0.002,0 z m 0.0117,1 c 9.9e-4,-10e-6 0.003,1e-5 0.004,0 0.0159,-9e-5 0.0329,-1.1e-4 0.0488,0 a 0.50016057,0.50005 0 0 0 0.004,0 c 2.12984,0 3.8446,1.71439 3.8446,3.84375 0,2.12936 -1.71476,3.8457 -3.8446,3.8457 -2.12982,-1e-5 -3.84655,-1.71635 -3.84655,-3.8457 -1.9e-4,-2.10782 1.68234,-3.81338 3.7899,-3.84375 z m -6.77299,13.27539 c -0.61234,0 -1.12133,0.50888 -1.12133,1.12109 v 2.17187 c 0,0.61222 0.50899,1.1211 1.12133,1.1211 h 3.534 V 45.086 h -3.534 c -0.61234,0 -1.12133,0.50888 -1.12133,1.1211 v 2.17187 c 0,0.61222 0.509,1.1211 1.12133,1.1211 h 13.65733 c 0.61234,0 1.12133,-0.50888 1.12133,-1.1211 V 46.2071 c 0,-0.61222 -0.50898,-1.1211 -1.12133,-1.1211 H 35.29665 V 30.06842 27.89655 c 0,-0.61221 -0.50899,-1.12109 -1.12134,-1.12109 h -4.34666 z m 0,1 h 4.65533 4.34665 c 0.0755,0 0.12113,0.0456 0.12113,0.12109 V 30.06842 45.586 a 0.50016057,0.50005 0 0 0 0.50011,0.5 h 4.03411 c 0.0755,0 0.12112,0.0456 0.12112,0.1211 v 2.17187 c 0,0.0755 -0.0456,0.1211 -0.12112,0.1211 H 25.17331 c -0.0755,0 -0.12112,-0.0456 -0.12112,-0.1211 V 46.2071 c 0,-0.0755 0.0456,-0.1211 0.12112,-0.1211 h 4.03411 a 0.50016057,0.50005 0 0 0 0.50011,-0.5 V 30.68952 a 0.50016057,0.50005 0 0 0 -0.50011,-0.5 h -4.03411 c -0.0755,0 -0.12112,-0.0456 -0.12112,-0.1211 v -2.17187 c 0,-0.0755 0.0456,-0.12109 0.12112,-0.12109 z" />
    <path
       id="rect984-3-3-6-1-9-1"
       style="display:inline;fill:#fdfcfb;fill-opacity:1;stroke:none;stroke-width:3.00111;stroke-linejoin:round"
       d="m 31.94349,13.0001 a 4.3458406,4.3448276 0 0 0 -4.28758,4.34483 4.3458406,4.3448276 0 0 0 4.34581,4.34482 4.3458406,4.3448276 0 0 0 4.34584,-4.34482 4.3458406,4.3448276 0 0 0 -4.34584,-4.34483 4.3458406,4.3448276 0 0 0 -0.0584,0 z m -6.77092,14.27586 c -0.34394,0 -0.62083,0.27683 -0.62083,0.62069 v 2.17241 c 0,0.34387 0.27689,0.62069 0.62083,0.62069 h 4.03542 v 14.89656 h -4.03542 c -0.34394,0 -0.62083,0.27682 -0.62083,0.62069 v 2.17241 c 0,0.34386 0.27689,0.62069 0.62083,0.62069 H 38.8309 c 0.34393,0 0.62084,-0.27683 0.62084,-0.62069 V 46.207 c 0,-0.34387 -0.27691,-0.62069 -0.62084,-0.62069 H 34.79548 V 30.06906 27.89665 c 0,-0.34386 -0.27689,-0.62069 -0.62084,-0.62069 h -4.34581 z" />
  </g>
</svg>
