<?xml version="1.0" encoding="UTF-8" standalone="no"?>
<svg
   xmlns:dc="http://purl.org/dc/elements/1.1/"
   xmlns:cc="http://creativecommons.org/ns#"
   xmlns:rdf="http://www.w3.org/1999/02/22-rdf-syntax-ns#"
   xmlns:svg="http://www.w3.org/2000/svg"
   xmlns="http://www.w3.org/2000/svg"
   xmlns:xlink="http://www.w3.org/1999/xlink"
   xmlns:sodipodi="http://sodipodi.sourceforge.net/DTD/sodipodi-0.dtd"
   xmlns:inkscape="http://www.inkscape.org/namespaces/inkscape"
   width="64"
   height="64"
   viewBox="0 0 16.933333 16.933334"
   version="1.1"
   id="svg841"
   inkscape:version="1.0.2 (e86c870879, 2021-01-15)"
   sodipodi:docname="maps-point-end.svg">
  <defs
     id="defs835">
    <linearGradient
       inkscape:collect="always"
       xlink:href="#linearGradient1207"
       id="linearGradient1415"
       x1="27.152222"
       y1="80.521149"
       x2="27.189381"
       y2="72.673676"
       gradientUnits="userSpaceOnUse"
       gradientTransform="translate(-18.722714,-70.160135)" />
    <linearGradient
       inkscape:collect="always"
       id="linearGradient1207">
      <stop
         style="stop-color:#f9f9f7;stop-opacity:0"
         offset="0"
         id="stop1203" />
      <stop
         style="stop-color:#f9f9f7;stop-opacity:0.2"
         offset="1"
         id="stop1205" />
    </linearGradient>
  </defs>
  <sodipodi:namedview
     id="base"
     pagecolor="#c4c4c4"
     bordercolor="#666666"
     borderopacity="1.0"
     inkscape:pageopacity="0"
     inkscape:pageshadow="2"
     inkscape:zoom="2.8903394"
     inkscape:cx="46.372831"
     inkscape:cy="36.927888"
     inkscape:document-units="px"
     inkscape:current-layer="layer1"
     inkscape:document-rotation="0"
     showgrid="false"
     units="px"
     inkscape:window-width="2048"
     inkscape:window-height="1080"
     inkscape:window-x="0"
     inkscape:window-y="0"
     inkscape:window-maximized="1" />
  <metadata
     id="metadata838">
    <rdf:RDF>
      <cc:Work
         rdf:about="">
        <dc:format>image/svg+xml</dc:format>
        <dc:type
           rdf:resource="http://purl.org/dc/dcmitype/StillImage" />
        <dc:title></dc:title>
      </cc:Work>
    </rdf:RDF>
  </metadata>
  <g
     inkscape:label="Layer 1"
     inkscape:groupmode="layer"
     id="layer1">
    <path
       id="path1181-0-7-5-2-8-7"
       style="color:#000000;font-style:normal;font-variant:normal;font-weight:normal;font-stretch:normal;font-size:medium;line-height:normal;font-family:sans-serif;font-variant-ligatures:normal;font-variant-position:normal;font-variant-caps:normal;font-variant-numeric:normal;font-variant-alternates:normal;font-variant-east-asian:normal;font-feature-settings:normal;font-variation-settings:normal;text-indent:0;text-align:start;text-decoration:none;text-decoration-line:none;text-decoration-style:solid;text-decoration-color:#000000;letter-spacing:normal;word-spacing:normal;text-transform:none;writing-mode:lr-tb;direction:ltr;text-orientation:mixed;dominant-baseline:auto;baseline-shift:baseline;text-anchor:start;white-space:normal;shape-padding:0;shape-margin:0;inline-size:0;clip-rule:nonzero;display:inline;overflow:visible;visibility:visible;opacity:0.3;isolation:auto;mix-blend-mode:normal;color-interpolation:sRGB;color-interpolation-filters:linearRGB;solid-color:#000000;solid-opacity:1;vector-effect:none;fill:#0c0c0c;fill-opacity:1;fill-rule:nonzero;stroke:none;stroke-width:1.00006;stroke-linecap:round;stroke-linejoin:round;stroke-miterlimit:4;stroke-dasharray:none;stroke-dashoffset:2.1875;stroke-opacity:1;color-rendering:auto;image-rendering:auto;shape-rendering:auto;text-rendering:auto;enable-background:accumulate;stop-color:#000000"
       d="m 8.4669251,2.5135417 c -3.502449,0 -6.3502584,2.847408 -6.3502584,6.350003 0,3.5025953 2.8478094,6.3499973 6.3502584,6.3499973 3.5024499,0 6.3497419,-2.847412 6.3497419,-6.3499973 0,-3.502595 -2.847292,-6.350003 -6.3497419,-6.350003 z m 0,0.79278 c 3.0734589,0 5.5564759,2.483637 5.5564759,5.557223 0,3.0735803 -2.483017,5.5572133 -5.5564759,5.5572133 -3.0734586,0 -5.5569922,-2.483633 -5.5569922,-5.5572133 0,-3.073586 2.4835336,-5.557223 5.5569922,-5.557223 z m 0,2.287388 c -1.8584723,-3e-6 -3.3735757,1.514642 -3.3735747,3.373193 -1e-6,1.8585523 1.5151024,3.3752653 3.3735747,3.3752653 1.8584749,0 3.3730579,-1.516713 3.3730579,-3.3752653 0,-1.858551 -1.514583,-3.373193 -3.3730579,-3.373193 z m 0,0.794846 c 1.4294795,0 2.5797919,1.148811 2.5797919,2.578347 0,1.4295373 -1.1503124,2.5804213 -2.5797919,2.5804213 -1.4294799,0 -2.5803086,-1.150884 -2.5803086,-2.5804213 0,-1.429536 1.1508287,-2.578347 2.5803086,-2.578347 z" />
    <path
       id="path1181-0-7-5-2-8-9"
       style="color:#000000;font-style:normal;font-variant:normal;font-weight:normal;font-stretch:normal;font-size:medium;line-height:normal;font-family:sans-serif;font-variant-ligatures:normal;font-variant-position:normal;font-variant-caps:normal;font-variant-numeric:normal;font-variant-alternates:normal;font-variant-east-asian:normal;font-feature-settings:normal;font-variation-settings:normal;text-indent:0;text-align:start;text-decoration:none;text-decoration-line:none;text-decoration-style:solid;text-decoration-color:#000000;letter-spacing:normal;word-spacing:normal;text-transform:none;writing-mode:lr-tb;direction:ltr;text-orientation:mixed;dominant-baseline:auto;baseline-shift:baseline;text-anchor:start;white-space:normal;shape-padding:0;shape-margin:0;inline-size:0;clip-rule:nonzero;display:inline;overflow:visible;visibility:visible;opacity:0.85;isolation:auto;mix-blend-mode:normal;color-interpolation:sRGB;color-interpolation-filters:linearRGB;solid-color:#000000;solid-opacity:1;vector-effect:none;fill:#a22044;fill-opacity:1;fill-rule:nonzero;stroke:none;stroke-width:1.00006;stroke-linecap:round;stroke-linejoin:round;stroke-miterlimit:4;stroke-dasharray:none;stroke-dashoffset:2.1875;stroke-opacity:1;color-rendering:auto;image-rendering:auto;shape-rendering:auto;text-rendering:auto;enable-background:accumulate;stop-color:#000000"
       d="m 8.466925,2.1166667 c -3.5024493,0 -6.3502583,2.847408 -6.3502583,6.350001 0,3.5025973 2.847809,6.3499993 6.3502583,6.3499993 3.50245,0 6.349742,-2.847412 6.349742,-6.3499993 0,-3.502593 -2.847292,-6.350001 -6.349742,-6.350001 z m 0,0.79278 c 3.073459,0 5.556476,2.483637 5.556476,5.557221 0,3.0735823 -2.483017,5.5572153 -5.556476,5.5572153 -3.0734587,0 -5.5569928,-2.483633 -5.5569928,-5.5572153 0,-3.073584 2.4835341,-5.557221 5.5569928,-5.557221 z m 0,2.287388 c -1.8584718,-3e-6 -3.3735756,1.514645 -3.3735748,3.373193 -8e-7,1.8585513 1.515103,3.3752653 3.3735748,3.3752653 1.858474,0 3.373059,-1.516714 3.373059,-3.3752653 0,-1.858548 -1.514585,-3.373193 -3.373059,-3.373193 z m 0,0.794846 c 1.4294806,0 2.579793,1.148808 2.579793,2.578347 0,1.429541 -1.1503124,2.5804213 -2.579793,2.5804213 -1.4294801,0 -2.5803083,-1.1508803 -2.5803083,-2.5804213 0,-1.429539 1.1508282,-2.578347 2.5803083,-2.578347 z" />
    <path
       id="path1181-0-7-5-2"
       style="fill:#d53460;fill-opacity:1;stroke:#771832;stroke-width:0;stroke-linecap:round;stroke-linejoin:round;stroke-miterlimit:4;stroke-dasharray:none;stroke-dashoffset:2.1875;stroke-opacity:1"
       d="M 8.466667,2.5135427 A 5.9531246,5.9531246 0 0 0 2.5135414,8.4666677 5.9531246,5.9531246 0 0 0 8.466667,14.419793 5.9531246,5.9531246 0 0 0 14.419792,8.4666677 5.9531246,5.9531246 0 0 0 8.466667,2.5135427 Z m 0,3.080432 A 2.976562,2.976562 0 0 1 11.443229,8.5705377 2.976562,2.976562 0 0 1 8.466667,11.547101 2.976562,2.976562 0 0 1 5.490104,8.5705377 2.976562,2.976562 0 0 1 8.466667,5.5939747 Z" />
    <path
       id="path1181-0-7-5-2-2"
       style="fill:url(#linearGradient1415);fill-opacity:1;stroke:#771832;stroke-width:0;stroke-linecap:round;stroke-linejoin:round;stroke-miterlimit:4;stroke-dasharray:none;stroke-dashoffset:2.1875;stroke-opacity:1"
       d="M 8.466667,2.5135427 A 5.9531246,5.9531246 0 0 0 2.513541,8.4666677 5.9531246,5.9531246 0 0 0 8.466667,14.419793 5.9531246,5.9531246 0 0 0 14.419792,8.4666677 5.9531246,5.9531246 0 0 0 8.466667,2.5135427 Z m 0,3.080432 A 2.976562,2.976562 0 0 1 11.443229,8.5705377 2.976562,2.976562 0 0 1 8.466667,11.547101 2.976562,2.976562 0 0 1 5.490104,8.5705377 2.976562,2.976562 0 0 1 8.466667,5.5939747 Z" />
  </g>
</svg>
