<?xml version="1.0" encoding="UTF-8" standalone="no"?>
<svg
   xmlns:dc="http://purl.org/dc/elements/1.1/"
   xmlns:cc="http://creativecommons.org/ns#"
   xmlns:rdf="http://www.w3.org/1999/02/22-rdf-syntax-ns#"
   xmlns:svg="http://www.w3.org/2000/svg"
   xmlns="http://www.w3.org/2000/svg"
   xmlns:sodipodi="http://sodipodi.sourceforge.net/DTD/sodipodi-0.dtd"
   xmlns:inkscape="http://www.inkscape.org/namespaces/inkscape"
   width="64"
   height="64"
   viewBox="0 0 16.933333 16.933334"
   version="1.1"
   id="svg841"
   inkscape:version="1.0.2 (e86c870879, 2021-01-15)"
   sodipodi:docname="view-fullscreen.svg">
  <defs
     id="defs835" />
  <sodipodi:namedview
     id="base"
     pagecolor="#c4c4c4"
     bordercolor="#666666"
     borderopacity="1.0"
     inkscape:pageopacity="0"
     inkscape:pageshadow="2"
     inkscape:zoom="2.5617964"
     inkscape:cx="-97.889895"
     inkscape:cy="78.58161"
     inkscape:document-units="px"
     inkscape:current-layer="layer1"
     inkscape:document-rotation="0"
     showgrid="false"
     units="px"
     inkscape:window-width="2048"
     inkscape:window-height="1080"
     inkscape:window-x="0"
     inkscape:window-y="0"
     inkscape:window-maximized="1" />
  <metadata
     id="metadata838">
    <rdf:RDF>
      <cc:Work
         rdf:about="">
        <dc:format>image/svg+xml</dc:format>
        <dc:type
           rdf:resource="http://purl.org/dc/dcmitype/StillImage" />
        <dc:title />
      </cc:Work>
    </rdf:RDF>
  </metadata>
  <g
     inkscape:label="Layer 1"
     inkscape:groupmode="layer"
     id="layer1">
    <path
       id="rect2130-9-6-5"
       style="color:#000000;font-style:normal;font-variant:normal;font-weight:normal;font-stretch:normal;font-size:medium;line-height:normal;font-family:sans-serif;font-variant-ligatures:normal;font-variant-position:normal;font-variant-caps:normal;font-variant-numeric:normal;font-variant-alternates:normal;font-variant-east-asian:normal;font-feature-settings:normal;font-variation-settings:normal;text-indent:0;text-align:start;text-decoration:none;text-decoration-line:none;text-decoration-style:solid;text-decoration-color:#000000;letter-spacing:normal;word-spacing:normal;text-transform:none;writing-mode:lr-tb;direction:ltr;text-orientation:mixed;dominant-baseline:auto;baseline-shift:baseline;text-anchor:start;white-space:normal;shape-padding:0;shape-margin:0;inline-size:0;clip-rule:nonzero;display:inline;overflow:visible;visibility:visible;opacity:0.15;isolation:auto;mix-blend-mode:normal;color-interpolation:sRGB;color-interpolation-filters:linearRGB;solid-color:#000000;solid-opacity:1;vector-effect:none;fill:#0c0c0c;fill-opacity:1;fill-rule:nonzero;stroke:none;stroke-width:0.264583;stroke-linecap:round;stroke-linejoin:round;stroke-miterlimit:4;stroke-dasharray:none;stroke-dashoffset:2.1875;stroke-opacity:1;color-rendering:auto;image-rendering:auto;shape-rendering:auto;text-rendering:auto;enable-background:accumulate;stop-color:#000000"
       d="m 2.0505209,1.3890625 c -0.5095955,0 -0.9260417,0.4164463 -0.9260417,0.9260417 v 4.3656251 c 0,0.5095955 0.4164462,0.9260417 0.9260417,0.9260417 0.5095954,0 0.9260417,-0.4164462 0.9260417,-0.9260417 V 3.2411459 H 6.416146 c 0.5095954,0 0.9260417,-0.4164462 0.9260417,-0.9260417 0,-0.5095954 -0.4164463,-0.9260417 -0.9260417,-0.9260417 z m 8.4666671,0 c -0.509596,0 -0.926042,0.4164463 -0.926042,0.9260417 0,0.5095955 0.416446,0.9260417 0.926042,0.9260417 h 3.439583 v 3.4395834 c 0,0.5095955 0.416446,0.9260417 0.926042,0.9260417 0.509595,0 0.926042,-0.4164462 0.926042,-0.9260417 V 2.3151042 c 0,-0.5095954 -0.416447,-0.9260417 -0.926042,-0.9260417 z M 2.0505209,1.7859375 H 6.416146 c 0.29659,0 0.5291667,0.2325767 0.5291667,0.5291667 0,0.29659 -0.2325767,0.5291667 -0.5291667,0.5291667 H 2.7781251 A 0.19845735,0.19845735 0 0 0 2.5796876,3.0427084 v 3.6380209 c 0,0.29659 -0.2325767,0.5291667 -0.5291667,0.5291667 -0.29659,0 -0.5291667,-0.2325767 -0.5291667,-0.5291667 V 2.3151042 c 0,-0.29659 0.2325767,-0.5291667 0.5291667,-0.5291667 z m 8.4666671,0 h 4.365625 c 0.29659,0 0.529167,0.2325767 0.529167,0.5291667 v 4.3656251 c 0,0.29659 -0.232577,0.5291667 -0.529167,0.5291667 -0.29659,0 -0.529167,-0.2325767 -0.529167,-0.5291667 V 3.0427084 A 0.19845735,0.19845735 0 0 0 14.155209,2.8442709 h -3.638021 c -0.29659,0 -0.529167,-0.2325767 -0.529167,-0.5291667 0,-0.29659 0.232577,-0.5291667 0.529167,-0.5291667 z M 2.0505209,9.855729 c -0.5095955,0 -0.9260417,0.416447 -0.9260417,0.926042 v 4.365625 c 0,0.509596 0.4164462,0.926042 0.9260417,0.926042 H 6.416146 c 0.5095954,0 0.9260417,-0.416446 0.9260417,-0.926042 0,-0.509595 -0.4164463,-0.926041 -0.9260417,-0.926041 H 2.9765626 v -3.439584 c 0,-0.509595 -0.4164463,-0.926042 -0.9260417,-0.926042 z m 12.8322921,0 c -0.509596,0 -0.926042,0.416447 -0.926042,0.926042 v 3.439584 h -3.439583 c -0.509596,0 -0.926042,0.416446 -0.926042,0.926041 0,0.509596 0.416446,0.926042 0.926042,0.926042 h 4.365625 c 0.509595,0 0.926042,-0.416446 0.926042,-0.926042 v -4.365625 c 0,-0.509595 -0.416447,-0.926042 -0.926042,-0.926042 z M 2.0505209,10.252604 c 0.29659,0 0.5291667,0.232577 0.5291667,0.529167 v 3.638021 A 0.19845735,0.19845735 0 0 0 2.7781251,14.61823 H 6.416146 c 0.29659,0 0.5291667,0.232576 0.5291667,0.529166 0,0.29659 -0.2325767,0.529167 -0.5291667,0.529167 H 2.0505209 c -0.29659,0 -0.5291667,-0.232577 -0.5291667,-0.529167 v -4.365625 c 0,-0.29659 0.2325767,-0.529167 0.5291667,-0.529167 z m 12.8322921,0 c 0.29659,0 0.529167,0.232577 0.529167,0.529167 v 4.365625 c 0,0.29659 -0.232577,0.529167 -0.529167,0.529167 h -4.365625 c -0.29659,0 -0.529167,-0.232577 -0.529167,-0.529167 0,-0.29659 0.232577,-0.529166 0.529167,-0.529166 h 3.638021 a 0.19845735,0.19845735 0 0 0 0.198437,-0.198438 v -3.638021 c 0,-0.29659 0.232577,-0.529167 0.529167,-0.529167 z" />
    <path
       id="rect2130-9"
       style="display:inline;fill:#fcd217;fill-opacity:1;stroke:none;stroke-width:0.396875;stroke-linecap:round;stroke-linejoin:round;stroke-miterlimit:4;stroke-dasharray:none;stroke-dashoffset:2.1875;stroke-opacity:1"
       d="m 2.0505209,1.3229167 c -0.4030927,0 -0.7276042,0.3245115 -0.7276042,0.7276042 V 6.416146 c 0,0.4030927 0.3245115,0.7276042 0.7276042,0.7276042 0.4030927,0 0.7276042,-0.3245115 0.7276042,-0.7276042 V 2.7781251 H 6.416146 c 0.4030927,0 0.7276042,-0.3245115 0.7276042,-0.7276042 0,-0.4030927 -0.3245115,-0.7276042 -0.7276042,-0.7276042 z m 8.4666671,0 c -0.403093,0 -0.727604,0.3245115 -0.727604,0.7276042 0,0.4030927 0.324511,0.7276042 0.727604,0.7276042 h 3.638021 V 6.416146 c 0,0.4030927 0.324511,0.7276042 0.727604,0.7276042 0.403093,0 0.727604,-0.3245115 0.727604,-0.7276042 V 2.0505209 c 0,-0.4030927 -0.324511,-0.7276042 -0.727604,-0.7276042 z M 2.0505209,9.789584 c -0.4030927,0 -0.7276042,0.324511 -0.7276042,0.727604 v 4.365625 c 0,0.403093 0.3245115,0.727604 0.7276042,0.727604 H 6.416146 c 0.4030927,0 0.7276042,-0.324511 0.7276042,-0.727604 0,-0.403093 -0.3245115,-0.727604 -0.7276042,-0.727604 H 2.7781251 v -3.638021 c 0,-0.403093 -0.3245115,-0.727604 -0.7276042,-0.727604 z m 12.8322921,0 c -0.403093,0 -0.727604,0.324511 -0.727604,0.727604 v 3.638021 h -3.638021 c -0.403093,0 -0.727604,0.324511 -0.727604,0.727604 0,0.403093 0.324511,0.727604 0.727604,0.727604 h 4.365625 c 0.403093,0 0.727604,-0.324511 0.727604,-0.727604 v -4.365625 c 0,-0.403093 -0.324511,-0.727604 -0.727604,-0.727604 z" />
    <path
       id="rect2130-9-6"
       style="color:#000000;font-style:normal;font-variant:normal;font-weight:normal;font-stretch:normal;font-size:medium;line-height:normal;font-family:sans-serif;font-variant-ligatures:normal;font-variant-position:normal;font-variant-caps:normal;font-variant-numeric:normal;font-variant-alternates:normal;font-variant-east-asian:normal;font-feature-settings:normal;font-variation-settings:normal;text-indent:0;text-align:start;text-decoration:none;text-decoration-line:none;text-decoration-style:solid;text-decoration-color:#000000;letter-spacing:normal;word-spacing:normal;text-transform:none;writing-mode:lr-tb;direction:ltr;text-orientation:mixed;dominant-baseline:auto;baseline-shift:baseline;text-anchor:start;white-space:normal;shape-padding:0;shape-margin:0;inline-size:0;clip-rule:nonzero;display:inline;overflow:visible;visibility:visible;opacity:0.6;isolation:auto;mix-blend-mode:normal;color-interpolation:sRGB;color-interpolation-filters:linearRGB;solid-color:#000000;solid-opacity:1;vector-effect:none;fill:#191419;fill-opacity:1;fill-rule:nonzero;stroke:none;stroke-width:0.264583;stroke-linecap:round;stroke-linejoin:round;stroke-miterlimit:4;stroke-dasharray:none;stroke-dashoffset:2.1875;stroke-opacity:1;color-rendering:auto;image-rendering:auto;shape-rendering:auto;text-rendering:auto;enable-background:accumulate;stop-color:#000000"
       d="m 2.0505209,1.1244792 c -0.5095955,0 -0.9260417,0.4164462 -0.9260417,0.9260417 V 6.416146 c 0,0.5095954 0.4164462,0.9260417 0.9260417,0.9260417 0.5095954,0 0.9260417,-0.4164463 0.9260417,-0.9260417 V 2.9765626 H 6.416146 c 0.5095954,0 0.9260417,-0.4164463 0.9260417,-0.9260417 0,-0.5095955 -0.4164463,-0.9260417 -0.9260417,-0.9260417 z m 8.4666671,0 c -0.509596,0 -0.926042,0.4164462 -0.926042,0.9260417 0,0.5095954 0.416446,0.9260417 0.926042,0.9260417 h 3.439583 V 6.416146 c 0,0.5095954 0.416446,0.9260417 0.926042,0.9260417 0.509595,0 0.926042,-0.4164463 0.926042,-0.9260417 V 2.0505209 c 0,-0.5095955 -0.416447,-0.9260417 -0.926042,-0.9260417 z M 2.0505209,1.5213542 H 6.416146 c 0.29659,0 0.5291667,0.2325767 0.5291667,0.5291667 0,0.29659 -0.2325767,0.5291667 -0.5291667,0.5291667 H 2.7781251 A 0.19845735,0.19845735 0 0 0 2.5796876,2.7781251 V 6.416146 c 0,0.29659 -0.2325767,0.5291667 -0.5291667,0.5291667 -0.29659,0 -0.5291667,-0.2325767 -0.5291667,-0.5291667 V 2.0505209 c 0,-0.29659 0.2325767,-0.5291667 0.5291667,-0.5291667 z m 8.4666671,0 h 4.365625 c 0.29659,0 0.529167,0.2325767 0.529167,0.5291667 V 6.416146 c 0,0.29659 -0.232577,0.5291667 -0.529167,0.5291667 -0.29659,0 -0.529167,-0.2325767 -0.529167,-0.5291667 V 2.7781251 A 0.19845735,0.19845735 0 0 0 14.155209,2.5796876 h -3.638021 c -0.29659,0 -0.529167,-0.2325767 -0.529167,-0.5291667 0,-0.29659 0.232577,-0.5291667 0.529167,-0.5291667 z M 2.0505209,9.591146 c -0.5095955,0 -0.9260417,0.416446 -0.9260417,0.926042 v 4.365625 c 0,0.509595 0.4164462,0.926042 0.9260417,0.926042 H 6.416146 c 0.5095954,0 0.9260417,-0.416447 0.9260417,-0.926042 0,-0.509596 -0.4164463,-0.926042 -0.9260417,-0.926042 H 2.9765626 v -3.439583 c 0,-0.509596 -0.4164463,-0.926042 -0.9260417,-0.926042 z m 12.8322921,0 c -0.509596,0 -0.926042,0.416446 -0.926042,0.926042 v 3.439583 h -3.439583 c -0.509596,0 -0.926042,0.416446 -0.926042,0.926042 0,0.509595 0.416446,0.926042 0.926042,0.926042 h 4.365625 c 0.509595,0 0.926042,-0.416447 0.926042,-0.926042 v -4.365625 c 0,-0.509596 -0.416447,-0.926042 -0.926042,-0.926042 z M 2.0505209,9.988021 c 0.29659,0 0.5291667,0.232577 0.5291667,0.529167 v 3.638021 a 0.19845735,0.19845735 0 0 0 0.1984375,0.198437 H 6.416146 c 0.29659,0 0.5291667,0.232577 0.5291667,0.529167 0,0.29659 -0.2325767,0.529167 -0.5291667,0.529167 H 2.0505209 c -0.29659,0 -0.5291667,-0.232577 -0.5291667,-0.529167 v -4.365625 c 0,-0.29659 0.2325767,-0.529167 0.5291667,-0.529167 z m 12.8322921,0 c 0.29659,0 0.529167,0.232577 0.529167,0.529167 v 4.365625 c 0,0.29659 -0.232577,0.529167 -0.529167,0.529167 h -4.365625 c -0.29659,0 -0.529167,-0.232577 -0.529167,-0.529167 0,-0.29659 0.232577,-0.529167 0.529167,-0.529167 h 3.638021 a 0.19845735,0.19845735 0 0 0 0.198437,-0.198437 v -3.638021 c 0,-0.29659 0.232577,-0.529167 0.529167,-0.529167 z" />
  </g>
</svg>
