<?xml version="1.0" encoding="UTF-8" standalone="no"?>
<svg
   xmlns:dc="http://purl.org/dc/elements/1.1/"
   xmlns:cc="http://creativecommons.org/ns#"
   xmlns:rdf="http://www.w3.org/1999/02/22-rdf-syntax-ns#"
   xmlns:svg="http://www.w3.org/2000/svg"
   xmlns="http://www.w3.org/2000/svg"
   xmlns:xlink="http://www.w3.org/1999/xlink"
   xmlns:sodipodi="http://sodipodi.sourceforge.net/DTD/sodipodi-0.dtd"
   xmlns:inkscape="http://www.inkscape.org/namespaces/inkscape"
   width="64"
   height="64"
   viewBox="0 0 64 64"
   version="1.1"
   id="svg6374"
   inkscape:version="1.0.2 (e86c870879, 2021-01-15)"
   sodipodi:docname="window-new.svg">
  <defs
     id="defs6368">
    <linearGradient
       inkscape:collect="always"
       xlink:href="#linearGradient901"
       id="linearGradient903"
       x1="102.97813"
       y1="3.1932061"
       x2="103.04669"
       y2="17.226297"
       gradientUnits="userSpaceOnUse"
       gradientTransform="translate(-71.02536,0.91518)" />
    <linearGradient
       inkscape:collect="always"
       id="linearGradient901">
      <stop
         style="stop-color:#e0e0e4;stop-opacity:1"
         offset="0"
         id="stop897" />
      <stop
         style="stop-color:#b4b4b8;stop-opacity:1"
         offset="1"
         id="stop899" />
    </linearGradient>
    <linearGradient
       inkscape:collect="always"
       xlink:href="#linearGradient877"
       id="linearGradient879"
       x1="47.75"
       y1="33.5"
       x2="48.25"
       y2="61.5"
       gradientUnits="userSpaceOnUse"
       gradientTransform="translate(-16,-7.5)" />
    <linearGradient
       inkscape:collect="always"
       id="linearGradient877">
      <stop
         style="stop-color:#17cea7;stop-opacity:1"
         offset="0"
         id="stop873" />
      <stop
         style="stop-color:#13ae8d;stop-opacity:1"
         offset="1"
         id="stop875" />
    </linearGradient>
  </defs>
  <sodipodi:namedview
     id="base"
     pagecolor="#cecece"
     bordercolor="#666666"
     borderopacity="1.0"
     inkscape:pageopacity="0"
     inkscape:pageshadow="2"
     inkscape:zoom="3.1106447"
     inkscape:cx="29.6594"
     inkscape:cy="41.787882"
     inkscape:document-units="px"
     inkscape:current-layer="layer1"
     inkscape:document-rotation="0"
     showgrid="false"
     units="px"
     inkscape:window-width="1500"
     inkscape:window-height="970"
     inkscape:window-x="68"
     inkscape:window-y="56"
     inkscape:window-maximized="0" />
  <metadata
     id="metadata6371">
    <rdf:RDF>
      <cc:Work
         rdf:about="">
        <dc:format>image/svg+xml</dc:format>
        <dc:type
           rdf:resource="http://purl.org/dc/dcmitype/StillImage" />
        <dc:title></dc:title>
      </cc:Work>
    </rdf:RDF>
  </metadata>
  <g
     inkscape:label="Layer 1"
     inkscape:groupmode="layer"
     id="layer1">
    <rect
       style="opacity:0.15;fill:#0c0c0c;fill-opacity:1;stroke-width:5.5;stroke-linecap:round;stroke-linejoin:round;stroke-dashoffset:2.1875"
       id="rect848-3-3"
       width="60"
       height="56"
       x="2.0000002"
       y="6.0000014"
       rx="3"
       ry="3" />
    <rect
       style="fill:#f6f5f6;fill-opacity:1;stroke-width:5.5;stroke-linecap:round;stroke-linejoin:round;stroke-dashoffset:2.1875"
       id="rect848-3"
       width="60"
       height="56"
       x="2.0000002"
       y="4.000001"
       rx="3"
       ry="3" />
    <path
       id="rect848"
       style="fill:url(#linearGradient903);fill-opacity:1;stroke-width:5.5;stroke-linecap:round;stroke-linejoin:round;stroke-dashoffset:2.1875"
       d="M 5,4 C 3.338,4 2,5.338 2,7 V 18 H 62 V 7 C 62,5.338 60.66201,4 59,4 Z" />
    <path
       id="rect848-3-7"
       style="color:#000000;font-style:normal;font-variant:normal;font-weight:normal;font-stretch:normal;font-size:medium;line-height:normal;font-family:sans-serif;font-variant-ligatures:normal;font-variant-position:normal;font-variant-caps:normal;font-variant-numeric:normal;font-variant-alternates:normal;font-variant-east-asian:normal;font-feature-settings:normal;font-variation-settings:normal;text-indent:0;text-align:start;text-decoration:none;text-decoration-line:none;text-decoration-style:solid;text-decoration-color:#000000;letter-spacing:normal;word-spacing:normal;text-transform:none;writing-mode:lr-tb;direction:ltr;text-orientation:mixed;dominant-baseline:auto;baseline-shift:baseline;text-anchor:start;white-space:normal;shape-padding:0;shape-margin:0;inline-size:0;clip-rule:nonzero;display:inline;overflow:visible;visibility:visible;opacity:0.75;isolation:auto;mix-blend-mode:normal;color-interpolation:sRGB;color-interpolation-filters:linearRGB;solid-color:#000000;solid-opacity:1;vector-effect:none;fill:#343434;fill-opacity:1;fill-rule:nonzero;stroke:none;stroke-linecap:round;stroke-linejoin:round;stroke-miterlimit:4;stroke-dasharray:none;stroke-dashoffset:2.1875;stroke-opacity:1;color-rendering:auto;image-rendering:auto;shape-rendering:auto;text-rendering:auto;enable-background:accumulate;stop-color:#000000"
       d="M 5,3.5 C 3.06966,3.5 1.5,5.069649 1.5,7 v 50 c 0,1.930351 1.56966,3.5 3.5,3.5 h 54 c 1.93036,0 3.5,-1.569649 3.5,-3.5 V 7 C 62.5,5.069649 60.93036,3.5 59,3.5 Z m 0,1 h 54 c 1.39365,0 2.5,1.106351 2.5,2.5 v 50 c 0,1.393648 -1.10635,2.5 -2.5,2.5 H 5 C 3.60635,59.5 2.5,58.393648 2.5,57 V 7 C 2.5,5.606351 3.60635,4.5 5,4.5 Z" />
    <rect
       style="opacity:0.6;fill:#343434;fill-opacity:1;stroke:none;stroke-width:0;stroke-linecap:round;stroke-linejoin:round;stroke-miterlimit:4;stroke-dasharray:none;stroke-dashoffset:2.1875;stroke-opacity:1"
       id="rect950"
       width="61"
       height="1"
       x="1.5000002"
       y="18" />
    <path
       id="rect1598-3"
       style="opacity:0.75;fill:#3c3c3f;fill-opacity:1;stroke-width:0;stroke-dashoffset:2.1875"
       d="m 57.79365,8.206357 c -0.27514,-0.275143 -0.71816,-0.275143 -0.9933,0 L 55,10.006706 53.19965,8.206357 c -0.27513,-0.275143 -0.71813,-0.275143 -0.99328,0 -0.27516,0.275143 -0.27516,0.718152 0,0.993294 L 54.00672,11 52.20637,12.800348 c -0.27516,0.275143 -0.27516,0.718151 0,0.993295 0.27514,0.275143 0.71814,0.275143 0.99328,0 L 55,11.993295 l 1.80035,1.800348 c 0.27514,0.275143 0.71816,0.275143 0.9933,0 0.27514,-0.275144 0.27514,-0.718152 0,-0.993295 L 55.9933,11 57.79365,9.199651 c 0.27514,-0.275142 0.27514,-0.718151 0,-0.993294 z" />
    <rect
       style="opacity:0.75;fill:#3c3c3f;fill-opacity:1;stroke:none;stroke-width:0;stroke-linecap:round;stroke-linejoin:round;stroke-miterlimit:4;stroke-dasharray:none;stroke-dashoffset:2.1875;stroke-opacity:1"
       id="rect992"
       width="18"
       height="3.5"
       x="23"
       y="9.250001"
       rx="1.75"
       ry="1.75" />
    <path
       id="rect4307-0-2-6-35-2-1-0"
       style="opacity:0.25;fill:#343434;fill-opacity:1;stroke:none;stroke-width:0;stroke-linecap:round;stroke-linejoin:round;stroke-miterlimit:4;stroke-dasharray:none;stroke-dashoffset:2.1875;stroke-opacity:1"
       d="m 30.5,27.75 c -0.554,0 -1,0.446 -1,1 V 39.500003 H 18.75 c -0.554,0 -1,0.446 -1,1.0001 v 2.9999 c 0,0.554 0.446,1 1,1 H 29.5 v 10.7501 c 0,0.554 0.446,0.9999 1,0.9999 h 3 c 0.554,0 1,-0.4459 1,-0.9999 v -10.7501 h 10.75 c 0.554,0 1,-0.446 1,-1 v -2.9999 c 0,-0.5541 -0.446,-1.0001 -1,-1.0001 H 34.5 V 28.75 c 0,-0.554 -0.446,-1 -1,-1 z" />
    <path
       id="rect4307-0-2-6-35-2-1"
       style="fill:url(#linearGradient879);fill-opacity:1;stroke:none;stroke-width:0;stroke-linecap:round;stroke-linejoin:round;stroke-miterlimit:4;stroke-dasharray:none;stroke-dashoffset:2.1875;stroke-opacity:1"
       d="m 30.5,25.75 c -0.554,0 -1,0.446 -1,1 V 37.500003 H 18.75 c -0.554,0 -1,0.446 -1,1.0001 v 2.9999 c 0,0.554 0.446,1 1,1 H 29.5 v 10.7501 c 0,0.554 0.446,0.9999 1,0.9999 h 3 c 0.554,0 1,-0.4459 1,-0.9999 v -10.7501 h 10.75 c 0.554,0 1,-0.446 1,-1 v -2.9999 c 0,-0.5541 -0.446,-1.0001 -1,-1.0001 H 34.5 V 26.75 c 0,-0.554 -0.446,-1 -1,-1 z" />
    <path
       id="rect4307-0-2-9-9-1-5-3-6"
       style="color:#000000;font-style:normal;font-variant:normal;font-weight:normal;font-stretch:normal;font-size:medium;line-height:normal;font-family:sans-serif;font-variant-ligatures:normal;font-variant-position:normal;font-variant-caps:normal;font-variant-numeric:normal;font-variant-alternates:normal;font-variant-east-asian:normal;font-feature-settings:normal;font-variation-settings:normal;text-indent:0;text-align:start;text-decoration:none;text-decoration-line:none;text-decoration-style:solid;text-decoration-color:#000000;letter-spacing:normal;word-spacing:normal;text-transform:none;writing-mode:lr-tb;direction:ltr;text-orientation:mixed;dominant-baseline:auto;baseline-shift:baseline;text-anchor:start;white-space:normal;shape-padding:0;shape-margin:0;inline-size:0;clip-rule:nonzero;display:inline;overflow:visible;visibility:visible;isolation:auto;mix-blend-mode:normal;color-interpolation:sRGB;color-interpolation-filters:linearRGB;solid-color:#000000;solid-opacity:1;vector-effect:none;fill:#0a5c4a;fill-opacity:1;fill-rule:nonzero;stroke:none;stroke-width:3.77953;stroke-linecap:round;stroke-linejoin:round;stroke-miterlimit:4;stroke-dasharray:none;stroke-dashoffset:2.1875;stroke-opacity:1;color-rendering:auto;image-rendering:auto;shape-rendering:auto;text-rendering:auto;enable-background:accumulate;stop-color:#000000"
       d="m 30.50195,25 c -0.95652,0 -1.75,0.7915 -1.75,1.7481 V 36.752003 H 18.75 c -0.95653,0 -1.75,0.7915 -1.75,1.748 v 2.9981 c 0,0.9565 0.79347,1.75 1.75,1.75 h 10.00195 v 10.002 c 0,0.9565 0.79348,1.75 1.75,1.75 h 2.9961 c 0.95652,0 1.75,-0.7935 1.75,-1.75 v -10.002 H 45.25 c 0.95653,0 1.75,-0.7935 1.75,-1.75 v -2.9981 c 0,-0.9565 -0.79347,-1.748 -1.75,-1.748 H 35.24805 V 26.7481 c 0,-0.9566 -0.79348,-1.7481 -1.75,-1.7481 z m 0,1.4981 h 2.9961 c 0.15148,0 0.25194,0.099 0.25194,0.2498 v 10.748003 a 0.75007497,0.75007497 0 0 0 0.75195,0.7539 H 45.25 c 0.15148,0 0.25194,0.099 0.25194,0.2499 v 2.998 c 0,0.1516 -0.10046,0.2499 -0.25194,0.2499 H 34.50194 a 0.75007497,0.75007497 0 0 0 -0.75195,0.7539 v 10.748 c 0,0.1516 -0.10046,0.2498 -0.25194,0.2498 h -2.9961 c -0.15148,0 -0.25194,-0.099 -0.25194,-0.2498 v -10.748 a 0.75007497,0.75007497 0 0 0 -0.7461,-0.7539 h -10.7539 c -0.15148,0 -0.25194,-0.099 -0.25194,-0.2499 v -2.998 c 0,-0.1516 0.10046,-0.2499 0.25194,-0.2499 h 10.7539 A 0.75007497,0.75007497 0 0 0 30.25,37.495903 V 26.7479 c 0,-0.1515 0.10046,-0.2498 0.25194,-0.2498 z" />
  </g>
</svg>
