<?xml version="1.0" encoding="UTF-8" standalone="no"?>
<svg
   xmlns:dc="http://purl.org/dc/elements/1.1/"
   xmlns:cc="http://creativecommons.org/ns#"
   xmlns:rdf="http://www.w3.org/1999/02/22-rdf-syntax-ns#"
   xmlns:svg="http://www.w3.org/2000/svg"
   xmlns="http://www.w3.org/2000/svg"
   xmlns:xlink="http://www.w3.org/1999/xlink"
   xmlns:sodipodi="http://sodipodi.sourceforge.net/DTD/sodipodi-0.dtd"
   xmlns:inkscape="http://www.inkscape.org/namespaces/inkscape"
   width="64"
   height="64"
   viewBox="0 0 64 64"
   version="1.1"
   id="svg6374"
   inkscape:version="1.0.2 (e86c870879, 2021-01-15)"
   sodipodi:docname="dialog-cancel.svg">
  <defs
     id="defs6368">
    <linearGradient
       inkscape:collect="always"
       xlink:href="#linearGradient1732"
       id="linearGradient1719"
       gradientUnits="userSpaceOnUse"
       gradientTransform="translate(-12.59366,-60.67725)"
       x1="44.592453"
       y1="67.342995"
       x2="44.392742"
       y2="111.0254" />
    <linearGradient
       inkscape:collect="always"
       id="linearGradient1732">
      <stop
         style="stop-color:#fcfcfc;stop-opacity:0.60000002"
         offset="0"
         id="stop1730" />
      <stop
         style="stop-color:#f6f6f6;stop-opacity:0"
         offset="1"
         id="stop1728" />
    </linearGradient>
  </defs>
  <sodipodi:namedview
     id="base"
     pagecolor="#cecece"
     bordercolor="#666666"
     borderopacity="1.0"
     inkscape:pageopacity="0"
     inkscape:pageshadow="2"
     inkscape:zoom="6.8818909"
     inkscape:cx="20.896034"
     inkscape:cy="44.014593"
     inkscape:document-units="px"
     inkscape:current-layer="layer1"
     inkscape:document-rotation="0"
     showgrid="false"
     units="px"
     inkscape:window-width="1500"
     inkscape:window-height="970"
     inkscape:window-x="68"
     inkscape:window-y="56"
     inkscape:window-maximized="0" />
  <metadata
     id="metadata6371">
    <rdf:RDF>
      <cc:Work
         rdf:about="">
        <dc:format>image/svg+xml</dc:format>
        <dc:type
           rdf:resource="http://purl.org/dc/dcmitype/StillImage" />
        <dc:title></dc:title>
      </cc:Work>
    </rdf:RDF>
  </metadata>
  <g
     inkscape:label="Layer 1"
     inkscape:groupmode="layer"
     id="layer1">
    <path
       id="path895-3-6-7-6-6-7-2-7-3"
       style="color:#000000;font-style:normal;font-variant:normal;font-weight:normal;font-stretch:normal;font-size:medium;line-height:normal;font-family:sans-serif;font-variant-ligatures:normal;font-variant-position:normal;font-variant-caps:normal;font-variant-numeric:normal;font-variant-alternates:normal;font-variant-east-asian:normal;font-feature-settings:normal;font-variation-settings:normal;text-indent:0;text-align:start;text-decoration:none;text-decoration-line:none;text-decoration-style:solid;text-decoration-color:#000000;letter-spacing:normal;word-spacing:normal;text-transform:none;writing-mode:lr-tb;direction:ltr;text-orientation:mixed;dominant-baseline:auto;baseline-shift:baseline;text-anchor:start;white-space:normal;shape-padding:0;shape-margin:0;inline-size:0;clip-rule:nonzero;display:inline;overflow:visible;visibility:visible;opacity:0.15;isolation:auto;mix-blend-mode:normal;color-interpolation:sRGB;color-interpolation-filters:linearRGB;solid-color:#000000;solid-opacity:1;vector-effect:none;fill:#0c0c0c;fill-opacity:1;fill-rule:nonzero;stroke:none;stroke-linecap:round;stroke-linejoin:round;stroke-miterlimit:4;stroke-dasharray:none;stroke-dashoffset:0;stroke-opacity:1;color-rendering:auto;image-rendering:auto;shape-rendering:auto;text-rendering:auto;enable-background:accumulate;stop-color:#000000"
       d="m 32,6.5 c -14.89392,0 -27,12.10608 -27,27 0,14.89392 12.10608,27 27,27 14.89392,0 27,-12.10608 27,-27 0,-14.89392 -12.10608,-27 -27,-27 z m 0,3 c 13.2726,0 24,10.7274 24,24 0,13.2726 -10.7274,24 -24,24 C 18.7274,57.5 8,46.7726 8,33.5 8,20.2274 18.7274,9.5 32,9.5 Z" />
    <path
       id="path895-3-6-5-7-9-5-7"
       style="color:#000000;font-style:normal;font-variant:normal;font-weight:normal;font-stretch:normal;font-size:medium;line-height:normal;font-family:sans-serif;font-variant-ligatures:normal;font-variant-position:normal;font-variant-caps:normal;font-variant-numeric:normal;font-variant-alternates:normal;font-variant-east-asian:normal;font-feature-settings:normal;font-variation-settings:normal;text-indent:0;text-align:start;text-decoration:none;text-decoration-line:none;text-decoration-style:solid;text-decoration-color:#000000;letter-spacing:normal;word-spacing:normal;text-transform:none;writing-mode:lr-tb;direction:ltr;text-orientation:mixed;dominant-baseline:auto;baseline-shift:baseline;text-anchor:start;white-space:normal;shape-padding:0;shape-margin:0;inline-size:0;clip-rule:nonzero;display:inline;overflow:visible;visibility:visible;opacity:0.85;isolation:auto;mix-blend-mode:normal;color-interpolation:sRGB;color-interpolation-filters:linearRGB;solid-color:#000000;solid-opacity:1;vector-effect:none;fill:#535053;fill-opacity:1;fill-rule:nonzero;stroke:none;stroke-linecap:round;stroke-linejoin:round;stroke-miterlimit:4;stroke-dasharray:none;stroke-dashoffset:0;stroke-opacity:1;color-rendering:auto;image-rendering:auto;shape-rendering:auto;text-rendering:auto;enable-background:accumulate;stop-color:#000000"
       d="M 32,5 C 17.10608,5 5,17.10608 5,32 5,46.89392 17.10608,59 32,59 46.89392,59 59,46.89392 59,32 59,17.10608 46.89392,5 32,5 Z m 0,3 C 45.2726,8 56,18.7274 56,32 56,45.2726 45.2726,56 32,56 18.7274,56 8,45.2726 8,32 8,18.7274 18.7274,8 32,8 Z" />
    <circle
       style="fill:#d5d5db;fill-opacity:1;stroke:none;stroke-width:0;stroke-linecap:round;stroke-linejoin:round;stroke-miterlimit:4;stroke-dasharray:none"
       id="path895-6-6-3-3-5"
       cx="32"
       cy="32.000031"
       r="25.5" />
    <circle
       style="fill:url(#linearGradient1719);fill-opacity:1;stroke:none;stroke-width:0;stroke-linecap:round;stroke-linejoin:round;stroke-miterlimit:4;stroke-dasharray:none"
       id="path895-5-9-3-1-5-9"
       cx="32"
       cy="32.000031"
       r="25.5" />
    <path
       id="path895-3-6-5-7-9-5-7-1"
       style="color:#000000;font-style:normal;font-variant:normal;font-weight:normal;font-stretch:normal;font-size:medium;line-height:normal;font-family:sans-serif;font-variant-ligatures:normal;font-variant-position:normal;font-variant-caps:normal;font-variant-numeric:normal;font-variant-alternates:normal;font-variant-east-asian:normal;font-feature-settings:normal;font-variation-settings:normal;text-indent:0;text-align:start;text-decoration:none;text-decoration-line:none;text-decoration-style:solid;text-decoration-color:#000000;letter-spacing:normal;word-spacing:normal;text-transform:none;writing-mode:lr-tb;direction:ltr;text-orientation:mixed;dominant-baseline:auto;baseline-shift:baseline;text-anchor:start;white-space:normal;shape-padding:0;shape-margin:0;inline-size:0;clip-rule:nonzero;display:inline;overflow:visible;visibility:visible;opacity:0.15;isolation:auto;mix-blend-mode:normal;color-interpolation:sRGB;color-interpolation-filters:linearRGB;solid-color:#000000;solid-opacity:1;vector-effect:none;fill:#383842;fill-opacity:1;fill-rule:nonzero;stroke:none;stroke-linecap:round;stroke-linejoin:round;stroke-miterlimit:4;stroke-dasharray:none;stroke-dashoffset:0;stroke-opacity:1;color-rendering:auto;image-rendering:auto;shape-rendering:auto;text-rendering:auto;enable-background:accumulate;stop-color:#000000"
       d="M 32,5 C 17.10608,5 5,17.10608 5,32 5,46.89392 17.10608,59 32,59 46.89392,59 59,46.89392 59,32 59,17.10608 46.89392,5 32,5 Z m 0,3 C 45.2726,8 56,18.7274 56,32 56,45.2726 45.2726,56 32,56 18.7274,56 8,45.2726 8,32 8,18.7274 18.7274,8 32,8 Z" />
    <path
       id="rect4173-1-2-8-4-7"
       style="color:#000000;font-style:normal;font-variant:normal;font-weight:normal;font-stretch:normal;font-size:medium;line-height:normal;font-family:sans-serif;font-variant-ligatures:normal;font-variant-position:normal;font-variant-caps:normal;font-variant-numeric:normal;font-variant-alternates:normal;font-variant-east-asian:normal;font-feature-settings:normal;font-variation-settings:normal;text-indent:0;text-align:start;text-decoration:none;text-decoration-line:none;text-decoration-style:solid;text-decoration-color:#000000;letter-spacing:normal;word-spacing:normal;text-transform:none;writing-mode:lr-tb;direction:ltr;text-orientation:mixed;dominant-baseline:auto;baseline-shift:baseline;text-anchor:start;white-space:normal;shape-padding:0;shape-margin:0;inline-size:0;clip-rule:nonzero;display:inline;overflow:visible;visibility:visible;opacity:0.35;isolation:auto;mix-blend-mode:normal;color-interpolation:sRGB;color-interpolation-filters:linearRGB;solid-color:#000000;solid-opacity:1;vector-effect:none;fill:#494649;fill-opacity:1;fill-rule:nonzero;stroke:none;stroke-width:1.00028;stroke-linecap:round;stroke-linejoin:round;stroke-miterlimit:4;stroke-dasharray:none;stroke-dashoffset:0;stroke-opacity:1;color-rendering:auto;image-rendering:auto;shape-rendering:auto;text-rendering:auto;enable-background:accumulate;stop-color:#000000"
       d="m 22.02734,19.13477 c -0.38508,0 -0.76971,0.14668 -1.06054,0.4375 l -3.39649,3.39453 c -0.58165,0.58164 -0.58166,1.53944 0,2.12109 L 26.48047,34 17.57031,42.91211 c -0.58165,0.58164 -0.58166,1.53945 0,2.12109 l 3.39649,3.39649 c 0.58166,0.58164 1.53942,0.58164 2.12109,0 l 8.91016,-8.91211 8.91406,8.91211 c 0.58167,0.58164 1.53943,0.58164 2.12109,0 l 3.39649,-3.39649 c 0.58168,-0.58164 0.58168,-1.53945 0,-2.12109 L 37.51758,34 46.42969,25.08789 c 0.58168,-0.58165 0.58168,-1.53946 0,-2.12109 L 43.0332,19.57227 c -0.58166,-0.58165 -1.53942,-0.58165 -2.12109,0 l -8.91406,8.91015 -8.91016,-8.91015 c -0.29085,-0.29082 -0.67548,-0.4375 -1.06055,-0.4375 z" />
    <path
       id="rect4173-7-3"
       style="fill:#23211e;fill-opacity:1;stroke:none;stroke-width:1;stroke-linecap:round;stroke-linejoin:round;stroke-miterlimit:4;stroke-dasharray:none;stroke-opacity:1"
       d="m 42.67705,17.92831 c -0.39173,-0.39174 -1.02247,-0.39174 -1.41422,0 l -9.26281,9.26281 -9.26281,-9.26282 c -0.39175,-0.39173 -1.02248,-0.39173 -1.41422,0 l -3.39468,3.39466 c -0.39175,0.39174 -0.39175,1.02248 0,1.41422 L 27.19112,32 17.92831,41.26281 c -0.39175,0.39174 -0.39175,1.02248 0,1.41422 l 3.39468,3.39466 c 0.39172,0.39174 1.02247,0.39174 1.41422,0 l 9.26281,-9.26282 9.26281,9.26282 c 0.39175,0.39174 1.02247,0.39174 1.41422,0 l 3.39465,-3.39466 c 0.39175,-0.39174 0.39175,-1.02248 0,-1.41422 L 36.8089,32 46.07171,22.73718 c 0.39175,-0.39174 0.39175,-1.02248 0,-1.41421 z" />
  </g>
</svg>
