<?xml version="1.0" encoding="UTF-8" standalone="no"?>
<svg
   xmlns:dc="http://purl.org/dc/elements/1.1/"
   xmlns:cc="http://creativecommons.org/ns#"
   xmlns:rdf="http://www.w3.org/1999/02/22-rdf-syntax-ns#"
   xmlns:svg="http://www.w3.org/2000/svg"
   xmlns="http://www.w3.org/2000/svg"
   xmlns:xlink="http://www.w3.org/1999/xlink"
   xmlns:sodipodi="http://sodipodi.sourceforge.net/DTD/sodipodi-0.dtd"
   xmlns:inkscape="http://www.inkscape.org/namespaces/inkscape"
   width="64"
   height="64"
   viewBox="0 0 16.933333 16.933334"
   version="1.1"
   id="svg841"
   inkscape:version="1.0.2 (e86c870879, 2021-01-15)"
   sodipodi:docname="network-receive.svg">
  <defs
     id="defs835">
    <linearGradient
       inkscape:collect="always"
       xlink:href="#linearGradient1139-3"
       id="linearGradient1940"
       gradientUnits="userSpaceOnUse"
       gradientTransform="translate(0.26458333,0.26458328)"
       x1="8.1944265"
       y1="1.0125455"
       x2="8.2493715"
       y2="15.385565" />
    <linearGradient
       inkscape:collect="always"
       id="linearGradient1139-3">
      <stop
         style="stop-color:#faf9fb;stop-opacity:1"
         offset="0"
         id="stop1135-6" />
      <stop
         style="stop-color:#d8d7d9;stop-opacity:1"
         offset="1"
         id="stop1137-7" />
    </linearGradient>
  </defs>
  <sodipodi:namedview
     id="base"
     pagecolor="#c4c4c4"
     bordercolor="#666666"
     borderopacity="1.0"
     inkscape:pageopacity="0"
     inkscape:pageshadow="2"
     inkscape:zoom="4.6280654"
     inkscape:cx="7.5245157"
     inkscape:cy="46.680114"
     inkscape:document-units="px"
     inkscape:current-layer="layer1"
     inkscape:document-rotation="0"
     showgrid="false"
     units="px"
     inkscape:window-width="2048"
     inkscape:window-height="1080"
     inkscape:window-x="0"
     inkscape:window-y="0"
     inkscape:window-maximized="1" />
  <metadata
     id="metadata838">
    <rdf:RDF>
      <cc:Work
         rdf:about="">
        <dc:format>image/svg+xml</dc:format>
        <dc:type
           rdf:resource="http://purl.org/dc/dcmitype/StillImage" />
        <dc:title></dc:title>
      </cc:Work>
    </rdf:RDF>
  </metadata>
  <g
     inkscape:label="Layer 1"
     inkscape:groupmode="layer"
     id="layer1">
    <path
       id="rect831-360-6-7-9-7-5-6"
       style="color:#000000;font-style:normal;font-variant:normal;font-weight:normal;font-stretch:normal;font-size:medium;line-height:normal;font-family:sans-serif;font-variant-ligatures:normal;font-variant-position:normal;font-variant-caps:normal;font-variant-numeric:normal;font-variant-alternates:normal;font-variant-east-asian:normal;font-feature-settings:normal;font-variation-settings:normal;text-indent:0;text-align:start;text-decoration:none;text-decoration-line:none;text-decoration-style:solid;text-decoration-color:#000000;letter-spacing:normal;word-spacing:normal;text-transform:none;writing-mode:lr-tb;direction:ltr;text-orientation:mixed;dominant-baseline:auto;baseline-shift:baseline;text-anchor:start;white-space:normal;shape-padding:0;shape-margin:0;inline-size:0;clip-rule:nonzero;display:inline;overflow:visible;visibility:visible;opacity:0.15;isolation:auto;mix-blend-mode:normal;color-interpolation:sRGB;color-interpolation-filters:linearRGB;solid-color:#000000;solid-opacity:1;vector-effect:none;fill:#0c0c0c;fill-opacity:1;fill-rule:nonzero;stroke:none;stroke-width:0;stroke-linecap:round;stroke-linejoin:round;stroke-miterlimit:4;stroke-dasharray:none;stroke-dashoffset:2.1875;stroke-opacity:1;color-rendering:auto;image-rendering:auto;shape-rendering:auto;text-rendering:auto;enable-background:accumulate;stop-color:#000000"
       d="m 2.6467488,1.3229167 c -0.9458351,0 -1.72070712,0.7729114 -1.72070712,1.7188763 v 11.643498 c 0,0.945965 0.77487202,1.718876 1.72070712,1.718876 H 14.286585 c 0.945835,0 1.720707,-0.772911 1.720707,-1.718876 V 3.041793 c 0,-0.9459649 -0.774872,-1.7188763 -1.720707,-1.7188763 z m 0,0.793287 H 14.286585 c 0.519856,0 0.927529,0.4056618 0.927529,0.9255893 v 11.643498 c 0,0.519927 -0.407673,0.926105 -0.927529,0.926105 H 2.6467488 c -0.5198559,0 -0.9254622,-0.406178 -0.9254622,-0.926105 V 3.041793 c 0,-0.5199275 0.4056063,-0.9255893 0.9254622,-0.9255893 z" />
    <path
       id="rect831-360-6-5-0-0"
       style="color:#000000;font-style:normal;font-variant:normal;font-weight:normal;font-stretch:normal;font-size:medium;line-height:normal;font-family:sans-serif;font-variant-ligatures:normal;font-variant-position:normal;font-variant-caps:normal;font-variant-numeric:normal;font-variant-alternates:normal;font-variant-east-asian:normal;font-feature-settings:normal;font-variation-settings:normal;text-indent:0;text-align:start;text-decoration:none;text-decoration-line:none;text-decoration-style:solid;text-decoration-color:#000000;letter-spacing:normal;word-spacing:normal;text-transform:none;writing-mode:lr-tb;direction:ltr;text-orientation:mixed;dominant-baseline:auto;baseline-shift:baseline;text-anchor:start;white-space:normal;shape-padding:0;shape-margin:0;inline-size:0;clip-rule:nonzero;display:inline;overflow:visible;visibility:visible;isolation:auto;mix-blend-mode:normal;color-interpolation:sRGB;color-interpolation-filters:linearRGB;solid-color:#000000;solid-opacity:1;vector-effect:none;fill:#525054;fill-opacity:1;fill-rule:nonzero;stroke:none;stroke-width:0;stroke-linecap:round;stroke-linejoin:round;stroke-miterlimit:4;stroke-dasharray:none;stroke-dashoffset:2.1875;stroke-opacity:1;color-rendering:auto;image-rendering:auto;shape-rendering:auto;text-rendering:auto;enable-background:accumulate;stop-color:#000000"
       d="m 2.6467488,0.92604168 c -0.9458351,0 -1.72070712,0.77291142 -1.72070712,1.71887622 V 14.288416 c 0,0.945965 0.77487202,1.718876 1.72070712,1.718876 H 14.286585 c 0.945835,0 1.720707,-0.772911 1.720707,-1.718876 V 2.6449179 c 0,-0.9459648 -0.774872,-1.71887622 -1.720707,-1.71887622 z m 0,0.79328702 H 14.286585 c 0.519856,0 0.927529,0.4056618 0.927529,0.9255892 V 14.288416 c 0,0.519927 -0.407673,0.926105 -0.927529,0.926105 H 2.6467488 c -0.5198559,0 -0.9254622,-0.406178 -0.9254622,-0.926105 V 2.6449179 c 0,-0.5199274 0.4056063,-0.9255892 0.9254622,-0.9255892 z" />
    <rect
       style="fill:url(#linearGradient1940);fill-opacity:1;stroke-width:0;stroke-linecap:round;stroke-linejoin:round;stroke-dashoffset:2.1875"
       id="rect831-9-3-6"
       width="14.2875"
       height="14.2875"
       x="1.3229151"
       y="1.3229166"
       rx="1.3229167"
       ry="1.3229167" />
    <path
       id="rect831-360-6-7-7-6-2"
       style="color:#000000;font-style:normal;font-variant:normal;font-weight:normal;font-stretch:normal;font-size:medium;line-height:normal;font-family:sans-serif;font-variant-ligatures:normal;font-variant-position:normal;font-variant-caps:normal;font-variant-numeric:normal;font-variant-alternates:normal;font-variant-east-asian:normal;font-feature-settings:normal;font-variation-settings:normal;text-indent:0;text-align:start;text-decoration:none;text-decoration-line:none;text-decoration-style:solid;text-decoration-color:#000000;letter-spacing:normal;word-spacing:normal;text-transform:none;writing-mode:lr-tb;direction:ltr;text-orientation:mixed;dominant-baseline:auto;baseline-shift:baseline;text-anchor:start;white-space:normal;shape-padding:0;shape-margin:0;inline-size:0;clip-rule:nonzero;display:inline;overflow:visible;visibility:visible;opacity:0.15;isolation:auto;mix-blend-mode:normal;color-interpolation:sRGB;color-interpolation-filters:linearRGB;solid-color:#000000;solid-opacity:1;vector-effect:none;fill:#333234;fill-opacity:1;fill-rule:nonzero;stroke:none;stroke-width:0;stroke-linecap:round;stroke-linejoin:round;stroke-miterlimit:4;stroke-dasharray:none;stroke-dashoffset:2.1875;stroke-opacity:1;color-rendering:auto;image-rendering:auto;shape-rendering:auto;text-rendering:auto;enable-background:accumulate;stop-color:#000000"
       d="m 2.6467488,0.92604168 c -0.9458352,0 -1.72070712,0.77291142 -1.72070712,1.71887622 V 14.288416 c 0,0.945965 0.77487192,1.718876 1.72070712,1.718876 H 14.286585 c 0.945835,0 1.720707,-0.772911 1.720707,-1.718876 V 2.6449179 c 0,-0.9459648 -0.774872,-1.71887622 -1.720707,-1.71887622 z m 0,0.79328702 H 14.286585 c 0.519856,0 0.927529,0.4056618 0.927529,0.9255892 V 14.288416 c 0,0.519927 -0.407673,0.926105 -0.927529,0.926105 H 2.6467488 c -0.5198586,0 -0.9254623,-0.406178 -0.9254623,-0.926105 V 2.6449179 c 0,-0.5199274 0.4056037,-0.9255892 0.9254623,-0.9255892 z" />
    <path
       id="rect3612-4-1-6-0-67-7-5-6-6-92-61"
       style="display:inline;opacity:0.25;fill:#333234;fill-opacity:1;stroke:none;stroke-width:0;stroke-linecap:round;stroke-linejoin:round;stroke-miterlimit:4;stroke-dasharray:none;stroke-dashoffset:2.1875;stroke-opacity:1"
       d="m 11.549257,11.266109 c 0.04638,-0.0041 0.09124,-0.02606 0.123633,-0.06466 v -2.65e-4 l 2.573868,-3.064963 v -2.64e-4 c 0.0049,-0.0059 0.0069,-0.01342 0.0111,-0.01955 0,0 0,-2.64e-4 0,-2.64e-4 0.0064,-0.0098 0.012,-0.01921 0.01637,-0.02984 0,0 0,-2.65e-4 0,-2.65e-4 0.0045,-0.01087 0.0075,-0.02138 0.0096,-0.03268 0,0 0,-2.65e-4 0,-2.65e-4 0.0024,-0.0114 0.0035,-0.02249 0.0036,-0.03411 0,-0.01162 -0.0018,-0.0227 -0.0036,-0.03411 0,0 0,-2.64e-4 0,-2.64e-4 -0.0022,-0.0113 -0.0053,-0.02186 -0.0096,-0.03268 0,0 0,-2.65e-4 0,-2.65e-4 -0.0044,-0.01053 -0.01,-0.02011 -0.01637,-0.02984 0,0 0,-2.65e-4 0,-2.65e-4 -0.004,-0.0063 -0.006,-0.01341 -0.0111,-0.01953 0,0 0,-2.64e-4 0,-2.64e-4 L 11.67289,4.8367925 v -2.646e-4 c -0.03239,-0.038597 -0.07727,-0.060172 -0.123633,-0.064302 -0.04636,-0.00413 -0.09424,0.00918 -0.132855,0.041566 l -0.557759,0.4678972 c 0,0 0,2.645e-4 0,2.645e-4 -0.01924,0.01614 -0.03436,0.035208 -0.04513,0.056134 0,0 0,2.646e-4 0,2.646e-4 -0.01073,0.020902 -0.0171,0.043765 -0.01919,0.066789 0,0 0,2.646e-4 0,2.646e-4 -0.002,0.023045 0,0.046453 0.0071,0.068924 0,0 0,2.646e-4 0,2.646e-4 0.0069,0.022463 0.01872,0.043648 0.03482,0.062884 v 2.645e-4 L 11.567,6.4081639 H 8.1028438 c -0.1007689,0 -0.1818936,0.081134 -0.1818936,0.1819011 v 0.6366536 c 0,0.1007745 0.081125,0.1819004 0.1818936,0.1819004 h 4.3043502 l 0.512285,0.610365 -0.512285,0.610362 H 8.4666314 v 1.000456 h 3.1003776 l -0.730776,0.870426 c 0,0 0,2.65e-4 0,2.65e-4 -0.01619,0.01921 -0.02783,0.04077 -0.03482,0.06324 0,0 0,2.64e-4 0,2.64e-4 -0.0069,0.02246 -0.0091,0.04589 -0.0071,0.06892 0,0 0,2.65e-4 0,2.65e-4 0.002,0.02302 0.0085,0.04551 0.01917,0.06643 0,0 0,2.64e-4 0,2.64e-4 0.01073,0.02093 0.02592,0.03998 0.04513,0.05613 0,0 0,2.64e-4 0,2.64e-4 l 0.557759,0.467897 c 0.03862,0.03238 0.08649,0.04606 0.132855,0.04193 z" />
    <path
       id="rect3612-4-1-6-0-67-7-5-6-6-8"
       style="display:inline;fill:#c3c3c6;fill-opacity:1;stroke:none;stroke-width:0;stroke-linecap:round;stroke-linejoin:round;stroke-miterlimit:4;stroke-dasharray:none;stroke-dashoffset:2.1875;stroke-opacity:1"
       d="m 11.549257,10.604651 c 0.04638,-0.0041 0.09124,-0.02606 0.123633,-0.06466 v -2.64e-4 L 14.246758,7.474764 V 7.4745 c 0.0049,-0.0059 0.0069,-0.01342 0.0111,-0.01955 0,0 0,-2.65e-4 0,-2.65e-4 0.0064,-0.0098 0.012,-0.01921 0.01637,-0.02984 0,0 0,-2.64e-4 0,-2.64e-4 0.0045,-0.01088 0.0075,-0.02138 0.0096,-0.03268 0,0 0,-2.65e-4 0,-2.65e-4 0.0024,-0.0114 0.0035,-0.02249 0.0036,-0.03411 0,-0.01162 -0.0018,-0.022702 -0.0036,-0.034105 0,0 0,-2.646e-4 0,-2.646e-4 -0.0022,-0.011298 -0.0053,-0.021855 -0.0096,-0.032684 0,0 0,-2.646e-4 0,-2.646e-4 -0.0044,-0.01053 -0.01,-0.020108 -0.01637,-0.029845 0,0 0,-2.646e-4 0,-2.646e-4 -0.004,-0.00632 -0.006,-0.013414 -0.0111,-0.019526 0,0 0,-2.646e-4 0,-2.646e-4 L 11.67289,4.1753341 v -2.646e-4 c -0.03239,-0.038597 -0.07727,-0.060172 -0.123633,-0.064302 -0.04636,-0.00413 -0.09424,0.00918 -0.132855,0.041566 L 10.858643,4.620231 c 0,0 0,2.646e-4 0,2.646e-4 -0.01924,0.01614 -0.03436,0.035208 -0.04513,0.056134 0,0 0,2.646e-4 0,2.646e-4 -0.01073,0.020902 -0.0171,0.043765 -0.01919,0.066789 0,0 0,2.645e-4 0,2.645e-4 -0.002,0.023045 0,0.046453 0.0071,0.068924 0,0 0,2.646e-4 0,2.646e-4 0.0069,0.022463 0.01872,0.043648 0.03482,0.062883 v 2.646e-4 L 11.567,5.7467049 H 8.1028438 c -0.1007689,0 -0.1818936,0.081134 -0.1818936,0.181901 v 0.6366537 c 0,0.1007745 0.081125,0.181901 0.1818936,0.181901 H 12.407194 L 12.919479,7.357526 12.407194,7.967888 H 8.4666314 V 8.968343 H 11.567009 L 10.836233,9.83877 c 0,0 0,2.64e-4 0,2.64e-4 -0.01619,0.01921 -0.02783,0.04077 -0.03482,0.06324 0,0 0,2.64e-4 0,2.64e-4 -0.0069,0.02246 -0.0091,0.04589 -0.0071,0.06892 0,0 0,2.65e-4 0,2.65e-4 0.002,0.02302 0.0085,0.04551 0.01917,0.06643 0,0 0,2.65e-4 0,2.65e-4 0.01073,0.02093 0.02592,0.03998 0.04513,0.05613 0,0 0,2.65e-4 0,2.65e-4 l 0.557759,0.467897 c 0.03862,0.03238 0.08649,0.04606 0.132855,0.04193 z" />
    <path
       id="rect3612-4-1-6-0-67-7-5-6-6-2-7-7"
       style="color:#000000;font-style:normal;font-variant:normal;font-weight:normal;font-stretch:normal;font-size:medium;line-height:normal;font-family:sans-serif;font-variant-ligatures:normal;font-variant-position:normal;font-variant-caps:normal;font-variant-numeric:normal;font-variant-alternates:normal;font-variant-east-asian:normal;font-feature-settings:normal;font-variation-settings:normal;text-indent:0;text-align:start;text-decoration:none;text-decoration-line:none;text-decoration-style:solid;text-decoration-color:#000000;letter-spacing:normal;word-spacing:normal;text-transform:none;writing-mode:lr-tb;direction:ltr;text-orientation:mixed;dominant-baseline:auto;baseline-shift:baseline;text-anchor:start;white-space:normal;shape-padding:0;shape-margin:0;inline-size:0;clip-rule:nonzero;display:inline;overflow:visible;visibility:visible;isolation:auto;mix-blend-mode:normal;color-interpolation:sRGB;color-interpolation-filters:linearRGB;solid-color:#000000;solid-opacity:1;vector-effect:none;fill:#555558;fill-opacity:1;fill-rule:nonzero;stroke:none;stroke-width:0.26458;stroke-linecap:round;stroke-linejoin:round;stroke-miterlimit:4;stroke-dasharray:none;stroke-dashoffset:2.1875;stroke-opacity:1;color-rendering:auto;image-rendering:auto;shape-rendering:auto;text-rendering:auto;enable-background:accumulate;stop-color:#000000"
       d="m 11.560933,3.9789551 c -0.07939,-0.00706 -0.163252,0.016827 -0.229444,0.072342 a 0.1323049,0.13230133 0 0 0 -5.29e-4,0 L 10.773371,4.518956 a 0.1323049,0.13230133 0 0 0 -0.03204,0.040309 c -0.016,0.018627 -0.03439,0.035311 -0.04548,0.05684 a 0.1323049,0.13230133 0 0 0 0,5.291e-4 0.1323049,0.13230133 0 0 0 -0.01447,0.049093 c -0.007,0.02204 -0.01707,0.043632 -0.01912,0.066143 a 0.1323049,0.13230133 0 0 0 0,5.291e-4 c -0.0033,0.038383 4.7e-5,0.079629 0.01292,0.120404 0.0074,0.023971 0.02243,0.043598 0.03514,0.064593 a 0.1323049,0.13230133 0 0 0 0.02429,0.043926 l 0.548287,0.6531716 H 8.1027324 c -0.1717789,0 -0.3141927,0.1424199 -0.3141927,0.3141848 v 0.6366378 c 0,0.1717648 0.1424207,0.3141821 0.3141927,0.3141821 H 12.345368 L 12.746377,7.357494 12.345368,7.835488 H 8.4665345 A 0.1323049,0.13230133 0 0 0 8.3342428,7.967774 v 1.00043 A 0.1323049,0.13230133 0 0 0 8.4665345,9.100493 H 11.2829 l -0.548287,0.653171 a 0.1323049,0.13230133 0 0 0 -0.02429,0.04547 c -0.01253,0.02111 -0.02849,0.04102 -0.03566,0.06408 a 0.1323049,0.13230133 0 0 0 0,5.29e-4 c -0.01221,0.03969 -0.01579,0.08037 -0.0124,0.119372 0.0021,0.02371 0.01236,0.04535 0.01964,0.06769 a 0.1323049,0.13230133 0 0 0 0.01292,0.04599 0.1323049,0.13230133 0 0 0 0,5.29e-4 c 1.69e-4,2.65e-4 3.44e-4,7.94e-4 5.29e-4,0.0011 a 0.1323049,0.13230133 0 0 0 5.29e-4,5.3e-4 c 0.0109,0.02125 0.02893,0.03759 0.04444,0.0558 a 0.1323049,0.13230133 0 0 0 5.29e-4,0.0011 0.1323049,0.13230133 0 0 0 0.03256,0.04031 l 0.557589,0.468175 a 0.1323049,0.13230133 0 0 0 5.29e-4,0 c 0.06539,0.05483 0.148268,0.07904 0.227893,0.07235 5.03e-4,-4.2e-5 10e-4,4.5e-5 0.0016,0 0.0801,-0.0071 0.15772,-0.04586 0.212907,-0.111617 a 0.1323049,0.13230133 0 0 0 0.03101,-0.08475 v 0.04754 l 2.542997,-3.027641 a 0.1323049,0.13230133 0 0 0 5.29e-4,-0.0011 0.1323049,0.13230133 0 0 0 0.01757,-0.02791 0.1323049,0.13230133 0 0 0 10e-4,-0.0016 0.1323049,0.13230133 0 0 0 0.0016,-0.0026 0.1323049,0.13230133 0 0 0 0.0098,-0.0186 c 0.0059,-0.01 0.01181,-0.01865 0.01757,-0.03256 0,0 5.29e-4,-5.29e-4 5.29e-4,-5.29e-4 a 0.1323049,0.13230133 0 0 0 0.0072,-0.02582 c 0.0033,-0.01101 0.0079,-0.0227 0.0098,-0.03255 a 0.1323049,0.13230133 0 0 0 5.29e-4,-0.0041 0.1323049,0.13230133 0 0 0 5.29e-4,-0.0016 c 6.08e-4,-0.0033 5.56e-4,-0.0065 10e-4,-0.0098 a 0.1323049,0.13230133 0 0 0 5.29e-4,-0.0093 v -5.29e-4 c 0.0012,-0.01077 0.0035,-0.02188 0.0036,-0.03204 a 0.1323049,0.13230133 0 0 0 0,-0.0021 c 0,-0.022119 -0.0028,-0.036338 -0.0047,-0.047543 -9.9e-5,-5.292e-4 9.4e-5,-0.00212 0,-0.00265 A 0.1323049,0.13230133 0 0 0 14.41342,7.29798 C 14.41112,7.286047 14.40682,7.274644 14.40309,7.262843 a 0.1323049,0.13230133 0 0 0 -0.0052,-0.0186 0.1323049,0.13230133 0 0 0 -10e-4,-0.0031 0.1323049,0.13230133 0 0 0 -5.3e-4,-0.00159 c -0.0061,-0.014684 -0.01273,-0.0245 -0.01912,-0.035142 a 0.1323049,0.13230133 0 0 0 -0.0078,-0.014975 c 4.23e-4,7.938e-4 -0.0014,-0.00212 -0.001,-0.00159 7.41e-4,0.00106 -0.0026,-0.00368 -0.0021,-0.0031 a 0.1323049,0.13230133 0 0 0 -0.01757,-0.0279 0.1323049,0.13230133 0 0 0 -10e-4,-0.00159 L 11.804947,4.127013 V 4.175072 A 0.1323049,0.13230133 0 0 0 11.773937,4.08981 C 11.718478,4.0237305 11.640439,3.9857813 11.561034,3.978709 Z m -0.0016,6.7575429 -0.04651,-0.0047 a 0.1323049,0.13230133 0 0 0 0.04651,0.0047 z M 10.674632,9.863707 a 0.1323049,0.13230133 0 0 0 -0.0057,0.03876 z m 5.29e-4,-5.0109284 -0.0062,-0.039275 a 0.1323049,0.13230133 0 0 0 0.0057,0.038759 c 0,0 5.29e-4,5.291e-4 5.29e-4,5.291e-4 z M 11.537162,4.242496 c 0.01308,0.00106 0.02436,0.00635 0.03359,0.017039 0,0 5.29e-4,5.292e-4 5.29e-4,5.292e-4 a 0.1323049,0.13230133 0 0 0 0,5.292e-4 l 2.542998,3.0281563 v -0.048056 a 0.1323049,0.13230133 0 0 0 0.02274,0.073895 0.1323049,0.13230133 0 0 0 10e-4,0.00106 0.1323049,0.13230133 0 0 0 0.0026,0.00466 c -0.0057,-0.00688 -0.0047,-0.00524 0.0047,0.00931 3.44e-4,5.292e-4 1.49e-4,5.292e-4 5.29e-4,0.00106 0,0 0,5.291e-4 0,5.291e-4 a 0.1323049,0.13230133 0 0 0 10e-4,0.00159 c 0.0037,0.00566 0.0046,0.00709 0.0047,0.00722 10e-6,2.11e-5 5.29e-4,0.00106 5.02e-4,0.00106 9.79e-4,0.00265 0.001,0.00434 0.0016,0.00722 5.82e-4,0.0044 0.0015,0.0091 0.0016,0.0083 2e-6,-1.01e-4 0,0.0013 0,0.0011 -1.27e-4,0.0029 -5.82e-4,0.0056 -0.001,0.0078 a 0.1323049,0.13230133 0 0 0 0,0.0016 0.1323049,0.13230133 0 0 0 -5.29e-4,0.0011 c -6.08e-4,0.003 -0.0011,0.0045 -0.0016,0.0057 a 0.1323049,0.13230133 0 0 0 -5.02e-4,0.0011 c 3.7e-4,-0.0011 -8.7e-5,7.94e-4 -0.0047,0.0078 a 0.1323049,0.13230133 0 0 0 -0.0093,0.0181 0.1323049,0.13230133 0 0 0 -0.02325,0.07389 v -0.04754 l -2.542997,3.0281572 c -0.0096,0.01143 -0.02144,0.01696 -0.03411,0.0181 -0.01247,0.0011 -0.02437,-0.0021 -0.03566,-0.01138 h -5.29e-4 L 10.99096,10.03345 v 0.06149 A 0.1323049,0.13230133 0 0 0 10.94342,9.993657 c -0.0059,-0.005 -0.0094,-0.0099 -0.01188,-0.01447 0,0 0,-5.29e-4 0,-5.29e-4 -0.0032,-0.0063 -0.0052,-0.01238 -0.0057,-0.0181 a 0.1323049,0.13230133 0 0 0 0,-5.3e-4 c -6.08e-4,-0.0071 4.5e-4,-0.01336 0.0021,-0.0186 a 0.1323049,0.13230133 0 0 0 0,-5.29e-4 c 0.0018,-0.0053 0.0047,-0.01106 0.0093,-0.01654 a 0.1323049,0.13230133 0 0 0 0.03101,-0.08526 v 0.04806 l 0.700216,-0.83352 A 0.1323049,0.13230133 0 0 0 11.566635,8.836094 H 8.5988407 V 8.10024 h 3.8080363 a 0.1323049,0.13230133 0 0 0 0.101286,-0.04703 l 0.51263,-0.61028 a 0.1323049,0.13230133 0 0 0 0,-0.1700106 l -0.51263,-0.6102826 a 0.1323049,0.13230133 0 0 0 -0.101286,-0.04754 h -4.30413 c -0.029766,0 -0.049609,-0.019844 -0.049609,-0.049607 V 5.9288549 c 0,-0.029763 0.019852,-0.049607 0.049609,-0.049607 h 3.463871 A 0.1323049,0.13230133 0 0 0 11.667904,5.6622105 L 10.968205,4.8286909 v 0.047543 a 0.1323049,0.13230133 0 0 0 -0.03049,-0.084746 c -0.0058,-0.00699 -0.0085,-0.012727 -0.0098,-0.017039 a 0.1323049,0.13230133 0 0 0 -5.3e-4,-0.00106 c -0.0013,-0.00415 -0.0022,-0.00987 -0.0016,-0.017568 6.09e-4,-0.0068 0.0026,-0.01315 0.0052,-0.018098 0.0027,-0.00521 0.0063,-0.010398 0.0124,-0.015504 a 0.1323049,0.13230133 0 0 0 0.04754,-0.096115 v 0.056327 L 11.501481,4.254045 c 0.01104,-0.00926 0.02232,-0.012568 0.03566,-0.011377 z" />
    <path
       id="rect3612-4-1-6-0-67-7-5-3-5-9"
       style="display:inline;opacity:0.25;fill:#333234;fill-opacity:1;stroke:none;stroke-width:0;stroke-linecap:round;stroke-linejoin:round;stroke-miterlimit:4;stroke-dasharray:none;stroke-dashoffset:2.1875;stroke-opacity:1"
       d="m 5.3840801,6.9902151 c -0.046383,0.00413 -0.091238,0.026061 -0.1236329,0.064659 v 2.646e-4 l -2.573868,3.0649653 v 2.64e-4 c -0.00491,0.0059 -0.00691,0.01344 -0.011097,0.01953 0,0 0,2.64e-4 0,2.64e-4 -0.00637,0.0097 -0.012004,0.01921 -0.01637,0.02984 0,0 0,2.65e-4 0,2.65e-4 -0.00455,0.01087 -0.00746,0.02138 -0.00964,0.03268 0,0 0,2.64e-4 0,2.64e-4 -0.00235,0.0114 -0.00346,0.02249 -0.00364,0.03411 0,0.01161 0.00183,0.0227 0.00364,0.03411 0,0 0,2.65e-4 0,2.65e-4 0.00217,0.01127 0.00528,0.02185 0.00964,0.03268 0,0 0,2.64e-4 0,2.64e-4 0.00437,0.01053 0.010004,0.02011 0.01637,0.02984 0,0 0,2.65e-4 0,2.65e-4 0.004,0.0063 0.006,0.01341 0.011097,0.01955 0,0 0,2.64e-4 0,2.64e-4 l 2.573868,3.064963 v 2.64e-4 c 0.032395,0.0386 0.07725,0.06017 0.1236329,0.0643 0.046365,0.0041 0.094239,-0.0092 0.1328553,-0.04157 L 6.074694,12.974619 c 0,0 0,-2.65e-4 0,-2.65e-4 0.019243,-0.01614 0.03436,-0.03521 0.045128,-0.05613 0,0 0,-2.64e-4 0,-2.64e-4 0.010732,-0.0209 0.017097,-0.04377 0.01919,-0.06679 0,0 0,-2.64e-4 0,-2.64e-4 0.00201,-0.02305 0,-0.04645 -0.00709,-0.06892 0,0 0,-2.65e-4 0,-2.65e-4 -0.00691,-0.02246 -0.018717,-0.04365 -0.034814,-0.06288 v -2.65e-4 L 5.3663464,11.848161 H 8.830493 c 0.1007689,0 0.1818936,-0.08113 0.1818936,-0.181901 v -0.636654 c 0,-0.100774 -0.081125,-0.181901 -0.1818936,-0.181901 H 4.5261433 L 4.0138578,10.237341 4.5261433,9.626979 H 8.4667054 V 8.626523 H 5.3663282 l 0.730776,-0.870426 c 0,0 0,-2.65e-4 0,-2.65e-4 0.01619,-0.01921 0.02783,-0.04077 0.034814,-0.06324 0,0 0,-2.65e-4 0,-2.65e-4 0.00691,-0.02246 0.00909,-0.04589 0.00709,-0.06893 0,0 0,-2.64e-4 0,-2.64e-4 -0.00201,-0.02302 -0.00855,-0.04551 -0.019172,-0.06643 0,0 0,-2.64e-4 0,-2.64e-4 -0.010732,-0.02093 -0.025921,-0.03998 -0.045128,-0.05613 0,0 0,-2.65e-4 0,-2.65e-4 L 5.5169539,7.0321383 C 5.4783377,6.9997639 5.4304634,6.9860823 5.3840801,6.9902151 Z" />
    <path
       id="rect3612-4-1-6-0-67-7-5-3-20"
       style="display:inline;fill:#13af8e;fill-opacity:1;stroke:none;stroke-width:0;stroke-linecap:round;stroke-linejoin:round;stroke-miterlimit:4;stroke-dasharray:none;stroke-dashoffset:2.1875;stroke-opacity:1"
       d="m 5.3840801,6.328688 c -0.046383,0.00413 -0.091238,0.026061 -0.1236329,0.064659 v 2.646e-4 L 2.6865792,9.458577 v 2.64e-4 c -0.00491,0.0059 -0.00691,0.01344 -0.011097,0.01953 0,0 0,2.65e-4 0,2.65e-4 -0.00637,0.0097 -0.012004,0.01921 -0.01637,0.02984 0,0 0,2.65e-4 0,2.65e-4 -0.00455,0.01087 -0.00746,0.02138 -0.00964,0.03268 0,0 0,2.64e-4 0,2.64e-4 -0.00235,0.0114 -0.00346,0.02249 -0.00364,0.03411 0,0.01162 0.00183,0.0227 0.00364,0.03411 0,0 0,2.65e-4 0,2.65e-4 0.00217,0.01127 0.00528,0.02185 0.00964,0.03268 0,0 0,2.64e-4 0,2.64e-4 0.00437,0.01053 0.010004,0.02011 0.01637,0.02984 0,0 0,2.65e-4 0,2.65e-4 0.004,0.0063 0.006,0.01341 0.011097,0.01955 0,0 0,2.65e-4 0,2.65e-4 l 2.573868,3.064963 v 2.64e-4 c 0.032395,0.0386 0.07725,0.06017 0.1236329,0.0643 0.046365,0.0041 0.094239,-0.0092 0.1328553,-0.04157 L 6.074694,12.313094 c 0,0 0,-2.65e-4 0,-2.65e-4 0.019243,-0.01614 0.03436,-0.03521 0.045128,-0.05613 0,0 0,-2.64e-4 0,-2.64e-4 0.010732,-0.0209 0.017097,-0.04377 0.01919,-0.06679 0,0 0,-2.64e-4 0,-2.64e-4 0.00201,-0.02305 0,-0.04645 -0.00709,-0.06892 0,0 0,-2.65e-4 0,-2.65e-4 -0.00691,-0.02246 -0.018717,-0.04365 -0.034814,-0.06288 v -2.64e-4 L 5.3663464,11.186634 H 8.830493 c 0.1007689,0 0.1818936,-0.08113 0.1818936,-0.181901 v -0.636654 c 0,-0.100774 -0.081125,-0.181901 -0.1818936,-0.181901 H 4.5261433 L 4.0138578,9.575813 4.5261433,8.965451 H 8.4667054 V 7.964996 H 5.3663282 l 0.730776,-0.8704266 c 0,0 0,-2.646e-4 0,-2.646e-4 0.01619,-0.019209 0.02783,-0.040767 0.034814,-0.063243 0,0 0,-2.646e-4 0,-2.646e-4 0.00691,-0.022463 0.00909,-0.045892 0.00709,-0.068927 0,0 0,-2.646e-4 0,-2.646e-4 -0.00201,-0.023019 -0.00855,-0.045506 -0.019172,-0.066432 0,0 0,-2.646e-4 0,-2.646e-4 C 6.1091042,6.87398 6.0939152,6.85493 6.0747082,6.838775 c 0,0 0,-2.645e-4 0,-2.645e-4 L 5.5169539,6.3706112 C 5.4783377,6.3382368 5.4304634,6.3245552 5.3840801,6.328688 Z" />
    <path
       id="rect3612-4-1-6-0-67-7-5-3-0-3-2"
       style="color:#000000;font-style:normal;font-variant:normal;font-weight:normal;font-stretch:normal;font-size:medium;line-height:normal;font-family:sans-serif;font-variant-ligatures:normal;font-variant-position:normal;font-variant-caps:normal;font-variant-numeric:normal;font-variant-alternates:normal;font-variant-east-asian:normal;font-feature-settings:normal;font-variation-settings:normal;text-indent:0;text-align:start;text-decoration:none;text-decoration-line:none;text-decoration-style:solid;text-decoration-color:#000000;letter-spacing:normal;word-spacing:normal;text-transform:none;writing-mode:lr-tb;direction:ltr;text-orientation:mixed;dominant-baseline:auto;baseline-shift:baseline;text-anchor:start;white-space:normal;shape-padding:0;shape-margin:0;inline-size:0;clip-rule:nonzero;display:inline;overflow:visible;visibility:visible;isolation:auto;mix-blend-mode:normal;color-interpolation:sRGB;color-interpolation-filters:linearRGB;solid-color:#000000;solid-opacity:1;vector-effect:none;fill:#0c6e5a;fill-opacity:1;fill-rule:nonzero;stroke:none;stroke-width:0.264577;stroke-linecap:round;stroke-linejoin:round;stroke-miterlimit:4;stroke-dasharray:none;stroke-dashoffset:2.1875;stroke-opacity:1;color-rendering:auto;image-rendering:auto;shape-rendering:auto;text-rendering:auto;enable-background:accumulate;stop-color:#000000"
       d="m 5.3723141,6.196608 c -0.080098,0.00712 -0.1577197,0.045865 -0.212907,0.1116145 a 0.1323049,0.13229881 0 0 0 -0.031006,0.084749 V 6.3454285 L 2.5854041,9.373013 a 0.1323049,0.13229881 0 0 0 -5.292e-4,0.0011 0.1323049,0.13229881 0 0 0 -0.018087,0.02894 0.1323049,0.13229881 0 0 0 -0.00206,0.0031 v 5.3e-4 c -2.627e-4,5.29e-4 -7.672e-4,0.0011 -0.00103,0.0016 a 0.1323049,0.13229881 0 0 0 -0.00878,0.01654 c -0.00597,0.01005 -0.011824,0.01868 -0.017571,0.03255 0,0 -5.291e-4,5.29e-4 -5.291e-4,5.29e-4 a 0.1323049,0.13229881 0 0 0 -0.00723,0.02585 c -0.00334,0.01101 -0.00792,0.0227 -0.00982,0.03255 l -5.292e-4,0.0041 c -9.68e-5,5.29e-4 9.37e-5,0.0011 0,0.0016 a 0.1323049,0.13229881 0 0 0 -0.00206,0.01913 v 5.29e-4 c -0.00122,0.01077 -0.00346,0.02188 -0.00362,0.03204 a 0.1323049,0.13229881 0 0 0 0,0.0021 c 0,0.02212 0.00281,0.03634 0.00465,0.04754 a 0.1323049,0.13229881 0 0 0 5.291e-4,0.0047 c 8.87e-5,5.3e-4 -8.09e-5,0.0021 0,0.0026 a 0.1323049,0.13229881 0 0 0 0.00103,0.0047 c 0.00228,0.01188 0.00657,0.02334 0.010335,0.03514 a 0.1323049,0.13229881 0 0 0 0.00517,0.01913 c 3.44e-4,7.93e-4 6.88e-4,0.0019 0.00103,0.0026 a 0.1323049,0.13229881 0 0 0 5.292e-4,0.0016 c 0.00608,0.01466 0.012732,0.0245 0.019121,0.03514 a 0.1323049,0.13229881 0 0 0 0.00775,0.01498 c 2.646e-4,5.29e-4 7.673e-4,0.0011 0.00103,0.0016 -7.408e-4,-0.0011 0.00257,0.0037 0.00206,0.0031 a 0.1323049,0.13229881 0 0 0 0.017571,0.0279 0.1323049,0.13229881 0 0 0 5.292e-4,5.3e-4 c 0,0 0,5.29e-4 0,5.29e-4 a 0.1323049,0.13229881 0 0 0 5.292e-4,5.29e-4 l 2.5429972,3.028098 v -0.04806 a 0.1323049,0.13229881 0 0 0 0.031006,0.08526 c 0.055448,0.06606 0.1334903,0.104032 0.2129071,0.111099 0.079394,0.0071 0.1637681,-0.01683 0.22996,-0.07234 L 6.1598787,12.41447 a 0.1323049,0.13229881 0 0 0 0.032039,-0.0403 c 0.016002,-0.01863 0.034395,-0.03531 0.045475,-0.05685 a 0.1323049,0.13229881 0 0 0 0,-5.29e-4 0.1323049,0.13229881 0 0 0 0.01447,-0.04909 c 0.00696,-0.02204 0.017074,-0.04363 0.019121,-0.06614 a 0.1323049,0.13229881 0 0 0 0,-5.29e-4 c 0.00335,-0.03838 -4.71e-5,-0.07963 -0.01292,-0.120401 -0.0073,-0.02352 -0.02223,-0.04237 -0.034623,-0.06304 a 0.1323049,0.13229881 0 0 0 -0.024805,-0.04496 0.1323049,0.13229881 0 0 0 0,-5.29e-4 l -0.548287,-0.653161 h 3.1801676 c 0.1717792,0 0.3141927,-0.142417 0.3141927,-0.314179 v -0.636625 c 0,-0.171762 -0.1424207,-0.314177 -0.3141927,-0.314177 H 4.587883 L 4.1868739,9.57597 4.587883,9.097987 H 8.466716 A 0.1323049,0.13229881 0 0 0 8.5990077,8.9657 V 7.965289 A 0.1323049,0.13229881 0 0 0 8.466716,7.833006 H 5.6503505 l 0.548287,-0.6531614 a 0.1323049,0.13229881 0 0 0 0.024289,-0.044439 c 0.012779,-0.021378 0.028386,-0.041714 0.035657,-0.065109 a 0.1323049,0.13229881 0 0 0 0,-5.292e-4 c 0.012211,-0.03969 0.015788,-0.080372 0.012401,-0.1193668 -0.00206,-0.023654 -0.012396,-0.044897 -0.019637,-0.067178 a 0.1323049,0.13229881 0 0 0 -0.013436,-0.048572 c -0.011031,-0.021511 -0.02972,-0.037925 -0.045475,-0.056327 a 0.1323049,0.13229881 0 0 0 -5.291e-4,-0.00106 0.1323049,0.13229881 0 0 0 -0.032039,-0.039788 L 5.6022786,6.2693102 c -0.065806,-0.055168 -0.1498537,-0.079484 -0.22996,-0.072345 z m 0.8862508,0.8727757 a 0.1323049,0.13229881 0 0 0 0.00568,-0.038759 z m -5.292e-4,5.0108323 0.0062,0.03979 a 0.1323049,0.13229881 0 0 0 -0.00567,-0.03927 c 0,0 -5.292e-4,-5.29e-4 -5.292e-4,-5.29e-4 z M 5.3960726,6.4601436 c 0.01266,-0.00106 0.024747,0.00238 0.036174,0.01188 l 0.5100466,0.427863 v -0.061492 a 0.1323049,0.13229881 0 0 0 0.047542,0.1012799 c 0.00617,0.00519 0.00992,0.010239 0.012401,0.014975 0,0 0,5.292e-4 0,5.292e-4 0.00306,0.00616 0.00468,0.012012 0.00517,0.017568 a 0.1323049,0.13229881 0 0 0 0,5.292e-4 c 6.085e-4,0.00706 -4.498e-4,0.013361 -0.00206,0.0186 a 0.1323049,0.13229881 0 0 0 0,5.292e-4 c -0.00177,0.00529 -0.00469,0.01106 -0.0093,0.016536 a 0.1323049,0.13229881 0 0 0 -0.031006,0.085262 V 7.046148 L 5.2653413,7.879652 A 0.1323049,0.13229881 0 0 0 5.366627,8.097197 H 8.3344046 V 8.833035 H 4.5263592 a 0.1323049,0.13229881 0 0 0 -0.101286,0.04702 L 3.912443,9.490327 a 0.1323049,0.13229881 0 0 0 0,0.170008 l 0.5126302,0.610785 a 0.1323049,0.13229881 0 0 0 0.101286,0.04702 h 4.3041301 c 0.029766,0 0.049609,0.01984 0.049609,0.04961 v 0.636624 c 0,0.02977 -0.019852,0.04961 -0.049609,0.04961 H 5.3666179 a 0.1323049,0.13229881 0 0 0 -0.1012857,0.217551 l 0.6996989,0.833501 v -0.04806 a 0.1323049,0.13229881 0 0 0 0.030489,0.08475 c 0.00585,0.007 0.00849,0.0127 0.00982,0.01704 a 0.1323049,0.13229881 0 0 0 5.291e-4,0.0011 c 0.00132,0.0042 0.00222,0.0099 0.00156,0.01757 -6.086e-4,0.0068 -0.00262,0.01315 -0.00517,0.0181 a 0.1323049,0.13229881 0 0 0 0,5.29e-4 0.1323049,0.13229881 0 0 0 -5.291e-4,5.29e-4 c -0.00266,0.005 -0.00604,0.0096 -0.011885,0.01447 a 0.1323049,0.13229881 0 0 0 -0.047542,0.09611 v -0.05632 L 5.4322565,12.67923 c -0.011041,0.0093 -0.022836,0.01257 -0.036174,0.01138 -0.013108,-0.0011 -0.024344,-0.0063 -0.03359,-0.01704 0,0 -5.291e-4,-5.29e-4 -5.291e-4,-5.29e-4 a 0.1323049,0.13229881 0 0 0 0,-5.29e-4 L 2.8189814,9.644301 v 0.04806 a 0.1323049,0.13229881 0 0 0 -0.022738,-0.0739 0.1323049,0.13229881 0 0 0 -0.00103,-0.0011 0.1323049,0.13229881 0 0 0 -0.00156,-0.0031 c 0.00693,0.0086 0.00678,0.0088 -0.00568,-0.01085 a 0.1323049,0.13229881 0 0 0 -5.292e-4,-0.0011 0.1323049,0.13229881 0 0 0 -0.00103,-0.0021 c -0.0037,-0.0057 -0.00457,-0.0071 -0.00465,-0.0072 0,0 0,-5.3e-4 0,-5.3e-4 0,0 -5.292e-4,-5.29e-4 -5.292e-4,-5.29e-4 -9.79e-4,-0.0026 -9.79e-4,-0.0043 -0.00156,-0.0072 -5.82e-4,-0.0044 -0.00153,-0.0091 -0.00156,-0.0083 -1.8e-6,1.01e-4 0,-0.0013 0,-0.0011 1.299e-4,-0.0028 5.821e-4,-0.0051 0.00103,-0.0072 a 0.1323049,0.13229881 0 0 0 5.291e-4,-0.0021 c 9.261e-4,-0.0048 9.525e-4,-0.0053 0.00156,-0.0067 a 0.1323049,0.13229881 0 0 0 5.292e-4,-0.0011 c -3.44e-4,7.94e-4 2.108e-4,-0.0011 0.00465,-0.0078 a 0.1323049,0.13229881 0 0 0 0.0093,-0.01707 0.1323049,0.13229881 0 0 0 0.023254,-0.0739 v 0.04651 L 5.3619602,6.4785586 a 0.1323049,0.13229881 0 0 0 0,-5.292e-4 l 5.291e-4,-5.292e-4 c 0.0095,-0.011033 0.021151,-0.016457 0.03359,-0.017568 z" />
  </g>
</svg>
