<?xml version="1.0" encoding="UTF-8" standalone="no"?>
<svg
   xmlns:dc="http://purl.org/dc/elements/1.1/"
   xmlns:cc="http://creativecommons.org/ns#"
   xmlns:rdf="http://www.w3.org/1999/02/22-rdf-syntax-ns#"
   xmlns:svg="http://www.w3.org/2000/svg"
   xmlns="http://www.w3.org/2000/svg"
   xmlns:xlink="http://www.w3.org/1999/xlink"
   xmlns:sodipodi="http://sodipodi.sourceforge.net/DTD/sodipodi-0.dtd"
   xmlns:inkscape="http://www.inkscape.org/namespaces/inkscape"
   width="64"
   height="64"
   viewBox="0 0 64 64"
   version="1.1"
   id="svg6374"
   inkscape:version="1.0.2 (e86c870879, 2021-01-15)"
   sodipodi:docname="offline.svg">
  <defs
     id="defs6368">
    <linearGradient
       inkscape:collect="always"
       xlink:href="#linearGradient2763-6"
       id="linearGradient3134-2"
       gradientUnits="userSpaceOnUse"
       gradientTransform="matrix(3.7795275,0,0,3.7795275,4.1e-4,-99.9996)"
       x1="8.5109396"
       y1="38.402672"
       x2="8.598959"
       y2="29.104166" />
    <linearGradient
       inkscape:collect="always"
       id="linearGradient2763-6">
      <stop
         style="stop-color:#f6f6f6;stop-opacity:0"
         offset="0"
         id="stop2759-7" />
      <stop
         style="stop-color:#fcfcfc;stop-opacity:0.749"
         offset="1"
         id="stop2761-5" />
    </linearGradient>
  </defs>
  <sodipodi:namedview
     id="base"
     pagecolor="#cecece"
     bordercolor="#666666"
     borderopacity="1.0"
     inkscape:pageopacity="0"
     inkscape:pageshadow="2"
     inkscape:zoom="6.5268324"
     inkscape:cx="3.8865493"
     inkscape:cy="38.003018"
     inkscape:document-units="px"
     inkscape:current-layer="layer1"
     inkscape:document-rotation="0"
     showgrid="false"
     units="px"
     inkscape:window-width="2048"
     inkscape:window-height="1080"
     inkscape:window-x="0"
     inkscape:window-y="0"
     inkscape:window-maximized="1" />
  <metadata
     id="metadata6371">
    <rdf:RDF>
      <cc:Work
         rdf:about="">
        <dc:format>image/svg+xml</dc:format>
        <dc:type
           rdf:resource="http://purl.org/dc/dcmitype/StillImage" />
        <dc:title />
      </cc:Work>
    </rdf:RDF>
  </metadata>
  <g
     inkscape:label="Layer 1"
     inkscape:groupmode="layer"
     id="layer1">
    <path
       id="path1181-0-2-9-36-9-6-6-3-4-9"
       style="color:#000000;font-style:normal;font-variant:normal;font-weight:normal;font-stretch:normal;font-size:medium;line-height:normal;font-family:sans-serif;font-variant-ligatures:normal;font-variant-position:normal;font-variant-caps:normal;font-variant-numeric:normal;font-variant-alternates:normal;font-variant-east-asian:normal;font-feature-settings:normal;font-variation-settings:normal;text-indent:0;text-align:start;text-decoration:none;text-decoration-line:none;text-decoration-style:solid;text-decoration-color:#000000;letter-spacing:normal;word-spacing:normal;text-transform:none;writing-mode:lr-tb;direction:ltr;text-orientation:mixed;dominant-baseline:auto;baseline-shift:baseline;text-anchor:start;white-space:normal;shape-padding:0;shape-margin:0;inline-size:0;clip-rule:nonzero;display:inline;overflow:visible;visibility:visible;opacity:0.15;isolation:auto;mix-blend-mode:normal;color-interpolation:sRGB;color-interpolation-filters:linearRGB;solid-color:#000000;solid-opacity:1;vector-effect:none;fill:#0c0c0c;fill-opacity:1;fill-rule:nonzero;stroke:none;stroke-width:0;stroke-linecap:round;stroke-linejoin:round;stroke-miterlimit:4;stroke-dasharray:none;stroke-dashoffset:2.1875;stroke-opacity:1;color-rendering:auto;image-rendering:auto;shape-rendering:auto;text-rendering:auto;enable-background:accumulate;stop-color:#000000"
       d="m 32.00041,9.5004 c -13.23814,0 -24,10.7634 -24,24.001 0,13.2376 10.76186,23.999 24,23.999 13.23814,0 24,-10.7614 24,-23.999 0,-13.2376 -10.76186,-24.001 -24,-24.001 z m 0,2.9982 c 11.61669,0 21.00366,9.3866 21.00366,21.0028 0,11.6162 -9.38697,21.0009 -21.00366,21.0009 -11.61669,0 -21.00366,-9.3847 -21.00366,-21.0009 0,-11.6162 9.38697,-21.0028 21.00366,-21.0028 z" />
    <path
       id="path1181-0-6-2-1-4-1-1-5-7-36"
       style="color:#000000;font-style:normal;font-variant:normal;font-weight:normal;font-stretch:normal;font-size:medium;line-height:normal;font-family:sans-serif;font-variant-ligatures:normal;font-variant-position:normal;font-variant-caps:normal;font-variant-numeric:normal;font-variant-alternates:normal;font-variant-east-asian:normal;font-feature-settings:normal;font-variation-settings:normal;text-indent:0;text-align:start;text-decoration:none;text-decoration-line:none;text-decoration-style:solid;text-decoration-color:#000000;letter-spacing:normal;word-spacing:normal;text-transform:none;writing-mode:lr-tb;direction:ltr;text-orientation:mixed;dominant-baseline:auto;baseline-shift:baseline;text-anchor:start;white-space:normal;shape-padding:0;shape-margin:0;inline-size:0;clip-rule:nonzero;display:inline;overflow:visible;visibility:visible;opacity:0.85;isolation:auto;mix-blend-mode:normal;color-interpolation:sRGB;color-interpolation-filters:linearRGB;solid-color:#000000;solid-opacity:1;vector-effect:none;fill:#535053;fill-opacity:1;fill-rule:nonzero;stroke:none;stroke-width:3.77975;stroke-linecap:round;stroke-linejoin:round;stroke-miterlimit:4;stroke-dasharray:none;stroke-dashoffset:2.1875;stroke-opacity:1;color-rendering:auto;image-rendering:auto;shape-rendering:auto;text-rendering:auto;enable-background:accumulate;stop-color:#000000"
       d="m 32.00041,8.0004 c -13.23814,0 -24,10.7634 -24,24.001 0,13.2376 10.76186,23.999 24,23.999 13.23814,0 24,-10.7614 24,-23.999 0,-13.2376 -10.76186,-24.001 -24,-24.001 z m 0,2.9982 c 11.61669,0 21.00366,9.3866 21.00366,21.0028 0,11.6162 -9.38697,21.0009 -21.00366,21.0009 -11.61669,0 -21.00366,-9.3847 -21.00366,-21.0009 0,-11.6162 9.38697,-21.0028 21.00366,-21.0028 z" />
    <circle
       style="fill:#d5d5db;fill-opacity:1;stroke:#771832;stroke-width:0;stroke-linecap:round;stroke-linejoin:round;stroke-miterlimit:4;stroke-dasharray:none;stroke-dashoffset:2.1875;stroke-opacity:1"
       id="path1181-0-2-7-0-5-6-4-0"
       cx="32.000305"
       cy="32.000183"
       r="22.499998" />
    <circle
       style="opacity:0.749;fill:url(#linearGradient3134-2);fill-opacity:1;stroke:#771832;stroke-width:0;stroke-linecap:round;stroke-linejoin:round;stroke-miterlimit:4;stroke-dasharray:none;stroke-dashoffset:2.1875;stroke-opacity:1"
       id="path1181-6-2-9-8-6-5-2-4-62"
       cx="32.000305"
       cy="32.000183"
       r="22.499998" />
    <path
       id="path1181-0-2-9-3-2-7-8-9-8-4-5-3-4-9-3-6"
       style="color:#000000;font-style:normal;font-variant:normal;font-weight:normal;font-stretch:normal;font-size:medium;line-height:normal;font-family:sans-serif;font-variant-ligatures:normal;font-variant-position:normal;font-variant-caps:normal;font-variant-numeric:normal;font-variant-alternates:normal;font-variant-east-asian:normal;font-feature-settings:normal;font-variation-settings:normal;text-indent:0;text-align:start;text-decoration:none;text-decoration-line:none;text-decoration-style:solid;text-decoration-color:#000000;letter-spacing:normal;word-spacing:normal;text-transform:none;writing-mode:lr-tb;direction:ltr;text-orientation:mixed;dominant-baseline:auto;baseline-shift:baseline;text-anchor:start;white-space:normal;shape-padding:0;shape-margin:0;inline-size:0;clip-rule:nonzero;display:inline;overflow:visible;visibility:visible;opacity:0.15;isolation:auto;mix-blend-mode:normal;color-interpolation:sRGB;color-interpolation-filters:linearRGB;solid-color:#000000;solid-opacity:1;vector-effect:none;fill:#383842;fill-opacity:1;fill-rule:nonzero;stroke:none;stroke-width:0;stroke-linecap:round;stroke-linejoin:round;stroke-miterlimit:4;stroke-dasharray:none;stroke-dashoffset:2.1875;stroke-opacity:1;color-rendering:auto;image-rendering:auto;shape-rendering:auto;text-rendering:auto;enable-background:accumulate;stop-color:#000000"
       d="M 32,8 C 18.76186,8 8,18.7634 8,32.001 8,45.2386 18.76186,56 32,56 45.23814,56 56,45.2386 56,32.001 56,18.7634 45.23814,8 32,8 Z m 0,2.9982 c 11.61669,0 21.00366,9.3866 21.00366,21.0028 0,11.6162 -9.38697,21.0008 -21.00366,21.0008 -11.61668,0 -21.00366,-9.3846 -21.00366,-21.0008 0,-11.6162 9.38698,-21.0028 21.00366,-21.0028 z" />
    <path
       id="rect4307-0-2-9-9-1-4-0-29-0-1-7-1"
       style="color:#000000;font-style:normal;font-variant:normal;font-weight:normal;font-stretch:normal;font-size:medium;line-height:normal;font-family:sans-serif;font-variant-ligatures:normal;font-variant-position:normal;font-variant-caps:normal;font-variant-numeric:normal;font-variant-alternates:normal;font-variant-east-asian:normal;font-feature-settings:normal;font-variation-settings:normal;text-indent:0;text-align:start;text-decoration:none;text-decoration-line:none;text-decoration-style:solid;text-decoration-color:#000000;letter-spacing:normal;word-spacing:normal;text-transform:none;writing-mode:lr-tb;direction:ltr;text-orientation:mixed;dominant-baseline:auto;baseline-shift:baseline;text-anchor:start;white-space:normal;shape-padding:0;shape-margin:0;inline-size:0;clip-rule:nonzero;display:inline;overflow:visible;visibility:visible;opacity:0.35;isolation:auto;mix-blend-mode:normal;color-interpolation:sRGB;color-interpolation-filters:linearRGB;solid-color:#000000;solid-opacity:1;vector-effect:none;fill:#494649;fill-opacity:1;fill-rule:nonzero;stroke:none;stroke-width:3.77983;stroke-linecap:round;stroke-linejoin:round;stroke-miterlimit:4;stroke-dasharray:none;stroke-dashoffset:2.1875;stroke-opacity:1;color-rendering:auto;image-rendering:auto;shape-rendering:auto;text-rendering:auto;enable-background:accumulate;stop-color:#000000"
       d="m 23.68382,21.319 c -0.44933,-1.6e-4 -0.90008,0.16897 -1.2383,0.50783 L 20.32633,23.948 c -0.67644,0.67633 -0.67645,1.79828 0,2.47471 l 7.07242,7.07254 -7.07242,7.07254 c -0.67644,0.67643 -0.67644,1.79847 0,2.47471 l 2.11919,2.11922 c 0.67644,0.67632 1.7982,0.67632 2.47466,0 l 7.07242,-7.07254 7.07436,7.07254 c 0.67646,0.67642 1.79822,0.67632 2.47467,0 l 2.12114,-2.12118 c 0.67646,-0.67623 0.67412,-1.79632 -0.002,-2.47275 l -7.07242,-7.07254 7.07437,-7.07449 c 0.67646,-0.67643 0.6741,-1.79643 -0.002,-2.47276 l -2.11919,-2.12117 c -0.67645,-0.67633 -1.79821,-0.67773 -2.47467,0 L 31.9925,28.89937 24.92008,21.82683 C 24.58185,21.48862 24.13306,21.31916 23.68372,21.319 Z" />
    <path
       id="rect4307-0-2-6-3-1-7-8"
       style="fill:#23211e;fill-opacity:1;stroke:none;stroke-width:0;stroke-linecap:round;stroke-linejoin:round;stroke-miterlimit:4;stroke-dasharray:none;stroke-dashoffset:2.1875;stroke-opacity:1"
       d="m 41.01533,20.8627 c -0.39174,-0.3918 -1.02246,-0.3918 -1.4142,0 l -7.60139,7.6014 -7.6014,-7.6014 c -0.39173,-0.3918 -1.02249,-0.3918 -1.41423,0 l -2.12129,2.1213 c -0.39174,0.3917 -0.39175,1.0225 -2e-5,1.4142 l 7.6014,7.6014 -7.6014,7.6014 c -0.39173,0.3917 -0.39173,1.0225 10e-6,1.4142 l 2.12132,2.1212 c 0.39173,0.3918 1.02247,0.3918 1.4142,0 l 7.6014,-7.6013 7.60139,7.6013 c 0.39174,0.3918 1.0225,0.3918 1.41423,0 l 2.1213,-2.1212 c 0.39174,-0.3917 0.39175,-1.0225 2e-5,-1.4142 l -7.6014,-7.6014 7.6014,-7.6014 c 0.39173,-0.3917 0.39171,-1.0225 -2e-5,-1.4142 z" />
  </g>
</svg>
