<?xml version="1.0" encoding="UTF-8" standalone="no"?>
<svg
   xmlns:dc="http://purl.org/dc/elements/1.1/"
   xmlns:cc="http://creativecommons.org/ns#"
   xmlns:rdf="http://www.w3.org/1999/02/22-rdf-syntax-ns#"
   xmlns:svg="http://www.w3.org/2000/svg"
   xmlns="http://www.w3.org/2000/svg"
   xmlns:sodipodi="http://sodipodi.sourceforge.net/DTD/sodipodi-0.dtd"
   xmlns:inkscape="http://www.inkscape.org/namespaces/inkscape"
   width="64"
   height="64"
   viewBox="0 0 16.933333 16.933334"
   version="1.1"
   id="svg841"
   inkscape:version="1.0.2 (e86c870879, 2021-01-15)"
   sodipodi:docname="security-medium.svg">
  <defs
     id="defs835" />
  <sodipodi:namedview
     id="base"
     pagecolor="#c4c4c4"
     bordercolor="#666666"
     borderopacity="1.0"
     inkscape:pageopacity="0"
     inkscape:pageshadow="2"
     inkscape:zoom="2.6761534"
     inkscape:cx="-82.096531"
     inkscape:cy="52.617395"
     inkscape:document-units="px"
     inkscape:current-layer="layer1"
     inkscape:document-rotation="0"
     showgrid="false"
     units="px"
     inkscape:window-width="2048"
     inkscape:window-height="1080"
     inkscape:window-x="0"
     inkscape:window-y="0"
     inkscape:window-maximized="1" />
  <metadata
     id="metadata838">
    <rdf:RDF>
      <cc:Work
         rdf:about="">
        <dc:format>image/svg+xml</dc:format>
        <dc:type
           rdf:resource="http://purl.org/dc/dcmitype/StillImage" />
        <dc:title />
      </cc:Work>
    </rdf:RDF>
  </metadata>
  <g
     inkscape:label="Layer 1"
     inkscape:groupmode="layer"
     id="layer1">
    <path
       id="path1026-5-7"
       style="color:#000000;font-style:normal;font-variant:normal;font-weight:normal;font-stretch:normal;font-size:medium;line-height:normal;font-family:sans-serif;font-variant-ligatures:normal;font-variant-position:normal;font-variant-caps:normal;font-variant-numeric:normal;font-variant-alternates:normal;font-variant-east-asian:normal;font-feature-settings:normal;font-variation-settings:normal;text-indent:0;text-align:start;text-decoration:none;text-decoration-line:none;text-decoration-style:solid;text-decoration-color:#000000;letter-spacing:normal;word-spacing:normal;text-transform:none;writing-mode:lr-tb;direction:ltr;text-orientation:mixed;dominant-baseline:auto;baseline-shift:baseline;text-anchor:start;white-space:normal;shape-padding:0;shape-margin:0;inline-size:0;clip-rule:nonzero;display:inline;overflow:visible;visibility:visible;opacity:0.15;isolation:auto;mix-blend-mode:normal;color-interpolation:sRGB;color-interpolation-filters:linearRGB;solid-color:#000000;solid-opacity:1;vector-effect:none;fill:#0c0c0c;fill-opacity:1;fill-rule:nonzero;stroke:none;stroke-width:0.999948;stroke-linecap:round;stroke-linejoin:round;stroke-miterlimit:4;stroke-dasharray:none;stroke-dashoffset:2.1875;stroke-opacity:1;color-rendering:auto;image-rendering:auto;shape-rendering:auto;text-rendering:auto;enable-background:accumulate;stop-color:#000000"
       d="m 8.466408,1.3229168 c -4.1597294,0 -7.54036632,3.3810391 -7.54036632,7.5406253 0,4.1595889 3.38063692,7.5406249 7.54036632,7.5406249 4.159729,0 7.540884,-3.381036 7.540884,-7.5406249 0,-4.1595862 -3.381155,-7.5406253 -7.540884,-7.5406253 z m 0,0.7931812 c 3.73077,0 6.746129,3.016803 6.746129,6.7474441 0,3.7306439 -3.015359,6.7453829 -6.746129,6.7453829 -3.7307684,0 -6.7456109,-3.014739 -6.7456109,-6.7453829 0,-3.7306411 3.0148425,-6.7474441 6.7456109,-6.7474441 z" />
    <path
       id="path1026-5-2-3"
       style="color:#000000;font-style:normal;font-variant:normal;font-weight:normal;font-stretch:normal;font-size:medium;line-height:normal;font-family:sans-serif;font-variant-ligatures:normal;font-variant-position:normal;font-variant-caps:normal;font-variant-numeric:normal;font-variant-alternates:normal;font-variant-east-asian:normal;font-feature-settings:normal;font-variation-settings:normal;text-indent:0;text-align:start;text-decoration:none;text-decoration-line:none;text-decoration-style:solid;text-decoration-color:#000000;letter-spacing:normal;word-spacing:normal;text-transform:none;writing-mode:lr-tb;direction:ltr;text-orientation:mixed;dominant-baseline:auto;baseline-shift:baseline;text-anchor:start;white-space:normal;shape-padding:0;shape-margin:0;inline-size:0;clip-rule:nonzero;display:inline;overflow:visible;visibility:visible;opacity:0.85;isolation:auto;mix-blend-mode:normal;color-interpolation:sRGB;color-interpolation-filters:linearRGB;solid-color:#000000;solid-opacity:1;vector-effect:none;fill:#515152;fill-opacity:1;fill-rule:nonzero;stroke:none;stroke-width:0;stroke-linecap:round;stroke-linejoin:round;stroke-miterlimit:4;stroke-dasharray:none;stroke-dashoffset:2.1875;stroke-opacity:1;color-rendering:auto;image-rendering:auto;shape-rendering:auto;text-rendering:auto;enable-background:accumulate;stop-color:#000000"
       d="m 8.466408,0.92604176 c -4.1597294,0 -7.54036632,3.38103914 -7.54036632,7.54062534 0,4.1595889 3.38063692,7.5406249 7.54036632,7.5406249 4.159729,0 7.540884,-3.381036 7.540884,-7.5406249 0,-4.1595862 -3.381155,-7.54062534 -7.540884,-7.54062534 z m 0,0.79318124 c 3.73077,0 6.746129,3.016803 6.746129,6.7474441 0,3.7306429 -3.015359,6.7453829 -6.746129,6.7453829 -3.7307684,0 -6.7456109,-3.01474 -6.7456109,-6.7453829 0,-3.7306411 3.0148425,-6.7474441 6.7456109,-6.7474441 z" />
    <path
       id="path901-61"
       style="fill:#a0a0a2;fill-opacity:1;stroke-width:0;stroke-linecap:round;stroke-linejoin:round;stroke-dashoffset:2.1875"
       d="M 8.459433,1.3229168 A 7.1437502,7.1437502 0 0 0 1.3229167,8.4666671 7.1437502,7.1437502 0 0 0 8.466667,15.610417 V 1.3229168 a 7.1437502,7.1437502 0 0 0 -0.0072,0 z" />
    <path
       id="path901-6-2"
       style="fill:#cbcbd1;fill-opacity:1;stroke-width:0;stroke-linecap:round;stroke-linejoin:round;stroke-dashoffset:2.1875"
       d="m 8.473901,1.3229168 a 7.1437502,7.1437502 0 0 1 7.136516,7.1437503 7.1437502,7.1437502 0 0 1 -7.14375,7.1437499 V 1.3229168 a 7.1437502,7.1437502 0 0 1 0.0072,0 z" />
    <path
       id="path901-6-2-2-6-4"
       style="color:#000000;font-style:normal;font-variant:normal;font-weight:normal;font-stretch:normal;font-size:medium;line-height:normal;font-family:sans-serif;font-variant-ligatures:normal;font-variant-position:normal;font-variant-caps:normal;font-variant-numeric:normal;font-variant-alternates:normal;font-variant-east-asian:normal;font-feature-settings:normal;font-variation-settings:normal;text-indent:0;text-align:start;text-decoration:none;text-decoration-line:none;text-decoration-style:solid;text-decoration-color:#000000;letter-spacing:normal;word-spacing:normal;text-transform:none;writing-mode:lr-tb;direction:ltr;text-orientation:mixed;dominant-baseline:auto;baseline-shift:baseline;text-anchor:start;white-space:normal;shape-padding:0;shape-margin:0;inline-size:0;clip-rule:nonzero;display:inline;overflow:visible;visibility:visible;opacity:0.15;isolation:auto;mix-blend-mode:normal;color-interpolation:sRGB;color-interpolation-filters:linearRGB;solid-color:#000000;solid-opacity:1;vector-effect:none;fill:#3d3d3e;fill-opacity:1;fill-rule:nonzero;stroke:none;stroke-width:0.264583;stroke-linecap:round;stroke-linejoin:round;stroke-miterlimit:4;stroke-dasharray:none;stroke-dashoffset:2.1875;stroke-opacity:1;color-rendering:auto;image-rendering:auto;shape-rendering:auto;text-rendering:auto;enable-background:accumulate;stop-color:#000000"
       d="m 8.458915,0.92604176 c -4.1569063,0.00421 -7.53287602,3.38371934 -7.53287332,7.54062534 0,4.1515529 3.36738392,7.5266229 7.51582032,7.5401089 0.0083,2.7e-5 0.01648,5.29e-4 0.02479,5.29e-4 0.008,0 0.0158,-5.29e-4 0.02376,-5.29e-4 a 0.3969147,0.3969147 0 0 0 0.0011,0 c 4.148436,-0.01349 7.51582,-3.388556 7.51582,-7.5401089 3e-6,-4.156906 -3.375967,-7.53641584 -7.532873,-7.54062534 a 0.3969147,0.3969147 0 0 0 -5.29e-4,0 h -0.0072 -0.0072 a 0.3969147,0.3969147 0 0 1 -5.29e-4,0 z M 8.069792,1.7595825 V 15.173751 C 4.5280237,14.964871 1.7197917,12.06159 1.7197917,8.4666671 1.7197891,4.8721383 4.5276454,1.9685795 8.069792,1.7595825 Z m 0.79375,0 c 3.542146,0.208997 6.350003,3.1125558 6.35,6.7070846 0,3.5949229 -2.808232,6.4982039 -6.35,6.7070839 z" />
    <rect
       style="opacity:0.6;fill:#3d3d3e;fill-opacity:1;stroke:none;stroke-width:0.264583;stroke-linecap:round;stroke-linejoin:round;stroke-miterlimit:4;stroke-dasharray:none;stroke-opacity:1"
       id="rect2758"
       width="0.26458335"
       height="14.2875"
       x="8.2020836"
       y="1.3229167" />
  </g>
</svg>
