<?xml version="1.0" encoding="UTF-8" standalone="no"?>
<svg
   xmlns:dc="http://purl.org/dc/elements/1.1/"
   xmlns:cc="http://creativecommons.org/ns#"
   xmlns:rdf="http://www.w3.org/1999/02/22-rdf-syntax-ns#"
   xmlns:svg="http://www.w3.org/2000/svg"
   xmlns="http://www.w3.org/2000/svg"
   xmlns:sodipodi="http://sodipodi.sourceforge.net/DTD/sodipodi-0.dtd"
   xmlns:inkscape="http://www.inkscape.org/namespaces/inkscape"
   width="64"
   height="64"
   viewBox="0 0 64 64.000003"
   version="1.1"
   id="svg8"
   inkscape:version="1.0.2 (e86c870879, 2021-01-15)"
   sodipodi:docname="emblem-photos-symbolic.svg">
  <defs
     id="defs2" />
  <sodipodi:namedview
     id="base"
     pagecolor="#ffffff"
     bordercolor="#666666"
     borderopacity="1.0"
     inkscape:pageopacity="0.0"
     inkscape:pageshadow="2"
     inkscape:zoom="6.0775334"
     inkscape:cx="67.807336"
     inkscape:cy="24.3163"
     inkscape:document-units="px"
     inkscape:current-layer="layer1"
     inkscape:document-rotation="0"
     showgrid="false"
     units="px"
     inkscape:window-width="2048"
     inkscape:window-height="1080"
     inkscape:window-x="0"
     inkscape:window-y="0"
     inkscape:window-maximized="1" />
  <metadata
     id="metadata5">
    <rdf:RDF>
      <cc:Work
         rdf:about="">
        <dc:format>image/svg+xml</dc:format>
        <dc:type
           rdf:resource="http://purl.org/dc/dcmitype/StillImage" />
        <dc:title />
      </cc:Work>
    </rdf:RDF>
  </metadata>
  <g
     inkscape:label="Layer 1"
     inkscape:groupmode="layer"
     id="layer1">
    <path
       id="rect2988-8"
       style="fill:#808084;fill-opacity:1;stroke-width:0;stroke-dashoffset:2.1875"
       d="m 63.999999,15 c 0,-3.878 -3.122,-7 -7,-7 H 7 C 3.122,8 0,11.122 0,15 v 42 c 0,3.878 3.122,7 7,7 h 49.999999 c 3.878,0 7,-3.122 7,-7 z m -5.5,2 v 38 c 0,1.939 -1.561,3.5 -3.5,3.5 H 9 C 7.061,58.5 5.5,56.939 5.5,55 V 17 c 0,-1.939 1.561,-3.5 3.5,-3.5 h 45.999999 c 1.939,0 3.5,1.561 3.5,3.5 z" />
    <path
       id="rect846"
       style="opacity:0.35;fill:#808084;fill-opacity:1;stroke-width:0;stroke-dashoffset:2.1875"
       d="M 50.10214,21.357581 C 49.56164,20.827721 48.82209,20.500005 48.00188,20.5 l -32.00212,2.68e-4 c -1.66208,-6e-6 -2.99978,1.338388 -2.99976,3.000427 l 2.7e-4,23.999972 c -8e-5,0.84115 0.34359,1.59804 0.89759,2.141752 z" />
    <path
       id="rect846-3"
       style="fill:#808084;fill-opacity:1;stroke-width:0;stroke-dashoffset:2.1875"
       d="m 13.89786,49.642419 c 0.5405,0.52986 1.28005,0.857576 2.10026,0.857581 l 32.00212,-2.68e-4 c 1.66208,6e-6 2.99978,-1.338388 2.99976,-3.000427 l -2.7e-4,-23.999972 c 8e-5,-0.84115 -0.34359,-1.59804 -0.89759,-2.141752 z" />
  </g>
</svg>
