<?xml version="1.0" encoding="UTF-8" standalone="no"?>
<svg
   xmlns:dc="http://purl.org/dc/elements/1.1/"
   xmlns:cc="http://creativecommons.org/ns#"
   xmlns:rdf="http://www.w3.org/1999/02/22-rdf-syntax-ns#"
   xmlns:svg="http://www.w3.org/2000/svg"
   xmlns="http://www.w3.org/2000/svg"
   xmlns:sodipodi="http://sodipodi.sourceforge.net/DTD/sodipodi-0.dtd"
   xmlns:inkscape="http://www.inkscape.org/namespaces/inkscape"
   width="64"
   height="64"
   viewBox="0 0 64 64.000003"
   version="1.1"
   id="svg1461"
   inkscape:version="1.0.2 (e86c870879, 2021-01-15)"
   sodipodi:docname="emblem-favorite-symbolic.svg">
  <defs
     id="defs1455" />
  <sodipodi:namedview
     id="base"
     pagecolor="#c4c4c4"
     bordercolor="#666666"
     borderopacity="1.0"
     inkscape:pageopacity="0"
     inkscape:pageshadow="2"
     inkscape:zoom="0.67200075"
     inkscape:cx="-227.54616"
     inkscape:cy="92.479228"
     inkscape:document-units="px"
     inkscape:current-layer="layer1"
     inkscape:document-rotation="0"
     showgrid="false"
     units="px"
     inkscape:window-width="2048"
     inkscape:window-height="1080"
     inkscape:window-x="0"
     inkscape:window-y="0"
     inkscape:window-maximized="1" />
  <metadata
     id="metadata1458">
    <rdf:RDF>
      <cc:Work
         rdf:about="">
        <dc:format>image/svg+xml</dc:format>
        <dc:type
           rdf:resource="http://purl.org/dc/dcmitype/StillImage" />
        <dc:title />
      </cc:Work>
    </rdf:RDF>
  </metadata>
  <g
     inkscape:label="Layer 1"
     inkscape:groupmode="layer"
     id="layer1">
    <path
       id="rect2288-3"
       style="fill:#808084;fill-opacity:1;stroke-width:0;stroke-linecap:round;stroke-linejoin:round;stroke-dashoffset:2.1875;stroke-opacity:0.5"
       d="m 31.994165,0 c -3.751,0.144003 -3.6562,23.23809 -6.715,25.56494 C 22.210365,27.89978 1.2239654,20.54293 0.04746542,24.32671 -1.1290346,28.11019 19.945065,35.18614 21.110365,38.97342 c 1.1649,3.78767 -11.9792996,22.47996 -8.9177,24.82481 3.062,2.34445 15.9793,-16.52244 19.7683,-16.51604 h 0.039 c 0,-4e-4 0.041,0 0.041,0 3.7888,0 16.7062,18.86049 19.7682,16.51604 3.0616,-2.34485 -10.0848,-21.03714 -8.9195,-24.82482 1.1653,-3.78727 22.2393,-10.86312 21.0629,-14.6467 -1.1765,-3.78378 -22.1629,3.57307 -25.2317,1.23822 C 35.662065,23.23809 35.756765,0.144403 32.005765,0 Z" />
  </g>
</svg>
