<?xml version="1.0" encoding="UTF-8" standalone="no"?>
<svg
   xmlns:dc="http://purl.org/dc/elements/1.1/"
   xmlns:cc="http://creativecommons.org/ns#"
   xmlns:rdf="http://www.w3.org/1999/02/22-rdf-syntax-ns#"
   xmlns:svg="http://www.w3.org/2000/svg"
   xmlns="http://www.w3.org/2000/svg"
   xmlns:xlink="http://www.w3.org/1999/xlink"
   xmlns:sodipodi="http://sodipodi.sourceforge.net/DTD/sodipodi-0.dtd"
   xmlns:inkscape="http://www.inkscape.org/namespaces/inkscape"
   width="64"
   height="64"
   viewBox="0 0 16.933333 16.933334"
   version="1.1"
   id="svg841"
   inkscape:version="1.0.2 (e86c870879, 2021-01-15)"
   sodipodi:docname="appointment-missed.svg">
  <defs
     id="defs835">
    <linearGradient
       inkscape:collect="always"
       id="linearGradient1338-8">
      <stop
         style="stop-color:#fdfdfa;stop-opacity:0.44999999"
         offset="0"
         id="stop1334-9" />
      <stop
         style="stop-color:#fdfdfa;stop-opacity:0;"
         offset="1"
         id="stop1336-0" />
    </linearGradient>
    <linearGradient
       inkscape:collect="always"
       id="linearGradient4452">
      <stop
         style="stop-color:#333347;stop-opacity:0.85000002"
         offset="0"
         id="stop4448" />
      <stop
         style="stop-color:#333347;stop-opacity:0.75"
         offset="1"
         id="stop4450" />
    </linearGradient>
    <linearGradient
       inkscape:collect="always"
       id="linearGradient4231">
      <stop
         style="stop-color:#d5d5db;stop-opacity:0"
         offset="0"
         id="stop4227" />
      <stop
         style="stop-color:#42424d;stop-opacity:0.54901963"
         offset="1"
         id="stop4229" />
    </linearGradient>
    <linearGradient
       inkscape:collect="always"
       xlink:href="#linearGradient4452"
       id="linearGradient4653-2"
       gradientUnits="userSpaceOnUse"
       gradientTransform="matrix(0.26458334,0,0,0.26458334,-151.34166,-263.78959)"
       x1="614"
       y1="998"
       x2="622"
       y2="1010" />
    <linearGradient
       inkscape:collect="always"
       xlink:href="#linearGradient4231"
       id="linearGradient4651-8"
       gradientUnits="userSpaceOnUse"
       gradientTransform="matrix(0.26458334,0,0,0.26458334,-158.38137,-258.66652)"
       x1="612.60675"
       y1="978.63715"
       x2="620.60675"
       y2="990.63715" />
    <linearGradient
       inkscape:collect="always"
       xlink:href="#linearGradient4452"
       id="linearGradient4649-8"
       gradientUnits="userSpaceOnUse"
       x1="614"
       y1="998"
       x2="622"
       y2="1010"
       gradientTransform="matrix(0.26458334,0,0,0.26458334,-158.75,-263.78959)" />
    <linearGradient
       inkscape:collect="always"
       xlink:href="#linearGradient1338-8"
       id="linearGradient4647-6"
       gradientUnits="userSpaceOnUse"
       gradientTransform="translate(3.4375e-7,0.39687534)"
       x1="8.2020836"
       y1="1.3229167"
       x2="8.2029152"
       y2="5.0272117" />
    <linearGradient
       inkscape:collect="always"
       xlink:href="#linearGradient4231"
       id="linearGradient933"
       gradientUnits="userSpaceOnUse"
       gradientTransform="matrix(0.26458334,0,0,0.26458334,-150.97303,-258.66649)"
       x1="612.60675"
       y1="978.63715"
       x2="620.60675"
       y2="990.63715" />
  </defs>
  <sodipodi:namedview
     id="base"
     pagecolor="#c4c4c4"
     bordercolor="#666666"
     borderopacity="1.0"
     inkscape:pageopacity="0"
     inkscape:pageshadow="2"
     inkscape:zoom="7.040686"
     inkscape:cx="17.029455"
     inkscape:cy="18.421094"
     inkscape:document-units="px"
     inkscape:current-layer="layer1"
     inkscape:document-rotation="0"
     showgrid="false"
     units="px"
     inkscape:window-width="2048"
     inkscape:window-height="1080"
     inkscape:window-x="0"
     inkscape:window-y="0"
     inkscape:window-maximized="1" />
  <metadata
     id="metadata838">
    <rdf:RDF>
      <cc:Work
         rdf:about="">
        <dc:format>image/svg+xml</dc:format>
        <dc:type
           rdf:resource="http://purl.org/dc/dcmitype/StillImage" />
        <dc:title />
      </cc:Work>
    </rdf:RDF>
  </metadata>
  <g
     inkscape:label="Layer 1"
     inkscape:groupmode="layer"
     id="layer1">
    <path
       id="rect848-6-3-6-7-0-9-3-9-1-6-6-4-0"
       style="color:#000000;font-style:normal;font-variant:normal;font-weight:normal;font-stretch:normal;font-size:medium;line-height:normal;font-family:sans-serif;font-variant-ligatures:normal;font-variant-position:normal;font-variant-caps:normal;font-variant-numeric:normal;font-variant-alternates:normal;font-variant-east-asian:normal;font-feature-settings:normal;font-variation-settings:normal;text-indent:0;text-align:start;text-decoration:none;text-decoration-line:none;text-decoration-style:solid;text-decoration-color:#000000;letter-spacing:normal;word-spacing:normal;text-transform:none;writing-mode:lr-tb;direction:ltr;text-orientation:mixed;dominant-baseline:auto;baseline-shift:baseline;text-anchor:start;white-space:normal;shape-padding:0;shape-margin:0;inline-size:0;clip-rule:nonzero;display:inline;overflow:visible;visibility:visible;opacity:0.25;isolation:auto;mix-blend-mode:normal;color-interpolation:sRGB;color-interpolation-filters:linearRGB;solid-color:#000000;solid-opacity:1;vector-effect:none;fill:#0c0c0c;fill-opacity:1;fill-rule:nonzero;stroke:none;stroke-width:0;stroke-linecap:round;stroke-linejoin:round;stroke-miterlimit:4;stroke-dasharray:none;stroke-dashoffset:2.1875;stroke-opacity:1;paint-order:normal;color-rendering:auto;image-rendering:auto;shape-rendering:auto;text-rendering:auto;enable-background:accumulate;stop-color:#000000"
       d="m 1.3224013,5.5562503 a 0.26460982,0.26463435 0 0 0 -0.264068,0.26408 v 8.9966807 c 0,1.021583 0.830088,1.851739 1.851568,1.851739 H 14.023436 c 1.021477,0 1.851564,-0.830156 1.851564,-1.851739 V 5.8203303 a 0.26460982,0.26463435 0 0 0 -0.265615,-0.26408 z m 0.265618,0.529749 H 15.345836 v 8.7310117 c 0,0.737553 -0.58493,1.32252 -1.3224,1.32252 H 2.9099013 c -0.737473,0 -1.321882,-0.584967 -1.321882,-1.32252 z" />
    <path
       id="rect848-6-3-6-7-0-9-2-0-4-8-7-6"
       style="color:#000000;font-style:normal;font-variant:normal;font-weight:normal;font-stretch:normal;font-size:medium;line-height:normal;font-family:sans-serif;font-variant-ligatures:normal;font-variant-position:normal;font-variant-caps:normal;font-variant-numeric:normal;font-variant-alternates:normal;font-variant-east-asian:normal;font-feature-settings:normal;font-variation-settings:normal;text-indent:0;text-align:start;text-decoration:none;text-decoration-line:none;text-decoration-style:solid;text-decoration-color:#000000;letter-spacing:normal;word-spacing:normal;text-transform:none;writing-mode:lr-tb;direction:ltr;text-orientation:mixed;dominant-baseline:auto;baseline-shift:baseline;text-anchor:start;white-space:normal;shape-padding:0;shape-margin:0;inline-size:0;clip-rule:nonzero;display:inline;overflow:visible;visibility:visible;isolation:auto;mix-blend-mode:normal;color-interpolation:sRGB;color-interpolation-filters:linearRGB;solid-color:#000000;solid-opacity:1;vector-effect:none;fill:#393941;fill-opacity:1;fill-rule:nonzero;stroke:none;stroke-width:1.00005;stroke-linecap:round;stroke-linejoin:round;stroke-miterlimit:4;stroke-dasharray:none;stroke-dashoffset:2.1875;stroke-opacity:1;paint-order:normal;color-rendering:auto;image-rendering:auto;shape-rendering:auto;text-rendering:auto;enable-background:accumulate;stop-color:#000000"
       d="m 1.3224013,5.1593753 a 0.26460982,0.26463435 0 0 0 -0.264068,0.26408 v 8.9966807 c 0,1.021583 0.830088,1.851739 1.851568,1.851739 H 14.023436 c 1.021477,0 1.851564,-0.830156 1.851564,-1.851739 V 5.4234553 a 0.26460982,0.26463435 0 0 0 -0.265615,-0.26408 z m 0.265618,0.529749 H 15.345836 v 8.7310117 c 0,0.737553 -0.58493,1.32252 -1.3224,1.32252 H 2.9099013 c -0.737473,0 -1.321882,-0.584967 -1.321882,-1.32252 z" />
    <path
       id="rect848-6-3-7-5-6-0-6-5-4-1-7-75-2"
       style="color:#000000;font-style:normal;font-variant:normal;font-weight:normal;font-stretch:normal;font-size:medium;line-height:normal;font-family:sans-serif;font-variant-ligatures:normal;font-variant-position:normal;font-variant-caps:normal;font-variant-numeric:normal;font-variant-alternates:normal;font-variant-east-asian:normal;font-feature-settings:normal;font-variation-settings:normal;text-indent:0;text-align:start;text-decoration:none;text-decoration-line:none;text-decoration-style:solid;text-decoration-color:#000000;letter-spacing:normal;word-spacing:normal;text-transform:none;writing-mode:lr-tb;direction:ltr;text-orientation:mixed;dominant-baseline:auto;baseline-shift:baseline;text-anchor:start;white-space:normal;shape-padding:0;shape-margin:0;inline-size:0;clip-rule:nonzero;display:inline;overflow:visible;visibility:visible;isolation:auto;mix-blend-mode:normal;color-interpolation:sRGB;color-interpolation-filters:linearRGB;solid-color:#000000;solid-opacity:1;vector-effect:none;fill:#6e162e;fill-opacity:1;fill-rule:nonzero;stroke:none;stroke-width:0.999897;stroke-linecap:round;stroke-linejoin:round;stroke-miterlimit:4;stroke-dasharray:none;stroke-dashoffset:2.1875;stroke-opacity:1;color-rendering:auto;image-rendering:auto;shape-rendering:auto;text-rendering:auto;enable-background:accumulate;stop-color:#000000"
       d="m 2.9099643,1.4552083 c -1.021511,0 -1.851628,0.831956 -1.851628,1.853168 v 2.114603 a 0.26461898,0.26454505 0 0 0 0.265626,0.265562 H 15.611438 a 0.26461898,0.26454505 0 0 0 0.26356,-0.265562 v -2.114603 c 0,-1.021212 -0.830117,-1.853168 -1.851631,-1.853168 z m 0,0.529564 H 14.023367 c 0.737499,0 1.322446,0.586316 1.322446,1.323604 v 1.851131 H 1.5875213 v -1.851131 c 0,-0.737288 0.584946,-1.323604 1.322443,-1.323604 z" />
    <path
       id="rect848-6-3-6-4-22-2-9-4-9"
       style="fill:#fbfcfd;fill-opacity:1;stroke-width:1.19063;stroke-linecap:round;stroke-linejoin:round;stroke-dashoffset:2.1875"
       d="m 1.3229173,5.4239583 v 8.9958337 c 0,0.879475 0.708025,1.5875 1.5875,1.5875 H 14.022917 c 0.879475,0 1.5875,-0.708025 1.5875,-1.5875 V 5.4239583 Z" />
    <path
       id="rect4307-0-2-9-9-1-4-0-2"
       style="color:#000000;font-style:normal;font-variant:normal;font-weight:normal;font-stretch:normal;font-size:medium;line-height:normal;font-family:sans-serif;font-variant-ligatures:normal;font-variant-position:normal;font-variant-caps:normal;font-variant-numeric:normal;font-variant-alternates:normal;font-variant-east-asian:normal;font-feature-settings:normal;font-variation-settings:normal;text-indent:0;text-align:start;text-decoration:none;text-decoration-line:none;text-decoration-style:solid;text-decoration-color:#000000;letter-spacing:normal;word-spacing:normal;text-transform:none;writing-mode:lr-tb;direction:ltr;text-orientation:mixed;dominant-baseline:auto;baseline-shift:baseline;text-anchor:start;white-space:normal;shape-padding:0;shape-margin:0;inline-size:0;clip-rule:nonzero;display:inline;overflow:visible;visibility:visible;opacity:0.2;isolation:auto;mix-blend-mode:normal;color-interpolation:sRGB;color-interpolation-filters:linearRGB;solid-color:#000000;solid-opacity:1;vector-effect:none;fill:#080d11;fill-opacity:1;fill-rule:nonzero;stroke:none;stroke-width:1;stroke-linecap:round;stroke-linejoin:round;stroke-miterlimit:4;stroke-dasharray:none;stroke-dashoffset:2.1875;stroke-opacity:1;color-rendering:auto;image-rendering:auto;shape-rendering:auto;text-rendering:auto;enable-background:accumulate;stop-color:#000000"
       d="m 10.992636,8.0916857 c -0.178953,-0.178937 -0.475488,-0.179308 -0.654442,0 L 8.4665739,9.9633223 6.5953244,8.0920567 c -0.1789563,-0.178964 -0.475488,-0.179308 -0.6544416,0 l -0.5609061,0.560916 c -0.1789536,0.178938 -0.1789563,0.475853 0,0.654818 L 7.2512289,11.179031 5.3799767,13.05027 c -0.1789536,0.178964 -0.1789536,0.475879 0,0.654817 l 0.5605357,0.560546 c 0.1789536,0.178938 0.4758557,0.178938 0.654812,0 l 1.8712495,-1.871265 1.8712531,1.871265 c 0.178956,0.178964 0.475856,0.178938 0.654809,0 l 0.560904,-0.560916 c 0.178956,-0.178938 0.178588,-0.475483 -2.65e-4,-0.654447 L 9.6820229,11.179031 11.553643,9.3074197 c 0.178956,-0.178964 0.178586,-0.475509 -2.65e-4,-0.654447 z m -0.280268,0.280273 0.560536,0.560547 c 0.02834,0.02834 0.02867,0.06559 5.29e-4,0.09387 L 9.2625969,11.037214 a 0.19845724,0.19845734 0 0 0 -2.65e-4,0.281728 l 2.0108391,2.010834 c 0.02834,0.02834 0.02867,0.06559 2.65e-4,0.09387 l -0.560906,0.56089 c -0.02836,0.02836 -0.06553,0.02797 -0.09388,0 l -2.0108331,-2.01086 a 0.19845724,0.19845734 0 0 0 -0.281726,0 L 6.315255,13.984514 c -0.028358,0.02836 -0.06554,0.02797 -0.093879,0 l -0.5605362,-0.56052 c -0.02834,-0.02836 -0.028668,-0.06562 -2.645e-4,-0.0939 l 2.0108336,-2.010833 a 0.19845724,0.19845734 0 0 0 0.0016,-0.280617 L 5.6610647,9.0266967 c -0.028339,-0.02834 -0.02867,-0.06559 -2.646e-4,-0.09387 l 0.5609061,-0.56089 c 0.028358,-0.02836 0.06554,-0.02797 0.09388,0 l 2.0119307,2.0119193 a 0.19845724,0.19845734 0 0 0 0.280628,-0.0026 L 10.618981,8.3704217 c 0.02836,-0.02836 0.06554,-0.02797 0.09388,0 z" />
    <path
       id="rect4307-0-2-9-9-1-4-9"
       style="color:#000000;font-style:normal;font-variant:normal;font-weight:normal;font-stretch:normal;font-size:medium;line-height:normal;font-family:sans-serif;font-variant-ligatures:normal;font-variant-position:normal;font-variant-caps:normal;font-variant-numeric:normal;font-variant-alternates:normal;font-variant-east-asian:normal;font-feature-settings:normal;font-variation-settings:normal;text-indent:0;text-align:start;text-decoration:none;text-decoration-line:none;text-decoration-style:solid;text-decoration-color:#000000;letter-spacing:normal;word-spacing:normal;text-transform:none;writing-mode:lr-tb;direction:ltr;text-orientation:mixed;dominant-baseline:auto;baseline-shift:baseline;text-anchor:start;white-space:normal;shape-padding:0;shape-margin:0;inline-size:0;clip-rule:nonzero;display:inline;overflow:visible;visibility:visible;opacity:0.85;isolation:auto;mix-blend-mode:normal;color-interpolation:sRGB;color-interpolation-filters:linearRGB;solid-color:#000000;solid-opacity:1;vector-effect:none;fill:#771832;fill-opacity:1;fill-rule:nonzero;stroke:none;stroke-width:1;stroke-linecap:round;stroke-linejoin:round;stroke-miterlimit:4;stroke-dasharray:none;stroke-dashoffset:2.1875;stroke-opacity:1;color-rendering:auto;image-rendering:auto;shape-rendering:auto;text-rendering:auto;enable-background:accumulate;stop-color:#000000"
       d="m 10.992504,7.6948113 c -0.178956,-0.178938 -0.475488,-0.179308 -0.654444,0 L 8.4664419,9.5664463 6.5951921,7.6951813 c -0.1789562,-0.178938 -0.475488,-0.179308 -0.6544416,0 l -0.5609061,0.560917 c -0.1789536,0.178938 -0.1789562,0.475853 0,0.654817 L 7.2510969,10.782154 5.3798444,12.65342 c -0.1789536,0.178937 -0.1789536,0.475853 0,0.654791 l 0.5605357,0.560546 c 0.1789536,0.178964 0.4758558,0.178937 0.654812,0 l 1.8712498,-1.871266 1.8712501,1.871266 c 0.178956,0.178964 0.475856,0.178964 0.654812,0 l 0.560903,-0.560917 c 0.178954,-0.178938 0.178589,-0.475483 -2.64e-4,-0.654447 L 9.6818899,10.782154 11.55351,8.9105453 c 0.178954,-0.178964 0.178586,-0.475509 -2.64e-4,-0.654447 z m -0.280268,0.280273 0.560536,0.560546 c 0.02834,0.02834 0.02867,0.06559 2.64e-4,0.09387 L 9.2622029,10.640333 a 0.19845724,0.19845734 0 0 0 -2.65e-4,0.281729 l 2.0108391,2.010833 c 0.02834,0.02834 0.02867,0.06559 5.29e-4,0.09387 L 10.7124,13.587686 c -0.02836,0.02834 -0.06553,0.02794 -0.09388,0 l -2.0108341,-2.01086 a 0.19845724,0.19845734 0 0 0 -0.281726,0 l -2.0108356,2.010833 c -0.028358,0.02836 -0.06554,0.02797 -0.093879,0 L 5.6607102,13.027144 c -0.028339,-0.02834 -0.028668,-0.06562 -2.646e-4,-0.0939 l 2.0108333,-2.010833 a 0.19845724,0.19845734 0 0 0 0.0016,-0.280617 L 5.6609351,8.6298483 c -0.02834,-0.02834 -0.02867,-0.06559 -2.646e-4,-0.09387 l 0.5609061,-0.56089 c 0.028358,-0.02836 0.06554,-0.02797 0.093879,0 l 2.0119323,2.011918 a 0.19845724,0.19845734 0 0 0 0.280627,-0.0026 l 2.0108361,-2.010833 c 0.02836,-0.02836 0.06554,-0.02797 0.09388,0 z" />
    <path
       id="rect4307-0-2-6-3-0"
       style="fill:#d53460;fill-opacity:1;stroke:none;stroke-width:0;stroke-linecap:round;stroke-linejoin:round;stroke-miterlimit:4;stroke-dasharray:none;stroke-dashoffset:2.1875;stroke-opacity:1"
       d="m 10.85182,7.8347753 c -0.103648,-0.103663 -0.270526,-0.103663 -0.374174,0 L 8.4664449,9.8459793 6.4552407,7.8347753 c -0.1036452,-0.103663 -0.2705338,-0.103663 -0.3741817,0 l -0.561258,0.561261 c -0.1036478,0.103637 -0.1036505,0.270536 -5.3e-6,0.374174 l 2.0112042,2.0112027 -2.0112042,2.011204 c -0.1036452,0.103637 -0.1036452,0.270536 2.7e-6,0.374174 l 0.5612659,0.56126 c 0.1036453,0.103664 0.2705286,0.103664 0.3741738,0 l 2.0112038,-2.011203 2.0112011,2.011203 c 0.103648,0.103664 0.270537,0.103664 0.374182,0 l 0.56126,-0.56126 c 0.103648,-0.103638 0.103651,-0.270537 6e-6,-0.374174 L 9.4018869,10.781413 11.413091,8.7702103 c 0.103645,-0.103638 0.10364,-0.270537 -6e-6,-0.374174 z" />
    <path
       id="rect848-6-3-7-5-6-0-5-5-2-3-1-9"
       style="color:#000000;font-style:normal;font-variant:normal;font-weight:normal;font-stretch:normal;font-size:medium;line-height:normal;font-family:sans-serif;font-variant-ligatures:normal;font-variant-position:normal;font-variant-caps:normal;font-variant-numeric:normal;font-variant-alternates:normal;font-variant-east-asian:normal;font-feature-settings:normal;font-variation-settings:normal;text-indent:0;text-align:start;text-decoration:none;text-decoration-line:none;text-decoration-style:solid;text-decoration-color:#000000;letter-spacing:normal;word-spacing:normal;text-transform:none;writing-mode:lr-tb;direction:ltr;text-orientation:mixed;dominant-baseline:auto;baseline-shift:baseline;text-anchor:start;white-space:normal;shape-padding:0;shape-margin:0;inline-size:0;clip-rule:nonzero;display:inline;overflow:visible;visibility:visible;opacity:0.2;isolation:auto;mix-blend-mode:normal;color-interpolation:sRGB;color-interpolation-filters:linearRGB;solid-color:#000000;solid-opacity:1;vector-effect:none;fill:#1c1650;fill-opacity:1;fill-rule:nonzero;stroke:none;stroke-width:0.999897;stroke-linecap:round;stroke-linejoin:round;stroke-miterlimit:4;stroke-dasharray:none;stroke-dashoffset:2.1875;stroke-opacity:1;color-rendering:auto;image-rendering:auto;shape-rendering:auto;text-rendering:auto;enable-background:accumulate;stop-color:#000000"
       d="m 2.9099643,1.7197913 c -1.021511,0 -1.851628,0.831956 -1.851628,1.853169 v 2.114603 a 0.26461898,0.26454505 0 0 0 0.265626,0.265562 H 15.611438 a 0.26461898,0.26454505 0 0 0 0.26356,-0.265562 v -2.114603 c 0,-1.021213 -0.830117,-1.853169 -1.851631,-1.853169 z m 0,0.529564 H 14.023367 c 0.737499,0 1.322446,0.586317 1.322446,1.323605 v 1.85113 H 1.5875213 v -1.85113 c 0,-0.737288 0.584946,-1.323605 1.322443,-1.323605 z" />
    <path
       id="rect848-6-3-7-5-9-29-8-7-28-8"
       style="fill:#d53460;fill-opacity:1;stroke-width:1.19063;stroke-linecap:round;stroke-linejoin:round;stroke-dashoffset:2.1875"
       d="m 2.9104173,1.7197913 c -0.879475,0 -1.5875,0.708025 -1.5875,1.5875 v 2.116667 H 15.610417 v -2.116667 c 0,-0.879475 -0.708025,-1.5875 -1.5875,-1.5875 z" />
    <rect
       style="opacity:0.45;fill:#fdfdfa;fill-opacity:1;stroke-width:1.19063;stroke-linecap:round;stroke-linejoin:round;stroke-dashoffset:2.1875"
       id="rect915-6-5-97-9-1"
       width="2.1166668"
       height="3.1750004"
       x="3.7041669"
       y="0.79374915"
       rx="0.5291667"
       ry="0.5291667" />
    <rect
       style="opacity:0.85;fill:#551124;fill-opacity:1;stroke-width:1.19063;stroke-linecap:round;stroke-linejoin:round;stroke-dashoffset:2.1875"
       id="rect915-6-5-97-6-3-0"
       width="2.1166668"
       height="3.1750004"
       x="3.7041669"
       y="0.52916747"
       rx="0.5291667"
       ry="0.5291667" />
    <path
       id="rect848-6-3-7-5-6-8-9-4-0-8-3-6-3"
       style="fill:url(#linearGradient4647-6);fill-opacity:1;stroke-width:1.19063;stroke-linecap:round;stroke-linejoin:round;stroke-dashoffset:2.1875"
       d="m 2.9104173,1.7197913 c -0.879475,0 -1.5875,0.708025 -1.5875,1.5875 v 2.116667 h 0.264583 v -2.116667 c 0,-0.732895 0.590021,-1.322916 1.322917,-1.322916 H 14.022917 c 0.732896,0 1.322917,0.590021 1.322917,1.322916 v 2.116667 h 0.264583 v -2.116667 c 0,-0.879475 -0.708025,-1.5875 -1.5875,-1.5875 z" />
    <rect
       style="fill:#6e162e;fill-opacity:1;stroke:none;stroke-width:0.529167;stroke-linecap:round;stroke-linejoin:round;stroke-miterlimit:4;stroke-dasharray:none;stroke-dashoffset:2.1875;stroke-opacity:1;paint-order:normal"
       id="rect1239-6-2-8-2-8-4"
       width="14.2875"
       height="0.26458335"
       x="1.3229165"
       y="5.1593747" />
    <rect
       style="fill:#f3f3f9;fill-opacity:1;stroke-width:1.19063;stroke-linecap:round;stroke-linejoin:round;stroke-dashoffset:2.1875"
       id="rect915-6-5-1-0"
       width="2.1166668"
       height="3.1750004"
       x="3.7041669"
       y="0.26458389"
       rx="0.5291667"
       ry="0.5291667" />
    <path
       id="rect915-3-2-9-3-8-0-4-0-3"
       style="fill:url(#linearGradient4649-8);fill-opacity:1;stroke-width:1.19063;stroke-linecap:round;stroke-linejoin:round;stroke-dashoffset:2.1875"
       d="m 4.2333333,0.26458334 c -0.293158,0 -0.529166,0.236008 -0.529166,0.529167 V 2.9103903 c 0,0.293158 0.236008,0.529167 0.529166,0.529167 h 1.058334 c 0.293158,0 0.529166,-0.236009 0.529166,-0.529167 V 0.79375034 c 0,-0.293159 -0.236008,-0.529167 -0.529166,-0.529167 z m 0,0.264583 h 1.058334 c 0.146579,0 0.264583,0.118004 0.264583,0.264584 V 2.9103903 c 0,0.146579 -0.118004,0.264583 -0.264583,0.264583 h -1.058334 c -0.146579,0 -0.264583,-0.118004 -0.264583,-0.264583 V 0.79375034 c 0,-0.14658 0.118004,-0.264584 0.264583,-0.264584 z" />
    <rect
       style="fill:url(#linearGradient4651-8);fill-opacity:1;stroke-width:1.19063;stroke-linecap:round;stroke-linejoin:round;stroke-dashoffset:2.1875"
       id="rect915-6-5-9-5-9"
       width="2.1166668"
       height="3.1750004"
       x="3.7041669"
       y="0.26458389"
       rx="0.5291667"
       ry="0.5291667" />
    <rect
       style="opacity:0.45;fill:#fdfdfa;fill-opacity:1;stroke-width:1.19063;stroke-linecap:round;stroke-linejoin:round;stroke-dashoffset:2.1875"
       id="rect915-6-5-97-0-1-1"
       width="2.1166668"
       height="3.1750004"
       x="11.1125"
       y="0.79374915"
       rx="0.5291667"
       ry="0.5291667" />
    <rect
       style="opacity:0.85;fill:#551124;fill-opacity:1;stroke-width:1.19063;stroke-linecap:round;stroke-linejoin:round;stroke-dashoffset:2.1875"
       id="rect915-6-5-97-6-9-1-9"
       width="2.1166668"
       height="3.1750004"
       x="11.1125"
       y="0.52916747"
       rx="0.5291667"
       ry="0.5291667" />
    <rect
       style="fill:#f3f3f9;fill-opacity:1;stroke-width:1.19063;stroke-linecap:round;stroke-linejoin:round;stroke-dashoffset:2.1875"
       id="rect915-6-5-2-0-6"
       width="2.1166668"
       height="3.1750004"
       x="11.1125"
       y="0.26458389"
       rx="0.5291667"
       ry="0.5291667" />
    <path
       id="rect915-3-2-9-3-8-0-4-5-8-9"
       style="fill:url(#linearGradient4653-2);fill-opacity:1;stroke-width:1.19063;stroke-linecap:round;stroke-linejoin:round;stroke-dashoffset:2.1875"
       d="m 11.641672,0.26458334 c -0.293158,0 -0.529166,0.236008 -0.529166,0.529167 V 2.9103903 c 0,0.293158 0.236008,0.529167 0.529166,0.529167 h 1.058334 c 0.293158,0 0.529166,-0.236009 0.529166,-0.529167 V 0.79375034 c 0,-0.293159 -0.236008,-0.529167 -0.529166,-0.529167 z m 0,0.264583 h 1.058334 c 0.146579,0 0.264583,0.118004 0.264583,0.264584 V 2.9103903 c 0,0.146579 -0.118004,0.264583 -0.264583,0.264583 h -1.058334 c -0.146579,0 -0.264583,-0.118004 -0.264583,-0.264583 V 0.79375034 c 0,-0.14658 0.118004,-0.264584 0.264583,-0.264584 z" />
    <rect
       style="fill:url(#linearGradient933);fill-opacity:1;stroke-width:1.19063;stroke-linecap:round;stroke-linejoin:round;stroke-dashoffset:2.1875"
       id="rect915-6-5-9-4-5-3"
       width="2.1166668"
       height="3.1750004"
       x="11.1125"
       y="0.26458389"
       rx="0.5291667"
       ry="0.5291667" />
  </g>
</svg>
