<?xml version="1.0" encoding="UTF-8" standalone="no"?>
<svg
   xmlns:dc="http://purl.org/dc/elements/1.1/"
   xmlns:cc="http://creativecommons.org/ns#"
   xmlns:rdf="http://www.w3.org/1999/02/22-rdf-syntax-ns#"
   xmlns:svg="http://www.w3.org/2000/svg"
   xmlns="http://www.w3.org/2000/svg"
   xmlns:xlink="http://www.w3.org/1999/xlink"
   xmlns:sodipodi="http://sodipodi.sourceforge.net/DTD/sodipodi-0.dtd"
   xmlns:inkscape="http://www.inkscape.org/namespaces/inkscape"
   width="64"
   height="64"
   viewBox="0 0 64 64"
   version="1.1"
   id="svg6374"
   inkscape:version="1.0.2 (e86c870879, 2021-01-15)"
   sodipodi:docname="dialog-warning.svg">
  <defs
     id="defs6368">
    <linearGradient
       inkscape:collect="always"
       xlink:href="#linearGradient994"
       id="linearGradient1941"
       gradientUnits="userSpaceOnUse"
       gradientTransform="translate(-12.59366,-60.67725)"
       x1="44.592453"
       y1="67.342995"
       x2="44.093658"
       y2="92.677246" />
    <linearGradient
       inkscape:collect="always"
       id="linearGradient994">
      <stop
         style="stop-color:#f9f9f7;stop-opacity:0.1"
         offset="0"
         id="stop992" />
      <stop
         style="stop-color:#f9f9f7;stop-opacity:0"
         offset="1"
         id="stop990" />
    </linearGradient>
  </defs>
  <sodipodi:namedview
     id="base"
     pagecolor="#cecece"
     bordercolor="#666666"
     borderopacity="1.0"
     inkscape:pageopacity="0"
     inkscape:pageshadow="2"
     inkscape:zoom="2.3251494"
     inkscape:cx="-102.30361"
     inkscape:cy="63.473966"
     inkscape:document-units="px"
     inkscape:current-layer="layer1"
     inkscape:document-rotation="0"
     showgrid="false"
     units="px"
     inkscape:window-width="1920"
     inkscape:window-height="1009"
     inkscape:window-x="0"
     inkscape:window-y="0"
     inkscape:window-maximized="1" />
  <metadata
     id="metadata6371">
    <rdf:RDF>
      <cc:Work
         rdf:about="">
        <dc:format>image/svg+xml</dc:format>
        <dc:type
           rdf:resource="http://purl.org/dc/dcmitype/StillImage" />
        <dc:title />
      </cc:Work>
    </rdf:RDF>
  </metadata>
  <g
     inkscape:label="Layer 1"
     inkscape:groupmode="layer"
     id="layer1">
    <path
       id="path895-3-6-7-6-31"
       style="color:#000000;font-style:normal;font-variant:normal;font-weight:normal;font-stretch:normal;font-size:medium;line-height:normal;font-family:sans-serif;font-variant-ligatures:normal;font-variant-position:normal;font-variant-caps:normal;font-variant-numeric:normal;font-variant-alternates:normal;font-variant-east-asian:normal;font-feature-settings:normal;font-variation-settings:normal;text-indent:0;text-align:start;text-decoration:none;text-decoration-line:none;text-decoration-style:solid;text-decoration-color:#000000;letter-spacing:normal;word-spacing:normal;text-transform:none;writing-mode:lr-tb;direction:ltr;text-orientation:mixed;dominant-baseline:auto;baseline-shift:baseline;text-anchor:start;white-space:normal;shape-padding:0;shape-margin:0;inline-size:0;clip-rule:nonzero;display:inline;overflow:visible;visibility:visible;opacity:0.15;isolation:auto;mix-blend-mode:normal;color-interpolation:sRGB;color-interpolation-filters:linearRGB;solid-color:#000000;solid-opacity:1;vector-effect:none;fill:#0c0c0c;fill-opacity:1;fill-rule:nonzero;stroke:none;stroke-linecap:round;stroke-linejoin:round;stroke-miterlimit:4;stroke-dasharray:none;stroke-dashoffset:0;stroke-opacity:1;color-rendering:auto;image-rendering:auto;shape-rendering:auto;text-rendering:auto;enable-background:accumulate;stop-color:#000000"
       d="m 32,6.5 c -14.89392,0 -27,12.10608 -27,27 0,14.89392 12.10608,27 27,27 14.89392,0 27,-12.10608 27,-27 0,-14.89392 -12.10608,-27 -27,-27 z m 0,3 c 13.2726,0 24,10.7274 24,24 0,13.2726 -10.7274,24 -24,24 C 18.7274,57.5 8,46.7726 8,33.5 8,20.2274 18.7274,9.5 32,9.5 Z" />
    <path
       id="path895-3-6-94"
       style="color:#000000;font-style:normal;font-variant:normal;font-weight:normal;font-stretch:normal;font-size:medium;line-height:normal;font-family:sans-serif;font-variant-ligatures:normal;font-variant-position:normal;font-variant-caps:normal;font-variant-numeric:normal;font-variant-alternates:normal;font-variant-east-asian:normal;font-feature-settings:normal;font-variation-settings:normal;text-indent:0;text-align:start;text-decoration:none;text-decoration-line:none;text-decoration-style:solid;text-decoration-color:#000000;letter-spacing:normal;word-spacing:normal;text-transform:none;writing-mode:lr-tb;direction:ltr;text-orientation:mixed;dominant-baseline:auto;baseline-shift:baseline;text-anchor:start;white-space:normal;shape-padding:0;shape-margin:0;inline-size:0;clip-rule:nonzero;display:inline;overflow:visible;visibility:visible;opacity:0.8;isolation:auto;mix-blend-mode:normal;color-interpolation:sRGB;color-interpolation-filters:linearRGB;solid-color:#000000;solid-opacity:1;vector-effect:none;fill:#96730d;fill-opacity:1;fill-rule:nonzero;stroke:none;stroke-linecap:round;stroke-linejoin:round;stroke-miterlimit:4;stroke-dasharray:none;stroke-dashoffset:0;stroke-opacity:1;color-rendering:auto;image-rendering:auto;shape-rendering:auto;text-rendering:auto;enable-background:accumulate;stop-color:#000000"
       d="M 32,5 C 17.10608,5 5,17.10608 5,32 5,46.89392 17.10608,59 32,59 46.89392,59 59,46.89392 59,32 59,17.10608 46.89392,5 32,5 Z m 0,3 C 45.2726,8 56,18.7274 56,32 56,45.2726 45.2726,56 32,56 18.7274,56 8,45.2726 8,32 8,18.7274 18.7274,8 32,8 Z" />
    <circle
       style="fill:#fcd617;fill-opacity:1;stroke:none;stroke-width:0;stroke-linecap:round;stroke-linejoin:round;stroke-miterlimit:4;stroke-dasharray:none"
       id="path895-7"
       cx="31.999969"
       cy="32"
       r="25.5" />
    <path
       id="path895-3-6-7-84"
       style="color:#000000;font-style:normal;font-variant:normal;font-weight:normal;font-stretch:normal;font-size:medium;line-height:normal;font-family:sans-serif;font-variant-ligatures:normal;font-variant-position:normal;font-variant-caps:normal;font-variant-numeric:normal;font-variant-alternates:normal;font-variant-east-asian:normal;font-feature-settings:normal;font-variation-settings:normal;text-indent:0;text-align:start;text-decoration:none;text-decoration-line:none;text-decoration-style:solid;text-decoration-color:#000000;letter-spacing:normal;word-spacing:normal;text-transform:none;writing-mode:lr-tb;direction:ltr;text-orientation:mixed;dominant-baseline:auto;baseline-shift:baseline;text-anchor:start;white-space:normal;shape-padding:0;shape-margin:0;inline-size:0;clip-rule:nonzero;display:inline;overflow:visible;visibility:visible;opacity:0.175;isolation:auto;mix-blend-mode:normal;color-interpolation:sRGB;color-interpolation-filters:linearRGB;solid-color:#000000;solid-opacity:1;vector-effect:none;fill:#796a01;fill-opacity:1;fill-rule:nonzero;stroke:none;stroke-linecap:round;stroke-linejoin:round;stroke-miterlimit:4;stroke-dasharray:none;stroke-dashoffset:0;stroke-opacity:1;color-rendering:auto;image-rendering:auto;shape-rendering:auto;text-rendering:auto;enable-background:accumulate;stop-color:#000000"
       d="M 32,5 C 17.10608,5 5,17.10608 5,32 5,46.89392 17.10608,59 32,59 46.89392,59 59,46.89392 59,32 59,17.10608 46.89392,5 32,5 Z m 0,3 C 45.2726,8 56,18.7274 56,32 56,45.2726 45.2726,56 32,56 18.7274,56 8,45.2726 8,32 8,18.7274 18.7274,8 32,8 Z" />
    <circle
       style="fill:url(#linearGradient1941);fill-opacity:1;stroke:none;stroke-width:0;stroke-linecap:round;stroke-linejoin:round;stroke-miterlimit:4;stroke-dasharray:none"
       id="path895-5-5"
       cx="31.999969"
       cy="32"
       r="25.5" />
    <path
       id="rect2609-8-3-61-3-1"
       style="opacity:0.35;fill:#796a01;fill-opacity:1;stroke:none;stroke-width:2.32261;stroke-linecap:round;stroke-linejoin:round;stroke-miterlimit:4;stroke-dasharray:none;stroke-dashoffset:2.1875;stroke-opacity:1"
       d="m 30.257,15.5 c -0.91153,0 -1.66003,0.75036 -1.66,1.6621 v 20.90234 c 0,0.91174 0.74835,1.66211 1.66,1.66211 h 3.48405 c 0.91166,0 1.66196,-0.75038 1.66196,-1.66211 V 17.1621 c 0,-0.91173 -0.75043,-1.6621 -1.66196,-1.6621 z m 1.74203,27.87108 c -2.51482,0 -4.5641,2.0494 -4.56403,4.56446 7e-5,2.51498 2.04931,4.56446 4.56403,4.56446 2.51469,0 4.5659,-2.04948 4.56597,-4.56446 1e-4,-2.51506 -2.05118,-4.56446 -4.56597,-4.56446 z" />
    <path
       id="rect2609-8-3-61"
       style="fill:#413c41;fill-opacity:1;stroke:none;stroke-width:2.32272;stroke-linecap:round;stroke-linejoin:round;stroke-miterlimit:4;stroke-dasharray:none;stroke-dashoffset:2.1875;stroke-opacity:1"
       d="m 30.25787,14 c -0.64344,0 -1.16143,0.51782 -1.16143,1.16117 V 36.0644 c 0,0.64335 0.51799,1.16141 1.16143,1.16141 h 3.48428 c 0.64344,0 1.16143,-0.51806 1.16143,-1.16141 V 15.16117 C 34.90358,14.51782 34.38559,14 33.74215,14 Z m 1.74214,27.87085 a 4.0650011,4.0645161 0 0 0 -4.065,4.06463 4.0650011,4.0645161 0 0 0 4.065,4.0644 4.0650011,4.0645161 0 0 0 4.065,-4.0644 4.0650011,4.0645161 0 0 0 -4.065,-4.06463 z" />
  </g>
</svg>
