<?xml version="1.0" encoding="UTF-8" standalone="no"?>
<svg
   xmlns:dc="http://purl.org/dc/elements/1.1/"
   xmlns:cc="http://creativecommons.org/ns#"
   xmlns:rdf="http://www.w3.org/1999/02/22-rdf-syntax-ns#"
   xmlns:svg="http://www.w3.org/2000/svg"
   xmlns="http://www.w3.org/2000/svg"
   xmlns:xlink="http://www.w3.org/1999/xlink"
   xmlns:sodipodi="http://sodipodi.sourceforge.net/DTD/sodipodi-0.dtd"
   xmlns:inkscape="http://www.inkscape.org/namespaces/inkscape"
   width="64"
   height="64"
   viewBox="0 0 64 64"
   version="1.1"
   id="svg6374"
   inkscape:version="1.0.2 (e86c870879, 2021-01-15)"
   sodipodi:docname="printer-warning.svg">
  <defs
     id="defs6368">
    <linearGradient
       inkscape:collect="always"
       xlink:href="#linearGradient1315"
       id="linearGradient2697"
       x1="-51.086292"
       y1="22.220631"
       x2="-51.239521"
       y2="47.565178"
       gradientUnits="userSpaceOnUse"
       gradientTransform="translate(81.68945,1.71094)" />
    <linearGradient
       inkscape:collect="always"
       id="linearGradient1315">
      <stop
         style="stop-color:#dadade;stop-opacity:1"
         offset="0"
         id="stop1311" />
      <stop
         style="stop-color:#b8b8bd;stop-opacity:1"
         offset="1"
         id="stop1313" />
    </linearGradient>
    <linearGradient
       inkscape:collect="always"
       xlink:href="#linearGradient1472"
       id="linearGradient1138"
       gradientUnits="userSpaceOnUse"
       gradientTransform="translate(1.5,-58)"
       x1="1.5"
       y1="94.640625"
       x2="31.5"
       y2="94.640625" />
    <linearGradient
       inkscape:collect="always"
       id="linearGradient1472">
      <stop
         style="stop-color:#f8f8fc;stop-opacity:1;"
         offset="0"
         id="stop1468" />
      <stop
         style="stop-color:#f8f8fc;stop-opacity:0;"
         offset="1"
         id="stop1470" />
    </linearGradient>
    <linearGradient
       inkscape:collect="always"
       xlink:href="#linearGradient1472"
       id="linearGradient2796"
       x1="32.403374"
       y1="40.094997"
       x2="32.333378"
       y2="48.247993"
       gradientUnits="userSpaceOnUse"
       gradientTransform="translate(0,0.5)" />
    <linearGradient
       inkscape:collect="always"
       xlink:href="#linearGradient1617"
       id="linearGradient1140"
       gradientUnits="userSpaceOnUse"
       gradientTransform="translate(3.01467,-45.12508)"
       x1="4.742949"
       y1="73.311638"
       x2="8.3865204"
       y2="77.706078" />
    <linearGradient
       inkscape:collect="always"
       id="linearGradient1617">
      <stop
         style="stop-color:#f9f9f7;stop-opacity:0.2"
         offset="0"
         id="stop1615" />
      <stop
         style="stop-color:#f9f9f7;stop-opacity:0"
         offset="1"
         id="stop1613" />
    </linearGradient>
    <linearGradient
       inkscape:collect="always"
       xlink:href="#linearGradient979-8"
       id="linearGradient2161"
       gradientUnits="userSpaceOnUse"
       gradientTransform="matrix(2.3622047,0,0,2.3622041,28.5,-34.99999)"
       x1="8.3343754"
       y1="37.041672"
       x2="8.598959"
       y2="29.104166" />
    <linearGradient
       inkscape:collect="always"
       id="linearGradient979-8">
      <stop
         style="stop-color:#f9f9f7;stop-opacity:0"
         offset="0"
         id="stop975-7" />
      <stop
         style="stop-color:#f9f9f7;stop-opacity:0.1"
         offset="1"
         id="stop977-9" />
    </linearGradient>
  </defs>
  <sodipodi:namedview
     id="base"
     pagecolor="#cecece"
     bordercolor="#666666"
     borderopacity="1.0"
     inkscape:pageopacity="0"
     inkscape:pageshadow="2"
     inkscape:zoom="2.6428613"
     inkscape:cx="-41.010537"
     inkscape:cy="26.317144"
     inkscape:document-units="px"
     inkscape:current-layer="layer1"
     inkscape:document-rotation="0"
     showgrid="false"
     units="px"
     inkscape:window-width="2048"
     inkscape:window-height="1080"
     inkscape:window-x="0"
     inkscape:window-y="0"
     inkscape:window-maximized="1" />
  <metadata
     id="metadata6371">
    <rdf:RDF>
      <cc:Work
         rdf:about="">
        <dc:format>image/svg+xml</dc:format>
        <dc:type
           rdf:resource="http://purl.org/dc/dcmitype/StillImage" />
        <dc:title></dc:title>
      </cc:Work>
    </rdf:RDF>
  </metadata>
  <g
     inkscape:label="Layer 1"
     inkscape:groupmode="layer"
     id="layer1">
    <path
       id="rect866-3-2-3-5-5-6-87"
       style="color:#000000;font-style:normal;font-variant:normal;font-weight:normal;font-stretch:normal;font-size:medium;line-height:normal;font-family:sans-serif;font-variant-ligatures:normal;font-variant-position:normal;font-variant-caps:normal;font-variant-numeric:normal;font-variant-alternates:normal;font-variant-east-asian:normal;font-feature-settings:normal;font-variation-settings:normal;text-indent:0;text-align:start;text-decoration:none;text-decoration-line:none;text-decoration-style:solid;text-decoration-color:#000000;letter-spacing:normal;word-spacing:normal;text-transform:none;writing-mode:lr-tb;direction:ltr;text-orientation:mixed;dominant-baseline:auto;baseline-shift:baseline;text-anchor:start;white-space:normal;shape-padding:0;shape-margin:0;inline-size:0;clip-rule:nonzero;display:inline;overflow:visible;visibility:visible;opacity:0.15;isolation:auto;mix-blend-mode:normal;color-interpolation:sRGB;color-interpolation-filters:linearRGB;solid-color:#000000;solid-opacity:1;vector-effect:none;fill:#0c0c0c;fill-opacity:1;fill-rule:nonzero;stroke:none;stroke-linecap:round;stroke-linejoin:round;stroke-miterlimit:4;stroke-dasharray:none;stroke-dashoffset:2.1875;stroke-opacity:1;color-rendering:auto;image-rendering:auto;shape-rendering:auto;text-rendering:auto;enable-background:accumulate;stop-color:#000000"
       d="M 5.71875,23 C 3.40751,23 1.5,24.9075 1.5,27.21875 v 12.6875 9.51562 c 0,1.55814 1.30123,2.85938 2.85937,2.85938 h 55.28125 c 1.55815,0 2.85938,-1.30123 2.85938,-2.85938 V 39.90625 27.21875 C 62.5,24.9075 60.59249,22.99999 58.28125,23 Z m 0,3 h 52.5625 C 58.98238,26 59.5,26.51761 59.5,27.21875 v 12.6875 9.375 h -55 v -9.375 -12.6875 C 4.5,26.51761 5.01762,25.99999 5.71875,26 Z" />
    <path
       id="rect954-7-0-7-3-0-0-0-6-3-0-78-2-9-1-9-5"
       style="color:#000000;font-style:normal;font-variant:normal;font-weight:normal;font-stretch:normal;font-size:medium;line-height:normal;font-family:sans-serif;font-variant-ligatures:normal;font-variant-position:normal;font-variant-caps:normal;font-variant-numeric:normal;font-variant-alternates:normal;font-variant-east-asian:normal;font-feature-settings:normal;font-variation-settings:normal;text-indent:0;text-align:start;text-decoration:none;text-decoration-line:none;text-decoration-style:solid;text-decoration-color:#000000;letter-spacing:normal;word-spacing:normal;text-transform:none;writing-mode:lr-tb;direction:ltr;text-orientation:mixed;dominant-baseline:auto;baseline-shift:baseline;text-anchor:start;white-space:normal;shape-padding:0;shape-margin:0;inline-size:0;clip-rule:nonzero;display:inline;overflow:visible;visibility:visible;opacity:0.15;isolation:auto;mix-blend-mode:normal;color-interpolation:sRGB;color-interpolation-filters:linearRGB;solid-color:#000000;solid-opacity:1;vector-effect:none;fill:#0c0c0c;fill-opacity:1;fill-rule:nonzero;stroke:none;stroke-width:0.999991;stroke-linecap:round;stroke-linejoin:round;stroke-miterlimit:4;stroke-dasharray:none;stroke-dashoffset:2.1875;stroke-opacity:1;color-rendering:auto;image-rendering:auto;shape-rendering:auto;text-rendering:auto;enable-background:accumulate;stop-color:#000000"
       d="M 9,45.5 7.60937,58.77734 c -0.25837,2.46701 1.56035,4.5 4.02735,4.5 H 32 52.36328 c 2.46699,0 4.28571,-2.03299 4.02734,-4.5 L 55,45.5 h -3 l 1.39062,13.27734 c 0.0898,0.85694 -0.48489,1.5 -1.34179,1.5 H 32 11.95117 c -0.8569,0 -1.43156,-0.64306 -1.3418,-1.5 L 12,45.5 Z" />
    <path
       id="rect954-7-0-7-3-0-0-0-6-3-0-78-1"
       style="color:#000000;font-style:normal;font-variant:normal;font-weight:normal;font-stretch:normal;font-size:medium;line-height:normal;font-family:sans-serif;font-variant-ligatures:normal;font-variant-position:normal;font-variant-caps:normal;font-variant-numeric:normal;font-variant-alternates:normal;font-variant-east-asian:normal;font-feature-settings:normal;font-variation-settings:normal;text-indent:0;text-align:start;text-decoration:none;text-decoration-line:none;text-decoration-style:solid;text-decoration-color:#000000;letter-spacing:normal;word-spacing:normal;text-transform:none;writing-mode:lr-tb;direction:ltr;text-orientation:mixed;dominant-baseline:auto;baseline-shift:baseline;text-anchor:start;white-space:normal;shape-padding:0;shape-margin:0;inline-size:0;clip-rule:nonzero;display:inline;overflow:visible;visibility:visible;isolation:auto;mix-blend-mode:normal;color-interpolation:sRGB;color-interpolation-filters:linearRGB;solid-color:#000000;solid-opacity:1;vector-effect:none;fill:#414143;fill-opacity:1;fill-rule:nonzero;stroke:none;stroke-linecap:round;stroke-linejoin:round;stroke-miterlimit:4;stroke-dasharray:none;stroke-dashoffset:2.1875;stroke-opacity:1;color-rendering:auto;image-rendering:auto;shape-rendering:auto;text-rendering:auto;enable-background:accumulate;stop-color:#000000"
       d="M 13,1 C 10.53295,1 8.5,3.03295 8.5,5.5 V 31 h 3 V 5.5 C 11.5,4.64306 12.14305,4 13,4 h 38 c 0.8569,0 1.5,0.64306 1.5,1.5 V 31 h 3 V 5.5 C 55.5,3.03295 53.467,1 51,1 Z" />
    <path
       id="rect954-7-0-7-9-6-9"
       style="fill:#fbfaf9;fill-opacity:1;stroke-width:0.495;stroke-linecap:round;stroke-linejoin:round;stroke-miterlimit:4;stroke-dasharray:none;stroke-dashoffset:2.1875"
       d="m 13,2.5 c -1.662,0 -3,1.338 -3,3 V 31 H 54 V 5.5 c 0,-1.662 -1.338,-3 -3,-3 z" />
    <path
       id="rect866-3-2-3-5-5-6-3"
       style="color:#000000;font-style:normal;font-variant:normal;font-weight:normal;font-stretch:normal;font-size:medium;line-height:normal;font-family:sans-serif;font-variant-ligatures:normal;font-variant-position:normal;font-variant-caps:normal;font-variant-numeric:normal;font-variant-alternates:normal;font-variant-east-asian:normal;font-feature-settings:normal;font-variation-settings:normal;text-indent:0;text-align:start;text-decoration:none;text-decoration-line:none;text-decoration-style:solid;text-decoration-color:#000000;letter-spacing:normal;word-spacing:normal;text-transform:none;writing-mode:lr-tb;direction:ltr;text-orientation:mixed;dominant-baseline:auto;baseline-shift:baseline;text-anchor:start;white-space:normal;shape-padding:0;shape-margin:0;inline-size:0;clip-rule:nonzero;display:inline;overflow:visible;visibility:visible;opacity:0.075;isolation:auto;mix-blend-mode:normal;color-interpolation:sRGB;color-interpolation-filters:linearRGB;solid-color:#000000;solid-opacity:1;vector-effect:none;fill:#0c0c0c;fill-opacity:1;fill-rule:nonzero;stroke:none;stroke-linecap:round;stroke-linejoin:round;stroke-miterlimit:4;stroke-dasharray:none;stroke-dashoffset:2.1875;stroke-opacity:1;color-rendering:auto;image-rendering:auto;shape-rendering:auto;text-rendering:auto;enable-background:accumulate;stop-color:#000000"
       d="M 5.71875,20.75 C 3.40751,20.75 1.5,22.6575 1.5,24.96875 v 12.6875 9.51562 c 0,1.55814 1.30123,2.85938 2.85937,2.85938 h 55.28125 c 1.55815,0 2.85938,-1.30123 2.85938,-2.85938 V 37.65625 24.96875 C 62.5,22.6575 60.59249,20.74999 58.28125,20.75 Z m 0,3 h 52.5625 c 0.70113,0 1.21875,0.51761 1.21875,1.21875 v 12.6875 9.375 h -55 v -9.375 -12.6875 C 4.5,24.26761 5.01762,23.74999 5.71875,23.75 Z" />
    <path
       id="rect866-3-2-3-5-36"
       style="color:#000000;font-style:normal;font-variant:normal;font-weight:normal;font-stretch:normal;font-size:medium;line-height:normal;font-family:sans-serif;font-variant-ligatures:normal;font-variant-position:normal;font-variant-caps:normal;font-variant-numeric:normal;font-variant-alternates:normal;font-variant-east-asian:normal;font-feature-settings:normal;font-variation-settings:normal;text-indent:0;text-align:start;text-decoration:none;text-decoration-line:none;text-decoration-style:solid;text-decoration-color:#000000;letter-spacing:normal;word-spacing:normal;text-transform:none;writing-mode:lr-tb;direction:ltr;text-orientation:mixed;dominant-baseline:auto;baseline-shift:baseline;text-anchor:start;white-space:normal;shape-padding:0;shape-margin:0;inline-size:0;clip-rule:nonzero;display:inline;overflow:visible;visibility:visible;opacity:0.85;isolation:auto;mix-blend-mode:normal;color-interpolation:sRGB;color-interpolation-filters:linearRGB;solid-color:#000000;solid-opacity:1;vector-effect:none;fill:#555564;fill-opacity:1;fill-rule:nonzero;stroke:none;stroke-linecap:round;stroke-linejoin:round;stroke-miterlimit:4;stroke-dasharray:none;stroke-dashoffset:2.1875;stroke-opacity:1;color-rendering:auto;image-rendering:auto;shape-rendering:auto;text-rendering:auto;enable-background:accumulate;stop-color:#000000"
       d="M 5.71875,22 C 3.40751,22 1.5,23.9075 1.5,26.21875 v 12.6875 9.51562 c 0,1.55814 1.30123,2.85938 2.85937,2.85938 h 55.28125 c 1.55815,0 2.85938,-1.30123 2.85938,-2.85938 V 38.90625 26.21875 C 62.5,23.9075 60.59249,21.99999 58.28125,22 Z m 0,3 h 52.5625 C 58.98238,25 59.5,25.51761 59.5,26.21875 v 12.6875 9.375 h -55 v -9.375 -12.6875 C 4.5,25.51761 5.01762,24.99999 5.71875,25 Z" />
    <path
       id="path2688"
       style="fill:url(#linearGradient2697);fill-opacity:1;stroke:none;stroke-width:1.25;stroke-linecap:round;stroke-linejoin:round"
       d="M 5.71875,23.5 C 4.21256,23.5 3,24.71256 3,26.21875 v 12.6875 9.51562 c 0,0.75309 0.60628,1.35938 1.35937,1.35938 H 59.64062 C 60.39372,49.78125 61,49.17496 61,48.42187 V 38.90625 26.21875 C 61,24.71256 59.78744,23.5 58.28125,23.5 Z" />
    <path
       id="path1583-9-2-9-2"
       style="color:#000000;font-style:normal;font-variant:normal;font-weight:normal;font-stretch:normal;font-size:medium;line-height:normal;font-family:sans-serif;font-variant-ligatures:normal;font-variant-position:normal;font-variant-caps:normal;font-variant-numeric:normal;font-variant-alternates:normal;font-variant-east-asian:normal;font-feature-settings:normal;font-variation-settings:normal;text-indent:0;text-align:start;text-decoration:none;text-decoration-line:none;text-decoration-style:solid;text-decoration-color:#000000;letter-spacing:normal;word-spacing:normal;text-transform:none;writing-mode:lr-tb;direction:ltr;text-orientation:mixed;dominant-baseline:auto;baseline-shift:baseline;text-anchor:start;white-space:normal;shape-padding:0;shape-margin:0;inline-size:0;clip-rule:nonzero;display:inline;overflow:visible;visibility:visible;opacity:0.45;isolation:auto;mix-blend-mode:normal;color-interpolation:sRGB;color-interpolation-filters:linearRGB;solid-color:#000000;solid-opacity:1;vector-effect:none;fill:#f8f8fc;fill-opacity:1;fill-rule:nonzero;stroke:none;stroke-width:1.10811;stroke-linecap:round;stroke-linejoin:round;stroke-miterlimit:4;stroke-dasharray:none;stroke-dashoffset:0;stroke-opacity:1;color-rendering:auto;image-rendering:auto;shape-rendering:auto;text-rendering:auto;enable-background:accumulate;stop-color:#000000"
       d="M 11.125,26.5 C 8.30767,26.5 6,28.80767 6,31.625 c 0,2.81733 2.30767,5.125 5.125,5.125 2.81733,0 5.125,-2.30767 5.125,-5.125 0,-2.81733 -2.30767,-5.125 -5.125,-5.125 z m 0,2.21621 c 1.6196,0 2.90878,1.28919 2.90878,2.90879 0,1.6196 -1.28918,2.90878 -2.90878,2.90878 -1.6196,0 -2.90878,-1.28918 -2.90878,-2.90878 0,-1.6196 1.28918,-2.90879 2.90878,-2.90879 z" />
    <path
       id="rect866-3-2-3-5-5-6"
       style="color:#000000;font-style:normal;font-variant:normal;font-weight:normal;font-stretch:normal;font-size:medium;line-height:normal;font-family:sans-serif;font-variant-ligatures:normal;font-variant-position:normal;font-variant-caps:normal;font-variant-numeric:normal;font-variant-alternates:normal;font-variant-east-asian:normal;font-feature-settings:normal;font-variation-settings:normal;text-indent:0;text-align:start;text-decoration:none;text-decoration-line:none;text-decoration-style:solid;text-decoration-color:#000000;letter-spacing:normal;word-spacing:normal;text-transform:none;writing-mode:lr-tb;direction:ltr;text-orientation:mixed;dominant-baseline:auto;baseline-shift:baseline;text-anchor:start;white-space:normal;shape-padding:0;shape-margin:0;inline-size:0;clip-rule:nonzero;display:inline;overflow:visible;visibility:visible;opacity:0.15;isolation:auto;mix-blend-mode:normal;color-interpolation:sRGB;color-interpolation-filters:linearRGB;solid-color:#000000;solid-opacity:1;vector-effect:none;fill:#383842;fill-opacity:1;fill-rule:nonzero;stroke:none;stroke-linecap:round;stroke-linejoin:round;stroke-miterlimit:4;stroke-dasharray:none;stroke-dashoffset:2.1875;stroke-opacity:1;color-rendering:auto;image-rendering:auto;shape-rendering:auto;text-rendering:auto;enable-background:accumulate;stop-color:#000000"
       d="M 5.71875,22 C 3.40751,22 1.5,23.9075 1.5,26.21875 v 12.6875 9.51562 c 0,1.55814 1.30123,2.85938 2.85937,2.85938 h 55.28125 c 1.55815,0 2.85938,-1.30123 2.85938,-2.85938 V 38.90625 26.21875 C 62.5,23.9075 60.59249,21.99999 58.28125,22 Z m 0,3 h 52.5625 C 58.98238,25 59.5,25.51761 59.5,26.21875 v 12.6875 9.375 h -55 v -9.375 -12.6875 C 4.5,25.51761 5.01762,24.99999 5.71875,25 Z" />
    <path
       id="rect866-3-2-3-5-2-9-2"
       style="color:#000000;font-style:normal;font-variant:normal;font-weight:normal;font-stretch:normal;font-size:medium;line-height:normal;font-family:sans-serif;font-variant-ligatures:normal;font-variant-position:normal;font-variant-caps:normal;font-variant-numeric:normal;font-variant-alternates:normal;font-variant-east-asian:normal;font-feature-settings:normal;font-variation-settings:normal;text-indent:0;text-align:start;text-decoration:none;text-decoration-line:none;text-decoration-style:solid;text-decoration-color:#000000;letter-spacing:normal;word-spacing:normal;text-transform:none;writing-mode:lr-tb;direction:ltr;text-orientation:mixed;dominant-baseline:auto;baseline-shift:baseline;text-anchor:start;white-space:normal;shape-padding:0;shape-margin:0;inline-size:0;clip-rule:nonzero;display:inline;overflow:visible;visibility:visible;opacity:0.75;isolation:auto;mix-blend-mode:normal;color-interpolation:sRGB;color-interpolation-filters:linearRGB;solid-color:#000000;solid-opacity:1;vector-effect:none;fill:url(#linearGradient1138);fill-opacity:1;fill-rule:nonzero;stroke:none;stroke-linecap:round;stroke-linejoin:round;stroke-miterlimit:4;stroke-dasharray:none;stroke-dashoffset:2.1875;stroke-opacity:1;color-rendering:auto;image-rendering:auto;shape-rendering:auto;text-rendering:auto;enable-background:accumulate;stop-color:#000000"
       d="M 5.71875,23.5 C 4.21256,23.5 3,24.71256 3,26.21875 v 12.6875 9.51562 c 0,0.75308 0.60628,1.35936 1.35937,1.35938 H 59.64062 C 60.39372,49.78125 61,49.17496 61,48.42187 V 38.90625 26.21875 C 61,24.71256 59.78744,23.5 58.28125,23.5 Z m 0,1.5 h 52.5625 C 58.98238,25 59.5,25.51761 59.5,26.21875 v 12.6875 9.375 h -55 v -9.375 -12.6875 C 4.5,25.51761 5.01762,24.99999 5.71875,25 Z" />
    <path
       id="rect2656-0-5-9"
       style="fill:#414143;fill-opacity:1;stroke:none;stroke-width:1.25;stroke-linecap:round;stroke-linejoin:round"
       d="m 8.5,41.281 c -0.831,0 -1.5,0.669 -1.5,1.5 v 8.5 h 50 v -8.5 c 0,-0.831 -0.669,-1.5 -1.5,-1.5 z" />
    <path
       id="rect2656-0-5-4"
       style="color:#000000;font-style:normal;font-variant:normal;font-weight:normal;font-stretch:normal;font-size:medium;line-height:normal;font-family:sans-serif;font-variant-ligatures:normal;font-variant-position:normal;font-variant-caps:normal;font-variant-numeric:normal;font-variant-alternates:normal;font-variant-east-asian:normal;font-feature-settings:normal;font-variation-settings:normal;text-indent:0;text-align:start;text-decoration:none;text-decoration-line:none;text-decoration-style:solid;text-decoration-color:#000000;letter-spacing:normal;word-spacing:normal;text-transform:none;writing-mode:lr-tb;direction:ltr;text-orientation:mixed;dominant-baseline:auto;baseline-shift:baseline;text-anchor:start;white-space:normal;shape-padding:0;shape-margin:0;inline-size:0;clip-rule:nonzero;display:inline;overflow:visible;visibility:visible;opacity:0.55;isolation:auto;mix-blend-mode:normal;color-interpolation:sRGB;color-interpolation-filters:linearRGB;solid-color:#000000;solid-opacity:1;vector-effect:none;fill:url(#linearGradient2796);fill-opacity:1;fill-rule:nonzero;stroke:none;stroke-linecap:round;stroke-linejoin:round;stroke-miterlimit:4;stroke-dasharray:none;stroke-dashoffset:0;stroke-opacity:1;color-rendering:auto;image-rendering:auto;shape-rendering:auto;text-rendering:auto;enable-background:accumulate;stop-color:#000000"
       d="m 8.5,40.781 c -1.09935,0 -2,0.90065 -2,2 v 8.5 a 0.50005,0.50005 0 0 0 0.5,0.5 h 50 a 0.50005,0.50005 0 0 0 0.5,-0.5 v -8.5 c 0,-1.09935 -0.90065,-2 -2,-2 z m 0,1 h 47 c 0.56265,0 1,0.43735 1,1 v 8 h -49 v -8 c 0,-0.56265 0.43735,-1 1,-1 z" />
    <path
       id="rect954-7-0-7-3-0-0-0-6-3-0-78-2-9-1-9"
       style="color:#000000;font-style:normal;font-variant:normal;font-weight:normal;font-stretch:normal;font-size:medium;line-height:normal;font-family:sans-serif;font-variant-ligatures:normal;font-variant-position:normal;font-variant-caps:normal;font-variant-numeric:normal;font-variant-alternates:normal;font-variant-east-asian:normal;font-feature-settings:normal;font-variation-settings:normal;text-indent:0;text-align:start;text-decoration:none;text-decoration-line:none;text-decoration-style:solid;text-decoration-color:#000000;letter-spacing:normal;word-spacing:normal;text-transform:none;writing-mode:lr-tb;direction:ltr;text-orientation:mixed;dominant-baseline:auto;baseline-shift:baseline;text-anchor:start;white-space:normal;shape-padding:0;shape-margin:0;inline-size:0;clip-rule:nonzero;display:inline;overflow:visible;visibility:visible;isolation:auto;mix-blend-mode:normal;color-interpolation:sRGB;color-interpolation-filters:linearRGB;solid-color:#000000;solid-opacity:1;vector-effect:none;fill:#414143;fill-opacity:1;fill-rule:nonzero;stroke:none;stroke-width:0.999991;stroke-linecap:round;stroke-linejoin:round;stroke-miterlimit:4;stroke-dasharray:none;stroke-dashoffset:2.1875;stroke-opacity:1;color-rendering:auto;image-rendering:auto;shape-rendering:auto;text-rendering:auto;enable-background:accumulate;stop-color:#000000"
       d="M 9,44.5 7.60937,57.77734 c -0.25837,2.46701 1.56035,4.5 4.02735,4.5 H 32 52.36328 c 2.46699,0 4.28571,-2.03299 4.02734,-4.5 L 55,44.5 h -3 l 1.39062,13.27734 c 0.0898,0.85694 -0.48489,1.5 -1.34179,1.5 H 32 11.95117 c -0.8569,0 -1.43156,-0.64306 -1.3418,-1.5 L 12,44.5 Z" />
    <path
       id="rect954-7-0-7-9-6-3-2-3-3"
       style="fill:#fbfaf9;fill-opacity:1;stroke-width:0.494995;stroke-linecap:round;stroke-linejoin:round;stroke-miterlimit:4;stroke-dasharray:none;stroke-dashoffset:2.1875"
       d="M 10.57812,44.5 8.95508,57.77734 c -0.20307,1.66198 0.97081,3 2.63281,3 h 20.41016 20.41211 c 1.66199,0 2.83588,-1.33803 2.63281,-3 L 53.41992,44.5 Z" />
    <path
       id="path1583-9-2-6"
       style="color:#000000;font-style:normal;font-variant:normal;font-weight:normal;font-stretch:normal;font-size:medium;line-height:normal;font-family:sans-serif;font-variant-ligatures:normal;font-variant-position:normal;font-variant-caps:normal;font-variant-numeric:normal;font-variant-alternates:normal;font-variant-east-asian:normal;font-feature-settings:normal;font-variation-settings:normal;text-indent:0;text-align:start;text-decoration:none;text-decoration-line:none;text-decoration-style:solid;text-decoration-color:#000000;letter-spacing:normal;word-spacing:normal;text-transform:none;writing-mode:lr-tb;direction:ltr;text-orientation:mixed;dominant-baseline:auto;baseline-shift:baseline;text-anchor:start;white-space:normal;shape-padding:0;shape-margin:0;inline-size:0;clip-rule:nonzero;display:inline;overflow:visible;visibility:visible;opacity:0.75;isolation:auto;mix-blend-mode:normal;color-interpolation:sRGB;color-interpolation-filters:linearRGB;solid-color:#000000;solid-opacity:1;vector-effect:none;fill:#28800f;fill-opacity:1;fill-rule:nonzero;stroke:none;stroke-linecap:round;stroke-linejoin:round;stroke-miterlimit:4;stroke-dasharray:none;stroke-dashoffset:0;stroke-opacity:1;color-rendering:auto;image-rendering:auto;shape-rendering:auto;text-rendering:auto;enable-background:accumulate;stop-color:#000000"
       d="m 11.125,27.00018 c -2.54247,0 -4.625,2.08253 -4.625,4.625 0,2.54247 2.08253,4.625 4.625,4.625 2.54247,0 4.625,-2.08253 4.625,-4.625 0,-2.54247 -2.08253,-4.625 -4.625,-4.625 z m 0,2 c 1.46159,0 2.625,1.16341 2.625,2.625 0,1.46159 -1.16341,2.625 -2.625,2.625 -1.46159,0 -2.625,-1.16341 -2.625,-2.625 0,-1.46159 1.16341,-2.625 2.625,-2.625 z" />
    <circle
       style="fill:#46f217;fill-opacity:1;stroke:none;stroke-width:2.50029;stroke-linecap:round;stroke-linejoin:round;stroke-miterlimit:4;stroke-dasharray:none;stroke-opacity:1"
       id="path1583-1"
       cx="11.125"
       cy="31.625185"
       r="3.625" />
    <path
       id="path1583-9-2-0-8"
       style="color:#000000;font-style:normal;font-variant:normal;font-weight:normal;font-stretch:normal;font-size:medium;line-height:normal;font-family:sans-serif;font-variant-ligatures:normal;font-variant-position:normal;font-variant-caps:normal;font-variant-numeric:normal;font-variant-alternates:normal;font-variant-east-asian:normal;font-feature-settings:normal;font-variation-settings:normal;text-indent:0;text-align:start;text-decoration:none;text-decoration-line:none;text-decoration-style:solid;text-decoration-color:#000000;letter-spacing:normal;word-spacing:normal;text-transform:none;writing-mode:lr-tb;direction:ltr;text-orientation:mixed;dominant-baseline:auto;baseline-shift:baseline;text-anchor:start;white-space:normal;shape-padding:0;shape-margin:0;inline-size:0;clip-rule:nonzero;display:inline;overflow:visible;visibility:visible;opacity:0.15;isolation:auto;mix-blend-mode:normal;color-interpolation:sRGB;color-interpolation-filters:linearRGB;solid-color:#000000;solid-opacity:1;vector-effect:none;fill:#0c0c0c;fill-opacity:1;fill-rule:nonzero;stroke:none;stroke-linecap:round;stroke-linejoin:round;stroke-miterlimit:4;stroke-dasharray:none;stroke-dashoffset:0;stroke-opacity:1;color-rendering:auto;image-rendering:auto;shape-rendering:auto;text-rendering:auto;enable-background:accumulate;stop-color:#000000"
       d="m 11.125,27.00018 c -2.54247,0 -4.625,2.08253 -4.625,4.625 0,2.54247 2.08253,4.625 4.625,4.625 2.54247,0 4.625,-2.08253 4.625,-4.625 0,-2.54247 -2.08253,-4.625 -4.625,-4.625 z m 0,2 c 1.46159,0 2.625,1.16341 2.625,2.625 0,1.46159 -1.16341,2.625 -2.625,2.625 -1.46159,0 -2.625,-1.16341 -2.625,-2.625 0,-1.46159 1.16341,-2.625 2.625,-2.625 z" />
    <circle
       style="fill:url(#linearGradient1140);fill-opacity:1;stroke:none;stroke-width:2.50029;stroke-linecap:round;stroke-linejoin:round;stroke-miterlimit:4;stroke-dasharray:none;stroke-opacity:1"
       id="path1583-0-7"
       cx="11.125"
       cy="31.625185"
       r="3.625" />
    <rect
       style="fill:#5a5a5c;fill-opacity:1;stroke:none;stroke-width:0;stroke-linecap:round;stroke-linejoin:round;stroke-miterlimit:4;stroke-dasharray:none;stroke-dashoffset:2.1875;stroke-opacity:1"
       id="rect3498-5-5-5-7-9-0-7-7"
       width="30"
       height="2"
       x="17"
       y="55.75"
       rx="1"
       ry="0.99998438" />
    <rect
       style="fill:#5a5a5c;fill-opacity:1;stroke:none;stroke-width:0;stroke-linecap:round;stroke-linejoin:round;stroke-miterlimit:4;stroke-dasharray:none;stroke-dashoffset:2.1875;stroke-opacity:1"
       id="rect3498-5-5-5-7-9-0-7-7-6"
       width="29"
       height="2"
       x="17.5"
       y="51.25"
       rx="1"
       ry="0.99998438" />
    <rect
       style="fill:#5a5a5c;fill-opacity:1;stroke:none;stroke-width:0;stroke-linecap:round;stroke-linejoin:round;stroke-miterlimit:4;stroke-dasharray:none;stroke-dashoffset:2.1875;stroke-opacity:1"
       id="rect3498-5-5-5-7-9-0-7-7-92"
       width="28"
       height="2"
       x="18"
       y="47"
       rx="1"
       ry="0.99998438" />
    <path
       id="path1181-0-2-9-62-2-2-7-7-6"
       style="color:#000000;font-style:normal;font-variant:normal;font-weight:normal;font-stretch:normal;font-size:medium;line-height:normal;font-family:sans-serif;font-variant-ligatures:normal;font-variant-position:normal;font-variant-caps:normal;font-variant-numeric:normal;font-variant-alternates:normal;font-variant-east-asian:normal;font-feature-settings:normal;font-variation-settings:normal;text-indent:0;text-align:start;text-decoration:none;text-decoration-line:none;text-decoration-style:solid;text-decoration-color:#000000;letter-spacing:normal;word-spacing:normal;text-transform:none;writing-mode:lr-tb;direction:ltr;text-orientation:mixed;dominant-baseline:auto;baseline-shift:baseline;text-anchor:start;white-space:normal;shape-padding:0;shape-margin:0;inline-size:0;clip-rule:nonzero;display:inline;overflow:visible;visibility:visible;opacity:0.25;isolation:auto;mix-blend-mode:normal;color-interpolation:sRGB;color-interpolation-filters:linearRGB;solid-color:#000000;solid-opacity:1;vector-effect:none;fill:#0c0c0c;fill-opacity:1;fill-rule:nonzero;stroke:none;stroke-width:0;stroke-linecap:round;stroke-linejoin:round;stroke-miterlimit:4;stroke-dasharray:none;stroke-dashoffset:2.1875;stroke-opacity:1;color-rendering:auto;image-rendering:auto;shape-rendering:auto;text-rendering:auto;enable-background:accumulate;stop-color:#000000"
       d="m 48.5,33.49999 c -8.27385,0 -15,6.72709 -15,15.00066 0,8.27346 6.72615,14.99935 15,14.99935 8.27384,0 15,-6.72589 15,-14.99935 0,-8.27357 -6.72616,-15.00066 -15,-15.00066 z m 0,1.87387 c 7.26042,0 13.12729,5.86661 13.12729,13.12679 0,7.26018 -5.86687,13.12548 -13.12729,13.12548 -7.26043,0 -13.12729,-5.8653 -13.12729,-13.12548 0,-7.26018 5.86686,-13.12679 13.12729,-13.12679 z" />
    <path
       id="path1181-0-6-2-9-0-9-5-5-7"
       style="color:#000000;font-style:normal;font-variant:normal;font-weight:normal;font-stretch:normal;font-size:medium;line-height:normal;font-family:sans-serif;font-variant-ligatures:normal;font-variant-position:normal;font-variant-caps:normal;font-variant-numeric:normal;font-variant-alternates:normal;font-variant-east-asian:normal;font-feature-settings:normal;font-variation-settings:normal;text-indent:0;text-align:start;text-decoration:none;text-decoration-line:none;text-decoration-style:solid;text-decoration-color:#000000;letter-spacing:normal;word-spacing:normal;text-transform:none;writing-mode:lr-tb;direction:ltr;text-orientation:mixed;dominant-baseline:auto;baseline-shift:baseline;text-anchor:start;white-space:normal;shape-padding:0;shape-margin:0;inline-size:0;clip-rule:nonzero;display:inline;overflow:visible;visibility:visible;opacity:0.95;isolation:auto;mix-blend-mode:normal;color-interpolation:sRGB;color-interpolation-filters:linearRGB;solid-color:#000000;solid-opacity:1;vector-effect:none;fill:#96730d;fill-opacity:1;fill-rule:nonzero;stroke:none;stroke-width:2.36234;stroke-linecap:round;stroke-linejoin:round;stroke-miterlimit:4;stroke-dasharray:none;stroke-dashoffset:2.1875;stroke-opacity:1;color-rendering:auto;image-rendering:auto;shape-rendering:auto;text-rendering:auto;enable-background:accumulate;stop-color:#000000"
       d="m 48.5,32.5 c -8.27385,0 -15,6.7271 -15,15.00055 0,8.27357 6.72615,14.99947 15,14.99947 8.27384,0 15,-6.7259 15,-14.99947 C 63.5,39.2271 56.77384,32.5 48.5,32.5 Z m 0,1.87387 c 7.26042,0 13.12729,5.8666 13.12729,13.12668 0,7.26028 -5.86687,13.12559 -13.12729,13.12559 -7.26043,0 -13.12729,-5.86531 -13.12729,-13.12559 0,-7.26008 5.86686,-13.12668 13.12729,-13.12668 z" />
    <ellipse
       style="fill:#fcd617;fill-opacity:1;stroke:#771832;stroke-width:0;stroke-linecap:round;stroke-linejoin:round;stroke-miterlimit:4;stroke-dasharray:none;stroke-dashoffset:2.1875;stroke-opacity:1"
       id="path1181-0-1-2-1-3-3-3"
       cx="48.5"
       cy="47.500122"
       rx="14.062499"
       ry="14.062494" />
    <ellipse
       style="display:inline;fill:url(#linearGradient2161);fill-opacity:1;stroke:#771832;stroke-width:0;stroke-linecap:round;stroke-linejoin:round;stroke-miterlimit:4;stroke-dasharray:none;stroke-dashoffset:2.1875;stroke-opacity:1"
       id="path1181-6-2-7-3-2-5-5-6"
       cx="48.5"
       cy="47.500122"
       rx="14.062499"
       ry="14.062494" />
    <path
       id="path1181-0-2-9-3-2-7-7-6-6-5"
       style="color:#000000;font-style:normal;font-variant:normal;font-weight:normal;font-stretch:normal;font-size:medium;line-height:normal;font-family:sans-serif;font-variant-ligatures:normal;font-variant-position:normal;font-variant-caps:normal;font-variant-numeric:normal;font-variant-alternates:normal;font-variant-east-asian:normal;font-feature-settings:normal;font-variation-settings:normal;text-indent:0;text-align:start;text-decoration:none;text-decoration-line:none;text-decoration-style:solid;text-decoration-color:#000000;letter-spacing:normal;word-spacing:normal;text-transform:none;writing-mode:lr-tb;direction:ltr;text-orientation:mixed;dominant-baseline:auto;baseline-shift:baseline;text-anchor:start;white-space:normal;shape-padding:0;shape-margin:0;inline-size:0;clip-rule:nonzero;display:inline;overflow:visible;visibility:visible;opacity:0.175;isolation:auto;mix-blend-mode:normal;color-interpolation:sRGB;color-interpolation-filters:linearRGB;solid-color:#000000;solid-opacity:1;vector-effect:none;fill:#796a01;fill-opacity:1;fill-rule:nonzero;stroke:none;stroke-width:0;stroke-linecap:round;stroke-linejoin:round;stroke-miterlimit:4;stroke-dasharray:none;stroke-dashoffset:2.1875;stroke-opacity:1;color-rendering:auto;image-rendering:auto;shape-rendering:auto;text-rendering:auto;enable-background:accumulate;stop-color:#000000"
       d="m 48.5,32.5 c -8.27385,0 -15,6.7271 -15,15.00055 0,8.27357 6.72615,14.99947 15,14.99947 8.27384,0 15,-6.7259 15,-14.99947 C 63.5,39.2271 56.77384,32.5 48.5,32.5 Z m 0,1.87387 c 7.26042,0 13.12729,5.8666 13.12729,13.12668 0,7.26028 -5.86687,13.12559 -13.12729,13.12559 -7.26043,0 -13.12729,-5.86531 -13.12729,-13.12559 0,-7.26008 5.86686,-13.12668 13.12729,-13.12668 z" />
    <path
       id="rect3491-2-8-9-0-36"
       style="color:#000000;font-style:normal;font-variant:normal;font-weight:normal;font-stretch:normal;font-size:medium;line-height:normal;font-family:sans-serif;font-variant-ligatures:normal;font-variant-position:normal;font-variant-caps:normal;font-variant-numeric:normal;font-variant-alternates:normal;font-variant-east-asian:normal;font-feature-settings:normal;font-variation-settings:normal;text-indent:0;text-align:start;text-decoration:none;text-decoration-line:none;text-decoration-style:solid;text-decoration-color:#000000;letter-spacing:normal;word-spacing:normal;text-transform:none;writing-mode:lr-tb;direction:ltr;text-orientation:mixed;dominant-baseline:auto;baseline-shift:baseline;text-anchor:start;white-space:normal;shape-padding:0;shape-margin:0;inline-size:0;clip-rule:nonzero;display:inline;overflow:visible;visibility:visible;opacity:0.35;isolation:auto;mix-blend-mode:normal;color-interpolation:sRGB;color-interpolation-filters:linearRGB;solid-color:#000000;solid-opacity:1;vector-effect:none;fill:#796a01;fill-opacity:1;fill-rule:nonzero;stroke:none;stroke-width:0.999992;stroke-linecap:round;stroke-linejoin:round;stroke-miterlimit:4;stroke-dasharray:none;stroke-dashoffset:2.1875;stroke-opacity:1;color-rendering:auto;image-rendering:auto;shape-rendering:auto;text-rendering:auto;enable-background:accumulate;stop-color:#000000"
       d="m 47.25,37 c -0.54535,0 -1,0.45465 -1,1 v 14 c 0,0.54535 0.45465,1 1,1 h 2.5 c 0.54535,0 1,-0.45465 1,-1 V 38 c 0,-0.54535 -0.45465,-1 -1,-1 z m 1.25,17 c -1.65093,0 -3,1.3491 -3,3 0,1.65092 1.34907,3 3,3 1.65093,0 3,-1.34908 3,-3 0,-1.6509 -1.34907,-3 -3,-3 z" />
    <path
       id="rect3491-2-8"
       style="fill:#413c41;fill-opacity:1;stroke:none;stroke-width:0.999992;stroke-linecap:round;stroke-linejoin:round;stroke-dashoffset:2.1875"
       d="m 47.25,36.49992 c -0.277,0 -0.5,0.223 -0.5,0.5 v 13.99977 c 0,0.27699 0.223,0.49999 0.5,0.49999 h 2.5 c 0.277,0 0.5,-0.223 0.5,-0.49999 V 36.99992 c 0,-0.277 -0.223,-0.5 -0.5,-0.5 z M 48.5,53.49964 A 2.5,2.4999589 0 0 0 46,55.9996 2.5,2.4999589 0 0 0 48.5,58.49956 2.5,2.4999589 0 0 0 51,55.9996 2.5,2.4999589 0 0 0 48.5,53.49964 Z" />
  </g>
</svg>
