<?xml version="1.0" encoding="UTF-8" standalone="no"?>
<svg
   xmlns:dc="http://purl.org/dc/elements/1.1/"
   xmlns:cc="http://creativecommons.org/ns#"
   xmlns:rdf="http://www.w3.org/1999/02/22-rdf-syntax-ns#"
   xmlns:svg="http://www.w3.org/2000/svg"
   xmlns="http://www.w3.org/2000/svg"
   xmlns:xlink="http://www.w3.org/1999/xlink"
   xmlns:sodipodi="http://sodipodi.sourceforge.net/DTD/sodipodi-0.dtd"
   xmlns:inkscape="http://www.inkscape.org/namespaces/inkscape"
   width="64"
   height="64"
   viewBox="0 0 16.933333 16.933334"
   version="1.1"
   id="svg841"
   inkscape:version="1.0.2 (e86c870879, 2021-01-15)"
   sodipodi:docname="view-calendar-tasks.svg">
  <defs
     id="defs835">
    <linearGradient
       inkscape:collect="always"
       xlink:href="#linearGradient1447"
       id="linearGradient1449"
       x1="3.4395835"
       y1="2.1166675"
       x2="13.493752"
       y2="16.404167"
       gradientUnits="userSpaceOnUse"
       gradientTransform="translate(1.5624998e-8)" />
    <linearGradient
       inkscape:collect="always"
       id="linearGradient1447">
      <stop
         style="stop-color:#71b1c1;stop-opacity:1;"
         offset="0"
         id="stop1443" />
      <stop
         style="stop-color:#5fa7b9;stop-opacity:1"
         offset="1"
         id="stop1445" />
    </linearGradient>
    <linearGradient
       inkscape:collect="always"
       xlink:href="#linearGradient3680-7"
       id="linearGradient1675-2"
       gradientUnits="userSpaceOnUse"
       gradientTransform="translate(-0.16224778,-23.078178)"
       x1="6.9795055"
       y1="23.404812"
       x2="10.278595"
       y2="26.579811" />
    <linearGradient
       inkscape:collect="always"
       id="linearGradient3680-7">
      <stop
         style="stop-color:#fcfcfc;stop-opacity:0.55000001"
         offset="0"
         id="stop3678-2" />
      <stop
         style="stop-color:#fcfcfc;stop-opacity:0"
         offset="1"
         id="stop3676-7" />
    </linearGradient>
  </defs>
  <sodipodi:namedview
     id="base"
     pagecolor="#c4c4c4"
     bordercolor="#666666"
     borderopacity="1.0"
     inkscape:pageopacity="0"
     inkscape:pageshadow="2"
     inkscape:zoom="2.8903394"
     inkscape:cx="46.372831"
     inkscape:cy="36.927888"
     inkscape:document-units="px"
     inkscape:current-layer="layer1"
     inkscape:document-rotation="0"
     showgrid="false"
     units="px"
     inkscape:window-width="2048"
     inkscape:window-height="1080"
     inkscape:window-x="0"
     inkscape:window-y="0"
     inkscape:window-maximized="1" />
  <metadata
     id="metadata838">
    <rdf:RDF>
      <cc:Work
         rdf:about="">
        <dc:format>image/svg+xml</dc:format>
        <dc:type
           rdf:resource="http://purl.org/dc/dcmitype/StillImage" />
        <dc:title />
      </cc:Work>
    </rdf:RDF>
  </metadata>
  <g
     inkscape:label="Layer 1"
     inkscape:groupmode="layer"
     id="layer1">
    <rect
       style="opacity:0.25;fill:#0c0c0c;fill-opacity:1;stroke-width:1.19063;stroke-linecap:round;stroke-linejoin:round;stroke-dashoffset:2.1875"
       id="rect848-6-3-2-3-2-6-4"
       width="13.229167"
       height="14.2875"
       x="1.8520836"
       y="2.3812668"
       rx="0.79375005"
       ry="0.79375005" />
    <path
       id="rect848-6-3-2-3-2-63-2-4"
       style="color:#000000;font-style:normal;font-variant:normal;font-weight:normal;font-stretch:normal;font-size:medium;line-height:normal;font-family:sans-serif;font-variant-ligatures:normal;font-variant-position:normal;font-variant-caps:normal;font-variant-numeric:normal;font-variant-alternates:normal;font-variant-east-asian:normal;font-feature-settings:normal;font-variation-settings:normal;text-indent:0;text-align:start;text-decoration:none;text-decoration-line:none;text-decoration-style:solid;text-decoration-color:#000000;letter-spacing:normal;word-spacing:normal;text-transform:none;writing-mode:lr-tb;direction:ltr;text-orientation:mixed;dominant-baseline:auto;baseline-shift:baseline;text-anchor:start;white-space:normal;shape-padding:0;shape-margin:0;inline-size:0;clip-rule:nonzero;display:inline;overflow:visible;visibility:visible;isolation:auto;mix-blend-mode:normal;color-interpolation:sRGB;color-interpolation-filters:linearRGB;solid-color:#000000;solid-opacity:1;vector-effect:none;fill:#2b5864;fill-opacity:1;fill-rule:nonzero;stroke:none;stroke-width:1.00002;stroke-linecap:round;stroke-linejoin:round;stroke-miterlimit:4;stroke-dasharray:none;stroke-dashoffset:2.1875;stroke-opacity:1;color-rendering:auto;image-rendering:auto;shape-rendering:auto;text-rendering:auto;enable-background:accumulate;stop-color:#000000"
       d="M 2.6458731,1.5875087 C 2.0641099,1.5875087 1.5875,2.0625522 1.5875,2.6442916 V 15.345329 c 0,0.58174 0.4766099,1.058852 1.0583731,1.058852 H 14.286945 c 0.58176,0 1.058889,-0.477112 1.058889,-1.058852 V 2.6442916 c 0,-0.5817394 -0.477129,-1.0567829 -1.058889,-1.0567829 z m 0,0.5276162 H 14.286945 c 0.297746,0 0.529185,0.2314337 0.529185,0.5291667 V 15.345329 c 0,0.297736 -0.231439,0.529686 -0.529185,0.529686 H 2.6458731 c -0.2977462,0 -0.5291852,-0.23195 -0.5291852,-0.529686 V 2.6442916 c 0,-0.297733 0.231439,-0.5291667 0.5291852,-0.5291667 z" />
    <rect
       style="fill:url(#linearGradient1449);fill-opacity:1;stroke-width:1.19063;stroke-linecap:round;stroke-linejoin:round;stroke-dashoffset:2.1875"
       id="rect848-6-3-2-3-2-3"
       width="13.229167"
       height="14.2875"
       x="1.8520836"
       y="1.852084"
       rx="0.79375005"
       ry="0.79375005" />
    <path
       id="rect3498-5-1-1-1-9-0-6"
       style="color:#000000;font-style:normal;font-variant:normal;font-weight:normal;font-stretch:normal;font-size:medium;line-height:normal;font-family:sans-serif;font-variant-ligatures:normal;font-variant-position:normal;font-variant-caps:normal;font-variant-numeric:normal;font-variant-alternates:normal;font-variant-east-asian:normal;font-feature-settings:normal;font-variation-settings:normal;text-indent:0;text-align:start;text-decoration:none;text-decoration-line:none;text-decoration-style:solid;text-decoration-color:#000000;letter-spacing:normal;word-spacing:normal;text-transform:none;writing-mode:lr-tb;direction:ltr;text-orientation:mixed;dominant-baseline:auto;baseline-shift:baseline;text-anchor:start;white-space:normal;shape-padding:0;shape-margin:0;inline-size:0;clip-rule:nonzero;display:inline;overflow:visible;visibility:visible;opacity:0.75;isolation:auto;mix-blend-mode:normal;color-interpolation:sRGB;color-interpolation-filters:linearRGB;solid-color:#000000;solid-opacity:1;vector-effect:none;fill:#1f3e47;fill-opacity:1;fill-rule:nonzero;stroke:none;stroke-width:0.999567;stroke-linecap:round;stroke-linejoin:round;stroke-miterlimit:4;stroke-dasharray:none;stroke-dashoffset:2.1875;stroke-opacity:1;color-rendering:auto;image-rendering:auto;shape-rendering:auto;text-rendering:auto;enable-background:accumulate;stop-color:#000000"
       d="m 7.806187,12.236991 c -0.3641297,0 -0.6624368,0.297585 -0.6624368,0.661458 0,0.363877 0.2983071,0.661459 0.6624368,0.661459 h 4.761061 c 0.364128,0 0.661919,-0.297582 0.661919,-0.661459 0,-0.363873 -0.297791,-0.661458 -0.661919,-0.661458 z m 0,0.265409 h 4.761061 c 0.222139,0 0.398391,0.174067 0.398391,0.396049 0,0.221986 -0.176252,0.39605 -0.398391,0.39605 H 7.806187 c -0.2221384,0 -0.3968428,-0.174067 -0.3968428,-0.39605 0,-0.221982 0.1747044,-0.396049 0.3968428,-0.396049 z" />
    <rect
       style="opacity:0.25;fill:#254b56;fill-opacity:1;stroke:none;stroke-width:0;stroke-linecap:round;stroke-linejoin:round;stroke-miterlimit:4;stroke-dasharray:none;stroke-dashoffset:2.1875;stroke-opacity:1"
       id="rect3498-5-21-9-7"
       width="5.8208337"
       height="1.0583334"
       x="7.276042"
       y="6.0854177"
       rx="0.5291667"
       ry="0.5291667" />
    <path
       id="rect3498-5-1-1-1-9-4-8"
       style="color:#000000;font-style:normal;font-variant:normal;font-weight:normal;font-stretch:normal;font-size:medium;line-height:normal;font-family:sans-serif;font-variant-ligatures:normal;font-variant-position:normal;font-variant-caps:normal;font-variant-numeric:normal;font-variant-alternates:normal;font-variant-east-asian:normal;font-feature-settings:normal;font-variation-settings:normal;text-indent:0;text-align:start;text-decoration:none;text-decoration-line:none;text-decoration-style:solid;text-decoration-color:#000000;letter-spacing:normal;word-spacing:normal;text-transform:none;writing-mode:lr-tb;direction:ltr;text-orientation:mixed;dominant-baseline:auto;baseline-shift:baseline;text-anchor:start;white-space:normal;shape-padding:0;shape-margin:0;inline-size:0;clip-rule:nonzero;display:inline;overflow:visible;visibility:visible;opacity:0.75;isolation:auto;mix-blend-mode:normal;color-interpolation:sRGB;color-interpolation-filters:linearRGB;solid-color:#000000;solid-opacity:1;vector-effect:none;fill:#1f3e47;fill-opacity:1;fill-rule:nonzero;stroke:none;stroke-width:0.999567;stroke-linecap:round;stroke-linejoin:round;stroke-miterlimit:4;stroke-dasharray:none;stroke-dashoffset:2.1875;stroke-opacity:1;color-rendering:auto;image-rendering:auto;shape-rendering:auto;text-rendering:auto;enable-background:accumulate;stop-color:#000000"
       d="m 7.806187,8.7312615 c -0.3641297,0 -0.6624368,0.2975795 -0.6624368,0.6614557 0,0.3638765 0.2983071,0.6614618 0.6624368,0.6614618 h 4.761061 c 0.364128,0 0.661919,-0.2975853 0.661919,-0.6614618 0,-0.3638762 -0.297791,-0.6614557 -0.661919,-0.6614557 z m 0,0.2654062 h 4.761061 c 0.222139,0 0.398391,0.1740667 0.398391,0.3960495 0,0.2219855 -0.176252,0.3960495 -0.398391,0.3960495 H 7.806187 c -0.2221384,0 -0.3968428,-0.174064 -0.3968428,-0.3960495 0,-0.2219828 0.1747044,-0.3960495 0.3968428,-0.3960495 z" />
    <path
       id="rect3498-5-1-1-1-9-5-6-1"
       style="color:#000000;font-style:normal;font-variant:normal;font-weight:normal;font-stretch:normal;font-size:medium;line-height:normal;font-family:sans-serif;font-variant-ligatures:normal;font-variant-position:normal;font-variant-caps:normal;font-variant-numeric:normal;font-variant-alternates:normal;font-variant-east-asian:normal;font-feature-settings:normal;font-variation-settings:normal;text-indent:0;text-align:start;text-decoration:none;text-decoration-line:none;text-decoration-style:solid;text-decoration-color:#000000;letter-spacing:normal;word-spacing:normal;text-transform:none;writing-mode:lr-tb;direction:ltr;text-orientation:mixed;dominant-baseline:auto;baseline-shift:baseline;text-anchor:start;white-space:normal;shape-padding:0;shape-margin:0;inline-size:0;clip-rule:nonzero;display:inline;overflow:visible;visibility:visible;opacity:0.75;isolation:auto;mix-blend-mode:normal;color-interpolation:sRGB;color-interpolation-filters:linearRGB;solid-color:#000000;solid-opacity:1;vector-effect:none;fill:#1f3e47;fill-opacity:1;fill-rule:nonzero;stroke:none;stroke-width:0.999567;stroke-linecap:round;stroke-linejoin:round;stroke-miterlimit:4;stroke-dasharray:none;stroke-dashoffset:2.1875;stroke-opacity:1;color-rendering:auto;image-rendering:auto;shape-rendering:auto;text-rendering:auto;enable-background:accumulate;stop-color:#000000"
       d="m 7.806187,5.2255296 c -0.3641297,0 -0.6624368,0.2975848 -0.6624368,0.6614584 0,0.3638761 0.2983071,0.6614609 0.6624368,0.6614609 h 4.761061 c 0.364128,0 0.661919,-0.2975848 0.661919,-0.6614609 0,-0.3638736 -0.297791,-0.6614584 -0.661919,-0.6614584 z m 0,0.2654115 h 4.761061 c 0.222139,0 0.398391,0.1740641 0.398391,0.3960469 0,0.2219854 -0.176252,0.3960495 -0.398391,0.3960495 H 7.806187 c -0.2221384,0 -0.3968428,-0.1740641 -0.3968428,-0.3960495 0,-0.2219828 0.1747044,-0.3960469 0.3968428,-0.3960469 z" />
    <rect
       style="fill:#fdfbfc;fill-opacity:1;stroke:none;stroke-width:0;stroke-linecap:round;stroke-linejoin:round;stroke-miterlimit:4;stroke-dasharray:none;stroke-dashoffset:2.1875;stroke-opacity:1"
       id="rect3498-5-1-8"
       width="5.8208337"
       height="1.0583334"
       x="7.276042"
       y="5.3578296"
       rx="0.5291667"
       ry="0.5291667" />
    <rect
       style="opacity:0.25;fill:#254b56;fill-opacity:1;stroke:none;stroke-width:0;stroke-linecap:round;stroke-linejoin:round;stroke-miterlimit:4;stroke-dasharray:none;stroke-dashoffset:2.1875;stroke-opacity:1"
       id="rect3498-7-4-5-2-8"
       width="5.8208337"
       height="1.0583334"
       x="7.276042"
       y="9.5911465"
       rx="0.5291667"
       ry="0.5291667" />
    <rect
       style="fill:#fdfbfc;fill-opacity:1;stroke:none;stroke-width:0;stroke-linecap:round;stroke-linejoin:round;stroke-miterlimit:4;stroke-dasharray:none;stroke-dashoffset:2.1875;stroke-opacity:1"
       id="rect3498-7-4-7-4"
       width="5.8208337"
       height="1.0583334"
       x="7.276042"
       y="8.8635588"
       rx="0.5291667"
       ry="0.5291667" />
    <rect
       style="opacity:0.25;fill:#254b56;fill-opacity:1;stroke:none;stroke-width:0;stroke-linecap:round;stroke-linejoin:round;stroke-miterlimit:4;stroke-dasharray:none;stroke-dashoffset:2.1875;stroke-opacity:1"
       id="rect3498-8-0-9-0-3"
       width="5.8208337"
       height="1.0583334"
       x="7.276042"
       y="13.096876"
       rx="0.5291667"
       ry="0.5291667" />
    <rect
       style="fill:#fdfbfc;fill-opacity:1;stroke:none;stroke-width:0;stroke-linecap:round;stroke-linejoin:round;stroke-miterlimit:4;stroke-dasharray:none;stroke-dashoffset:2.1875;stroke-opacity:1"
       id="rect3498-8-0-93-1-2"
       width="5.8208337"
       height="1.0583334"
       x="7.276042"
       y="12.369272"
       rx="0.5291667"
       ry="0.5291667" />
    <circle
       style="opacity:0.25;fill:#254b56;fill-opacity:1;stroke-width:0.79375;stroke-linecap:round;stroke-linejoin:round;stroke-dashoffset:2.1875"
       id="path1185-1-4"
       cx="4.8947921"
       cy="6.6145844"
       r="1.0583334" />
    <path
       id="path1185-29-4-9-9"
       style="color:#000000;font-style:normal;font-variant:normal;font-weight:normal;font-stretch:normal;font-size:medium;line-height:normal;font-family:sans-serif;font-variant-ligatures:normal;font-variant-position:normal;font-variant-caps:normal;font-variant-numeric:normal;font-variant-alternates:normal;font-variant-east-asian:normal;font-feature-settings:normal;font-variation-settings:normal;text-indent:0;text-align:start;text-decoration:none;text-decoration-line:none;text-decoration-style:solid;text-decoration-color:#000000;letter-spacing:normal;word-spacing:normal;text-transform:none;writing-mode:lr-tb;direction:ltr;text-orientation:mixed;dominant-baseline:auto;baseline-shift:baseline;text-anchor:start;white-space:normal;shape-padding:0;shape-margin:0;inline-size:0;clip-rule:nonzero;display:inline;overflow:visible;visibility:visible;opacity:0.75;isolation:auto;mix-blend-mode:normal;color-interpolation:sRGB;color-interpolation-filters:linearRGB;solid-color:#000000;solid-opacity:1;vector-effect:none;fill:#1f3e47;fill-opacity:1;fill-rule:nonzero;stroke:none;stroke-width:1.00022;stroke-linecap:round;stroke-linejoin:round;stroke-miterlimit:4;stroke-dasharray:none;stroke-dashoffset:2.1875;stroke-opacity:1;color-rendering:auto;image-rendering:auto;shape-rendering:auto;text-rendering:auto;enable-background:accumulate;stop-color:#000000"
       d="m 4.8940166,4.6963629 c -0.6561376,0 -1.1898498,0.5357786 -1.1898498,1.1919189 0,0.6561402 0.5337122,1.1893312 1.1898498,1.1893312 0.6561402,0 1.1914002,-0.533191 1.1914002,-1.1893312 0,-0.6561403 -0.53526,-1.1919189 -1.1914002,-1.1919189 z m 0,0.2656761 c 0.513117,0 0.9257268,0.4131257 0.9257268,0.9262428 0,0.513117 -0.4126098,0.9257242 -0.9257268,0.9257242 -0.5131171,0 -0.9262428,-0.4126072 -0.9262428,-0.9257242 0,-0.5131171 0.4131257,-0.9262428 0.9262428,-0.9262428 z" />
    <circle
       style="fill:#fdfbfc;fill-opacity:1;stroke-width:0.79375;stroke-linecap:round;stroke-linejoin:round;stroke-dashoffset:2.1875"
       id="path1185-20-3"
       cx="4.8947921"
       cy="5.8869963"
       r="1.0583334" />
    <circle
       style="opacity:0.25;fill:#254b56;fill-opacity:1;stroke-width:0.79375;stroke-linecap:round;stroke-linejoin:round;stroke-dashoffset:2.1875"
       id="path1185-1-8-6"
       cx="4.8947921"
       cy="10.120314"
       r="1.0583334" />
    <path
       id="path1185-29-4-7-8"
       style="color:#000000;font-style:normal;font-variant:normal;font-weight:normal;font-stretch:normal;font-size:medium;line-height:normal;font-family:sans-serif;font-variant-ligatures:normal;font-variant-position:normal;font-variant-caps:normal;font-variant-numeric:normal;font-variant-alternates:normal;font-variant-east-asian:normal;font-feature-settings:normal;font-variation-settings:normal;text-indent:0;text-align:start;text-decoration:none;text-decoration-line:none;text-decoration-style:solid;text-decoration-color:#000000;letter-spacing:normal;word-spacing:normal;text-transform:none;writing-mode:lr-tb;direction:ltr;text-orientation:mixed;dominant-baseline:auto;baseline-shift:baseline;text-anchor:start;white-space:normal;shape-padding:0;shape-margin:0;inline-size:0;clip-rule:nonzero;display:inline;overflow:visible;visibility:visible;opacity:0.75;isolation:auto;mix-blend-mode:normal;color-interpolation:sRGB;color-interpolation-filters:linearRGB;solid-color:#000000;solid-opacity:1;vector-effect:none;fill:#1f3e47;fill-opacity:1;fill-rule:nonzero;stroke:none;stroke-width:1.00022;stroke-linecap:round;stroke-linejoin:round;stroke-miterlimit:4;stroke-dasharray:none;stroke-dashoffset:2.1875;stroke-opacity:1;color-rendering:auto;image-rendering:auto;shape-rendering:auto;text-rendering:auto;enable-background:accumulate;stop-color:#000000"
       d="m 4.8940166,8.2020922 c -0.6561376,0 -1.1898498,0.5357786 -1.1898498,1.1919162 0,0.6561436 0.5337122,1.1893366 1.1898498,1.1893366 0.6561402,0 1.1914002,-0.533193 1.1914002,-1.1893366 0,-0.6561376 -0.53526,-1.1919162 -1.1914002,-1.1919162 z m 0,0.265676 c 0.513117,0 0.9257268,0.4131258 0.9257268,0.9262402 0,0.5131173 -0.4126098,0.9257296 -0.9257268,0.9257296 -0.5131171,0 -0.9262428,-0.4126123 -0.9262428,-0.9257296 0,-0.5131144 0.4131257,-0.9262402 0.9262428,-0.9262402 z" />
    <circle
       style="fill:#fdfbfc;fill-opacity:1;stroke-width:0.79375;stroke-linecap:round;stroke-linejoin:round;stroke-dashoffset:2.1875"
       id="path1185-2-9"
       cx="4.8947921"
       cy="9.3927259"
       r="1.0583334" />
    <circle
       style="opacity:0.25;fill:#254b56;fill-opacity:1;stroke-width:0.79375;stroke-linecap:round;stroke-linejoin:round;stroke-dashoffset:2.1875"
       id="path1185-1-7-2"
       cx="4.8947921"
       cy="13.626059"
       r="1.0583334" />
    <path
       id="path1185-29-4-8-6"
       style="color:#000000;font-style:normal;font-variant:normal;font-weight:normal;font-stretch:normal;font-size:medium;line-height:normal;font-family:sans-serif;font-variant-ligatures:normal;font-variant-position:normal;font-variant-caps:normal;font-variant-numeric:normal;font-variant-alternates:normal;font-variant-east-asian:normal;font-feature-settings:normal;font-variation-settings:normal;text-indent:0;text-align:start;text-decoration:none;text-decoration-line:none;text-decoration-style:solid;text-decoration-color:#000000;letter-spacing:normal;word-spacing:normal;text-transform:none;writing-mode:lr-tb;direction:ltr;text-orientation:mixed;dominant-baseline:auto;baseline-shift:baseline;text-anchor:start;white-space:normal;shape-padding:0;shape-margin:0;inline-size:0;clip-rule:nonzero;display:inline;overflow:visible;visibility:visible;opacity:0.75;isolation:auto;mix-blend-mode:normal;color-interpolation:sRGB;color-interpolation-filters:linearRGB;solid-color:#000000;solid-opacity:1;vector-effect:none;fill:#1f3e47;fill-opacity:1;fill-rule:nonzero;stroke:none;stroke-width:1.00022;stroke-linecap:round;stroke-linejoin:round;stroke-miterlimit:4;stroke-dasharray:none;stroke-dashoffset:2.1875;stroke-opacity:1;color-rendering:auto;image-rendering:auto;shape-rendering:auto;text-rendering:auto;enable-background:accumulate;stop-color:#000000"
       d="m 4.8940166,11.707824 c -0.6561376,0 -1.1898498,0.535779 -1.1898498,1.191919 0,0.656138 0.5337122,1.189331 1.1898498,1.189331 0.6561402,0 1.1914002,-0.533193 1.1914002,-1.189331 0,-0.65614 -0.53526,-1.191919 -1.1914002,-1.191919 z m 0,0.265676 c 0.513117,0 0.9257268,0.413126 0.9257268,0.926243 0,0.513117 -0.4126098,0.925724 -0.9257268,0.925724 -0.5131171,0 -0.9262428,-0.412607 -0.9262428,-0.925724 0,-0.513117 0.4131257,-0.926243 0.9262428,-0.926243 z" />
    <circle
       style="fill:#fdfbfc;fill-opacity:1;stroke-width:0.79375;stroke-linecap:round;stroke-linejoin:round;stroke-dashoffset:2.1875"
       id="path1185-6-6"
       cx="4.8947921"
       cy="12.898455"
       r="1.0583334" />
    <ellipse
       style="opacity:0.3;fill:#254b56;fill-opacity:1;stroke:none;stroke-width:0;stroke-linecap:round;stroke-linejoin:round;stroke-dashoffset:2.1875"
       id="path1414-4-6-62-5-1-4"
       cx="8.466671"
       cy="2.3771489"
       rx="1.6495433"
       ry="1.6495448" />
    <ellipse
       style="fill:#fcb503;fill-opacity:1;stroke:none;stroke-width:0;stroke-linecap:round;stroke-linejoin:round;stroke-dashoffset:2.1875"
       id="path1414-4-6-3-5-5"
       cx="8.466671"
       cy="1.9141442"
       rx="1.6495433"
       ry="1.6495448" />
    <ellipse
       style="opacity:0.451;fill:url(#linearGradient1675-2);fill-opacity:1;stroke:none;stroke-width:0;stroke-linecap:round;stroke-linejoin:round;stroke-dashoffset:2.1875"
       id="path1414-4-6-13-6-4-0"
       cx="8.4668016"
       cy="1.9141282"
       rx="1.6495433"
       ry="1.6495448" />
    <path
       id="path1414-4-6-629-1-3-0-1-5-5-4"
       style="opacity:0.65;fill:#0c0c0c;fill-opacity:1;stroke:none;stroke-width:0;stroke-linecap:round;stroke-linejoin:round;stroke-dashoffset:2.1875"
       d="M 8.466632,0.26459198 A 1.6495433,1.6495449 0 0 0 6.817122,1.9141051 1.6495433,1.6495449 0 0 0 8.466632,3.5636129 1.6495433,1.6495449 0 0 0 10.116143,1.9141051 1.6495433,1.6495449 0 0 0 8.466632,0.26459198 Z m 0,0.26458602 A 1.3849602,1.3849615 0 0 1 9.85156,1.9141051 1.3849602,1.3849615 0 0 1 8.466632,3.2990295 1.3849602,1.3849615 0 0 1 7.0817054,1.9141051 1.3849602,1.3849615 0 0 1 8.466632,0.529178 Z" />
  </g>
</svg>
