<?xml version="1.0" encoding="UTF-8" standalone="no"?>
<svg
   xmlns:dc="http://purl.org/dc/elements/1.1/"
   xmlns:cc="http://creativecommons.org/ns#"
   xmlns:rdf="http://www.w3.org/1999/02/22-rdf-syntax-ns#"
   xmlns:svg="http://www.w3.org/2000/svg"
   xmlns="http://www.w3.org/2000/svg"
   xmlns:sodipodi="http://sodipodi.sourceforge.net/DTD/sodipodi-0.dtd"
   xmlns:inkscape="http://www.inkscape.org/namespaces/inkscape"
   width="64"
   height="64"
   viewBox="0 0 16.933333 16.933334"
   version="1.1"
   id="svg841"
   inkscape:version="1.0.2 (e86c870879, 2021-01-15)"
   sodipodi:docname="office-address-book.svg">
  <defs
     id="defs835" />
  <sodipodi:namedview
     id="base"
     pagecolor="#c4c4c4"
     bordercolor="#666666"
     borderopacity="1.0"
     inkscape:pageopacity="0"
     inkscape:pageshadow="2"
     inkscape:zoom="2.8903394"
     inkscape:cx="46.372831"
     inkscape:cy="36.927888"
     inkscape:document-units="px"
     inkscape:current-layer="layer1"
     inkscape:document-rotation="0"
     showgrid="false"
     units="px"
     inkscape:window-width="2048"
     inkscape:window-height="1080"
     inkscape:window-x="0"
     inkscape:window-y="0"
     inkscape:window-maximized="1" />
  <metadata
     id="metadata838">
    <rdf:RDF>
      <cc:Work
         rdf:about="">
        <dc:format>image/svg+xml</dc:format>
        <dc:type
           rdf:resource="http://purl.org/dc/dcmitype/StillImage" />
        <dc:title />
      </cc:Work>
    </rdf:RDF>
  </metadata>
  <g
     inkscape:label="Layer 1"
     inkscape:groupmode="layer"
     id="layer1">
    <path
       id="rect869-36-0-1-8-7-9-9-3"
       style="color:#000000;font-style:normal;font-variant:normal;font-weight:normal;font-stretch:normal;font-size:medium;line-height:normal;font-family:sans-serif;font-variant-ligatures:normal;font-variant-position:normal;font-variant-caps:normal;font-variant-numeric:normal;font-variant-alternates:normal;font-variant-east-asian:normal;font-feature-settings:normal;font-variation-settings:normal;text-indent:0;text-align:start;text-decoration:none;text-decoration-line:none;text-decoration-style:solid;text-decoration-color:#000000;letter-spacing:normal;word-spacing:normal;text-transform:none;writing-mode:lr-tb;direction:ltr;text-orientation:mixed;dominant-baseline:auto;baseline-shift:baseline;text-anchor:start;white-space:normal;shape-padding:0;shape-margin:0;inline-size:0;clip-rule:nonzero;display:inline;overflow:visible;visibility:visible;opacity:0.25;isolation:auto;mix-blend-mode:normal;color-interpolation:sRGB;color-interpolation-filters:linearRGB;solid-color:#000000;solid-opacity:1;vector-effect:none;fill:#0c0c10;fill-opacity:1;fill-rule:nonzero;stroke:none;stroke-width:1.00002;stroke-linecap:round;stroke-linejoin:round;stroke-miterlimit:4;stroke-dasharray:none;stroke-dashoffset:2.1875;stroke-opacity:1;color-rendering:auto;image-rendering:auto;shape-rendering:auto;text-rendering:auto;enable-background:accumulate;stop-color:#000000"
       d="m 3.17345,0.59532046 c -0.652741,0 -1.189075,0.53686874 -1.189075,1.18963014 V 15.545271 c 0,0.65278 0.536334,1.189633 1.189075,1.189633 h 5.293217 4.232299 c 1.239059,0 2.249995,-1.00942 2.249993,-2.248514 V 2.8438291 c 0,-1.2390888 -1.010934,-2.24850864 -2.249993,-2.24850864 H 8.466667 Z m 0,0.79326054 h 5.293217 4.232299 c 0.813051,0 1.455208,0.6421887 1.455208,1.4552481 V 14.48639 c 3e-6,0.81307 -0.642157,1.455251 -1.455208,1.455251 H 8.466667 3.17345 c -0.226738,0 -0.396359,-0.16963 -0.396359,-0.39637 V 1.7849506 c 0,-0.2267505 0.169621,-0.3963696 0.396359,-0.3963696 z" />
    <path
       id="rect869-36-0-1-8-2-6"
       style="fill:#e37d7d;fill-opacity:1;stroke-width:1.19063;stroke-linecap:round;stroke-linejoin:round;stroke-dashoffset:2.1875"
       d="m 3.175,0.59532046 c -0.439737,0 -0.79375,0.3540098 -0.79375,0.79375004 V 15.147404 c 0,0.43974 0.354013,0.79375 0.79375,0.79375 H 8.466667 12.7 c 1.026055,0 1.852086,-0.826032 1.852084,-1.852081 V 2.4474012 C 14.552084,1.4213496 13.726055,0.59532046 12.7,0.59532046 H 8.466667 Z" />
    <path
       id="path1204-1-0-9-3-6"
       style="color:#000000;font-style:normal;font-variant:normal;font-weight:normal;font-stretch:normal;font-size:medium;line-height:normal;font-family:sans-serif;font-variant-ligatures:normal;font-variant-position:normal;font-variant-caps:normal;font-variant-numeric:normal;font-variant-alternates:normal;font-variant-east-asian:normal;font-feature-settings:normal;font-variation-settings:normal;text-indent:0;text-align:start;text-decoration:none;text-decoration-line:none;text-decoration-style:solid;text-decoration-color:#000000;letter-spacing:normal;word-spacing:normal;text-transform:none;writing-mode:lr-tb;direction:ltr;text-orientation:mixed;dominant-baseline:auto;baseline-shift:baseline;text-anchor:start;white-space:normal;shape-padding:0;shape-margin:0;inline-size:0;clip-rule:nonzero;display:inline;overflow:visible;visibility:visible;opacity:0.35;isolation:auto;mix-blend-mode:normal;color-interpolation:sRGB;color-interpolation-filters:linearRGB;solid-color:#000000;solid-opacity:1;vector-effect:none;fill:#0c0c0c;fill-opacity:1;fill-rule:nonzero;stroke:none;stroke-width:0;stroke-linecap:round;stroke-linejoin:round;stroke-miterlimit:4;stroke-dasharray:none;stroke-dashoffset:2.1875;stroke-opacity:1;color-rendering:auto;image-rendering:auto;shape-rendering:auto;text-rendering:auto;enable-background:accumulate;stop-color:#000000"
       d="m 9.265055,4.630367 c -0.05554,-5.8e-5 -0.110143,0.0019 -0.16433,0.0041 -0.878581,0.03643 -1.745856,0.374071 -2.433444,1.003914 -1.375212,1.259726 -1.643664,3.337121 -0.634585,4.905386 1.009049,1.568233 3.009408,2.183503 4.726326,1.454978 0.287743,-0.12246 0.427104,-0.460589 0.30489,-0.750226 -0.12229,-0.289462 -0.461814,-0.427596 -0.751893,-0.304326 C 9.101103,11.457979 7.707014,11.028613 6.995427,9.922713 6.283831,8.816781 6.473023,7.370087 7.442944,6.481608 8.412843,5.593145 9.867125,5.533876 10.907334,6.339003 c 0.667478,0.516655 1.030185,1.28868 1.043348,2.083779 v 0.460883 c 0,0.30647 -0.213215,0.519782 -0.468707,0.519782 -0.25549,0 -0.468704,-0.213312 -0.468704,-0.519782 V 8.465668 8.034239 8.028539 c 3.7e-5,-0.0036 1.11e-4,-0.0083 0,-0.01188 a 0.1323049,0.13228394 0 0 0 0,-0.0021 c -5e-6,-8.8e-5 -0.0019,-0.0042 -0.0021,-0.0057 2.65e-4,-0.0038 0.0021,-0.0038 0.0021,-0.0078 V 6.959944 c 0,-0.314526 -0.26004,-0.574035 -0.574643,-0.574035 -0.135266,0 -0.247457,0.07131 -0.318328,0.156557 -0.04036,0.04854 -0.05849,0.101227 -0.08371,0.153969 C 9.744495,6.478151 9.425,6.27689 9.040267,6.27689 c -1.107594,0 -1.97249,1.00252 -1.97249,2.188668 0,1.186135 0.864708,2.193317 1.97249,2.193317 0.539882,-3.5e-5 0.978572,-0.334198 1.328084,-0.734206 0.278209,0.327382 0.634161,0.624671 1.113628,0.624671 0.896369,0 1.61489,-0.755049 1.61489,-1.665788 v -0.441245 -0.0021 c -5.29e-4,-0.0509 -0.01252,-0.07215 -0.0098,-0.05632 a 0.1323049,0.13228394 0 0 0 -0.0016,-0.0098 l -0.01344,-0.04753 C 13.030269,7.224459 12.535997,6.149402 11.610622,5.433135 10.919183,4.897928 10.089468,4.63122 9.265027,4.630212 Z m 0,0.265573 c 0.767802,0.0011 1.53929,0.247571 2.183331,0.746091 0.864928,0.669472 1.327132,1.677133 1.361673,2.712582 a 0.1323049,0.13228394 0 0 0 0.0036,0.02945 l 0.01188,0.04495 c 0.0068,0.03978 0.0055,0.0423 0.0057,0.01138 v 0.443315 c 0,0.772443 -0.601237,1.40021 -1.349272,1.40021 -0.418796,0 -0.756587,-0.249045 -1.008208,-0.578168 a 0.1323049,0.13228394 0 0 0 -0.206706,-0.0016 c -0.324604,0.4065 -0.749215,0.689223 -1.226799,0.689252 -0.946846,0 -1.706872,-0.869233 -1.706872,-1.927741 0,-1.058516 0.759886,-1.923092 1.706872,-1.923092 0.354246,0 0.678786,0.174882 0.97255,0.419545 a 0.1323049,0.13228394 0 0 0 0.209291,-0.05477 c 0.02939,-0.07809 0.06428,-0.150797 0.101285,-0.195308 0.03701,-0.04451 0.06273,-0.06252 0.11524,-0.06252 0.169161,0 0.309025,0.141457 0.309025,0.310526 v 1.041117 c -7.94e-4,0.0058 -0.0021,0.0075 -0.0021,0.01341 0,1.64e-4 0.0013,0.0073 0.0021,0.01188 v 0.0021 0.437116 0.417994 c 0,0.435261 0.328594,0.785357 0.734322,0.785357 0.40573,0 0.734324,-0.350096 0.734324,-0.785357 V 8.420712 a 0.1323049,0.13228394 0 0 0 0,-0.0016 C 12.201841,7.546434 11.801496,6.69673 11.06959,6.130206 9.929519,5.247787 8.326101,5.314565 7.263103,6.288311 c -1.062976,0.973722 -1.27041,2.564707 -0.49041,3.776951 0.780008,1.212241 2.315448,1.685883 3.642672,1.122751 0.155364,-0.06602 0.338222,0.0083 0.404109,0.164304 0.06546,0.155146 -0.0083,0.335791 -0.163814,0.401979 C 9.056013,12.433063 7.195497,11.860087 6.255411,10.399042 5.315307,8.93797 5.563867,7.007213 6.845041,5.833632 7.485671,5.2468 8.294476,4.93184 9.112602,4.89792 9.163612,4.89582 9.213847,4.89582 9.265047,4.89582 Z M 9.026827,7.157458 a 0.1323049,0.13228394 0 0 0 -0.10387,0.0527 0.1323049,0.13228394 0 0 0 -0.0016,0.0021 c -0.535614,0.08095 -0.97105,0.581893 -0.970999,1.253472 0,0.728739 0.492945,1.312373 1.091922,1.312373 0.598413,0 1.088932,-0.582502 1.089856,-1.310304 v -0.0021 c 1.8e-5,-0.0042 2.3e-5,-0.0092 0,-0.01344 C 10.125436,7.76733 9.674023,7.252361 9.12238,7.196721 a 0.1323049,0.13228394 0 0 0 -0.0021,-0.0021 0.1323049,0.13228394 0 0 0 -0.0739,-0.03513 0.1323049,0.13228394 0 0 0 -0.01757,-0.0021 0.1323049,0.13228394 0 0 0 -0.0021,0 z m 0.0021,0.263509 c 5.29e-4,3e-6 0.0011,3e-6 0.0016,0 5.29e-4,0 0.0016,6e-6 0.0021,0 a 0.1323049,0.13228394 0 0 0 0.0057,0 0.1323049,0.13228394 0 0 0 0.0021,0 c 0,0 0.0019,1.6e-5 0.0041,0 0.419219,7.94e-4 0.818362,0.428178 0.824241,1.033368 2.1e-5,0.0038 2.1e-5,0.0076 0,0.01138 0,0.610883 -0.403079,1.046797 -0.826307,1.046797 -0.423222,0 -0.828373,-0.435946 -0.828373,-1.046797 -4.5e-5,-0.603943 0.396568,-1.03659 0.814937,-1.044731 z" />
    <rect
       style="opacity:0.25;fill:#0c0c0c;fill-opacity:1;stroke:none;stroke-width:0.79375;stroke-linecap:round;stroke-linejoin:round;stroke-miterlimit:4;stroke-dasharray:none;stroke-dashoffset:2.1875;stroke-opacity:1"
       id="rect2031-7-0-7"
       width="0.39687505"
       height="16.139584"
       x="4.630208"
       y="0.1984375" />
    <rect
       style="opacity:0.25;fill:#0c0c0c;fill-opacity:1;stroke:none;stroke-width:0.79375;stroke-linecap:round;stroke-linejoin:round;stroke-miterlimit:4;stroke-dasharray:none;stroke-dashoffset:2.1875;stroke-opacity:1"
       id="rect2246-3-8-2-5"
       width="0.39687496"
       height="8.9164562"
       x="17.165096"
       y="-3.4758227"
       rx="0.19843748"
       ry="0.19843748"
       transform="rotate(45)" />
    <rect
       style="opacity:0.25;fill:#0c0c0c;fill-opacity:1;stroke:none;stroke-width:0.79375;stroke-linecap:round;stroke-linejoin:round;stroke-miterlimit:4;stroke-dasharray:none;stroke-dashoffset:2.1875;stroke-opacity:1"
       id="rect2246-8-1-3-3"
       width="0.39687496"
       height="8.9164562"
       x="5.4718451"
       y="6.2529712"
       rx="0.19843748"
       ry="0.19843748"
       transform="rotate(-45)" />
    <rect
       style="fill:#d34f4f;fill-opacity:1;stroke:none;stroke-width:0.79375;stroke-linecap:round;stroke-linejoin:round;stroke-miterlimit:4;stroke-dasharray:none;stroke-dashoffset:2.1875;stroke-opacity:1"
       id="rect2029-7-5"
       width="2.3812499"
       height="15.345834"
       x="2.3812494"
       y="0.59532863"
       rx="0.79375011"
       ry="0.79375011" />
    <rect
       style="fill:#3d0f0f;fill-opacity:1;stroke:none;stroke-width:0.79375;stroke-linecap:round;stroke-linejoin:round;stroke-miterlimit:4;stroke-dasharray:none;stroke-dashoffset:2.1875;stroke-opacity:1"
       id="rect2031-5-6-6"
       width="0.39687505"
       height="16.139584"
       x="4.4979162"
       y="0.1984375" />
    <path
       style="fill:#d34f4f;fill-opacity:1;stroke:none;stroke-width:0.793742;stroke-linecap:round;stroke-linejoin:round;stroke-miterlimit:4;stroke-dasharray:none;stroke-dashoffset:2.1875;stroke-opacity:1"
       d="m 9.128086,0.19862006 0.196368,-1.06e-5 h 0.387578 l 0.739489,1.06e-5 2.247402,-1.06e-5 c 1.239277,0 2.250007,1.00955214 2.249996,2.24892134 l 3e-6,2.2489112 -6e-6,0.92601 6e-6,0.396869 c -3e-6,0.146609 -0.117986,0.264578 -0.264586,0.264578 h -0.264584 c -0.03829,-2.9e-5 -0.07418,-0.009 -0.106965,-0.02331 -0.04067,-0.01209 -0.07991,-0.0308 -0.112147,-0.0631 L 14.15468,6.151489 13.265328,5.26216 9.886204,1.8825819 8.995823,0.99274046 8.950363,0.94724246 c -0.03196,-0.032001 -0.05081,-0.070802 -0.06305,-0.1111092 -0.01479,-0.033002 -0.02376,-0.069302 -0.02379,-0.1080241 l 5e-6,-0.264578 c -2e-6,-0.1466109 0.117973,-0.2650887 0.264581,-0.2650887 z"
       id="path1865-3-0-8-8-9-2" />
    <rect
       style="fill:#3e0f0f;fill-opacity:1;stroke:none;stroke-width:0.79375;stroke-linecap:round;stroke-linejoin:round;stroke-miterlimit:4;stroke-dasharray:none;stroke-dashoffset:2.1875;stroke-opacity:1"
       id="rect2246-8-2-9"
       width="0.39687496"
       height="8.9164562"
       x="5.6589055"
       y="6.2528415"
       rx="0.19843748"
       ry="0.19843748"
       transform="rotate(-45)" />
    <path
       style="fill:#d34f4f;fill-opacity:1;stroke:none;stroke-width:0.793742;stroke-linecap:round;stroke-linejoin:round;stroke-miterlimit:4;stroke-dasharray:none;stroke-dashoffset:2.1875;stroke-opacity:1"
       d="m 14.948882,10.517309 3e-6,0.196361 -3e-6,0.38758 -3e-6,0.739489 6e-6,2.2474 c 2e-6,1.239282 -1.009545,2.250012 -2.248914,2.250001 H 10.45106 9.525045 9.128178 c -0.146613,0 -0.264583,-0.11798 -0.264586,-0.264578 v -0.264591 c 3.7e-5,-0.0383 0.009,-0.0742 0.02328,-0.106958 0.01209,-0.0407 0.03082,-0.0799 0.0631,-0.112149 l 0.04597,-0.046 0.889333,-0.889352 3.379571,-3.379118 0.889846,-0.890381 0.04548,-0.0455 c 0.03197,-0.032 0.07081,-0.0508 0.111106,-0.0631 0.03302,-0.01479 0.0693,-0.02381 0.108024,-0.02381 h 0.264576 c 0.146611,0 0.265094,0.11797 0.265091,0.264581 z"
       id="path1865-3-0-8-4-2-1" />
    <rect
       style="fill:#3d0f0f;fill-opacity:1;stroke:none;stroke-width:0.79375;stroke-linecap:round;stroke-linejoin:round;stroke-miterlimit:4;stroke-dasharray:none;stroke-dashoffset:2.1875;stroke-opacity:1"
       id="rect2246-3-89-2"
       width="0.39687496"
       height="8.9164562"
       x="17.352196"
       y="-3.4758103"
       rx="0.19843748"
       ry="0.19843748"
       transform="rotate(45)" />
    <path
       id="rect869-36-0-1-8-7-9-2-0-7-7"
       style="color:#000000;font-style:normal;font-variant:normal;font-weight:normal;font-stretch:normal;font-size:medium;line-height:normal;font-family:sans-serif;font-variant-ligatures:normal;font-variant-position:normal;font-variant-caps:normal;font-variant-numeric:normal;font-variant-alternates:normal;font-variant-east-asian:normal;font-feature-settings:normal;font-variation-settings:normal;text-indent:0;text-align:start;text-decoration:none;text-decoration-line:none;text-decoration-style:solid;text-decoration-color:#000000;letter-spacing:normal;word-spacing:normal;text-transform:none;writing-mode:lr-tb;direction:ltr;text-orientation:mixed;dominant-baseline:auto;baseline-shift:baseline;text-anchor:start;white-space:normal;shape-padding:0;shape-margin:0;inline-size:0;clip-rule:nonzero;display:inline;overflow:visible;visibility:visible;isolation:auto;mix-blend-mode:normal;color-interpolation:sRGB;color-interpolation-filters:linearRGB;solid-color:#000000;solid-opacity:1;vector-effect:none;fill:#5a1616;fill-opacity:1;fill-rule:nonzero;stroke:none;stroke-width:1.00002;stroke-linecap:round;stroke-linejoin:round;stroke-miterlimit:4;stroke-dasharray:none;stroke-dashoffset:2.1875;stroke-opacity:1;color-rendering:auto;image-rendering:auto;shape-rendering:auto;text-rendering:auto;enable-background:accumulate;stop-color:#000000"
       d="m 3.17345,0.19845066 c -0.652741,0 -1.189075,0.5368687 -1.189075,1.18963024 V 15.148404 c 0,0.65278 0.536334,1.189625 1.189075,1.189625 h 5.293214 4.232299 c 1.23906,0 2.250001,-1.00942 2.250001,-2.248506 V 2.4469593 c 0,-1.2390887 -1.010941,-2.24850864 -2.250001,-2.24850864 H 8.466664 Z m 0,0.7932606 h 5.293214 4.232299 c 0.813052,0 1.455211,0.64218874 1.455211,1.45524804 V 14.089523 c 0,0.813067 -0.642159,1.455248 -1.455211,1.455248 H 8.466664 3.17345 c -0.226738,0 -0.396359,-0.169627 -0.396359,-0.396367 V 1.3880809 c 0,-0.2267505 0.169621,-0.39636964 0.396359,-0.39636964 z" />
    <path
       id="path1204-1-0"
       style="color:#000000;font-style:normal;font-variant:normal;font-weight:normal;font-stretch:normal;font-size:medium;line-height:normal;font-family:sans-serif;font-variant-ligatures:normal;font-variant-position:normal;font-variant-caps:normal;font-variant-numeric:normal;font-variant-alternates:normal;font-variant-east-asian:normal;font-feature-settings:normal;font-variation-settings:normal;text-indent:0;text-align:start;text-decoration:none;text-decoration-line:none;text-decoration-style:solid;text-decoration-color:#000000;letter-spacing:normal;word-spacing:normal;text-transform:none;writing-mode:lr-tb;direction:ltr;text-orientation:mixed;dominant-baseline:auto;baseline-shift:baseline;text-anchor:start;white-space:normal;shape-padding:0;shape-margin:0;inline-size:0;clip-rule:nonzero;display:inline;overflow:visible;visibility:visible;isolation:auto;mix-blend-mode:normal;color-interpolation:sRGB;color-interpolation-filters:linearRGB;solid-color:#000000;solid-opacity:1;vector-effect:none;fill:#fdfdfd;fill-opacity:1;fill-rule:nonzero;stroke:none;stroke-width:0.246941;stroke-linecap:round;stroke-linejoin:round;stroke-miterlimit:4;stroke-dasharray:none;stroke-dashoffset:2.1875;stroke-opacity:1;color-rendering:auto;image-rendering:auto;shape-rendering:auto;text-rendering:auto;enable-background:accumulate;stop-color:#000000"
       d="m 9.2655,4.630365 c -0.05337,-5.9e-5 -0.106088,0.0013 -0.158687,0.0034 -0.848352,0.03518 -1.68584,0.361426 -2.349947,0.969862 -1.328193,1.216845 -1.587162,3.220574 -0.612571,4.735481 0.974566,1.514879 2.904659,2.109115 4.562943,1.405358 0.221634,-0.09434 0.329203,-0.353399 0.235363,-0.575826 -0.09409,-0.222742 -0.355108,-0.330015 -0.577829,-0.235352 C 9.095701,11.471871 7.63048,11.020928 6.884683,9.861672 6.138886,8.7024 6.336591,7.183552 7.353038,6.252303 8.369488,5.321052 9.899753,5.257441 10.989892,6.101348 c 0.699691,0.541676 1.080135,1.353113 1.093939,2.187133 V 8.75147 c 0,0.370925 -0.270873,0.652518 -0.601483,0.652518 -0.33061,0 -0.601482,-0.281593 -0.601482,-0.652518 V 8.334296 7.896871 a 0.12349147,0.12347536 0 0 0 0,-0.0078 c -1.25e-4,-0.0026 -0.0024,-0.0048 -0.0024,-0.0073 0,-0.0057 0.0024,-0.0078 0.0024,-0.01254 V 6.826555 c 0,-0.241837 -0.199459,-0.441282 -0.441344,-0.441282 -0.187775,0 -0.278281,0.176188 -0.341003,0.3429 C 9.792036,6.472879 9.439053,6.276275 9.041225,6.276275 c -1.027289,0 -1.839637,0.935371 -1.839637,2.057881 0,1.1225 0.812324,2.059805 1.839637,2.059805 0.52972,-3.4e-5 0.987878,-0.313219 1.328857,-0.740296 0.266973,0.349258 0.6408,0.63082 1.112266,0.63082 0.822203,0 1.482236,-0.691433 1.482236,-1.533157 v -0.44273 c 7.4e-5,-0.01201 -0.0057,-0.02302 -0.0077,-0.03473 l -0.01458,-0.05642 C 12.906544,7.145332 12.427226,6.099731 11.529532,5.404784 10.861795,4.887838 10.061544,4.631216 9.265421,4.630243 Z m -0.236818,2.52617 a 0.12349147,0.12347536 0 0 0 0.0024,0 c 0.0034,-1.9e-5 0.0062,-2.4e-5 0.0092,0 0,8e-6 0.0027,8e-6 0.0039,0 0.506188,0.0011 0.950513,0.501025 0.956959,1.164701 2.3e-5,0.0043 2.3e-5,0.0087 0,0.01302 0,0.66993 -0.447784,1.179168 -0.958885,1.179168 -0.511101,0 -0.958887,-0.509267 -0.958887,-1.179168 -4.8e-5,-0.663425 0.440476,-1.169271 0.946343,-1.177724 z" />
  </g>
</svg>
