<?xml version="1.0" encoding="UTF-8" standalone="no"?>
<svg
   xmlns:dc="http://purl.org/dc/elements/1.1/"
   xmlns:cc="http://creativecommons.org/ns#"
   xmlns:rdf="http://www.w3.org/1999/02/22-rdf-syntax-ns#"
   xmlns:svg="http://www.w3.org/2000/svg"
   xmlns="http://www.w3.org/2000/svg"
   xmlns:xlink="http://www.w3.org/1999/xlink"
   xmlns:sodipodi="http://sodipodi.sourceforge.net/DTD/sodipodi-0.dtd"
   xmlns:inkscape="http://www.inkscape.org/namespaces/inkscape"
   width="64"
   height="64"
   viewBox="0 0 64 64"
   version="1.1"
   id="svg6374"
   inkscape:version="1.0.2 (e86c870879, 2021-01-15)"
   sodipodi:docname="system-software-install.svg">
  <defs
     id="defs6368">
    <radialGradient
       inkscape:collect="always"
       xlink:href="#linearGradient3818-9"
       id="radialGradient3820-4"
       cx="32"
       cy="532"
       fx="32"
       fy="532"
       r="27.5"
       gradientUnits="userSpaceOnUse"
       gradientTransform="translate(4.1557617e-7,-500.00003)" />
    <linearGradient
       inkscape:collect="always"
       id="linearGradient3818-9">
      <stop
         style="stop-color:#edeaf1;stop-opacity:1"
         offset="0"
         id="stop3814-0" />
      <stop
         style="stop-color:#d8d7d9;stop-opacity:1"
         offset="1"
         id="stop3816-8" />
    </linearGradient>
    <linearGradient
       inkscape:collect="always"
       xlink:href="#linearGradient1072-7"
       id="linearGradient4015"
       gradientUnits="userSpaceOnUse"
       x1="32.128681"
       y1="516.2005"
       x2="31.999929"
       y2="548"
       gradientTransform="translate(4.1557617e-7,-500.00003)" />
    <linearGradient
       inkscape:collect="always"
       id="linearGradient1072-7">
      <stop
         style="stop-color:#65b9cd;stop-opacity:1"
         offset="0"
         id="stop1068-6" />
      <stop
         style="stop-color:#3ea6c1;stop-opacity:1"
         offset="1"
         id="stop1070-4" />
    </linearGradient>
  </defs>
  <sodipodi:namedview
     id="base"
     pagecolor="#cecece"
     bordercolor="#666666"
     borderopacity="1.0"
     inkscape:pageopacity="0"
     inkscape:pageshadow="2"
     inkscape:zoom="5.5639287"
     inkscape:cx="8.3100654"
     inkscape:cy="29.551801"
     inkscape:document-units="px"
     inkscape:current-layer="layer1"
     inkscape:document-rotation="0"
     showgrid="false"
     units="px"
     inkscape:window-width="1500"
     inkscape:window-height="970"
     inkscape:window-x="68"
     inkscape:window-y="56"
     inkscape:window-maximized="0" />
  <metadata
     id="metadata6371">
    <rdf:RDF>
      <cc:Work
         rdf:about="">
        <dc:format>image/svg+xml</dc:format>
        <dc:type
           rdf:resource="http://purl.org/dc/dcmitype/StillImage" />
        <dc:title></dc:title>
      </cc:Work>
    </rdf:RDF>
  </metadata>
  <g
     inkscape:label="Layer 1"
     inkscape:groupmode="layer"
     id="layer1">
    <circle
       style="opacity:0.35;fill:#0c0c0c;fill-opacity:1;stroke:none;stroke-width:2.28151;stroke-linecap:round;stroke-linejoin:round;stroke-miterlimit:4;stroke-dasharray:none;stroke-opacity:1;paint-order:stroke fill markers"
       id="path3669-8"
       cx="32"
       cy="32"
       r="31" />
    <circle
       style="fill:#3ea6c1;fill-opacity:1;stroke:none;stroke-width:0;stroke-linecap:round;stroke-linejoin:round;stroke-miterlimit:4;stroke-dasharray:none"
       id="path895-9-7-7-7-1"
       cx="32"
       cy="32"
       r="30" />
    <circle
       style="opacity:0.15;fill:#463857;fill-opacity:1;stroke:none;stroke-width:0;stroke-linecap:round;stroke-linejoin:round;stroke-miterlimit:4;stroke-dasharray:none"
       id="path895-9-7-7-1-5-2-1"
       cx="32"
       cy="32"
       r="28.5" />
    <circle
       style="fill:url(#radialGradient3820-4);fill-opacity:1;stroke:none;stroke-width:0;stroke-linecap:round;stroke-linejoin:round;stroke-miterlimit:4;stroke-dasharray:none"
       id="path895-9-7-7-2"
       cx="32"
       cy="32"
       r="27.5" />
    <path
       id="path1113-1-0-6-8-3-2-5-4-8-3-92-8-3-6-5-69-7-6-2-8"
       style="color:#000000;font-style:normal;font-variant:normal;font-weight:normal;font-stretch:normal;font-size:medium;line-height:normal;font-family:sans-serif;font-variant-ligatures:normal;font-variant-position:normal;font-variant-caps:normal;font-variant-numeric:normal;font-variant-alternates:normal;font-variant-east-asian:normal;font-feature-settings:normal;font-variation-settings:normal;text-indent:0;text-align:start;text-decoration:none;text-decoration-line:none;text-decoration-style:solid;text-decoration-color:#000000;letter-spacing:normal;word-spacing:normal;text-transform:none;writing-mode:lr-tb;direction:ltr;text-orientation:mixed;dominant-baseline:auto;baseline-shift:baseline;text-anchor:start;white-space:normal;shape-padding:0;shape-margin:0;inline-size:0;clip-rule:nonzero;display:inline;overflow:visible;visibility:visible;opacity:0.15;isolation:auto;mix-blend-mode:normal;color-interpolation:sRGB;color-interpolation-filters:linearRGB;solid-color:#000000;solid-opacity:1;vector-effect:none;fill:#474649;fill-opacity:1;fill-rule:nonzero;stroke:none;stroke-width:0;stroke-linecap:round;stroke-linejoin:round;stroke-miterlimit:4;stroke-dasharray:none;stroke-dashoffset:0;stroke-opacity:1;color-rendering:auto;image-rendering:auto;shape-rendering:auto;text-rendering:auto;enable-background:accumulate;stop-color:#000000"
       d="M 31.99993,51.99999 A 0.80118333,0.72863185 0 0 1 31.343694,51.68944 L 20.14472,37.14647 a 0.80118333,0.72863185 0 0 1 -0.144528,-0.43359 0.80118333,0.72863185 0 0 1 0.800764,-0.71289 h 6.878757 1.320282 v -15.25 c 0,-0.4155 0.334493,-0.75 0.749985,-0.75 h 4.499902 c 0.415491,0 0.749983,0.3345 0.749983,0.75 v 15.25 h 1.320284 6.886569 a 0.80118333,0.72863185 0 0 1 0.648424,1.14648 L 32.656166,51.68944 a 0.80118333,0.72863185 0 0 1 -0.656236,0.31055 z" />
    <path
       id="path1113-1-0-6-8-3-2-5-4-8-3-92-8-3-6-5-69-7-6-9"
       style="color:#000000;font-style:normal;font-variant:normal;font-weight:normal;font-stretch:normal;font-size:medium;line-height:normal;font-family:sans-serif;font-variant-ligatures:normal;font-variant-position:normal;font-variant-caps:normal;font-variant-numeric:normal;font-variant-alternates:normal;font-variant-east-asian:normal;font-feature-settings:normal;font-variation-settings:normal;text-indent:0;text-align:start;text-decoration:none;text-decoration-line:none;text-decoration-style:solid;text-decoration-color:#000000;letter-spacing:normal;word-spacing:normal;text-transform:none;writing-mode:lr-tb;direction:ltr;text-orientation:mixed;dominant-baseline:auto;baseline-shift:baseline;text-anchor:start;white-space:normal;shape-padding:0;shape-margin:0;inline-size:0;clip-rule:nonzero;display:inline;overflow:visible;visibility:visible;isolation:auto;mix-blend-mode:normal;color-interpolation:sRGB;color-interpolation-filters:linearRGB;solid-color:#000000;solid-opacity:1;vector-effect:none;fill:url(#linearGradient4015);fill-opacity:1;fill-rule:nonzero;stroke:none;stroke-width:0;stroke-linecap:round;stroke-linejoin:round;stroke-miterlimit:4;stroke-dasharray:none;stroke-dashoffset:0;stroke-opacity:1;color-rendering:auto;image-rendering:auto;shape-rendering:auto;text-rendering:auto;enable-background:accumulate;stop-color:#000000"
       d="M 31.99993,47.99997 A 0.80118333,0.72863185 0 0 1 31.343694,47.68942 L 20.14472,33.14645 a 0.80118333,0.72863185 0 0 1 -0.144528,-0.43359 0.80118333,0.72863185 0 0 1 0.800764,-0.71289 h 6.878757 1.320282 v -15.25 c 0,-0.4155 0.334493,-0.75 0.749985,-0.75 h 4.499902 c 0.415491,0 0.749983,0.3345 0.749983,0.75 v 15.25 h 1.320284 6.886569 a 0.80118333,0.72863185 0 0 1 0.648424,1.14648 L 32.656166,47.68942 a 0.80118333,0.72863185 0 0 1 -0.656236,0.31055 z" />
    <path
       id="path1113-1-0-6-8-3-2-5-4-8-3-92-8-3-6-5-69-3-7-5-2-0-3"
       style="color:#000000;font-style:normal;font-variant:normal;font-weight:normal;font-stretch:normal;font-size:medium;line-height:normal;font-family:sans-serif;font-variant-ligatures:normal;font-variant-position:normal;font-variant-caps:normal;font-variant-numeric:normal;font-variant-alternates:normal;font-variant-east-asian:normal;font-feature-settings:normal;font-variation-settings:normal;text-indent:0;text-align:start;text-decoration:none;text-decoration-line:none;text-decoration-style:solid;text-decoration-color:#000000;letter-spacing:normal;word-spacing:normal;text-transform:none;writing-mode:lr-tb;direction:ltr;text-orientation:mixed;dominant-baseline:auto;baseline-shift:baseline;text-anchor:start;white-space:normal;shape-padding:0;shape-margin:0;inline-size:0;clip-rule:nonzero;display:inline;overflow:visible;visibility:visible;isolation:auto;mix-blend-mode:normal;color-interpolation:sRGB;color-interpolation-filters:linearRGB;solid-color:#000000;solid-opacity:1;vector-effect:none;fill:#235d6c;fill-opacity:1;fill-rule:nonzero;stroke:none;stroke-width:1.00011;stroke-linecap:round;stroke-linejoin:round;stroke-miterlimit:4;stroke-dasharray:none;stroke-dashoffset:0;stroke-opacity:1;color-rendering:auto;image-rendering:auto;shape-rendering:auto;text-rendering:auto;enable-background:accumulate;stop-color:#000000"
       d="m 32.001138,48.49997 c -0.409295,3e-5 -0.798927,-0.1787 -1.051012,-0.50586 L 19.748432,33.45114 c -0.164282,-0.2135 -0.254616,-0.47844 -0.248102,-0.75 0.01637,-0.68886 0.621089,-1.20099 1.299116,-1.20117 a 0.50016046,0.50005 0 0 1 0.002,0 h 6.878473 0.820494 v -14.75 c 0,-0.68385 0.566277,-1.25 1.250276,-1.25 h 4.500994 c 0.683999,0 1.250276,0.56615 1.250276,1.25 v 14.75 h 0.820493 6.888242 a 0.50016046,0.50005 0 0 1 0.006,0 c 0.49229,0.004 0.91897,0.26653 1.13502,0.64844 0.21604,0.3819 0.20643,0.91032 -0.0957,1.30273 L 33.054104,47.99411 C 32.802019,48.32127 32.410433,48.5 32.001138,48.49997 Z m 0,-1 c 0.113515,1e-5 0.213879,-0.0531 0.261778,-0.11524 L 43.462654,32.84177 c 0.0676,-0.0878 0.0571,-0.13134 0.0176,-0.20118 -0.0395,-0.0698 -0.12107,-0.13925 -0.2735,-0.14062 h -6.884332 -1.320603 a 0.50016046,0.50005 0 0 1 -0.50011,-0.5 v -15.25 c 0,-0.14715 -0.102889,-0.25 -0.250056,-0.25 H 29.75066 c -0.147167,0 -0.250055,0.10285 -0.250055,0.25 v 15.25 a 0.50016046,0.50005 0 0 1 -0.50011,0.5 h -1.320603 -6.878473 c -0.19346,5e-5 -0.300345,0.12126 -0.302801,0.22461 -9.15e-4,0.0381 0.01003,0.0769 0.04103,0.11719 l 11.201688,14.54296 c 0.0479,0.0622 0.146308,0.11525 0.259822,0.11524 z" />
  </g>
</svg>
