<?xml version="1.0" encoding="UTF-8" standalone="no"?>
<svg
   xmlns:dc="http://purl.org/dc/elements/1.1/"
   xmlns:cc="http://creativecommons.org/ns#"
   xmlns:rdf="http://www.w3.org/1999/02/22-rdf-syntax-ns#"
   xmlns:svg="http://www.w3.org/2000/svg"
   xmlns="http://www.w3.org/2000/svg"
   xmlns:sodipodi="http://sodipodi.sourceforge.net/DTD/sodipodi-0.dtd"
   xmlns:inkscape="http://www.inkscape.org/namespaces/inkscape"
   width="64"
   height="64"
   viewBox="0 0 16.933333 16.933334"
   version="1.1"
   id="svg841"
   inkscape:version="1.0.2 (e86c870879, 2021-01-15)"
   sodipodi:docname="alarm-symbolic.svg">
  <defs
     id="defs835" />
  <sodipodi:namedview
     id="base"
     pagecolor="#c4c4c4"
     bordercolor="#666666"
     borderopacity="1.0"
     inkscape:pageopacity="0"
     inkscape:pageshadow="2"
     inkscape:zoom="3.823308"
     inkscape:cx="-15.05144"
     inkscape:cy="73.563723"
     inkscape:document-units="px"
     inkscape:current-layer="layer1"
     inkscape:document-rotation="0"
     showgrid="false"
     units="px"
     inkscape:window-width="2048"
     inkscape:window-height="1080"
     inkscape:window-x="0"
     inkscape:window-y="0"
     inkscape:window-maximized="1" />
  <metadata
     id="metadata838">
    <rdf:RDF>
      <cc:Work
         rdf:about="">
        <dc:format>image/svg+xml</dc:format>
        <dc:type
           rdf:resource="http://purl.org/dc/dcmitype/StillImage" />
        <dc:title />
      </cc:Work>
    </rdf:RDF>
  </metadata>
  <g
     inkscape:label="Layer 1"
     inkscape:groupmode="layer"
     id="layer1">
    <path
       id="path1019-9-1-9"
       style="fill:#808084;fill-opacity:1;stroke-width:0;stroke-linecap:round;stroke-linejoin:round;stroke-dashoffset:2.1875"
       d="M 8.4666667,0 A 8.4666674,8.4666674 0 0 0 0,8.46667 8.4666674,8.4666674 0 0 0 8.4666667,16.93334 8.4666674,8.4666674 0 0 0 16.933334,8.46667 8.4666674,8.4666674 0 0 0 8.4666667,0 Z m -0.0186,1.45521 a 7.0114585,7.0114585 0 0 1 0.0186,0 A 7.0114585,7.0114585 0 0 1 15.478126,8.46667 7.0114585,7.0114585 0 0 1 8.4666667,15.47813 7.0114585,7.0114585 0 0 1 1.455209,8.46667 7.0114585,7.0114585 0 0 1 8.4480637,1.45521 Z" />
    <path
       id="rect972-2-3-8-5-2-4"
       style="fill:#808084;fill-opacity:1;stroke-width:0;stroke-linecap:round;stroke-linejoin:round;stroke-dashoffset:2.1875"
       d="m 8.1359376,3.0427084 c -0.439735,0 -0.79375,0.354 -0.79375,0.79374 v 5.29168 c 3e-6,0.43972 0.354015,0.79374 0.79375,0.79374 h 4.6302094 c 0.439738,0 0.79375,-0.35402 0.79375,-0.79374 0,-0.43974 -0.354012,-0.79376 -0.79375,-0.79376 H 8.9296876 v -4.49792 c 0,-0.43974 -0.354013,-0.79374 -0.79375,-0.79374 z" />
  </g>
</svg>
