<?xml version="1.0" encoding="UTF-8" standalone="no"?>
<svg
   xmlns:dc="http://purl.org/dc/elements/1.1/"
   xmlns:cc="http://creativecommons.org/ns#"
   xmlns:rdf="http://www.w3.org/1999/02/22-rdf-syntax-ns#"
   xmlns:svg="http://www.w3.org/2000/svg"
   xmlns="http://www.w3.org/2000/svg"
   xmlns:sodipodi="http://sodipodi.sourceforge.net/DTD/sodipodi-0.dtd"
   xmlns:inkscape="http://www.inkscape.org/namespaces/inkscape"
   width="64"
   height="64"
   viewBox="0 0 16.933333 16.933334"
   version="1.1"
   id="svg841"
   inkscape:version="1.0.2 (e86c870879, 2021-01-15)"
   sodipodi:docname="audio-volume-low-symbolic.svg">
  <defs
     id="defs835" />
  <sodipodi:namedview
     id="base"
     pagecolor="#c4c4c4"
     bordercolor="#666666"
     borderopacity="1.0"
     inkscape:pageopacity="0"
     inkscape:pageshadow="2"
     inkscape:zoom="4.4950457"
     inkscape:cx="71.811534"
     inkscape:cy="28.49246"
     inkscape:document-units="px"
     inkscape:current-layer="layer1"
     inkscape:document-rotation="0"
     showgrid="false"
     units="px"
     inkscape:window-width="2048"
     inkscape:window-height="1080"
     inkscape:window-x="0"
     inkscape:window-y="0"
     inkscape:window-maximized="1" />
  <metadata
     id="metadata838">
    <rdf:RDF>
      <cc:Work
         rdf:about="">
        <dc:format>image/svg+xml</dc:format>
        <dc:type
           rdf:resource="http://purl.org/dc/dcmitype/StillImage" />
        <dc:title />
      </cc:Work>
    </rdf:RDF>
  </metadata>
  <g
     inkscape:label="Layer 1"
     inkscape:groupmode="layer"
     id="layer1">
    <path
       id="rect2877-4-9-6-9-5-9"
       style="fill:#808084;fill-opacity:1;stroke:none;stroke-width:1.45521;stroke-linecap:round;stroke-linejoin:round;stroke-miterlimit:4;stroke-dasharray:none;stroke-dashoffset:2.1875;stroke-opacity:1"
       d="m 6.576352,2.6458056 v 5.289e-4 5.3e-4 c -0.13475,-0.0068 -0.2722,0.03808 -0.38087,0.1359111 L 2.821517,5.8208325 H 0.529167 C 0.236008,5.8208325 0,6.0568405 0,6.3499995 v 4.2333295 c 0,0.293158 0.236008,0.529166 0.529167,0.529166 h 2.291319 l 3.374996,3.039083 c 0.0945,0.08509 0.21035,0.127582 0.32764,0.13335 l 0.003,0.0026 h 0.70125 c 0.14658,0 0.26458,-0.118004 0.26458,-0.264583 V 2.9104945 c 0,-0.146579 -0.118,-0.264583 -0.26458,-0.264583 z" />
    <path
       id="path1130-7-2-9-5-5-0-6-1"
       style="color:#000000;font-style:normal;font-variant:normal;font-weight:normal;font-stretch:normal;font-size:medium;line-height:normal;font-family:sans-serif;font-variant-ligatures:normal;font-variant-position:normal;font-variant-caps:normal;font-variant-numeric:normal;font-variant-alternates:normal;font-variant-east-asian:normal;font-feature-settings:normal;font-variation-settings:normal;text-indent:0;text-align:start;text-decoration:none;text-decoration-line:none;text-decoration-style:solid;text-decoration-color:#000000;letter-spacing:normal;word-spacing:normal;text-transform:none;writing-mode:lr-tb;direction:ltr;text-orientation:mixed;dominant-baseline:auto;baseline-shift:baseline;text-anchor:start;white-space:normal;shape-padding:0;shape-margin:0;inline-size:0;clip-rule:nonzero;display:inline;overflow:visible;visibility:visible;isolation:auto;mix-blend-mode:normal;color-interpolation:sRGB;color-interpolation-filters:linearRGB;solid-color:#000000;solid-opacity:1;vector-effect:none;fill:#808084;fill-opacity:1;fill-rule:nonzero;stroke:none;stroke-width:1.00011;stroke-linecap:round;stroke-linejoin:round;stroke-miterlimit:4;stroke-dasharray:none;stroke-dashoffset:0;stroke-opacity:1;color-rendering:auto;image-rendering:auto;shape-rendering:auto;text-rendering:auto;enable-background:accumulate;stop-color:#000000"
       d="m 11.112507,8.4674241 c 0,-1.0461291 -0.38043,-2.0930584 -1.14277,-2.9105379 a 0.56231034,0.56223458 0 0 0 -0.79493,-0.0274 0.56231034,0.56223458 0 0 0 -0.0274,0.7953295 c 1.12914,1.2108191 1.12914,3.0743779 0,4.2851963 a 0.56231034,0.56223458 0 0 0 0.0274,0.79481 0.56231034,0.56223458 0 0 0 0.79493,-0.0295 c 0.76234,-0.81749 1.14277,-1.8618086 1.14277,-2.9079578 z" />
    <path
       id="path1130-2-7-8-5-4-3-8"
       style="color:#000000;font-style:normal;font-variant:normal;font-weight:normal;font-stretch:normal;font-size:medium;line-height:normal;font-family:sans-serif;font-variant-ligatures:normal;font-variant-position:normal;font-variant-caps:normal;font-variant-numeric:normal;font-variant-alternates:normal;font-variant-east-asian:normal;font-feature-settings:normal;font-variation-settings:normal;text-indent:0;text-align:start;text-decoration:none;text-decoration-line:none;text-decoration-style:solid;text-decoration-color:#000000;letter-spacing:normal;word-spacing:normal;text-transform:none;writing-mode:lr-tb;direction:ltr;text-orientation:mixed;dominant-baseline:auto;baseline-shift:baseline;text-anchor:start;white-space:normal;shape-padding:0;shape-margin:0;inline-size:0;clip-rule:nonzero;display:inline;overflow:visible;visibility:visible;isolation:auto;mix-blend-mode:normal;color-interpolation:sRGB;color-interpolation-filters:linearRGB;solid-color:#000000;solid-opacity:1;vector-effect:none;fill:#808084;fill-opacity:1;fill-rule:nonzero;stroke:none;stroke-width:0.999952;stroke-linecap:round;stroke-linejoin:round;stroke-miterlimit:4;stroke-dasharray:none;stroke-dashoffset:0;stroke-opacity:1;color-rendering:auto;image-rendering:auto;shape-rendering:auto;text-rendering:auto;enable-background:accumulate;stop-color:#000000;opacity:0.25"
       d="m 16.933337,8.4679666 c 0,-2.4719081 -0.90218,-4.9455963 -2.70667,-6.8809051 a 0.56218149,0.56218338 0 0 0 -0.79475,-0.0274 0.56218149,0.56218338 0 0 0 -0.0274,0.7952694 c 3.21355,3.4464975 3.21355,8.777504 0,12.224002 a 0.56218149,0.56218338 0 0 0 0.0274,0.794739 0.56218149,0.56218338 0 0 0 0.79475,-0.0274 c 1.80449,-1.935309 2.70667,-4.406397 2.70667,-6.8783254 z" />
    <path
       id="path1130-8-0-5-4-2-3-5-7"
       style="color:#000000;font-style:normal;font-variant:normal;font-weight:normal;font-stretch:normal;font-size:medium;line-height:normal;font-family:sans-serif;font-variant-ligatures:normal;font-variant-position:normal;font-variant-caps:normal;font-variant-numeric:normal;font-variant-alternates:normal;font-variant-east-asian:normal;font-feature-settings:normal;font-variation-settings:normal;text-indent:0;text-align:start;text-decoration:none;text-decoration-line:none;text-decoration-style:solid;text-decoration-color:#000000;letter-spacing:normal;word-spacing:normal;text-transform:none;writing-mode:lr-tb;direction:ltr;text-orientation:mixed;dominant-baseline:auto;baseline-shift:baseline;text-anchor:start;white-space:normal;shape-padding:0;shape-margin:0;inline-size:0;clip-rule:nonzero;display:inline;overflow:visible;visibility:visible;isolation:auto;mix-blend-mode:normal;color-interpolation:sRGB;color-interpolation-filters:linearRGB;solid-color:#000000;solid-opacity:1;vector-effect:none;fill:#808084;fill-opacity:1;fill-rule:nonzero;stroke:none;stroke-width:1.00012;stroke-linecap:round;stroke-linejoin:round;stroke-miterlimit:4;stroke-dasharray:none;stroke-dashoffset:0;stroke-opacity:1;color-rendering:auto;image-rendering:auto;shape-rendering:auto;text-rendering:auto;enable-background:accumulate;stop-color:#000000;opacity:0.25"
       d="m 14.022917,8.4669416 c 0,-1.7594787 -0.64258,-3.5191974 -1.92598,-4.8959564 a 0.56221002,0.56234337 0 0 0 -0.79271,-0.0274 0.56221002,0.56234337 0 0 0 -0.0294,0.7934095 c 2.17132,2.3292781 2.17132,5.9285153 0,8.2577943 a 0.56221002,0.56234337 0 0 0 0.0294,0.794959 0.56221002,0.56234337 0 0 0 0.79271,-0.0274 c 1.2834,-1.376759 1.92598,-3.135958 1.92598,-4.8954365 z" />
  </g>
</svg>
