<?xml version="1.0" encoding="UTF-8" standalone="no"?>
<svg
   xmlns:dc="http://purl.org/dc/elements/1.1/"
   xmlns:cc="http://creativecommons.org/ns#"
   xmlns:rdf="http://www.w3.org/1999/02/22-rdf-syntax-ns#"
   xmlns:svg="http://www.w3.org/2000/svg"
   xmlns="http://www.w3.org/2000/svg"
   xmlns:sodipodi="http://sodipodi.sourceforge.net/DTD/sodipodi-0.dtd"
   xmlns:inkscape="http://www.inkscape.org/namespaces/inkscape"
   width="64"
   height="64"
   viewBox="0 0 64 64"
   version="1.1"
   id="svg6374"
   inkscape:version="1.0.2 (e86c870879, 2021-01-15)"
   sodipodi:docname="battery-level-80-charging-symbolic.svg">
  <defs
     id="defs6368" />
  <sodipodi:namedview
     id="base"
     pagecolor="#cecece"
     bordercolor="#666666"
     borderopacity="1.0"
     inkscape:pageopacity="0"
     inkscape:pageshadow="2"
     inkscape:zoom="2.6046575"
     inkscape:cx="32.184574"
     inkscape:cy="34.957558"
     inkscape:document-units="px"
     inkscape:current-layer="layer1"
     inkscape:document-rotation="0"
     showgrid="false"
     units="px"
     inkscape:window-width="1500"
     inkscape:window-height="970"
     inkscape:window-x="68"
     inkscape:window-y="56"
     inkscape:window-maximized="0" />
  <metadata
     id="metadata6371">
    <rdf:RDF>
      <cc:Work
         rdf:about="">
        <dc:format>image/svg+xml</dc:format>
        <dc:type
           rdf:resource="http://purl.org/dc/dcmitype/StillImage" />
        <dc:title></dc:title>
      </cc:Work>
    </rdf:RDF>
  </metadata>
  <g
     inkscape:label="Layer 1"
     inkscape:groupmode="layer"
     id="layer1">
    <path
       id="rect867-5-7-5-9-5"
       style="opacity:0.75;fill:#63893e;fill-opacity:1;stroke:none;stroke-width:3.5;stroke-dashoffset:2.1875"
       d="m 46.7002,18.500993 v 27 H 10.5 c -1.66199,0 -3,-1.338 -3,-3 v -21 c 0,-1.662 1.33801,-3 3,-3 z"
       class="success" />
    <path
       id="path1054-6-2-9-2-1-6-6-6-2-7"
       style="color:#000000;font-style:normal;font-variant:normal;font-weight:normal;font-stretch:normal;font-size:medium;line-height:normal;font-family:sans-serif;font-variant-ligatures:normal;font-variant-position:normal;font-variant-caps:normal;font-variant-numeric:normal;font-variant-alternates:normal;font-variant-east-asian:normal;font-feature-settings:normal;font-variation-settings:normal;text-indent:0;text-align:start;text-decoration:none;text-decoration-line:none;text-decoration-style:solid;text-decoration-color:#000000;letter-spacing:normal;word-spacing:normal;text-transform:none;writing-mode:lr-tb;direction:ltr;text-orientation:mixed;dominant-baseline:auto;baseline-shift:baseline;text-anchor:start;white-space:normal;shape-padding:0;shape-margin:0;inline-size:0;clip-rule:nonzero;display:inline;overflow:visible;visibility:visible;isolation:auto;mix-blend-mode:normal;color-interpolation:sRGB;color-interpolation-filters:linearRGB;solid-color:#000000;solid-opacity:1;vector-effect:none;fill:#808084;fill-opacity:1;fill-rule:nonzero;stroke:none;stroke-width:2.24499;stroke-linecap:round;stroke-linejoin:round;stroke-miterlimit:4;stroke-dasharray:none;stroke-dashoffset:2.1875;stroke-opacity:1;color-rendering:auto;image-rendering:auto;shape-rendering:auto;text-rendering:auto;enable-background:accumulate;stop-color:#000000"
       d="m 37.13055,1.5009532 c -0.97592,-0.0283 -1.83291,0.57671 -2.23856,1.39063 a 1.4999557,1.5260782 0 0 0 -0.01,0.006 l -5.2702,10.6640598 -6.05154,12.23242 -4.91663,9.94336 c -0.21269,0.43021 -0.29833,0.88444 -0.2852,1.32617 a 1.0828467,1.1638325 0 0 0 0.0605,0.46875 c 0.0486,0.24273 0.1167,0.48011 0.22464,0.69922 0.36664,0.74434 1.17255,1.40785 2.16238,1.41211 a 1.4999557,1.5260782 0 0 0 0.01,0 h 7.28412 l -1.45135,8.01172 -2.12722,11.7207 c -0.22343,1.24221 0.42819,2.48924 1.46112,2.95313 1.03493,0.46482 2.56133,-0.0477 3.1293,-1.19336 l 5.27019,-10.66407 6.06132,-12.23242 4.91468,-9.94336 c 0.21216,-0.42904 0.29718,-0.87958 0.28325,-1.31836 a 1.0828467,1.1638325 0 0 0 -0.0703,-0.54687 c -0.0507,-0.21797 -0.12355,-0.43034 -0.22268,-0.62891 -0.36965,-0.74543 -1.18499,-1.40725 -2.17802,-1.40429 h -7.28412 l 1.46113,-8.00977 a 1.4999557,1.5260782 0 0 0 0,-0.01 L 39.48044,4.6551632 c 0.26643,-1.48608 -0.70925,-3.10616 -2.34796,-3.1543 z" />
    <path
       id="rect865-2-70-3-7-6-9"
       style="fill:#808084;fill-opacity:1;stroke:none;stroke-width:3.5;stroke-dashoffset:2.1875"
       d="m 7,11.000003 c -3.87799,0 -7,3.122 -7,7 v 28 c 0,3.878 3.12201,7 7,7 h 16.13672 l 0.63476,-3.5 H 7 c -1.939,0 -3.5,-1.561 -3.5,-3.5 v -28 c 0,-1.939 1.561,-3.5 3.5,-3.5 h 19.35742 l 1.01172,-2.04688 0.71875,-1.45312 z m 33.86523,0 -0.63671,3.5 H 57 c 1.93901,0 3.5,1.561 3.5,3.5 v 28 c 0,1.939 -1.56099,3.5 -3.5,3.5 H 37.65234 l -1.03125,2.08008 -0.70117,1.41992 H 57 c 3.87801,0 7,-3.122 7,-7 v -28 c 0,-3.878 -3.12199,-7 -7,-7 z" />
  </g>
</svg>
