<?xml version="1.0" encoding="UTF-8" standalone="no"?>
<svg
   xmlns:dc="http://purl.org/dc/elements/1.1/"
   xmlns:cc="http://creativecommons.org/ns#"
   xmlns:rdf="http://www.w3.org/1999/02/22-rdf-syntax-ns#"
   xmlns:svg="http://www.w3.org/2000/svg"
   xmlns="http://www.w3.org/2000/svg"
   xmlns:sodipodi="http://sodipodi.sourceforge.net/DTD/sodipodi-0.dtd"
   xmlns:inkscape="http://www.inkscape.org/namespaces/inkscape"
   width="64"
   height="64"
   viewBox="0 0 64 64"
   version="1.1"
   id="svg6374"
   inkscape:version="1.0.2 (e86c870879, 2021-01-15)"
   sodipodi:docname="battery-level-60-symbolic.svg">
  <defs
     id="defs6368" />
  <sodipodi:namedview
     id="base"
     pagecolor="#cecece"
     bordercolor="#666666"
     borderopacity="1.0"
     inkscape:pageopacity="0"
     inkscape:pageshadow="2"
     inkscape:zoom="2.6046575"
     inkscape:cx="32.184574"
     inkscape:cy="34.957558"
     inkscape:document-units="px"
     inkscape:current-layer="layer1"
     inkscape:document-rotation="0"
     showgrid="false"
     units="px"
     inkscape:window-width="1500"
     inkscape:window-height="970"
     inkscape:window-x="68"
     inkscape:window-y="56"
     inkscape:window-maximized="0" />
  <metadata
     id="metadata6371">
    <rdf:RDF>
      <cc:Work
         rdf:about="">
        <dc:format>image/svg+xml</dc:format>
        <dc:type
           rdf:resource="http://purl.org/dc/dcmitype/StillImage" />
        <dc:title></dc:title>
      </cc:Work>
    </rdf:RDF>
  </metadata>
  <g
     inkscape:label="Layer 1"
     inkscape:groupmode="layer"
     id="layer1">
    <path
       id="rect867-5-7-5-9-9"
       style="fill:#808084;fill-opacity:1;stroke:none;stroke-width:3.5;stroke-dashoffset:2.1875"
       d="m 36.8999,18.5 v 27 H 10.5 c -1.662,0 -3,-1.338 -3,-3 v -21 c 0,-1.662 1.338,-3 3,-3 z" />
    <path
       id="rect865-2-9"
       style="fill:#808084;fill-opacity:1;stroke:none;stroke-width:3.5;stroke-dashoffset:2.1875"
       d="m 7,11 c -3.878,0 -7,3.122 -7,7 v 28 c 0,3.878 3.122,7 7,7 h 50 c 3.878,0 6.99999,-3.122 6.99999,-7 V 18 C 63.99999,14.122 60.878,11 57,11 Z m 0,3.5 h 50 c 1.939,0 3.5,1.561 3.5,3.5 v 28 c 0,1.939 -1.561,3.5 -3.5,3.5 H 7 C 5.061,49.5 3.5,47.939 3.5,46 V 18 c 0,-1.939 1.561,-3.5 3.5,-3.5 z" />
  </g>
</svg>
