<?xml version="1.0" encoding="UTF-8" standalone="no"?>
<svg
   xmlns:dc="http://purl.org/dc/elements/1.1/"
   xmlns:cc="http://creativecommons.org/ns#"
   xmlns:rdf="http://www.w3.org/1999/02/22-rdf-syntax-ns#"
   xmlns:svg="http://www.w3.org/2000/svg"
   xmlns="http://www.w3.org/2000/svg"
   xmlns:sodipodi="http://sodipodi.sourceforge.net/DTD/sodipodi-0.dtd"
   xmlns:inkscape="http://www.inkscape.org/namespaces/inkscape"
   width="64"
   height="64"
   viewBox="0 0 16.933333 16.933334"
   version="1.1"
   id="svg841"
   inkscape:version="1.0.2 (e86c870879, 2021-01-15)"
   sodipodi:docname="bluetooth-paired-symbolic.svg">
  <defs
     id="defs835" />
  <sodipodi:namedview
     id="base"
     pagecolor="#c4c4c4"
     bordercolor="#666666"
     borderopacity="1.0"
     inkscape:pageopacity="0"
     inkscape:pageshadow="2"
     inkscape:zoom="4.5418699"
     inkscape:cx="91.057954"
     inkscape:cy="75.391639"
     inkscape:document-units="px"
     inkscape:current-layer="layer1"
     inkscape:document-rotation="0"
     showgrid="false"
     units="px"
     inkscape:window-width="2048"
     inkscape:window-height="1080"
     inkscape:window-x="0"
     inkscape:window-y="0"
     inkscape:window-maximized="1" />
  <metadata
     id="metadata838">
    <rdf:RDF>
      <cc:Work
         rdf:about="">
        <dc:format>image/svg+xml</dc:format>
        <dc:type
           rdf:resource="http://purl.org/dc/dcmitype/StillImage" />
        <dc:title></dc:title>
      </cc:Work>
    </rdf:RDF>
  </metadata>
  <g
     inkscape:label="Layer 1"
     inkscape:groupmode="layer"
     id="layer1">
    <path
       id="rect1928-9"
       style="fill:#808084;fill-opacity:1;stroke-width:0.398772;stroke-dashoffset:2.1875"
       d="m 8.110194,12.284386 c -0.231377,0.290647 -0.23397,0.711102 0.01476,1.00709 l 2.820943,3.358553 c 0.0044,0.0053 0.01,0.0088 0.01457,0.01395 0.01915,0.02152 0.0405,0.04091 0.06218,0.06058 0.01975,0.01809 0.03944,0.03615 0.06064,0.05191 0.006,0.0044 0.01037,0.01012 0.01656,0.01443 0.01436,0.01002 0.03,0.01614 0.0447,0.0251 0.02416,0.01471 0.04802,0.02934 0.07333,0.04129 0.02496,0.01184 0.05039,0.02088 0.07607,0.02992 0.02244,0.0079 0.04461,0.0158 0.06759,0.02164 0.02807,0.0072 0.0561,0.01182 0.08451,0.01584 0.02184,0.0031 0.04339,0.0065 0.06543,0.0078 0.02975,0.0018 0.05913,3.99e-4 0.08878,-0.0012 0.02115,-0.0012 0.04216,-0.0018 0.06322,-0.0047 0.03039,-0.0041 0.05989,-0.01106 0.08959,-0.01857 0.01975,-0.005 0.0395,-0.0097 0.05897,-0.01626 0.03012,-0.01015 0.05891,-0.02321 0.08776,-0.03697 0.01776,-0.0085 0.03543,-0.01642 0.0527,-0.02632 0.02978,-0.01704 0.05773,-0.03704 0.08542,-0.05808 0.01057,-0.0081 0.02239,-0.01359 0.03272,-0.02225 0.0046,-0.0039 0.0078,-0.0088 0.01237,-0.0128 0.02242,-0.01975 0.0429,-0.04194 0.06332,-0.06453 0.01755,-0.01937 0.03511,-0.03854 0.05053,-0.05921 0.0044,-0.0059 0.01017,-0.01038 0.01436,-0.0165 l 4.577072,-6.529491 C 17.041872,9.7038751 16.954472,9.2087516 16.592347,8.9554625 16.2302,8.7021754 15.734531,8.789478 15.48095,9.1512107 L 11.500613,14.829423 9.347545,12.266797 C 9.063381,11.928504 8.562086,11.884704 8.22344,12.168557 c -0.04233,0.03547 -0.07996,0.07423 -0.113034,0.115762 z" />
    <path
       id="path1167-3-9-7-3-3-6-5"
       style="fill:#808084;fill-opacity:1;stroke-width:1.18771;stroke-linecap:round;stroke-linejoin:round;stop-color:#000000;opacity:0.5"
       d="m 8.4665762,0 a 6.6405227,8.4666671 0 0 0 -6.640422,8.466667 6.6405227,8.4666671 0 0 0 6.640422,8.466667 6.6405227,8.4666671 0 0 0 1.6350418,-0.260967 l -1.4893148,-1.772502 -0.125057,0.101288 -0.358634,0.289904 a 0.39847121,0.39847121 0 0 1 -0.649056,-0.309025 v -0.461987 -0.615984 a 0.39847121,0.39847121 0 0 1 5.29e-4,-0.01704 0.39847121,0.39847121 0 0 1 -5.29e-4,-0.01447 v -0.355018 c -0.267889,-0.456959 -0.263473,-1.02598 0,-1.476393 V 9.679524 l -1.863452,1.508437 a 0.39847121,0.39847121 0 0 1 -0.555522,-0.05323 l -0.230477,-0.2744 a 0.39847121,0.39847121 0 0 1 0.05426,-0.566375 l 2.315621,-1.874822 -2.34146,-2.261878 a 0.39847121,0.39847121 0 0 1 -0.01033,-0.563271 l 0.24908,-0.257866 a 0.39847121,0.39847121 0 0 1 0.563273,-0.0098 l 1.818494,1.755966 V 2.38283 1.88467 a 0.39847121,0.39847121 0 0 1 0.385506,-0.398426 0.39847121,0.39847121 0 0 1 0.01809,-5.29e-4 v 5.29e-4 a 0.39847121,0.39847121 0 0 1 0.271818,0.112138 l 0.358634,0.346232 0.695565,0.671793 2.6060428,2.516126 0.260449,0.251664 a 0.39847121,0.39847121 0 0 1 -0.02584,0.596347 L 11.767671,6.207919 8.9523392,8.487365 a 0.39847121,0.39847121 0 0 1 -0.0098,0.0083 l 0.266651,0.257347 2.6055258,2.516127 0.260449,0.251147 a 0.39847121,0.39847121 0 0 1 -0.02584,0.596345 l -0.281637,0.227893 -0.887284,0.71882 0.572574,0.681612 3.486609,-4.972823 c 0.05014,-0.07153 0.106558,-0.136218 0.166915,-0.195855 A 6.6405227,8.4666671 0 0 0 15.107021,8.466701 6.6405227,8.4666671 0 0 0 8.4665992,3.4e-5 Z m 0.168465,3.669543 V 7.25692 L 10.656106,5.620846 Z m 0,6.136061 v 1.523421 c 0.450496,-0.02964 0.910233,0.144573 1.21853,0.511595 l 0.2831868,0.337447 0.519348,-0.420645 z" />
  </g>
</svg>
