<?xml version="1.0" encoding="UTF-8" standalone="no"?>
<svg
   xmlns:dc="http://purl.org/dc/elements/1.1/"
   xmlns:cc="http://creativecommons.org/ns#"
   xmlns:rdf="http://www.w3.org/1999/02/22-rdf-syntax-ns#"
   xmlns:svg="http://www.w3.org/2000/svg"
   xmlns="http://www.w3.org/2000/svg"
   xmlns:sodipodi="http://sodipodi.sourceforge.net/DTD/sodipodi-0.dtd"
   xmlns:inkscape="http://www.inkscape.org/namespaces/inkscape"
   width="64"
   height="64"
   viewBox="0 0 64 64.000003"
   version="1.1"
   id="svg8"
   inkscape:version="1.0.2 (e86c870879, 2021-01-15)"
   sodipodi:docname="checkbox-checked-symbolic.svg">
  <defs
     id="defs2" />
  <sodipodi:namedview
     id="base"
     pagecolor="#c3c3c3"
     bordercolor="#666666"
     borderopacity="1.0"
     inkscape:pageopacity="0"
     inkscape:pageshadow="2"
     inkscape:zoom="3.8654026"
     inkscape:cx="-36.823812"
     inkscape:cy="52.827941"
     inkscape:document-units="px"
     inkscape:current-layer="layer1"
     inkscape:document-rotation="0"
     showgrid="false"
     units="px"
     inkscape:window-width="2048"
     inkscape:window-height="1080"
     inkscape:window-x="0"
     inkscape:window-y="0"
     inkscape:window-maximized="1" />
  <metadata
     id="metadata5">
    <rdf:RDF>
      <cc:Work
         rdf:about="">
        <dc:format>image/svg+xml</dc:format>
        <dc:type
           rdf:resource="http://purl.org/dc/dcmitype/StillImage" />
        <dc:title />
      </cc:Work>
    </rdf:RDF>
  </metadata>
  <g
     inkscape:label="Layer 1"
     inkscape:groupmode="layer"
     id="layer1">
    <path
       id="rect2599-4-0"
       style="fill:#808084;fill-opacity:1;stroke:none;stroke-width:7;stroke-miterlimit:4;stroke-dasharray:none;stroke-dashoffset:2.1875;stroke-opacity:1"
       d="M 9,2 C 5.122,2 2,5.122 2,9 v 46.00003 c 0,3.878 3.122,7 7,7 h 46 c 3.878,0 7,-3.122 7,-7 V 9 C 62,5.122 58.878,2 55,2 Z m 2,5.5 h 42 c 1.939,0 3.5,1.561 3.5,3.5 v 42.00003 c 0,1.939 -1.561,3.5 -3.5,3.5 H 11 c -1.939,0 -3.5,-1.561 -3.5,-3.5 V 11 C 7.5,9.061 9.061,7.5 11,7.5 Z" />
    <path
       id="rect1928-6-9-1"
       style="fill:#808084;fill-opacity:1;stroke-width:2.00004;stroke-dashoffset:2.1875"
       d="m 11.5381,29.10628 c -1.4498,1.82314 -1.466,4.46157 0.092,6.31838 l 12.8572,15.321 c 0.028,0.0333 0.06,0.0625 0.088,0.0949 0.085,0.0959 0.1682,0.191 0.2613,0.28064 0.1089,0.10555 0.2232,0.20633 0.3436,0.30282 0.021,0.015 0.043,0.0298 0.064,0.0448 0.071,0.0498 0.1328,0.11006 0.2048,0.16048 0.1847,0.12932 0.3774,0.23983 0.5721,0.34078 0.016,0.0109 0.037,0.0134 0.052,0.0243 0.2062,0.10409 0.4194,0.17648 0.6332,0.25021 0.1209,0.0419 0.2402,0.0852 0.3642,0.11669 0.1971,0.0514 0.3947,0.0846 0.5946,0.11115 0.1148,0.0157 0.2289,0.0315 0.3448,0.0388 0.2066,0.0129 0.4105,0.008 0.6162,-0.005 0.1136,-0.007 0.2257,-0.0128 0.3387,-0.0275 0.2071,-0.027 0.408,-0.073 0.6103,-0.12572 0.1081,-0.0281 0.2156,-0.0534 0.3222,-0.0891 0.2027,-0.0677 0.397,-0.15348 0.5904,-0.24718 0.1202,-0.0582 0.2419,-0.10956 0.3584,-0.17813 0.072,-0.0422 0.1434,-0.0853 0.2138,-0.13168 0.1626,-0.10699 0.3227,-0.22061 0.4756,-0.3489 0.048,-0.0407 0.09,-0.0848 0.1362,-0.12635 0.061,-0.0559 0.1241,-0.11015 0.1832,-0.16971 0.044,-0.0437 0.086,-0.0895 0.1277,-0.1347 0.065,-0.0705 0.1288,-0.1424 0.1903,-0.21726 0.038,-0.0455 0.074,-0.0929 0.11,-0.13994 0.044,-0.0573 0.09,-0.11111 0.1312,-0.17033 L 60.0914,10.87228 C 61.6802,8.60331 61.1323,5.49751 58.8631,3.90858 56.5939,2.31965 53.488,2.86711 51.8993,5.13608 L 27.9624,39.32159 19.2938,28.99104 c -1.7808,-2.12206 -4.9218,-2.39699 -7.0437,-0.6166 -0.2652,0.22251 -0.502,0.46618 -0.7091,0.7266 z" />
  </g>
</svg>
