<?xml version="1.0" encoding="UTF-8" standalone="no"?>
<svg
   xmlns:dc="http://purl.org/dc/elements/1.1/"
   xmlns:cc="http://creativecommons.org/ns#"
   xmlns:rdf="http://www.w3.org/1999/02/22-rdf-syntax-ns#"
   xmlns:svg="http://www.w3.org/2000/svg"
   xmlns="http://www.w3.org/2000/svg"
   xmlns:sodipodi="http://sodipodi.sourceforge.net/DTD/sodipodi-0.dtd"
   xmlns:inkscape="http://www.inkscape.org/namespaces/inkscape"
   width="64"
   height="64"
   viewBox="0 0 64 64.000003"
   version="1.1"
   id="svg1461"
   inkscape:version="1.0.2 (e86c870879, 2021-01-15)"
   sodipodi:docname="help-contents-symbolic.svg">
  <defs
     id="defs1455" />
  <sodipodi:namedview
     id="base"
     pagecolor="#c4c4c4"
     bordercolor="#666666"
     borderopacity="1.0"
     inkscape:pageopacity="0"
     inkscape:pageshadow="2"
     inkscape:zoom="4.754854"
     inkscape:cx="-15.47782"
     inkscape:cy="47.243534"
     inkscape:document-units="px"
     inkscape:current-layer="layer1"
     inkscape:document-rotation="0"
     showgrid="false"
     units="px"
     inkscape:window-width="2048"
     inkscape:window-height="1080"
     inkscape:window-x="0"
     inkscape:window-y="0"
     inkscape:window-maximized="1" />
  <metadata
     id="metadata1458">
    <rdf:RDF>
      <cc:Work
         rdf:about="">
        <dc:format>image/svg+xml</dc:format>
        <dc:type
           rdf:resource="http://purl.org/dc/dcmitype/StillImage" />
        <dc:title />
      </cc:Work>
    </rdf:RDF>
  </metadata>
  <g
     inkscape:label="Layer 1"
     inkscape:groupmode="layer"
     id="layer1">
    <circle
       style="fill:#808084;stroke:none;stroke-width:0;stroke-linecap:round;stroke-linejoin:round;stroke-dashoffset:2.1875;fill-opacity:1"
       id="path2193-6-6"
       cx="30.637184"
       cy="57"
       r="0" />
    <circle
       style="fill:#808084;stroke:none;stroke-width:0;stroke-linecap:round;stroke-linejoin:round;stroke-dashoffset:2.1875;fill-opacity:1"
       id="path2193-6-6-3"
       cx="30.637537"
       cy="57"
       r="6" />
    <path
       id="path1107-0-8-6"
       style="color:#000000;font-style:normal;font-variant:normal;font-weight:normal;font-stretch:normal;font-size:medium;line-height:normal;font-family:sans-serif;font-variant-ligatures:normal;font-variant-position:normal;font-variant-caps:normal;font-variant-numeric:normal;font-variant-alternates:normal;font-variant-east-asian:normal;font-feature-settings:normal;font-variation-settings:normal;text-indent:0;text-align:start;text-decoration:none;text-decoration-line:none;text-decoration-style:solid;text-decoration-color:#000000;letter-spacing:normal;word-spacing:normal;text-transform:none;writing-mode:lr-tb;direction:ltr;text-orientation:mixed;dominant-baseline:auto;baseline-shift:baseline;text-anchor:start;white-space:normal;shape-padding:0;shape-margin:0;inline-size:0;clip-rule:nonzero;display:inline;overflow:visible;visibility:visible;isolation:auto;mix-blend-mode:normal;color-interpolation:sRGB;color-interpolation-filters:linearRGB;solid-color:#000000;solid-opacity:1;vector-effect:none;fill:#808084;fill-opacity:1;fill-rule:nonzero;stroke:none;stroke-width:5;stroke-linecap:round;stroke-linejoin:round;stroke-miterlimit:4;stroke-dasharray:none;stroke-dashoffset:0;stroke-opacity:1;color-rendering:auto;image-rendering:auto;shape-rendering:auto;text-rendering:auto;enable-background:accumulate;stop-color:#000000"
       d="m 32.139014,1 c -7.64263,-10e-6 -14.00172,4.97871 -15.52149,12.64063 h -0.002 l -0.23633,0.9707 c -0.13168,0.53812 0.19428,1.0773 0.73242,1.20898 l 6.03516,1.47656 c 0.53812,0.13169 1.0773,-0.19429 1.20899,-0.73242 l 0.23828,-0.97265 c 0.70459,-4.71688 3.82168,-6.84375 7.54687,-6.84375 4.30747,-10e-6 7.47072,2.79355 7.4707,7.55078 2e-5,3.41177 -1.51821,5.62519 -4.81445,7.90625 -2.52165,1.7123 -4.62098,3.46901 -6.04101,5.98828 -1.29001,2.28868 -1.94412,5.10128 -2.07422,8.80664 -3e-5,6.7e-4 2e-5,10e-4 0,0.002 v 0.99805 c 0,0.554 0.446,1 1,1 h 6.03906 c 0.554,0 1,-0.446 1,-1 v -1 c 0.11851,-2.04276 0.46373,-3.51449 1.0957,-4.70703 0.75079,-1.41693 1.9576,-2.62994 4.05664,-4.09766 4.94641,-3.43329 7.77736,-7.86381 7.77735,-13.68164 0,-7.20408 -4.39531,-13.02677 -10.93164,-14.88672 -0.43575,-0.12402 -0.87983,-0.23049 -1.33399,-0.31836 -1.03798,-0.20118 -2.12365,-0.30858 -3.24609,-0.30859 z" />
  </g>
</svg>
