<?xml version="1.0" encoding="UTF-8" standalone="no"?>
<svg
   xmlns:dc="http://purl.org/dc/elements/1.1/"
   xmlns:cc="http://creativecommons.org/ns#"
   xmlns:rdf="http://www.w3.org/1999/02/22-rdf-syntax-ns#"
   xmlns:svg="http://www.w3.org/2000/svg"
   xmlns="http://www.w3.org/2000/svg"
   xmlns:sodipodi="http://sodipodi.sourceforge.net/DTD/sodipodi-0.dtd"
   xmlns:inkscape="http://www.inkscape.org/namespaces/inkscape"
   width="64"
   height="64"
   viewBox="0 0 64 64.000003"
   version="1.1"
   id="svg8"
   inkscape:version="1.0.2 (e86c870879, 2021-01-15)"
   sodipodi:docname="mail-replied-symbolic.svg">
  <defs
     id="defs2" />
  <sodipodi:namedview
     id="base"
     pagecolor="#c3c3c3"
     bordercolor="#666666"
     borderopacity="1.0"
     inkscape:pageopacity="0"
     inkscape:pageshadow="2"
     inkscape:zoom="3.9784384"
     inkscape:cx="-35.819365"
     inkscape:cy="58.423889"
     inkscape:document-units="px"
     inkscape:current-layer="layer1"
     inkscape:document-rotation="0"
     showgrid="false"
     units="px"
     inkscape:window-width="1024"
     inkscape:window-height="1080"
     inkscape:window-x="68"
     inkscape:window-y="56"
     inkscape:window-maximized="0" />
  <metadata
     id="metadata5">
    <rdf:RDF>
      <cc:Work
         rdf:about="">
        <dc:format>image/svg+xml</dc:format>
        <dc:type
           rdf:resource="http://purl.org/dc/dcmitype/StillImage" />
        <dc:title></dc:title>
      </cc:Work>
    </rdf:RDF>
  </metadata>
  <g
     inkscape:label="Layer 1"
     inkscape:groupmode="layer"
     id="layer1">
    <path
       id="rect1766-6-5-9-3"
       style="display:inline;fill:#808084;fill-opacity:1;stroke-width:6.92664;stroke-dashoffset:2.1875"
       d="m 23.045502,14.14816 c 0.2547,-0.022 0.5162,0.0544 0.7284,0.23242 l 5.1719,4.3379 c 0.4243,0.35612 0.4809,0.98382 0.125,1.4082 l -6.2928,7.49805 h 32.222 c 0.554,0 1,0.446 1,1 v 6.75 c 0,0.554 -0.446,1 -1,1 h -32.2181 l 6.3006,7.50977 c 0.3485,0.41559 0.2876,1.03646 -0.1367,1.39257 l -5.1699,4.33985 c -0.4244,0.35611 -1.0457,0.30817 -1.3944,-0.10742 L 8.2137025,32.62473 c -0.026,-0.0307 -0.033,-0.0684 -0.055,-0.10156 -0.029,-0.0458 -0.056,-0.0893 -0.076,-0.13867 -0.034,-0.0784 -0.056,-0.1575 -0.068,-0.24024 0,-0.0398 -0.011,-0.0786 -0.012,-0.11915 -0.01,-0.0813 0.01,-0.15832 0.023,-0.23828 0.011,-0.0524 0.027,-0.0998 0.047,-0.15039 0.026,-0.0667 0.06,-0.12859 0.1015,-0.18944 0.02,-0.0301 0.027,-0.0657 0.051,-0.0937 L 22.365602,14.50172 c 0.1781,-0.21211 0.4249,-0.3315 0.6797,-0.35351 z" />
  </g>
</svg>
