<?xml version="1.0" encoding="UTF-8" standalone="no"?>
<svg
   xmlns:dc="http://purl.org/dc/elements/1.1/"
   xmlns:cc="http://creativecommons.org/ns#"
   xmlns:rdf="http://www.w3.org/1999/02/22-rdf-syntax-ns#"
   xmlns:svg="http://www.w3.org/2000/svg"
   xmlns="http://www.w3.org/2000/svg"
   xmlns:sodipodi="http://sodipodi.sourceforge.net/DTD/sodipodi-0.dtd"
   xmlns:inkscape="http://www.inkscape.org/namespaces/inkscape"
   width="64"
   height="64"
   viewBox="0 0 16.933333 16.933334"
   version="1.1"
   id="svg841"
   inkscape:version="1.0.2 (e86c870879, 2021-01-15)"
   sodipodi:docname="microphone-disabled-symbolic.svg">
  <defs
     id="defs835" />
  <sodipodi:namedview
     id="base"
     pagecolor="#c4c4c4"
     bordercolor="#666666"
     borderopacity="1.0"
     inkscape:pageopacity="0"
     inkscape:pageshadow="2"
     inkscape:zoom="5.3813273"
     inkscape:cx="69.953778"
     inkscape:cy="51.391827"
     inkscape:document-units="px"
     inkscape:current-layer="layer1"
     inkscape:document-rotation="0"
     showgrid="false"
     units="px"
     inkscape:window-width="2048"
     inkscape:window-height="1080"
     inkscape:window-x="0"
     inkscape:window-y="0"
     inkscape:window-maximized="1" />
  <metadata
     id="metadata838">
    <rdf:RDF>
      <cc:Work
         rdf:about="">
        <dc:format>image/svg+xml</dc:format>
        <dc:type
           rdf:resource="http://purl.org/dc/dcmitype/StillImage" />
        <dc:title />
      </cc:Work>
    </rdf:RDF>
  </metadata>
  <g
     inkscape:label="Layer 1"
     inkscape:groupmode="layer"
     id="layer1">
    <path
       id="rect2466-6"
       style="opacity:0.5;fill:#808084;fill-opacity:1;stroke:none;stroke-width:0.79375;stroke-linecap:round;stroke-linejoin:round;stroke-miterlimit:4;stroke-dasharray:none;stroke-dashoffset:2.1875;stroke-opacity:1"
       d="M 8.4666124,0 C 6.7809514,0 5.423903,1.35705 5.423903,3.04271 V 3.36569 L 11.28246,9.22424 C 11.427807,8.86836 11.509319,8.47917 11.509319,8.06979 V 3.04271 C 11.509319,1.35705 10.152271,0 8.4666124,0 Z m 5.3578116,4.23333 c -0.329804,0 -0.595313,0.26551 -0.595313,0.59532 v 0.8108 0.64441 1.52135 c 0,0.96011 -0.283977,1.85042 -0.768945,2.59674 l 0.856278,0.85628 c 0.692984,-0.97286 1.103292,-2.16216 1.103292,-3.45302 V 6.28386 5.63945 4.82865 c 0,-0.32981 -0.265509,-0.59532 -0.595312,-0.59532 z M 2.554828,4.61316 c -0.02596,0.067 -0.04134,0.13915 -0.04134,0.21549 v 0.65422 0.80099 1.52135 c 0,2.81921 1.940698,5.16705 4.5640624,5.78983 v 3.07371 c 0,0.14658 0.118005,0.26459 0.264584,0.26459 h 2.248958 c 0.146579,0 0.264583,-0.11801 0.264583,-0.26459 V 13.59504 C 10.28814,13.49237 10.699464,13.33833 11.08919,13.14752 l -0.902787,-0.90279 c -0.5335836,0.20581 -1.1119156,0.32298 -1.7197906,0.32298 -2.6384254,0 -4.7625004,-2.12408 -4.7625004,-4.7625 V 6.28386 5.76244 Z m 2.869075,2.86907 v 0.58756 c 0,1.68566 1.3570484,3.04271 3.0427094,3.04271 0.18391,0 0.363201,-0.0186 0.537952,-0.0496 z" />
    <path
       id="rect901-6-7"
       style="fill:#808084;fill-opacity:1;stroke-width:1.32291;stroke-linecap:round;stroke-linejoin:round;stroke-dashoffset:2.1875"
       d="m 1.8811665,0 c -0.236714,-9.9999175e-7 -0.473358,0.09095 -0.654741,0.272332 -0.36276503,0.36276195 -0.36276403,0.946707 0,1.309469 L 15.351146,15.70691 c 0.362765,0.362762 0.947232,0.362761 1.309997,0 0.362765,-0.362762 0.362765,-0.946707 0,-1.309469 L 2.5359065,0.272332 C 2.3545245,0.090951 2.1178805,0 1.8811665,0 Z" />
  </g>
</svg>
