<?xml version="1.0" encoding="UTF-8" standalone="no"?>
<svg
   xmlns:dc="http://purl.org/dc/elements/1.1/"
   xmlns:cc="http://creativecommons.org/ns#"
   xmlns:rdf="http://www.w3.org/1999/02/22-rdf-syntax-ns#"
   xmlns:svg="http://www.w3.org/2000/svg"
   xmlns="http://www.w3.org/2000/svg"
   xmlns:sodipodi="http://sodipodi.sourceforge.net/DTD/sodipodi-0.dtd"
   xmlns:inkscape="http://www.inkscape.org/namespaces/inkscape"
   width="64"
   height="64"
   viewBox="0 0 16.933333 16.933334"
   version="1.1"
   id="svg841"
   inkscape:version="1.0.2 (e86c870879, 2021-01-15)"
   sodipodi:docname="microphone-sensitivity-high-symbolic.svg">
  <defs
     id="defs835" />
  <sodipodi:namedview
     id="base"
     pagecolor="#c4c4c4"
     bordercolor="#666666"
     borderopacity="1.0"
     inkscape:pageopacity="0"
     inkscape:pageshadow="2"
     inkscape:zoom="2.3195176"
     inkscape:cx="-55.435343"
     inkscape:cy="54.451095"
     inkscape:document-units="px"
     inkscape:current-layer="layer1"
     inkscape:document-rotation="0"
     showgrid="false"
     units="px"
     inkscape:window-width="2048"
     inkscape:window-height="1080"
     inkscape:window-x="0"
     inkscape:window-y="0"
     inkscape:window-maximized="1" />
  <metadata
     id="metadata838">
    <rdf:RDF>
      <cc:Work
         rdf:about="">
        <dc:format>image/svg+xml</dc:format>
        <dc:type
           rdf:resource="http://purl.org/dc/dcmitype/StillImage" />
        <dc:title />
      </cc:Work>
    </rdf:RDF>
  </metadata>
  <g
     inkscape:label="Layer 1"
     inkscape:groupmode="layer"
     id="layer1">
    <rect
       style="fill:#808084;fill-opacity:1;stroke:none;stroke-width:0.79375;stroke-linecap:round;stroke-linejoin:round;stroke-miterlimit:4;stroke-dasharray:none;stroke-dashoffset:2.1875;stroke-opacity:1"
       id="rect2466-5-7"
       width="6.0854168"
       height="11.1125"
       x="5.4239588"
       y="0"
       rx="3.0427084"
       ry="3.0427084" />
    <path
       id="rect2490-7-3-2-0-2"
       style="fill:#808084;fill-opacity:1;stroke:none;stroke-width:0.79375;stroke-linecap:round;stroke-linejoin:round;stroke-miterlimit:4;stroke-dasharray:none;stroke-dashoffset:2.1875;stroke-opacity:1"
       d="m 3.1088537,4.2333265 c -0.329803,0 -0.595312,0.26551 -0.595312,0.59531 v 0.65422 0.80099 1.5213502 c 0,2.8192093 1.940698,5.1670493 4.564062,5.7898293 v 3.07371 c 0,0.14658 0.118005,0.26459 0.264584,0.26459 h 2.2489582 c 0.146579,0 0.264583,-0.11801 0.264583,-0.26459 v -3.07371 c 2.6233661,-0.62278 4.5640641,-2.97062 4.5640641,-5.7898293 v -1.5213502 -0.64441 -0.8108 c 0,-0.3298 -0.265509,-0.59531 -0.595312,-0.59531 -0.329804,0 -0.595313,0.26551 -0.595313,0.59531 v 0.8108 0.64441 1.5213502 c 0,2.6384293 -2.124075,4.7624993 -4.7625013,4.7624993 -2.638425,0 -4.7625,-2.12407 -4.7625,-4.7624993 v -1.5213502 -0.80099 -0.65422 c 0,-0.3298 -0.26551,-0.59531 -0.595313,-0.59531 z" />
  </g>
</svg>
