<?xml version="1.0" encoding="UTF-8" standalone="no"?>
<svg
   xmlns:dc="http://purl.org/dc/elements/1.1/"
   xmlns:cc="http://creativecommons.org/ns#"
   xmlns:rdf="http://www.w3.org/1999/02/22-rdf-syntax-ns#"
   xmlns:svg="http://www.w3.org/2000/svg"
   xmlns="http://www.w3.org/2000/svg"
   xmlns:sodipodi="http://sodipodi.sourceforge.net/DTD/sodipodi-0.dtd"
   xmlns:inkscape="http://www.inkscape.org/namespaces/inkscape"
   width="64"
   height="64"
   viewBox="0 0 16.933333 16.933334"
   version="1.1"
   id="svg841"
   inkscape:version="1.0.2 (e86c870879, 2021-01-15)"
   sodipodi:docname="network-error-symbolic.svg">
  <defs
     id="defs835" />
  <sodipodi:namedview
     id="base"
     pagecolor="#c4c4c4"
     bordercolor="#666666"
     borderopacity="1.0"
     inkscape:pageopacity="0"
     inkscape:pageshadow="2"
     inkscape:zoom="2.2602841"
     inkscape:cx="-63.879638"
     inkscape:cy="76.617983"
     inkscape:document-units="px"
     inkscape:current-layer="layer1"
     inkscape:document-rotation="0"
     showgrid="false"
     units="px"
     inkscape:window-width="2048"
     inkscape:window-height="1080"
     inkscape:window-x="0"
     inkscape:window-y="0"
     inkscape:window-maximized="1" />
  <metadata
     id="metadata838">
    <rdf:RDF>
      <cc:Work
         rdf:about="">
        <dc:format>image/svg+xml</dc:format>
        <dc:type
           rdf:resource="http://purl.org/dc/dcmitype/StillImage" />
        <dc:title></dc:title>
      </cc:Work>
    </rdf:RDF>
  </metadata>
  <g
     inkscape:label="Layer 1"
     inkscape:groupmode="layer"
     id="layer1">
    <path
       id="path1282-9-9"
       style="display:inline;fill:#cb2a58;fill-opacity:1;stroke-width:0;stroke-linecap:round;stroke-linejoin:round;stroke-dashoffset:2.1875"
       d="m 12.934605,8.9955976 a 3.9687501,3.9687504 0 0 0 -3.9387716,3.9687504 3.9687501,3.9687504 0 0 0 3.9687496,3.96876 3.9687501,3.9687504 0 0 0 3.96875,-3.96876 3.9687501,3.9687504 0 0 0 -3.96875,-3.9687504 3.9687501,3.9687504 0 0 0 -0.02998,0 z m -0.433043,0.92604 h 0.926041 c 0.14658,0 0.264584,0.1180104 0.264584,0.2646004 v 3.175 c 0,0.14657 -0.118004,0.26458 -0.264584,0.26458 h -0.926041 c -0.146579,0 -0.264584,-0.11801 -0.264584,-0.26458 v -3.175 c 0,-0.14659 0.118005,-0.2646004 0.264584,-0.2646004 z m 0.463021,4.2333504 a 0.92604166,0.92604172 0 0 1 0.926041,0.92603 0.92604166,0.92604172 0 0 1 -0.926041,0.92605 0.92604166,0.92604172 0 0 1 -0.926042,-0.92605 0.92604166,0.92604172 0 0 1 0.926042,-0.92603 z"
       class="error" />
    <path
       id="rect3612-4-1-6-0-67-7-5-9-23-7"
       style="display:inline;opacity:0.75;fill:#808084;fill-opacity:1;stroke:none;stroke-width:0;stroke-linecap:round;stroke-linejoin:round;stroke-miterlimit:4;stroke-dasharray:none;stroke-dashoffset:2.1875;stroke-opacity:1"
       d="m 12.950676,2.1288376 v 5.3e-4 c -0.06745,-0.006 -0.137087,0.0134 -0.19327,0.0605 l -0.81132,0.68063 v 5.3e-4 c -0.02798,0.0235 -0.04996,0.0512 -0.06563,0.0816 v 5.3e-4 c -0.01561,0.0304 -0.02492,0.0632 -0.02791,0.0966 v 5.3e-4 c -0.0029,0.0335 3.17e-4,0.0676 0.01033,0.10026 v 5.3e-4 c 0.0101,0.0327 0.02724,0.064 0.05064,0.092 v 5.3e-4 l 1.062984,1.26617 H 7.937532 c -0.146574,0 -0.264583,0.1175 -0.264583,0.26409 v 0.92661 c 0,0.14662 0.118009,0.26461 0.264583,0.26461 h 6.261117 l 0.745174,0.88787 -0.745174,0.88787 h -5.73195 v -0.004 H 3.956896 l 1.062985,-1.26618 v -5.3e-4 c 0.02346,-0.028 0.04049,-0.0593 0.05064,-0.092 v -0.001 c 0.01009,-0.0327 0.01318,-0.0667 0.01033,-0.10025 v -5.3e-4 c -0.0029,-0.0335 -0.01237,-0.0657 -0.0279,-0.0961 v -5.3e-4 c -0.01562,-0.0305 -0.0377,-0.0586 -0.06563,-0.0822 v -5.3e-4 l -0.81132,-0.68063 c -0.05618,-0.0471 -0.125823,-0.067 -0.19327,-0.061 v 5.3e-4 c -0.06745,0.006 -0.132699,0.038 -0.179834,0.0941 v 5.3e-4 l -3.743957,4.45896 v 5.3e-4 c -0.0072,0.009 -0.01,0.0195 -0.01602,0.0284 v 5.3e-4 c -0.0092,0.0142 -0.01743,0.0274 -0.02377,0.0429 v 10e-4 c -0.0065,0.0158 -0.01078,0.0306 -0.01395,0.047 v 5.3e-4 c -0.0034,0.0165 -0.0049,0.0326 -0.0052,0.0496 3e-4,0.0169 0.0018,0.033 0.0052,0.0496 v 5.3e-4 c 0.0032,0.0164 0.0076,0.0318 0.01395,0.0475 v 5.3e-4 c 0.0063,0.0153 0.01456,0.0292 0.02377,0.0434 v 5.3e-4 c 0.0059,0.009 0.0087,0.0195 0.01602,0.0284 v 5.3e-4 l 3.743958,4.45841 v 5.3e-4 c 0.04713,0.0561 0.112387,0.0875 0.179834,0.0935 0.06745,0.006 0.137087,-0.0134 0.19327,-0.0605 l 0.81132,-0.68063 v -5.3e-4 c 0.02798,-0.0235 0.04996,-0.0511 0.06563,-0.0816 v -5.3e-4 c 0.01561,-0.0304 0.02492,-0.0636 0.02791,-0.0971 v -5.3e-4 c 0.0029,-0.0335 -3.18e-4,-0.0676 -0.01033,-0.10026 v -5.3e-4 c -0.0101,-0.0327 -0.02724,-0.0635 -0.05064,-0.0915 v -5.3e-4 l -1.062984,-1.26617 h 4.40955 a 4.6302084,4.6305515 0 0 1 0.421163,-1.45532 H 2.73476 L 1.989586,10.079358 2.73476,9.1914876 h 5.73195 v 0.004 h 1.808158 a 4.6302084,4.6305515 0 0 1 2.689759,-0.8615 4.6302084,4.6305515 0 0 1 2.296501,0.60982 l 1.613338,-1.92095 v -5.3e-4 c 0.0072,-0.009 0.01,-0.0195 0.01602,-0.0284 v -5.3e-4 c 0.0092,-0.0142 0.01743,-0.028 0.02377,-0.0434 v -5.3e-4 c 0.0065,-0.0158 0.01078,-0.0312 0.01395,-0.0475 v -5.3e-4 c 0.0034,-0.0166 0.0049,-0.0327 0.0052,-0.0496 -2.91e-4,-0.0169 -0.0018,-0.033 -0.0052,-0.0496 v -5.3e-4 c -0.0032,-0.0164 -0.0076,-0.0318 -0.01395,-0.0475 v -5.3e-4 c -0.0063,-0.0153 -0.01456,-0.0292 -0.02377,-0.0434 v -5.3e-4 c -0.0059,-0.009 -0.0087,-0.019 -0.01602,-0.0279 v -5.3e-4 l -3.743958,-4.45887 v -5.3e-4 c -0.04713,-0.0561 -0.112387,-0.0875 -0.179834,-0.0935 z" />
  </g>
</svg>
