<?xml version="1.0" encoding="UTF-8" standalone="no"?>
<svg
   xmlns:dc="http://purl.org/dc/elements/1.1/"
   xmlns:cc="http://creativecommons.org/ns#"
   xmlns:rdf="http://www.w3.org/1999/02/22-rdf-syntax-ns#"
   xmlns:svg="http://www.w3.org/2000/svg"
   xmlns="http://www.w3.org/2000/svg"
   xmlns:sodipodi="http://sodipodi.sourceforge.net/DTD/sodipodi-0.dtd"
   xmlns:inkscape="http://www.inkscape.org/namespaces/inkscape"
   width="64"
   height="64"
   viewBox="0 0 16.933333 16.933334"
   version="1.1"
   id="svg841"
   inkscape:version="1.0.2 (e86c870879, 2021-01-15)"
   sodipodi:docname="network-wired-acquiring-symbolic.svg">
  <defs
     id="defs835" />
  <sodipodi:namedview
     id="base"
     pagecolor="#c4c4c4"
     bordercolor="#666666"
     borderopacity="1.0"
     inkscape:pageopacity="0"
     inkscape:pageshadow="2"
     inkscape:zoom="4.4950457"
     inkscape:cx="41.945319"
     inkscape:cy="28.49246"
     inkscape:document-units="px"
     inkscape:current-layer="layer1"
     inkscape:document-rotation="0"
     showgrid="false"
     units="px"
     inkscape:window-width="2048"
     inkscape:window-height="1080"
     inkscape:window-x="0"
     inkscape:window-y="0"
     inkscape:window-maximized="1" />
  <metadata
     id="metadata838">
    <rdf:RDF>
      <cc:Work
         rdf:about="">
        <dc:format>image/svg+xml</dc:format>
        <dc:type
           rdf:resource="http://purl.org/dc/dcmitype/StillImage" />
        <dc:title />
      </cc:Work>
    </rdf:RDF>
  </metadata>
  <g
     inkscape:label="Layer 1"
     inkscape:groupmode="layer"
     id="layer1">
    <circle
       style="fill:#808084;stroke:none;stroke-width:0;stroke-linecap:round;stroke-linejoin:round;stroke-miterlimit:4;stroke-dasharray:none;stroke-dashoffset:2.1875;stroke-opacity:1;fill-opacity:1"
       id="path1594-84"
       cx="8.4667168"
       cy="8.4667978"
       r="1.5875" />
    <circle
       style="fill:#808084;stroke:none;stroke-width:0;stroke-linecap:round;stroke-linejoin:round;stroke-miterlimit:4;stroke-dasharray:none;stroke-dashoffset:2.1875;stroke-opacity:1;fill-opacity:1"
       id="path1594-2-5"
       cx="3.9688075"
       cy="8.4667978"
       r="1.5875" />
    <circle
       style="fill:#808084;stroke:none;stroke-width:0;stroke-linecap:round;stroke-linejoin:round;stroke-miterlimit:4;stroke-dasharray:none;stroke-dashoffset:2.1875;stroke-opacity:1;fill-opacity:1"
       id="path1594-9-0"
       cx="12.964642"
       cy="8.4667978"
       r="1.5875" />
    <path
       id="rect1677-6-2-1-3-3"
       style="opacity:0.375;fill:#808084;fill-opacity:1;stroke:none;stroke-width:0;stroke-linecap:round;stroke-linejoin:round;stroke-miterlimit:4;stroke-dasharray:none;stroke-dashoffset:2.1875;stroke-opacity:1"
       d="m 3.993622,4.0232846 c -0.2284669,-0.002 -0.4559437,0.09474 -0.6149415,0.284231 l -3.06126954,3.648485 c -0.004,0.0053 -0.0081,0.01067 -0.0124,0.01602 -0.003,0.0036 -0.0048,0.0072 -0.0078,0.01085 -0.0134,0.01739 -0.02654,0.03512 -0.038239,0.05323 -0.002,0.0038 -0.0047,0.0075 -0.0067,0.01137 -0.0113,0.01805 -0.02244,0.03664 -0.03204,0.0553 -0.003,0.0054 -0.0048,0.01059 -0.0078,0.01602 -0.009,0.01755 -0.01657,0.03526 -0.02377,0.05323 -0.003,0.0069 -0.0052,0.01375 -0.0072,0.02067 -0.006,0.01712 -0.01247,0.03428 -0.01757,0.05168 -0.002,0.0068 -0.0032,0.01378 -0.0052,0.02067 -0.005,0.01777 -0.0089,0.03578 -0.0124,0.05375 -0.002,0.0085 -0.0031,0.01674 -0.0041,0.02532 -0.002,0.01561 -0.0047,0.03135 -0.0057,0.04703 -0.001,0.01219 -0.0011,0.02445 -0.0021,0.03669 -6.2e-4,0.01297 -0.0021,0.02577 -0.0021,0.03875 -2e-5,0.01301 9.77e-4,0.02625 0.0021,0.03928 6.1e-4,0.01216 9.67e-4,0.02405 0.0021,0.03617 0.001,0.01562 0.0037,0.03148 0.0057,0.04703 0.001,0.0088 0.0021,0.01762 0.0041,0.02636 0.003,0.01765 0.008,0.03473 0.0124,0.05219 0.002,0.0071 0.0032,0.01465 0.0052,0.02171 0.005,0.01854 0.0118,0.03656 0.0186,0.05478 0.002,0.0055 0.0042,0.01107 0.0062,0.01654 0.007,0.01825 0.01559,0.03644 0.02429,0.05426 0.003,0.0055 0.0048,0.01061 0.0078,0.01602 0.01,0.0186 0.02032,0.03677 0.03152,0.05478 0.002,0.0039 0.0052,0.0081 0.0072,0.01188 0.0117,0.01811 0.02432,0.03584 0.037719,0.05323 0.003,0.0036 0.0053,0.0073 0.0083,0.01085 0.004,0.0053 0.0081,0.01075 0.0124,0.01602 L 3.3791906,12.626157 c 0.2826561,0.336882 0.7814072,0.380348 1.1182625,0.09767 0.3368553,-0.282679 0.3803127,-0.781434 0.097669,-1.118317 L 3.845306,10.711992 A 2.2489272,2.249038 0 0 1 1.7198845,8.4665726 2.2489272,2.249038 0 0 1 3.845823,6.2211516 L 4.5951216,5.3276346 C 4.8777767,4.9907526 4.8343193,4.4919956 4.497453,4.2093176 4.350075,4.0856456 4.1713025,4.0247986 3.993615,4.0232756 Z m 8.945582,0 c -0.177692,0.0015 -0.355939,0.06237 -0.503321,0.186042 -0.336871,0.282679 -0.380329,0.781436 -0.09767,1.118318 l 0.749814,0.893517 a 2.2489272,2.249038 0 0 1 2.125423,2.24542 2.2489272,2.249038 0 0 1 -2.125939,2.2459374 l -0.749298,0.893 c -0.282656,0.336883 -0.239198,0.835639 0.09767,1.118318 0.336865,0.282675 0.835599,0.239209 1.118263,-0.09767 l 3.061269,-3.6484864 c 0.0043,-0.0053 0.0084,-0.01072 0.0124,-0.01602 0.003,-0.0036 0.0053,-0.0072 0.0083,-0.01085 0.0134,-0.01739 0.02602,-0.03512 0.03772,-0.05323 0.002,-0.0038 0.0052,-0.008 0.0072,-0.01189 0.0112,-0.01801 0.02152,-0.03618 0.03152,-0.05478 0.003,-0.0054 0.0048,-0.01052 0.0078,-0.01602 0.0087,-0.01782 0.01729,-0.03601 0.02429,-0.05426 0.002,-0.0055 0.0042,-0.01104 0.0062,-0.01654 0.0068,-0.01822 0.0136,-0.03624 0.0186,-0.05478 0.002,-0.0071 0.0032,-0.01461 0.0052,-0.0217 0.0044,-0.01746 0.0094,-0.03454 0.0124,-0.05219 0.002,-0.0087 0.0031,-0.01756 0.0041,-0.02636 0.002,-0.01555 0.0047,-0.03141 0.0057,-0.04703 0.0011,-0.01212 0.0015,-0.02401 0.0021,-0.03617 0.0011,-0.01302 0.0021,-0.02626 0.0021,-0.03927 0,-0.01298 -0.0014,-0.02579 -0.0021,-0.03876 -0.001,-0.01224 -0.0011,-0.0245 -0.0021,-0.03669 -0.001,-0.01568 -0.0037,-0.03142 -0.0057,-0.04703 -0.001,-0.0086 -0.0021,-0.01682 -0.0041,-0.02532 -0.0035,-0.01796 -0.0074,-0.03597 -0.0124,-0.05374 -0.002,-0.0069 -0.0032,-0.01387 -0.0052,-0.02067 -0.0051,-0.0174 -0.01157,-0.03456 -0.01757,-0.05168 -0.002,-0.0069 -0.0042,-0.01377 -0.0072,-0.02067 -0.0072,-0.01797 -0.01477,-0.03568 -0.02377,-0.05323 -0.003,-0.0054 -0.0047,-0.01062 -0.0077,-0.01602 -0.0096,-0.01865 -0.02074,-0.03724 -0.03204,-0.0553 -0.002,-0.0038 -0.0047,-0.0076 -0.0067,-0.01137 -0.0117,-0.01811 -0.02484,-0.03584 -0.03824,-0.05323 -0.003,-0.0037 -0.0047,-0.0072 -0.0077,-0.01085 -0.0043,-0.0053 -0.0084,-0.01072 -0.0124,-0.01602 l -3.061462,-3.648468 c -0.159003,-0.189494 -0.386469,-0.28623 -0.614942,-0.28423 z" />
  </g>
</svg>
