<?xml version="1.0" encoding="UTF-8" standalone="no"?>
<svg
   xmlns:dc="http://purl.org/dc/elements/1.1/"
   xmlns:cc="http://creativecommons.org/ns#"
   xmlns:rdf="http://www.w3.org/1999/02/22-rdf-syntax-ns#"
   xmlns:svg="http://www.w3.org/2000/svg"
   xmlns="http://www.w3.org/2000/svg"
   xmlns:sodipodi="http://sodipodi.sourceforge.net/DTD/sodipodi-0.dtd"
   xmlns:inkscape="http://www.inkscape.org/namespaces/inkscape"
   width="16"
   height="16"
   viewBox="0 0 16 16.000001"
   version="1.1"
   id="svg1461"
   inkscape:version="1.0.2 (e86c870879, 2021-01-15)"
   sodipodi:docname="semi-starred-symbolic.svg">
  <defs
     id="defs1455" />
  <sodipodi:namedview
     id="base"
     pagecolor="#c4c4c4"
     bordercolor="#666666"
     borderopacity="1.0"
     inkscape:pageopacity="0"
     inkscape:pageshadow="2"
     inkscape:zoom="15.806307"
     inkscape:cx="29.051778"
     inkscape:cy="21.054426"
     inkscape:document-units="px"
     inkscape:current-layer="layer1"
     inkscape:document-rotation="0"
     showgrid="false"
     units="px"
     inkscape:window-width="2048"
     inkscape:window-height="1080"
     inkscape:window-x="0"
     inkscape:window-y="0"
     inkscape:window-maximized="1" />
  <metadata
     id="metadata1458">
    <rdf:RDF>
      <cc:Work
         rdf:about="">
        <dc:format>image/svg+xml</dc:format>
        <dc:type
           rdf:resource="http://purl.org/dc/dcmitype/StillImage" />
        <dc:title />
      </cc:Work>
    </rdf:RDF>
  </metadata>
  <g
     inkscape:label="Layer 1"
     inkscape:groupmode="layer"
     id="layer1">
    <path
       id="rect2288-3-5"
       style="display:inline;opacity:0.5;fill:#808084;fill-opacity:1;stroke-width:0;stroke-linecap:round;stroke-linejoin:round;stroke-dashoffset:2.1875;stroke-opacity:0.5"
       d="M 8.0001155,1.125e-5 V 11.820217 c 0,-10e-5 0.01025,0 0.01025,0 0.9471835,0 4.1763275,4.715464 4.9418135,4.129357 C 13.717566,15.363367 10.431398,10.689999 10.722718,9.7430878 11.014038,8.7962765 16.282346,7.0273875 15.988251,6.081501 15.694131,5.1355645 10.447448,6.9747755 9.6802612,6.3910683 8.9155745,5.809361 8.939324,0.03611342 8.0015905,1.125e-5 Z" />
    <path
       id="rect2288-3-5-3"
       style="display:inline;opacity:1;fill:#808084;fill-opacity:1;stroke-width:0;stroke-linecap:round;stroke-linejoin:round;stroke-dashoffset:2.1875;stroke-opacity:0.5"
       d="m 7.9986655,0 c -0.93775,0.03599971 -0.914,5.8093552 -1.6787,6.3910607 -0.7672,0.5837078 -6.01397495,-1.255505 -6.30809996,-0.3095675 -0.29412499,0.9458623 4.97477496,2.7147806 5.26609996,3.6615928 0.291225,0.946912 -2.994875,5.620284 -2.229475,6.206492 0.7655,0.586108 3.994625,-4.130962 4.941875,-4.129362 h 0.00975 V 0 Z" />
  </g>
</svg>
