<?xml version="1.0" encoding="UTF-8" standalone="no"?>
<svg
   xmlns:dc="http://purl.org/dc/elements/1.1/"
   xmlns:cc="http://creativecommons.org/ns#"
   xmlns:rdf="http://www.w3.org/1999/02/22-rdf-syntax-ns#"
   xmlns:svg="http://www.w3.org/2000/svg"
   xmlns="http://www.w3.org/2000/svg"
   xmlns:sodipodi="http://sodipodi.sourceforge.net/DTD/sodipodi-0.dtd"
   xmlns:inkscape="http://www.inkscape.org/namespaces/inkscape"
   width="64"
   height="64"
   viewBox="0 0 16.933333 16.933334"
   version="1.1"
   id="svg841"
   inkscape:version="1.0.2 (e86c870879, 2021-01-15)"
   sodipodi:docname="task-due-symbolic.svg">
  <defs
     id="defs835" />
  <sodipodi:namedview
     id="base"
     pagecolor="#c4c4c4"
     bordercolor="#666666"
     borderopacity="1.0"
     inkscape:pageopacity="0"
     inkscape:pageshadow="2"
     inkscape:zoom="3.5451024"
     inkscape:cx="68.811251"
     inkscape:cy="38.515083"
     inkscape:document-units="px"
     inkscape:current-layer="layer1"
     inkscape:document-rotation="0"
     showgrid="false"
     units="px"
     inkscape:window-width="2048"
     inkscape:window-height="1080"
     inkscape:window-x="0"
     inkscape:window-y="0"
     inkscape:window-maximized="1" />
  <metadata
     id="metadata838">
    <rdf:RDF>
      <cc:Work
         rdf:about="">
        <dc:format>image/svg+xml</dc:format>
        <dc:type
           rdf:resource="http://purl.org/dc/dcmitype/StillImage" />
        <dc:title></dc:title>
      </cc:Work>
    </rdf:RDF>
  </metadata>
  <g
     inkscape:label="Layer 1"
     inkscape:groupmode="layer"
     id="layer1">
    <path
       id="rect2548-3-6-4-4-7"
       style="fill:#bc5b34;fill-opacity:1;stroke:none;stroke-width:0;stroke-linecap:round;stroke-linejoin:round;stroke-miterlimit:4;stroke-dasharray:none;stroke-dashoffset:2.1875;stroke-opacity:1"
       d="m 12.501562,8.9958381 c -0.146579,0 -0.264583,0.118 -0.264583,0.26458 v 4.7624999 c 0,0.14658 0.118004,0.26458 0.264583,0.26458 h 0.926042 c 0.146579,0 0.264583,-0.118 0.264583,-0.26458 V 9.2604181 c 0,-0.14658 -0.118004,-0.26458 -0.264583,-0.26458 z m 0.463021,6.0854099 a 0.92604169,0.92604169 0 0 0 -0.926042,0.92604 0.92604169,0.92604169 0 0 0 0.926042,0.92605 0.92604169,0.92604169 0 0 0 0.926042,-0.92605 0.92604169,0.92604169 0 0 0 -0.926042,-0.92604 z"
       class="warning" />
    <path
       id="rect833-3-5-9-0-8-1-5"
       style="display:inline;fill:#808084;fill-opacity:1;stroke:none;stroke-width:0;stroke-linecap:round;stroke-linejoin:round;stroke-dashoffset:2.1875"
       d="M 8.4418618,0.52920815 A 1.8520836,1.8520836 0 0 0 6.6337043,2.1167081 h -3.987871 c -0.879475,0 -1.5875,0.70802 -1.5875,1.5875 V 14.816718 c 0,0.87946 0.708025,1.5875 1.5875,1.5875 h 3.307291 1.9120275 0.204639 c 0.146579,0 0.264584,-0.11801 0.264584,-0.26459 v -0.79375 c 0,-0.14657 -0.118005,-0.26458 -0.264584,-0.26458 H 7.8651518 5.9531243 3.1749993 c -0.439737,0 -0.79375,-0.35402 -0.79375,-0.79375 V 4.2333781 c 0,-0.43974 0.354013,-0.79375 0.79375,-0.79375 h 3.771863 a 1.8520836,1.8520836 0 0 0 1.5198045,0.79375 1.8520836,1.8520836 0 0 0 1.519804,-0.79375 h 3.7718622 c 0.439737,0 0.79375,0.35401 0.79375,0.79375 v 1.71979 1.32292 0.79375 c 0,0.14658 0.118004,0.26458 0.264583,0.26458 h 0.79375 c 0.14658,0 0.264584,-0.118 0.264584,-0.26458 v -0.79375 -1.32292 -2.24896 c 0,-0.87948 -0.708025,-1.5875 -1.5875,-1.5875 h -3.987872 a 1.8520836,1.8520836 0 0 0 -1.8329622,-1.58749995 1.8520836,1.8520836 0 0 0 -0.02479,0 z m 0.02481,0.92604995 a 0.9260419,0.9260419 0 0 1 0.926042,0.92604 0.9260419,0.9260419 0 0 1 -0.926043,0.92604 0.9260419,0.9260419 0 0 1 -0.926041,-0.92604 0.9260419,0.9260419 0 0 1 0.926041,-0.92604 z m -3.4395835,3.70416 c -0.146579,0 -0.264584,0.11801 -0.264584,0.26459 v 0.92604 c 0,0.14658 0.118005,0.26458 0.264584,0.26458 h 6.8791667 c 0.146579,0 0.264583,-0.118 0.264583,-0.26458 v -0.92604 c 0,-0.14658 -0.118004,-0.26459 -0.264583,-0.26459 z m 0,3.57188 c -0.146579,0 -0.264584,0.118 -0.264584,0.26458 v 0.92604 c 0,0.1465799 0.118005,0.2645899 0.264584,0.2645899 h 4.7624995 c 0.146579,0 0.2645832,-0.11801 0.2645832,-0.2645899 v -0.92604 c 0,-0.14658 -0.1180032,-0.26458 -0.2645832,-0.26458 z m 0,3.4395799 c -0.146579,0 -0.264584,0.11801 -0.264584,0.26458 v 0.92605 c 0,0.14658 0.118005,0.26458 0.264584,0.26458 h 4.7624995 c 0.146579,0 0.2645832,-0.118 0.2645832,-0.26458 v -0.92605 c 0,-0.14657 -0.1180032,-0.26458 -0.2645832,-0.26458 z" />
  </g>
</svg>
