<?xml version="1.0" encoding="UTF-8" standalone="no"?>
<svg
   xmlns:dc="http://purl.org/dc/elements/1.1/"
   xmlns:cc="http://creativecommons.org/ns#"
   xmlns:rdf="http://www.w3.org/1999/02/22-rdf-syntax-ns#"
   xmlns:svg="http://www.w3.org/2000/svg"
   xmlns="http://www.w3.org/2000/svg"
   xmlns:sodipodi="http://sodipodi.sourceforge.net/DTD/sodipodi-0.dtd"
   xmlns:inkscape="http://www.inkscape.org/namespaces/inkscape"
   width="64"
   height="64"
   viewBox="0 0 16.933333 16.933334"
   version="1.1"
   id="svg841"
   inkscape:version="1.0.2 (e86c870879, 2021-01-15)"
   sodipodi:docname="unlock-symbolic.svg">
  <defs
     id="defs835" />
  <sodipodi:namedview
     id="base"
     pagecolor="#c4c4c4"
     bordercolor="#666666"
     borderopacity="1.0"
     inkscape:pageopacity="0"
     inkscape:pageshadow="2"
     inkscape:zoom="3.4810198"
     inkscape:cx="47.637527"
     inkscape:cy="6.5619347"
     inkscape:document-units="px"
     inkscape:current-layer="layer1"
     inkscape:document-rotation="0"
     showgrid="false"
     units="px"
     inkscape:window-width="2048"
     inkscape:window-height="1080"
     inkscape:window-x="0"
     inkscape:window-y="0"
     inkscape:window-maximized="1" />
  <metadata
     id="metadata838">
    <rdf:RDF>
      <cc:Work
         rdf:about="">
        <dc:format>image/svg+xml</dc:format>
        <dc:type
           rdf:resource="http://purl.org/dc/dcmitype/StillImage" />
        <dc:title />
      </cc:Work>
    </rdf:RDF>
  </metadata>
  <g
     inkscape:label="Layer 1"
     inkscape:groupmode="layer"
     id="layer1">
    <path
       id="rect2746-3-7-6"
       style="fill:#808084;fill-opacity:1;stroke-width:0;stroke-linecap:round;stroke-linejoin:round;stroke-dashoffset:2.1875"
       d="m 8.4780705,0.53027797 c -1.6262087,0 -3.0308023,0.90876443 -3.7403354,2.24723863 l -0.047016,0.081148 C 4.4699767,3.2409607 4.6004428,3.7267357 4.9826863,3.9474247 5.3649299,4.1680872 5.8502551,4.0377535 6.070997,3.655457 L 6.118013,3.574336 6.115363,3.571686 C 6.5498882,2.7078479 7.4420625,2.116557 8.4785415,2.116557 c 1.465818,2.65e-5 2.6458345,1.1794332 2.6458345,2.6451455 V 8.5994608 H 2.38125 c -0.4397375,0 -0.79375,0.353987 -0.79375,0.793698 V 15.61047 c 0,0.439711 0.3540125,0.793697 0.79375,0.793697 h 12.170834 c 0.439738,0 0.79375,-0.353986 0.79375,-0.793697 V 9.3931588 c 0,-0.439711 -0.354012,-0.793698 -0.79375,-0.793698 H 12.711881 V 4.7617064 c 2.6e-5,-1.6122915 -0.891884,-3.0078628 -2.211758,-3.7230316 v 0 C 9.9002055,0.71363417 9.2114425,0.52916667 8.4785465,0.52916667 Z" />
  </g>
</svg>
