<?xml version="1.0" encoding="UTF-8" standalone="no"?>
<svg
   xmlns:dc="http://purl.org/dc/elements/1.1/"
   xmlns:cc="http://creativecommons.org/ns#"
   xmlns:rdf="http://www.w3.org/1999/02/22-rdf-syntax-ns#"
   xmlns:svg="http://www.w3.org/2000/svg"
   xmlns="http://www.w3.org/2000/svg"
   xmlns:sodipodi="http://sodipodi.sourceforge.net/DTD/sodipodi-0.dtd"
   xmlns:inkscape="http://www.inkscape.org/namespaces/inkscape"
   width="64"
   height="64"
   viewBox="0 0 16.933333 16.933334"
   version="1.1"
   id="svg841"
   inkscape:version="1.0.2 (e86c870879, 2021-01-15)"
   sodipodi:docname="user-status-pending-symbolic.svg">
  <defs
     id="defs835" />
  <sodipodi:namedview
     id="base"
     pagecolor="#c4c4c4"
     bordercolor="#666666"
     borderopacity="1.0"
     inkscape:pageopacity="0"
     inkscape:pageshadow="2"
     inkscape:zoom="3.7926273"
     inkscape:cx="31.792303"
     inkscape:cy="20.426598"
     inkscape:document-units="px"
     inkscape:current-layer="layer1"
     inkscape:document-rotation="0"
     showgrid="false"
     units="px"
     inkscape:window-width="2048"
     inkscape:window-height="1080"
     inkscape:window-x="0"
     inkscape:window-y="0"
     inkscape:window-maximized="1" />
  <metadata
     id="metadata838">
    <rdf:RDF>
      <cc:Work
         rdf:about="">
        <dc:format>image/svg+xml</dc:format>
        <dc:type
           rdf:resource="http://purl.org/dc/dcmitype/StillImage" />
        <dc:title />
      </cc:Work>
    </rdf:RDF>
  </metadata>
  <g
     inkscape:label="Layer 1"
     inkscape:groupmode="layer"
     id="layer1">
    <circle
       style="fill:#808084;stroke:none;stroke-width:0;stroke-linecap:round;stroke-linejoin:round;stroke-miterlimit:4;stroke-dasharray:none;stroke-dashoffset:2.1875;stroke-opacity:1;fill-opacity:1"
       id="path1594-3"
       cx="8.4666576"
       cy="12.699993"
       r="1.5875" />
    <circle
       style="fill:#808084;stroke:none;stroke-width:0;stroke-linecap:round;stroke-linejoin:round;stroke-miterlimit:4;stroke-dasharray:none;stroke-dashoffset:2.1875;stroke-opacity:1;fill-opacity:1"
       id="path1594-2-7"
       cx="3.96875"
       cy="12.699993"
       r="1.5875" />
    <path
       id="path1305-3-0-9-9"
       style="color:#000000;font-style:normal;font-variant:normal;font-weight:normal;font-stretch:normal;font-size:medium;line-height:normal;font-family:sans-serif;font-variant-ligatures:normal;font-variant-position:normal;font-variant-caps:normal;font-variant-numeric:normal;font-variant-alternates:normal;font-variant-east-asian:normal;font-feature-settings:normal;font-variation-settings:normal;text-indent:0;text-align:start;text-decoration:none;text-decoration-line:none;text-decoration-style:solid;text-decoration-color:#000000;letter-spacing:normal;word-spacing:normal;text-transform:none;writing-mode:lr-tb;direction:ltr;text-orientation:mixed;dominant-baseline:auto;baseline-shift:baseline;text-anchor:start;white-space:normal;shape-padding:0;shape-margin:0;inline-size:0;clip-rule:nonzero;display:inline;overflow:visible;visibility:visible;opacity:0.375;isolation:auto;mix-blend-mode:normal;color-interpolation:sRGB;color-interpolation-filters:linearRGB;solid-color:#000000;solid-opacity:1;vector-effect:none;fill:#808084;fill-opacity:1;fill-rule:nonzero;stroke:none;stroke-width:0.250016;stroke-linecap:round;stroke-linejoin:round;stroke-miterlimit:4;stroke-dasharray:none;stroke-dashoffset:0;stroke-opacity:1;color-rendering:auto;image-rendering:auto;shape-rendering:auto;text-rendering:auto;enable-background:accumulate;stop-color:#000000"
       d="m 8.0733883,10.4857 c -0.932259,0.0313 -1.857782,0.1745 -2.737817,0.42839 a 2.2489584,2.2489584 0 0 1 0.882116,1.78594 2.2489584,2.2489584 0 0 1 1.855701,-2.21433 z m -1.855701,2.21433 A 2.2489584,2.2489584 0 0 1 3.9687297,14.94899 2.2489584,2.2489584 0 0 1 1.7357907,12.9672 c -0.83054003,0.86888 -1.31773103,1.91137 -1.31774903,3.04064 a 0.66124287,0.66132238 0 0 0 0.66094203,0.66094 h 7.3876626 7.3871467 a 0.66124287,0.66132238 0 0 0 0.661458,-0.66094 c -1.6e-5,-1.12946 -0.487093,-2.17219 -1.317749,-3.04116 a 2.2489584,2.2489584 0 0 1 -2.232938,1.98231 2.2489584,2.2489584 0 0 1 -2.248959,-2.24896 2.2489584,2.2489584 0 0 1 -2.2489587,2.24896 2.2489584,2.2489584 0 0 1 -2.248959,-2.24896 z m 4.4979177,0 a 2.2489584,2.2489584 0 0 1 0.882117,-1.78594 C 10.717709,10.66029 9.7920573,10.51697 8.8599043,10.4857 a 2.2489584,2.2489584 0 0 1 1.8557007,2.21433 z" />
    <circle
       style="fill:#808084;stroke:none;stroke-width:0;stroke-linecap:round;stroke-linejoin:round;stroke-miterlimit:4;stroke-dasharray:none;stroke-dashoffset:2.1875;stroke-opacity:1;fill-opacity:1"
       id="path1594-9-5"
       cx="12.964582"
       cy="12.699993"
       r="1.5875" />
    <circle
       style="opacity:0.375;fill:#808084;stroke-width:3.41926;stroke-linecap:round;stroke-linejoin:round;stroke-dashoffset:2.1875;fill-opacity:1"
       id="path1012-1-2"
       cx="8.4666462"
       cy="4.2333331"
       r="3.96875" />
  </g>
</svg>
