<?xml version="1.0" encoding="UTF-8" standalone="no"?>
<svg
   xmlns:dc="http://purl.org/dc/elements/1.1/"
   xmlns:cc="http://creativecommons.org/ns#"
   xmlns:rdf="http://www.w3.org/1999/02/22-rdf-syntax-ns#"
   xmlns:svg="http://www.w3.org/2000/svg"
   xmlns="http://www.w3.org/2000/svg"
   xmlns:sodipodi="http://sodipodi.sourceforge.net/DTD/sodipodi-0.dtd"
   xmlns:inkscape="http://www.inkscape.org/namespaces/inkscape"
   width="64"
   height="64"
   viewBox="0 0 16.933333 16.933334"
   version="1.1"
   id="svg841"
   inkscape:version="1.0.2 (e86c870879, 2021-01-15)"
   sodipodi:docname="user-invisible-symbolic.svg">
  <defs
     id="defs835" />
  <sodipodi:namedview
     id="base"
     pagecolor="#c4c4c4"
     bordercolor="#666666"
     borderopacity="1.0"
     inkscape:pageopacity="0"
     inkscape:pageshadow="2"
     inkscape:zoom="3.7926273"
     inkscape:cx="31.792303"
     inkscape:cy="20.426598"
     inkscape:document-units="px"
     inkscape:current-layer="layer1"
     inkscape:document-rotation="0"
     showgrid="false"
     units="px"
     inkscape:window-width="2048"
     inkscape:window-height="1080"
     inkscape:window-x="0"
     inkscape:window-y="0"
     inkscape:window-maximized="1" />
  <metadata
     id="metadata838">
    <rdf:RDF>
      <cc:Work
         rdf:about="">
        <dc:format>image/svg+xml</dc:format>
        <dc:type
           rdf:resource="http://purl.org/dc/dcmitype/StillImage" />
        <dc:title />
      </cc:Work>
    </rdf:RDF>
  </metadata>
  <g
     inkscape:label="Layer 1"
     inkscape:groupmode="layer"
     id="layer1">
    <path
       id="path1303-6"
       style="color:#000000;font-style:normal;font-variant:normal;font-weight:normal;font-stretch:normal;font-size:medium;line-height:normal;font-family:sans-serif;font-variant-ligatures:normal;font-variant-position:normal;font-variant-caps:normal;font-variant-numeric:normal;font-variant-alternates:normal;font-variant-east-asian:normal;font-feature-settings:normal;font-variation-settings:normal;text-indent:0;text-align:start;text-decoration:none;text-decoration-line:none;text-decoration-style:solid;text-decoration-color:#000000;letter-spacing:normal;word-spacing:normal;text-transform:none;writing-mode:lr-tb;direction:ltr;text-orientation:mixed;dominant-baseline:auto;baseline-shift:baseline;text-anchor:start;white-space:normal;shape-padding:0;shape-margin:0;inline-size:0;clip-rule:nonzero;display:inline;overflow:visible;visibility:visible;opacity:1;isolation:auto;mix-blend-mode:normal;color-interpolation:sRGB;color-interpolation-filters:linearRGB;solid-color:#000000;solid-opacity:1;vector-effect:none;fill:#808084;fill-opacity:1;fill-rule:nonzero;stroke:none;stroke-width:0.250008;stroke-linecap:round;stroke-linejoin:round;stroke-miterlimit:4;stroke-dasharray:none;stroke-dashoffset:0;stroke-opacity:1;color-rendering:auto;image-rendering:auto;shape-rendering:auto;text-rendering:auto;enable-background:accumulate;stop-color:#000000"
       d="M 8.4365049,0.26459753 A 3.9687501,3.9687501 0 0 0 4.4977321,4.2333476 3.9687501,3.9687501 0 0 0 8.4664822,8.2020982 3.9687501,3.9687501 0 0 0 12.435232,4.2333476 3.9687501,3.9687501 0 0 0 8.4664822,0.26459753 a 3.9687501,3.9687501 0 0 0 -0.029977,0 z m 0.024871,1.32291667 a 2.6458331,2.6458331 0 0 1 0.00529,0 A 2.6458331,2.6458331 0 0 1 11.1125,4.2333476 2.6458331,2.6458331 0 0 1 8.4666674,6.8791812 2.6458331,2.6458331 0 0 1 5.820834,4.2333476 2.6458331,2.6458331 0 0 1 8.461508,1.5875142 Z m 0.00582,8.8898968 c -1.3507509,0 -2.7018457,0.233191 -3.9289833,0.699699 -2.454275,0.932992 -4.12011815,2.735731 -4.12014465,4.830712 a 0.66124285,0.66127825 0 0 0 0.66092915,0.660942 h 7.3881988 7.3866111 a 0.66124285,0.66127825 0 0 0 0.661459,-0.660942 C 16.515239,13.912841 14.849872,12.110102 12.395624,11.17711 11.16846,10.710602 9.8179465,10.477411 8.4671959,10.477411 Z m 0,1.33222 v 0 c 1.2001496,0 2.3996391,0.20117 3.4581841,0.60358 1.777577,0.675749 2.825247,1.779934 3.131053,2.933153 H 8.4664822 1.8767166 c 0.3058054,-1.153219 1.3534761,-2.257404 3.1310528,-2.933153 1.058545,-0.40241 2.2585892,-0.60358 3.4587128,-0.60358 z" />
  </g>
</svg>
