<?xml version="1.0" encoding="UTF-8" standalone="no"?>
<svg
   xmlns:dc="http://purl.org/dc/elements/1.1/"
   xmlns:cc="http://creativecommons.org/ns#"
   xmlns:rdf="http://www.w3.org/1999/02/22-rdf-syntax-ns#"
   xmlns:svg="http://www.w3.org/2000/svg"
   xmlns="http://www.w3.org/2000/svg"
   xmlns:sodipodi="http://sodipodi.sourceforge.net/DTD/sodipodi-0.dtd"
   xmlns:inkscape="http://www.inkscape.org/namespaces/inkscape"
   width="64"
   height="64"
   viewBox="0 0 16.933333 16.933334"
   version="1.1"
   id="svg841"
   inkscape:version="1.0.2 (e86c870879, 2021-01-15)"
   sodipodi:docname="weather-snow-night-symbolic.svg">
  <defs
     id="defs835" />
  <sodipodi:namedview
     id="base"
     pagecolor="#c4c4c4"
     bordercolor="#666666"
     borderopacity="1.0"
     inkscape:pageopacity="0"
     inkscape:pageshadow="2"
     inkscape:zoom="3.4685212"
     inkscape:cx="116.1101"
     inkscape:cy="102.49154"
     inkscape:document-units="px"
     inkscape:current-layer="layer1"
     inkscape:document-rotation="0"
     showgrid="false"
     units="px"
     inkscape:window-width="2048"
     inkscape:window-height="1080"
     inkscape:window-x="0"
     inkscape:window-y="0"
     inkscape:window-maximized="1" />
  <metadata
     id="metadata838">
    <rdf:RDF>
      <cc:Work
         rdf:about="">
        <dc:format>image/svg+xml</dc:format>
        <dc:type
           rdf:resource="http://purl.org/dc/dcmitype/StillImage" />
        <dc:title />
      </cc:Work>
    </rdf:RDF>
  </metadata>
  <g
     inkscape:label="Layer 1"
     inkscape:groupmode="layer"
     id="layer1">
    <path
       id="path842-3-36-3-2-5-9-3-62"
       style="opacity:0.45;fill:#808080;fill-opacity:1;stroke:none;stroke-width:0;stroke-linecap:round;stroke-linejoin:round;stroke-miterlimit:4;stroke-dasharray:none;stroke-dashoffset:2.1875"
       d="m 6.4158067,0.82497084 a 3.1485418,3.1485197 0 0 0 -3.148538,3.14851996 3.1485418,3.1485197 0 0 0 0.136603,0.91715 c -0.980391,0.32843 -1.68408,1.2501 -1.68408,2.34382 0,1.37051 1.103334,2.47384 2.473849,2.47384 H 12.73969 c 1.370514,0 2.473857,-1.10333 2.473857,-2.47384 0,-1.14411 -0.769752,-2.09941 -1.821133,-2.38467 a 2.2489583,2.2489425 0 0 0 0.02201,-0.31274 2.2489583,2.2489425 0 0 0 -2.248956,-2.24895 2.2489583,2.2489425 0 0 0 -1.726257,0.80778 3.1485418,3.1485197 0 0 0 -3.0233573,-2.27090996 z" />
    <path
       id="path863-3-6-7-1"
       style="color:#000000;font-style:normal;font-variant:normal;font-weight:normal;font-stretch:normal;font-size:medium;line-height:normal;font-family:sans-serif;font-variant-ligatures:normal;font-variant-position:normal;font-variant-caps:normal;font-variant-numeric:normal;font-variant-alternates:normal;font-variant-east-asian:normal;font-feature-settings:normal;font-variation-settings:normal;text-indent:0;text-align:start;text-decoration:none;text-decoration-line:none;text-decoration-style:solid;text-decoration-color:#000000;letter-spacing:normal;word-spacing:normal;text-transform:none;writing-mode:lr-tb;direction:ltr;text-orientation:mixed;dominant-baseline:auto;baseline-shift:baseline;text-anchor:start;white-space:normal;shape-padding:0;shape-margin:0;inline-size:0;clip-rule:nonzero;display:inline;overflow:visible;visibility:visible;isolation:auto;mix-blend-mode:normal;color-interpolation:sRGB;color-interpolation-filters:linearRGB;solid-color:#000000;solid-opacity:1;vector-effect:none;fill:#808080;fill-opacity:1;fill-rule:nonzero;stroke:none;stroke-width:0;stroke-linecap:butt;stroke-linejoin:round;stroke-miterlimit:4;stroke-dasharray:none;stroke-dashoffset:0;stroke-opacity:1;color-rendering:auto;image-rendering:auto;shape-rendering:auto;text-rendering:auto;enable-background:accumulate;stop-color:#000000;opacity:0.75"
       d="m 12.541875,10.589419 c -0.210324,0.608644 -0.440906,1.231229 -0.691948,1.863463 -0.406119,-0.545724 -0.790182,-1.087618 -1.150834,-1.621101 l -0.240812,0.184491 -0.239779,0.184481 -0.240295,0.184491 c 0.421961,0.486454 0.845626,0.997647 1.267623,1.531181 -0.675656,0.0789 -1.336869,0.140421 -1.979208,0.186042 l 0.03979,0.300752 0.03927,0.299732 0.03979,0.300752 c 0.632228,-0.122181 1.287069,-0.234102 1.960087,-0.332792 -0.269542,0.624574 -0.547236,1.228018 -0.82889,1.807132 l 0.280087,0.116271 0.279569,0.115761 0.280086,0.115761 c 0.210331,-0.608655 0.440893,-1.231239 0.691948,-1.863473 0.406107,0.545703 0.790178,1.087617 1.150834,1.621101 l 0.240812,-0.184481 0.239779,-0.184492 0.240812,-0.184481 c -0.421932,-0.486453 -0.846139,-0.997677 -1.26814,-1.531181 0.67567,-0.0788 1.336869,-0.140431 1.979208,-0.186041 l -0.03979,-0.300762 -0.03927,-0.299722 -0.03927,-0.300762 c -0.632244,0.122191 -1.287039,0.234091 -1.960087,0.332802 0.269531,-0.624584 0.546719,-1.228029 0.828373,-1.807133 L 13.101533,10.82093 12.821964,10.70518 Z m -7.8129601,0.996847 -0.292489,0.0786 -0.292488,0.078 -0.292489,0.0786 c 0.20366,0.610894 0.399784,1.245758 0.585494,1.900153 -0.65441,-0.185721 -1.289243,-0.381823 -1.900143,-0.585494 l -0.07855,0.293002 -0.07803,0.291972 -0.07855,0.293012 c 0.63089,0.129061 1.278276,0.276502 1.937866,0.442873 -0.48803,0.473893 -0.974929,0.925137 -1.456759,1.35238 l 0.214457,0.214461 0.213941,0.213942 0.21394,0.214451 c 0.42723,-0.481823 0.878999,-0.969247 1.352889,-1.45728 0.16637,0.659595 0.313807,1.307499 0.442867,1.938393 l 0.293006,-0.0785 0.291972,-0.0785 0.293005,-0.0786 c -0.20368,-0.610914 -0.400311,-1.245229 -0.586011,-1.899644 0.6544,0.185712 1.289233,0.381833 1.900143,0.585495 l 0.07855,-0.293002 0.07803,-0.291973 0.07855,-0.293012 c -0.630869,-0.12907 -1.278306,-0.276492 -1.937866,-0.442863 0.48803,-0.473893 0.974929,-0.925146 1.456759,-1.352389 L 6.9525519,12.495891 6.7391279,12.28195 6.5246709,12.067488 c -0.42724,0.481834 -0.878999,0.969247 -1.352889,1.457281 -0.16637,-0.659585 -0.313807,-1.3075 -0.442867,-1.938394 z" />
  </g>
</svg>
