<?xml version="1.0" encoding="UTF-8" standalone="no"?>
<svg
   xmlns:dc="http://purl.org/dc/elements/1.1/"
   xmlns:cc="http://creativecommons.org/ns#"
   xmlns:rdf="http://www.w3.org/1999/02/22-rdf-syntax-ns#"
   xmlns:svg="http://www.w3.org/2000/svg"
   xmlns="http://www.w3.org/2000/svg"
   xmlns:sodipodi="http://sodipodi.sourceforge.net/DTD/sodipodi-0.dtd"
   xmlns:inkscape="http://www.inkscape.org/namespaces/inkscape"
   width="64"
   height="64"
   viewBox="0 0 16.933333 16.933334"
   version="1.1"
   id="svg841"
   inkscape:version="1.0.2 (e86c870879, 2021-01-15)"
   sodipodi:docname="weather-snow-rain-symbolic.svg">
  <defs
     id="defs835" />
  <sodipodi:namedview
     id="base"
     pagecolor="#c4c4c4"
     bordercolor="#666666"
     borderopacity="1.0"
     inkscape:pageopacity="0"
     inkscape:pageshadow="2"
     inkscape:zoom="4.9382975"
     inkscape:cx="-2.7041434"
     inkscape:cy="59.7192"
     inkscape:document-units="px"
     inkscape:current-layer="layer1"
     inkscape:document-rotation="0"
     showgrid="false"
     units="px"
     inkscape:window-width="2048"
     inkscape:window-height="1080"
     inkscape:window-x="0"
     inkscape:window-y="0"
     inkscape:window-maximized="1" />
  <metadata
     id="metadata838">
    <rdf:RDF>
      <cc:Work
         rdf:about="">
        <dc:format>image/svg+xml</dc:format>
        <dc:type
           rdf:resource="http://purl.org/dc/dcmitype/StillImage" />
        <dc:title></dc:title>
      </cc:Work>
    </rdf:RDF>
  </metadata>
  <g
     inkscape:label="Layer 1"
     inkscape:groupmode="layer"
     id="layer1">
    <path
       style="opacity:0.6;fill:#808080;fill-opacity:1;stroke-width:1.5875;stroke-linecap:round;stroke-linejoin:round;stroke-dashoffset:2.1875"
       d="M 6.8311302,10.96025 C 6.5992603,10.95155 6.37446,11.080237 6.2699242,11.304416 l -1.8448484,3.95636 c -0.1393809,0.298904 -0.011065,0.651787 0.2878377,0.791168 0.298903,0.139382 0.6517852,0.01106 0.7911661,-0.287839 L 7.348928,11.807228 C 7.4883089,11.508325 7.359993,11.155441 7.0610905,11.01606 6.9863645,10.98122 6.9084203,10.96314 6.8311302,10.96025 Z"
       id="path850" />
    <path
       style="opacity:0.6;fill:#808080;fill-opacity:1;stroke-width:1.5875;stroke-linecap:round;stroke-linejoin:round;stroke-dashoffset:2.1875"
       d="m 4.4498805,10.96025 c -0.23187,-0.0087 -0.4566703,0.119987 -0.5612062,0.344166 l -1.8448483,3.95636 c -0.1393809,0.298904 -0.011065,0.651787 0.2878376,0.791168 0.2989031,0.139382 0.6517853,0.01106 0.7911662,-0.287839 L 4.9676782,11.807228 C 5.1070591,11.508325 4.9787432,11.155441 4.6798406,11.01606 4.6051146,10.98122 4.5271705,10.96314 4.4498805,10.96025 Z"
       id="rect868" />
    <path
       id="path842-3-36-3-2-5-9"
       style="fill:#808080;fill-opacity:1;stroke:none;stroke-width:0;stroke-linecap:round;stroke-linejoin:round;stroke-miterlimit:4;stroke-dasharray:none;stroke-dashoffset:2.1875"
       d="m 6.4158037,0.82497084 a 3.1485418,3.1485418 0 0 0 -3.148536,3.14854196 3.1485418,3.1485418 0 0 0 0.136603,0.917153 c -0.98039,0.328435 -1.684079,1.250107 -1.684079,2.343836 0,1.370516 1.103334,2.473855 2.473848,2.473855 h 8.5460453 c 1.370514,0 2.473857,-1.103339 2.473857,-2.473855 0,-1.144117 -0.769752,-2.099426 -1.821133,-2.384686 a 2.2489583,2.2489583 0 0 0 0.02201,-0.312745 2.2489583,2.2489583 0 0 0 -2.248955,-2.248959 2.2489583,2.2489583 0 0 0 -1.7262573,0.80778 3.1485418,3.1485418 0 0 0 -3.023356,-2.27092096 z" />
    <path
       style="color:#000000;font-style:normal;font-variant:normal;font-weight:normal;font-stretch:normal;font-size:medium;line-height:normal;font-family:sans-serif;font-variant-ligatures:normal;font-variant-position:normal;font-variant-caps:normal;font-variant-numeric:normal;font-variant-alternates:normal;font-variant-east-asian:normal;font-feature-settings:normal;font-variation-settings:normal;text-indent:0;text-align:start;text-decoration:none;text-decoration-line:none;text-decoration-style:solid;text-decoration-color:#000000;letter-spacing:normal;word-spacing:normal;text-transform:none;writing-mode:lr-tb;direction:ltr;text-orientation:mixed;dominant-baseline:auto;baseline-shift:baseline;text-anchor:start;white-space:normal;shape-padding:0;shape-margin:0;inline-size:0;clip-rule:nonzero;display:inline;overflow:visible;visibility:visible;isolation:auto;mix-blend-mode:normal;color-interpolation:sRGB;color-interpolation-filters:linearRGB;solid-color:#000000;solid-opacity:1;vector-effect:none;fill:#808080;fill-opacity:1;fill-rule:nonzero;stroke:none;stroke-width:0;stroke-linecap:butt;stroke-linejoin:round;stroke-miterlimit:4;stroke-dasharray:none;stroke-dashoffset:0;stroke-opacity:1;color-rendering:auto;image-rendering:auto;shape-rendering:auto;text-rendering:auto;enable-background:accumulate;stop-color:#000000"
       d="m 12.012708,10.959836 c -0.210324,0.608644 -0.440906,1.231229 -0.691948,1.863463 -0.406119,-0.545724 -0.790182,-1.087618 -1.150834,-1.621101 l -0.2408117,0.184491 -0.239779,0.184481 -0.2402949,0.184491 c 0.4219609,0.486454 0.8456256,0.997647 1.2676226,1.531181 -0.675656,0.0789 -1.3368686,0.140421 -1.9792076,0.186042 l 0.03979,0.300752 0.03927,0.299732 0.03979,0.300752 c 0.6322279,-0.122181 1.2870686,-0.234102 1.9600866,-0.332792 -0.269542,0.624574 -0.547236,1.228018 -0.8288897,1.807132 l 0.2800867,0.116271 0.279569,0.115761 0.280086,0.115761 c 0.210331,-0.608655 0.440893,-1.231239 0.691948,-1.863473 0.406107,0.545703 0.790178,1.087617 1.150834,1.621101 l 0.240812,-0.184481 0.239779,-0.184492 0.240812,-0.184481 c -0.421932,-0.486453 -0.846139,-0.997677 -1.26814,-1.531181 0.67567,-0.0788 1.336869,-0.140431 1.979208,-0.186041 l -0.03979,-0.300762 -0.03927,-0.299722 -0.03927,-0.300762 c -0.632244,0.122191 -1.287039,0.234091 -1.960087,0.332802 0.269531,-0.624584 0.546719,-1.228029 0.828373,-1.807133 l -0.280087,-0.116281 -0.279569,-0.11575 z"
       id="path863-3-6-7-1" />
  </g>
</svg>
