<?xml version="1.0" encoding="UTF-8" standalone="no"?>
<svg
   xmlns:dc="http://purl.org/dc/elements/1.1/"
   xmlns:cc="http://creativecommons.org/ns#"
   xmlns:rdf="http://www.w3.org/1999/02/22-rdf-syntax-ns#"
   xmlns:svg="http://www.w3.org/2000/svg"
   xmlns="http://www.w3.org/2000/svg"
   xmlns:sodipodi="http://sodipodi.sourceforge.net/DTD/sodipodi-0.dtd"
   xmlns:inkscape="http://www.inkscape.org/namespaces/inkscape"
   width="64"
   height="64"
   viewBox="0 0 64 64"
   version="1.1"
   id="svg6374"
   inkscape:version="1.0.2 (e86c870879, 2021-01-15)"
   sodipodi:docname="application-x-theme.svg">
  <defs
     id="defs6368" />
  <sodipodi:namedview
     id="base"
     pagecolor="#cecece"
     bordercolor="#666666"
     borderopacity="1.0"
     inkscape:pageopacity="0"
     inkscape:pageshadow="2"
     inkscape:zoom="3.794813"
     inkscape:cx="27.60919"
     inkscape:cy="42.614132"
     inkscape:document-units="px"
     inkscape:current-layer="layer1"
     inkscape:document-rotation="0"
     showgrid="false"
     units="px"
     inkscape:window-width="1024"
     inkscape:window-height="1080"
     inkscape:window-x="68"
     inkscape:window-y="56"
     inkscape:window-maximized="0" />
  <metadata
     id="metadata6371">
    <rdf:RDF>
      <cc:Work
         rdf:about="">
        <dc:format>image/svg+xml</dc:format>
        <dc:type
           rdf:resource="http://purl.org/dc/dcmitype/StillImage" />
        <dc:title />
      </cc:Work>
    </rdf:RDF>
  </metadata>
  <g
     inkscape:label="Layer 1"
     inkscape:groupmode="layer"
     id="layer1">
    <path
       id="rect954-7-0-7-3-0-0-0-6-3-9-0"
       style="color:#000000;font-style:normal;font-variant:normal;font-weight:normal;font-stretch:normal;font-size:medium;line-height:normal;font-family:sans-serif;font-variant-ligatures:normal;font-variant-position:normal;font-variant-caps:normal;font-variant-numeric:normal;font-variant-alternates:normal;font-variant-east-asian:normal;font-feature-settings:normal;font-variation-settings:normal;text-indent:0;text-align:start;text-decoration:none;text-decoration-line:none;text-decoration-style:solid;text-decoration-color:#000000;letter-spacing:normal;word-spacing:normal;text-transform:none;writing-mode:lr-tb;direction:ltr;text-orientation:mixed;dominant-baseline:auto;baseline-shift:baseline;text-anchor:start;white-space:normal;shape-padding:0;shape-margin:0;inline-size:0;clip-rule:nonzero;display:inline;overflow:visible;visibility:visible;opacity:0.85;isolation:auto;mix-blend-mode:normal;color-interpolation:sRGB;color-interpolation-filters:linearRGB;solid-color:#000000;solid-opacity:1;vector-effect:none;fill:#69696d;fill-opacity:1;fill-rule:nonzero;stroke:none;stroke-linecap:round;stroke-linejoin:round;stroke-miterlimit:4;stroke-dasharray:none;stroke-dashoffset:2.1875;stroke-opacity:1;color-rendering:auto;image-rendering:auto;shape-rendering:auto;text-rendering:auto;enable-background:accumulate;stop-color:#000000"
       d="M 13,2.5 C 10.53295,2.5 8.5,4.53295 8.5,7 v 49.99999 c 0,2.46706 2.03295,4.5 4.5,4.5 h 38 c 2.467,0 4.5,-2.03294 4.5,-4.5 V 7 C 55.5,4.53295 53.467,2.5 51,2.5 Z m 0,3 h 38 c 0.8569,0 1.5,0.64306 1.5,1.5 v 49.99999 c 0,0.85695 -0.6431,1.5 -1.5,1.5 H 13 c -0.85695,0 -1.5,-0.64305 -1.5,-1.5 V 7 c 0,-0.85694 0.64305,-1.5 1.5,-1.5 z" />
    <rect
       style="fill:#fcfcfa;fill-opacity:1;stroke-width:0.495;stroke-linecap:round;stroke-linejoin:round;stroke-miterlimit:4;stroke-dasharray:none;stroke-dashoffset:2.1875"
       id="rect954-7-0-7-3-1"
       width="44"
       height="56"
       x="10"
       y="3.9999998"
       rx="3"
       ry="3" />
    <path
       id="rect970-79-4-1"
       style="opacity:0.35;fill:#0c0c0c;fill-opacity:1;stroke:none;stroke-width:0;stroke-linejoin:round;stroke-miterlimit:4;stroke-dasharray:none"
       d="m 20.16129,41.9604 h 3.9463 c 0.27328,0 0.49329,0.22182 0.49329,0.49736 v 3.97887 c 0,0.27554 -0.22001,0.49737 -0.49329,0.49737 h -3.9463 c -0.27328,0 -0.49329,-0.22183 -0.49329,-0.49737 v -3.97887 c 0,-0.27554 0.22001,-0.49736 0.49329,-0.49736 z" />
    <path
       id="rect970-5-7-7-6"
       style="opacity:0.35;fill:#0c0c0c;fill-opacity:1;stroke:none;stroke-width:0;stroke-linejoin:round;stroke-miterlimit:4;stroke-dasharray:none"
       d="m 39.89281,41.9604 h 3.9463 c 0.27329,0 0.49329,0.22182 0.49329,0.49736 v 3.97887 c 0,0.27554 -0.22,0.49737 -0.49329,0.49737 h -3.9463 c -0.27328,0 -0.49329,-0.22183 -0.49329,-0.49737 v -3.97887 c 0,-0.27554 0.22001,-0.49736 0.49329,-0.49736 z" />
    <path
       id="rect970-5-6-9-6"
       style="opacity:0.35;fill:#0c0c0c;fill-opacity:1;stroke:none;stroke-width:0;stroke-linejoin:round;stroke-miterlimit:4;stroke-dasharray:none"
       d="m 39.89281,32.0132 h 3.9463 c 0.27329,0 0.49329,0.22182 0.49329,0.49735 v 3.97888 c 0,0.27554 -0.22,0.49737 -0.49329,0.49737 h -3.9463 c -0.27328,0 -0.49329,-0.22183 -0.49329,-0.49737 v -3.97888 c 0,-0.27553 0.22001,-0.49735 0.49329,-0.49735 z" />
    <path
       id="rect970-5-8-4"
       style="opacity:0.35;fill:#0c0c0c;fill-opacity:1;stroke:none;stroke-width:0;stroke-linejoin:round;stroke-miterlimit:4;stroke-dasharray:none"
       d="m 39.89281,22.06599 h 3.9463 c 0.27329,0 0.49329,0.22183 0.49329,0.49736 v 3.97889 c 0,0.27554 -0.22,0.49736 -0.49329,0.49736 h -3.9463 c -0.27328,0 -0.49329,-0.22182 -0.49329,-0.49736 v -3.97889 c 0,-0.27553 0.22001,-0.49736 0.49329,-0.49736 z" />
    <path
       id="rect970-6-3-0"
       style="opacity:0.35;fill:#0c0c0c;fill-opacity:1;stroke:none;stroke-width:0;stroke-linejoin:round;stroke-miterlimit:4;stroke-dasharray:none"
       d="m 30.02705,22.06599 h 3.9463 c 0.27329,0 0.49329,0.22183 0.49329,0.49736 v 3.97889 c 0,0.27554 -0.22,0.49736 -0.49329,0.49736 h -3.9463 c -0.27328,0 -0.49329,-0.22182 -0.49329,-0.49736 v -3.97889 c 0,-0.27553 0.22001,-0.49736 0.49329,-0.49736 z" />
    <path
       id="rect970-1-17"
       style="opacity:0.35;fill:#0c0c0c;fill-opacity:1;stroke:none;stroke-width:0;stroke-linejoin:round;stroke-miterlimit:4;stroke-dasharray:none"
       d="m 20.16129,22.06599 h 3.9463 c 0.27328,0 0.49329,0.22183 0.49329,0.49736 v 3.97889 c 0,0.27554 -0.22001,0.49736 -0.49329,0.49736 h -3.9463 c -0.27328,0 -0.49329,-0.22182 -0.49329,-0.49736 v -3.97889 c 0,-0.27553 0.22001,-0.49736 0.49329,-0.49736 z" />
    <path
       id="rect970-1"
       style="fill:#c25ba8;fill-opacity:1;stroke:none;stroke-width:0;stroke-linejoin:round;stroke-miterlimit:4;stroke-dasharray:none"
       d="m 20.16129,21.316 h 3.9463 c 0.27328,0 0.49329,0.22183 0.49329,0.49736 v 3.97888 c 0,0.27554 -0.22001,0.49736 -0.49329,0.49736 h -3.9463 c -0.27328,0 -0.49329,-0.22182 -0.49329,-0.49736 v -3.97888 c 0,-0.27553 0.22001,-0.49736 0.49329,-0.49736 z" />
    <path
       id="rect970-1-1"
       style="color:#000000;font-style:normal;font-variant:normal;font-weight:normal;font-stretch:normal;font-size:medium;line-height:normal;font-family:sans-serif;font-variant-ligatures:normal;font-variant-position:normal;font-variant-caps:normal;font-variant-numeric:normal;font-variant-alternates:normal;font-variant-east-asian:normal;font-feature-settings:normal;font-variation-settings:normal;text-indent:0;text-align:start;text-decoration:none;text-decoration-line:none;text-decoration-style:solid;text-decoration-color:#000000;letter-spacing:normal;word-spacing:normal;text-transform:none;writing-mode:lr-tb;direction:ltr;text-orientation:mixed;dominant-baseline:auto;baseline-shift:baseline;text-anchor:start;white-space:normal;shape-padding:0;shape-margin:0;inline-size:0;clip-rule:nonzero;display:inline;overflow:visible;visibility:visible;opacity:0.45;isolation:auto;mix-blend-mode:normal;color-interpolation:sRGB;color-interpolation-filters:linearRGB;solid-color:#000000;solid-opacity:1;vector-effect:none;fill:#682758;fill-opacity:1;fill-rule:nonzero;stroke:none;stroke-width:0.999886;stroke-linecap:round;stroke-linejoin:round;stroke-miterlimit:4;stroke-dasharray:none;stroke-dashoffset:0;stroke-opacity:1;color-rendering:auto;image-rendering:auto;shape-rendering:auto;text-rendering:auto;enable-background:accumulate;stop-color:#000000"
       d="m 20.16206,21.066 c -0.40853,0 -0.74406,0.33939 -0.74406,0.74797 V 25.792 c 0,0.40858 0.33554,0.74797 0.74406,0.74797 h 3.94488 c 0.40852,0 0.74406,-0.3394 0.74406,-0.74797 v -3.97803 c 0,-0.40857 -0.33554,-0.74797 -0.74406,-0.74797 z m 0,0.49994 h 3.94488 c 0.13798,0 0.24412,0.10558 0.24412,0.24803 V 25.792 c 0,0.14246 -0.10614,0.24803 -0.24412,0.24803 h -3.94488 c -0.13799,0 -0.24412,-0.10558 -0.24412,-0.24803 v -3.97803 c 0,-0.14244 0.10614,-0.24803 0.24412,-0.24803 z" />
    <path
       id="rect970-6-3"
       style="fill:#cf7dba;fill-opacity:1;stroke:none;stroke-width:0;stroke-linejoin:round;stroke-miterlimit:4;stroke-dasharray:none"
       d="m 30.02705,21.316 h 3.9463 c 0.27329,0 0.49329,0.22183 0.49329,0.49736 v 3.97888 c 0,0.27554 -0.22,0.49736 -0.49329,0.49736 h -3.9463 c -0.27328,0 -0.49329,-0.22182 -0.49329,-0.49736 v -3.97888 c 0,-0.27553 0.22001,-0.49736 0.49329,-0.49736 z" />
    <path
       id="rect970-1-1-2"
       style="color:#000000;font-style:normal;font-variant:normal;font-weight:normal;font-stretch:normal;font-size:medium;line-height:normal;font-family:sans-serif;font-variant-ligatures:normal;font-variant-position:normal;font-variant-caps:normal;font-variant-numeric:normal;font-variant-alternates:normal;font-variant-east-asian:normal;font-feature-settings:normal;font-variation-settings:normal;text-indent:0;text-align:start;text-decoration:none;text-decoration-line:none;text-decoration-style:solid;text-decoration-color:#000000;letter-spacing:normal;word-spacing:normal;text-transform:none;writing-mode:lr-tb;direction:ltr;text-orientation:mixed;dominant-baseline:auto;baseline-shift:baseline;text-anchor:start;white-space:normal;shape-padding:0;shape-margin:0;inline-size:0;clip-rule:nonzero;display:inline;overflow:visible;visibility:visible;opacity:0.45;isolation:auto;mix-blend-mode:normal;color-interpolation:sRGB;color-interpolation-filters:linearRGB;solid-color:#000000;solid-opacity:1;vector-effect:none;fill:#682758;fill-opacity:1;fill-rule:nonzero;stroke:none;stroke-width:0.999886;stroke-linecap:round;stroke-linejoin:round;stroke-miterlimit:4;stroke-dasharray:none;stroke-dashoffset:0;stroke-opacity:1;color-rendering:auto;image-rendering:auto;shape-rendering:auto;text-rendering:auto;enable-background:accumulate;stop-color:#000000"
       d="m 30.02705,21.066 c -0.40853,0 -0.74406,0.33939 -0.74406,0.74797 V 25.792 c 0,0.40858 0.33554,0.74797 0.74406,0.74797 h 3.94488 c 0.40852,0 0.74406,-0.3394 0.74406,-0.74797 v -3.97803 c 0,-0.40857 -0.33554,-0.74797 -0.74406,-0.74797 z m 0,0.49994 h 3.94488 c 0.13798,0 0.24412,0.10558 0.24412,0.24803 V 25.792 c 0,0.14246 -0.10614,0.24803 -0.24412,0.24803 h -3.94488 c -0.13799,0 -0.24412,-0.10558 -0.24412,-0.24803 v -3.97803 c 0,-0.14244 0.10614,-0.24803 0.24412,-0.24803 z" />
    <path
       id="rect970-5-8"
       style="fill:#d694c6;fill-opacity:1;stroke:none;stroke-width:0;stroke-linejoin:round;stroke-miterlimit:4;stroke-dasharray:none"
       d="m 39.89281,21.316 h 3.9463 c 0.27329,0 0.49329,0.22183 0.49329,0.49736 v 3.97888 c 0,0.27554 -0.22,0.49736 -0.49329,0.49736 h -3.9463 c -0.27328,0 -0.49329,-0.22182 -0.49329,-0.49736 v -3.97888 c 0,-0.27553 0.22001,-0.49736 0.49329,-0.49736 z" />
    <path
       id="rect970-1-1-20"
       style="color:#000000;font-style:normal;font-variant:normal;font-weight:normal;font-stretch:normal;font-size:medium;line-height:normal;font-family:sans-serif;font-variant-ligatures:normal;font-variant-position:normal;font-variant-caps:normal;font-variant-numeric:normal;font-variant-alternates:normal;font-variant-east-asian:normal;font-feature-settings:normal;font-variation-settings:normal;text-indent:0;text-align:start;text-decoration:none;text-decoration-line:none;text-decoration-style:solid;text-decoration-color:#000000;letter-spacing:normal;word-spacing:normal;text-transform:none;writing-mode:lr-tb;direction:ltr;text-orientation:mixed;dominant-baseline:auto;baseline-shift:baseline;text-anchor:start;white-space:normal;shape-padding:0;shape-margin:0;inline-size:0;clip-rule:nonzero;display:inline;overflow:visible;visibility:visible;opacity:0.45;isolation:auto;mix-blend-mode:normal;color-interpolation:sRGB;color-interpolation-filters:linearRGB;solid-color:#000000;solid-opacity:1;vector-effect:none;fill:#682758;fill-opacity:1;fill-rule:nonzero;stroke:none;stroke-width:0.999886;stroke-linecap:round;stroke-linejoin:round;stroke-miterlimit:4;stroke-dasharray:none;stroke-dashoffset:0;stroke-opacity:1;color-rendering:auto;image-rendering:auto;shape-rendering:auto;text-rendering:auto;enable-background:accumulate;stop-color:#000000"
       d="m 39.89281,21.066 c -0.40853,0 -0.74406,0.33939 -0.74406,0.74797 V 25.792 c 0,0.40858 0.33554,0.74797 0.74406,0.74797 h 3.94488 c 0.40852,0 0.74406,-0.3394 0.74406,-0.74797 v -3.97803 c 0,-0.40857 -0.33554,-0.74797 -0.74406,-0.74797 z m 0,0.49994 h 3.94488 c 0.13798,0 0.24412,0.10558 0.24412,0.24803 V 25.792 c 0,0.14246 -0.10614,0.24803 -0.24412,0.24803 h -3.94488 c -0.13799,0 -0.24412,-0.10558 -0.24412,-0.24803 v -3.97803 c 0,-0.14244 0.10614,-0.24803 0.24412,-0.24803 z" />
    <path
       id="rect970-3-6-0-0"
       style="opacity:0.35;fill:#0c0c0c;fill-opacity:1;stroke:none;stroke-width:0;stroke-linejoin:round;stroke-miterlimit:4;stroke-dasharray:none"
       d="m 25.09417,27.0396 h 3.9463 c 0.27329,0 0.49329,0.22181 0.49329,0.49735 v 3.97888 c 0,0.27554 -0.22,0.49737 -0.49329,0.49737 h -3.9463 c -0.27328,0 -0.49329,-0.22183 -0.49329,-0.49737 v -3.97888 c 0,-0.27554 0.22001,-0.49735 0.49329,-0.49735 z" />
    <path
       id="rect970-3-6-0"
       style="fill:#cf7dba;fill-opacity:1;stroke:none;stroke-width:0;stroke-linejoin:round;stroke-miterlimit:4;stroke-dasharray:none"
       d="m 25.09417,26.2896 h 3.9463 c 0.27329,0 0.49329,0.22182 0.49329,0.49736 v 3.97887 c 0,0.27554 -0.22,0.49737 -0.49329,0.49737 h -3.9463 c -0.27328,0 -0.49329,-0.22183 -0.49329,-0.49737 v -3.97887 c 0,-0.27554 0.22001,-0.49736 0.49329,-0.49736 z" />
    <path
       id="rect970-7-9-9-8"
       style="opacity:0.35;fill:#0c0c0c;fill-opacity:1;stroke:none;stroke-width:0;stroke-linejoin:round;stroke-miterlimit:4;stroke-dasharray:none"
       d="m 34.95993,27.0396 h 3.9463 c 0.27328,0 0.49329,0.22181 0.49329,0.49735 v 3.97888 c 0,0.27554 -0.22001,0.49737 -0.49329,0.49737 h -3.9463 c -0.27328,0 -0.49329,-0.22183 -0.49329,-0.49737 v -3.97888 c 0,-0.27554 0.22001,-0.49735 0.49329,-0.49735 z" />
    <path
       id="rect970-7-9-9"
       style="fill:#d694c6;fill-opacity:1;stroke:none;stroke-width:0;stroke-linejoin:round;stroke-miterlimit:4;stroke-dasharray:none"
       d="m 34.95993,26.2896 h 3.9463 c 0.27328,0 0.49329,0.22182 0.49329,0.49736 v 3.97887 c 0,0.27554 -0.22001,0.49737 -0.49329,0.49737 h -3.9463 c -0.27328,0 -0.49329,-0.22183 -0.49329,-0.49737 v -3.97887 c 0,-0.27554 0.22001,-0.49736 0.49329,-0.49736 z" />
    <path
       id="rect970-2-7-5"
       style="opacity:0.35;fill:#0c0c0c;fill-opacity:1;stroke:none;stroke-width:0;stroke-linejoin:round;stroke-miterlimit:4;stroke-dasharray:none"
       d="m 20.16129,32.0132 h 3.9463 c 0.27328,0 0.49329,0.22182 0.49329,0.49735 v 3.97888 c 0,0.27554 -0.22001,0.49737 -0.49329,0.49737 h -3.9463 c -0.27328,0 -0.49329,-0.22183 -0.49329,-0.49737 v -3.97888 c 0,-0.27553 0.22001,-0.49735 0.49329,-0.49735 z" />
    <path
       id="rect970-2-7"
       style="fill:#cf7dba;fill-opacity:1;stroke:none;stroke-width:0;stroke-linejoin:round;stroke-miterlimit:4;stroke-dasharray:none"
       d="m 20.16129,31.2632 h 3.9463 c 0.27328,0 0.49329,0.22182 0.49329,0.49736 v 3.97887 c 0,0.27554 -0.22001,0.49737 -0.49329,0.49737 h -3.9463 c -0.27328,0 -0.49329,-0.22183 -0.49329,-0.49737 v -3.97887 c 0,-0.27554 0.22001,-0.49736 0.49329,-0.49736 z" />
    <path
       id="rect970-6-0-9-1"
       style="opacity:0.35;fill:#0c0c0c;fill-opacity:1;stroke:none;stroke-width:0;stroke-linejoin:round;stroke-miterlimit:4;stroke-dasharray:none"
       d="m 30.02705,32.0132 h 3.9463 c 0.27329,0 0.49329,0.22182 0.49329,0.49735 v 3.97888 c 0,0.27554 -0.22,0.49737 -0.49329,0.49737 h -3.9463 c -0.27328,0 -0.49329,-0.22183 -0.49329,-0.49737 v -3.97888 c 0,-0.27553 0.22001,-0.49735 0.49329,-0.49735 z" />
    <path
       id="rect970-6-0-9"
       style="fill:#d694c6;fill-opacity:1;stroke:none;stroke-width:0;stroke-linejoin:round;stroke-miterlimit:4;stroke-dasharray:none"
       d="m 30.02705,31.2632 h 3.9463 c 0.27329,0 0.49329,0.22182 0.49329,0.49736 v 3.97887 c 0,0.27554 -0.22,0.49737 -0.49329,0.49737 h -3.9463 c -0.27328,0 -0.49329,-0.22183 -0.49329,-0.49737 v -3.97887 c 0,-0.27554 0.22001,-0.49736 0.49329,-0.49736 z" />
    <path
       id="rect970-5-6-9"
       style="fill:#dfaad1;fill-opacity:1;stroke:none;stroke-width:0;stroke-linejoin:round;stroke-miterlimit:4;stroke-dasharray:none"
       d="m 39.89281,31.2632 h 3.9463 c 0.27329,0 0.49329,0.22182 0.49329,0.49736 v 3.97887 c 0,0.27554 -0.22,0.49737 -0.49329,0.49737 h -3.9463 c -0.27328,0 -0.49329,-0.22183 -0.49329,-0.49737 v -3.97887 c 0,-0.27554 0.22001,-0.49736 0.49329,-0.49736 z" />
    <path
       id="rect970-3-62-3-6"
       style="opacity:0.35;fill:#0c0c0c;fill-opacity:1;stroke:none;stroke-width:0;stroke-linejoin:round;stroke-miterlimit:4;stroke-dasharray:none"
       d="m 25.09417,36.9868 h 3.9463 c 0.27329,0 0.49329,0.22182 0.49329,0.49735 v 3.97888 c 0,0.27554 -0.22,0.49737 -0.49329,0.49737 h -3.9463 c -0.27328,0 -0.49329,-0.22183 -0.49329,-0.49737 v -3.97888 c 0,-0.27553 0.22001,-0.49735 0.49329,-0.49735 z" />
    <path
       id="rect970-3-62-3"
       style="fill:#d694c6;fill-opacity:1;stroke:none;stroke-width:0;stroke-linejoin:round;stroke-miterlimit:4;stroke-dasharray:none"
       d="m 25.09417,36.2368 h 3.9463 c 0.27329,0 0.49329,0.22182 0.49329,0.49736 v 3.97888 c 0,0.27553 -0.22,0.49736 -0.49329,0.49736 h -3.9463 c -0.27328,0 -0.49329,-0.22183 -0.49329,-0.49736 v -3.97888 c 0,-0.27554 0.22001,-0.49736 0.49329,-0.49736 z" />
    <path
       id="rect970-7-1-2-2"
       style="opacity:0.35;fill:#0c0c0c;fill-opacity:1;stroke:none;stroke-width:0;stroke-linejoin:round;stroke-miterlimit:4;stroke-dasharray:none"
       d="m 34.95993,36.9868 h 3.9463 c 0.27328,0 0.49329,0.22182 0.49329,0.49735 v 3.97888 c 0,0.27554 -0.22001,0.49737 -0.49329,0.49737 h -3.9463 c -0.27328,0 -0.49329,-0.22183 -0.49329,-0.49737 v -3.97888 c 0,-0.27553 0.22001,-0.49735 0.49329,-0.49735 z" />
    <path
       id="rect970-7-1-2"
       style="fill:#dfaad1;fill-opacity:1;stroke:none;stroke-width:0;stroke-linejoin:round;stroke-miterlimit:4;stroke-dasharray:none"
       d="m 34.95993,36.2368 h 3.9463 c 0.27328,0 0.49329,0.22182 0.49329,0.49736 v 3.97888 c 0,0.27553 -0.22001,0.49736 -0.49329,0.49736 h -3.9463 c -0.27328,0 -0.49329,-0.22183 -0.49329,-0.49736 v -3.97888 c 0,-0.27554 0.22001,-0.49736 0.49329,-0.49736 z" />
    <path
       id="rect970-79-4"
       style="fill:#d694c6;fill-opacity:1;stroke:none;stroke-width:0;stroke-linejoin:round;stroke-miterlimit:4;stroke-dasharray:none"
       d="m 20.16129,41.2104 h 3.9463 c 0.27328,0 0.49329,0.22182 0.49329,0.49736 v 3.97888 c 0,0.27554 -0.22001,0.49736 -0.49329,0.49736 h -3.9463 c -0.27328,0 -0.49329,-0.22182 -0.49329,-0.49736 v -3.97888 c 0,-0.27554 0.22001,-0.49736 0.49329,-0.49736 z" />
    <path
       id="rect970-6-02-3-9"
       style="opacity:0.35;fill:#0c0c0c;fill-opacity:1;stroke:none;stroke-width:0;stroke-linejoin:round;stroke-miterlimit:4;stroke-dasharray:none"
       d="m 30.02705,41.9604 h 3.9463 c 0.27329,0 0.49329,0.22182 0.49329,0.49736 v 3.97887 c 0,0.27554 -0.22,0.49737 -0.49329,0.49737 h -3.9463 c -0.27328,0 -0.49329,-0.22183 -0.49329,-0.49737 v -3.97887 c 0,-0.27554 0.22001,-0.49736 0.49329,-0.49736 z" />
    <path
       id="rect970-6-02-3"
       style="fill:#dfaad1;fill-opacity:1;stroke:none;stroke-width:0;stroke-linejoin:round;stroke-miterlimit:4;stroke-dasharray:none"
       d="m 30.02705,41.2104 h 3.9463 c 0.27329,0 0.49329,0.22182 0.49329,0.49736 v 3.97888 c 0,0.27554 -0.22,0.49736 -0.49329,0.49736 h -3.9463 c -0.27328,0 -0.49329,-0.22182 -0.49329,-0.49736 v -3.97888 c 0,-0.27554 0.22001,-0.49736 0.49329,-0.49736 z" />
    <path
       id="rect970-5-7-7"
       style="fill:#e7c0dd;fill-opacity:1;stroke:none;stroke-width:0;stroke-linejoin:round;stroke-miterlimit:4;stroke-dasharray:none"
       d="m 39.89281,41.2104 h 3.9463 c 0.27329,0 0.49329,0.22182 0.49329,0.49736 v 3.97888 c 0,0.27554 -0.22,0.49736 -0.49329,0.49736 h -3.9463 c -0.27328,0 -0.49329,-0.22182 -0.49329,-0.49736 v -3.97888 c 0,-0.27554 0.22001,-0.49736 0.49329,-0.49736 z" />
    <path
       id="rect970-1-1-21"
       style="color:#000000;font-style:normal;font-variant:normal;font-weight:normal;font-stretch:normal;font-size:medium;line-height:normal;font-family:sans-serif;font-variant-ligatures:normal;font-variant-position:normal;font-variant-caps:normal;font-variant-numeric:normal;font-variant-alternates:normal;font-variant-east-asian:normal;font-feature-settings:normal;font-variation-settings:normal;text-indent:0;text-align:start;text-decoration:none;text-decoration-line:none;text-decoration-style:solid;text-decoration-color:#000000;letter-spacing:normal;word-spacing:normal;text-transform:none;writing-mode:lr-tb;direction:ltr;text-orientation:mixed;dominant-baseline:auto;baseline-shift:baseline;text-anchor:start;white-space:normal;shape-padding:0;shape-margin:0;inline-size:0;clip-rule:nonzero;display:inline;overflow:visible;visibility:visible;opacity:0.45;isolation:auto;mix-blend-mode:normal;color-interpolation:sRGB;color-interpolation-filters:linearRGB;solid-color:#000000;solid-opacity:1;vector-effect:none;fill:#682758;fill-opacity:1;fill-rule:nonzero;stroke:none;stroke-width:0.999886;stroke-linecap:round;stroke-linejoin:round;stroke-miterlimit:4;stroke-dasharray:none;stroke-dashoffset:0;stroke-opacity:1;color-rendering:auto;image-rendering:auto;shape-rendering:auto;text-rendering:auto;enable-background:accumulate;stop-color:#000000"
       d="m 34.95993,26.03997 c -0.40853,0 -0.74406,0.33939 -0.74406,0.74797 v 3.97803 c 0,0.40858 0.33554,0.74797 0.74406,0.74797 h 3.94488 c 0.40852,0 0.74406,-0.3394 0.74406,-0.74797 v -3.97803 c 0,-0.40857 -0.33554,-0.74797 -0.74406,-0.74797 z m 0,0.49994 h 3.94488 c 0.13798,0 0.24412,0.10558 0.24412,0.24803 v 3.97803 c 0,0.14246 -0.10614,0.24803 -0.24412,0.24803 h -3.94488 c -0.13799,0 -0.24412,-0.10558 -0.24412,-0.24803 v -3.97803 c 0,-0.14244 0.10614,-0.24803 0.24412,-0.24803 z" />
    <path
       id="rect970-1-1-7"
       style="color:#000000;font-style:normal;font-variant:normal;font-weight:normal;font-stretch:normal;font-size:medium;line-height:normal;font-family:sans-serif;font-variant-ligatures:normal;font-variant-position:normal;font-variant-caps:normal;font-variant-numeric:normal;font-variant-alternates:normal;font-variant-east-asian:normal;font-feature-settings:normal;font-variation-settings:normal;text-indent:0;text-align:start;text-decoration:none;text-decoration-line:none;text-decoration-style:solid;text-decoration-color:#000000;letter-spacing:normal;word-spacing:normal;text-transform:none;writing-mode:lr-tb;direction:ltr;text-orientation:mixed;dominant-baseline:auto;baseline-shift:baseline;text-anchor:start;white-space:normal;shape-padding:0;shape-margin:0;inline-size:0;clip-rule:nonzero;display:inline;overflow:visible;visibility:visible;opacity:0.45;isolation:auto;mix-blend-mode:normal;color-interpolation:sRGB;color-interpolation-filters:linearRGB;solid-color:#000000;solid-opacity:1;vector-effect:none;fill:#682758;fill-opacity:1;fill-rule:nonzero;stroke:none;stroke-width:0.999886;stroke-linecap:round;stroke-linejoin:round;stroke-miterlimit:4;stroke-dasharray:none;stroke-dashoffset:0;stroke-opacity:1;color-rendering:auto;image-rendering:auto;shape-rendering:auto;text-rendering:auto;enable-background:accumulate;stop-color:#000000"
       d="m 25.09417,26.03997 c -0.40853,0 -0.74406,0.33939 -0.74406,0.74797 v 3.97803 c 0,0.40858 0.33554,0.74797 0.74406,0.74797 h 3.94488 c 0.40852,0 0.74406,-0.3394 0.74406,-0.74797 v -3.97803 c 0,-0.40857 -0.33554,-0.74797 -0.74406,-0.74797 z m 0,0.49994 h 3.94488 c 0.13798,0 0.24412,0.10558 0.24412,0.24803 v 3.97803 c 0,0.14246 -0.10614,0.24803 -0.24412,0.24803 h -3.94488 c -0.13799,0 -0.24412,-0.10558 -0.24412,-0.24803 v -3.97803 c 0,-0.14244 0.10614,-0.24803 0.24412,-0.24803 z" />
    <path
       id="rect970-1-1-5"
       style="color:#000000;font-style:normal;font-variant:normal;font-weight:normal;font-stretch:normal;font-size:medium;line-height:normal;font-family:sans-serif;font-variant-ligatures:normal;font-variant-position:normal;font-variant-caps:normal;font-variant-numeric:normal;font-variant-alternates:normal;font-variant-east-asian:normal;font-feature-settings:normal;font-variation-settings:normal;text-indent:0;text-align:start;text-decoration:none;text-decoration-line:none;text-decoration-style:solid;text-decoration-color:#000000;letter-spacing:normal;word-spacing:normal;text-transform:none;writing-mode:lr-tb;direction:ltr;text-orientation:mixed;dominant-baseline:auto;baseline-shift:baseline;text-anchor:start;white-space:normal;shape-padding:0;shape-margin:0;inline-size:0;clip-rule:nonzero;display:inline;overflow:visible;visibility:visible;opacity:0.45;isolation:auto;mix-blend-mode:normal;color-interpolation:sRGB;color-interpolation-filters:linearRGB;solid-color:#000000;solid-opacity:1;vector-effect:none;fill:#682758;fill-opacity:1;fill-rule:nonzero;stroke:none;stroke-width:0.999886;stroke-linecap:round;stroke-linejoin:round;stroke-miterlimit:4;stroke-dasharray:none;stroke-dashoffset:0;stroke-opacity:1;color-rendering:auto;image-rendering:auto;shape-rendering:auto;text-rendering:auto;enable-background:accumulate;stop-color:#000000"
       d="m 20.16206,31.01294 c -0.40853,0 -0.74406,0.33939 -0.74406,0.74797 v 3.97803 c 0,0.40858 0.33554,0.74797 0.74406,0.74797 h 3.94488 c 0.40852,0 0.74406,-0.3394 0.74406,-0.74797 v -3.97803 c 0,-0.40857 -0.33554,-0.74797 -0.74406,-0.74797 z m 0,0.49994 h 3.94488 c 0.13798,0 0.24412,0.10558 0.24412,0.24803 v 3.97803 c 0,0.14246 -0.10614,0.24803 -0.24412,0.24803 h -3.94488 c -0.13799,0 -0.24412,-0.10558 -0.24412,-0.24803 v -3.97803 c 0,-0.14244 0.10614,-0.24803 0.24412,-0.24803 z" />
    <path
       id="rect970-1-1-2-1"
       style="color:#000000;font-style:normal;font-variant:normal;font-weight:normal;font-stretch:normal;font-size:medium;line-height:normal;font-family:sans-serif;font-variant-ligatures:normal;font-variant-position:normal;font-variant-caps:normal;font-variant-numeric:normal;font-variant-alternates:normal;font-variant-east-asian:normal;font-feature-settings:normal;font-variation-settings:normal;text-indent:0;text-align:start;text-decoration:none;text-decoration-line:none;text-decoration-style:solid;text-decoration-color:#000000;letter-spacing:normal;word-spacing:normal;text-transform:none;writing-mode:lr-tb;direction:ltr;text-orientation:mixed;dominant-baseline:auto;baseline-shift:baseline;text-anchor:start;white-space:normal;shape-padding:0;shape-margin:0;inline-size:0;clip-rule:nonzero;display:inline;overflow:visible;visibility:visible;opacity:0.45;isolation:auto;mix-blend-mode:normal;color-interpolation:sRGB;color-interpolation-filters:linearRGB;solid-color:#000000;solid-opacity:1;vector-effect:none;fill:#682758;fill-opacity:1;fill-rule:nonzero;stroke:none;stroke-width:0.999886;stroke-linecap:round;stroke-linejoin:round;stroke-miterlimit:4;stroke-dasharray:none;stroke-dashoffset:0;stroke-opacity:1;color-rendering:auto;image-rendering:auto;shape-rendering:auto;text-rendering:auto;enable-background:accumulate;stop-color:#000000"
       d="m 30.02705,31.01294 c -0.40853,0 -0.74406,0.33939 -0.74406,0.74797 v 3.97803 c 0,0.40858 0.33554,0.74797 0.74406,0.74797 h 3.94488 c 0.40852,0 0.74406,-0.3394 0.74406,-0.74797 v -3.97803 c 0,-0.40857 -0.33554,-0.74797 -0.74406,-0.74797 z m 0,0.49994 h 3.94488 c 0.13798,0 0.24412,0.10558 0.24412,0.24803 v 3.97803 c 0,0.14246 -0.10614,0.24803 -0.24412,0.24803 h -3.94488 c -0.13799,0 -0.24412,-0.10558 -0.24412,-0.24803 v -3.97803 c 0,-0.14244 0.10614,-0.24803 0.24412,-0.24803 z" />
    <path
       id="rect970-1-1-20-7"
       style="color:#000000;font-style:normal;font-variant:normal;font-weight:normal;font-stretch:normal;font-size:medium;line-height:normal;font-family:sans-serif;font-variant-ligatures:normal;font-variant-position:normal;font-variant-caps:normal;font-variant-numeric:normal;font-variant-alternates:normal;font-variant-east-asian:normal;font-feature-settings:normal;font-variation-settings:normal;text-indent:0;text-align:start;text-decoration:none;text-decoration-line:none;text-decoration-style:solid;text-decoration-color:#000000;letter-spacing:normal;word-spacing:normal;text-transform:none;writing-mode:lr-tb;direction:ltr;text-orientation:mixed;dominant-baseline:auto;baseline-shift:baseline;text-anchor:start;white-space:normal;shape-padding:0;shape-margin:0;inline-size:0;clip-rule:nonzero;display:inline;overflow:visible;visibility:visible;opacity:0.45;isolation:auto;mix-blend-mode:normal;color-interpolation:sRGB;color-interpolation-filters:linearRGB;solid-color:#000000;solid-opacity:1;vector-effect:none;fill:#682758;fill-opacity:1;fill-rule:nonzero;stroke:none;stroke-width:0.999886;stroke-linecap:round;stroke-linejoin:round;stroke-miterlimit:4;stroke-dasharray:none;stroke-dashoffset:0;stroke-opacity:1;color-rendering:auto;image-rendering:auto;shape-rendering:auto;text-rendering:auto;enable-background:accumulate;stop-color:#000000"
       d="m 39.89281,31.01294 c -0.40853,0 -0.74406,0.33939 -0.74406,0.74797 v 3.97803 c 0,0.40858 0.33554,0.74797 0.74406,0.74797 h 3.94488 c 0.40852,0 0.74406,-0.3394 0.74406,-0.74797 v -3.97803 c 0,-0.40857 -0.33554,-0.74797 -0.74406,-0.74797 z m 0,0.49994 h 3.94488 c 0.13798,0 0.24412,0.10558 0.24412,0.24803 v 3.97803 c 0,0.14246 -0.10614,0.24803 -0.24412,0.24803 h -3.94488 c -0.13799,0 -0.24412,-0.10558 -0.24412,-0.24803 v -3.97803 c 0,-0.14244 0.10614,-0.24803 0.24412,-0.24803 z" />
    <path
       id="rect970-1-1-21-4"
       style="color:#000000;font-style:normal;font-variant:normal;font-weight:normal;font-stretch:normal;font-size:medium;line-height:normal;font-family:sans-serif;font-variant-ligatures:normal;font-variant-position:normal;font-variant-caps:normal;font-variant-numeric:normal;font-variant-alternates:normal;font-variant-east-asian:normal;font-feature-settings:normal;font-variation-settings:normal;text-indent:0;text-align:start;text-decoration:none;text-decoration-line:none;text-decoration-style:solid;text-decoration-color:#000000;letter-spacing:normal;word-spacing:normal;text-transform:none;writing-mode:lr-tb;direction:ltr;text-orientation:mixed;dominant-baseline:auto;baseline-shift:baseline;text-anchor:start;white-space:normal;shape-padding:0;shape-margin:0;inline-size:0;clip-rule:nonzero;display:inline;overflow:visible;visibility:visible;opacity:0.45;isolation:auto;mix-blend-mode:normal;color-interpolation:sRGB;color-interpolation-filters:linearRGB;solid-color:#000000;solid-opacity:1;vector-effect:none;fill:#682758;fill-opacity:1;fill-rule:nonzero;stroke:none;stroke-width:0.999886;stroke-linecap:round;stroke-linejoin:round;stroke-miterlimit:4;stroke-dasharray:none;stroke-dashoffset:0;stroke-opacity:1;color-rendering:auto;image-rendering:auto;shape-rendering:auto;text-rendering:auto;enable-background:accumulate;stop-color:#000000"
       d="m 34.95993,35.98691 c -0.40853,0 -0.74406,0.33939 -0.74406,0.74797 v 3.97804 c 0,0.40857 0.33554,0.74796 0.74406,0.74796 h 3.94488 c 0.40852,0 0.74406,-0.3394 0.74406,-0.74796 v -3.97804 c 0,-0.40857 -0.33554,-0.74797 -0.74406,-0.74797 z m 0,0.49994 h 3.94488 c 0.13798,0 0.24412,0.10558 0.24412,0.24803 v 3.97804 c 0,0.14246 -0.10614,0.24802 -0.24412,0.24802 h -3.94488 c -0.13799,0 -0.24412,-0.10557 -0.24412,-0.24802 v -3.97804 c 0,-0.14244 0.10614,-0.24803 0.24412,-0.24803 z" />
    <path
       id="rect970-1-1-7-1"
       style="color:#000000;font-style:normal;font-variant:normal;font-weight:normal;font-stretch:normal;font-size:medium;line-height:normal;font-family:sans-serif;font-variant-ligatures:normal;font-variant-position:normal;font-variant-caps:normal;font-variant-numeric:normal;font-variant-alternates:normal;font-variant-east-asian:normal;font-feature-settings:normal;font-variation-settings:normal;text-indent:0;text-align:start;text-decoration:none;text-decoration-line:none;text-decoration-style:solid;text-decoration-color:#000000;letter-spacing:normal;word-spacing:normal;text-transform:none;writing-mode:lr-tb;direction:ltr;text-orientation:mixed;dominant-baseline:auto;baseline-shift:baseline;text-anchor:start;white-space:normal;shape-padding:0;shape-margin:0;inline-size:0;clip-rule:nonzero;display:inline;overflow:visible;visibility:visible;opacity:0.45;isolation:auto;mix-blend-mode:normal;color-interpolation:sRGB;color-interpolation-filters:linearRGB;solid-color:#000000;solid-opacity:1;vector-effect:none;fill:#682758;fill-opacity:1;fill-rule:nonzero;stroke:none;stroke-width:0.999886;stroke-linecap:round;stroke-linejoin:round;stroke-miterlimit:4;stroke-dasharray:none;stroke-dashoffset:0;stroke-opacity:1;color-rendering:auto;image-rendering:auto;shape-rendering:auto;text-rendering:auto;enable-background:accumulate;stop-color:#000000"
       d="m 25.09417,35.98691 c -0.40853,0 -0.74406,0.33939 -0.74406,0.74797 v 3.97804 c 0,0.40857 0.33554,0.74796 0.74406,0.74796 h 3.94488 c 0.40852,0 0.74406,-0.3394 0.74406,-0.74796 v -3.97804 c 0,-0.40857 -0.33554,-0.74797 -0.74406,-0.74797 z m 0,0.49994 h 3.94488 c 0.13798,0 0.24412,0.10558 0.24412,0.24803 v 3.97804 c 0,0.14246 -0.10614,0.24802 -0.24412,0.24802 h -3.94488 c -0.13799,0 -0.24412,-0.10557 -0.24412,-0.24802 v -3.97804 c 0,-0.14244 0.10614,-0.24803 0.24412,-0.24803 z" />
    <path
       id="rect970-1-1-5-7"
       style="color:#000000;font-style:normal;font-variant:normal;font-weight:normal;font-stretch:normal;font-size:medium;line-height:normal;font-family:sans-serif;font-variant-ligatures:normal;font-variant-position:normal;font-variant-caps:normal;font-variant-numeric:normal;font-variant-alternates:normal;font-variant-east-asian:normal;font-feature-settings:normal;font-variation-settings:normal;text-indent:0;text-align:start;text-decoration:none;text-decoration-line:none;text-decoration-style:solid;text-decoration-color:#000000;letter-spacing:normal;word-spacing:normal;text-transform:none;writing-mode:lr-tb;direction:ltr;text-orientation:mixed;dominant-baseline:auto;baseline-shift:baseline;text-anchor:start;white-space:normal;shape-padding:0;shape-margin:0;inline-size:0;clip-rule:nonzero;display:inline;overflow:visible;visibility:visible;opacity:0.45;isolation:auto;mix-blend-mode:normal;color-interpolation:sRGB;color-interpolation-filters:linearRGB;solid-color:#000000;solid-opacity:1;vector-effect:none;fill:#682758;fill-opacity:1;fill-rule:nonzero;stroke:none;stroke-width:0.999886;stroke-linecap:round;stroke-linejoin:round;stroke-miterlimit:4;stroke-dasharray:none;stroke-dashoffset:0;stroke-opacity:1;color-rendering:auto;image-rendering:auto;shape-rendering:auto;text-rendering:auto;enable-background:accumulate;stop-color:#000000"
       d="m 20.16206,40.96088 c -0.40853,0 -0.74406,0.33939 -0.74406,0.74797 v 3.97804 c 0,0.40857 0.33554,0.74796 0.74406,0.74796 h 3.94488 c 0.40852,0 0.74406,-0.3394 0.74406,-0.74796 v -3.97804 c 0,-0.40857 -0.33554,-0.74797 -0.74406,-0.74797 z m 0,0.49994 h 3.94488 c 0.13798,0 0.24412,0.10558 0.24412,0.24803 v 3.97804 c 0,0.14246 -0.10614,0.24803 -0.24412,0.24803 h -3.94488 c -0.13799,0 -0.24412,-0.10558 -0.24412,-0.24803 v -3.97804 c 0,-0.14244 0.10614,-0.24803 0.24412,-0.24803 z" />
    <path
       id="rect970-1-1-2-1-1"
       style="color:#000000;font-style:normal;font-variant:normal;font-weight:normal;font-stretch:normal;font-size:medium;line-height:normal;font-family:sans-serif;font-variant-ligatures:normal;font-variant-position:normal;font-variant-caps:normal;font-variant-numeric:normal;font-variant-alternates:normal;font-variant-east-asian:normal;font-feature-settings:normal;font-variation-settings:normal;text-indent:0;text-align:start;text-decoration:none;text-decoration-line:none;text-decoration-style:solid;text-decoration-color:#000000;letter-spacing:normal;word-spacing:normal;text-transform:none;writing-mode:lr-tb;direction:ltr;text-orientation:mixed;dominant-baseline:auto;baseline-shift:baseline;text-anchor:start;white-space:normal;shape-padding:0;shape-margin:0;inline-size:0;clip-rule:nonzero;display:inline;overflow:visible;visibility:visible;opacity:0.45;isolation:auto;mix-blend-mode:normal;color-interpolation:sRGB;color-interpolation-filters:linearRGB;solid-color:#000000;solid-opacity:1;vector-effect:none;fill:#682758;fill-opacity:1;fill-rule:nonzero;stroke:none;stroke-width:0.999886;stroke-linecap:round;stroke-linejoin:round;stroke-miterlimit:4;stroke-dasharray:none;stroke-dashoffset:0;stroke-opacity:1;color-rendering:auto;image-rendering:auto;shape-rendering:auto;text-rendering:auto;enable-background:accumulate;stop-color:#000000"
       d="m 30.02705,40.96088 c -0.40853,0 -0.74406,0.33939 -0.74406,0.74797 v 3.97804 c 0,0.40857 0.33554,0.74796 0.74406,0.74796 h 3.94488 c 0.40852,0 0.74406,-0.3394 0.74406,-0.74796 v -3.97804 c 0,-0.40857 -0.33554,-0.74797 -0.74406,-0.74797 z m 0,0.49994 h 3.94488 c 0.13798,0 0.24412,0.10558 0.24412,0.24803 v 3.97804 c 0,0.14246 -0.10614,0.24803 -0.24412,0.24803 h -3.94488 c -0.13799,0 -0.24412,-0.10558 -0.24412,-0.24803 v -3.97804 c 0,-0.14244 0.10614,-0.24803 0.24412,-0.24803 z" />
    <path
       id="rect970-1-1-20-7-1"
       style="color:#000000;font-style:normal;font-variant:normal;font-weight:normal;font-stretch:normal;font-size:medium;line-height:normal;font-family:sans-serif;font-variant-ligatures:normal;font-variant-position:normal;font-variant-caps:normal;font-variant-numeric:normal;font-variant-alternates:normal;font-variant-east-asian:normal;font-feature-settings:normal;font-variation-settings:normal;text-indent:0;text-align:start;text-decoration:none;text-decoration-line:none;text-decoration-style:solid;text-decoration-color:#000000;letter-spacing:normal;word-spacing:normal;text-transform:none;writing-mode:lr-tb;direction:ltr;text-orientation:mixed;dominant-baseline:auto;baseline-shift:baseline;text-anchor:start;white-space:normal;shape-padding:0;shape-margin:0;inline-size:0;clip-rule:nonzero;display:inline;overflow:visible;visibility:visible;opacity:0.45;isolation:auto;mix-blend-mode:normal;color-interpolation:sRGB;color-interpolation-filters:linearRGB;solid-color:#000000;solid-opacity:1;vector-effect:none;fill:#682758;fill-opacity:1;fill-rule:nonzero;stroke:none;stroke-width:0.999886;stroke-linecap:round;stroke-linejoin:round;stroke-miterlimit:4;stroke-dasharray:none;stroke-dashoffset:0;stroke-opacity:1;color-rendering:auto;image-rendering:auto;shape-rendering:auto;text-rendering:auto;enable-background:accumulate;stop-color:#000000"
       d="m 39.89281,40.96088 c -0.40853,0 -0.74406,0.33939 -0.74406,0.74797 v 3.97804 c 0,0.40857 0.33554,0.74796 0.74406,0.74796 h 3.94488 c 0.40852,0 0.74406,-0.3394 0.74406,-0.74796 v -3.97804 c 0,-0.40857 -0.33554,-0.74797 -0.74406,-0.74797 z m 0,0.49994 h 3.94488 c 0.13798,0 0.24412,0.10558 0.24412,0.24803 v 3.97804 c 0,0.14246 -0.10614,0.24803 -0.24412,0.24803 h -3.94488 c -0.13799,0 -0.24412,-0.10558 -0.24412,-0.24803 v -3.97804 c 0,-0.14244 0.10614,-0.24803 0.24412,-0.24803 z" />
  </g>
</svg>
