<?xml version="1.0" encoding="UTF-8" standalone="no"?>
<svg
   xmlns:dc="http://purl.org/dc/elements/1.1/"
   xmlns:cc="http://creativecommons.org/ns#"
   xmlns:rdf="http://www.w3.org/1999/02/22-rdf-syntax-ns#"
   xmlns:svg="http://www.w3.org/2000/svg"
   xmlns="http://www.w3.org/2000/svg"
   xmlns:xlink="http://www.w3.org/1999/xlink"
   xmlns:sodipodi="http://sodipodi.sourceforge.net/DTD/sodipodi-0.dtd"
   xmlns:inkscape="http://www.inkscape.org/namespaces/inkscape"
   width="64"
   height="64"
   viewBox="0 0 64 64"
   version="1.1"
   id="svg6374"
   inkscape:version="1.0.2 (e86c870879, 2021-01-15)"
   sodipodi:docname="application-x-ruby.svg">
  <defs
     id="defs6368">
    <linearGradient
       inkscape:collect="always"
       xlink:href="#linearGradient1126"
       id="linearGradient2359"
       gradientUnits="userSpaceOnUse"
       gradientTransform="translate(-302.70321,-103.41541)"
       x1="334.70322"
       y1="107.41542"
       x2="334.70322"
       y2="163.41542" />
    <linearGradient
       inkscape:collect="always"
       id="linearGradient1126">
      <stop
         style="stop-color:#d94b73;stop-opacity:1"
         offset="0"
         id="stop1124" />
      <stop
         style="stop-color:#d3315f;stop-opacity:1;"
         offset="1"
         id="stop1122" />
    </linearGradient>
  </defs>
  <sodipodi:namedview
     id="base"
     pagecolor="#cecece"
     bordercolor="#666666"
     borderopacity="1.0"
     inkscape:pageopacity="0"
     inkscape:pageshadow="2"
     inkscape:zoom="1.5340798"
     inkscape:cx="32.673374"
     inkscape:cy="72.435551"
     inkscape:document-units="px"
     inkscape:current-layer="layer1"
     inkscape:document-rotation="0"
     showgrid="false"
     units="px"
     inkscape:window-width="1024"
     inkscape:window-height="1080"
     inkscape:window-x="68"
     inkscape:window-y="56"
     inkscape:window-maximized="0" />
  <metadata
     id="metadata6371">
    <rdf:RDF>
      <cc:Work
         rdf:about="">
        <dc:format>image/svg+xml</dc:format>
        <dc:type
           rdf:resource="http://purl.org/dc/dcmitype/StillImage" />
        <dc:title></dc:title>
      </cc:Work>
    </rdf:RDF>
  </metadata>
  <g
     inkscape:label="Layer 1"
     inkscape:groupmode="layer"
     id="layer1">
    <rect
       style="opacity:0.45;fill:#0c0c0c;fill-opacity:1;stroke-width:0.495;stroke-linecap:round;stroke-linejoin:round;stroke-miterlimit:4;stroke-dasharray:none;stroke-dashoffset:2.1875"
       id="rect954-6-3-2-2-6-4-4"
       width="44"
       height="56"
       x="10.000002"
       y="5.4999976"
       rx="3"
       ry="3" />
    <path
       id="rect954-60-6-7-3-1-91-3"
       style="color:#000000;font-style:normal;font-variant:normal;font-weight:normal;font-stretch:normal;font-size:medium;line-height:normal;font-family:sans-serif;font-variant-ligatures:normal;font-variant-position:normal;font-variant-caps:normal;font-variant-numeric:normal;font-variant-alternates:normal;font-variant-east-asian:normal;font-feature-settings:normal;font-variation-settings:normal;text-indent:0;text-align:start;text-decoration:none;text-decoration-line:none;text-decoration-style:solid;text-decoration-color:#000000;letter-spacing:normal;word-spacing:normal;text-transform:none;writing-mode:lr-tb;direction:ltr;text-orientation:mixed;dominant-baseline:auto;baseline-shift:baseline;text-anchor:start;white-space:normal;shape-padding:0;shape-margin:0;inline-size:0;clip-rule:nonzero;display:inline;overflow:visible;visibility:visible;isolation:auto;mix-blend-mode:normal;color-interpolation:sRGB;color-interpolation-filters:linearRGB;solid-color:#000000;solid-opacity:1;vector-effect:none;fill:#d3315f;fill-opacity:1;fill-rule:nonzero;stroke:none;stroke-linecap:round;stroke-linejoin:round;stroke-miterlimit:4;stroke-dasharray:none;stroke-dashoffset:2.1875;stroke-opacity:1;color-rendering:auto;image-rendering:auto;shape-rendering:auto;text-rendering:auto;enable-background:accumulate;stop-color:#000000"
       d="M 13,3.5 C 11.0696,3.5 9.5,5.06965 9.5,7 v 50 c 0,1.93035 1.5696,3.5 3.5,3.5 h 38 c 1.9304,0 3.5,-1.56965 3.5,-3.5 V 7 C 54.5,5.06965 52.9304,3.5 51,3.5 Z m 0,1 h 38 c 1.3936,0 2.5,1.10635 2.5,2.5 v 50 c 0,1.39365 -1.1064,2.5 -2.5,2.5 H 13 c -1.3936,0 -2.5,-1.10635 -2.5,-2.5 V 7 c 0,-1.39365 1.1064,-2.5 2.5,-2.5 z" />
    <rect
       style="fill:url(#linearGradient2359);fill-opacity:1;stroke-width:0.495;stroke-linecap:round;stroke-linejoin:round;stroke-miterlimit:4;stroke-dasharray:none;stroke-dashoffset:2.1875"
       id="rect954-7-0-7-3-0-4-4-9"
       width="44"
       height="56"
       x="10.000002"
       y="3.9999976"
       rx="3"
       ry="3" />
    <path
       id="path1209-5-3-0-8"
       style="color:#000000;font-style:normal;font-variant:normal;font-weight:normal;font-stretch:normal;font-size:medium;line-height:normal;font-family:sans-serif;font-variant-ligatures:normal;font-variant-position:normal;font-variant-caps:normal;font-variant-numeric:normal;font-variant-alternates:normal;font-variant-east-asian:normal;font-feature-settings:normal;font-variation-settings:normal;text-indent:0;text-align:start;text-decoration:none;text-decoration-line:none;text-decoration-style:solid;text-decoration-color:#000000;letter-spacing:normal;word-spacing:normal;text-transform:none;writing-mode:lr-tb;direction:ltr;text-orientation:mixed;dominant-baseline:auto;baseline-shift:baseline;text-anchor:start;white-space:normal;shape-padding:0;shape-margin:0;inline-size:0;clip-rule:nonzero;display:inline;overflow:visible;visibility:visible;opacity:0.125;isolation:auto;mix-blend-mode:normal;color-interpolation:sRGB;color-interpolation-filters:linearRGB;solid-color:#000000;solid-opacity:1;vector-effect:none;fill:#0c0c0c;fill-opacity:1;fill-rule:nonzero;stroke:none;stroke-width:0.936041;stroke-linecap:butt;stroke-linejoin:miter;stroke-miterlimit:4;stroke-dasharray:none;stroke-dashoffset:0;stroke-opacity:1;color-rendering:auto;image-rendering:auto;shape-rendering:auto;text-rendering:auto;enable-background:accumulate;stop-color:#000000"
       d="m 37.70052,21.75403 c -0.94549,0.0233 -1.9157,0.14717 -2.89648,0.36328 -2.46263,0.54263 -5.01678,1.66571 -7.45703,3.31445 -1.44818,0.90331 -2.9006,2.06512 -4.27539,3.45117 -1.53363,1.54617 -2.78977,3.19016 -3.72266,4.81641 -1.43322,2.28421 -2.42156,4.64956 -2.91797,6.93945 -0.85742,3.95523 -0.2326,7.77037 2.26758,10.29102 2.29629,2.31508 5.67487,3.03058 9.25,2.46289 l 0.59375,0.004 19.37305,0.14843 0.0156,0.0156 v -0.0156 -0.002 l -0.25,-20.86133 -0.11914,0.20117 c 0.33244,-3.28759 -0.4369,-6.34926 -2.55273,-8.48242 -1.87514,-1.89049 -4.47213,-2.7163 -7.3086,-2.64648 z m 0.625,1.98437 c 2.14486,0.0538 3.9744,0.74488 5.28907,2.07031 1.20194,1.21178 1.87746,2.85747 2.02539,4.78321 -0.0828,-0.0583 -0.1235,-0.0877 -0.21289,-0.15039 -0.93921,-0.65916 -2.23386,-1.55873 -3.65625,-2.54297 -2.16162,-1.49575 -3.45394,-2.3842 -4.22657,-2.88867 -0.0635,-0.0415 -0.10554,-0.0652 -0.16211,-0.10157 -0.10931,-0.14608 -0.22545,-0.28884 -0.35742,-0.42187 -0.24068,-0.24267 -0.50486,-0.44136 -0.78711,-0.60938 0.72241,-0.10684 1.4206,-0.1554 2.08789,-0.13867 z m -4.97265,0.51172 c 1.23184,-0.0709 2.26723,0.22629 2.97461,0.93945 2.2636,2.28213 0.31038,7.95022 -4.36133,12.66016 -4.67172,4.70995 -10.29303,6.67861 -12.55664,4.39648 -2.2636,-2.28213 -0.31234,-7.9502 4.35937,-12.66015 3.2118,-3.23809 6.87392,-5.17989 9.58399,-5.33594 z m 4.7832,2.35547 c 0.75889,0.51459 1.6926,1.15455 3.07813,2.11328 1.42091,0.98321 2.71193,1.8818 3.64843,2.53906 0.21012,0.14747 0.32637,0.23233 0.49805,0.35352 -0.73548,0.0658 -2.73496,0.25264 -5.25781,0.49414 -1.16817,0.11182 -2.14797,0.205 -3.01563,0.28711 0.22912,-0.49125 0.42696,-0.97842 0.5918,-1.45703 0.5258,-1.52668 0.73101,-3.03654 0.45703,-4.33008 z m 7.47461,5.98047 c -0.0525,0.54636 -0.13708,1.1067 -0.26172,1.68164 -0.76004,3.50601 -2.8857,7.40343 -6.20508,10.75 -0.54795,0.55243 -1.11207,1.06867 -1.68554,1.55469 L 36.58529,33.43957 c 0.008,-7.5e-4 0.0112,-9.5e-4 0.0195,-0.002 0.92964,-0.0878 2.20305,-0.21063 3.59375,-0.34375 2.60245,-0.24912 4.7956,-0.45331 5.41211,-0.50781 z m -9.91992,2.27734 0.78515,11.75 -7.98632,-4.67187 c 1.41495,-0.89409 2.83269,-2.03459 4.17578,-3.38868 1.18023,-1.18988 2.1945,-2.43634 3.02539,-3.68945 z m 11.05078,1.76367 0.17383,14.39649 -5.33399,-5.71094 C 44.018,42.58456 45.76566,39.5804 46.74154,36.62707 Z M 18.15365,42.2345 c 0.15709,0.25451 0.34052,0.49498 0.55859,0.71484 0.53961,0.54402 1.19289,0.89031 1.91992,1.07617 0.17692,0.58228 0.3287,1.08506 0.52735,1.73633 h -0.004 l 0.19922,0.64453 c 0.44988,1.47126 0.8631,2.80851 1.16602,3.7793 0.12981,0.41603 0.22481,0.72467 0.30859,0.98828 -1.05595,-0.3426 -1.98163,-0.89146 -2.73633,-1.65234 -1.69563,-1.70952 -2.34369,-4.28207 -1.93945,-7.28711 z m 9.58594,0.41796 8.43554,4.93946 c -2.53576,1.88404 -5.21123,3.1332 -7.6914,3.67969 -1.58084,0.34832 -3.06268,0.41317 -4.38867,0.20312 0.003,-0.006 0.005,-0.008 0.008,-0.0137 0.0965,-0.22489 0.23205,-0.54768 0.39843,-0.94531 0.33277,-0.79527 0.7863,-1.8903 1.28126,-3.09571 0.98921,-2.40914 1.83489,-4.467 1.8789,-4.57422 z m -1.22461,0.37891 c -0.19184,0.46749 -0.77765,1.89465 -1.64453,4.00586 -0.49425,1.20372 -0.94588,2.29963 -1.27735,3.0918 -0.013,0.031 -0.0186,0.0441 -0.0312,0.0742 -0.0373,-0.11888 -0.058,-0.1829 -0.0996,-0.31641 -0.30207,-0.96804 -0.71659,-2.30367 -1.16601,-3.77344 -0.22945,-0.75039 -0.3886,-1.27925 -0.58594,-1.92969 1.06151,0.0513 2.22508,-0.16345 3.39844,-0.57421 0.46254,-0.16191 0.93172,-0.35464 1.40625,-0.57813 z M 40.2181,46.7384 45.63216,52.53137 31.5306,52.42395 c 2.98445,-1.12693 5.99401,-3.05249 8.6875,-5.68555 z" />
    <path
       id="path1209-5-3-0-8-0"
       style="color:#000000;font-style:normal;font-variant:normal;font-weight:normal;font-stretch:normal;font-size:medium;line-height:normal;font-family:sans-serif;font-variant-ligatures:normal;font-variant-position:normal;font-variant-caps:normal;font-variant-numeric:normal;font-variant-alternates:normal;font-variant-east-asian:normal;font-feature-settings:normal;font-variation-settings:normal;text-indent:0;text-align:start;text-decoration:none;text-decoration-line:none;text-decoration-style:solid;text-decoration-color:#000000;letter-spacing:normal;word-spacing:normal;text-transform:none;writing-mode:lr-tb;direction:ltr;text-orientation:mixed;dominant-baseline:auto;baseline-shift:baseline;text-anchor:start;white-space:normal;shape-padding:0;shape-margin:0;inline-size:0;clip-rule:nonzero;display:inline;overflow:visible;visibility:visible;isolation:auto;mix-blend-mode:normal;color-interpolation:sRGB;color-interpolation-filters:linearRGB;solid-color:#000000;solid-opacity:1;vector-effect:none;fill:#fcfcfa;fill-opacity:1;fill-rule:nonzero;stroke:none;stroke-width:0.936041;stroke-linecap:butt;stroke-linejoin:miter;stroke-miterlimit:4;stroke-dasharray:none;stroke-dashoffset:0;stroke-opacity:1;color-rendering:auto;image-rendering:auto;shape-rendering:auto;text-rendering:auto;enable-background:accumulate;stop-color:#000000"
       d="m 37.70117,20.75391 c -0.94549,0.0233 -1.9157,0.14717 -2.89648,0.36328 -2.46263,0.54263 -5.01678,1.66571 -7.45703,3.31445 -1.44818,0.90331 -2.9006,2.06512 -4.27539,3.45117 -1.53363,1.54617 -2.78977,3.19016 -3.72266,4.81641 -1.43322,2.28421 -2.42156,4.64956 -2.91797,6.93945 -0.85742,3.95523 -0.2326,7.77037 2.26758,10.29102 2.29629,2.31508 5.67487,3.03058 9.25,2.46289 l 0.59375,0.004 19.37305,0.14844 0.0156,0.0156 v -0.0156 -0.002 l -0.25,-20.86133 -0.10156,-0.0977 c 0.25668,-3.17295 -0.51923,-6.1157 -2.57031,-8.18359 -1.87514,-1.89049 -4.47213,-2.7163 -7.3086,-2.64648 z m 0.625,1.98437 c 2.14486,0.0538 3.97439,0.74488 5.28906,2.07031 1.20194,1.21178 1.87746,2.85747 2.02539,4.78321 -0.0828,-0.0583 -0.1235,-0.0877 -0.21289,-0.15039 -0.93921,-0.65916 -2.23386,-1.55873 -3.65625,-2.54297 -2.16162,-1.49575 -3.45393,-2.3842 -4.22656,-2.88867 -0.0635,-0.0415 -0.10554,-0.0652 -0.16211,-0.10157 -0.10931,-0.14608 -0.22545,-0.28884 -0.35742,-0.42187 -0.24068,-0.24267 -0.50486,-0.44136 -0.78711,-0.60938 0.72241,-0.10684 1.4206,-0.1554 2.08789,-0.13867 z M 33.35352,23.25 c 1.23184,-0.0709 2.26722,0.22629 2.9746,0.93945 2.2636,2.28213 0.31039,7.95022 -4.36132,12.66016 -4.67172,4.70995 -10.29303,6.67861 -12.55664,4.39648 -2.2636,-2.28213 -0.31234,-7.9502 4.35937,-12.66015 3.2118,-3.23809 6.87392,-5.17989 9.58399,-5.33594 z m 4.7832,2.35547 c 0.75889,0.51459 1.69259,1.15455 3.07812,2.11328 1.42091,0.98321 2.71194,1.8818 3.64844,2.53906 0.21012,0.14747 0.32637,0.23233 0.49805,0.35352 -0.73548,0.0658 -2.73496,0.25264 -5.25781,0.49414 -1.16817,0.11182 -2.14797,0.205 -3.01563,0.28711 0.22912,-0.49125 0.42696,-0.97842 0.5918,-1.45703 0.5258,-1.52668 0.73101,-3.03654 0.45703,-4.33008 z m 7.47461,5.98047 c -0.0525,0.54636 -0.13708,1.1067 -0.26172,1.68164 -0.76004,3.50601 -2.8857,7.40343 -6.20508,10.75 -0.54795,0.55243 -1.11208,1.06867 -1.68555,1.55469 L 36.58594,32.43945 c 0.008,-7.5e-4 0.0112,-9e-4 0.0195,-0.002 0.92964,-0.0878 2.20305,-0.21063 3.59375,-0.34375 2.60245,-0.24912 4.7956,-0.45331 5.41211,-0.50781 z m -9.91992,2.27734 0.78515,11.75 -7.98633,-4.67187 c 1.41495,-0.89409 2.8327,-2.03459 4.17579,-3.38868 1.18023,-1.18988 2.1945,-2.43634 3.02539,-3.68945 z m 11.05078,1.76367 0.17383,14.39649 -5.33399,-5.71094 c 2.43662,-2.72806 4.18428,-5.73222 5.16016,-8.68555 z M 18.1543,41.23438 c 0.15709,0.2545 0.34052,0.49498 0.55859,0.71484 0.53961,0.54402 1.19289,0.89031 1.91992,1.07617 0.17692,0.58228 0.3287,1.08506 0.52735,1.73633 h -0.004 l 0.19922,0.64453 c 0.44988,1.47126 0.86309,2.80851 1.16601,3.7793 0.12981,0.41603 0.22482,0.72467 0.3086,0.98828 -1.05595,-0.3426 -1.98163,-0.89147 -2.73633,-1.65235 -1.69563,-1.70952 -2.34369,-4.28206 -1.93945,-7.2871 z m 9.58593,0.41796 8.43555,4.93946 c -2.53576,1.88404 -5.21123,3.13319 -7.6914,3.67968 -1.58085,0.34832 -3.06269,0.41318 -4.38868,0.20313 0.003,-0.006 0.005,-0.008 0.008,-0.0137 0.0965,-0.22489 0.23205,-0.54769 0.39843,-0.94532 0.33277,-0.79527 0.78629,-1.89029 1.28125,-3.0957 0.98921,-2.40914 1.8349,-4.467 1.87891,-4.57422 z m -1.22461,0.37891 c -0.19184,0.46749 -0.77765,1.89465 -1.64453,4.00586 -0.49425,1.20372 -0.94587,2.29963 -1.27734,3.0918 -0.013,0.031 -0.0186,0.0441 -0.0312,0.0742 -0.0373,-0.11887 -0.058,-0.18289 -0.0996,-0.3164 -0.30207,-0.96804 -0.71659,-2.30367 -1.16601,-3.77344 -0.22945,-0.75039 -0.3886,-1.27925 -0.58594,-1.92969 1.06151,0.0513 2.22507,-0.16345 3.39844,-0.57421 0.46253,-0.16191 0.93171,-0.35464 1.40624,-0.57813 z m 13.70313,3.70703 5.41406,5.79297 -14.10156,-0.10742 c 2.98445,-1.12693 5.99401,-3.05249 8.6875,-5.68555 z" />
  </g>
</svg>
