<?xml version="1.0" encoding="UTF-8" standalone="no"?>
<svg
   xmlns:dc="http://purl.org/dc/elements/1.1/"
   xmlns:cc="http://creativecommons.org/ns#"
   xmlns:rdf="http://www.w3.org/1999/02/22-rdf-syntax-ns#"
   xmlns:svg="http://www.w3.org/2000/svg"
   xmlns="http://www.w3.org/2000/svg"
   xmlns:sodipodi="http://sodipodi.sourceforge.net/DTD/sodipodi-0.dtd"
   xmlns:inkscape="http://www.inkscape.org/namespaces/inkscape"
   width="64"
   height="64"
   viewBox="0 0 64 64"
   version="1.1"
   id="svg6374"
   inkscape:version="1.0.2 (e86c870879, 2021-01-15)"
   sodipodi:docname="audio-midi.svg">
  <defs
     id="defs6368" />
  <sodipodi:namedview
     id="base"
     pagecolor="#cecece"
     bordercolor="#666666"
     borderopacity="1.0"
     inkscape:pageopacity="0"
     inkscape:pageshadow="2"
     inkscape:zoom="2.7426703"
     inkscape:cx="8.6798192"
     inkscape:cy="52.549069"
     inkscape:document-units="px"
     inkscape:current-layer="layer1"
     inkscape:document-rotation="0"
     showgrid="false"
     units="px"
     inkscape:window-width="1024"
     inkscape:window-height="1080"
     inkscape:window-x="68"
     inkscape:window-y="56"
     inkscape:window-maximized="0" />
  <metadata
     id="metadata6371">
    <rdf:RDF>
      <cc:Work
         rdf:about="">
        <dc:format>image/svg+xml</dc:format>
        <dc:type
           rdf:resource="http://purl.org/dc/dcmitype/StillImage" />
        <dc:title />
      </cc:Work>
    </rdf:RDF>
  </metadata>
  <g
     inkscape:label="Layer 1"
     inkscape:groupmode="layer"
     id="layer1">
    <path
       id="rect954-7-0-7-3-0-0-0-6-3-9-6-1-2"
       style="color:#000000;font-style:normal;font-variant:normal;font-weight:normal;font-stretch:normal;font-size:medium;line-height:normal;font-family:sans-serif;font-variant-ligatures:normal;font-variant-position:normal;font-variant-caps:normal;font-variant-numeric:normal;font-variant-alternates:normal;font-variant-east-asian:normal;font-feature-settings:normal;font-variation-settings:normal;text-indent:0;text-align:start;text-decoration:none;text-decoration-line:none;text-decoration-style:solid;text-decoration-color:#000000;letter-spacing:normal;word-spacing:normal;text-transform:none;writing-mode:lr-tb;direction:ltr;text-orientation:mixed;dominant-baseline:auto;baseline-shift:baseline;text-anchor:start;white-space:normal;shape-padding:0;shape-margin:0;inline-size:0;clip-rule:nonzero;display:inline;overflow:visible;visibility:visible;opacity:0.85;isolation:auto;mix-blend-mode:normal;color-interpolation:sRGB;color-interpolation-filters:linearRGB;solid-color:#000000;solid-opacity:1;vector-effect:none;fill:#69696d;fill-opacity:1;fill-rule:nonzero;stroke:none;stroke-linecap:round;stroke-linejoin:round;stroke-miterlimit:4;stroke-dasharray:none;stroke-dashoffset:2.1875;stroke-opacity:1;color-rendering:auto;image-rendering:auto;shape-rendering:auto;text-rendering:auto;enable-background:accumulate;stop-color:#000000"
       d="M 13,2.5 C 10.53295,2.5 8.5,4.53295 8.5,7 v 49.99999 c 0,2.46706 2.03295,4.5 4.5,4.5 h 38 c 2.467,0 4.5,-2.03294 4.5,-4.5 V 7 C 55.5,4.53295 53.467,2.5 51,2.5 Z m 0,3 h 38 c 0.8569,0 1.5,0.64306 1.5,1.5 v 49.99999 c 0,0.85695 -0.6431,1.5 -1.5,1.5 H 13 c -0.85695,0 -1.5,-0.64305 -1.5,-1.5 V 7 c 0,-0.85694 0.64305,-1.5 1.5,-1.5 z" />
    <rect
       style="fill:#fcfcfa;fill-opacity:1;stroke-width:0.495;stroke-linecap:round;stroke-linejoin:round;stroke-miterlimit:4;stroke-dasharray:none;stroke-dashoffset:2.1875"
       id="rect954-7-0-7-3-1-8-4"
       width="44"
       height="56"
       x="10.000023"
       y="4.0000005"
       rx="3"
       ry="3" />
    <path
       id="rect125-5-91-7"
       style="color:#000000;font-style:normal;font-variant:normal;font-weight:normal;font-stretch:normal;font-size:medium;line-height:normal;font-family:sans-serif;font-variant-ligatures:normal;font-variant-position:normal;font-variant-caps:normal;font-variant-numeric:normal;font-variant-alternates:normal;font-variant-east-asian:normal;font-feature-settings:normal;font-variation-settings:normal;text-indent:0;text-align:start;text-decoration:none;text-decoration-line:none;text-decoration-style:solid;text-decoration-color:#000000;letter-spacing:normal;word-spacing:normal;text-transform:none;writing-mode:lr-tb;direction:ltr;text-orientation:mixed;dominant-baseline:auto;baseline-shift:baseline;text-anchor:start;white-space:normal;shape-padding:0;shape-margin:0;inline-size:0;clip-rule:nonzero;display:inline;overflow:visible;visibility:visible;isolation:auto;mix-blend-mode:normal;color-interpolation:sRGB;color-interpolation-filters:linearRGB;solid-color:#000000;solid-opacity:1;vector-effect:none;fill:#264c55;fill-opacity:1;fill-rule:nonzero;stroke:none;stroke-width:0.755894;stroke-linecap:round;stroke-linejoin:round;stroke-miterlimit:4;stroke-dasharray:none;stroke-dashoffset:0;stroke-opacity:1;color-rendering:auto;image-rendering:auto;shape-rendering:auto;text-rendering:auto;enable-background:accumulate;stop-color:#000000"
       d="m 21.52066,24.35 c -0.003,0 -0.005,7.4e-4 -0.008,7.4e-4 h -4.87241 c -1.11634,0 -2.04025,0.92233 -2.04025,2.03861 v 19.92009 c 0,1.11628 0.92391,2.04056 2.04025,2.04056 H 47.36131 C 48.47764,48.35 49.4,47.42572 49.4,46.30944 V 26.38935 c 0,-1.11628 -0.92236,-2.03861 -2.03869,-2.03861 H 42.4886 c -0.003,-3e-5 -0.005,-7.4e-4 -0.008,-7.4e-4 h -2.76018 c -0.003,0 -0.005,7.4e-4 -0.008,7.4e-4 h -6.32429 c -0.003,-3e-5 -0.005,-7.4e-4 -0.008,-7.4e-4 h -2.76017 c -0.003,0 -0.005,7.4e-4 -0.008,7.4e-4 h -6.32429 c -0.003,-3e-5 -0.005,-7.4e-4 -0.008,-7.4e-4 z m -4.88014,1.59957 h 4.26021 v 10.78012 c 0,0.34347 0.27644,0.61991 0.61993,0.61991 h 0.78009 v 9.4001 h -5.66023 c -0.2576,0 -0.43983,-0.18264 -0.43983,-0.44023 V 26.38939 c 0,-0.25759 0.18223,-0.43982 0.43983,-0.43982 z m 8.26026,0 h 5.10005 v 10.78012 c 0,0.34347 0.27644,0.61991 0.61992,0.61991 h 0.78009 v 9.4001 h -7.90008 v -9.4001 h 0.78008 c 0.34348,0 0.61994,-0.27644 0.61994,-0.61991 z m 9.10009,0 h 5.10006 v 10.78012 c 0,0.34347 0.27644,0.61991 0.61993,0.61991 h 0.78008 v 9.4001 h -7.90009 v -9.4001 h 0.78008 c 0.34348,0 0.61994,-0.27644 0.61994,-0.61991 z m 9.1001,0 h 4.2606 c 0.2576,0 0.43986,0.18223 0.43986,0.43983 v 19.92007 c 0,0.2576 -0.18226,0.44024 -0.43986,0.44024 h -5.66062 v -9.4001 h 0.78008 c 0.34348,0 0.61994,-0.27644 0.61994,-0.61991 z" />
    <path
       id="rect125-5-91"
       style="color:#000000;font-style:normal;font-variant:normal;font-weight:normal;font-stretch:normal;font-size:medium;line-height:normal;font-family:sans-serif;font-variant-ligatures:normal;font-variant-position:normal;font-variant-caps:normal;font-variant-numeric:normal;font-variant-alternates:normal;font-variant-east-asian:normal;font-feature-settings:normal;font-variation-settings:normal;text-indent:0;text-align:start;text-decoration:none;text-decoration-line:none;text-decoration-style:solid;text-decoration-color:#000000;letter-spacing:normal;word-spacing:normal;text-transform:none;writing-mode:lr-tb;direction:ltr;text-orientation:mixed;dominant-baseline:auto;baseline-shift:baseline;text-anchor:start;white-space:normal;shape-padding:0;shape-margin:0;inline-size:0;clip-rule:nonzero;display:inline;overflow:visible;visibility:visible;isolation:auto;mix-blend-mode:normal;color-interpolation:sRGB;color-interpolation-filters:linearRGB;solid-color:#000000;solid-opacity:1;vector-effect:none;fill:#4a94a5;fill-opacity:1;fill-rule:nonzero;stroke:none;stroke-width:0.755894;stroke-linecap:round;stroke-linejoin:round;stroke-miterlimit:4;stroke-dasharray:none;stroke-dashoffset:0;stroke-opacity:1;color-rendering:auto;image-rendering:auto;shape-rendering:auto;text-rendering:auto;enable-background:accumulate;stop-color:#000000"
       d="m 21.52066,23.75 c -0.003,0 -0.005,7.4e-4 -0.008,7.4e-4 h -4.87241 c -1.11634,0 -2.04025,0.92233 -2.04025,2.03861 v 19.92009 c 0,1.11628 0.92391,2.04056 2.04025,2.04056 H 47.36131 C 48.47764,47.75 49.4,46.82572 49.4,45.70944 V 25.78935 c 0,-1.11628 -0.92236,-2.03861 -2.03869,-2.03861 H 42.4886 c -0.003,-3e-5 -0.005,-7.4e-4 -0.008,-7.4e-4 h -2.76018 c -0.003,0 -0.005,7.4e-4 -0.008,7.4e-4 h -6.32429 c -0.003,-3e-5 -0.005,-7.4e-4 -0.008,-7.4e-4 h -2.76017 c -0.003,0 -0.005,7.4e-4 -0.008,7.4e-4 h -6.32429 c -0.003,-3e-5 -0.005,-7.4e-4 -0.008,-7.4e-4 z m -4.88014,1.59957 h 4.26021 v 10.78012 c 0,0.34347 0.27644,0.61991 0.61993,0.61991 h 0.78009 v 9.4001 h -5.66023 c -0.2576,0 -0.43983,-0.18264 -0.43983,-0.44023 V 25.78939 c 0,-0.25759 0.18223,-0.43982 0.43983,-0.43982 z m 8.26026,0 h 5.10005 v 10.78012 c 0,0.34347 0.27644,0.61991 0.61992,0.61991 h 0.78009 v 9.4001 h -7.90008 v -9.4001 h 0.78008 c 0.34348,0 0.61994,-0.27644 0.61994,-0.61991 z m 9.10009,0 h 5.10006 v 10.78012 c 0,0.34347 0.27644,0.61991 0.61993,0.61991 h 0.78008 v 9.4001 h -7.90009 v -9.4001 h 0.78008 c 0.34348,0 0.61994,-0.27644 0.61994,-0.61991 z m 9.1001,0 h 4.2606 c 0.2576,0 0.43986,0.18223 0.43986,0.43982 v 19.92008 c 0,0.25759 -0.18226,0.44023 -0.43986,0.44023 h -5.66062 v -9.4001 h 0.78008 c 0.34348,0 0.61994,-0.27644 0.61994,-0.61991 z" />
  </g>
</svg>
