<?xml version="1.0" encoding="UTF-8" standalone="no"?>
<svg
   xmlns:dc="http://purl.org/dc/elements/1.1/"
   xmlns:cc="http://creativecommons.org/ns#"
   xmlns:rdf="http://www.w3.org/1999/02/22-rdf-syntax-ns#"
   xmlns:svg="http://www.w3.org/2000/svg"
   xmlns="http://www.w3.org/2000/svg"
   xmlns:xlink="http://www.w3.org/1999/xlink"
   xmlns:sodipodi="http://sodipodi.sourceforge.net/DTD/sodipodi-0.dtd"
   xmlns:inkscape="http://www.inkscape.org/namespaces/inkscape"
   width="64"
   height="64"
   viewBox="0 0 64 64"
   version="1.1"
   id="svg6374"
   inkscape:version="1.0.2 (e86c870879, 2021-01-15)"
   sodipodi:docname="x-office-spreadsheet.svg">
  <defs
     id="defs6368">
    <linearGradient
       inkscape:collect="always"
       xlink:href="#linearGradient2371"
       id="linearGradient2278"
       gradientUnits="userSpaceOnUse"
       gradientTransform="translate(0,-500)"
       x1="32"
       y1="504"
       x2="32"
       y2="560" />
    <linearGradient
       inkscape:collect="always"
       id="linearGradient2371">
      <stop
         style="stop-color:#74ad61;stop-opacity:1"
         offset="0"
         id="stop2367" />
      <stop
         style="stop-color:#67a154;stop-opacity:1"
         offset="1"
         id="stop2369" />
    </linearGradient>
  </defs>
  <sodipodi:namedview
     id="base"
     pagecolor="#cecece"
     bordercolor="#666666"
     borderopacity="1.0"
     inkscape:pageopacity="0"
     inkscape:pageshadow="2"
     inkscape:zoom="3.4231059"
     inkscape:cx="52.578554"
     inkscape:cy="77.309853"
     inkscape:document-units="px"
     inkscape:current-layer="layer1"
     inkscape:document-rotation="0"
     showgrid="false"
     units="px"
     inkscape:window-width="2048"
     inkscape:window-height="1080"
     inkscape:window-x="0"
     inkscape:window-y="0"
     inkscape:window-maximized="1" />
  <metadata
     id="metadata6371">
    <rdf:RDF>
      <cc:Work
         rdf:about="">
        <dc:format>image/svg+xml</dc:format>
        <dc:type
           rdf:resource="http://purl.org/dc/dcmitype/StillImage" />
        <dc:title />
      </cc:Work>
    </rdf:RDF>
  </metadata>
  <g
     inkscape:label="Layer 1"
     inkscape:groupmode="layer"
     id="layer1">
    <rect
       style="opacity:0.45;fill:#0c0c0c;fill-opacity:1;stroke-width:0.495;stroke-linecap:round;stroke-linejoin:round;stroke-miterlimit:4;stroke-dasharray:none;stroke-dashoffset:2.1875"
       id="rect954-6-3-29-1"
       width="44"
       height="56"
       x="9.9998779"
       y="5.4999995"
       rx="3"
       ry="3" />
    <path
       id="rect954-60-6-3-5"
       style="color:#000000;font-style:normal;font-variant:normal;font-weight:normal;font-stretch:normal;font-size:medium;line-height:normal;font-family:sans-serif;font-variant-ligatures:normal;font-variant-position:normal;font-variant-caps:normal;font-variant-numeric:normal;font-variant-alternates:normal;font-variant-east-asian:normal;font-feature-settings:normal;font-variation-settings:normal;text-indent:0;text-align:start;text-decoration:none;text-decoration-line:none;text-decoration-style:solid;text-decoration-color:#000000;letter-spacing:normal;word-spacing:normal;text-transform:none;writing-mode:lr-tb;direction:ltr;text-orientation:mixed;dominant-baseline:auto;baseline-shift:baseline;text-anchor:start;white-space:normal;shape-padding:0;shape-margin:0;inline-size:0;clip-rule:nonzero;display:inline;overflow:visible;visibility:visible;opacity:0.75;isolation:auto;mix-blend-mode:normal;color-interpolation:sRGB;color-interpolation-filters:linearRGB;solid-color:#000000;solid-opacity:1;vector-effect:none;fill:#3c5e31;fill-opacity:1;fill-rule:nonzero;stroke:none;stroke-linecap:round;stroke-linejoin:round;stroke-miterlimit:4;stroke-dasharray:none;stroke-dashoffset:2.1875;stroke-opacity:1;color-rendering:auto;image-rendering:auto;shape-rendering:auto;text-rendering:auto;enable-background:accumulate;stop-color:#000000"
       d="M 13,3.5 C 11.0696,3.5 9.5,5.06965 9.5,7 v 50 c 0,1.93035 1.5696,3.5 3.5,3.5 h 38 c 1.9304,0 3.5,-1.56965 3.5,-3.5 V 7 C 54.5,5.06965 52.9304,3.5 51,3.5 Z m 0,1 h 38 c 1.3936,0 2.5,1.10635 2.5,2.5 v 50 c 0,1.39365 -1.1064,2.5 -2.5,2.5 H 13 c -1.3936,0 -2.5,-1.10635 -2.5,-2.5 V 7 c 0,-1.39365 1.1064,-2.5 2.5,-2.5 z" />
    <rect
       style="fill:url(#linearGradient2278);fill-opacity:1;stroke-width:0.495;stroke-linecap:round;stroke-linejoin:round;stroke-miterlimit:4;stroke-dasharray:none;stroke-dashoffset:2.1875"
       id="rect954-7-1-5"
       width="44"
       height="56"
       x="9.9998779"
       y="4.0000005"
       rx="3"
       ry="3" />
    <path
       id="rect1005-0-6-1"
       style="color:#000000;font-style:normal;font-variant:normal;font-weight:normal;font-stretch:normal;font-size:medium;line-height:normal;font-family:sans-serif;font-variant-ligatures:normal;font-variant-position:normal;font-variant-caps:normal;font-variant-numeric:normal;font-variant-alternates:normal;font-variant-east-asian:normal;font-feature-settings:normal;font-variation-settings:normal;text-indent:0;text-align:start;text-decoration:none;text-decoration-line:none;text-decoration-style:solid;text-decoration-color:#000000;letter-spacing:normal;word-spacing:normal;text-transform:none;writing-mode:lr-tb;direction:ltr;text-orientation:mixed;dominant-baseline:auto;baseline-shift:baseline;text-anchor:start;white-space:normal;shape-padding:0;shape-margin:0;inline-size:0;clip-rule:nonzero;display:inline;overflow:visible;visibility:visible;opacity:0.15;isolation:auto;mix-blend-mode:normal;color-interpolation:sRGB;color-interpolation-filters:linearRGB;solid-color:#000000;solid-opacity:1;vector-effect:none;fill:#0c0c0c;fill-opacity:1;fill-rule:nonzero;stroke:none;stroke-width:0;stroke-linecap:square;stroke-linejoin:miter;stroke-miterlimit:4;stroke-dasharray:none;stroke-dashoffset:0;stroke-opacity:1;color-rendering:auto;image-rendering:auto;shape-rendering:auto;text-rendering:auto;enable-background:accumulate;stop-color:#000000"
       d="m 18.7603,14.35 c -1.3735,0 -2.5103,1.14873 -2.5103,2.53669 v 32.22662 c 0,1.38796 1.1368,2.53669 2.5103,2.53669 h 12.2556 1.9687 12.2546 c 1.3735,0 2.5108,-1.14873 2.5108,-2.53669 V 40.21133 38.222 28.27533 26.286 16.88669 C 47.75,15.49873 46.6127,14.35 45.2392,14.35 H 32.9846 31.0159 Z m 0,1.98982 H 31.0159 V 26.286 H 18.2192 v -9.39931 c 0,-0.32028 0.2243,-0.54687 0.5411,-0.54687 z m 14.2243,0 h 12.2546 c 0.3168,0 0.5416,0.22659 0.5416,0.54687 V 26.286 H 32.9846 Z M 18.2192,28.27533 H 31.0159 V 38.222 H 18.2192 Z m 14.7654,0 H 45.7808 V 38.222 H 32.9846 Z m -14.7654,11.936 h 12.7967 v 9.44885 H 18.7603 c -0.3168,0 -0.5411,-0.22659 -0.5411,-0.54687 z m 14.7654,0 h 12.7962 v 8.90198 c 0,0.32028 -0.2248,0.54687 -0.5416,0.54687 H 32.9846 Z" />
    <path
       id="rect1005-0-6"
       style="color:#000000;font-style:normal;font-variant:normal;font-weight:normal;font-stretch:normal;font-size:medium;line-height:normal;font-family:sans-serif;font-variant-ligatures:normal;font-variant-position:normal;font-variant-caps:normal;font-variant-numeric:normal;font-variant-alternates:normal;font-variant-east-asian:normal;font-feature-settings:normal;font-variation-settings:normal;text-indent:0;text-align:start;text-decoration:none;text-decoration-line:none;text-decoration-style:solid;text-decoration-color:#000000;letter-spacing:normal;word-spacing:normal;text-transform:none;writing-mode:lr-tb;direction:ltr;text-orientation:mixed;dominant-baseline:auto;baseline-shift:baseline;text-anchor:start;white-space:normal;shape-padding:0;shape-margin:0;inline-size:0;clip-rule:nonzero;display:inline;overflow:visible;visibility:visible;isolation:auto;mix-blend-mode:normal;color-interpolation:sRGB;color-interpolation-filters:linearRGB;solid-color:#000000;solid-opacity:1;vector-effect:none;fill:#fdfbfc;fill-opacity:1;fill-rule:nonzero;stroke:none;stroke-width:0;stroke-linecap:square;stroke-linejoin:miter;stroke-miterlimit:4;stroke-dasharray:none;stroke-dashoffset:0;stroke-opacity:1;color-rendering:auto;image-rendering:auto;shape-rendering:auto;text-rendering:auto;enable-background:accumulate;stop-color:#000000"
       d="m 18.7603,13.35 c -1.3735,0 -2.5103,1.14873 -2.5103,2.53669 v 32.22662 c 0,1.38796 1.1368,2.53669 2.5103,2.53669 h 12.2556 1.9687 12.2546 c 1.3735,0 2.5108,-1.14873 2.5108,-2.53669 V 39.21133 37.222 27.27533 25.286 15.88669 C 47.75,14.49873 46.6127,13.35 45.2392,13.35 H 32.9846 31.0159 Z m 0,1.98982 H 31.0159 V 25.286 H 18.2192 v -9.39931 c 0,-0.32028 0.2243,-0.54687 0.5411,-0.54687 z m 14.2243,0 h 12.2546 c 0.3168,0 0.5416,0.22659 0.5416,0.54687 V 25.286 H 32.9846 Z M 18.2192,27.27533 H 31.0159 V 37.222 H 18.2192 Z m 14.7654,0 H 45.7808 V 37.222 H 32.9846 Z m -14.7654,11.936 h 12.7967 v 9.44885 H 18.7603 c -0.3168,0 -0.5411,-0.22659 -0.5411,-0.54687 z m 14.7654,0 h 12.7962 v 8.90198 c 0,0.32028 -0.2248,0.54687 -0.5416,0.54687 H 32.9846 Z" />
  </g>
</svg>
