<?xml version="1.0" encoding="UTF-8" standalone="no"?>
<svg
   xmlns:dc="http://purl.org/dc/elements/1.1/"
   xmlns:cc="http://creativecommons.org/ns#"
   xmlns:rdf="http://www.w3.org/1999/02/22-rdf-syntax-ns#"
   xmlns:svg="http://www.w3.org/2000/svg"
   xmlns="http://www.w3.org/2000/svg"
   xmlns:sodipodi="http://sodipodi.sourceforge.net/DTD/sodipodi-0.dtd"
   xmlns:inkscape="http://www.inkscape.org/namespaces/inkscape"
   width="64"
   height="64"
   viewBox="0 0 64 64"
   version="1.1"
   id="svg6374"
   inkscape:version="1.0.2 (e86c870879, 2021-01-15)"
   sodipodi:docname="media-playlist-shuffle.svg">
  <defs
     id="defs6368" />
  <sodipodi:namedview
     id="base"
     pagecolor="#cecece"
     bordercolor="#666666"
     borderopacity="1.0"
     inkscape:pageopacity="0"
     inkscape:pageshadow="2"
     inkscape:zoom="6.8818909"
     inkscape:cx="20.896034"
     inkscape:cy="43.578666"
     inkscape:document-units="px"
     inkscape:current-layer="layer1"
     inkscape:document-rotation="0"
     showgrid="false"
     units="px"
     inkscape:window-width="1500"
     inkscape:window-height="970"
     inkscape:window-x="68"
     inkscape:window-y="56"
     inkscape:window-maximized="0" />
  <metadata
     id="metadata6371">
    <rdf:RDF>
      <cc:Work
         rdf:about="">
        <dc:format>image/svg+xml</dc:format>
        <dc:type
           rdf:resource="http://purl.org/dc/dcmitype/StillImage" />
        <dc:title></dc:title>
      </cc:Work>
    </rdf:RDF>
  </metadata>
  <g
     inkscape:label="Layer 1"
     inkscape:groupmode="layer"
     id="layer1">
    <path
       id="rect1112-6-7-2-1-6-7-5-9-3-1-9-8-3-1-3-5-6-4-4-2-1"
       style="color:#000000;font-style:normal;font-variant:normal;font-weight:normal;font-stretch:normal;font-size:medium;line-height:normal;font-family:sans-serif;font-variant-ligatures:normal;font-variant-position:normal;font-variant-caps:normal;font-variant-numeric:normal;font-variant-alternates:normal;font-variant-east-asian:normal;font-feature-settings:normal;font-variation-settings:normal;text-indent:0;text-align:start;text-decoration:none;text-decoration-line:none;text-decoration-style:solid;text-decoration-color:#000000;letter-spacing:normal;word-spacing:normal;text-transform:none;writing-mode:lr-tb;direction:ltr;text-orientation:mixed;dominant-baseline:auto;baseline-shift:baseline;text-anchor:start;white-space:normal;shape-padding:0;shape-margin:0;inline-size:0;clip-rule:nonzero;display:inline;overflow:visible;visibility:visible;opacity:0.075;isolation:auto;mix-blend-mode:normal;color-interpolation:sRGB;color-interpolation-filters:linearRGB;solid-color:#000000;solid-opacity:1;vector-effect:none;fill:#0c0c0c;fill-opacity:1;fill-rule:nonzero;stroke:none;stroke-width:1.00001;stroke-linecap:round;stroke-linejoin:round;stroke-miterlimit:4;stroke-dasharray:none;stroke-dashoffset:2.1875;stroke-opacity:1;color-rendering:auto;image-rendering:auto;shape-rendering:auto;text-rendering:auto;enable-background:accumulate;stop-color:#000000"
       d="m 5.69722,11.632001 -2.75974,0.002 -0.96875,0.002 C 0.89513,11.636221 2e-5,12.531471 0,13.606701 v 4.84375 c 4e-5,1.07494 0.89505,1.96718 1.96873,1.9668 h 0.96875 0.96874 1.79295 c 2.56195,1.3e-4 4.90882,0.80222 6.85933,2.15429 a 1.0000839,1.0001295 0 0 0 0.12694,0.0742 1.0000839,1.0001295 0 0 0 0.0195,0.01 l 0.76367,0.4414 c 0.92962,0.53682 2.15294,0.2092 2.68943,-0.7207 l 2.43163,-4.21094 c 0.53669,-0.92954 0.2091,-2.15267 -0.72071,-2.68945 l -0.83983,-0.48437 c -0.39361,-0.25574 -0.79398,-0.49913 -1.20507,-0.72852 a 1.0000839,1.0001295 0 0 0 -0.23437,-0.0937 1.0000839,1.0001295 0 0 0 -0.006,-0.002 C 12.64479,12.574351 9.2882,11.634521 5.699,11.634251 a 1.0000839,1.0001295 0 0 0 -0.002,0 z m 0.002,2 c 3.33421,2.5e-4 6.44504,0.86699 9.15032,2.37695 a 1.0000839,1.0001295 0 0 0 0.0195,0.0117 c 0.37976,0.21251 0.75027,0.43662 1.11327,0.67383 a 1.0000839,1.0001295 0 0 0 0.0469,0.0293 l 0.81249,0.46875 -2.40037,4.1582 -0.81249,-0.46875 a 1.0000839,1.0001295 0 0 0 -0.19727,-0.0859 c -2.2178,-1.47034 -4.85829,-2.37876 -7.73236,-2.3789 H 3.90626 a 1.0000839,1.0001295 0 0 0 -0.002,0 H 2.93747 1.99997 v -4.77932 l 0.9375,-0.002 a 1.0000839,1.0001295 0 0 0 0.002,0 z m 41.12466,22.70703 v 0.002 a 1.0000839,1.0001295 0 0 0 -0.0488,0.002 c -1.01876,9e-5 -1.78692,0.85622 -1.84959,1.82226 -0.004,0.0181 -0.0215,0.0295 -0.0215,0.0488 v 0.74024 a 1.0000839,1.0001295 0 0 0 -0.002,0.0371 l 0.002,6.54882 -6.26753,-0.002 c -2.954,0 -5.62943,-1.0573 -7.72455,-2.80469 a 1.0000839,1.0001295 0 0 0 -0.18163,-0.12109 1.0000839,1.0001295 0 0 0 -0.0293,-0.0156 l -0.76953,-0.44531 c -0.92959,-0.53682 -2.15291,-0.20715 -2.68943,0.72266 l -2.45311,4.24805 c -0.53672,0.92958 -0.20854,2.15273 0.72071,2.68945 l 0.81249,0.46875 c 3.44467,2.52731 7.69705,4.04281 12.3163,4.04297 h 6.26363 v 5.4414 0.88282 0.61718 c 0,0.007 0.007,0.0108 0.008,0.0176 l -0.004,-0.002 v 0.30859 c 6e-5,1.01673 0.80846,1.94336 1.87108,1.94336 a 1.0000839,1.0001295 0 0 0 0.008,0 c 0.15914,-10e-4 0.31471,-0.0246 0.45508,-0.0625 a 1.0000839,1.0001295 0 0 0 0.006,-0.002 h 0.002 a 1.0000839,1.0001295 0 0 0 0.0371,-0.01 c 0.0504,-0.0153 0.16202,-0.0487 0.30078,-0.11914 0.0891,-0.044 0.2014,-0.1044 0.32225,-0.20117 l 15.33973,-11.63281 c 0.52809,-0.4012 0.75079,-1.01648 0.75194,-1.56641 a 1.0000839,1.0001295 0 0 0 0,-0.002 c -1.8e-4,-0.55328 -0.23028,-1.16969 -0.75389,-1.56641 L 47.88294,36.713701 a 1.0000839,1.0001295 0 0 0 -0.0117,-0.01 c -0.0891,-0.0655 -0.17919,-0.11399 -0.27148,-0.16016 h 0.006 c -0.0101,-0.005 -0.01,-0.005 -0.0195,-0.01 -0.0101,-0.005 -0.0191,-0.0128 -0.0293,-0.0176 a 1.0000839,1.0001295 0 0 0 -0.15625,-0.0586 1.0000839,1.0001295 0 0 0 -0.004,0 c -0.0225,-0.007 -0.0699,-0.0314 -0.082,-0.0352 -10e-4,-3.1e-4 -0.008,-9.6e-4 -0.01,-0.002 a 1.0000839,1.0001295 0 0 0 -0.0117,-0.006 1.0000839,1.0001295 0 0 0 -0.0273,-0.008 1.0000839,1.0001295 0 0 0 -0.1211,-0.0273 c -1.2e-4,-2e-5 0.0424,0.0104 0.084,0.0215 -0.0571,-0.0164 -0.14563,-0.0237 -0.22266,-0.0351 -0.003,-2e-5 -0.005,-4e-5 -0.006,0 -0.0613,-0.009 -0.0987,-0.0274 -0.17578,-0.0274 z m 0.0801,2.14453 15.09558,11.45118 c -2e-5,0.009 -7e-5,0.005 0,0.008 l -15.09363,11.44726 -0.002,-0.74218 a 1.0000839,1.0001295 0 0 0 -0.002,-0.041 v -0.5918 -0.25 -6.4414 a 1.0000839,1.0001295 0 0 0 -0.99999,-1 h -7.26362 c -4.21046,-1.5e-4 -8.06488,-1.38167 -11.19522,-3.69727 a 1.0000839,1.0001295 0 0 0 -0.0937,-0.0625 l -0.81249,-0.46875 2.42186,-4.19531 0.81249,0.46875 a 1.0000839,1.0001295 0 0 0 0.16015,0.0742 c 2.39513,1.90091 5.39624,3.0957 8.70501,3.0957 l 7.26752,0.002 a 1.0000839,1.0001295 0 0 0 0.99999,-1 l -0.002,-6.82226 c 2e-5,-0.002 0.002,-0.002 0.002,-0.004 v -0.72265 z m 15.1073,11.45899 0.0273,0.0215 c -0.0279,-0.0211 -0.0279,-0.0268 -0.0293,-0.0195 0,0 0.002,-0.002 0.002,-0.002 z m -16.61315,11.57226 h 0.006 a 1.0000839,1.0001295 0 0 0 0.0391,0.0215 z" />
    <path
       id="rect1112-6-7-2-1-6-7-5-9-3-1-2-7-0-6-4-6-9-6"
       style="color:#000000;font-style:normal;font-variant:normal;font-weight:normal;font-stretch:normal;font-size:medium;line-height:normal;font-family:sans-serif;font-variant-ligatures:normal;font-variant-position:normal;font-variant-caps:normal;font-variant-numeric:normal;font-variant-alternates:normal;font-variant-east-asian:normal;font-feature-settings:normal;font-variation-settings:normal;text-indent:0;text-align:start;text-decoration:none;text-decoration-line:none;text-decoration-style:solid;text-decoration-color:#000000;letter-spacing:normal;word-spacing:normal;text-transform:none;writing-mode:lr-tb;direction:ltr;text-orientation:mixed;dominant-baseline:auto;baseline-shift:baseline;text-anchor:start;white-space:normal;shape-padding:0;shape-margin:0;inline-size:0;clip-rule:nonzero;display:inline;overflow:visible;visibility:visible;opacity:0.075;isolation:auto;mix-blend-mode:normal;color-interpolation:sRGB;color-interpolation-filters:linearRGB;solid-color:#000000;solid-opacity:1;vector-effect:none;fill:#0c0c0c;fill-opacity:1;fill-rule:nonzero;stroke:none;stroke-width:1.00005;stroke-linecap:round;stroke-linejoin:round;stroke-miterlimit:4;stroke-dasharray:none;stroke-dashoffset:2.1875;stroke-opacity:1;color-rendering:auto;image-rendering:auto;shape-rendering:auto;text-rendering:auto;enable-background:accumulate;stop-color:#000000"
       d="m 46.77744,1.4690014 a 1.0001,1.0002054 0 0 0 -0.74414,0.3301 1.0001,1.0002054 0 0 0 -0.002,0.002 c -0.63309,0.32568 -1.12695,0.88091 -1.12695,1.6154 v 0.88292 a 1.0001,1.0002054 0 0 0 -0.002,0.0566 v 6.3248896 h -6.26563 c -11.53848,0 -20.85937,9.32046 -20.85937,20.85962 v 0.48442 0.48443 c 0,6.70868 -5.36969,12.07744 -12.07813,12.07744 H 3.90625 2.9375 1.96875 C 0.89533,44.586821 0,45.482291 0,46.555781 v 4.84426 c 0,1.07348 0.89539,1.96896 1.96875,1.96896 H 2.9375 5.69922 c 11.5385,0 20.85938,-9.32047 20.85938,-20.85962 v -0.48443 -0.48442 c 0,-6.70868 5.36969,-12.07744 12.07812,-12.07744 h 6.26563 v 6.54951 a 1.0001,1.0002054 0 0 0 0.002,0.043 v 0.66023 c 0,1.0188 0.80774,1.94357 1.87109,1.94357 h 0.043 0.006 c 0.0757,0 0.11101,-0.0167 0.17188,-0.0254 a 1.0001,1.0002054 0 0 0 0.17773,-0.0195 c -0.0172,0.003 -0.0471,0.002 -0.082,0.004 0.0524,-0.0112 0.13045,-0.0137 0.16992,-0.0254 0.0502,-0.014 0.16743,-0.053 0.30274,-0.11915 0.13322,-0.063 0.23672,-0.12691 0.29883,-0.17189 a 1.0001,1.0002054 0 0 0 0.0176,-0.0137 l 15.36524,-11.65552 c 0.52544,-0.39844 0.75377,-1.01426 0.7539,-1.56853 a 1.0001,1.0002054 0 0 0 0,-0.002 c -0.001,-0.55277 -0.22704,-1.16712 -0.7539,-1.56657 L 47.90263,1.8577914 c 0,0 -0.002,0 -0.002,0 -0.11841,-0.0934 -0.23213,-0.15678 -0.3164,-0.19924 a 1.0001,1.0002054 0 0 0 -0.006,-0.004 c -0.12796,-0.0633 -0.22174,-0.0911 -0.27149,-0.10743 a 1.0001,1.0002054 0 0 0 -0.3125,-0.0488 c 0,0 -0.002,0 -0.002,0 -0.073,-0.01 -0.13544,-0.0293 -0.21484,-0.0293 z m 0.48437,27.1239496 -0.0879,0.0215 a 1.0001,1.0002054 0 0 0 0.0801,-0.0176 c 10e-4,-3.6e-4 0.006,-0.004 0.008,-0.004 z M 46.90439,3.6118014 62.00009,15.060271 c 1e-5,0.003 -1e-5,-0.002 0,0.006 l -15.0957,11.45238 v -0.50591 a 1.0001,1.0002054 0 0 0 -0.002,-0.043 v -7.50664 a 1.0001,1.0002054 0 0 0 -1,-1.0001 h -7.26563 c -7.78178,0 -14.07812,6.29538 -14.07812,14.07765 v 0.48442 0.48443 c 0,10.46556 -8.39423,18.85941 -18.85938,18.85941 H 2.93754 2.00004 v -4.78176 h 0.9375 0.96875 1.79297 c 7.78178,0 14.07813,-6.2954 14.07813,-14.07765 v -0.48443 -0.48442 c 0,-10.46557 8.39424,-18.85941 18.85937,-18.85941 h 7.26563 a 1.0001,1.0002054 0 0 0 1,-1.0001 V 4.4127914 a 1.0001,1.0002054 0 0 0 0.002,-0.0567 z m 15.13281,11.4269896 -0.0273,0.0215 c -3.6e-4,-5.7e-4 -0.002,-10e-4 -0.002,-0.002 3.6e-4,0.0107 -0.002,0.004 0.0293,-0.0195 z m -15.05664,11.59497 c 0.0657,0 0.0982,0.006 0.0977,0.006 -2.9e-4,-4e-5 -0.0947,0.005 -0.17383,0.008 v -0.002 z" />
    <path
       id="rect1112-6-7-2-1-6-7-5-9-3-1-9-8-3-1-3-5"
       style="fill:#68bace;fill-opacity:1;stroke-width:4.35918;stroke-linecap:round;stroke-linejoin:round;stroke-dashoffset:2.1875"
       d="m 15.33697,14.135961 c -2.84835,-1.58977 -6.12985,-2.50324 -9.63762,-2.5035 l -2.76099,0.003 -0.96804,3.6e-4 c -0.53673,1.1e-4 -0.97025,0.43246 -0.97026,0.96912 l 2e-5,4.84341 c 2e-5,0.53659 0.43331,0.96876 0.97009,0.96857 l 0.96804,-3.6e-4 0.96805,-4.1e-4 h 1.79365 c 2.77133,1.4e-4 5.32157,0.8707 7.42961,2.33193 l 9.2e-4,-0.002 0.83894,0.48435 c 0.46476,0.26839 1.055,0.1102 1.32328,-0.35481 l 2.43127,-4.21099 c 0.26823,-0.46457 0.11022,-1.05491 -0.35457,-1.32322 l -0.83893,-0.48438 c -0.38885,-0.25411 -0.78647,-0.49455 -1.19345,-0.72165 z m 31.79375,22.28804 c -0.0476,-0.0257 -0.0977,-0.0407 -0.14828,-0.0572 -0.002,0 -0.003,8e-5 -0.004,-2.9e-4 -0.0488,-0.0146 -0.10194,-0.0256 -0.15363,-0.0256 l -0.005,9.6e-4 -0.0441,7e-4 c -0.48338,4e-5 -0.87041,0.4202 -0.87042,0.94379 l 1.6e-4,0.70355 -0.002,6.6e-4 3.9e-4,7.54825 -7.26611,-4.4e-4 c -3.19385,0 -6.10032,-1.14915 -8.36538,-3.03826 l -9.7e-4,0.002 -0.83893,-0.48434 c -0.46477,-0.26839 -1.05496,-0.11021 -1.32328,0.3548 l -2.45303,4.24867 c -0.26833,0.46475 -0.11013,1.05483 0.35457,1.32323 l 0.83893,0.48438 c 3.29337,2.43616 7.35888,3.89362 11.78865,3.89377 l 7.26447,-5.2e-4 2e-4,7.32539 0.002,9.5e-4 10e-4,0.94004 c 3e-5,0.52396 0.38731,0.94397 0.87069,0.94397 0.0721,-6.6e-4 0.14033,-0.011 0.20686,-0.0293 l 0.0121,-0.002 c 0.0481,-0.0146 0.0952,-0.0293 0.13961,-0.0527 0.0524,-0.0256 0.10252,-0.0542 0.14873,-0.0912 L 62.6434,49.708651 c 0.24249,-0.1838 0.35603,-0.47595 0.35665,-0.77278 -1e-4,-0.29732 -0.11434,-0.58585 -0.35727,-0.7699 l -15.3643,-11.65593 c -0.0448,-0.0329 -0.096,-0.063 -0.14656,-0.0868 z" />
    <path
       id="rect1112-6-7-2-1-6-7-5-9-3-1-2-7-0-6-4"
       style="fill:#68bace;fill-opacity:1;stroke-width:4.35938;stroke-linecap:round;stroke-linejoin:round;stroke-dashoffset:2.1875"
       d="m 46.77681,1.4724314 c -0.48338,0 -0.87224,0.42056 -0.87224,0.94418 v 0.94037 h -0.002 v 7.3243596 h -7.26556 c -11.00196,0 -19.85917,8.8573 -19.85917,19.85941 v 0.48442 0.48437 c 0,7.24531 -5.83277,13.07813 -13.07798,13.07813 H 3.90621 2.93748 1.96873 C 1.43206,44.587671 1,45.019801 1,45.556471 v 4.84375 c 0,0.5367 0.43206,0.96878 0.96873,0.96878 h 0.96875 v 0 H 5.6999 c 11.00197,0 19.85917,-8.85734 19.85917,-19.85946 v -0.48437 -0.48442 c 0,-7.2453 5.83278,-13.07817 13.07799,-13.07817 h 7.26556 v 7.54942 h 0.002 v 0.70389 c 0,0.52359 0.38885,0.94414 0.87224,0.94414 h 0.0416 0.006 c 0.0521,0 0.10402,-0.011 0.15326,-0.0256 0.002,-4e-4 0.002,0 0.004,0 0.0516,-0.0146 0.1019,-0.0292 0.14946,-0.0553 0.0513,-0.022 0.10015,-0.0542 0.1457,-0.0872 l 15.3655,-11.65538 c 0.24291,-0.18418 0.35755,-0.47459 0.35762,-0.77188 -6.2e-4,-0.29697 -0.11515,-0.58822 -0.35762,-0.77204 L 47.28258,1.6430214 c -0.0463,-0.0366 -0.0952,-0.0648 -0.1476,-0.0912 -0.0445,-0.022 -0.0919,-0.0377 -0.14002,-0.0535 h -0.0113 c -0.0666,-0.0183 -0.13452,-0.0293 -0.20624,-0.0293 z" />
    <path
       id="rect1112-6-7-2-1-6-7-5-9-3-1-2-7-0-6-4-6-9"
       style="color:#000000;font-style:normal;font-variant:normal;font-weight:normal;font-stretch:normal;font-size:medium;line-height:normal;font-family:sans-serif;font-variant-ligatures:normal;font-variant-position:normal;font-variant-caps:normal;font-variant-numeric:normal;font-variant-alternates:normal;font-variant-east-asian:normal;font-feature-settings:normal;font-variation-settings:normal;text-indent:0;text-align:start;text-decoration:none;text-decoration-line:none;text-decoration-style:solid;text-decoration-color:#000000;letter-spacing:normal;word-spacing:normal;text-transform:none;writing-mode:lr-tb;direction:ltr;text-orientation:mixed;dominant-baseline:auto;baseline-shift:baseline;text-anchor:start;white-space:normal;shape-padding:0;shape-margin:0;inline-size:0;clip-rule:nonzero;display:inline;overflow:visible;visibility:visible;opacity:0.95;isolation:auto;mix-blend-mode:normal;color-interpolation:sRGB;color-interpolation-filters:linearRGB;solid-color:#000000;solid-opacity:1;vector-effect:none;fill:#245d6b;fill-opacity:1;fill-rule:nonzero;stroke:none;stroke-width:1.00005;stroke-linecap:round;stroke-linejoin:round;stroke-miterlimit:4;stroke-dasharray:none;stroke-dashoffset:2.1875;stroke-opacity:1;color-rendering:auto;image-rendering:auto;shape-rendering:auto;text-rendering:auto;enable-background:accumulate;stop-color:#000000"
       d="m 46.77744,0.4690014 a 1.0001,1.0002054 0 0 0 -0.74414,0.3301 1.0001,1.0002054 0 0 0 -0.002,0.002 c -0.63309,0.32568 -1.12695,0.88091 -1.12695,1.6154 v 0.88292 a 1.0001,1.0002054 0 0 0 -0.002,0.0566 v 6.32489 h -6.26563 c -11.53848,0 -20.85937,9.3204596 -20.85937,20.8596196 v 0.48442 0.48443 c 0,6.70868 -5.36969,12.07744 -12.07813,12.07744 H 3.90625 2.9375 1.96875 C 0.89533,43.586821 0,44.482291 0,45.555781 v 4.84426 c 0,1.07348 0.89539,1.96896 1.96875,1.96896 H 2.9375 5.69922 c 11.5385,0 20.85938,-9.32047 20.85938,-20.85962 v -0.48443 -0.48442 c 0,-6.70868 5.36969,-12.07744 12.07812,-12.07744 h 6.26563 v 6.54951 a 1.0001,1.0002054 0 0 0 0.002,0.043 v 0.66023 c 0,1.0188 0.80774,1.94357 1.87109,1.94357 h 0.043 0.006 c 0.0757,0 0.11101,-0.0167 0.17188,-0.0254 a 1.0001,1.0002054 0 0 0 0.17773,-0.0195 c -0.0172,0.003 -0.0471,0.002 -0.082,0.004 0.0524,-0.0112 0.13045,-0.0137 0.16992,-0.0254 0.0502,-0.014 0.16743,-0.053 0.30274,-0.11915 0.13322,-0.063 0.23672,-0.12691 0.29883,-0.17189 a 1.0001,1.0002054 0 0 0 0.0176,-0.0137 l 15.36524,-11.65552 c 0.52544,-0.39844 0.75377,-1.01426 0.7539,-1.56853 a 1.0001,1.0002054 0 0 0 0,-0.002 c -0.001,-0.55277 -0.22704,-1.16712 -0.7539,-1.56657 L 47.90263,0.8577914 c 0,0 -0.002,0 -0.002,0 -0.11841,-0.0934 -0.23213,-0.15678 -0.3164,-0.19924 a 1.0001,1.0002054 0 0 0 -0.006,-0.004 c -0.12796,-0.0633 -0.22174,-0.0911 -0.27149,-0.10743 a 1.0001,1.0002054 0 0 0 -0.3125,-0.0488 c 0,0 -0.002,0 -0.002,0 -0.073,-0.01 -0.13544,-0.0293 -0.21484,-0.0293 z m 0.48437,27.1239496 -0.0879,0.0215 a 1.0001,1.0002054 0 0 0 0.0801,-0.0176 c 10e-4,-3.6e-4 0.006,-0.004 0.008,-0.004 z M 46.90439,2.6118014 62.00009,14.060271 c 1e-5,0.003 -1e-5,-0.002 0,0.006 l -15.0957,11.45238 v -0.50591 a 1.0001,1.0002054 0 0 0 -0.002,-0.043 v -7.50664 a 1.0001,1.0002054 0 0 0 -1,-1.0001 h -7.26563 c -7.78178,0 -14.07812,6.29538 -14.07812,14.07765 v 0.48442 0.48443 c 0,10.46556 -8.39423,18.85941 -18.85938,18.85941 H 2.93754 2.00004 v -4.78176 h 0.9375 0.96875 1.79297 c 7.78178,0 14.07813,-6.2954 14.07813,-14.07765 v -0.48443 -0.48442 c 0,-10.46557 8.39424,-18.85941 18.85937,-18.85941 h 7.26563 a 1.0001,1.0002054 0 0 0 1,-1.0001 V 3.4127914 a 1.0001,1.0002054 0 0 0 0.002,-0.0567 z m 15.13281,11.4269896 -0.0273,0.0215 c -3.6e-4,-5.7e-4 -0.002,-10e-4 -0.002,-0.002 3.6e-4,0.0107 -0.002,0.004 0.0293,-0.0195 z m -15.05664,11.59497 c 0.0657,0 0.0982,0.006 0.0977,0.006 -2.9e-4,-4e-5 -0.0947,0.005 -0.17383,0.008 v -0.002 z" />
    <path
       id="rect1112-6-7-2-1-6-7-5-9-3-1-9-8-3-1-3-5-6-4-4-2"
       style="color:#000000;font-style:normal;font-variant:normal;font-weight:normal;font-stretch:normal;font-size:medium;line-height:normal;font-family:sans-serif;font-variant-ligatures:normal;font-variant-position:normal;font-variant-caps:normal;font-variant-numeric:normal;font-variant-alternates:normal;font-variant-east-asian:normal;font-feature-settings:normal;font-variation-settings:normal;text-indent:0;text-align:start;text-decoration:none;text-decoration-line:none;text-decoration-style:solid;text-decoration-color:#000000;letter-spacing:normal;word-spacing:normal;text-transform:none;writing-mode:lr-tb;direction:ltr;text-orientation:mixed;dominant-baseline:auto;baseline-shift:baseline;text-anchor:start;white-space:normal;shape-padding:0;shape-margin:0;inline-size:0;clip-rule:nonzero;display:inline;overflow:visible;visibility:visible;opacity:0.95;isolation:auto;mix-blend-mode:normal;color-interpolation:sRGB;color-interpolation-filters:linearRGB;solid-color:#000000;solid-opacity:1;vector-effect:none;fill:#245d6b;fill-opacity:1;fill-rule:nonzero;stroke:none;stroke-width:1.00001;stroke-linecap:round;stroke-linejoin:round;stroke-miterlimit:4;stroke-dasharray:none;stroke-dashoffset:2.1875;stroke-opacity:1;color-rendering:auto;image-rendering:auto;shape-rendering:auto;text-rendering:auto;enable-background:accumulate;stop-color:#000000"
       d="m 5.69722,10.632001 -2.75974,0.002 -0.96875,0.002 C 0.89513,10.636221 2e-5,11.531471 0,12.606701 v 4.84375 c 4e-5,1.07494 0.89505,1.96718 1.96873,1.9668 h 0.96875 0.96874 1.79295 c 2.56195,1.3e-4 4.90882,0.80222 6.85933,2.15429 a 1.0000839,1.0001295 0 0 0 0.12694,0.0742 1.0000839,1.0001295 0 0 0 0.0195,0.01 l 0.76367,0.4414 c 0.92962,0.53682 2.15294,0.2092 2.68943,-0.7207 l 2.43163,-4.21094 c 0.53669,-0.92954 0.2091,-2.15267 -0.72071,-2.68945 l -0.83983,-0.48437 c -0.39361,-0.25574 -0.79398,-0.49913 -1.20507,-0.72852 a 1.0000839,1.0001295 0 0 0 -0.23437,-0.0937 1.0000839,1.0001295 0 0 0 -0.006,-0.002 C 12.64479,11.574351 9.2882,10.634521 5.699,10.634251 a 1.0000839,1.0001295 0 0 0 -0.002,0 z m 0.002,2 c 3.33421,2.5e-4 6.44504,0.86699 9.15032,2.37695 a 1.0000839,1.0001295 0 0 0 0.0195,0.0117 c 0.37976,0.21251 0.75027,0.43662 1.11327,0.67383 a 1.0000839,1.0001295 0 0 0 0.0469,0.0293 l 0.81249,0.46875 -2.40037,4.1582 -0.81249,-0.46875 a 1.0000839,1.0001295 0 0 0 -0.19727,-0.0859 c -2.2178,-1.47034 -4.85829,-2.37876 -7.73236,-2.3789 H 3.90626 a 1.0000839,1.0001295 0 0 0 -0.002,0 H 2.93747 1.99997 v -4.77932 l 0.9375,-0.002 a 1.0000839,1.0001295 0 0 0 0.002,0 z m 41.12466,22.70703 v 0.002 a 1.0000839,1.0001295 0 0 0 -0.0488,0.002 c -1.01876,9e-5 -1.78692,0.85622 -1.84959,1.82226 -0.004,0.0181 -0.0215,0.0295 -0.0215,0.0488 v 0.74024 a 1.0000839,1.0001295 0 0 0 -0.002,0.0371 l 0.002,6.54882 -6.26753,-0.002 c -2.954,0 -5.62943,-1.0573 -7.72455,-2.80469 a 1.0000839,1.0001295 0 0 0 -0.18163,-0.12109 1.0000839,1.0001295 0 0 0 -0.0293,-0.0156 l -0.76953,-0.44531 c -0.92959,-0.53682 -2.15291,-0.20715 -2.68943,0.72266 l -2.45311,4.24805 c -0.53672,0.92958 -0.20854,2.15273 0.72071,2.68945 l 0.81249,0.46875 c 3.44467,2.52731 7.69705,4.04281 12.3163,4.04297 h 6.26363 v 5.4414 0.88282 0.61718 c 0,0.007 0.007,0.0108 0.008,0.0176 l -0.004,-0.002 v 0.30859 c 6e-5,1.01673 0.80846,1.94336 1.87108,1.94336 a 1.0000839,1.0001295 0 0 0 0.008,0 c 0.15914,-10e-4 0.31471,-0.0246 0.45508,-0.0625 a 1.0000839,1.0001295 0 0 0 0.006,-0.002 h 0.002 a 1.0000839,1.0001295 0 0 0 0.0371,-0.01 c 0.0504,-0.0153 0.16202,-0.0487 0.30078,-0.11914 0.0891,-0.044 0.2014,-0.1044 0.32225,-0.20117 l 15.33973,-11.63281 c 0.52809,-0.4012 0.75079,-1.01648 0.75194,-1.56641 a 1.0000839,1.0001295 0 0 0 0,-0.002 c -1.8e-4,-0.55328 -0.23028,-1.16969 -0.75389,-1.56641 L 47.88294,35.713701 a 1.0000839,1.0001295 0 0 0 -0.0117,-0.01 c -0.0891,-0.0655 -0.17919,-0.11399 -0.27148,-0.16016 h 0.006 c -0.0101,-0.005 -0.01,-0.005 -0.0195,-0.01 -0.0101,-0.005 -0.0191,-0.0128 -0.0293,-0.0176 a 1.0000839,1.0001295 0 0 0 -0.15625,-0.0586 1.0000839,1.0001295 0 0 0 -0.004,0 c -0.0225,-0.007 -0.0699,-0.0314 -0.082,-0.0352 -10e-4,-3.1e-4 -0.008,-9.6e-4 -0.01,-0.002 a 1.0000839,1.0001295 0 0 0 -0.0117,-0.006 1.0000839,1.0001295 0 0 0 -0.0273,-0.008 1.0000839,1.0001295 0 0 0 -0.1211,-0.0273 c -1.2e-4,-2e-5 0.0424,0.0104 0.084,0.0215 -0.0571,-0.0164 -0.14563,-0.0237 -0.22266,-0.0351 -0.003,-2e-5 -0.005,-4e-5 -0.006,0 -0.0613,-0.009 -0.0987,-0.0274 -0.17578,-0.0274 z m 0.0801,2.14453 15.09558,11.45118 c -2e-5,0.009 -7e-5,0.005 0,0.008 l -15.09363,11.44726 -0.002,-0.74218 a 1.0000839,1.0001295 0 0 0 -0.002,-0.041 v -0.5918 -0.25 -6.4414 a 1.0000839,1.0001295 0 0 0 -0.99999,-1 h -7.26362 c -4.21046,-1.5e-4 -8.06488,-1.38167 -11.19522,-3.69727 a 1.0000839,1.0001295 0 0 0 -0.0937,-0.0625 l -0.81249,-0.46875 2.42186,-4.19531 0.81249,0.46875 a 1.0000839,1.0001295 0 0 0 0.16015,0.0742 c 2.39513,1.90091 5.39624,3.0957 8.70501,3.0957 l 7.26752,0.002 a 1.0000839,1.0001295 0 0 0 0.99999,-1 l -0.002,-6.82226 c 2e-5,-0.002 0.002,-0.002 0.002,-0.004 v -0.72265 z m 15.1073,11.45899 0.0273,0.0215 c -0.0279,-0.0211 -0.0279,-0.0268 -0.0293,-0.0195 0,0 0.002,-0.002 0.002,-0.002 z m -16.61315,11.57226 h 0.006 a 1.0000839,1.0001295 0 0 0 0.0391,0.0215 z" />
  </g>
</svg>
