<?xml version="1.0" encoding="UTF-8" standalone="no"?>
<svg
   xmlns:dc="http://purl.org/dc/elements/1.1/"
   xmlns:cc="http://creativecommons.org/ns#"
   xmlns:rdf="http://www.w3.org/1999/02/22-rdf-syntax-ns#"
   xmlns:svg="http://www.w3.org/2000/svg"
   xmlns="http://www.w3.org/2000/svg"
   xmlns:sodipodi="http://sodipodi.sourceforge.net/DTD/sodipodi-0.dtd"
   xmlns:inkscape="http://www.inkscape.org/namespaces/inkscape"
   width="64"
   height="64"
   viewBox="0 0 16.933333 16.933334"
   version="1.1"
   id="svg841"
   inkscape:version="1.0.2 (e86c870879, 2021-01-15)"
   sodipodi:docname="application-rss+xml-symbolic.svg">
  <defs
     id="defs835" />
  <sodipodi:namedview
     id="base"
     pagecolor="#c4c4c4"
     bordercolor="#666666"
     borderopacity="1.0"
     inkscape:pageopacity="0"
     inkscape:pageshadow="2"
     inkscape:zoom="2.9940999"
     inkscape:cx="-40.801412"
     inkscape:cy="37.49713"
     inkscape:document-units="px"
     inkscape:current-layer="layer1"
     inkscape:document-rotation="0"
     showgrid="false"
     units="px"
     inkscape:window-width="2048"
     inkscape:window-height="1080"
     inkscape:window-x="0"
     inkscape:window-y="0"
     inkscape:window-maximized="1" />
  <metadata
     id="metadata838">
    <rdf:RDF>
      <cc:Work
         rdf:about="">
        <dc:format>image/svg+xml</dc:format>
        <dc:type
           rdf:resource="http://purl.org/dc/dcmitype/StillImage" />
        <dc:title></dc:title>
      </cc:Work>
    </rdf:RDF>
  </metadata>
  <g
     inkscape:label="Layer 1"
     inkscape:groupmode="layer"
     id="layer1">
    <path
       id="path903-56-9-0-9-2-3"
       style="color:#000000;font-style:normal;font-variant:normal;font-weight:normal;font-stretch:normal;font-size:medium;line-height:normal;font-family:sans-serif;font-variant-ligatures:normal;font-variant-position:normal;font-variant-caps:normal;font-variant-numeric:normal;font-variant-alternates:normal;font-variant-east-asian:normal;font-feature-settings:normal;font-variation-settings:normal;text-indent:0;text-align:start;text-decoration:none;text-decoration-line:none;text-decoration-style:solid;text-decoration-color:#000000;letter-spacing:normal;word-spacing:normal;text-transform:none;writing-mode:lr-tb;direction:ltr;text-orientation:mixed;dominant-baseline:auto;baseline-shift:baseline;text-anchor:start;white-space:normal;shape-padding:0;shape-margin:0;inline-size:0;clip-rule:nonzero;display:inline;overflow:visible;visibility:visible;isolation:auto;mix-blend-mode:normal;color-interpolation:sRGB;color-interpolation-filters:linearRGB;solid-color:#000000;solid-opacity:1;vector-effect:none;fill:#808084;fill-opacity:1;fill-rule:nonzero;stroke:none;stroke-width:1.00004;stroke-linecap:square;stroke-linejoin:round;stroke-miterlimit:4;stroke-dasharray:none;stroke-dashoffset:2.1875;stroke-opacity:1;color-rendering:auto;image-rendering:auto;shape-rendering:auto;text-rendering:auto;enable-background:accumulate;stop-color:#000000"
       d="m 1.8520777,1.5874874 c -0.146579,0 -0.264584,0.1180033 -0.264584,0.2645833 v 1.5875 c 0,0.1465789 0.118005,0.2645834 0.264584,0.2645834 h 0.239262 v 5.291e-4 h 0.554488 c 5.85777,0 10.5828173,4.7245301 10.5828173,10.5822998 v 0.553455 h 5.29e-4 v 0.240812 c 0,0.146579 0.118004,0.264583 0.264583,0.264583 h 1.5875 c 0.14658,0 0.264583,-0.118004 0.264583,-0.264583 V 14.840438 14.2875 14.286971 C 15.34584,7.2852388 9.6475827,1.5874874 2.6458397,1.5874874 h -0.5545 z m 0,4.2333334 c -0.146579,0 -0.264584,0.1180044 -0.264584,0.2645833 v 1.5875001 c 0,0.1465789 0.118005,0.2645833 0.264584,0.2645833 h 0.264583 v 5.292e-4 h 0.527616 c 3.520117,0 6.352584,2.8296133 6.352584,6.3489663 v 5.3e-4 h -10e-4 v 0.79375 c 0,0.146578 0.118005,0.264583 0.264584,0.264583 h 1.5875003 c 0.146579,0 0.264583,-0.118005 0.264583,-0.264583 v -0.264584 -0.529166 -5.3e-4 c 0,-4.6626907 -3.8031423,-8.4653039 -8.4666673,-8.4661498 h -0.529166 z m 1.852083,5.2916672 a 2.1166668,2.1166668 0 0 0 -2.116667,2.116666 2.1166668,2.1166668 0 0 0 2.116667,2.116667 2.1166668,2.1166668 0 0 0 2.116667,-2.116667 2.1166668,2.1166668 0 0 0 -2.116667,-2.116666 z" />
  </g>
</svg>
