<?xml version="1.0" encoding="UTF-8" standalone="no"?>
<svg
   xmlns:dc="http://purl.org/dc/elements/1.1/"
   xmlns:cc="http://creativecommons.org/ns#"
   xmlns:rdf="http://www.w3.org/1999/02/22-rdf-syntax-ns#"
   xmlns:svg="http://www.w3.org/2000/svg"
   xmlns="http://www.w3.org/2000/svg"
   xmlns:sodipodi="http://sodipodi.sourceforge.net/DTD/sodipodi-0.dtd"
   xmlns:inkscape="http://www.inkscape.org/namespaces/inkscape"
   width="64"
   height="64"
   viewBox="0 0 64 64"
   version="1.1"
   id="svg6374"
   inkscape:version="1.0.2 (e86c870879, 2021-01-15)"
   sodipodi:docname="battery-level-10-symbolic.svg">
  <defs
     id="defs6368" />
  <sodipodi:namedview
     id="base"
     pagecolor="#cecece"
     bordercolor="#666666"
     borderopacity="1.0"
     inkscape:pageopacity="0"
     inkscape:pageshadow="2"
     inkscape:zoom="2.6046575"
     inkscape:cx="99.491889"
     inkscape:cy="34.957558"
     inkscape:document-units="px"
     inkscape:current-layer="layer1"
     inkscape:document-rotation="0"
     showgrid="false"
     units="px"
     inkscape:window-width="1500"
     inkscape:window-height="970"
     inkscape:window-x="68"
     inkscape:window-y="56"
     inkscape:window-maximized="0" />
  <metadata
     id="metadata6371">
    <rdf:RDF>
      <cc:Work
         rdf:about="">
        <dc:format>image/svg+xml</dc:format>
        <dc:type
           rdf:resource="http://purl.org/dc/dcmitype/StillImage" />
        <dc:title></dc:title>
      </cc:Work>
    </rdf:RDF>
  </metadata>
  <g
     inkscape:label="Layer 1"
     inkscape:groupmode="layer"
     id="layer1">
    <path
       id="rect867-5-7-5-2-9-4"
       style="opacity:0.75;fill:#bc5b34;fill-opacity:1;stroke:none;stroke-width:3.5;stroke-dashoffset:2.1875"
       d="M 12.3999,18.4983 V 45.49829 H 10.5 c -1.6619999,0 -2.9999999,-1.338 -2.9999999,-2.99999 v -21 c 0,-1.66201 1.338,-3 2.9999999,-3 z"
       class="warning" />
    <path
       id="rect865-2-7"
       style="fill:#bc5b34;fill-opacity:1;stroke:none;stroke-width:3.5;stroke-dashoffset:2.1875"
       d="M 7.0000001,11 C 3.122,11 0,14.12197 0,18 v 27.99997 c 0,3.87802 3.122,7.00002 7.0000001,7.00002 H 57 c 3.878,0 6.99999,-3.122 6.99999,-7.00002 V 18 C 63.99999,14.12197 60.878,11 57,11 Z m 0,3.49997 H 57 c 1.939,0 3.5,1.56102 3.5,3.50003 v 27.99997 c 0,1.939 -1.561,3.50002 -3.5,3.50002 H 7.0000001 C 5.0610001,49.49999 3.5,47.93897 3.5,45.99997 V 18 c 0,-1.93901 1.5610001,-3.50003 3.5000001,-3.50003 z"
       class="warning" />
  </g>
</svg>
