<?xml version="1.0" encoding="UTF-8" standalone="no"?>
<svg
   xmlns:dc="http://purl.org/dc/elements/1.1/"
   xmlns:cc="http://creativecommons.org/ns#"
   xmlns:rdf="http://www.w3.org/1999/02/22-rdf-syntax-ns#"
   xmlns:svg="http://www.w3.org/2000/svg"
   xmlns="http://www.w3.org/2000/svg"
   xmlns:sodipodi="http://sodipodi.sourceforge.net/DTD/sodipodi-0.dtd"
   xmlns:inkscape="http://www.inkscape.org/namespaces/inkscape"
   width="64"
   height="64"
   viewBox="0 0 64 64"
   version="1.1"
   id="svg6374"
   inkscape:version="1.0.2 (e86c870879, 2021-01-15)"
   sodipodi:docname="battery-level-0-symbolic.svg">
  <defs
     id="defs6368" />
  <sodipodi:namedview
     id="base"
     pagecolor="#cecece"
     bordercolor="#666666"
     borderopacity="1.0"
     inkscape:pageopacity="0"
     inkscape:pageshadow="2"
     inkscape:zoom="2.6046575"
     inkscape:cx="99.491889"
     inkscape:cy="34.957558"
     inkscape:document-units="px"
     inkscape:current-layer="layer1"
     inkscape:document-rotation="0"
     showgrid="false"
     units="px"
     inkscape:window-width="1500"
     inkscape:window-height="970"
     inkscape:window-x="68"
     inkscape:window-y="56"
     inkscape:window-maximized="0" />
  <metadata
     id="metadata6371">
    <rdf:RDF>
      <cc:Work
         rdf:about="">
        <dc:format>image/svg+xml</dc:format>
        <dc:type
           rdf:resource="http://purl.org/dc/dcmitype/StillImage" />
        <dc:title></dc:title>
      </cc:Work>
    </rdf:RDF>
  </metadata>
  <g
     inkscape:label="Layer 1"
     inkscape:groupmode="layer"
     id="layer1">
    <path
       id="path41-6-5-3"
       style="display:inline;fill:#bc5b34;fill-opacity:1;stroke:none;stroke-width:5.4806;stroke-linecap:round;stroke-linejoin:round;stop-color:#000000"
       d="m 27.688,2.6 c -0.65151,0 -1.176,0.5245 -1.176,1.176 v 35.2801 c 0,0.6515 0.52449,1.176 1.176,1.176 h 8.62399 c 0.65151,0 1.176,-0.5245 1.176,-1.176 V 3.776 c 0,-0.6515 -0.52449,-1.176 -1.176,-1.176 z m 4.30971,44.6881 A 7.0560005,7.0560305 0 0 0 24.944,54.3442 7.0560005,7.0560305 0 0 0 32,61.4002 7.0560005,7.0560305 0 0 0 39.056,54.3442 7.0560005,7.0560305 0 0 0 32,47.2881 a 7.0560005,7.0560305 0 0 0 -0.003,0 z"
       class="warning" />
    <path
       id="rect865-2-7-7-3"
       style="fill:#bc5b34;fill-opacity:1;stroke:none;stroke-width:3.5;stroke-dashoffset:2.1875"
       d="M 7.0000002,11.0001 C 3.1220002,11.0001 0,14.1221 0,18.0001 v 28 c 0,3.878 3.1220002,7 7.0000002,7 H 14.94385 v -3.5 H 7.0000002 c -1.939,0 -3.5,-1.561 -3.5,-3.5 v -28 c 0,-1.939 1.561,-3.5 3.5,-3.5 H 19.94385 v -3.5 z m 37.0561498,0 v 3.5 H 57 c 1.939,0 3.5,1.561 3.5,3.5 v 28 c 0,1.939 -1.561,3.5 -3.5,3.5 h -7.94385 v 3.5 H 57 c 3.878,0 6.99999,-3.122 6.99999,-7 v -28 c 0,-3.878 -3.12199,-7 -6.99999,-7 z"
       class="warning" />
  </g>
</svg>
