<?xml version="1.0" encoding="UTF-8" standalone="no"?>
<svg
   xmlns:dc="http://purl.org/dc/elements/1.1/"
   xmlns:cc="http://creativecommons.org/ns#"
   xmlns:rdf="http://www.w3.org/1999/02/22-rdf-syntax-ns#"
   xmlns:svg="http://www.w3.org/2000/svg"
   xmlns="http://www.w3.org/2000/svg"
   xmlns:sodipodi="http://sodipodi.sourceforge.net/DTD/sodipodi-0.dtd"
   xmlns:inkscape="http://www.inkscape.org/namespaces/inkscape"
   width="64"
   height="64"
   viewBox="0 0 16.933333 16.933334"
   version="1.1"
   id="svg841"
   inkscape:version="1.0.2 (e86c870879, 2021-01-15)"
   sodipodi:docname="bluetooth-active-symbolic.svg">
  <defs
     id="defs835" />
  <sodipodi:namedview
     id="base"
     pagecolor="#c4c4c4"
     bordercolor="#666666"
     borderopacity="1.0"
     inkscape:pageopacity="0"
     inkscape:pageshadow="2"
     inkscape:zoom="3.7557333"
     inkscape:cx="75.307841"
     inkscape:cy="76.309853"
     inkscape:document-units="px"
     inkscape:current-layer="layer1"
     inkscape:document-rotation="0"
     showgrid="false"
     units="px"
     inkscape:window-width="2048"
     inkscape:window-height="1080"
     inkscape:window-x="0"
     inkscape:window-y="0"
     inkscape:window-maximized="1" />
  <metadata
     id="metadata838">
    <rdf:RDF>
      <cc:Work
         rdf:about="">
        <dc:format>image/svg+xml</dc:format>
        <dc:type
           rdf:resource="http://purl.org/dc/dcmitype/StillImage" />
        <dc:title />
      </cc:Work>
    </rdf:RDF>
  </metadata>
  <g
     inkscape:label="Layer 1"
     inkscape:groupmode="layer"
     id="layer1">
    <path
       id="path1167-3-9-7-3-3"
       style="fill:#808084;fill-opacity:1;stroke-width:1.18771;stroke-linecap:round;stroke-linejoin:round;stop-color:#000000"
       d="M 8.4666667,4.9999994e-8 A 6.6405227,8.4666669 0 0 0 1.8262447,8.4666664 6.6405227,8.4666669 0 0 0 8.4666667,16.933333 6.6405227,8.4666669 0 0 0 15.107089,8.4666664 6.6405227,8.4666669 0 0 0 8.4666667,4.9999994e-8 Z M 7.8827227,1.4856975 v 5.159e-4 a 0.39847121,0.39847121 0 0 1 0.271818,0.1121379 l 0.358635,0.3462321 0.695565,0.6717936 2.6060423,2.5161257 0.260449,0.251664 A 0.39847121,0.39847121 0 0 1 12.049392,5.980513 L 11.767756,6.2078893 8.9524237,8.4873364 a 0.39847121,0.39847121 0 0 1 -0.0098,0.0083 l 0.26665,0.257349 2.6055263,2.5161256 0.260449,0.251147 a 0.39847121,0.39847121 0 0 1 -0.02584,0.596346 l -0.281637,0.227893 -2.8148153,2.279448 -0.24598,0.198954 -0.219625,0.178284 -0.358634,0.289905 a 0.39847121,0.39847121 0 0 1 -0.649054,-0.309025 v -0.461987 -0.615983 a 0.39847121,0.39847121 0 0 1 5.29e-4,-0.01705 0.39847121,0.39847121 0 0 1 -5.29e-4,-0.01447 V 9.6795474 l -1.863452,1.5084346 a 0.39847121,0.39847121 0 0 1 -0.555522,-0.05323 l -0.230494,-0.274433 a 0.39847121,0.39847121 0 0 1 0.05426,-0.566374 L 7.2000767,8.4191244 4.8586167,6.157247 A 0.39847121,0.39847121 0 0 1 4.8482837,5.5939739 l 0.24908,-0.2578653 a 0.39847121,0.39847121 0 0 1 0.563273,-0.00982 l 1.818494,1.7559653 V 2.3828004 1.8846395 a 0.39847121,0.39847121 0 0 1 0.385506,-0.3984253 0.39847121,0.39847121 0 0 1 0.01809,-5.159e-4 z m 0.752409,2.1838461 V 7.2569215 L 10.656197,5.6208458 Z m 0,6.1360598 v 3.5884106 l 2.0210653,-1.636592 z" />
  </g>
</svg>
