<?xml version="1.0" encoding="UTF-8" standalone="no"?>
<svg
   xmlns:dc="http://purl.org/dc/elements/1.1/"
   xmlns:cc="http://creativecommons.org/ns#"
   xmlns:rdf="http://www.w3.org/1999/02/22-rdf-syntax-ns#"
   xmlns:svg="http://www.w3.org/2000/svg"
   xmlns="http://www.w3.org/2000/svg"
   xmlns:sodipodi="http://sodipodi.sourceforge.net/DTD/sodipodi-0.dtd"
   xmlns:inkscape="http://www.inkscape.org/namespaces/inkscape"
   width="64"
   height="64"
   viewBox="0 0 64 64"
   version="1.1"
   id="svg6374"
   inkscape:version="1.0.2 (e86c870879, 2021-01-15)"
   sodipodi:docname="display-brightness-high-symbolic.svg">
  <defs
     id="defs6368" />
  <sodipodi:namedview
     id="base"
     pagecolor="#cecece"
     bordercolor="#666666"
     borderopacity="1.0"
     inkscape:pageopacity="0"
     inkscape:pageshadow="2"
     inkscape:zoom="1.2622617"
     inkscape:cx="108.25178"
     inkscape:cy="80.048091"
     inkscape:document-units="px"
     inkscape:current-layer="layer1"
     inkscape:document-rotation="0"
     showgrid="false"
     units="px"
     inkscape:window-width="1500"
     inkscape:window-height="970"
     inkscape:window-x="68"
     inkscape:window-y="56"
     inkscape:window-maximized="0" />
  <metadata
     id="metadata6371">
    <rdf:RDF>
      <cc:Work
         rdf:about="">
        <dc:format>image/svg+xml</dc:format>
        <dc:type
           rdf:resource="http://purl.org/dc/dcmitype/StillImage" />
        <dc:title></dc:title>
      </cc:Work>
    </rdf:RDF>
  </metadata>
  <g
     inkscape:label="Layer 1"
     inkscape:groupmode="layer"
     id="layer1">
    <path
       id="path1111-3-1-3"
       style="fill:#808084;fill-opacity:1;stroke:none;stroke-width:0.84665;stroke-linecap:round;stroke-linejoin:round;stop-color:#000000"
       d="m 31.994778,0.18202239 a 0.88508747,0.88508845 0 0 0 -0.82739,0.58136 l -2.65671,7.30067001 a 24.189974,24.189999 0 0 0 -10.96915,4.5431196 l -7.04025,-3.2830296 a 0.88508747,0.88508845 0 0 0 -0.40504,-0.0807 0.88508747,0.88508845 0 0 0 -0.7709197,1.2583596 l 3.2824697,7.03909 A 24.189974,24.189999 0 0 0 8.0635213,28.511775 l -7.29838003,2.656153 a 0.88508747,0.88508845 0 0 0 0,1.663983 l 7.29778903,2.656155 a 24.189974,24.189999 0 0 0 4.5448577,10.97204 l -3.2824697,7.039667 a 0.88508747,0.88508845 0 0 0 1.1759597,1.175967 l 7.0391,-3.282452 a 24.189974,24.189999 0 0 0 10.97086,4.544267 l 2.65615,7.298947 a 0.88508747,0.88508845 0 0 0 1.66342,0 l 2.65614,-7.298947 a 24.189974,24.189999 0 0 0 10.9732,-4.544843 l 7.03907,3.283028 a 0.88508747,0.88508845 0 0 0 1.17596,-1.175967 l -3.28302,-7.038516 a 24.189974,24.189999 0 0 0 0,-5.75e-4 24.189974,24.189999 0 0 0 4.54486,-10.972616 l 7.29834,-2.656155 a 0.88508747,0.88508845 0 0 0 0,-1.663983 l -7.29834,-2.656153 a 24.189974,24.189999 0 0 0 -4.5437,-10.970313 l 3.28186,-7.03967 a 0.88508747,0.88508845 0 0 0 -0.86483,-1.2583596 0.88508747,0.88508845 0 0 0 -0.31113,0.0807 l -7.04023,3.2835996 A 24.189974,24.189999 0 0 0 35.487538,8.0640424 l -2.65673,-7.30067001 a 0.88508747,0.88508845 0 0 0 -0.83603,-0.58136 z m 0.006,12.34851961 a 19.469977,19.469999 0 0 1 19.46955,19.469997 19.469977,19.469999 0 0 1 -19.46998,19.47 19.469977,19.469999 0 0 1 -19.46998,-19.47 19.469977,19.469999 0 0 1 19.46998,-19.469997 z" />
    <circle
       style="fill:#808084;fill-opacity:1;stroke:none;stroke-width:6.0323"
       id="path946-3"
       cx="32.000244"
       cy="32.000439"
       r="14.75" />
  </g>
</svg>
