<?xml version="1.0" encoding="UTF-8" standalone="no"?>
<svg
   xmlns:dc="http://purl.org/dc/elements/1.1/"
   xmlns:cc="http://creativecommons.org/ns#"
   xmlns:rdf="http://www.w3.org/1999/02/22-rdf-syntax-ns#"
   xmlns:svg="http://www.w3.org/2000/svg"
   xmlns="http://www.w3.org/2000/svg"
   xmlns:sodipodi="http://sodipodi.sourceforge.net/DTD/sodipodi-0.dtd"
   xmlns:inkscape="http://www.inkscape.org/namespaces/inkscape"
   width="64"
   height="64"
   viewBox="0 0 64 64"
   version="1.1"
   id="svg6374"
   inkscape:version="1.0.2 (e86c870879, 2021-01-15)"
   sodipodi:docname="folder-open-symbolic.svg">
  <defs
     id="defs6368" />
  <sodipodi:namedview
     id="base"
     pagecolor="#cecece"
     bordercolor="#666666"
     borderopacity="1.0"
     inkscape:pageopacity="0"
     inkscape:pageshadow="2"
     inkscape:zoom="1.2622617"
     inkscape:cx="108.25178"
     inkscape:cy="80.048091"
     inkscape:document-units="px"
     inkscape:current-layer="layer1"
     inkscape:document-rotation="0"
     showgrid="false"
     units="px"
     inkscape:window-width="1500"
     inkscape:window-height="970"
     inkscape:window-x="68"
     inkscape:window-y="56"
     inkscape:window-maximized="0" />
  <metadata
     id="metadata6371">
    <rdf:RDF>
      <cc:Work
         rdf:about="">
        <dc:format>image/svg+xml</dc:format>
        <dc:type
           rdf:resource="http://purl.org/dc/dcmitype/StillImage" />
        <dc:title></dc:title>
      </cc:Work>
    </rdf:RDF>
  </metadata>
  <g
     inkscape:label="Layer 1"
     inkscape:groupmode="layer"
     id="layer1">
    <path
       style="opacity:0.25;fill:#808084;fill-opacity:1;stroke-linecap:round;stroke-linejoin:round;stroke-dashoffset:2.1875"
       d="m 34.759861,19.246 h 22.24414 c 1.385,0 2.5,1.115 2.5,2.5 v 6 28 c 0,0.34625 -0.0691,0.67532 -0.19532,0.97461 -0.37851,0.89789 -1.26593,1.52539 -2.30468,1.52539 H 7.0039986 c -0.17378,0 -0.34225,-0.0173 -0.50586,-0.0508 C 6.335109,58.162 6.179039,58.1137 6.029389,58.05066 5.879269,57.98736 5.736928,57.91024 5.603608,57.8202 5.471068,57.7309 5.349101,57.62805 5.236421,57.51551 4.896951,57.17645 4.65447,56.74147 4.55478,56.25184 4.52158,56.08885 4.504,55.9191 4.504,55.74598 v -28 c 0,-1.385 1.115,-2.5 2.4999996,-2.5 h 11.9316414 7.06836 3 c 0.554,0 1.27698,-0.34904 1.62109,-0.78321 l 1.58203,-1.99609 0.004,-0.004 1.92774,-2.43359 z"
       id="path2157-8-7" />
    <path
       style="fill:#323884;fill-opacity:1;stroke-linecap:round;stroke-linejoin:round;stroke-dashoffset:2.1875"
       d="m 27.072266,20.60742 c 0.05486,0.0692 0.08035,0.14744 0.09375,0.22852 0.07824,-0.0507 0.167009,-0.0879 0.267578,-0.0879 h -0.25 z"
       id="path2155-0" />
    <path
       id="rect2863-2-1-97-7"
       style="fill:#808084;fill-opacity:1;stroke-width:1.52448;stroke-linecap:round;stroke-linejoin:round;stroke-dashoffset:2.1875"
       d="m 5,1.25 c -2.77,-1e-5 -5,2.22999 -5,5 v 1 5 8.5 1 2.5 13.5 4 1 6 9 c 0,2.76999 2.23,5 5,5 h 54.000004 c 2.77001,0 5,-2.23001 5,-5 v -9 -6 -1 -4 -13.5 -3.5 -8.5 c 0,-2.77001 -2.23,-5 -5,-5 h -30.24414 l -0.6211,-0.7832 -1.92773,-2.4336 -0.004,-0.004 -1.58203,-1.9961 C 24.276964,1.59953 23.553904,1.25 22.999904,1.25 h -6 -4.000004 z m 29.755864,24.5 h 22.24414 c 1.385,0 2.5,1.115 2.5,2.5 v 6 3.5 4 1 6 7 c 0,0.34625 -0.0691,0.67533 -0.19532,0.97461 -0.37851,0.8979 -1.26593,1.52539 -2.30468,1.52539 H 6.9999996 c -0.17378,0 -0.342249,-0.0173 -0.505859,-0.0508 C 6.331111,58.166 6.175041,58.1177 6.025391,58.05467 5.875271,57.99137 5.732929,57.91424 5.599609,57.8242 5.467069,57.7349 5.345102,57.63205 5.232422,57.51951 4.892952,57.18045 4.650471,56.74547 4.550781,56.25584 4.517581,56.09287 4.500001,55.92312 4.500001,55.75 v -7 -6 -1 -4 -3.5 c 0,-1.385 1.115,-2.5 2.4999996,-2.5 h 11.9316434 7.06836 3 c 0.554,0 1.27698,-0.34903 1.62109,-0.7832 l 1.58203,-1.9961 0.004,-0.004 1.92774,-2.4336 z" />
  </g>
</svg>
