<?xml version="1.0" encoding="UTF-8" standalone="no"?>
<svg
   xmlns:dc="http://purl.org/dc/elements/1.1/"
   xmlns:cc="http://creativecommons.org/ns#"
   xmlns:rdf="http://www.w3.org/1999/02/22-rdf-syntax-ns#"
   xmlns:svg="http://www.w3.org/2000/svg"
   xmlns="http://www.w3.org/2000/svg"
   xmlns:sodipodi="http://sodipodi.sourceforge.net/DTD/sodipodi-0.dtd"
   xmlns:inkscape="http://www.inkscape.org/namespaces/inkscape"
   width="64"
   height="64"
   viewBox="0 0 16.933333 16.933334"
   version="1.1"
   id="svg841"
   inkscape:version="1.0.2 (e86c870879, 2021-01-15)"
   sodipodi:docname="input-dialpad-hidden-symbolic.svg">
  <defs
     id="defs835" />
  <sodipodi:namedview
     id="base"
     pagecolor="#c4c4c4"
     bordercolor="#666666"
     borderopacity="1.0"
     inkscape:pageopacity="0"
     inkscape:pageshadow="2"
     inkscape:zoom="3.5451024"
     inkscape:cx="68.811251"
     inkscape:cy="38.515083"
     inkscape:document-units="px"
     inkscape:current-layer="layer1"
     inkscape:document-rotation="0"
     showgrid="false"
     units="px"
     inkscape:window-width="2048"
     inkscape:window-height="1080"
     inkscape:window-x="0"
     inkscape:window-y="0"
     inkscape:window-maximized="1" />
  <metadata
     id="metadata838">
    <rdf:RDF>
      <cc:Work
         rdf:about="">
        <dc:format>image/svg+xml</dc:format>
        <dc:type
           rdf:resource="http://purl.org/dc/dcmitype/StillImage" />
        <dc:title></dc:title>
      </cc:Work>
    </rdf:RDF>
  </metadata>
  <g
     inkscape:label="Layer 1"
     inkscape:groupmode="layer"
     id="layer1">
    <path
       id="rect2471-6-6-8-1-6-1-36-7-9"
       style="display:inline;opacity:0.5;fill:#808084;fill-opacity:1;stroke:none;stroke-width:1.85208;stroke-miterlimit:4;stroke-dasharray:none;stroke-dashoffset:2.1875;stroke-opacity:1"
       d="m 3.5718794,0.79375 c -0.147627,0 -0.280919,0.059722 -0.376721,0.1565796 l 2.336808,2.3368083 c 0.09686,-0.095802 0.15658,-0.2290937 0.15658,-0.3767212 v -1.5875 c 0,-0.2931583 -0.236009,-0.5291667 -0.529167,-0.5291667 z m 4.2333341,0 c -0.293159,0 -0.529167,0.2360084 -0.529167,0.5291667 v 1.5875 c 0,0.2931584 0.236008,0.5291667 0.529167,0.5291667 h 1.5875 c 0.293158,0 0.529166,-0.2360083 0.529166,-0.5291667 v -1.5875 c 0,-0.2931583 -0.236008,-0.5291667 -0.529166,-0.5291667 z m 3.9687505,0 c -0.29316,0 -0.529167,0.2360084 -0.529167,0.5291667 v 1.5875 c 0,0.2931584 0.236007,0.5291667 0.529167,0.5291667 h 1.5875 c 0.293157,0 0.529165,-0.2360083 0.529165,-0.5291667 v -1.5875 c 0,-0.2931583 -0.236008,-0.5291667 -0.529165,-0.5291667 z M 7.8052135,5.0270834 c -0.147628,0 -0.28092,0.059722 -0.376722,0.1565797 l 2.336809,2.3368087 c 0.09686,-0.0958 0.156579,-0.229094 0.156579,-0.376722 V 5.5562501 c 0,-0.2931583 -0.236008,-0.5291667 -0.529166,-0.5291667 z m 3.9687505,0 c -0.29316,0 -0.529167,0.2360084 -0.529167,0.5291667 v 1.5874997 c 0,0.293159 0.236007,0.529167 0.529167,0.529167 h 1.5875 c 0.293157,0 0.529165,-0.236008 0.529165,-0.529167 V 5.5562501 c 0,-0.2931583 -0.236008,-0.5291667 -0.529165,-0.5291667 z M 3.0912884,5.3361086 c -0.03072,0.06715 -0.04858,0.1412174 -0.04858,0.2201415 v 1.5874997 c 0,0.293159 0.236009,0.529167 0.529167,0.529167 h 1.5875 c 0.07892,0 0.152992,-0.01785 0.220142,-0.04858 z m 0.480591,3.9243082 c -0.293158,0 -0.529167,0.236008 -0.529167,0.529167 v 1.5875002 c 0,0.293158 0.236009,0.529166 0.529167,0.529166 h 1.5875 c 0.293158,0 0.529167,-0.236008 0.529167,-0.529166 V 9.7895838 c 0,-0.293159 -0.236009,-0.529167 -0.529167,-0.529167 z m 8.2020846,0 c -0.07893,0 -0.152992,0.01785 -0.220142,0.04858 l 2.288232,2.2882322 c 0.03072,-0.06715 0.04858,-0.141217 0.04858,-0.220141 V 9.7895878 c 0,-0.293159 -0.236008,-0.529167 -0.529166,-0.529167 z m -4.4493415,0.309025 c -0.03072,0.06715 -0.04858,0.141218 -0.04858,0.220142 v 1.5875002 c 0,0.293158 0.236008,0.529166 0.529167,0.529166 h 1.5875 c 0.07892,0 0.152991,-0.01785 0.220141,-0.04858 z m 0.480591,3.9243082 c -0.293159,0 -0.529167,0.236009 -0.529167,0.529167 v 1.5875 c 0,0.293158 0.236008,0.529167 0.529167,0.529167 h 1.5875 c 0.293158,0 0.529166,-0.236009 0.529166,-0.529167 v -1.5875 c 0,-0.293158 -0.236008,-0.529167 -0.529166,-0.529167 z" />
    <path
       id="rect901-6-7-6-3-7"
       style="fill:#808084;fill-opacity:1;stroke-width:1.32286;stroke-linecap:round;stroke-linejoin:round;stroke-dashoffset:2.1875"
       d="M 1.8810869,0 C 1.6443819,-1.2998606e-5 1.4077508,0.09092 1.2263838,0.27229 0.86364984,0.635021 0.86367884,1.218944 1.2264468,1.58171 L 15.351321,15.706973 c 0.362769,0.362765 0.947215,0.362793 1.309948,6.3e-5 0.362735,-0.362731 0.362707,-0.946654 -6.2e-5,-1.309419 L 2.5358149,0.272354 C 2.3544309,0.090971 2.1177919,1.1001394e-5 1.8810869,0 Z" />
  </g>
</svg>
