<?xml version="1.0" encoding="UTF-8" standalone="no"?>
<svg
   xmlns:dc="http://purl.org/dc/elements/1.1/"
   xmlns:cc="http://creativecommons.org/ns#"
   xmlns:rdf="http://www.w3.org/1999/02/22-rdf-syntax-ns#"
   xmlns:svg="http://www.w3.org/2000/svg"
   xmlns="http://www.w3.org/2000/svg"
   xmlns:sodipodi="http://sodipodi.sourceforge.net/DTD/sodipodi-0.dtd"
   xmlns:inkscape="http://www.inkscape.org/namespaces/inkscape"
   width="64"
   height="64"
   viewBox="0 0 64 64"
   version="1.1"
   id="svg6374"
   inkscape:version="1.0.2 (e86c870879, 2021-01-15)"
   sodipodi:docname="keyboard-brightness-symbolic.svg">
  <defs
     id="defs6368" />
  <sodipodi:namedview
     id="base"
     pagecolor="#cecece"
     bordercolor="#666666"
     borderopacity="1.0"
     inkscape:pageopacity="0"
     inkscape:pageshadow="2"
     inkscape:zoom="1.9361657"
     inkscape:cx="104.02156"
     inkscape:cy="32.962151"
     inkscape:document-units="px"
     inkscape:current-layer="layer1"
     inkscape:document-rotation="0"
     showgrid="false"
     units="px"
     inkscape:window-width="2048"
     inkscape:window-height="1080"
     inkscape:window-x="0"
     inkscape:window-y="0"
     inkscape:window-maximized="1" />
  <metadata
     id="metadata6371">
    <rdf:RDF>
      <cc:Work
         rdf:about="">
        <dc:format>image/svg+xml</dc:format>
        <dc:type
           rdf:resource="http://purl.org/dc/dcmitype/StillImage" />
        <dc:title></dc:title>
      </cc:Work>
    </rdf:RDF>
  </metadata>
  <g
     inkscape:label="Layer 1"
     inkscape:groupmode="layer"
     id="layer1">
    <path
       id="path986"
       style="color:#000000;font-style:normal;font-variant:normal;font-weight:normal;font-stretch:normal;font-size:medium;line-height:normal;font-family:sans-serif;font-variant-ligatures:normal;font-variant-position:normal;font-variant-caps:normal;font-variant-numeric:normal;font-variant-alternates:normal;font-variant-east-asian:normal;font-feature-settings:normal;font-variation-settings:normal;text-indent:0;text-align:start;text-decoration:none;text-decoration-line:none;text-decoration-style:solid;text-decoration-color:#000000;letter-spacing:normal;word-spacing:normal;text-transform:none;writing-mode:lr-tb;direction:ltr;text-orientation:mixed;dominant-baseline:auto;baseline-shift:baseline;text-anchor:start;white-space:normal;shape-padding:0;shape-margin:0;inline-size:0;clip-rule:nonzero;display:inline;overflow:visible;visibility:visible;isolation:auto;mix-blend-mode:normal;color-interpolation:sRGB;color-interpolation-filters:linearRGB;solid-color:#000000;solid-opacity:1;vector-effect:none;fill:#808084;fill-opacity:1;fill-rule:nonzero;stroke:none;stroke-width:3.00001;stroke-linecap:round;stroke-linejoin:round;stroke-miterlimit:4;stroke-dasharray:none;stroke-dashoffset:0;stroke-opacity:1;color-rendering:auto;image-rendering:auto;shape-rendering:auto;text-rendering:auto;enable-background:accumulate;stop-color:#000000"
       d="m 42.587397,37.5297 a 1.50015,1.5001551 0 0 0 -0.431148,0.06861 c -2.822041,0.884662 -6.435903,1.389833 -10.156252,1.389896 -3.72034,-6.3e-5 -7.334199,-0.505234 -10.156244,-1.389896 a 1.50015,1.5001551 0 0 0 -0.466554,-0.06836 1.50015,1.5001551 0 0 0 -1.459473,1.239262 l -2.64502,15.000786 A 1.50015,1.5001551 0 0 0 18.750001,55.5305 H 45.25 a 1.50015,1.5001551 0 0 0 1.477294,-1.760502 L 44.082277,38.769212 a 1.50015,1.5001551 0 0 0 -1.49488,-1.239508 z" />
    <path
       id="path1027"
       style="color:#000000;font-style:normal;font-variant:normal;font-weight:normal;font-stretch:normal;font-size:medium;line-height:normal;font-family:sans-serif;font-variant-ligatures:normal;font-variant-position:normal;font-variant-caps:normal;font-variant-numeric:normal;font-variant-alternates:normal;font-variant-east-asian:normal;font-feature-settings:normal;font-variation-settings:normal;text-indent:0;text-align:start;text-decoration:none;text-decoration-line:none;text-decoration-style:solid;text-decoration-color:#000000;letter-spacing:normal;word-spacing:normal;text-transform:none;writing-mode:lr-tb;direction:ltr;text-orientation:mixed;dominant-baseline:auto;baseline-shift:baseline;text-anchor:start;white-space:normal;shape-padding:0;shape-margin:0;inline-size:0;clip-rule:nonzero;display:inline;overflow:visible;visibility:visible;isolation:auto;mix-blend-mode:normal;color-interpolation:sRGB;color-interpolation-filters:linearRGB;solid-color:#000000;solid-opacity:1;vector-effect:none;fill:#808084;fill-opacity:1;fill-rule:nonzero;stroke:none;stroke-width:0.900002;stroke-linecap:round;stroke-linejoin:round;stroke-miterlimit:4;stroke-dasharray:none;stroke-dashoffset:0;stroke-opacity:1;color-rendering:auto;image-rendering:auto;shape-rendering:auto;text-rendering:auto;enable-background:accumulate;stop-color:#000000"
       d="m 32.000731,8.4695031 a 0.45004685,0.45004657 0 0 0 -0.424317,0.295409 l -2.54298,6.9907539 a 0.45004685,0.45004657 0 0 0 0.468751,0.601564 c 0.829933,-0.08627 1.664141,-0.128951 2.498546,-0.128905 0.834021,-5e-6 1.667531,0.04268 2.49708,0.128905 a 0.45004685,0.45004657 0 0 0 0.468751,-0.601564 L 32.423584,8.7649121 A 0.45004685,0.45004657 0 0 0 32.000731,8.4695031 Z M 9.754058,17.683407 a 0.45004685,0.45004657 0 0 0 -0.02099,9.5e-4 0.45004685,0.45004657 0 0 0 -0.3857443,0.638186 l 3.1450323,6.743675 a 0.45004685,0.45004657 0 0 0 0.75635,0.09229 c 1.052198,-1.296424 2.235819,-2.480037 3.532241,-3.532237 a 0.45004685,0.45004657 0 0 0 -0.09229,-0.756839 L 9.9454627,17.724884 A 0.45004685,0.45004657 0 0 0 9.754056,17.683374 Z m 44.48993,0 a 0.45004685,0.45004657 0 0 0 -0.0293,9.5e-4 0.45004685,0.45004657 0 0 0 -0.160645,0.04053 l -6.741237,3.144543 a 0.45004685,0.45004657 0 0 0 -0.09423,0.756839 c 1.296192,1.052049 2.480194,2.236043 3.532241,3.532238 a 0.45004685,0.45004657 0 0 0 0.756841,-0.09423 L 54.6522,18.322555 A 0.45004685,0.45004657 0 0 0 54.243995,17.683419 Z M 7.5186964,37.382694 a 0.45004685,0.45004657 0 0 0 -0.1401366,0.02784 l -6.99075152,2.544932 a 0.45004685,0.45004657 0 0 0 0,0.845217 l 6.99075152,2.542976 a 0.45004685,0.45004657 0 0 0 0.6015644,-0.468751 c -0.08625,-0.82974 -0.1294195,-1.662378 -0.1293945,-2.496591 1.65e-4,-0.834224 0.04295,-1.669299 0.1293945,-2.499031 A 0.45004685,0.45004657 0 0 0 7.5186964,37.382698 Z m 48.9420956,0.002 a 0.45004685,0.45004657 0 0 0 -0.439454,0.496584 c 0.08623,0.829553 0.129401,1.663058 0.129396,2.49708 2.5e-5,0.834212 -0.04314,1.666848 -0.129396,2.49659 a 0.45004685,0.45004657 0 0 0 0.601563,0.468752 l 6.989289,-2.542967 a 0.45004685,0.45004657 0 0 0 0,-0.845218 l -6.989289,-2.544931 a 0.45004685,0.45004657 0 0 0 -0.162109,-0.02588 z" />
  </g>
</svg>
