<?xml version="1.0" encoding="UTF-8" standalone="no"?>
<svg
   xmlns:dc="http://purl.org/dc/elements/1.1/"
   xmlns:cc="http://creativecommons.org/ns#"
   xmlns:rdf="http://www.w3.org/1999/02/22-rdf-syntax-ns#"
   xmlns:svg="http://www.w3.org/2000/svg"
   xmlns="http://www.w3.org/2000/svg"
   xmlns:sodipodi="http://sodipodi.sourceforge.net/DTD/sodipodi-0.dtd"
   xmlns:inkscape="http://www.inkscape.org/namespaces/inkscape"
   width="64"
   height="64"
   viewBox="0 0 16.933333 16.933334"
   version="1.1"
   id="svg841"
   inkscape:version="1.0.2 (e86c870879, 2021-01-15)"
   sodipodi:docname="media-playlist-shuffle-symbolic.svg">
  <defs
     id="defs835" />
  <sodipodi:namedview
     id="base"
     pagecolor="#c4c4c4"
     bordercolor="#666666"
     borderopacity="1.0"
     inkscape:pageopacity="0"
     inkscape:pageshadow="2"
     inkscape:zoom="3.5451024"
     inkscape:cx="68.811251"
     inkscape:cy="38.515083"
     inkscape:document-units="px"
     inkscape:current-layer="layer1"
     inkscape:document-rotation="0"
     showgrid="false"
     units="px"
     inkscape:window-width="1024"
     inkscape:window-height="1080"
     inkscape:window-x="68"
     inkscape:window-y="56"
     inkscape:window-maximized="0" />
  <metadata
     id="metadata838">
    <rdf:RDF>
      <cc:Work
         rdf:about="">
        <dc:format>image/svg+xml</dc:format>
        <dc:type
           rdf:resource="http://purl.org/dc/dcmitype/StillImage" />
        <dc:title></dc:title>
      </cc:Work>
    </rdf:RDF>
  </metadata>
  <g
     inkscape:label="Layer 1"
     inkscape:groupmode="layer"
     id="layer1">
    <path
       id="rect1112-6-7-2-1-6-7-5-9-3-1-9-8-3-1-3-5"
       style="fill:#808084;fill-opacity:1;stroke-width:1.19057;stroke-linecap:round;stroke-linejoin:round;stroke-dashoffset:2.1875"
       d="M 3.915731,3.7241233 C 3.137782,3.2899333 2.241532,3.0404533 1.28348,3.0403833 l -0.754085,8e-4 -0.264397,10e-5 C 0.11841,3.0413133 3e-6,3.1593933 0,3.3059633 l 4e-6,1.3228 c 6e-6,0.14655 0.11835,0.26458 0.264952,0.26453 l 0.264396,-10e-5 0.264395,-1.1e-4 h 0.489887 c 0.756913,4e-5 1.453441,0.2378 2.029193,0.63688 l 2.51e-4,-4.3e-4 0.229131,0.13228 c 0.126938,0.0733 0.288144,0.0301 0.361418,-0.0969 l 0.664035,-1.15008 c 0.07326,-0.12688 0.0301,-0.28811 -0.09684,-0.36139 l -0.22913,-0.13229 c -0.106206,-0.0694 -0.214804,-0.13507 -0.325959,-0.19709 z m 8.68358,6.08716 c -0.01299,-0.007 -0.02669,-0.0111 -0.0405,-0.0156 -5.82e-4,0 -7.58e-4,2e-5 -0.0011,-8e-5 -0.01333,-0.004 -0.02784,-0.007 -0.04196,-0.007 l -0.0014,3.8e-4 -0.01205,1.9e-4 c -0.13202,10e-6 -0.237726,0.11476 -0.237729,0.2577597 l 4.3e-5,0.19215 -6.99e-4,1.8e-4 1.07e-4,2.06153 -1.984534,-1.2e-4 c -0.872313,0 -1.666135,-0.31385 -2.284774,-0.82979 l -2.65e-4,4.5e-4 -0.22913,-0.13228 c -0.126938,-0.0733 -0.288131,-0.0301 -0.361418,0.0969 l -0.669975,1.16037 c -0.07329,0.12693 -0.03008,0.28809 0.09684,0.36139 l 0.229131,0.13229 c 0.899492,0.66535 2.009872,1.0634 3.219742,1.06344 l 1.984087,-1.4e-4 5.5e-5,2.00066 4.48e-4,2.6e-4 3.36e-4,0.25674 c 8e-6,0.1431 0.105785,0.25781 0.237805,0.25781 0.01969,-1.8e-4 0.03833,-0.003 0.0565,-0.008 l 0.0033,-5e-4 c 0.01314,-0.004 0.02599,-0.008 0.03813,-0.0144 0.01431,-0.007 0.028,-0.0148 0.04062,-0.0249 l 4.195008,-3.18139 c 0.06623,-0.0502 0.09724,-0.12999 0.09741,-0.21106 -2.7e-5,-0.0812 -0.03123,-0.16 -0.09758,-0.21027 L 12.639426,9.8348633 c -0.01223,-0.009 -0.02622,-0.0172 -0.04003,-0.0237 z" />
    <path
       id="rect1112-6-7-2-1-6-7-5-9-3-1-2-7-0-6-4"
       style="fill:#808084;fill-opacity:1;stroke-width:1.19057;stroke-linecap:round;stroke-linejoin:round;stroke-dashoffset:2.1875"
       d="m 12.502291,0.26549334 c -0.132019,0 -0.238222,0.11485 -0.238222,0.25785 v 0.25681 H 12.26354 V 2.7804033 h -1.984327 c -3.004798,0 -5.423827,2.41889 -5.423827,5.42352 v 0.13229 0.13228 c 0,1.9786597 -1.593016,3.5715797 -3.571787,3.5715797 H 0.79373 0.529153 0.264576 C 0.118001,12.040073 0,12.158083 0,12.304643 v 1.32281 c 0,0.14657 0.118001,0.26457 0.264576,0.26457 h 0.264577 v 0 h 0.754458 c 3.004796,0 5.423826,-2.4189 5.423826,-5.4235297 v -0.13228 -0.13229 c 0,-1.97866 1.593017,-3.57159 3.571788,-3.57159 h 1.984327 v 2.06171 h 5.29e-4 v 0.19223 c 0,0.14299 0.106203,0.25784 0.238222,0.25784 h 0.01137 0.0016 c 0.01423,0 0.02841,-0.003 0.04186,-0.007 5.02e-4,-1.1e-4 4.49e-4,0 10e-4,0 0.0141,-0.004 0.02783,-0.008 0.04082,-0.0151 0.01402,-0.006 0.02735,-0.0148 0.03979,-0.0238 l 4.196541,-3.18303 c 0.06634,-0.0503 0.09765,-0.12961 0.09767,-0.2108 -1.7e-4,-0.0811 -0.03145,-0.16064 -0.09767,-0.21084 L 12.640293,0.31208334 c -0.01265,-0.01 -0.02599,-0.0177 -0.04031,-0.0249 -0.01214,-0.006 -0.0251,-0.0103 -0.03824,-0.0146 h -0.0031 c -0.01818,-0.005 -0.03674,-0.008 -0.05633,-0.008 z" />
  </g>
</svg>
