<?xml version="1.0" encoding="UTF-8" standalone="no"?>
<svg
   xmlns:dc="http://purl.org/dc/elements/1.1/"
   xmlns:cc="http://creativecommons.org/ns#"
   xmlns:rdf="http://www.w3.org/1999/02/22-rdf-syntax-ns#"
   xmlns:svg="http://www.w3.org/2000/svg"
   xmlns="http://www.w3.org/2000/svg"
   xmlns:sodipodi="http://sodipodi.sourceforge.net/DTD/sodipodi-0.dtd"
   xmlns:inkscape="http://www.inkscape.org/namespaces/inkscape"
   width="64"
   height="64"
   viewBox="0 0 16.933333 16.933334"
   version="1.1"
   id="svg841"
   inkscape:version="1.0.2 (e86c870879, 2021-01-15)"
   sodipodi:docname="microphone-hardware-disabled-symbolic.svg">
  <defs
     id="defs835" />
  <sodipodi:namedview
     id="base"
     pagecolor="#c4c4c4"
     bordercolor="#666666"
     borderopacity="1.0"
     inkscape:pageopacity="0"
     inkscape:pageshadow="2"
     inkscape:zoom="2.3195176"
     inkscape:cx="-55.435343"
     inkscape:cy="54.451095"
     inkscape:document-units="px"
     inkscape:current-layer="layer1"
     inkscape:document-rotation="0"
     showgrid="false"
     units="px"
     inkscape:window-width="2048"
     inkscape:window-height="1080"
     inkscape:window-x="0"
     inkscape:window-y="0"
     inkscape:window-maximized="1" />
  <metadata
     id="metadata838">
    <rdf:RDF>
      <cc:Work
         rdf:about="">
        <dc:format>image/svg+xml</dc:format>
        <dc:type
           rdf:resource="http://purl.org/dc/dcmitype/StillImage" />
        <dc:title />
      </cc:Work>
    </rdf:RDF>
  </metadata>
  <g
     inkscape:label="Layer 1"
     inkscape:groupmode="layer"
     id="layer1">
    <path
       id="rect2466-17-1"
       style="opacity:0.375;fill:#808084;fill-opacity:1;stroke:none;stroke-width:0.79375;stroke-linecap:round;stroke-linejoin:round;stroke-miterlimit:4;stroke-dasharray:none;stroke-dashoffset:2.1875;stroke-opacity:1"
       d="M 8.4666676,0 C 6.7810071,0 5.4239592,1.35704 5.4239592,3.0427 V 5.55625 H 11.509375 V 3.0427 C 11.509375,1.35704 10.152327,0 8.4666676,0 Z M 3.1088549,4.23333 c -0.3298031,0 -0.5953125,0.26551 -0.5953125,0.59531 v 0.65422 0.0734 H 3.7041675 V 5.48286 4.82864 c 0,-0.3298 -0.2655094,-0.59531 -0.5953126,-0.59531 z m 10.7156251,0 c -0.329804,0 -0.595313,0.26551 -0.595313,0.59531 v 0.72761 h 1.190625 V 4.82864 c 0,-0.3298 -0.265509,-0.59531 -0.595312,-0.59531 z M 3.7041675,11.37708 c 0.8186354,1.09091 2.0007342,1.89208 3.3734375,2.21795 v 3.07372 c 0,0.14657 0.1180045,0.26458 0.2645834,0.26458 h 2.2489584 c 0.1465789,0 0.2645833,-0.11801 0.2645833,-0.26458 v -3.07372 c 1.3727029,-0.32587 2.5548019,-1.12704 3.3734369,-2.21795 h -1.612821 c -0.838703,0.73958 -1.9384162,1.19062 -3.1496784,1.19062 -1.211262,0 -2.310976,-0.45104 -3.1496787,-1.19062 z" />
    <path
       id="rect1127-0-49"
       style="opacity:0.85;fill:#808084;stroke:none;stroke-width:1.19063;stroke-linecap:round;stroke-linejoin:round;stroke-dashoffset:2.1875;fill-opacity:1"
       d="M 0.529167,6.87916 C 0.236009,6.87916 0,7.11517 0,7.40833 v 2.11666 c 0,0.29316 0.236009,0.52917 0.529167,0.52917 h 15.875 c 0.293159,0 0.529167,-0.23601 0.529167,-0.52917 V 7.40833 c 0,-0.29316 -0.236008,-0.52917 -0.529167,-0.52917 z" />
  </g>
</svg>
