<?xml version="1.0" encoding="UTF-8" standalone="no"?>
<svg
   xmlns:dc="http://purl.org/dc/elements/1.1/"
   xmlns:cc="http://creativecommons.org/ns#"
   xmlns:rdf="http://www.w3.org/1999/02/22-rdf-syntax-ns#"
   xmlns:svg="http://www.w3.org/2000/svg"
   xmlns="http://www.w3.org/2000/svg"
   xmlns:sodipodi="http://sodipodi.sourceforge.net/DTD/sodipodi-0.dtd"
   xmlns:inkscape="http://www.inkscape.org/namespaces/inkscape"
   width="64"
   height="64"
   viewBox="0 0 16.933333 16.933334"
   version="1.1"
   id="svg841"
   inkscape:version="1.0.2 (e86c870879, 2021-01-15)"
   sodipodi:docname="microphone-sensitivity-low-symbolic.svg">
  <defs
     id="defs835" />
  <sodipodi:namedview
     id="base"
     pagecolor="#c4c4c4"
     bordercolor="#666666"
     borderopacity="1.0"
     inkscape:pageopacity="0"
     inkscape:pageshadow="2"
     inkscape:zoom="2.3195176"
     inkscape:cx="-55.435343"
     inkscape:cy="54.451095"
     inkscape:document-units="px"
     inkscape:current-layer="layer1"
     inkscape:document-rotation="0"
     showgrid="false"
     units="px"
     inkscape:window-width="2048"
     inkscape:window-height="1080"
     inkscape:window-x="0"
     inkscape:window-y="0"
     inkscape:window-maximized="1" />
  <metadata
     id="metadata838">
    <rdf:RDF>
      <cc:Work
         rdf:about="">
        <dc:format>image/svg+xml</dc:format>
        <dc:type
           rdf:resource="http://purl.org/dc/dcmitype/StillImage" />
        <dc:title />
      </cc:Work>
    </rdf:RDF>
  </metadata>
  <g
     inkscape:label="Layer 1"
     inkscape:groupmode="layer"
     id="layer1">
    <path
       id="rect2466-0-6-2"
       style="fill:#808084;fill-opacity:1;stroke:none;stroke-width:0.79375;stroke-linecap:round;stroke-linejoin:round;stroke-miterlimit:4;stroke-dasharray:none;stroke-dashoffset:2.1875;stroke-opacity:1"
       d="m 8.4666658,11.112499 c -1.6856595,0 -3.0427075,-1.357047 -3.0427075,-3.042708 V 7.408333 h 6.0854157 v 0.661458 c 0,1.685661 -1.357047,3.042708 -3.0427082,3.042708 z" />
    <rect
       style="opacity:0.375;fill:#808084;fill-opacity:1;stroke:none;stroke-width:0.79375;stroke-linecap:round;stroke-linejoin:round;stroke-miterlimit:4;stroke-dasharray:none;stroke-dashoffset:2.1875;stroke-opacity:1"
       id="rect2466-4-9"
       width="6.0854168"
       height="11.1125"
       x="5.4239583"
       y="-4.4408921e-16"
       rx="3.0427084"
       ry="3.0427084" />
    <path
       id="rect2490-7-3-2-7"
       style="fill:#808084;fill-opacity:1;stroke:none;stroke-width:0.79375;stroke-linecap:round;stroke-linejoin:round;stroke-miterlimit:4;stroke-dasharray:none;stroke-dashoffset:2.1875;stroke-opacity:1"
       d="m 3.1088537,4.233332 c -0.329803,0 -0.595312,0.265509 -0.595312,0.595313 v 0.654223 0.800985 1.521354 c 0,2.819206 1.940698,5.167054 4.564062,5.789827 v 3.073715 c 0,0.146579 0.118005,0.264583 0.264584,0.264583 h 2.2489581 c 0.146579,0 0.264583,-0.118004 0.264583,-0.264583 V 13.595034 C 12.479094,12.972261 14.419792,10.624413 14.419792,7.805207 V 6.283853 5.639448 4.828645 c 0,-0.329804 -0.265509,-0.595313 -0.595312,-0.595313 -0.329804,0 -0.595313,0.265509 -0.595313,0.595313 v 0.810803 0.644405 1.521354 c 0,2.638425 -2.124075,4.7625 -4.7625002,4.7625 -2.6384251,0 -4.7625001,-2.124075 -4.7625001,-4.7625 V 6.283853 5.482868 4.828645 c 0,-0.329804 -0.26551,-0.595313 -0.595313,-0.595313 z" />
  </g>
</svg>
