<?xml version="1.0" encoding="UTF-8" standalone="no"?>
<svg
   xmlns:dc="http://purl.org/dc/elements/1.1/"
   xmlns:cc="http://creativecommons.org/ns#"
   xmlns:rdf="http://www.w3.org/1999/02/22-rdf-syntax-ns#"
   xmlns:svg="http://www.w3.org/2000/svg"
   xmlns="http://www.w3.org/2000/svg"
   xmlns:sodipodi="http://sodipodi.sourceforge.net/DTD/sodipodi-0.dtd"
   xmlns:inkscape="http://www.inkscape.org/namespaces/inkscape"
   width="64"
   height="64"
   viewBox="0 0 16.933333 16.933334"
   version="1.1"
   id="svg841"
   inkscape:version="1.0.2 (e86c870879, 2021-01-15)"
   sodipodi:docname="network-cellular-no-route-symbolic.svg">
  <defs
     id="defs835" />
  <sodipodi:namedview
     id="base"
     pagecolor="#c4c4c4"
     bordercolor="#666666"
     borderopacity="1.0"
     inkscape:pageopacity="0"
     inkscape:pageshadow="2"
     inkscape:zoom="4.4950457"
     inkscape:cx="-82.114876"
     inkscape:cy="28.49246"
     inkscape:document-units="px"
     inkscape:current-layer="layer1"
     inkscape:document-rotation="0"
     showgrid="false"
     units="px"
     inkscape:window-width="2048"
     inkscape:window-height="1080"
     inkscape:window-x="0"
     inkscape:window-y="0"
     inkscape:window-maximized="1" />
  <metadata
     id="metadata838">
    <rdf:RDF>
      <cc:Work
         rdf:about="">
        <dc:format>image/svg+xml</dc:format>
        <dc:type
           rdf:resource="http://purl.org/dc/dcmitype/StillImage" />
        <dc:title />
      </cc:Work>
    </rdf:RDF>
  </metadata>
  <g
     inkscape:label="Layer 1"
     inkscape:groupmode="layer"
     id="layer1">
    <circle
       style="display:inline;opacity:1;fill:#808084;stroke:none;stroke-width:0;stroke-linecap:round;stroke-linejoin:round;stroke-dashoffset:2.1875;fill-opacity:1"
       id="path2193-6-6-3-4-8-2"
       cx="8.1958351"
       cy="13.493754"
       r="1.0583334" />
    <path
       id="path1107-0-8-6-3-9-0"
       style="color:#000000;font-style:normal;font-variant:normal;font-weight:normal;font-stretch:normal;font-size:medium;line-height:normal;font-family:sans-serif;font-variant-ligatures:normal;font-variant-position:normal;font-variant-caps:normal;font-variant-numeric:normal;font-variant-alternates:normal;font-variant-east-asian:normal;font-feature-settings:normal;font-variation-settings:normal;text-indent:0;text-align:start;text-decoration:none;text-decoration-line:none;text-decoration-style:solid;text-decoration-color:#000000;letter-spacing:normal;word-spacing:normal;text-transform:none;writing-mode:lr-tb;direction:ltr;text-orientation:mixed;dominant-baseline:auto;baseline-shift:baseline;text-anchor:start;white-space:normal;shape-padding:0;shape-margin:0;inline-size:0;clip-rule:nonzero;display:inline;overflow:visible;visibility:visible;opacity:1;isolation:auto;mix-blend-mode:normal;color-interpolation:sRGB;color-interpolation-filters:linearRGB;solid-color:#000000;solid-opacity:1;vector-effect:none;fill:#808084;fill-opacity:1;fill-rule:nonzero;stroke:none;stroke-width:0.992188;stroke-linecap:round;stroke-linejoin:round;stroke-miterlimit:4;stroke-dasharray:none;stroke-dashoffset:0;stroke-opacity:1;color-rendering:auto;image-rendering:auto;shape-rendering:auto;text-rendering:auto;enable-background:accumulate;stop-color:#000000"
       d="m 8.4937247,3.4395827 c -1.51658,-2e-6 -2.77846,0.987962 -3.08005,2.508375 v 0 l -0.0469,0.192623 c -0.0261,0.106783 0.0385,0.213776 0.14533,0.239907 l 1.19762,0.293005 c 0.10677,0.02613 0.21377,-0.03856 0.23991,-0.14534 l 0.0473,-0.19301 c 0.13982,-0.936006 0.75837,-1.358057 1.49759,-1.358057 0.85477,-2e-6 1.48246,0.554345 1.48246,1.498358 0,0.677024 -0.30126,1.116249 -0.95535,1.568897 -0.5004,0.339784 -0.91698,0.688381 -1.19877,1.188299 -0.256,0.45416 -0.3858,1.0122853 -0.41161,1.7475683 0,1.34e-4 1e-5,1.99e-4 0,3.98e-4 v 0.19805 c 0,0.109934 0.0885,0.198437 0.19843,0.198437 h 1.19839 c 0.10993,0 0.19844,-0.0885 0.19844,-0.198437 v -0.198437 c 0.0236,-0.405361 0.092,-0.697408 0.21742,-0.934053 0.14899,-0.2811723 0.38846,-0.5218783 0.8049803,-0.8131293 0.98156,-0.681294 1.54333,-1.560475 1.54333,-2.714951 0,-1.429559 -0.87219,-2.584999 -2.1692503,-2.954083 -0.0865,-0.02461 -0.17459,-0.04574 -0.2647,-0.06317 -0.20598,-0.03992 -0.42143,-0.06124 -0.64415,-0.06124 z" />
    <path
       id="rect883-36-6-9"
       style="opacity:0.375;fill:#808084;stroke-width:0;stroke-linecap:round;stroke-linejoin:round;stroke-dashoffset:2.1875;fill-opacity:1"
       d="m 14.022918,0.13229167 c -0.219869,0 -0.396875,0.177006 -0.396875,0.396875 V 16.404167 c 0,0.219869 0.177006,0.396875 0.396875,0.396875 h 2.38125 c 0.219869,0 0.396875,-0.177006 0.396875,-0.396875 V 0.52916667 c 0,-0.219869 -0.177006,-0.396875 -0.396875,-0.396875 z M 11.52953,4.2994787 c 0.4455,0.621409 0.703318,1.388785 0.703318,2.217953 0,1.368633 -0.72304,2.492346 -1.825731,3.258199 -0.373724,0.2613363 -0.5151423,0.4197393 -0.5999623,0.5798103 -0.06544,0.123466 -0.117433,0.313925 -0.138494,0.654223 v 0.167949 c 0,0.351588 -0.228449,0.659727 -0.540536,0.789616 v 0.234611 c 0.454607,0.284736 0.786517,0.717248 0.786517,1.292427 0,0.599251 -0.31523,1.130588 -0.786517,1.438672 v 1.471228 c 0,0.219869 0.177006,0.396875 0.396875,0.396875 h 2.3812513 c 0.219869,0 0.396875,-0.177006 0.396875,-0.396875 V 4.6963537 c 0,-0.219868 -0.177006,-0.396875 -0.396875,-0.396875 z m -2.4014053,1.58595 v 1.216463 c 0.148109,-0.172742 0.187069,-0.342005 0.187069,-0.627352 0,-0.294495 -0.07824,-0.466757 -0.187069,-0.589111 z m -4.101042,2.581238 c -0.219868,0 -0.396875,0.177006 -0.396875,0.396875 v 7.5406253 c 0,0.219869 0.177007,0.396875 0.396875,0.396875 h 2.381251 c 0.219868,0 0.396875,-0.177006 0.396875,-0.396875 V 15.166 c -0.756936,-0.17935 -1.330154,-0.864155 -1.330151,-1.671733 -8.2e-5,-0.707304 0.498555,-1.210582 1.117243,-1.472778 -0.452533,-0.01567 -0.841809,-0.388411 -0.841809,-0.843876 v -0.196887 a 0.66151619,0.66151619 0 0 1 0,-0.02377 c 0.02812,-0.801092 0.17312,-1.4759723 0.496094,-2.0489703 0.08551,-0.151712 0.18125,-0.290652 0.283705,-0.42013 -0.03868,-0.01251 -0.079,-0.02119 -0.121957,-0.02119 z M 0.52916667,12.633855 c -0.219869,0 -0.396875,0.177007 -0.396875,0.396875 v 3.373437 c 0,0.219869 0.177006,0.396875 0.396875,0.396875 H 2.9104167 c 0.219868,0 0.396875,-0.177006 0.396875,-0.396875 V 13.03073 c 0,-0.219868 -0.177007,-0.396875 -0.396875,-0.396875 z" />
  </g>
</svg>
