<?xml version="1.0" encoding="UTF-8" standalone="no"?>
<svg
   xmlns:dc="http://purl.org/dc/elements/1.1/"
   xmlns:cc="http://creativecommons.org/ns#"
   xmlns:rdf="http://www.w3.org/1999/02/22-rdf-syntax-ns#"
   xmlns:svg="http://www.w3.org/2000/svg"
   xmlns="http://www.w3.org/2000/svg"
   xmlns:sodipodi="http://sodipodi.sourceforge.net/DTD/sodipodi-0.dtd"
   xmlns:inkscape="http://www.inkscape.org/namespaces/inkscape"
   width="64"
   height="64"
   viewBox="0 0 64 64.000003"
   version="1.1"
   id="svg1461"
   inkscape:version="1.0.2 (e86c870879, 2021-01-15)"
   sodipodi:docname="network-cellular-4g-symbolic.svg">
  <defs
     id="defs1455" />
  <sodipodi:namedview
     id="base"
     pagecolor="#c4c4c4"
     bordercolor="#666666"
     borderopacity="1.0"
     inkscape:pageopacity="0"
     inkscape:pageshadow="2"
     inkscape:zoom="2.8932789"
     inkscape:cx="-57.055107"
     inkscape:cy="65.256298"
     inkscape:document-units="px"
     inkscape:current-layer="layer1"
     inkscape:document-rotation="0"
     showgrid="false"
     units="px"
     inkscape:window-width="2048"
     inkscape:window-height="1080"
     inkscape:window-x="0"
     inkscape:window-y="0"
     inkscape:window-maximized="1" />
  <metadata
     id="metadata1458">
    <rdf:RDF>
      <cc:Work
         rdf:about="">
        <dc:format>image/svg+xml</dc:format>
        <dc:type
           rdf:resource="http://purl.org/dc/dcmitype/StillImage" />
        <dc:title />
      </cc:Work>
    </rdf:RDF>
  </metadata>
  <g
     inkscape:label="Layer 1"
     inkscape:groupmode="layer"
     id="layer1">
    <path
       id="rect1380-6-5-5"
       style="fill:#808084;fill-opacity:1;stroke-width:0;stroke-linecap:round;stroke-linejoin:round;stroke-dashoffset:2.1875;stroke-opacity:0.5"
       d="M 5,0 C 2.23,0 0,2.23 0,5 v 54 c 0,2.77 2.23,5 5,5 h 54 c 2.77,0 5,-2.23 5,-5 V 5 C 64,2.23 61.77,0 59,0 Z m 15.3594,12.81641 h 3.4531 a 1.3946706,1.3946708 0 0 1 1.3945,1.39453 v 20.35937 h 3.7832 a 1.3946706,1.3946708 0 0 1 1.3946,1.39453 v 3.45118 a 1.3946706,1.3946708 0 0 1 -1.3946,1.39453 H 25.207 v 7.02539 a 1.3946706,1.3946708 0 0 1 -1.3945,1.39453 H 20.3594 A 1.3946706,1.3946708 0 0 1 18.9629,47.83594 V 45.64453 40.81055 H 6.9277 4.5215 A 1.3946706,1.3946708 0 0 1 3.125,39.41602 v -2.5879 A 1.3946706,1.3946708 0 0 1 3.3789,36.0293 l 0.5606,-0.80078 0.045,-0.0625 7.3633,-10.51758 7.8671,-11.23633 a 1.3946706,1.3946708 0 0 1 1.1446,-0.5957 z m 27.7773,0 c 0.2577,-0.003 0.5119,0.002 0.7617,0.008 h 0.041 a 1.3946706,1.3946708 0 0 1 0.033,0 c 3.7841,0.11543 7.552,1.55649 10.6132,4.30859 l 0.8184,0.72266 a 1.3946706,1.3946708 0 0 1 0.1348,1.95312 l -2.1914,2.55469 a 1.3946706,1.3946708 0 0 1 -1.9942,0.125 l -0.8535,-0.76953 c -4.5848,-4.12222 -11.0043,-3.69053 -15.0879,1.05664 -4.0643,4.72404 -3.943,12.21715 0.2637,16.77734 3.9058,4.23385 9.6145,4.48093 14.0019,1.11524 v -6.00195 h -5.8418 a 1.3946706,1.3946708 0 0 1 -1.3945,-1.39258 v -3.37891 a 1.3946706,1.3946708 0 0 1 1.3945,-1.39453 h 8.3594 2.2227 a 1.3946706,1.3946708 0 0 1 1.3945,1.39453 v 2.25781 10.99219 a 1.3946706,1.3946708 0 0 1 -0.4082,0.98633 l -0.3418,0.33984 a 1.3946706,1.3946708 0 0 1 -0.018,0.0156 C 53.2609,51.03085 42.5813,50.69444 36.177,43.75211 29.79,36.82854 29.6008,25.90636 35.7532,18.75407 c 3.0806,-3.58114 7.2817,-5.61204 11.5977,-5.90821 0.2652,-0.0181 0.5274,-0.0263 0.7851,-0.0293 z m -29.1738,11.83984 -6.9395,9.91406 h 6.9395 z" />
  </g>
</svg>
