<?xml version="1.0" encoding="UTF-8" standalone="no"?>
<svg
   xmlns:dc="http://purl.org/dc/elements/1.1/"
   xmlns:cc="http://creativecommons.org/ns#"
   xmlns:rdf="http://www.w3.org/1999/02/22-rdf-syntax-ns#"
   xmlns:svg="http://www.w3.org/2000/svg"
   xmlns="http://www.w3.org/2000/svg"
   xmlns:sodipodi="http://sodipodi.sourceforge.net/DTD/sodipodi-0.dtd"
   xmlns:inkscape="http://www.inkscape.org/namespaces/inkscape"
   width="64"
   height="64"
   viewBox="0 0 16.933333 16.933334"
   version="1.1"
   id="svg841"
   inkscape:version="1.0.2 (e86c870879, 2021-01-15)"
   sodipodi:docname="network-no-route-symbolic.svg">
  <defs
     id="defs835" />
  <sodipodi:namedview
     id="base"
     pagecolor="#c4c4c4"
     bordercolor="#666666"
     borderopacity="1.0"
     inkscape:pageopacity="0"
     inkscape:pageshadow="2"
     inkscape:zoom="2.2602841"
     inkscape:cx="-63.879638"
     inkscape:cy="76.617983"
     inkscape:document-units="px"
     inkscape:current-layer="layer1"
     inkscape:document-rotation="0"
     showgrid="false"
     units="px"
     inkscape:window-width="2048"
     inkscape:window-height="1080"
     inkscape:window-x="0"
     inkscape:window-y="0"
     inkscape:window-maximized="1" />
  <metadata
     id="metadata838">
    <rdf:RDF>
      <cc:Work
         rdf:about="">
        <dc:format>image/svg+xml</dc:format>
        <dc:type
           rdf:resource="http://purl.org/dc/dcmitype/StillImage" />
        <dc:title></dc:title>
      </cc:Work>
    </rdf:RDF>
  </metadata>
  <g
     inkscape:label="Layer 1"
     inkscape:groupmode="layer"
     id="layer1">
    <path
       id="rect3612-4-1-6-0-67-7-5-60-5-2-8-1-2"
       style="display:inline;opacity:0.375;fill:#808084;fill-opacity:1;stroke:none;stroke-width:0;stroke-linecap:round;stroke-linejoin:round;stroke-miterlimit:4;stroke-dasharray:none;stroke-dashoffset:2.1875;stroke-opacity:1"
       d="m 12.95066,2.1293676 c -0.0675,-0.006 -0.137084,0.0134 -0.193271,0.0605 l -0.811318,0.68064 v 5.2e-4 c -0.02798,0.0235 -0.04996,0.0514 -0.06563,0.0816 v 5.2e-4 c -0.01561,0.0304 -0.02492,0.0638 -0.02791,0.0972 v 5.2e-4 c -0.0029,0.0335 2.54e-4,0.0676 0.01033,0.10026 v 5.2e-4 c 0.01011,0.0327 0.02724,0.0635 0.05064,0.0915 v 5.1e-4 l 1.062985,1.26619 h -1.034563 c 0.185816,0.44752 0.288231,0.93944 0.291457,1.45535 h 1.965253 l 0.745175,0.88736 -0.745175,0.88788 h -2.407605 c -0.30779,0.56832 -0.763151,1.0574 -1.317749,1.45586 h 2.503207 l -1.062985,1.2656704 v 5.1e-4 c -0.02347,0.028 -0.04049,0.0593 -0.05064,0.092 v 5.1e-4 c -0.01008,0.0327 -0.01319,0.0672 -0.01033,0.10078 v 5.2e-4 c 0.0029,0.0335 0.01236,0.0657 0.02791,0.0961 v 5.2e-4 c 0.01561,0.0305 0.0377,0.0584 0.06563,0.0816 v 5.2e-4 l 0.811318,0.68064 c 0.05618,0.0471 0.125831,0.067 0.193271,0.061 0.0674,-0.006 0.132693,-0.0378 0.179834,-0.0941 v -5.1e-4 l 3.743958,-4.4580204 v -5.2e-4 c 0.007,-0.009 0.01002,-0.0195 0.01602,-0.0284 v -5.2e-4 c 0.009,-0.0142 0.01737,-0.0279 0.02377,-0.0434 v -5.2e-4 c 0.007,-0.0158 0.01085,-0.0316 0.01395,-0.0481 v -5.2e-4 c 0.003,-0.0167 0.0052,-0.0332 0.0052,-0.0501 -2.62e-4,-0.0169 -0.0022,-0.033 -0.0052,-0.0496 v -5.2e-4 c -0.003,-0.0164 -0.0081,-0.0317 -0.01395,-0.0475 v -5.2e-4 c -0.006,-0.0153 -0.01447,-0.0292 -0.02377,-0.0434 v -5.2e-4 c -0.006,-0.009 -0.009,-0.019 -0.01602,-0.0279 v -10e-4 l -3.743958,-4.4575 v -5.2e-4 c -0.0471,-0.0561 -0.112382,-0.0875 -0.179834,-0.0935 z m -4.456576,2.97942 c -0.243697,0 -0.416727,0.0643 -0.546735,0.17364 -0.108297,0.0911 -0.204653,0.23094 -0.264067,0.4703 0.02488,0.12041 0.126259,0.21242 0.254248,0.21242 h 1.37821 c 4.2e-5,-0.007 5.15e-4,-0.0119 5.15e-4,-0.0186 0,-0.3254 -0.09348,-0.50522 -0.220657,-0.62896 -0.127177,-0.12371 -0.317217,-0.20879 -0.601514,-0.20879 z m -4.511352,0.24756 v 5.1e-4 c -0.06745,0.006 -0.1327,0.0379 -0.179835,0.0941 v 5.2e-4 l -3.743957,4.45852 v 5.2e-4 c -0.0072,0.009 -0.01001,0.0195 -0.01602,0.0284 v 5.2e-4 c -0.0092,0.0142 -0.01745,0.028 -0.02377,0.0434 v 5.2e-4 c -0.0065,0.0158 -0.01081,0.031 -0.01395,0.0475 v 5.2e-4 c -0.0034,0.0165 -0.0049,0.0326 -0.0052,0.0496 2.65e-4,0.0169 0.0019,0.033 0.0052,0.0496 v 5.1e-4 c 0.0032,0.0164 0.0076,0.0312 0.01395,0.047 v 10e-4 c 0.0063,0.0153 0.01456,0.0292 0.02377,0.0434 v 5.2e-4 c 0.0059,0.009 0.0087,0.019 0.01602,0.0279 v 10e-4 l 3.743957,4.4575 v 5.2e-4 c 0.04713,0.0561 0.11239,0.0875 0.179835,0.0935 0.06745,0.006 0.137088,-0.0134 0.19327,-0.0605 l 0.811321,-0.68064 v -5.1e-4 c 0.02798,-0.0235 0.04996,-0.0513 0.06563,-0.0817 v -5.2e-4 c 0.01561,-0.0304 0.02493,-0.0632 0.02791,-0.0966 v -5.2e-4 c 0.0029,-0.0335 -2.44e-4,-0.0676 -0.01034,-0.10025 v -5.2e-4 c -0.01011,-0.0327 -0.02724,-0.064 -0.05064,-0.092 v -5.2e-4 l -1.062982,-1.26619 h 2.630845 c 0.179043,-0.42563 0.559268,-0.7409 1.006141,-0.92974 -0.341968,-0.0106 -0.647242,-0.22483 -0.777213,-0.52509 H 2.734751 L 1.989578,10.080258 2.734751,9.1923676 H 6.92106 c 0.0783,-0.29194 0.183676,-0.56365 0.325046,-0.81449 0.136324,-0.24188 0.297124,-0.45218 0.473355,-0.64085 h -3.76256 l 1.062982,-1.26618 v -5.2e-4 c 0.02347,-0.0279 0.04049,-0.0593 0.05064,-0.092 v -5.2e-4 c 0.0018,-0.006 1.56e-4,-0.0118 0.0016,-0.0176 -0.160168,-0.11436 -0.275603,-0.28155 -0.331245,-0.46926 l -0.564824,-0.4734 c -0.05618,-0.0471 -0.12582,-0.0675 -0.19327,-0.0615 z" />
    <path
       id="path2193-6-6-3-4-8-20-7-9-3-6"
       style="display:inline;fill:#808084;fill-opacity:1;stroke:none;stroke-width:0;stroke-linecap:round;stroke-linejoin:round;stroke-dashoffset:2.1875"
       d="m 8.4936011,2.9104076 c -1.516522,0 -2.778188,0.98797 -3.079772,2.50837 l -0.04702,0.19276 c -0.02619,0.10679 0.0384,0.21365 0.145204,0.23978 l 1.197803,0.293 c 0.106754,0.0261 0.213631,-0.0385 0.239768,-0.14521 l 0.04754,-0.19327 c 0.139826,-0.936 0.75833,-1.35806 1.497515,-1.35806 0.854724,0 1.482527,0.5546 1.482527,1.49862 0,0.67702 -0.301378,1.11625 -0.955451,1.5689 -0.500383,0.33979 -0.917043,0.68812 -1.198838,1.18804 -0.255972,0.45416 -0.385504,1.01242 -0.411326,1.7477004 0,0 0,5.1e-4 0,5.1e-4 v 0.19793 c 0,0.10992 0.0885,0.19843 0.198429,0.19843 h 1.198322 c 0.109903,0 0.198428,-0.0885 0.198428,-0.19843 v -0.19844 c 0.02355,-0.40536 0.09163,-0.6971604 0.21703,-0.9338004 0.14898,-0.28117 0.388566,-0.52213 0.8050829,-0.81338 0.981507,-0.6813 1.543503,-1.56061 1.543503,-2.71508 0,-1.42956 -0.872296,-2.58474 -2.1692779,-2.95383 -0.08652,-0.0246 -0.174458,-0.0455 -0.264571,-0.063 -0.205969,-0.0399 -0.421684,-0.0615 -0.644374,-0.0615 z m -0.31366,8.9958404 a 1.0582847,1.0583334 0 0 0 -1.042267,1.05833 1.0582847,1.0583334 0 0 0 1.058284,1.05833 1.0582847,1.0583334 0 0 0 1.058285,-1.05833 1.0582847,1.0583334 0 0 0 -1.058285,-1.05833 1.0582847,1.0583334 0 0 0 -0.01602,0 z" />
  </g>
</svg>
