<?xml version="1.0" encoding="UTF-8" standalone="no"?>
<svg
   xmlns:dc="http://purl.org/dc/elements/1.1/"
   xmlns:cc="http://creativecommons.org/ns#"
   xmlns:rdf="http://www.w3.org/1999/02/22-rdf-syntax-ns#"
   xmlns:svg="http://www.w3.org/2000/svg"
   xmlns="http://www.w3.org/2000/svg"
   xmlns:sodipodi="http://sodipodi.sourceforge.net/DTD/sodipodi-0.dtd"
   xmlns:inkscape="http://www.inkscape.org/namespaces/inkscape"
   width="64"
   height="64"
   viewBox="0 0 16.933333 16.933334"
   version="1.1"
   id="svg841"
   inkscape:version="1.0.2 (e86c870879, 2021-01-15)"
   sodipodi:docname="network-wired-disconnected-symbolic.svg">
  <defs
     id="defs835" />
  <sodipodi:namedview
     id="base"
     pagecolor="#c4c4c4"
     bordercolor="#666666"
     borderopacity="1.0"
     inkscape:pageopacity="0"
     inkscape:pageshadow="2"
     inkscape:zoom="3.1192441"
     inkscape:cx="36.05557"
     inkscape:cy="63.583784"
     inkscape:document-units="px"
     inkscape:current-layer="layer1"
     inkscape:document-rotation="0"
     showgrid="false"
     units="px"
     inkscape:window-width="2048"
     inkscape:window-height="1080"
     inkscape:window-x="0"
     inkscape:window-y="0"
     inkscape:window-maximized="1" />
  <metadata
     id="metadata838">
    <rdf:RDF>
      <cc:Work
         rdf:about="">
        <dc:format>image/svg+xml</dc:format>
        <dc:type
           rdf:resource="http://purl.org/dc/dcmitype/StillImage" />
        <dc:title />
      </cc:Work>
    </rdf:RDF>
  </metadata>
  <g
     inkscape:label="Layer 1"
     inkscape:groupmode="layer"
     id="layer1">
    <path
       id="rect1772-5-2"
       style="opacity:0.5;fill:#808084;fill-opacity:1;stroke:none;stroke-width:0;stroke-linecap:round;stroke-linejoin:round;stroke-miterlimit:4;stroke-dasharray:none;stroke-dashoffset:2.1875;stroke-opacity:1"
       d="m 5.0270832,7.6729167 c -0.439737,0 -0.79375,0.3540125 -0.79375,0.7937501 0,0.439737 0.354013,0.79375 0.79375,0.79375 h 2.179712 L 6.6290532,7.6729167 Z m 4.699455,0 0.5777428,1.5875001 h 1.601969 c 0.439738,0 0.79375,-0.354013 0.79375,-0.79375 0,-0.4397376 -0.354012,-0.7937501 -0.79375,-0.7937501 z" />
    <path
       id="rect1677-6-2-5"
       style="fill:#808084;fill-opacity:1;stroke:none;stroke-width:0;stroke-linecap:round;stroke-linejoin:round;stroke-miterlimit:4;stroke-dasharray:none;stroke-dashoffset:2.1875;stroke-opacity:1;opacity:0.5"
       d="m 3.99342,4.0231918 c -0.22847,-0.002 -0.45582,0.09474 -0.61482,0.284221 L 0.31729198,7.9557681 c -0.004,0.0053 -0.008,0.01093 -0.0123,0.01628 -0.003,0.0036 -0.005,0.0072 -0.008,0.01085 -0.0134,0.01739 -0.0263,0.03499 -0.038,0.0531 -0.002,0.0038 -0.005,0.0078 -0.007,0.01163 -0.0113,0.01805 -0.022,0.03626 -0.0316,0.05491 -0.003,0.0054 -0.005,0.01085 -0.008,0.01628 -0.009,0.01755 -0.0168,0.03513 -0.024,0.0531 -0.003,0.0069 -0.005,0.01388 -0.007,0.0208 -0.006,0.01712 -0.0125,0.03428 -0.0176,0.05168 -0.002,0.0068 -0.003,0.01378 -0.005,0.02067 -0.005,0.01777 -0.009,0.03552 -0.0125,0.05348 -0.002,0.0085 -0.003,0.01713 -0.004,0.02571 -0.002,0.01561 -0.005,0.03122 -0.006,0.0469 -0.001,0.01219 -0.001,0.02445 -0.002,0.03669 -6.2e-4,0.01297 -0.002,0.02591 -0.002,0.03889 -2e-5,0.01301 9.1e-4,0.026 0.002,0.03902 6.1e-4,0.01216 9e-4,0.02431 0.002,0.03643 0.001,0.01562 0.004,0.03109 0.006,0.04664 0.001,0.0088 0.002,0.01762 0.004,0.02636 0.003,0.01765 0.008,0.03512 0.0124,0.05258 0.002,0.0071 0.003,0.01426 0.005,0.02132 0.005,0.01854 0.0119,0.03681 0.0187,0.05503 0.002,0.0055 0.004,0.01107 0.006,0.01654 0.007,0.01825 0.0156,0.03618 0.0243,0.054 0.003,0.0055 0.005,0.011 0.008,0.01641 0.01,0.0186 0.0204,0.03677 0.0316,0.05478 0.002,0.0039 0.005,0.0078 0.007,0.01163 0.0117,0.01811 0.0246,0.03571 0.038,0.0531 0.003,0.0036 0.005,0.0073 0.008,0.01085 0.004,0.0053 0.008,0.01101 0.0123,0.01628 L 3.3789,12.625935 c 0.28266,0.336858 0.78142,0.380455 1.11828,0.0978 0.33686,-0.282659 0.38045,-0.781291 0.0978,-1.118149 L 1.961172,8.4667601 4.59498,5.3279328 C 4.87764,4.9910748 4.83405,4.4923128 4.49718,4.2096548 4.3498,4.0859918 4.17141,4.0247558 3.99372,4.0232328 Z" />
    <path
       id="rect1677-6-2-3-3"
       style="fill:#808084;fill-opacity:1;stroke:none;stroke-width:0;stroke-linecap:round;stroke-linejoin:round;stroke-miterlimit:4;stroke-dasharray:none;stroke-dashoffset:2.1875;stroke-opacity:1;opacity:0.5"
       d="m 12.939807,4.0231918 c 0.228476,-0.002 0.455832,0.09474 0.614838,0.284221 l 3.06139,3.6483553 c 0.004,0.0053 0.008,0.01093 0.0123,0.01628 0.003,0.0036 0.005,0.0072 0.008,0.01085 0.0134,0.01739 0.0263,0.03499 0.038,0.0531 0.002,0.0038 0.005,0.0078 0.007,0.01163 0.0113,0.01805 0.022,0.03626 0.0316,0.05491 0.003,0.0054 0.005,0.01085 0.008,0.01628 0.009,0.01755 0.0168,0.03513 0.024,0.0531 0.003,0.0069 0.005,0.01388 0.007,0.0208 0.006,0.01712 0.0125,0.03428 0.0176,0.05168 0.002,0.0068 0.003,0.01378 0.005,0.02067 0.005,0.01777 0.009,0.03552 0.0125,0.05348 0.002,0.0085 0.003,0.01713 0.004,0.02571 0.002,0.01561 0.005,0.03122 0.006,0.0469 10e-4,0.01219 10e-4,0.02445 0.002,0.03669 6.2e-4,0.01297 0.002,0.02591 0.002,0.03889 2e-5,0.01301 -9.11e-4,0.026 -0.002,0.03902 -6.1e-4,0.01216 -9e-4,0.02431 -0.002,0.03643 -0.001,0.01562 -0.004,0.03109 -0.006,0.04664 -0.001,0.0088 -0.002,0.01762 -0.004,0.02636 -0.003,0.01765 -0.008,0.03512 -0.0124,0.05258 -0.002,0.0071 -0.003,0.01426 -0.005,0.02132 -0.005,0.01854 -0.0119,0.03681 -0.0187,0.05503 -0.002,0.0055 -0.004,0.01107 -0.006,0.01654 -0.007,0.01825 -0.0156,0.03618 -0.0243,0.054 -0.003,0.0055 -0.005,0.011 -0.008,0.01641 -0.01,0.0186 -0.0204,0.03677 -0.0316,0.05478 -0.002,0.0039 -0.005,0.0078 -0.007,0.01163 -0.0117,0.01811 -0.0246,0.03571 -0.038,0.0531 -0.003,0.0036 -0.005,0.0073 -0.008,0.01085 -0.004,0.0053 -0.008,0.01101 -0.0123,0.01628 l -3.061392,3.6482269 c -0.282668,0.336858 -0.781442,0.380455 -1.118311,0.0978 -0.336869,-0.282659 -0.38046,-0.781291 -0.0978,-1.118149 l 2.63388,-3.1388259 -2.63388,-3.1388273 c -0.282666,-0.336858 -0.239075,-0.83562 0.0978,-1.118278 0.147385,-0.123663 0.325779,-0.184899 0.503474,-0.186422 z" />
    <path
       id="rect854-7"
       style="fill:#808084;fill-opacity:1;stroke-width:1.32289;stroke-linecap:round;stroke-linejoin:round;stroke-dashoffset:2.1875"
       d="m 6.5304874,0.08237335 c -0.12016,-0.006 -0.243792,0.011427 -0.364311,0.055292 -0.482077,0.1754608 -0.728905,0.7049005 -0.553443,1.18697515 L 11.042262,16.242184 c 0.175462,0.482075 0.704905,0.7289 1.186983,0.55344 0.482077,-0.175461 0.728904,-0.704901 0.553443,-1.186975 L 7.3531594,0.69110505 c -0.131597,-0.3615559 -0.462189,-0.590733 -0.822672,-0.6087317 z" />
  </g>
</svg>
