<?xml version="1.0" encoding="UTF-8" standalone="no"?>
<svg
   xmlns:dc="http://purl.org/dc/elements/1.1/"
   xmlns:cc="http://creativecommons.org/ns#"
   xmlns:rdf="http://www.w3.org/1999/02/22-rdf-syntax-ns#"
   xmlns:svg="http://www.w3.org/2000/svg"
   xmlns="http://www.w3.org/2000/svg"
   xmlns:sodipodi="http://sodipodi.sourceforge.net/DTD/sodipodi-0.dtd"
   xmlns:inkscape="http://www.inkscape.org/namespaces/inkscape"
   width="64"
   height="64"
   viewBox="0 0 64 64"
   version="1.1"
   id="svg6374"
   inkscape:version="1.0.2 (e86c870879, 2021-01-15)"
   sodipodi:docname="orientation-portrait-symbolic.svg">
  <defs
     id="defs6368" />
  <sodipodi:namedview
     id="base"
     pagecolor="#cecece"
     bordercolor="#666666"
     borderopacity="1.0"
     inkscape:pageopacity="0"
     inkscape:pageshadow="2"
     inkscape:zoom="2.3858194"
     inkscape:cx="48.944976"
     inkscape:cy="52.264955"
     inkscape:document-units="px"
     inkscape:current-layer="layer1"
     inkscape:document-rotation="0"
     showgrid="false"
     units="px"
     inkscape:window-width="2048"
     inkscape:window-height="1080"
     inkscape:window-x="0"
     inkscape:window-y="0"
     inkscape:window-maximized="1" />
  <metadata
     id="metadata6371">
    <rdf:RDF>
      <cc:Work
         rdf:about="">
        <dc:format>image/svg+xml</dc:format>
        <dc:type
           rdf:resource="http://purl.org/dc/dcmitype/StillImage" />
        <dc:title></dc:title>
      </cc:Work>
    </rdf:RDF>
  </metadata>
  <g
     inkscape:label="Layer 1"
     inkscape:groupmode="layer"
     id="layer1">
    <path
       id="rect2988-6"
       style="display:inline;fill:#808084;fill-opacity:1;stroke-width:0;stroke-dashoffset:2.1875"
       d="M 11,0 C 7.122,0 4,3.1219999 4,6.9999999 V 57 c 0,3.878 3.122,7 7,7 h 42 c 3.878,0 7,-3.122 7,-7 V 6.9999999 C 60,3.1219999 56.878,0 53,0 Z m 2,5.4999999 h 38 c 1.939,0 3.5,1.561 3.5,3.5 V 55 c 0,1.939 -1.561,3.5 -3.5,3.5 H 13 C 11.061,58.5 9.5,56.939 9.5,55 V 8.9999999 c 0,-1.939 1.561,-3.5 3.5,-3.5 z" />
    <path
       id="rect1642-4"
       style="display:inline;fill:#808084;fill-opacity:1;stroke-width:0;stroke-dashoffset:2.1875"
       d="m 41.36916,34.82854 c 1.56695,-1.56695 1.56695,-4.08991 0,-5.65686 L 28.28768,16.09021 c -1.56695,-1.56695 -4.0899,-1.56695 -5.65685,0 -1.56695,1.56695 -1.56695,4.0899 0,5.65685 L 32.88388,32.00011 22.63083,42.25316 c -1.56695,1.56695 -1.56695,4.0899 0,5.65685 1.56695,1.56695 4.0899,1.56695 5.65685,0 z" />
  </g>
</svg>
