<?xml version="1.0" encoding="UTF-8" standalone="no"?>
<svg
   xmlns:dc="http://purl.org/dc/elements/1.1/"
   xmlns:cc="http://creativecommons.org/ns#"
   xmlns:rdf="http://www.w3.org/1999/02/22-rdf-syntax-ns#"
   xmlns:svg="http://www.w3.org/2000/svg"
   xmlns="http://www.w3.org/2000/svg"
   xmlns:sodipodi="http://sodipodi.sourceforge.net/DTD/sodipodi-0.dtd"
   xmlns:inkscape="http://www.inkscape.org/namespaces/inkscape"
   width="64"
   height="64"
   viewBox="0 0 64 64"
   version="1.1"
   id="svg6374"
   inkscape:version="1.0.2 (e86c870879, 2021-01-15)"
   sodipodi:docname="simcard-error-symbolic.svg">
  <defs
     id="defs6368" />
  <sodipodi:namedview
     id="base"
     pagecolor="#cecece"
     bordercolor="#666666"
     borderopacity="1.0"
     inkscape:pageopacity="0"
     inkscape:pageshadow="2"
     inkscape:zoom="3.6817035"
     inkscape:cx="57.479841"
     inkscape:cy="38.218027"
     inkscape:document-units="px"
     inkscape:current-layer="layer1"
     inkscape:document-rotation="0"
     showgrid="false"
     units="px"
     inkscape:window-width="1500"
     inkscape:window-height="970"
     inkscape:window-x="68"
     inkscape:window-y="56"
     inkscape:window-maximized="0" />
  <metadata
     id="metadata6371">
    <rdf:RDF>
      <cc:Work
         rdf:about="">
        <dc:format>image/svg+xml</dc:format>
        <dc:type
           rdf:resource="http://purl.org/dc/dcmitype/StillImage" />
        <dc:title></dc:title>
      </cc:Work>
    </rdf:RDF>
  </metadata>
  <g
     inkscape:label="Layer 1"
     inkscape:groupmode="layer"
     id="layer1">
    <path
       id="path92-3-1"
       style="opacity:0.75;fill:#808084;fill-opacity:1;stroke:none;stroke-width:4.4542;stroke-linecap:round;stroke-linejoin:round;stroke-miterlimit:4;stroke-dasharray:none;stroke-opacity:1;stop-color:#000000"
       d="m 18.5,0.75 c -3.7395,0 -6.75,3.34499 -6.75,7.5 v 47.5 c 0,4.15503 3.0105,7.5 6.75,7.5 H 38.841797 A 17.5,17.5 0 0 1 32.388672,54.5 H 29 v -7 h 2.564453 a 17.5,17.5 0 0 1 0.523438,-3 H 19.5 V 35 h 19 A 17.5,17.5 0 0 1 49,31.5 17.5,17.5 0 0 1 52.25,31.80469 V 20.71875 15.03516 L 37.964844,0.75 H 32.283203 Z M 22,24.5 h 4 V 32 h -6.5 v -5 c 0,-1.38499 1.115002,-2.5 2.5,-2.5 z m 7,0 h 6.5 V 32 H 29 Z m 9.5,0 H 42 c 1.38499,0 2.5,1.11501 2.5,2.5 v 5 h -6 z m -19,23 H 26 v 7 h -4 c -1.384998,0 -2.5,-1.11501 -2.5,-2.5 z" />
    <path
       id="path1282-9-9"
       style="display:inline;fill:#cb2a58;fill-opacity:1;stroke-width:0;stroke-linecap:round;stroke-linejoin:round;stroke-dashoffset:2.1875"
       d="m 48.8867,34.00011 a 15,15.000001 0 0 0 -14.8867,15 15,15.000001 0 0 0 15,15.00004 15,15.000001 0 0 0 15,-15.00004 15,15.000001 0 0 0 -15,-15 15,15.000001 0 0 0 -0.1133,0 z M 47.25,37.5001 h 3.5 c 0.554,0 1,0.44602 1,1.00007 v 12 c 0,0.55396 -0.446,0.99998 -1,0.99998 h -3.5 c -0.554,0 -1,-0.44602 -1,-0.99998 v -12 c 0,-0.55405 0.446,-1.00007 1,-1.00007 z M 49,53.50017 a 3.4999999,3.5000001 0 0 1 3.5,3.49995 3.4999999,3.5000001 0 0 1 -3.5,3.50003 3.4999999,3.5000001 0 0 1 -3.5,-3.50003 3.4999999,3.5000001 0 0 1 3.5,-3.49995 z"
       class="error" />
  </g>
</svg>
