<?xml version="1.0" encoding="UTF-8" standalone="no"?>
<svg
   xmlns:dc="http://purl.org/dc/elements/1.1/"
   xmlns:cc="http://creativecommons.org/ns#"
   xmlns:rdf="http://www.w3.org/1999/02/22-rdf-syntax-ns#"
   xmlns:svg="http://www.w3.org/2000/svg"
   xmlns="http://www.w3.org/2000/svg"
   xmlns:sodipodi="http://sodipodi.sourceforge.net/DTD/sodipodi-0.dtd"
   xmlns:inkscape="http://www.inkscape.org/namespaces/inkscape"
   width="64"
   height="64"
   viewBox="0 0 64 64"
   version="1.1"
   id="svg6374"
   inkscape:version="1.0.2 (e86c870879, 2021-01-15)"
   sodipodi:docname="software-update-available-symbolic.svg">
  <defs
     id="defs6368" />
  <sodipodi:namedview
     id="base"
     pagecolor="#cecece"
     bordercolor="#666666"
     borderopacity="1.0"
     inkscape:pageopacity="0"
     inkscape:pageshadow="2"
     inkscape:zoom="5.5639287"
     inkscape:cx="8.3100654"
     inkscape:cy="29.73153"
     inkscape:document-units="px"
     inkscape:current-layer="layer1"
     inkscape:document-rotation="0"
     showgrid="false"
     units="px"
     inkscape:window-width="1500"
     inkscape:window-height="970"
     inkscape:window-x="68"
     inkscape:window-y="56"
     inkscape:window-maximized="0" />
  <metadata
     id="metadata6371">
    <rdf:RDF>
      <cc:Work
         rdf:about="">
        <dc:format>image/svg+xml</dc:format>
        <dc:type
           rdf:resource="http://purl.org/dc/dcmitype/StillImage" />
        <dc:title></dc:title>
      </cc:Work>
    </rdf:RDF>
  </metadata>
  <g
     inkscape:label="Layer 1"
     inkscape:groupmode="layer"
     id="layer1">
    <path
       id="path967-7-9-3-3-87-3-5-3-7-2"
       style="display:inline;fill:#808084;fill-opacity:1;stroke:none;stroke-width:7.8787;stroke-linecap:round;stroke-linejoin:round;stroke-miterlimit:4;stroke-dasharray:none;stroke-dashoffset:2.1875"
       d="M 32.02344,3.6055003e-7 C 29.56842,-0.00219964 25.59114,10.06425 23.32227,11.00195 21.05339,11.93966 11.12794,7.6208804 9.3906203,9.3554704 7.6533003,11.09008 11.95689,21.02166 11.01562,23.28906 10.07435,25.55646 0.0019303,29.52154 2.9798578e-7,31.97656 -0.0019997,34.43158 10.06423,38.40886 11.00195,40.67773 11.93966,42.94661 7.6208603,52.87206 9.3554703,54.60938 11.09006,56.3467 21.02166,52.0431 23.28906,52.98438 25.55647,53.92564 29.52155,63.99807 31.97656,64 c 2.45502,0.002 6.4323,-10.06424 8.70117,-11.00195 2.26888,-0.93772 12.19433,3.38108 13.93165,1.64648 C 56.3467,52.90995 52.04311,42.97835 52.98438,40.71094 53.92566,38.44354 63.99808,34.47846 64,32.02344 64.002,29.56842 53.93577,25.59114 52.99805,23.32227 52.06033,21.05338 56.37914,11.12795 54.64453,9.3906304 52.90994,7.6533104 42.97834,11.95689 40.71094,11.01563 38.44353,10.07435 34.47846,0.00193036 32.02344,3.6055003e-7 Z M 32.00004,16 a 0.8011833,0.72863185 0 0 1 0.65625,0.31055 L 43.85551,30.85352 A 0.8011833,0.72863185 0 0 1 43.20707,32 h -6.88672 -0.82031 v 15.25 c 0,0.4155 -0.33451,0.75 -0.75,0.75 h -5.5 c -0.41549,0 -0.75,-0.3345 -0.75,-0.75 V 32 h -0.82031 -6.87891 a 0.8011833,0.72863185 0 0 1 -0.80078,-0.71289 0.8011833,0.72863185 0 0 1 0.14453,-0.43359 L 31.34379,16.31055 A 0.8011833,0.72863185 0 0 1 32.00004,16 Z" />
  </g>
</svg>
