<?xml version="1.0" encoding="UTF-8" standalone="no"?>
<svg
   xmlns:dc="http://purl.org/dc/elements/1.1/"
   xmlns:cc="http://creativecommons.org/ns#"
   xmlns:rdf="http://www.w3.org/1999/02/22-rdf-syntax-ns#"
   xmlns:svg="http://www.w3.org/2000/svg"
   xmlns="http://www.w3.org/2000/svg"
   xmlns:sodipodi="http://sodipodi.sourceforge.net/DTD/sodipodi-0.dtd"
   xmlns:inkscape="http://www.inkscape.org/namespaces/inkscape"
   width="64"
   height="64"
   viewBox="0 0 64 64"
   version="1.1"
   id="svg6374"
   inkscape:version="1.0.2 (e86c870879, 2021-01-15)"
   sodipodi:docname="user-trash-full.svg">
  <defs
     id="defs6368" />
  <sodipodi:namedview
     id="base"
     pagecolor="#cecece"
     bordercolor="#666666"
     borderopacity="1.0"
     inkscape:pageopacity="0"
     inkscape:pageshadow="2"
     inkscape:zoom="16.625435"
     inkscape:cx="43.798647"
     inkscape:cy="30.206715"
     inkscape:document-units="px"
     inkscape:current-layer="layer1"
     inkscape:document-rotation="0"
     showgrid="false"
     units="px"
     inkscape:window-width="1500"
     inkscape:window-height="970"
     inkscape:window-x="68"
     inkscape:window-y="56"
     inkscape:window-maximized="0" />
  <metadata
     id="metadata6371">
    <rdf:RDF>
      <cc:Work
         rdf:about="">
        <dc:format>image/svg+xml</dc:format>
        <dc:type
           rdf:resource="http://purl.org/dc/dcmitype/StillImage" />
        <dc:title />
      </cc:Work>
    </rdf:RDF>
  </metadata>
  <g
     inkscape:label="Layer 1"
     inkscape:groupmode="layer"
     id="layer1">
    <path
       id="path1200-8-9-3-6-1-7"
       style="color:#000000;font-style:normal;font-variant:normal;font-weight:normal;font-stretch:normal;font-size:medium;line-height:normal;font-family:sans-serif;font-variant-ligatures:normal;font-variant-position:normal;font-variant-caps:normal;font-variant-numeric:normal;font-variant-alternates:normal;font-variant-east-asian:normal;font-feature-settings:normal;font-variation-settings:normal;text-indent:0;text-align:start;text-decoration:none;text-decoration-line:none;text-decoration-style:solid;text-decoration-color:#000000;letter-spacing:normal;word-spacing:normal;text-transform:none;writing-mode:lr-tb;direction:ltr;text-orientation:mixed;dominant-baseline:auto;baseline-shift:baseline;text-anchor:start;white-space:normal;shape-padding:0;shape-margin:0;inline-size:0;clip-rule:nonzero;display:inline;overflow:visible;visibility:visible;opacity:0.15;isolation:auto;mix-blend-mode:normal;color-interpolation:sRGB;color-interpolation-filters:linearRGB;solid-color:#000000;solid-opacity:1;vector-effect:none;fill:#0c0c0c;fill-opacity:1;fill-rule:nonzero;stroke:none;stroke-linecap:round;stroke-linejoin:round;stroke-miterlimit:4;stroke-dasharray:none;stroke-dashoffset:0;stroke-opacity:1;paint-order:stroke fill markers;color-rendering:auto;image-rendering:auto;shape-rendering:auto;text-rendering:auto;enable-background:accumulate;stop-color:#000000"
       d="m 31.852578,1.751027 c -5.28093,0.025 -10.55719,0.50795 -15.01562,1.45898 -4.458424,0.95104 -8.1067339,2.3095 -10.1972639,4.41993 -2.09059,2.11047 -3.41377,5.77294 -4.32227,10.24023 -0.90849,4.46729 -1.34141001,9.74654 -1.3164,15.02735 0.025,5.2808 0.50821,10.55715 1.45898,15.01562 0.95078,4.45848 2.30746,8.10671 4.41797,10.19727 2.1105,2.09055 5.7728839,3.41378 10.2402339,4.32226 4.46735,0.90849 9.74841,1.34142 15.02929,1.31641 5.28089,-0.025 10.55514,-0.50822 15.01368,-1.45898 4.45853,-0.95076 8.10862,-2.3075 10.19921,-4.41797 2.09059,-2.11048 3.41377,-5.77295 4.32227,-10.24024 0.9085,-4.46728 1.34142,-9.74654 1.31641,-15.02734 -0.025,-5.28081 -0.50821,-10.55716 -1.45899,-15.01563 -0.95077,-4.45847 -2.30746,-8.10866 -4.41797,-10.19922 -2.11048,-2.09053 -5.77277,-3.4135 -10.24023,-4.32227 -4.46747,-0.90876 -9.74835,-1.34144 -15.0293,-1.3164 z m 0.01,2 c 5.16461,-0.0245 10.33478,0.40542 14.6211,1.27734 3.48421,0.70876 6.0926,1.79262 7.88671,2.98242 -0.21809,-0.003 -0.38799,-0.0122 -0.64648,-0.008 a 1.0001,1.0001 0 0 0 -0.16797,0.0176 1.0001,1.0001 0 0 0 -0.006,0.002 c -1.76469,0.0427 -4.30222,0.32593 -6.87305,1.75196 -2.83688,1.57366 -5.44105,4.3383 -7.95703,6.6582 -2.51598,2.3199 -4.91809,4.07384 -6.81836,4.07617 -1.89987,0.002 -4.15834,-1.73188 -6.54296,-4.04687 -2.38463,-2.31499 -4.85437,-5.08535 -7.67383,-6.66407 -2.14528,-1.20117 -4.34646,-1.59644 -6.089844,-1.71679 -0.75619,-0.0522 -1.37557,-0.0417 -1.9179699,-0.0312 1.7968699,-1.13491 4.2701239,-2.17718 7.5781239,-2.88281 4.27762,-0.91247 9.44281,-1.39155 14.60742,-1.41602 z m 21.89453,6.25195 c 0.36155,-0.006 0.64889,0.002 0.9336,0.01 -3.4e-4,0.0366 -0.007,0.0586 -0.008,0.0977 -0.014,0.5464 -0.0384,1.22959 -0.1211,2.00391 -0.16534,1.54863 -0.56876,3.45317 -1.59375,5.2832 -1.32635,2.36834 -3.87031,4.8245 -6.16211,7.3086 -2.2918,2.4841 -4.42931,5.02811 -4.55273,8.00391 a 1.0001,1.0001 0 0 0 0,0.082 c 0.12369,2.97566 2.26099,5.51978 4.55273,8.0039 2.29175,2.48414 4.83578,4.94034 6.16211,7.3086 1.02502,1.83009 1.42841,3.73508 1.59375,5.2832 0.0827,0.77406 0.10706,1.45574 0.1211,2.00196 0.001,0.0391 0.008,0.0611 0.008,0.0977 -0.28469,0.008 -0.57206,0.0179 -0.9336,0.0117 -1.59092,-0.0266 -3.86794,-0.27816 -6.10937,-1.52148 -2.40316,-1.33308 -4.9875,-3.99726 -7.57031,-6.37891 -2.58282,-2.38165 -5.18966,-4.60241 -8.17383,-4.60547 -2.98454,-0.004 -5.48671,2.2315 -7.9375,4.61133 -2.45079,2.37982 -4.89313,5.03053 -7.25586,6.35351 -2.80324,1.56956 -5.750784,1.5303 -7.3847639,1.48438 5.6e-4,-0.0259 0.005,-0.0412 0.006,-0.0684 0.0189,-0.54682 0.047,-1.2279 0.13476,-2.00195 0.17549,-1.54812 0.5899499,-3.45263 1.6230499,-5.27735 1.33834,-2.36382 3.887524,-4.81788 6.181644,-7.30078 2.29412,-2.4829 4.43103,-5.02658 4.55469,-8.00195 a 1.0001,1.0001 0 0 0 0,-0.082 c -0.12338,-2.97552 -2.26051,-5.51958 -4.55469,-8.00196 -2.29418,-2.48237 -4.843314,-4.935 -6.181644,-7.29883 -1.03306,-1.82465 -1.4475599,-3.72872 -1.6230499,-5.27734 -0.0877,-0.77432 -0.1159,-1.4569 -0.13476,-2.00391 -10e-4,-0.0334 -0.007,-0.0525 -0.008,-0.084 0.0425,-0.002 0.0657,10e-4 0.11132,0 0.55376,-0.0141 1.2450399,-0.0205 2.0234399,0.0332 1.556804,0.10747 3.452134,0.46014 5.250004,1.4668 2.36282,1.32302 4.80459,3.97383 7.25586,6.35351 2.45127,2.37969 4.95505,4.61439 7.93945,4.61133 2.98403,-0.004 5.59102,-2.2259 8.17383,-4.60742 2.58281,-2.38152 5.16712,-5.04387 7.57031,-6.37695 2.2414,-1.2433 4.51829,-1.49467 6.10938,-1.52149 z m -46.4221039,0.24805 c 0.0193,0.55245 0.0479,1.26961 0.14258,2.10547 0.19436,1.71514 0.65819,3.89482 1.87109,6.03711 1.5711999,2.77512 4.2225639,5.25834 6.4531239,7.67188 2.21628,2.39807 3.90666,4.69372 4.00977,6.68554 -0.10329,1.9918 -1.79352,4.28694 -4.00977,6.68555 -2.23051,2.41406 -4.881994,4.89885 -6.4531239,7.67383 -1.21286,2.14223 -1.67673,4.32049 -1.87109,6.03515 -0.0898,0.79221 -0.11522,1.45535 -0.13477,1.9961 -1.15243,-1.79454 -2.21343,-4.29689 -2.92773,-7.64649 -0.91222,-4.27768 -1.3896,-9.44287 -1.41406,-14.60742 -0.0245,-5.16454 0.40373,-10.33301 1.27539,-14.61914 0.72416,-3.56085 1.83607,-6.23387 3.05859,-8.01758 z m 49.3320239,0.12695 c 1.14798,1.7952 2.20591,4.28982 2.91797,7.62891 0.91222,4.27768 1.38961,9.44288 1.41407,14.60742 0.0245,5.16455 -0.40374,10.33302 -1.27539,14.61914 -0.72218,3.55112 -1.83048,6.21484 -3.04883,8 -0.0147,-0.54916 -0.0358,-1.24128 -0.12305,-2.05859 -0.18335,-1.7168 -0.63628,-3.89801 -1.83984,-6.04687 -1.5594,-2.78442 -4.20649,-5.27327 -6.43555,-7.68946 -2.21479,-2.40071 -3.90646,-4.69595 -4.00977,-6.6875 0.10313,-1.99159 1.79494,-4.28683 4.00977,-6.6875 2.2291,-2.41613 4.8761,-4.90492 6.43555,-7.68945 1.20359,-2.14893 1.65649,-4.33156 1.83984,-6.04883 0.0826,-0.7733 0.1,-1.41086 0.11523,-1.94727 z m -24.76562,34.61524 c 1.90013,0.002 4.30239,1.75616 6.81836,4.07617 2.51597,2.32001 5.1201,5.08256 7.95703,6.65625 2.64271,1.46592 5.27926,1.74386 7.04688,1.77344 0.21163,0.004 0.34423,-0.006 0.52929,-0.008 -1.79842,1.11746 -4.24072,2.14706 -7.50781,2.84375 -4.27775,0.91221 -9.44279,1.3896 -14.60742,1.41406 -5.16463,0.0245 -10.33489,-0.40374 -14.62109,-1.27539 -3.54339,-0.72059 -6.200004,-1.82601 -7.9863339,-3.04102 1.7173899,0.046 4.9358139,0.0738 8.1582039,-1.73046 2.81954,-1.57878 5.28579,-4.34897 7.66993,-6.66407 2.38412,-2.3151 4.64322,-4.04725 6.54296,-4.04492 z" />
    <path
       id="path1200-8-9-3-6-1"
       style="color:#000000;font-style:normal;font-variant:normal;font-weight:normal;font-stretch:normal;font-size:medium;line-height:normal;font-family:sans-serif;font-variant-ligatures:normal;font-variant-position:normal;font-variant-caps:normal;font-variant-numeric:normal;font-variant-alternates:normal;font-variant-east-asian:normal;font-feature-settings:normal;font-variation-settings:normal;text-indent:0;text-align:start;text-decoration:none;text-decoration-line:none;text-decoration-style:solid;text-decoration-color:#000000;letter-spacing:normal;word-spacing:normal;text-transform:none;writing-mode:lr-tb;direction:ltr;text-orientation:mixed;dominant-baseline:auto;baseline-shift:baseline;text-anchor:start;white-space:normal;shape-padding:0;shape-margin:0;inline-size:0;clip-rule:nonzero;display:inline;overflow:visible;visibility:visible;isolation:auto;mix-blend-mode:normal;color-interpolation:sRGB;color-interpolation-filters:linearRGB;solid-color:#000000;solid-opacity:1;vector-effect:none;fill:#464649;fill-opacity:1;fill-rule:nonzero;stroke:none;stroke-linecap:round;stroke-linejoin:round;stroke-miterlimit:4;stroke-dasharray:none;stroke-dashoffset:0;stroke-opacity:1;paint-order:stroke fill markers;color-rendering:auto;image-rendering:auto;shape-rendering:auto;text-rendering:auto;enable-background:accumulate;stop-color:#000000"
       d="m 31.852574,1.001027 c -5.28093,0.025 -10.55719,0.50795 -15.01562,1.45898 -4.45842,0.95104 -8.1067302,2.3095 -10.1972602,4.41993 -2.0905897,2.11047 -3.4137697,5.77294 -4.3222697,10.24023 -0.90849,4.46729 -1.34141001,9.74654 -1.3164,15.02735 0.025,5.2808 0.50821,10.55715 1.45898,15.01562 0.95078,4.45848 2.30746,8.10671 4.4179697,10.19727 2.1105,2.09055 5.7728802,3.41378 10.2402302,4.32226 4.46735,0.90849 9.74841,1.34142 15.02929,1.31641 5.28089,-0.025 10.55514,-0.50822 15.01368,-1.45898 4.45853,-0.95076 8.10862,-2.3075 10.19921,-4.41797 2.09059,-2.11048 3.41377,-5.77295 4.32227,-10.24024 0.9085,-4.46728 1.34142,-9.74654 1.31641,-15.02734 -0.025,-5.28081 -0.50821,-10.55716 -1.45899,-15.01563 -0.95077,-4.45847 -2.30746,-8.10866 -4.41797,-10.19922 -2.11048,-2.09053 -5.77277,-3.4135 -10.24023,-4.32227 -4.46747,-0.90876 -9.74835,-1.34144 -15.0293,-1.3164 z m 0.01,2 c 5.16461,-0.0245 10.33478,0.40542 14.6211,1.27734 3.48421,0.70876 6.0926,1.79262 7.88671,2.98242 -0.21809,-0.003 -0.38799,-0.0122 -0.64648,-0.008 a 1.0001,1.0001 0 0 0 -0.16797,0.0176 1.0001,1.0001 0 0 0 -0.006,0.002 c -1.76469,0.0427 -4.30222,0.32593 -6.87305,1.75196 -2.83688,1.57366 -5.44105,4.3383 -7.95703,6.6582 -2.51598,2.3199 -4.91809,4.07384 -6.81836,4.07617 -1.89987,0.002 -4.15834,-1.73188 -6.54296,-4.04687 -2.38463,-2.31499 -4.85437,-5.08535 -7.67383,-6.66407 -2.14528,-1.20117 -4.34646,-1.59644 -6.08984,-1.71679 -0.75619,-0.0522 -1.37557,-0.0417 -1.9179702,-0.0312 1.7968702,-1.13491 4.2701202,-2.17718 7.5781202,-2.88281 4.27762,-0.91247 9.44281,-1.39155 14.60742,-1.41602 z m 21.89453,6.25195 c 0.36155,-0.006 0.64889,0.002 0.9336,0.01 -3.4e-4,0.0366 -0.007,0.0586 -0.008,0.0977 -0.014,0.5464 -0.0384,1.22959 -0.1211,2.00391 -0.16534,1.54863 -0.56876,3.45317 -1.59375,5.2832 -1.32635,2.36834 -3.87031,4.8245 -6.16211,7.3086 -2.2918,2.4841 -4.42931,5.02811 -4.55273,8.00391 a 1.0001,1.0001 0 0 0 0,0.082 c 0.12369,2.97566 2.26099,5.51978 4.55273,8.0039 2.29175,2.48414 4.83578,4.94034 6.16211,7.3086 1.02502,1.83009 1.42841,3.73508 1.59375,5.2832 0.0827,0.77406 0.10706,1.45574 0.1211,2.00196 10e-4,0.0391 0.008,0.0611 0.008,0.0977 -0.28469,0.008 -0.57206,0.0179 -0.9336,0.0117 -1.59092,-0.0266 -3.86794,-0.27816 -6.10937,-1.52148 -2.40316,-1.33308 -4.9875,-3.99726 -7.57031,-6.37891 -2.58282,-2.38165 -5.18966,-4.60241 -8.17383,-4.60547 -2.98454,-0.004 -5.48671,2.2315 -7.9375,4.61133 -2.45079,2.37982 -4.89313,5.03053 -7.25586,6.35351 -2.80324,1.56956 -5.75078,1.5303 -7.3847602,1.48438 5.6e-4,-0.0259 0.005,-0.0412 0.006,-0.0684 0.0189,-0.54682 0.047,-1.2279 0.13476,-2.00195 0.17549,-1.54812 0.5899502,-3.45263 1.6230502,-5.27735 1.33834,-2.36382 3.88752,-4.81788 6.18164,-7.30078 2.29412,-2.4829 4.43103,-5.02658 4.55469,-8.00195 a 1.0001,1.0001 0 0 0 0,-0.082 c -0.12338,-2.97552 -2.26051,-5.51958 -4.55469,-8.00196 -2.29418,-2.48237 -4.84331,-4.935 -6.18164,-7.29883 -1.03306,-1.82465 -1.4475602,-3.72872 -1.6230502,-5.27734 -0.0877,-0.77432 -0.1159,-1.4569 -0.13476,-2.00391 -10e-4,-0.0334 -0.007,-0.0525 -0.008,-0.084 0.0425,-0.002 0.0657,10e-4 0.11132,0 0.55376,-0.0141 1.2450402,-0.0205 2.0234402,0.0332 1.5568,0.10747 3.45213,0.46014 5.25,1.4668 2.36282,1.32302 4.80459,3.97383 7.25586,6.35351 2.45127,2.37969 4.95505,4.61439 7.93945,4.61133 2.98403,-0.004 5.59102,-2.2259 8.17383,-4.60742 2.58281,-2.38152 5.16712,-5.04387 7.57031,-6.37695 2.2414,-1.2433 4.51829,-1.49467 6.10938,-1.52149 z M 7.3350038,9.501027 c 0.0193,0.55245 0.0479,1.26961 0.14258,2.10547 0.19436,1.71514 0.65819,3.89482 1.87109,6.03711 1.5712002,2.77512 4.2225602,5.25834 6.4531202,7.67188 2.21628,2.39807 3.90666,4.69372 4.00977,6.68554 -0.10329,1.9918 -1.79352,4.28694 -4.00977,6.68555 -2.23051,2.41406 -4.88199,4.89885 -6.4531202,7.67383 -1.21286,2.14223 -1.67673,4.32049 -1.87109,6.03515 -0.0898,0.79221 -0.11522,1.45535 -0.13477,1.9961 -1.15243,-1.79454 -2.2134297,-4.29689 -2.9277297,-7.64649 -0.91222,-4.27768 -1.3896,-9.44287 -1.41406,-14.60742 -0.0245,-5.16454 0.40373,-10.33301 1.27539,-14.61914 0.72416,-3.56085 1.8360697,-6.23387 3.0585897,-8.01758 z m 49.3320202,0.12695 c 1.14798,1.7952 2.20591,4.28982 2.91797,7.62891 0.91222,4.27768 1.38961,9.44288 1.41407,14.60742 0.0245,5.16455 -0.40374,10.33302 -1.27539,14.61914 -0.72218,3.55112 -1.83048,6.21484 -3.04883,8 -0.0147,-0.54916 -0.0358,-1.24128 -0.12305,-2.05859 -0.18335,-1.7168 -0.63628,-3.89801 -1.83984,-6.04687 -1.5594,-2.78442 -4.20649,-5.27327 -6.43555,-7.68946 -2.21479,-2.40071 -3.90646,-4.69595 -4.00977,-6.6875 0.10313,-1.99159 1.79494,-4.28683 4.00977,-6.6875 2.2291,-2.41613 4.8761,-4.90492 6.43555,-7.68945 1.20359,-2.14893 1.65649,-4.33156 1.83984,-6.04883 0.0826,-0.7733 0.1,-1.41086 0.11523,-1.94727 z m -24.76562,34.61524 c 1.90013,0.002 4.30239,1.75616 6.81836,4.07617 2.51597,2.32001 5.1201,5.08256 7.95703,6.65625 2.64271,1.46592 5.27926,1.74386 7.04688,1.77344 0.21163,0.004 0.34423,-0.006 0.52929,-0.008 -1.79842,1.11746 -4.24072,2.14706 -7.50781,2.84375 -4.27775,0.91221 -9.44279,1.3896 -14.60742,1.41406 -5.16463,0.0245 -10.33489,-0.40374 -14.62109,-1.27539 -3.54339,-0.72059 -6.2,-1.82601 -7.9863302,-3.04102 1.7173902,0.046 4.9358102,0.0738 8.1582002,-1.73046 2.81954,-1.57878 5.28579,-4.34897 7.66993,-6.66407 2.38412,-2.3151 4.64322,-4.04725 6.54296,-4.04492 z" />
    <path
       id="path1200-8-9-0"
       style="fill:#d2d2d8;fill-opacity:1;stroke:none;stroke-width:0;stroke-linecap:round;stroke-linejoin:round;stroke-miterlimit:4;stroke-dasharray:none;stroke-opacity:1;paint-order:stroke fill markers"
       d="m 31.857464,2.001057 c -10.44555,0.0495 -20.88194,1.92157 -24.5078102,5.58194 -7.25175971,7.32074 -7.08842971,41.81596 0.23242,49.06761 7.3208502,7.25165 41.8166002,7.08832 49.0683602,-0.23242 7.25176,-7.32074 7.08843,-41.81595 -0.23242,-49.0676 -3.66043,-3.62583 -14.11499,-5.39906 -24.56055,-5.34953 z m 21.88282,6.25185 c 1.00752,-0.0169 1.73452,0.051 2.00976,0.0156 -0.19696,0.69155 0.31842,4.88809 -1.91016,8.86705 -2.8858,5.15287 -10.3815,9.88879 -10.58789,14.86501 0.20684,4.97605 7.70216,9.71232 10.58789,14.865 2.22858,3.97895 1.7132,8.17355 1.91016,8.8651 -0.27524,-0.0354 -1.00223,0.0347 -2.00976,0.0176 -1.67927,-0.0281 -4.13606,-0.29184 -6.57813,-1.64646 -5.24009,-2.90677 -10.37547,-10.85421 -15.25977,-10.85921 -4.88428,-0.006 -9.52085,7.93597 -14.70312,10.83773 -3.15553,1.7668 -6.47928,1.66395 -8.0781302,1.61715 -0.003,-7e-5 -0.006,0 -0.008,0 -0.39469,-0.0117 -0.7144,-0.0198 -0.86328,0.006 0.2121,-0.68477 -0.27722,-4.88447 1.9687402,-8.85142 2.90948,-5.13881 10.40062,-9.87532 10.60743,-14.85133 -0.20634,-4.9762 -7.69789,-9.71043 -10.60743,-14.84938 -2.2459602,-3.96694 -1.7566202,-8.16864 -1.9687402,-8.85339 0.75065,0.12695 5.0041202,-0.5848 8.9472702,1.62303 5.18228,2.90174 9.8208,10.84272 14.70507,10.83772 4.8843,-0.006 10.01969,-7.95245 15.25977,-10.8592 2.44207,-1.35461 4.89888,-1.61817 6.57813,-1.64647 z" />
    <path
       id="path1200-8-9-1-2-1-5"
       style="color:#000000;font-style:normal;font-variant:normal;font-weight:normal;font-stretch:normal;font-size:medium;line-height:normal;font-family:sans-serif;font-variant-ligatures:normal;font-variant-position:normal;font-variant-caps:normal;font-variant-numeric:normal;font-variant-alternates:normal;font-variant-east-asian:normal;font-feature-settings:normal;font-variation-settings:normal;text-indent:0;text-align:start;text-decoration:none;text-decoration-line:none;text-decoration-style:solid;text-decoration-color:#000000;letter-spacing:normal;word-spacing:normal;text-transform:none;writing-mode:lr-tb;direction:ltr;text-orientation:mixed;dominant-baseline:auto;baseline-shift:baseline;text-anchor:start;white-space:normal;shape-padding:0;shape-margin:0;inline-size:0;clip-rule:nonzero;display:inline;overflow:visible;visibility:visible;opacity:0.1;isolation:auto;mix-blend-mode:normal;color-interpolation:sRGB;color-interpolation-filters:linearRGB;solid-color:#000000;solid-opacity:1;vector-effect:none;fill:#323234;fill-opacity:1;fill-rule:nonzero;stroke:none;stroke-width:1;stroke-linecap:round;stroke-linejoin:round;stroke-miterlimit:4;stroke-dasharray:none;stroke-dashoffset:0;stroke-opacity:1;paint-order:stroke fill markers;color-rendering:auto;image-rendering:auto;shape-rendering:auto;text-rendering:auto;enable-background:accumulate;stop-color:#000000"
       d="m 14.451215,2.000177 c -0.89771,0.23277 -1.76694,0.4825 -2.58203,0.76367 0.81793,-0.28188 1.69068,-0.53069 2.5918,-0.76367 z m 35.4375,0 c 0.67531,0.1793 1.33877,0.36502 1.96484,0.57422 -0.62421,-0.20872 -1.28581,-0.395 -1.95898,-0.57422 z m -18.03125,0.004 c -10.44585,0.0495 -20.88184,1.91788 -24.5078192,5.57813 -7.25196041,7.3205 -7.08863041,41.81694 0.23242,49.06835 7.3210592,7.25142 41.8163992,7.08808 49.0683692,-0.23242 7.25197,-7.3205 7.08864,-41.81694 -0.23242,-49.06835 -3.66054,-3.62572 -14.11473,-5.39524 -24.56055,-5.34571 z m 0.01,1.99805 c 5.1066,-0.0242 10.22015,0.40237 14.41601,1.25586 1.72118,0.35011 3.14669,0.82935 4.48047,1.31641 -1.42155,0.25429 -2.96438,0.68431 -4.57227,1.57617 -3.05382,1.69396 -5.66579,4.50584 -8.14843,6.79492 -2.48263,2.28909 -4.78415,3.81084 -6.14258,3.8125 -1.35764,0.001 -3.49434,-1.48103 -5.8457,-3.76367 -2.35137,-2.28264 -4.83299,-5.1118 -7.88086,-6.81836 -1.64351,-0.9202 -3.23653,-1.31732 -4.71875,-1.5625 1.23418,-0.43999 2.46682,-0.89005 4.00781,-1.21875 4.18734,-0.89318 9.2977,-1.36838 14.4043,-1.39258 z m 21.87304,4.25 c 1.00755,-0.0169 1.73452,0.051 2.00977,0.0156 -0.19697,0.69153 0.31849,4.88836 -1.91016,8.86719 -2.88588,5.1527 -10.38149,9.88917 -10.58789,14.86523 0.20685,4.97588 7.70208,9.71276 10.58789,14.86523 2.22865,3.97882 1.71319,8.17175 1.91016,8.86328 -0.27525,-0.0354 -1.00221,0.0366 -2.00977,0.0195 -1.67931,-0.0281 -4.13598,-0.29191 -6.57812,-1.64648 -5.24024,-2.90668 -10.37533,-10.85438 -15.25977,-10.85938 -4.88442,-0.006 -9.5207,7.93623 -14.70312,10.8379 -3.15562,1.76675 -6.47923,1.66398 -8.07813,1.61718 -0.003,-7e-5 -0.006,0 -0.008,0 -0.3947,-0.0116 -0.7144,-0.0199 -0.86328,0.006 0.2121,-0.68475 -0.2772792,-4.88473 1.96875,-8.85156 2.90955,-5.13864 10.4006,-9.87572 10.60742,-14.85156 -0.20635,-4.97604 -7.69781,-9.71082 -10.60742,-14.84961 -2.2460292,-3.96681 -1.75663,-8.16683 -1.96875,-8.85156 0.75067,0.12695 5.004,-0.58471 8.94726,1.62305 5.18243,2.90164 9.82067,10.84093 14.70508,10.83593 4.88444,-0.006 10.01954,-7.95076 15.25977,-10.85742 2.44214,-1.35456 4.89879,-1.61818 6.57812,-1.64648 z m -47.0429692,4.56641 c 0.26548,1.61159 0.71522,3.43554 1.7812492,5.31836 1.68767,2.98077 4.38908,5.47831 6.58789,7.85742 2.16556,2.34313 3.62409,4.49524 3.72852,6.00586 -0.10539,1.5106 -1.56365,3.66487 -3.72852,6.0078 -2.19878,2.37965 -4.90032,4.87882 -6.58789,7.85938 -1.0177092,1.79748 -1.4622192,3.53356 -1.7382792,5.0957 -0.49415,-1.32085 -0.98477,-2.72414 -1.3476604,-4.42578 -0.89297,-4.18728 -1.36839,-9.29787 -1.39258,-14.40429 -0.0242,-5.10641 0.40456,-10.2185 1.25782,-14.41406 0.3828504,-1.88251 0.8981104,-3.48956 1.4394504,-4.90039 z m 50.5820392,0.2832 c 0.48572,1.30806 0.96857,2.68451 1.32617,4.36133 0.89297,4.18728 1.36839,9.29983 1.39258,14.40625 0.0242,5.10641 -0.4026,10.2185 -1.25586,14.41406 -0.37813,1.85927 -0.8884,3.44147 -1.42188,4.84179 -0.26087,-1.59341 -0.69889,-3.38412 -1.73633,-5.23632 -1.67597,-2.9925 -4.37449,-5.49476 -6.57226,-7.87696 -2.16387,-2.34546 -3.62311,-4.5016 -3.72852,-6.01171 0.10443,-1.51017 1.56394,-3.66168 3.72852,-6.00782 2.19781,-2.38216 4.89623,-4.88627 6.57226,-7.8789 0.98932,-1.76631 1.42384,-3.46888 1.69532,-5.01172 z m -7.38672,6.03906 c -1.15561,1.33131 -2.51574,2.72256 -3.82227,4.13867 1.30685,-1.41637 2.66675,-2.80741 3.82227,-4.13867 z m -17.99219,26.10341 c 1.35815,10e-4 3.65997,1.52136 6.14258,3.81055 2.48262,2.28918 5.09452,5.10287 8.14843,6.79688 1.49877,0.83133 2.96565,1.28242 4.3125,1.54882 -1.22522,0.43464 -2.44149,0.88178 -3.96679,1.20703 -4.18747,0.89294 -9.29766,1.36839 -14.4043,1.39258 -5.10665,0.0242 -10.22026,-0.40263 -14.41601,-1.25586 -1.689,-0.34347 -3.07925,-0.81674 -4.39649,-1.29297 1.50468,-0.242 3.17917,-0.68646 4.85547,-1.625 3.04803,-1.70667 5.52999,-4.53758 7.88086,-6.82031 2.35088,-2.28274 4.48636,-3.76339 5.84375,-3.76172 z" />
    <path
       id="path1200-8-9-3-6-1-5"
       style="color:#000000;font-style:normal;font-variant:normal;font-weight:normal;font-stretch:normal;font-size:medium;line-height:normal;font-family:sans-serif;font-variant-ligatures:normal;font-variant-position:normal;font-variant-caps:normal;font-variant-numeric:normal;font-variant-alternates:normal;font-variant-east-asian:normal;font-feature-settings:normal;font-variation-settings:normal;text-indent:0;text-align:start;text-decoration:none;text-decoration-line:none;text-decoration-style:solid;text-decoration-color:#000000;letter-spacing:normal;word-spacing:normal;text-transform:none;writing-mode:lr-tb;direction:ltr;text-orientation:mixed;dominant-baseline:auto;baseline-shift:baseline;text-anchor:start;white-space:normal;shape-padding:0;shape-margin:0;inline-size:0;clip-rule:nonzero;display:inline;overflow:visible;visibility:visible;opacity:0.3;isolation:auto;mix-blend-mode:normal;color-interpolation:sRGB;color-interpolation-filters:linearRGB;solid-color:#000000;solid-opacity:1;vector-effect:none;fill:#323234;fill-opacity:1;fill-rule:nonzero;stroke:none;stroke-linecap:round;stroke-linejoin:round;stroke-miterlimit:4;stroke-dasharray:none;stroke-dashoffset:0;stroke-opacity:1;paint-order:stroke fill markers;color-rendering:auto;image-rendering:auto;shape-rendering:auto;text-rendering:auto;enable-background:accumulate;stop-color:#000000"
       d="m 31.852574,1.001027 c -5.28093,0.025 -10.55719,0.50795 -15.01562,1.45898 -4.45842,0.95104 -8.1067302,2.3095 -10.1972602,4.41993 -2.0905897,2.11047 -3.4137697,5.77294 -4.3222697,10.24023 -0.90849,4.46729 -1.34141001,9.74654 -1.3164,15.02735 0.025,5.2808 0.50821,10.55715 1.45898,15.01562 0.95078,4.45848 2.30746,8.10671 4.4179697,10.19727 2.1105,2.09055 5.7728802,3.41378 10.2402302,4.32226 4.46735,0.90849 9.74841,1.34142 15.02929,1.31641 5.28089,-0.025 10.55514,-0.50822 15.01368,-1.45898 4.45853,-0.95076 8.10862,-2.3075 10.19921,-4.41797 2.09059,-2.11048 3.41377,-5.77295 4.32227,-10.24024 0.9085,-4.46728 1.34142,-9.74654 1.31641,-15.02734 -0.025,-5.28081 -0.50821,-10.55716 -1.45899,-15.01563 -0.95077,-4.45847 -2.30746,-8.10866 -4.41797,-10.19922 -2.11048,-2.09053 -5.77277,-3.4135 -10.24023,-4.32227 -4.46747,-0.90876 -9.74835,-1.34144 -15.0293,-1.3164 z m 0.01,2 c 5.16461,-0.0245 10.33478,0.40542 14.6211,1.27734 3.48421,0.70876 6.0926,1.79262 7.88671,2.98242 -0.21809,-0.003 -0.38799,-0.0122 -0.64648,-0.008 a 1.0001,1.0001 0 0 0 -0.16797,0.0176 1.0001,1.0001 0 0 0 -0.006,0.002 c -1.76469,0.0427 -4.30222,0.32593 -6.87305,1.75196 -2.83688,1.57366 -5.44105,4.3383 -7.95703,6.6582 -2.51598,2.3199 -4.91809,4.07384 -6.81836,4.07617 -1.89987,0.002 -4.15834,-1.73188 -6.54296,-4.04687 -2.38463,-2.31499 -4.85437,-5.08535 -7.67383,-6.66407 -2.14528,-1.20117 -4.34646,-1.59644 -6.08984,-1.71679 -0.75619,-0.0522 -1.37557,-0.0417 -1.9179702,-0.0312 1.7968702,-1.13491 4.2701202,-2.17718 7.5781202,-2.88281 4.27762,-0.91247 9.44281,-1.39155 14.60742,-1.41602 z m 21.89453,6.25195 c 0.36155,-0.006 0.64889,0.002 0.9336,0.01 -3.4e-4,0.0366 -0.007,0.0586 -0.008,0.0977 -0.014,0.5464 -0.0384,1.22959 -0.1211,2.00391 -0.16534,1.54863 -0.56876,3.45317 -1.59375,5.2832 -1.32635,2.36834 -3.87031,4.8245 -6.16211,7.3086 -2.2918,2.4841 -4.42931,5.02811 -4.55273,8.00391 a 1.0001,1.0001 0 0 0 0,0.082 c 0.12369,2.97566 2.26099,5.51978 4.55273,8.0039 2.29175,2.48414 4.83578,4.94034 6.16211,7.3086 1.02502,1.83009 1.42841,3.73508 1.59375,5.2832 0.0827,0.77406 0.10706,1.45574 0.1211,2.00196 10e-4,0.0391 0.008,0.0611 0.008,0.0977 -0.28469,0.008 -0.57206,0.0179 -0.9336,0.0117 -1.59092,-0.0266 -3.86794,-0.27816 -6.10937,-1.52148 -2.40316,-1.33308 -4.9875,-3.99726 -7.57031,-6.37891 -2.58282,-2.38165 -5.18966,-4.60241 -8.17383,-4.60547 -2.98454,-0.004 -5.48671,2.2315 -7.9375,4.61133 -2.45079,2.37982 -4.89313,5.03053 -7.25586,6.35351 -2.80324,1.56956 -5.75078,1.5303 -7.3847602,1.48438 5.6e-4,-0.0259 0.005,-0.0412 0.006,-0.0684 0.0189,-0.54682 0.047,-1.2279 0.13476,-2.00195 0.17549,-1.54812 0.5899502,-3.45263 1.6230502,-5.27735 1.33834,-2.36382 3.88752,-4.81788 6.18164,-7.30078 2.29412,-2.4829 4.43103,-5.02658 4.55469,-8.00195 a 1.0001,1.0001 0 0 0 0,-0.082 c -0.12338,-2.97552 -2.26051,-5.51958 -4.55469,-8.00196 -2.29418,-2.48237 -4.84331,-4.935 -6.18164,-7.29883 -1.03306,-1.82465 -1.4475602,-3.72872 -1.6230502,-5.27734 -0.0877,-0.77432 -0.1159,-1.4569 -0.13476,-2.00391 -10e-4,-0.0334 -0.007,-0.0525 -0.008,-0.084 0.0425,-0.002 0.0657,10e-4 0.11132,0 0.55376,-0.0141 1.2450402,-0.0205 2.0234402,0.0332 1.5568,0.10747 3.45213,0.46014 5.25,1.4668 2.36282,1.32302 4.80459,3.97383 7.25586,6.35351 2.45127,2.37969 4.95505,4.61439 7.93945,4.61133 2.98403,-0.004 5.59102,-2.2259 8.17383,-4.60742 2.58281,-2.38152 5.16712,-5.04387 7.57031,-6.37695 2.2414,-1.2433 4.51829,-1.49467 6.10938,-1.52149 z M 7.3350038,9.501027 c 0.0193,0.55245 0.0479,1.26961 0.14258,2.10547 0.19436,1.71514 0.65819,3.89482 1.87109,6.03711 1.5712002,2.77512 4.2225602,5.25834 6.4531202,7.67188 2.21628,2.39807 3.90666,4.69372 4.00977,6.68554 -0.10329,1.9918 -1.79352,4.28694 -4.00977,6.68555 -2.23051,2.41406 -4.88199,4.89885 -6.4531202,7.67383 -1.21286,2.14223 -1.67673,4.32049 -1.87109,6.03515 -0.0898,0.79221 -0.11522,1.45535 -0.13477,1.9961 -1.15243,-1.79454 -2.2134297,-4.29689 -2.9277297,-7.64649 -0.91222,-4.27768 -1.3896,-9.44287 -1.41406,-14.60742 -0.0245,-5.16454 0.40373,-10.33301 1.27539,-14.61914 0.72416,-3.56085 1.8360697,-6.23387 3.0585897,-8.01758 z m 49.3320202,0.12695 c 1.14798,1.7952 2.20591,4.28982 2.91797,7.62891 0.91222,4.27768 1.38961,9.44288 1.41407,14.60742 0.0245,5.16455 -0.40374,10.33302 -1.27539,14.61914 -0.72218,3.55112 -1.83048,6.21484 -3.04883,8 -0.0147,-0.54916 -0.0358,-1.24128 -0.12305,-2.05859 -0.18335,-1.7168 -0.63628,-3.89801 -1.83984,-6.04687 -1.5594,-2.78442 -4.20649,-5.27327 -6.43555,-7.68946 -2.21479,-2.40071 -3.90646,-4.69595 -4.00977,-6.6875 0.10313,-1.99159 1.79494,-4.28683 4.00977,-6.6875 2.2291,-2.41613 4.8761,-4.90492 6.43555,-7.68945 1.20359,-2.14893 1.65649,-4.33156 1.83984,-6.04883 0.0826,-0.7733 0.1,-1.41086 0.11523,-1.94727 z m -24.76562,34.61524 c 1.90013,0.002 4.30239,1.75616 6.81836,4.07617 2.51597,2.32001 5.1201,5.08256 7.95703,6.65625 2.64271,1.46592 5.27926,1.74386 7.04688,1.77344 0.21163,0.004 0.34423,-0.006 0.52929,-0.008 -1.79842,1.11746 -4.24072,2.14706 -7.50781,2.84375 -4.27775,0.91221 -9.44279,1.3896 -14.60742,1.41406 -5.16463,0.0245 -10.33489,-0.40374 -14.62109,-1.27539 -3.54339,-0.72059 -6.2,-1.82601 -7.9863302,-3.04102 1.7173902,0.046 4.9358102,0.0738 8.1582002,-1.73046 2.81954,-1.57878 5.28579,-4.34897 7.66993,-6.66407 2.38412,-2.3151 4.64322,-4.04725 6.54296,-4.04492 z" />
  </g>
</svg>
