<?xml version="1.0" encoding="UTF-8" standalone="no"?>
<svg
   xmlns:dc="http://purl.org/dc/elements/1.1/"
   xmlns:cc="http://creativecommons.org/ns#"
   xmlns:rdf="http://www.w3.org/1999/02/22-rdf-syntax-ns#"
   xmlns:svg="http://www.w3.org/2000/svg"
   xmlns="http://www.w3.org/2000/svg"
   xmlns:sodipodi="http://sodipodi.sourceforge.net/DTD/sodipodi-0.dtd"
   xmlns:inkscape="http://www.inkscape.org/namespaces/inkscape"
   width="64"
   height="64"
   viewBox="0 0 64 64.000003"
   version="1.1"
   id="svg8"
   inkscape:version="1.0.2 (e86c870879, 2021-01-15)"
   sodipodi:docname="align-vertical-top-symbolic.svg">
  <defs
     id="defs2" />
  <sodipodi:namedview
     id="base"
     pagecolor="#c3c3c3"
     bordercolor="#666666"
     borderopacity="1.0"
     inkscape:pageopacity="0"
     inkscape:pageshadow="2"
     inkscape:zoom="9.0220692"
     inkscape:cx="6.9420706"
     inkscape:cy="45.045699"
     inkscape:document-units="px"
     inkscape:current-layer="layer1"
     inkscape:document-rotation="0"
     showgrid="false"
     units="px"
     inkscape:window-width="2048"
     inkscape:window-height="1080"
     inkscape:window-x="0"
     inkscape:window-y="0"
     inkscape:window-maximized="1" />
  <metadata
     id="metadata5">
    <rdf:RDF>
      <cc:Work
         rdf:about="">
        <dc:format>image/svg+xml</dc:format>
        <dc:type
           rdf:resource="http://purl.org/dc/dcmitype/StillImage" />
        <dc:title />
      </cc:Work>
    </rdf:RDF>
  </metadata>
  <g
     inkscape:label="Layer 1"
     inkscape:groupmode="layer"
     id="layer1">
    <rect
       style="opacity:0.25;fill:#808084;stroke-width:0;stroke-linecap:round;stroke-linejoin:round;stroke-dashoffset:2.1875;stroke-opacity:0.5;fill-opacity:1"
       id="rect845"
       width="20"
       height="60"
       x="8"
       y="2"
       rx="2"
       ry="2" />
    <rect
       style="opacity:0.25;fill:#808084;stroke-width:0;stroke-linecap:round;stroke-linejoin:round;stroke-dashoffset:2.1875;stroke-opacity:0.5;fill-opacity:1"
       id="rect845-3"
       width="20"
       height="44"
       x="36"
       y="2"
       rx="2"
       ry="2" />
    <path
       id="rect2270-8-4-5"
       style="opacity:1;fill:#808084;fill-opacity:1;stroke:none;stroke-width:0;stroke-linecap:round;stroke-linejoin:round;stroke-miterlimit:4;stroke-dasharray:none;stroke-dashoffset:2.1875"
       d="M 28,4 C 28,2.892 27.108,2 26,2 H 10 C 8.892,2 8,2.892 8,4 v 56 c 0,1.108 0.892,2 2,2 h 16 c 1.108,0 2,-0.892 2,-2 z m -3.5,2.5 v 51 c 0,0.554 -0.446,1 -1,1 h -11 c -0.554,0 -1,-0.446 -1,-1 v -51 c 0,-0.554 0.446,-1 1,-1 h 11 c 0.554,0 1,0.446 1,1 z" />
    <path
       id="rect2361-1-5"
       style="opacity:1;fill:#808084;fill-opacity:1;stroke-width:0;stroke-linecap:round;stroke-linejoin:round;stroke-dashoffset:2.1875;stroke-opacity:0.5"
       d="M 56,4 C 56,2.892 55.108,2 54,2 H 38 c -1.108,0 -2,0.892 -2,2 v 40 c 0,1.108 0.892,2 2,2 h 16 c 1.108,0 2,-0.892 2,-2 z m -3.5,2.5 v 35 c 0,0.554 -0.446,1 -1,1 h -11 c -0.554,0 -1,-0.446 -1,-1 v -35 c 0,-0.554 0.446,-1 1,-1 h 11 c 0.554,0 1,0.446 1,1 z" />
    <rect
       style="fill:#808084;fill-opacity:1;stroke-width:0;stroke-linecap:round;stroke-linejoin:round;stroke-dashoffset:2.1875;stroke-opacity:0.5"
       id="rect2558-1"
       width="64"
       height="8.75"
       x="0"
       y="2.0000005"
       rx="1"
       ry="1" />
  </g>
</svg>
