<?xml version="1.0" encoding="UTF-8" standalone="no"?>
<svg
   xmlns:dc="http://purl.org/dc/elements/1.1/"
   xmlns:cc="http://creativecommons.org/ns#"
   xmlns:rdf="http://www.w3.org/1999/02/22-rdf-syntax-ns#"
   xmlns:svg="http://www.w3.org/2000/svg"
   xmlns="http://www.w3.org/2000/svg"
   xmlns:sodipodi="http://sodipodi.sourceforge.net/DTD/sodipodi-0.dtd"
   xmlns:inkscape="http://www.inkscape.org/namespaces/inkscape"
   width="64"
   height="64"
   viewBox="0 0 64 64.000003"
   version="1.1"
   id="svg1461"
   inkscape:version="1.0.2 (e86c870879, 2021-01-15)"
   sodipodi:docname="color-gradient-symbolic.svg">
  <defs
     id="defs1455" />
  <sodipodi:namedview
     id="base"
     pagecolor="#c4c4c4"
     bordercolor="#666666"
     borderopacity="1.0"
     inkscape:pageopacity="0"
     inkscape:pageshadow="2"
     inkscape:zoom="7.4412516"
     inkscape:cx="16.599094"
     inkscape:cy="34.199852"
     inkscape:document-units="px"
     inkscape:current-layer="layer1"
     inkscape:document-rotation="0"
     showgrid="false"
     units="px"
     inkscape:window-width="2048"
     inkscape:window-height="1080"
     inkscape:window-x="0"
     inkscape:window-y="0"
     inkscape:window-maximized="1" />
  <metadata
     id="metadata1458">
    <rdf:RDF>
      <cc:Work
         rdf:about="">
        <dc:format>image/svg+xml</dc:format>
        <dc:type
           rdf:resource="http://purl.org/dc/dcmitype/StillImage" />
        <dc:title />
      </cc:Work>
    </rdf:RDF>
  </metadata>
  <g
     inkscape:label="Layer 1"
     inkscape:groupmode="layer"
     id="layer1">
    <path
       style="fill:#808084;fill-opacity:1;stroke-width:3.03958;stroke-linecap:round;stroke-linejoin:round;stroke-dashoffset:2.1875"
       d="M 8,2 C 4.8876196,2.4429796 2.4429721,4.8876158 2.0000001,8.0000002 H 8 Z"
       id="path2754-8-7-3" />
    <rect
       style="opacity:0.9;fill:#808084;fill-opacity:1;stroke-width:3;stroke-linecap:round;stroke-linejoin:round;stroke-dashoffset:2.1875"
       id="rect2780-56-9"
       width="6.0000005"
       height="6.0000005"
       x="7.9999914"
       y="2.0000148" />
    <rect
       style="opacity:0.8;fill:#808084;fill-opacity:1;stroke-width:3;stroke-linecap:round;stroke-linejoin:round;stroke-dashoffset:2.1875"
       id="rect2780-3-9-0"
       width="6.0000005"
       height="6.0000005"
       x="13.999997"
       y="2.0000148" />
    <rect
       style="opacity:0.7;fill:#808084;fill-opacity:1;stroke-width:3;stroke-linecap:round;stroke-linejoin:round;stroke-dashoffset:2.1875"
       id="rect2780-1-8-1"
       width="6.0000005"
       height="6.0000005"
       x="19.999989"
       y="2.0000148" />
    <rect
       style="opacity:0.6;fill:#808084;fill-opacity:1;stroke-width:3;stroke-linecap:round;stroke-linejoin:round;stroke-dashoffset:2.1875"
       id="rect2780-3-8-7-5"
       width="6.0000005"
       height="6.0000005"
       x="25.999996"
       y="2.0000148" />
    <rect
       style="opacity:0.5;fill:#808084;fill-opacity:1;stroke-width:3;stroke-linecap:round;stroke-linejoin:round;stroke-dashoffset:2.1875"
       id="rect2780-9-28-0"
       width="6.0000005"
       height="6.0000005"
       x="31.999987"
       y="2.0000148" />
    <rect
       style="opacity:0.4;fill:#808084;fill-opacity:1;stroke-width:3;stroke-linecap:round;stroke-linejoin:round;stroke-dashoffset:2.1875"
       id="rect2780-3-6-2-6"
       width="6.0000005"
       height="6.0000005"
       x="37.999992"
       y="2.0000148" />
    <rect
       style="opacity:0.3;fill:#808084;fill-opacity:1;stroke-width:3;stroke-linecap:round;stroke-linejoin:round;stroke-dashoffset:2.1875"
       id="rect2780-1-4-99-9"
       width="6.0000005"
       height="6.0000005"
       x="43.999985"
       y="2.0000148" />
    <rect
       style="opacity:0.2;fill:#808084;fill-opacity:1;stroke-width:3;stroke-linecap:round;stroke-linejoin:round;stroke-dashoffset:2.1875"
       id="rect2780-3-8-3-60-7"
       width="6.0000005"
       height="6.0000005"
       x="50.000004"
       y="2.0000148" />
    <path
       style="opacity:0.1;fill:#808084;fill-opacity:1;stroke-width:3.03958;stroke-linecap:round;stroke-linejoin:round;stroke-dashoffset:2.1875"
       d="m 62.000004,8.0000042 c -0.442979,-3.1123808 -2.887616,-5.5570284 -6,-6.0000004 v 6.0000004 z"
       id="path2754-8-3-2-9" />
    <rect
       style="opacity:0.9;fill:#808084;fill-opacity:1;stroke-width:3;stroke-linecap:round;stroke-linejoin:round;stroke-dashoffset:2.1875"
       id="rect2780-38-7-2"
       width="6.0000005"
       height="6.0000005"
       x="7.9999914"
       y="8.000021" />
    <rect
       style="opacity:0.8;fill:#808084;fill-opacity:1;stroke-width:3;stroke-linecap:round;stroke-linejoin:round;stroke-dashoffset:2.1875"
       id="rect2780-3-60-6-8"
       width="6.0000005"
       height="6.0000005"
       x="13.999997"
       y="8.000021" />
    <rect
       style="opacity:0.7;fill:#808084;fill-opacity:1;stroke-width:3;stroke-linecap:round;stroke-linejoin:round;stroke-dashoffset:2.1875"
       id="rect2780-1-48-1-9"
       width="6.0000005"
       height="6.0000005"
       x="19.999989"
       y="8.000021" />
    <rect
       style="opacity:0.6;fill:#808084;fill-opacity:1;stroke-width:3;stroke-linecap:round;stroke-linejoin:round;stroke-dashoffset:2.1875"
       id="rect2780-3-8-8-3-98"
       width="6.0000005"
       height="6.0000005"
       x="25.999996"
       y="8.000021" />
    <rect
       style="opacity:0.5;fill:#808084;fill-opacity:1;stroke-width:3;stroke-linecap:round;stroke-linejoin:round;stroke-dashoffset:2.1875"
       id="rect2780-9-8-2-9"
       width="6.0000005"
       height="6.0000005"
       x="31.999987"
       y="8.000021" />
    <rect
       style="opacity:0.4;fill:#808084;fill-opacity:1;stroke-width:3;stroke-linecap:round;stroke-linejoin:round;stroke-dashoffset:2.1875"
       id="rect2780-3-6-9-1-3"
       width="6.0000005"
       height="6.0000005"
       x="37.999992"
       y="8.000021" />
    <rect
       style="opacity:0.3;fill:#808084;fill-opacity:1;stroke-width:3;stroke-linecap:round;stroke-linejoin:round;stroke-dashoffset:2.1875"
       id="rect2780-1-4-7-5-6"
       width="6.0000005"
       height="6.0000005"
       x="43.999985"
       y="8.000021" />
    <rect
       style="opacity:0.2;fill:#808084;fill-opacity:1;stroke-width:3;stroke-linecap:round;stroke-linejoin:round;stroke-dashoffset:2.1875"
       id="rect2780-3-8-3-7-9-3"
       width="6.0000005"
       height="6.0000005"
       x="50.000004"
       y="8.000021" />
    <rect
       style="opacity:0.9;fill:#808084;fill-opacity:1;stroke-width:3;stroke-linecap:round;stroke-linejoin:round;stroke-dashoffset:2.1875"
       id="rect2780-6-9-6"
       width="6.0000005"
       height="6.0000005"
       x="7.9999914"
       y="14.000028" />
    <rect
       style="opacity:0.8;fill:#808084;fill-opacity:1;stroke-width:3;stroke-linecap:round;stroke-linejoin:round;stroke-dashoffset:2.1875"
       id="rect2780-3-4-1-0"
       width="6.0000005"
       height="6.0000005"
       x="13.999997"
       y="14.000028" />
    <rect
       style="opacity:0.7;fill:#808084;fill-opacity:1;stroke-width:3;stroke-linecap:round;stroke-linejoin:round;stroke-dashoffset:2.1875"
       id="rect2780-1-3-4-4"
       width="6.0000005"
       height="6.0000005"
       x="19.999989"
       y="14.000028" />
    <rect
       style="opacity:0.6;fill:#808084;fill-opacity:1;stroke-width:3;stroke-linecap:round;stroke-linejoin:round;stroke-dashoffset:2.1875"
       id="rect2780-3-8-0-9-4"
       width="6.0000005"
       height="6.0000005"
       x="25.999996"
       y="14.000028" />
    <rect
       style="opacity:0.5;fill:#808084;fill-opacity:1;stroke-width:3;stroke-linecap:round;stroke-linejoin:round;stroke-dashoffset:2.1875"
       id="rect2780-9-3-1-96"
       width="6.0000005"
       height="6.0000005"
       x="31.999987"
       y="14.000028" />
    <rect
       style="opacity:0.4;fill:#808084;fill-opacity:1;stroke-width:3;stroke-linecap:round;stroke-linejoin:round;stroke-dashoffset:2.1875"
       id="rect2780-3-6-0-0-6"
       width="6.0000005"
       height="6.0000005"
       x="37.999992"
       y="14.000028" />
    <rect
       style="opacity:0.3;fill:#808084;fill-opacity:1;stroke-width:3;stroke-linecap:round;stroke-linejoin:round;stroke-dashoffset:2.1875"
       id="rect2780-1-4-9-75-4"
       width="6.0000005"
       height="6.0000005"
       x="43.999985"
       y="14.000028" />
    <rect
       style="opacity:0.2;fill:#808084;fill-opacity:1;stroke-width:3;stroke-linecap:round;stroke-linejoin:round;stroke-dashoffset:2.1875"
       id="rect2780-3-8-3-2-8-1"
       width="6.0000005"
       height="6.0000005"
       x="50.000004"
       y="14.000028" />
    <rect
       style="opacity:0.9;fill:#808084;fill-opacity:1;stroke-width:3;stroke-linecap:round;stroke-linejoin:round;stroke-dashoffset:2.1875"
       id="rect2780-5-7-9"
       width="6.0000005"
       height="6.0000005"
       x="7.9999914"
       y="20.000031" />
    <rect
       style="opacity:0.8;fill:#808084;fill-opacity:1;stroke-width:3;stroke-linecap:round;stroke-linejoin:round;stroke-dashoffset:2.1875"
       id="rect2780-3-40-04-8"
       width="6.0000005"
       height="6.0000005"
       x="13.999997"
       y="20.000031" />
    <rect
       style="opacity:0.7;fill:#808084;fill-opacity:1;stroke-width:3;stroke-linecap:round;stroke-linejoin:round;stroke-dashoffset:2.1875"
       id="rect2780-1-5-8-0"
       width="6.0000005"
       height="6.0000005"
       x="19.999989"
       y="20.000031" />
    <rect
       style="opacity:0.6;fill:#808084;fill-opacity:1;stroke-width:3;stroke-linecap:round;stroke-linejoin:round;stroke-dashoffset:2.1875"
       id="rect2780-3-8-9-0-4"
       width="6.0000005"
       height="6.0000005"
       x="25.999996"
       y="20.000031" />
    <rect
       style="opacity:0.5;fill:#808084;fill-opacity:1;stroke-width:3;stroke-linecap:round;stroke-linejoin:round;stroke-dashoffset:2.1875"
       id="rect2780-9-4-4-9"
       width="6.0000005"
       height="6.0000005"
       x="31.999987"
       y="20.000031" />
    <rect
       style="opacity:0.4;fill:#808084;fill-opacity:1;stroke-width:3;stroke-linecap:round;stroke-linejoin:round;stroke-dashoffset:2.1875"
       id="rect2780-3-6-6-2-0"
       width="6.0000005"
       height="6.0000005"
       x="37.999992"
       y="20.000031" />
    <rect
       style="opacity:0.3;fill:#808084;fill-opacity:1;stroke-width:3;stroke-linecap:round;stroke-linejoin:round;stroke-dashoffset:2.1875"
       id="rect2780-1-4-92-9-5"
       width="6.0000005"
       height="6.0000005"
       x="43.999985"
       y="20.000031" />
    <rect
       style="opacity:0.2;fill:#808084;fill-opacity:1;stroke-width:3;stroke-linecap:round;stroke-linejoin:round;stroke-dashoffset:2.1875"
       id="rect2780-3-8-3-24-61-5"
       width="6.0000005"
       height="6.0000005"
       x="50.000004"
       y="20.000031" />
    <rect
       style="opacity:0.9;fill:#808084;fill-opacity:1;stroke-width:3;stroke-linecap:round;stroke-linejoin:round;stroke-dashoffset:2.1875"
       id="rect2780-7-0-0"
       width="6.0000005"
       height="6.0000005"
       x="7.9999914"
       y="26.000036" />
    <rect
       style="opacity:0.8;fill:#808084;fill-opacity:1;stroke-width:3;stroke-linecap:round;stroke-linejoin:round;stroke-dashoffset:2.1875"
       id="rect2780-3-7-4-1"
       width="6.0000005"
       height="6.0000005"
       x="13.999997"
       y="26.000036" />
    <rect
       style="opacity:0.7;fill:#808084;fill-opacity:1;stroke-width:3;stroke-linecap:round;stroke-linejoin:round;stroke-dashoffset:2.1875"
       id="rect2780-1-54-2-6"
       width="6.0000005"
       height="6.0000005"
       x="19.999989"
       y="26.000036" />
    <rect
       style="opacity:0.6;fill:#808084;fill-opacity:1;stroke-width:3;stroke-linecap:round;stroke-linejoin:round;stroke-dashoffset:2.1875"
       id="rect2780-3-8-81-2-0"
       width="6.0000005"
       height="6.0000005"
       x="25.999996"
       y="26.000036" />
    <rect
       style="opacity:0.5;fill:#808084;fill-opacity:1;stroke-width:3;stroke-linecap:round;stroke-linejoin:round;stroke-dashoffset:2.1875"
       id="rect2780-9-2-2-28"
       width="6.0000005"
       height="6.0000005"
       x="31.999987"
       y="26.000036" />
    <rect
       style="opacity:0.4;fill:#808084;fill-opacity:1;stroke-width:3;stroke-linecap:round;stroke-linejoin:round;stroke-dashoffset:2.1875"
       id="rect2780-3-6-8-0-8"
       width="6.0000005"
       height="6.0000005"
       x="37.999992"
       y="26.000036" />
    <rect
       style="opacity:0.3;fill:#808084;fill-opacity:1;stroke-width:3;stroke-linecap:round;stroke-linejoin:round;stroke-dashoffset:2.1875"
       id="rect2780-1-4-93-5-4"
       width="6.0000005"
       height="6.0000005"
       x="43.999985"
       y="26.000036" />
    <rect
       style="opacity:0.2;fill:#808084;fill-opacity:1;stroke-width:3;stroke-linecap:round;stroke-linejoin:round;stroke-dashoffset:2.1875"
       id="rect2780-3-8-3-6-5-9"
       width="6.0000005"
       height="6.0000005"
       x="50.000004"
       y="26.000036" />
    <rect
       style="opacity:0.9;fill:#808084;fill-opacity:1;stroke-width:3;stroke-linecap:round;stroke-linejoin:round;stroke-dashoffset:2.1875"
       id="rect2780-8-2-8"
       width="6.0000005"
       height="6.0000005"
       x="7.9999914"
       y="32.000042" />
    <rect
       style="opacity:0.8;fill:#808084;fill-opacity:1;stroke-width:3;stroke-linecap:round;stroke-linejoin:round;stroke-dashoffset:2.1875"
       id="rect2780-3-0-9-3"
       width="6.0000005"
       height="6.0000005"
       x="13.999997"
       y="32.000042" />
    <rect
       style="opacity:0.7;fill:#808084;fill-opacity:1;stroke-width:3;stroke-linecap:round;stroke-linejoin:round;stroke-dashoffset:2.1875"
       id="rect2780-1-2-0-4"
       width="6.0000005"
       height="6.0000005"
       x="19.999989"
       y="32.000042" />
    <rect
       style="opacity:0.6;fill:#808084;fill-opacity:1;stroke-width:3;stroke-linecap:round;stroke-linejoin:round;stroke-dashoffset:2.1875"
       id="rect2780-3-8-1-2-4"
       width="6.0000005"
       height="6.0000005"
       x="25.999996"
       y="32.000042" />
    <rect
       style="opacity:0.5;fill:#808084;fill-opacity:1;stroke-width:3;stroke-linecap:round;stroke-linejoin:round;stroke-dashoffset:2.1875"
       id="rect2780-9-0-8-9"
       width="6.0000005"
       height="6.0000005"
       x="31.999987"
       y="32.000042" />
    <rect
       style="opacity:0.4;fill:#808084;fill-opacity:1;stroke-width:3;stroke-linecap:round;stroke-linejoin:round;stroke-dashoffset:2.1875"
       id="rect2780-3-6-5-3-1"
       width="6.0000005"
       height="6.0000005"
       x="37.999992"
       y="32.000042" />
    <rect
       style="opacity:0.3;fill:#808084;fill-opacity:1;stroke-width:3;stroke-linecap:round;stroke-linejoin:round;stroke-dashoffset:2.1875"
       id="rect2780-1-4-1-8-7"
       width="6.0000005"
       height="6.0000005"
       x="43.999985"
       y="32.000042" />
    <rect
       style="opacity:0.2;fill:#808084;fill-opacity:1;stroke-width:3;stroke-linecap:round;stroke-linejoin:round;stroke-dashoffset:2.1875"
       id="rect2780-3-8-3-1-0-5"
       width="6.0000005"
       height="6.0000005"
       x="50.000004"
       y="32.000042" />
    <rect
       style="opacity:0.9;fill:#808084;fill-opacity:1;stroke-width:3;stroke-linecap:round;stroke-linejoin:round;stroke-dashoffset:2.1875"
       id="rect2780-38-0-4-7"
       width="6.0000005"
       height="6.0000005"
       x="7.9999914"
       y="38.000046" />
    <rect
       style="opacity:0.8;fill:#808084;fill-opacity:1;stroke-width:3;stroke-linecap:round;stroke-linejoin:round;stroke-dashoffset:2.1875"
       id="rect2780-3-60-8-0-6"
       width="6.0000005"
       height="6.0000005"
       x="13.999997"
       y="38.000046" />
    <rect
       style="opacity:0.7;fill:#808084;fill-opacity:1;stroke-width:3;stroke-linecap:round;stroke-linejoin:round;stroke-dashoffset:2.1875"
       id="rect2780-1-48-5-9-2"
       width="6.0000005"
       height="6.0000005"
       x="19.999989"
       y="38.000046" />
    <rect
       style="opacity:0.6;fill:#808084;fill-opacity:1;stroke-width:3;stroke-linecap:round;stroke-linejoin:round;stroke-dashoffset:2.1875"
       id="rect2780-3-8-8-0-1-4"
       width="6.0000005"
       height="6.0000005"
       x="25.999996"
       y="38.000046" />
    <rect
       style="opacity:0.5;fill:#808084;fill-opacity:1;stroke-width:3;stroke-linecap:round;stroke-linejoin:round;stroke-dashoffset:2.1875"
       id="rect2780-9-8-6-9-2"
       width="6.0000005"
       height="6.0000005"
       x="31.999987"
       y="38.000046" />
    <rect
       style="opacity:0.4;fill:#808084;fill-opacity:1;stroke-width:3;stroke-linecap:round;stroke-linejoin:round;stroke-dashoffset:2.1875"
       id="rect2780-3-6-9-4-6-5"
       width="6.0000005"
       height="6.0000005"
       x="37.999992"
       y="38.000046" />
    <rect
       style="opacity:0.3;fill:#808084;fill-opacity:1;stroke-width:3;stroke-linecap:round;stroke-linejoin:round;stroke-dashoffset:2.1875"
       id="rect2780-1-4-7-6-2-5"
       width="6.0000005"
       height="6.0000005"
       x="43.999985"
       y="38.000046" />
    <rect
       style="opacity:0.2;fill:#808084;fill-opacity:1;stroke-width:3;stroke-linecap:round;stroke-linejoin:round;stroke-dashoffset:2.1875"
       id="rect2780-3-8-3-7-2-5-0"
       width="6.0000005"
       height="6.0000005"
       x="50.000004"
       y="38.000046" />
    <rect
       style="opacity:0.9;fill:#808084;fill-opacity:1;stroke-width:3;stroke-linecap:round;stroke-linejoin:round;stroke-dashoffset:2.1875"
       id="rect2780-6-5-4-5"
       width="6.0000005"
       height="6.0000005"
       x="7.9999914"
       y="44.000053" />
    <rect
       style="opacity:0.8;fill:#808084;fill-opacity:1;stroke-width:3;stroke-linecap:round;stroke-linejoin:round;stroke-dashoffset:2.1875"
       id="rect2780-3-4-8-4-2"
       width="6.0000005"
       height="6.0000005"
       x="13.999997"
       y="44.000053" />
    <rect
       style="opacity:0.7;fill:#808084;fill-opacity:1;stroke-width:3;stroke-linecap:round;stroke-linejoin:round;stroke-dashoffset:2.1875"
       id="rect2780-1-3-6-9-9"
       width="6.0000005"
       height="6.0000005"
       x="19.999989"
       y="44.000053" />
    <rect
       style="opacity:0.6;fill:#808084;fill-opacity:1;stroke-width:3;stroke-linecap:round;stroke-linejoin:round;stroke-dashoffset:2.1875"
       id="rect2780-3-8-0-2-9-7"
       width="6.0000005"
       height="6.0000005"
       x="25.999996"
       y="44.000053" />
    <rect
       style="opacity:0.5;fill:#808084;fill-opacity:1;stroke-width:3;stroke-linecap:round;stroke-linejoin:round;stroke-dashoffset:2.1875"
       id="rect2780-9-3-8-3-7"
       width="6.0000005"
       height="6.0000005"
       x="31.999987"
       y="44.000053" />
    <rect
       style="opacity:0.4;fill:#808084;fill-opacity:1;stroke-width:3;stroke-linecap:round;stroke-linejoin:round;stroke-dashoffset:2.1875"
       id="rect2780-3-6-0-4-6-6"
       width="6.0000005"
       height="6.0000005"
       x="37.999992"
       y="44.000053" />
    <rect
       style="opacity:0.3;fill:#808084;fill-opacity:1;stroke-width:3;stroke-linecap:round;stroke-linejoin:round;stroke-dashoffset:2.1875"
       id="rect2780-1-4-9-7-0-8"
       width="6.0000005"
       height="6.0000005"
       x="43.999985"
       y="44.000053" />
    <rect
       style="opacity:0.2;fill:#808084;fill-opacity:1;stroke-width:3;stroke-linecap:round;stroke-linejoin:round;stroke-dashoffset:2.1875"
       id="rect2780-3-8-3-2-2-5-1"
       width="6.0000005"
       height="6.0000005"
       x="50.000004"
       y="44.000053" />
    <rect
       style="opacity:0.9;fill:#808084;fill-opacity:1;stroke-width:3;stroke-linecap:round;stroke-linejoin:round;stroke-dashoffset:2.1875"
       id="rect2780-5-4-0-2"
       width="6.0000005"
       height="6.0000005"
       x="7.9999914"
       y="50.000057" />
    <rect
       style="opacity:0.8;fill:#808084;fill-opacity:1;stroke-width:3;stroke-linecap:round;stroke-linejoin:round;stroke-dashoffset:2.1875"
       id="rect2780-3-40-0-2-0"
       width="6.0000005"
       height="6.0000005"
       x="13.999997"
       y="50.000057" />
    <rect
       style="opacity:0.7;fill:#808084;fill-opacity:1;stroke-width:3;stroke-linecap:round;stroke-linejoin:round;stroke-dashoffset:2.1875"
       id="rect2780-1-5-6-9-3"
       width="6.0000005"
       height="6.0000005"
       x="19.999989"
       y="50.000057" />
    <rect
       style="opacity:0.6;fill:#808084;fill-opacity:1;stroke-width:3;stroke-linecap:round;stroke-linejoin:round;stroke-dashoffset:2.1875"
       id="rect2780-3-8-9-2-4-2"
       width="6.0000005"
       height="6.0000005"
       x="25.999996"
       y="50.000057" />
    <rect
       style="opacity:0.5;fill:#808084;fill-opacity:1;stroke-width:3;stroke-linecap:round;stroke-linejoin:round;stroke-dashoffset:2.1875"
       id="rect2780-9-4-9-3-8"
       width="6.0000005"
       height="6.0000005"
       x="31.999987"
       y="50.000057" />
    <rect
       style="opacity:0.4;fill:#808084;fill-opacity:1;stroke-width:3;stroke-linecap:round;stroke-linejoin:round;stroke-dashoffset:2.1875"
       id="rect2780-3-6-6-9-5-7"
       width="6.0000005"
       height="6.0000005"
       x="37.999992"
       y="50.000057" />
    <rect
       style="opacity:0.3;fill:#808084;fill-opacity:1;stroke-width:3;stroke-linecap:round;stroke-linejoin:round;stroke-dashoffset:2.1875"
       id="rect2780-1-4-92-0-1-4"
       width="6.0000005"
       height="6.0000005"
       x="43.999985"
       y="50.000057" />
    <rect
       style="opacity:0.2;fill:#808084;fill-opacity:1;stroke-width:3;stroke-linecap:round;stroke-linejoin:round;stroke-dashoffset:2.1875"
       id="rect2780-3-8-3-24-8-7-6"
       width="6.0000005"
       height="6.0000005"
       x="50.000004"
       y="50.000057" />
    <rect
       style="opacity:0.9;fill:#808084;fill-opacity:1;stroke-width:3;stroke-linecap:round;stroke-linejoin:round;stroke-dashoffset:2.1875"
       id="rect2780-7-1-4-3"
       width="6.0000005"
       height="6.0000005"
       x="7.9999914"
       y="56.000065" />
    <rect
       style="opacity:0.8;fill:#808084;fill-opacity:1;stroke-width:3;stroke-linecap:round;stroke-linejoin:round;stroke-dashoffset:2.1875"
       id="rect2780-3-7-3-3-8"
       width="6.0000005"
       height="6.0000005"
       x="13.999997"
       y="56.000065" />
    <path
       id="rect950-9-3-60"
       style="opacity:0.9;fill:#808084;fill-opacity:1;stroke-width:0;stroke-linecap:round;stroke-linejoin:round;stroke-dashoffset:2.1875"
       d="M 8.9999999,2 C 5.1220005,2 2,5.1219994 2,8.9999992 V 54.999998 C 2,58.878001 5.1220005,62 8.9999999,62 H 31.999999 V 60.5 H 8.9999999 C 5.9530007,60.5 3.4999996,58.047 3.4999996,54.999998 V 8.9999992 C 3.4999996,5.9530002 5.9530007,3.5 8.9999999,3.5 H 31.999999 V 2 Z" />
    <rect
       style="opacity:0.7;fill:#808084;fill-opacity:1;stroke-width:3;stroke-linecap:round;stroke-linejoin:round;stroke-dashoffset:2.1875"
       id="rect2780-1-54-1-1-0"
       width="6.0000005"
       height="6.0000005"
       x="19.999989"
       y="56.000065" />
    <rect
       style="opacity:0.6;fill:#808084;fill-opacity:1;stroke-width:3;stroke-linecap:round;stroke-linejoin:round;stroke-dashoffset:2.1875"
       id="rect2780-3-8-81-1-4-4"
       width="6.0000005"
       height="6.0000005"
       x="25.999996"
       y="56.000065" />
    <rect
       style="opacity:0.5;fill:#808084;fill-opacity:1;stroke-width:3;stroke-linecap:round;stroke-linejoin:round;stroke-dashoffset:2.1875"
       id="rect2780-9-2-0-6-9"
       width="6.0000005"
       height="6.0000005"
       x="31.999987"
       y="56.000065" />
    <rect
       style="opacity:0.4;fill:#808084;fill-opacity:1;stroke-width:3;stroke-linecap:round;stroke-linejoin:round;stroke-dashoffset:2.1875"
       id="rect2780-3-6-8-3-9-7"
       width="6.0000005"
       height="6.0000005"
       x="37.999992"
       y="56.000065" />
    <rect
       style="opacity:0.3;fill:#808084;fill-opacity:1;stroke-width:3;stroke-linecap:round;stroke-linejoin:round;stroke-dashoffset:2.1875"
       id="rect2780-1-4-93-4-4-9"
       width="6.0000005"
       height="6.0000005"
       x="43.999985"
       y="56.000065" />
    <rect
       style="opacity:0.2;fill:#808084;fill-opacity:1;stroke-width:3;stroke-linecap:round;stroke-linejoin:round;stroke-dashoffset:2.1875"
       id="rect2780-3-8-3-6-0-2-7"
       width="6.0000005"
       height="6.0000005"
       x="50.000004"
       y="56.000065" />
    <path
       style="opacity:0.1;fill:#808084;fill-opacity:1;stroke-width:3.03958;stroke-linecap:round;stroke-linejoin:round;stroke-dashoffset:2.1875"
       d="m 56.000004,62.000049 c 3.112381,-0.442979 5.557028,-2.887615 6,-6 h -6 z"
       id="path2754-8-3-3-2-5" />
    <path
       style="fill:#808084;fill-opacity:1;stroke-width:3.03958;stroke-linecap:round;stroke-linejoin:round;stroke-dashoffset:2.1875"
       d="m 2.0000001,56.000049 c 0.4429795,3.112381 2.8876157,5.557028 5.9999999,6 v -6 z"
       id="path2754-8-3-9-6-1" />
    <rect
       style="opacity:0.1;fill:#808084;fill-opacity:1;stroke-width:3;stroke-linecap:round;stroke-linejoin:round;stroke-dashoffset:2.1875"
       id="rect2780-3-8-3-7-1-4-3"
       width="6.0000005"
       height="6.0000005"
       x="55.999992"
       y="8.000021" />
    <path
       id="rect950-9-3-6-1"
       style="opacity:0.45;fill:#808084;fill-opacity:1;stroke-width:0;stroke-linecap:round;stroke-linejoin:round;stroke-dashoffset:2.1875"
       d="M 55.000002,2 C 58.878001,2 62,5.1219994 62,8.9999992 V 54.999998 C 62,58.878001 58.878001,62 55.000002,62 H 32 V 60.5 H 55.000002 C 58.047,60.5 60.5,58.047 60.5,54.999998 V 8.9999992 C 60.5,5.9530002 58.047,3.5 55.000002,3.5 H 32 V 2 Z" />
    <rect
       style="opacity:0.1;fill:#808084;fill-opacity:1;stroke-width:3;stroke-linecap:round;stroke-linejoin:round;stroke-dashoffset:2.1875"
       id="rect2780-3-8-3-2-9-1-7"
       width="6.0000005"
       height="6.0000005"
       x="55.999992"
       y="14.000028" />
    <rect
       style="opacity:0.1;fill:#808084;fill-opacity:1;stroke-width:3;stroke-linecap:round;stroke-linejoin:round;stroke-dashoffset:2.1875"
       id="rect2780-3-8-3-24-6-2-8"
       width="6.0000005"
       height="6.0000005"
       x="55.999992"
       y="20.000031" />
    <rect
       style="opacity:0.1;fill:#808084;fill-opacity:1;stroke-width:3;stroke-linecap:round;stroke-linejoin:round;stroke-dashoffset:2.1875"
       id="rect2780-3-8-3-6-9-8-0"
       width="6.0000005"
       height="6.0000005"
       x="55.999992"
       y="26.000036" />
    <rect
       style="opacity:0.1;fill:#808084;fill-opacity:1;stroke-width:3;stroke-linecap:round;stroke-linejoin:round;stroke-dashoffset:2.1875"
       id="rect2780-3-8-3-1-3-8-9"
       width="6.0000005"
       height="6.0000005"
       x="55.999992"
       y="32.000042" />
    <rect
       style="opacity:0.1;fill:#808084;fill-opacity:1;stroke-width:3;stroke-linecap:round;stroke-linejoin:round;stroke-dashoffset:2.1875"
       id="rect2780-3-8-3-7-2-3-9-5"
       width="6.0000005"
       height="6.0000005"
       x="55.999992"
       y="38.000046" />
    <rect
       style="opacity:0.1;fill:#808084;fill-opacity:1;stroke-width:3;stroke-linecap:round;stroke-linejoin:round;stroke-dashoffset:2.1875"
       id="rect2780-3-8-3-2-2-8-2-2"
       width="6.0000005"
       height="6.0000005"
       x="55.999992"
       y="44.000053" />
    <rect
       style="opacity:0.1;fill:#808084;fill-opacity:1;stroke-width:3;stroke-linecap:round;stroke-linejoin:round;stroke-dashoffset:2.1875"
       id="rect2780-3-8-3-24-8-0-8-1"
       width="6.0000005"
       height="6.0000005"
       x="55.999992"
       y="50.000057" />
    <rect
       style="fill:#808084;fill-opacity:1;stroke-width:3;stroke-linecap:round;stroke-linejoin:round;stroke-dashoffset:2.1875"
       id="rect2780-3-8-3-7-5-8-32"
       width="6.0000005"
       height="6.0000005"
       x="2"
       y="8.000021" />
    <rect
       style="fill:#808084;fill-opacity:1;stroke-width:3;stroke-linecap:round;stroke-linejoin:round;stroke-dashoffset:2.1875"
       id="rect2780-3-8-3-2-6-8-7"
       width="6.0000005"
       height="6.0000005"
       x="2"
       y="14.000028" />
    <rect
       style="fill:#808084;fill-opacity:1;stroke-width:3;stroke-linecap:round;stroke-linejoin:round;stroke-dashoffset:2.1875"
       id="rect2780-3-8-3-24-64-6-3"
       width="6.0000005"
       height="6.0000005"
       x="2"
       y="20.000031" />
    <rect
       style="fill:#808084;fill-opacity:1;stroke-width:3;stroke-linecap:round;stroke-linejoin:round;stroke-dashoffset:2.1875"
       id="rect2780-3-8-3-6-00-8-3"
       width="6.0000005"
       height="6.0000005"
       x="2"
       y="26.000036" />
    <rect
       style="fill:#808084;fill-opacity:1;stroke-width:3;stroke-linecap:round;stroke-linejoin:round;stroke-dashoffset:2.1875"
       id="rect2780-3-8-3-1-4-3-2"
       width="6.0000005"
       height="6.0000005"
       x="2"
       y="32.000042" />
    <rect
       style="fill:#808084;fill-opacity:1;stroke-width:3;stroke-linecap:round;stroke-linejoin:round;stroke-dashoffset:2.1875"
       id="rect2780-3-8-3-7-2-6-8-3"
       width="6.0000005"
       height="6.0000005"
       x="2"
       y="38.000046" />
    <rect
       style="fill:#808084;fill-opacity:1;stroke-width:3;stroke-linecap:round;stroke-linejoin:round;stroke-dashoffset:2.1875"
       id="rect2780-3-8-3-2-2-2-3-8"
       width="6.0000005"
       height="6.0000005"
       x="2"
       y="44.000053" />
    <rect
       style="fill:#808084;fill-opacity:1;stroke-width:3;stroke-linecap:round;stroke-linejoin:round;stroke-dashoffset:2.1875"
       id="rect2780-3-8-3-24-8-6-3-6"
       width="6.0000005"
       height="6.0000005"
       x="2"
       y="50.000057" />
  </g>
</svg>
