<?xml version="1.0" encoding="UTF-8" standalone="no"?>
<svg
   xmlns:dc="http://purl.org/dc/elements/1.1/"
   xmlns:cc="http://creativecommons.org/ns#"
   xmlns:rdf="http://www.w3.org/1999/02/22-rdf-syntax-ns#"
   xmlns:svg="http://www.w3.org/2000/svg"
   xmlns="http://www.w3.org/2000/svg"
   xmlns:sodipodi="http://sodipodi.sourceforge.net/DTD/sodipodi-0.dtd"
   xmlns:inkscape="http://www.inkscape.org/namespaces/inkscape"
   width="64"
   height="64"
   viewBox="0 0 64 64.000003"
   version="1.1"
   id="svg8"
   inkscape:version="1.0.2 (e86c870879, 2021-01-15)"
   sodipodi:docname="document-import-symbolic.svg">
  <defs
     id="defs2" />
  <sodipodi:namedview
     id="base"
     pagecolor="#c3c3c3"
     bordercolor="#666666"
     borderopacity="1.0"
     inkscape:pageopacity="0"
     inkscape:pageshadow="2"
     inkscape:zoom="3.9784384"
     inkscape:cx="-20.227506"
     inkscape:cy="58.109695"
     inkscape:document-units="px"
     inkscape:current-layer="layer1"
     inkscape:document-rotation="0"
     showgrid="false"
     units="px"
     inkscape:window-width="2048"
     inkscape:window-height="1080"
     inkscape:window-x="0"
     inkscape:window-y="0"
     inkscape:window-maximized="1" />
  <metadata
     id="metadata5">
    <rdf:RDF>
      <cc:Work
         rdf:about="">
        <dc:format>image/svg+xml</dc:format>
        <dc:type
           rdf:resource="http://purl.org/dc/dcmitype/StillImage" />
        <dc:title />
      </cc:Work>
    </rdf:RDF>
  </metadata>
  <g
     inkscape:label="Layer 1"
     inkscape:groupmode="layer"
     id="layer1">
    <path
       id="rect2988-3-6"
       style="fill:#808084;fill-opacity:1;stroke-width:0;stroke-dashoffset:2.1875"
       d="M 7.0000004,0 C 3.1220004,0 0,3.122 0,7 v 50 c 0,3.878 3.1220004,7 7.0000004,7 H 45 45.835938 55 c 0.554,0 1,-0.446 1,-1 v -3.5 c 0,-0.554 -0.446,-1 -1,-1 H 45.835938 45 25 9.0000004 c -1.939,0 -3.5,-1.561 -3.5,-3.5 V 9 c 0,-1.939 1.561,-3.5 3.5,-3.5 H 25 45 45.835938 55 c 0.554,0 1,-0.446 1,-1 V 1 C 56,0.446 55.554,0 55,0 H 45.835938 45 Z" />
    <path
       id="rect1790-5-6-6"
       style="fill:#808084;fill-opacity:1;stroke-width:7.00003;stroke-dashoffset:2.1875"
       d="m 32.557179,15.442 c 0.2556,0 0.5112,0.0971 0.707,0.29298 l 4.7734,4.77357 c 0.3917,0.39175 0.3917,1.02234 0,1.41409 l -5.7011,5.70132 h 30.6635 c 0.554,0 1,0.44602 1,1.00003 v 6.75018 c 0,0.55402 -0.446,1.00003 -1,1.00003 h -30.6635 l 5.7011,5.70133 c 0.3917,0.39175 0.3917,1.02235 0,1.4141 l -4.7734,4.77356 c -0.3917,0.39175 -1.0223,0.39175 -1.414,0 l -10.783,-10.78349 -4.7734,-4.77357 c -0.391705,-0.39175 -0.391705,-1.02235 0,-1.4141 l 4.7734,-4.7716 10.783,-10.78545 c 0.1958,-0.19587 0.4514,-0.29298 0.707,-0.29298 z" />
  </g>
</svg>
