<?xml version="1.0" encoding="UTF-8" standalone="no"?>
<svg
   xmlns:dc="http://purl.org/dc/elements/1.1/"
   xmlns:cc="http://creativecommons.org/ns#"
   xmlns:rdf="http://www.w3.org/1999/02/22-rdf-syntax-ns#"
   xmlns:svg="http://www.w3.org/2000/svg"
   xmlns="http://www.w3.org/2000/svg"
   xmlns:sodipodi="http://sodipodi.sourceforge.net/DTD/sodipodi-0.dtd"
   xmlns:inkscape="http://www.inkscape.org/namespaces/inkscape"
   width="64"
   height="64"
   viewBox="0 0 64 64"
   version="1.1"
   id="svg6374"
   inkscape:version="1.0.2 (e86c870879, 2021-01-15)"
   sodipodi:docname="edit-select-same-stroke-style-symbolic.svg">
  <defs
     id="defs6368" />
  <sodipodi:namedview
     id="base"
     pagecolor="#cecece"
     bordercolor="#666666"
     borderopacity="1.0"
     inkscape:pageopacity="0"
     inkscape:pageshadow="2"
     inkscape:zoom="5.5639287"
     inkscape:cx="8.3100654"
     inkscape:cy="29.73153"
     inkscape:document-units="px"
     inkscape:current-layer="layer1"
     inkscape:document-rotation="0"
     showgrid="false"
     units="px"
     inkscape:window-width="1500"
     inkscape:window-height="970"
     inkscape:window-x="68"
     inkscape:window-y="56"
     inkscape:window-maximized="0" />
  <metadata
     id="metadata6371">
    <rdf:RDF>
      <cc:Work
         rdf:about="">
        <dc:format>image/svg+xml</dc:format>
        <dc:type
           rdf:resource="http://purl.org/dc/dcmitype/StillImage" />
        <dc:title></dc:title>
      </cc:Work>
    </rdf:RDF>
  </metadata>
  <g
     inkscape:label="Layer 1"
     inkscape:groupmode="layer"
     id="layer1">
    <path
       id="path3100-3"
       style="display:inline;fill:#808084;fill-opacity:1;stroke-width:0;stroke-linecap:round;stroke-linejoin:round;stroke-dashoffset:2.1875"
       d="m 24.25,15.999996 a 2.7500001,2.7500001 0 0 0 -2.75,2.75 2.7500001,2.7500001 0 0 0 2.75,2.75 2.7500001,2.7500001 0 0 0 2.75,-2.75 2.7500001,2.7500001 0 0 0 -2.75,-2.75 z m 7.75,0 a 2.7500001,2.7500001 0 0 0 -2.75,2.75 2.7500001,2.7500001 0 0 0 2.75,2.75 2.7500001,2.7500001 0 0 0 2.75,-2.75 2.7500001,2.7500001 0 0 0 -2.75,-2.75 z m 7.75,0 a 2.7500001,2.7500001 0 0 0 -2.75,2.75 2.7500001,2.7500001 0 0 0 2.75,2.75 2.7500001,2.7500001 0 0 0 2.75,-2.75 2.7500001,2.7500001 0 0 0 -2.75,-2.75 z m -21,5.5 a 2.7500001,2.7500001 0 0 0 -2.75,2.75 2.7500001,2.7500001 0 0 0 2.75,2.75 2.7500001,2.7500001 0 0 0 2.75,-2.75 2.7500001,2.7500001 0 0 0 -2.75,-2.75 z m 26.5,0 a 2.7500001,2.7500001 0 0 0 -2.75,2.75 2.7500001,2.7500001 0 0 0 2.75,2.75 2.7500001,2.7500001 0 0 0 2.75,-2.75 2.7500001,2.7500001 0 0 0 -2.75,-2.75 z m -26.5,7.75 a 2.7500001,2.7500001 0 0 0 -2.75,2.75 2.7500001,2.7500001 0 0 0 2.75,2.75 2.7500001,2.7500001 0 0 0 2.75,-2.75 2.7500001,2.7500001 0 0 0 -2.75,-2.75 z m 26.5,0 a 2.7500001,2.7500001 0 0 0 -2.75,2.75 2.7500001,2.7500001 0 0 0 2.75,2.75 2.7500001,2.7500001 0 0 0 2.75,-2.75 2.7500001,2.7500001 0 0 0 -2.75,-2.75 z m -26.5,7.75 a 2.7500001,2.7500001 0 0 0 -2.75,2.75 2.7500001,2.7500001 0 0 0 2.75,2.75 2.7500001,2.7500001 0 0 0 2.75,-2.75 2.7500001,2.7500001 0 0 0 -2.75,-2.75 z m 26.5,0 a 2.7500001,2.7500001 0 0 0 -2.75,2.75 2.7500001,2.7500001 0 0 0 2.75,2.75 2.7500001,2.7500001 0 0 0 2.75,-2.75 2.7500001,2.7500001 0 0 0 -2.75,-2.75 z m -21,5.5 a 2.7500001,2.7500001 0 0 0 -2.75,2.75 2.7500001,2.7500001 0 0 0 2.75,2.75 2.7500001,2.7500001 0 0 0 2.75,-2.75 2.7500001,2.7500001 0 0 0 -2.75,-2.75 z m 7.75,0 a 2.7500001,2.7500001 0 0 0 -2.75,2.75 2.7500001,2.7500001 0 0 0 2.75,2.75 2.7500001,2.7500001 0 0 0 2.75,-2.75 2.7500001,2.7500001 0 0 0 -2.75,-2.75 z m 7.75,0 a 2.7500001,2.7500001 0 0 0 -2.75,2.75 2.7500001,2.7500001 0 0 0 2.75,2.75 2.7500001,2.7500001 0 0 0 2.75,-2.75 2.7500001,2.7500001 0 0 0 -2.75,-2.75 z" />
    <path
       id="path846-9-0-6-6-6"
       style="display:inline;fill:#808084;fill-opacity:1;stroke-width:0;stroke-linecap:round;stroke-linejoin:round;stroke-dashoffset:2.1875"
       d="M 12.1387,1.1628293e-4 A 4.0000002,4.0000002 0 0 0 8.1992004,4.0001163 a 4.0000002,4.0000002 0 0 0 3.9999996,4 4.0000002,4.0000002 0 0 0 4,-4 4.0000002,4.0000002 0 0 0 -4,-4.00000001707 4.0000002,4.0000002 0 0 0 -0.061,0 z m 13.2011,0 A 4.0000002,4.0000002 0 0 0 21.4004,4.0001163 a 4.0000002,4.0000002 0 0 0 4,4 4.0000002,4.0000002 0 0 0 4,-4 4.0000002,4.0000002 0 0 0 -4,-4.00000001707 4.0000002,4.0000002 0 0 0 -0.061,0 z m 13.1993,0 A 4.0000002,4.0000002 0 0 0 34.5996,4.0001163 a 4.0000002,4.0000002 0 0 0 4,4 4.0000002,4.0000002 0 0 0 4,-4 4.0000002,4.0000002 0 0 0 -4,-4.00000001707 4.0000002,4.0000002 0 0 0 -0.061,0 z m 13.1992,0 A 4.0000002,4.0000002 0 0 0 47.8008,4.0001163 a 4.0000002,4.0000002 0 0 0 4,4 4.0000002,4.0000002 0 0 0 4,-4 4.0000002,4.0000002 0 0 0 -4,-4.00000001707 4.0000002,4.0000002 0 0 0 -0.061,0 z M 4,8.1993363 A 4.0000002,4.0000002 0 0 0 2.6147273e-8,12.199336 4.0000002,4.0000002 0 0 0 4,16.199336 a 4.0000002,4.0000002 0 0 0 4.0000004,-4 A 4.0000002,4.0000002 0 0 0 4,8.1993363 Z m 56,0 a 4.0000002,4.0000002 0 0 0 -4,3.9999997 4.0000002,4.0000002 0 0 0 4,4 4.0000002,4.0000002 0 0 0 4,-4 4.0000002,4.0000002 0 0 0 -4,-3.9999997 z M 3.9395,21.400506 A 4.0000002,4.0000002 0 0 0 2.6147274e-8,25.400506 4.0000002,4.0000002 0 0 0 4,29.400506 a 4.0000002,4.0000002 0 0 0 4.0000004,-4 4.0000002,4.0000002 0 0 0 -4.0000004,-4 4.0000002,4.0000002 0 0 0 -0.061,0 z m 56,0 a 4.0000002,4.0000002 0 0 0 -3.9395,4 4.0000002,4.0000002 0 0 0 4,4 4.0000002,4.0000002 0 0 0 4,-4 4.0000002,4.0000002 0 0 0 -4,-4 4.0000002,4.0000002 0 0 0 -0.061,0 z m -56,13.19921 A 4.0000002,4.0000002 0 0 0 2.6147274e-8,38.599716 4.0000002,4.0000002 0 0 0 4,42.599726 4.0000002,4.0000002 0 0 0 8.0000004,38.599716 4.0000002,4.0000002 0 0 0 4,34.599716 a 4.0000002,4.0000002 0 0 0 -0.061,0 z m 56,0 a 4.0000002,4.0000002 0 0 0 -3.9395,4 4.0000002,4.0000002 0 0 0 4,4.00001 4.0000002,4.0000002 0 0 0 4,-4.00001 4.0000002,4.0000002 0 0 0 -4,-4 4.0000002,4.0000002 0 0 0 -0.061,0 z m -56,13.20118 A 4.0000002,4.0000002 0 0 0 2.6147274e-8,51.800896 4.0000002,4.0000002 0 0 0 4,55.800896 a 4.0000002,4.0000002 0 0 0 4.0000004,-4 4.0000002,4.0000002 0 0 0 -4.0000004,-4 4.0000002,4.0000002 0 0 0 -0.061,0 z m 56,0 a 4.0000002,4.0000002 0 0 0 -3.9395,4 4.0000002,4.0000002 0 0 0 4,4 4.0000002,4.0000002 0 0 0 4,-4 4.0000002,4.0000002 0 0 0 -4,-4 4.0000002,4.0000002 0 0 0 -0.061,0 z m -47.8008,8.19922 a 4.0000002,4.0000002 0 0 0 -3.9394996,4 4.0000002,4.0000002 0 0 0 3.9999996,4 4.0000002,4.0000002 0 0 0 4,-4 4.0000002,4.0000002 0 0 0 -4,-4 4.0000002,4.0000002 0 0 0 -0.061,0 z m 13.2011,0 a 4.0000002,4.0000002 0 0 0 -3.9394,4 4.0000002,4.0000002 0 0 0 4,4 4.0000002,4.0000002 0 0 0 4,-4 4.0000002,4.0000002 0 0 0 -4,-4 4.0000002,4.0000002 0 0 0 -0.061,0 z m 13.1993,0 a 4.0000002,4.0000002 0 0 0 -3.9395,4 4.0000002,4.0000002 0 0 0 4,4 4.0000002,4.0000002 0 0 0 4,-4 4.0000002,4.0000002 0 0 0 -4,-4 4.0000002,4.0000002 0 0 0 -0.061,0 z m 13.1992,0 a 4.0000002,4.0000002 0 0 0 -3.9375,4 4.0000002,4.0000002 0 0 0 4,4 4.0000002,4.0000002 0 0 0 4,-4 4.0000002,4.0000002 0 0 0 -4,-4 4.0000002,4.0000002 0 0 0 -0.061,0 z" />
  </g>
</svg>
