<?xml version="1.0" encoding="UTF-8" standalone="no"?>
<svg
   xmlns:dc="http://purl.org/dc/elements/1.1/"
   xmlns:cc="http://creativecommons.org/ns#"
   xmlns:rdf="http://www.w3.org/1999/02/22-rdf-syntax-ns#"
   xmlns:svg="http://www.w3.org/2000/svg"
   xmlns="http://www.w3.org/2000/svg"
   xmlns:sodipodi="http://sodipodi.sourceforge.net/DTD/sodipodi-0.dtd"
   xmlns:inkscape="http://www.inkscape.org/namespaces/inkscape"
   width="64"
   height="64"
   viewBox="0 0 64 64"
   version="1.1"
   id="svg6374"
   inkscape:version="1.0.2 (e86c870879, 2021-01-15)"
   sodipodi:docname="edit-clear-symbolic-rtl.svg">
  <defs
     id="defs6368" />
  <sodipodi:namedview
     id="base"
     pagecolor="#cecece"
     bordercolor="#666666"
     borderopacity="1.0"
     inkscape:pageopacity="0"
     inkscape:pageshadow="2"
     inkscape:zoom="1.2622617"
     inkscape:cx="108.25178"
     inkscape:cy="80.048091"
     inkscape:document-units="px"
     inkscape:current-layer="layer1"
     inkscape:document-rotation="0"
     showgrid="false"
     units="px"
     inkscape:window-width="1500"
     inkscape:window-height="970"
     inkscape:window-x="68"
     inkscape:window-y="56"
     inkscape:window-maximized="0" />
  <metadata
     id="metadata6371">
    <rdf:RDF>
      <cc:Work
         rdf:about="">
        <dc:format>image/svg+xml</dc:format>
        <dc:type
           rdf:resource="http://purl.org/dc/dcmitype/StillImage" />
        <dc:title></dc:title>
      </cc:Work>
    </rdf:RDF>
  </metadata>
  <g
     inkscape:label="Layer 1"
     inkscape:groupmode="layer"
     id="layer1">
    <path
       id="rect895-5"
       style="fill:#808084;fill-opacity:1;stroke-width:0.999993;stroke-linecap:round;stroke-linejoin:round;stroke-dashoffset:2.1875"
       d="m 39.999407,7.9999992 c 0.151716,0 0.303949,0.0086 0.455071,0.02344 0.106061,0.01022 0.208692,0.02776 0.312495,0.04492 0.0428,0.0072 0.08628,0.01116 0.128904,0.01953 0.144612,0.02804 0.28636,0.06248 0.425776,0.103516 0.803818,0.236614 1.513385,0.685018 2.070281,1.279297 L 62.633835,28.710938 c 1.821554,1.821605 1.821554,4.754578 0,6.576171 L 43.391934,54.529297 c -0.556008,0.593332 -1.264135,1.040434 -2.066375,1.277344 -0.01153,0.0038 -0.02363,0.007 -0.03516,0.0098 -0.129683,0.03723 -0.260393,0.0697 -0.394526,0.0957 -0.04261,0.0085 -0.0861,0.01235 -0.128904,0.01953 -0.103803,0.0172 -0.206434,0.03471 -0.312495,0.04492 -0.151118,0.01479 -0.303351,0.02341 -0.455067,0.02341 H 4.6503204 C 2.0742588,56.000001 -1.8625e-7,53.925737 -1.8625e-7,51.34961 V 12.650391 C -1.8625e-7,10.074269 2.0742588,7.9999992 4.6503204,7.9999992 Z m -3.150344,6.7363288 c -0.255613,0 -0.511154,0.0971 -0.707021,0.292969 L 24.827758,26.34375 13.513478,15.029297 c -0.391734,-0.39174 -1.022315,-0.39174 -1.414049,0 l -4.2421165,4.242187 c -0.3917342,0.39175 -0.3917342,1.024296 0,1.416016 L 19.171593,32 7.8573125,43.314453 c -0.3917342,0.39175 -0.3917342,1.022323 0,1.414063 l 4.2421165,4.242187 c 0.391734,0.39175 1.022315,0.39175 1.414049,0 L 24.827758,37.65625 36.142042,48.970703 c 0.391734,0.39175 1.022308,0.39175 1.414042,0 l 4.242124,-4.242187 c 0.391744,-0.39172 0.391744,-1.022333 0,-1.414063 L 30.483924,32 41.798208,20.6875 c 0.391744,-0.39173 0.391744,-1.024276 0,-1.416016 l -4.242124,-4.242187 c -0.195867,-0.19587 -0.451407,-0.292969 -0.707021,-0.292969 z" />
  </g>
</svg>
