<?xml version="1.0" encoding="UTF-8" standalone="no"?>
<svg
   xmlns:dc="http://purl.org/dc/elements/1.1/"
   xmlns:cc="http://creativecommons.org/ns#"
   xmlns:rdf="http://www.w3.org/1999/02/22-rdf-syntax-ns#"
   xmlns:svg="http://www.w3.org/2000/svg"
   xmlns="http://www.w3.org/2000/svg"
   xmlns:sodipodi="http://sodipodi.sourceforge.net/DTD/sodipodi-0.dtd"
   xmlns:inkscape="http://www.inkscape.org/namespaces/inkscape"
   width="64"
   height="64"
   viewBox="0 0 64 64"
   version="1.1"
   id="svg6374"
   inkscape:version="1.0.2 (e86c870879, 2021-01-15)"
   sodipodi:docname="edit-select-none-symbolic.svg">
  <defs
     id="defs6368" />
  <sodipodi:namedview
     id="base"
     pagecolor="#cecece"
     bordercolor="#666666"
     borderopacity="1.0"
     inkscape:pageopacity="0"
     inkscape:pageshadow="2"
     inkscape:zoom="5.5639287"
     inkscape:cx="8.3100654"
     inkscape:cy="29.73153"
     inkscape:document-units="px"
     inkscape:current-layer="layer1"
     inkscape:document-rotation="0"
     showgrid="false"
     units="px"
     inkscape:window-width="1500"
     inkscape:window-height="970"
     inkscape:window-x="68"
     inkscape:window-y="56"
     inkscape:window-maximized="0" />
  <metadata
     id="metadata6371">
    <rdf:RDF>
      <cc:Work
         rdf:about="">
        <dc:format>image/svg+xml</dc:format>
        <dc:type
           rdf:resource="http://purl.org/dc/dcmitype/StillImage" />
        <dc:title></dc:title>
      </cc:Work>
    </rdf:RDF>
  </metadata>
  <g
     inkscape:label="Layer 1"
     inkscape:groupmode="layer"
     id="layer1">
    <path
       id="rect1598"
       style="display:inline;opacity:0.8;fill:#808084;fill-opacity:1;stroke-width:0;stroke-dashoffset:2.1875"
       d="m 46.899433,17.100566 c -1.46743,-1.46743 -3.83015,-1.46743 -5.29758,0 l -9.60185,9.60186 -9.60186,-9.60186 c -1.46743,-1.46743 -3.83014,-1.46743 -5.29757,0 -1.46743,1.46743 -1.46743,3.83014 0,5.29757 l 9.60186,9.60185 -9.60186,9.60186 c -1.46743,1.46742 -1.46743,3.83015 0,5.29757 1.46743,1.46742 3.83014,1.46742 5.29757,0 l 9.60186,-9.60186 9.60185,9.60186 c 1.46743,1.46742 3.83015,1.46742 5.29758,0 1.46742,-1.46742 1.46742,-3.83015 0,-5.29757 l -9.60186,-9.60186 9.60186,-9.60185 c 1.46742,-1.46743 1.46742,-3.83014 0,-5.29757 z" />
    <path
       id="path846-9-0-0-3-6-6"
       style="display:inline;fill:#808084;fill-opacity:1;stroke-width:0;stroke-linecap:round;stroke-linejoin:round;stroke-dashoffset:2.1875"
       d="M 12.1387,1.1628293e-4 A 4.0000002,4.0000002 0 0 0 8.1991997,4.0001163 a 4.0000002,4.0000002 0 0 0 4.0000003,4 4.0000002,4.0000002 0 0 0 4,-4 4.0000002,4.0000002 0 0 0 -4,-4.00000001707 4.0000002,4.0000002 0 0 0 -0.061,0 z m 13.2011,0 A 4.0000002,4.0000002 0 0 0 21.4004,4.0001163 a 4.0000002,4.0000002 0 0 0 4,4 4.0000002,4.0000002 0 0 0 4,-4 4.0000002,4.0000002 0 0 0 -4,-4.00000001707 4.0000002,4.0000002 0 0 0 -0.061,0 z m 13.1993,0 A 4.0000002,4.0000002 0 0 0 34.5996,4.0001163 a 4.0000002,4.0000002 0 0 0 4,4 4.0000002,4.0000002 0 0 0 4,-4 4.0000002,4.0000002 0 0 0 -4,-4.00000001707 4.0000002,4.0000002 0 0 0 -0.061,0 z m 13.1992,0 A 4.0000002,4.0000002 0 0 0 47.8008,4.0001163 a 4.0000002,4.0000002 0 0 0 4,4 4.0000002,4.0000002 0 0 0 4,-4 4.0000002,4.0000002 0 0 0 -4,-4.00000001707 4.0000002,4.0000002 0 0 0 -0.061,0 z M 3.9999997,8.1993363 A 4.0000002,4.0000002 0 0 0 2.6147782e-8,12.199326 a 4.0000002,4.0000002 0 0 0 3.999999673852218,4 4.0000002,4.0000002 0 0 0 4,-4 4.0000002,4.0000002 0 0 0 -4,-3.9999897 z m 56.0000003,0 a 4.0000002,4.0000002 0 0 0 -4,3.9999897 4.0000002,4.0000002 0 0 0 4,4 4.0000002,4.0000002 0 0 0 4,-4 4.0000002,4.0000002 0 0 0 -4,-3.9999897 z M 3.9394997,21.400506 A 4.0000002,4.0000002 0 0 0 2.6147791e-8,25.400506 4.0000002,4.0000002 0 0 0 3.9999997,29.400496 a 4.0000002,4.0000002 0 0 0 4,-3.99999 4.0000002,4.0000002 0 0 0 -4,-4 4.0000002,4.0000002 0 0 0 -0.061,0 z m 56.0000003,0 a 4.0000002,4.0000002 0 0 0 -3.9395,4 4.0000002,4.0000002 0 0 0 4,3.99999 4.0000002,4.0000002 0 0 0 4,-3.99999 4.0000002,4.0000002 0 0 0 -4,-4 4.0000002,4.0000002 0 0 0 -0.061,0 z M 3.9394997,34.599706 A 4.0000002,4.0000002 0 0 0 2.6147799e-8,38.599706 4.0000002,4.0000002 0 0 0 3.9999997,42.599716 a 4.0000002,4.0000002 0 0 0 4,-4.00001 4.0000002,4.0000002 0 0 0 -4,-4 4.0000002,4.0000002 0 0 0 -0.061,0 z m 56.0000003,0 a 4.0000002,4.0000002 0 0 0 -3.9395,4 4.0000002,4.0000002 0 0 0 4,4.00002 4.0000002,4.0000002 0 0 0 4,-4.00002 4.0000002,4.0000002 0 0 0 -4,-4 4.0000002,4.0000002 0 0 0 -0.061,0 z M 3.9394997,47.800896 a 4.0000002,4.0000002 0 0 0 -3.939499673852201,4 4.0000002,4.0000002 0 0 0 3.999999673852201,4 4.0000002,4.0000002 0 0 0 4,-4 4.0000002,4.0000002 0 0 0 -4,-4 4.0000002,4.0000002 0 0 0 -0.061,0 z m 56.0000003,0 a 4.0000002,4.0000002 0 0 0 -3.9395,4 4.0000002,4.0000002 0 0 0 4,4 4.0000002,4.0000002 0 0 0 4,-4 4.0000002,4.0000002 0 0 0 -4,-4 4.0000002,4.0000002 0 0 0 -0.061,0 z m -47.8008,8.19921 a 4.0000002,4.0000002 0 0 0 -3.9395003,4 4.0000002,4.0000002 0 0 0 4.0000003,4 4.0000002,4.0000002 0 0 0 4,-4 4.0000002,4.0000002 0 0 0 -4,-4 4.0000002,4.0000002 0 0 0 -0.061,0 z m 13.2011,0 a 4.0000002,4.0000002 0 0 0 -3.9394,4 4.0000002,4.0000002 0 0 0 4,4 4.0000002,4.0000002 0 0 0 4,-4 4.0000002,4.0000002 0 0 0 -4,-4 4.0000002,4.0000002 0 0 0 -0.061,0 z m 13.1993,0 a 4.0000002,4.0000002 0 0 0 -3.9395,4 4.0000002,4.0000002 0 0 0 4,4 4.0000002,4.0000002 0 0 0 4,-4 4.0000002,4.0000002 0 0 0 -4,-4 4.0000002,4.0000002 0 0 0 -0.061,0 z m 13.1992,0 a 4.0000002,4.0000002 0 0 0 -3.9375,4 4.0000002,4.0000002 0 0 0 4,4 4.0000002,4.0000002 0 0 0 4,-4 4.0000002,4.0000002 0 0 0 -4,-4 4.0000002,4.0000002 0 0 0 -0.061,0 z" />
  </g>
</svg>
