<?xml version="1.0" encoding="UTF-8" standalone="no"?>
<svg
   xmlns:dc="http://purl.org/dc/elements/1.1/"
   xmlns:cc="http://creativecommons.org/ns#"
   xmlns:rdf="http://www.w3.org/1999/02/22-rdf-syntax-ns#"
   xmlns:svg="http://www.w3.org/2000/svg"
   xmlns="http://www.w3.org/2000/svg"
   xmlns:sodipodi="http://sodipodi.sourceforge.net/DTD/sodipodi-0.dtd"
   xmlns:inkscape="http://www.inkscape.org/namespaces/inkscape"
   width="64"
   height="64"
   viewBox="0 0 16.933333 16.933334"
   version="1.1"
   id="svg841"
   inkscape:version="1.0.2 (e86c870879, 2021-01-15)"
   sodipodi:docname="edit-select-all-layers-symbolic.svg">
  <defs
     id="defs835" />
  <sodipodi:namedview
     id="base"
     pagecolor="#c4c4c4"
     bordercolor="#666666"
     borderopacity="1.0"
     inkscape:pageopacity="0"
     inkscape:pageshadow="2"
     inkscape:zoom="6.7659362"
     inkscape:cx="56.496958"
     inkscape:cy="40.060011"
     inkscape:document-units="px"
     inkscape:current-layer="layer1"
     inkscape:document-rotation="0"
     showgrid="false"
     units="px"
     inkscape:window-width="2048"
     inkscape:window-height="1080"
     inkscape:window-x="0"
     inkscape:window-y="0"
     inkscape:window-maximized="1" />
  <metadata
     id="metadata838">
    <rdf:RDF>
      <cc:Work
         rdf:about="">
        <dc:format>image/svg+xml</dc:format>
        <dc:type
           rdf:resource="http://purl.org/dc/dcmitype/StillImage" />
        <dc:title />
      </cc:Work>
    </rdf:RDF>
  </metadata>
  <g
     inkscape:label="Layer 1"
     inkscape:groupmode="layer"
     id="layer1">
    <path
       id="rect851-7-3-7-3"
       style="fill:#808084;fill-opacity:1;stroke:none;stroke-width:0;stroke-linecap:square;stroke-miterlimit:4;stroke-dasharray:none"
       d="m 5.7106113,11.156597 c -0.09772,0 -0.2320041,0.05561 -0.3011021,0.124712 l -1.2939823,1.293978 c -0.0691,0.0691 -0.04604,0.124713 0.05167,0.124713 h 7.0555741 c 0.09772,0 0.232005,-0.05561 0.301104,-0.124713 l 1.293981,-1.293978 c 0.0691,-0.0691 0.04605,-0.124712 -0.05167,-0.124712 z" />
    <path
       id="rect851-7-3-7-3-6"
       style="fill:#808084;fill-opacity:1;stroke:none;stroke-width:0;stroke-linecap:square;stroke-miterlimit:4;stroke-dasharray:none"
       d="m 5.7105583,7.6949655 c -0.09772,0 -0.2320041,0.055613 -0.3011021,0.124712 l -1.2939813,1.293978 c -0.0691,0.069098 -0.04604,0.1247126 0.05167,0.1247126 H 11.22272 c 0.09772,0 0.232005,-0.055613 0.301104,-0.1247126 l 1.293981,-1.293978 c 0.0691,-0.069097 0.04605,-0.124712 -0.05167,-0.124712 z" />
    <path
       id="rect851-7-3-7-3-7"
       style="fill:#808084;fill-opacity:1;stroke:none;stroke-width:0;stroke-linecap:square;stroke-miterlimit:4;stroke-dasharray:none"
       d="m 5.7105593,4.2333334 c -0.09772,0 -0.2320041,0.055613 -0.3011021,0.124712 l -1.2939823,1.293978 c -0.0691,0.069098 -0.04604,0.1247127 0.05167,0.1247127 H 11.22272 c 0.09772,0 0.232005,-0.055613 0.301103,-0.1247127 l 1.293982,-1.293978 c 0.0691,-0.069097 0.04605,-0.124712 -0.05167,-0.124712 z" />
    <path
       id="path846-9-0"
       style="display:inline;fill:#808084;fill-opacity:1;stroke-width:0;stroke-linecap:round;stroke-linejoin:round;stroke-dashoffset:2.1875"
       d="M 3.2116978,1.4984057e-5 A 1.0583334,1.0583334 0 0 0 2.1693718,1.0583484 1.0583334,1.0583334 0 0 0 3.2277048,2.1166817 1.0583334,1.0583334 0 0 0 4.2860378,1.0583484 1.0583334,1.0583334 0 0 0 3.2277048,1.4984057e-5 a 1.0583334,1.0583334 0 0 0 -0.01614,0 z m 3.492791,0 A 1.0583334,1.0583334 0 0 0 5.6621888,1.0583484 1.0583334,1.0583334 0 0 0 6.7205228,2.1166817 1.0583334,1.0583334 0 0 0 7.7788558,1.0583484 1.0583334,1.0583334 0 0 0 6.7205228,1.4984057e-5 a 1.0583334,1.0583334 0 0 0 -0.01614,0 z m 3.4923152,0 A 1.0583334,1.0583334 0 0 0 9.1544778,1.0583484 1.0583334,1.0583334 0 0 0 10.212811,2.1166817 1.0583334,1.0583334 0 0 0 11.271144,1.0583484 1.0583334,1.0583334 0 0 0 10.212811,1.4984057e-5 a 1.0583334,1.0583334 0 0 0 -0.01614,0 z m 3.492288,0 A 1.0583334,1.0583334 0 0 0 12.647295,1.0583484 1.0583334,1.0583334 0 0 0 13.705629,2.1166817 1.0583334,1.0583334 0 0 0 14.763962,1.0583484 1.0583334,1.0583334 0 0 0 13.705629,1.4984057e-5 a 1.0583334,1.0583334 0 0 0 -0.01614,0 z M 1.0583328,2.1693917 A 1.0583334,1.0583334 0 0 0 -2.4653796e-7,3.2277251 1.0583334,1.0583334 0 0 0 1.0583328,4.2860585 1.0583334,1.0583334 0 0 0 2.1166668,3.2277251 1.0583334,1.0583334 0 0 0 1.0583328,2.1693917 Z m 14.8166672,0 A 1.0583334,1.0583334 0 0 0 14.816667,3.2277251 1.0583334,1.0583334 0 0 0 15.875,4.2860585 1.0583334,1.0583334 0 0 0 16.933334,3.2277251 1.0583334,1.0583334 0 0 0 15.875,2.1693917 Z M 1.0423258,5.6622019 A 1.0583334,1.0583334 0 0 0 -2.4653795e-7,6.7205353 1.0583334,1.0583334 0 0 0 1.0583328,7.7788686 1.0583334,1.0583334 0 0 0 2.1166668,6.7205353 1.0583334,1.0583334 0 0 0 1.0583328,5.6622019 a 1.0583334,1.0583334 0 0 0 -0.01614,0 z m 14.8166672,0 A 1.0583334,1.0583334 0 0 0 14.816667,6.7205353 1.0583334,1.0583334 0 0 0 15.875,7.7788686 1.0583334,1.0583334 0 0 0 16.933334,6.7205353 1.0583334,1.0583334 0 0 0 15.875,5.6622019 a 1.0583334,1.0583334 0 0 0 -0.01614,0 z M 1.0423258,9.1544953 A 1.0583334,1.0583334 0 0 0 -2.4653795e-7,10.212828 1.0583334,1.0583334 0 0 0 1.0583328,11.271162 a 1.0583334,1.0583334 0 0 0 1.058334,-1.058334 1.0583334,1.0583334 0 0 0 -1.058334,-1.0583327 1.0583334,1.0583334 0 0 0 -0.01614,0 z m 14.8166672,0 A 1.0583334,1.0583334 0 0 0 14.816667,10.212828 1.0583334,1.0583334 0 0 0 15.875,11.271162 1.0583334,1.0583334 0 0 0 16.933334,10.212828 1.0583334,1.0583334 0 0 0 15.875,9.1544953 a 1.0583334,1.0583334 0 0 0 -0.01614,0 z M 1.0423258,12.647305 A 1.0583334,1.0583334 0 0 0 -2.4653796e-7,13.705638 1.0583334,1.0583334 0 0 0 1.0583328,14.763972 a 1.0583334,1.0583334 0 0 0 1.058334,-1.058334 1.0583334,1.0583334 0 0 0 -1.058334,-1.058333 1.0583334,1.0583334 0 0 0 -0.01614,0 z m 14.8166672,0 a 1.0583334,1.0583334 0 0 0 -1.042326,1.058333 1.0583334,1.0583334 0 0 0 1.058333,1.058334 1.0583334,1.0583334 0 0 0 1.058334,-1.058334 1.0583334,1.0583334 0 0 0 -1.058334,-1.058333 1.0583334,1.0583334 0 0 0 -0.01614,0 z M 3.2116978,14.816682 a 1.0583334,1.0583334 0 0 0 -1.042326,1.058333 1.0583334,1.0583334 0 0 0 1.058333,1.058334 1.0583334,1.0583334 0 0 0 1.058333,-1.058334 1.0583334,1.0583334 0 0 0 -1.058333,-1.058333 1.0583334,1.0583334 0 0 0 -0.01614,0 z m 3.492791,0 a 1.0583334,1.0583334 0 0 0 -1.0423,1.058333 1.0583334,1.0583334 0 0 0 1.058334,1.058334 1.0583334,1.0583334 0 0 0 1.058333,-1.058334 1.0583334,1.0583334 0 0 0 -1.058333,-1.058333 1.0583334,1.0583334 0 0 0 -0.01614,0 z m 3.4923152,0 a 1.0583334,1.0583334 0 0 0 -1.0423262,1.058333 1.0583334,1.0583334 0 0 0 1.0583332,1.058334 1.0583334,1.0583334 0 0 0 1.058333,-1.058334 1.0583334,1.0583334 0 0 0 -1.058333,-1.058333 1.0583334,1.0583334 0 0 0 -0.01614,0 z m 3.492288,0 a 1.0583334,1.0583334 0 0 0 -1.041797,1.058333 1.0583334,1.0583334 0 0 0 1.058334,1.058334 1.0583334,1.0583334 0 0 0 1.058333,-1.058334 1.0583334,1.0583334 0 0 0 -1.058333,-1.058333 1.0583334,1.0583334 0 0 0 -0.01614,0 z" />
  </g>
</svg>
