<?xml version="1.0" encoding="UTF-8" standalone="no"?>
<svg
   xmlns:dc="http://purl.org/dc/elements/1.1/"
   xmlns:cc="http://creativecommons.org/ns#"
   xmlns:rdf="http://www.w3.org/1999/02/22-rdf-syntax-ns#"
   xmlns:svg="http://www.w3.org/2000/svg"
   xmlns="http://www.w3.org/2000/svg"
   xmlns:sodipodi="http://sodipodi.sourceforge.net/DTD/sodipodi-0.dtd"
   xmlns:inkscape="http://www.inkscape.org/namespaces/inkscape"
   width="64"
   height="64"
   viewBox="0 0 64 64.000003"
   version="1.1"
   id="svg1461"
   inkscape:version="1.0.2 (e86c870879, 2021-01-15)"
   sodipodi:docname="edit-undo-history-symbolic.svg">
  <defs
     id="defs1455" />
  <sodipodi:namedview
     id="base"
     pagecolor="#c4c4c4"
     bordercolor="#666666"
     borderopacity="1.0"
     inkscape:pageopacity="0"
     inkscape:pageshadow="2"
     inkscape:zoom="1.48404"
     inkscape:cx="-62.257423"
     inkscape:cy="100.36672"
     inkscape:document-units="px"
     inkscape:current-layer="layer1"
     inkscape:document-rotation="0"
     showgrid="false"
     units="px"
     inkscape:window-width="1500"
     inkscape:window-height="970"
     inkscape:window-x="68"
     inkscape:window-y="56"
     inkscape:window-maximized="0" />
  <metadata
     id="metadata1458">
    <rdf:RDF>
      <cc:Work
         rdf:about="">
        <dc:format>image/svg+xml</dc:format>
        <dc:type
           rdf:resource="http://purl.org/dc/dcmitype/StillImage" />
        <dc:title />
      </cc:Work>
    </rdf:RDF>
  </metadata>
  <g
     inkscape:label="Layer 1"
     inkscape:groupmode="layer"
     id="layer1">
    <path
       id="rect860-6-3-3-3-7-0-3-5-7-36-5"
       style="fill:#808084;fill-opacity:1;stroke:none;stroke-width:1.70311;stroke-linecap:round;stroke-linejoin:round"
       d="m 16.600428,2.2265 v 0.01 C 16.345727,2.2585 16.098826,2.3798 15.920726,2.592 L 2.1081802,19.051 c -0.092,0.1074 -0.1617006,0.2293 -0.2012007,0.3593 -0.016,0.054 -0.026,0.1083 -0.033,0.1641 v 0.027 0.1016 0.1 0.027 c 0.01,0.056 0.016,0.112 0.033,0.166 0.039,0.13 0.1086004,0.252 0.2012007,0.3594 l 13.8125458,16.459 c 0.356201,0.4243 0.983703,0.4791 1.408204,0.123 l 5.171917,-4.3398 c 0.424502,-0.3562 0.479102,-0.9838 0.123001,-1.4082 l -5.96682,-7.1114 h 16.347754 2.271508 2.101607 c 4.187313,0 7.846225,2.0536 10.050733,5.2149 4.052613,0.07 7.777625,1.523 10.716835,3.916 C 56.62896,23.1234 47.867031,15.3202 37.377897,15.3202 H 35.27629 33.004782 16.657028 l 5.96682,-7.1113 C 22.979949,7.7846 22.925349,7.1568 22.500847,6.8007 L 17.32893,2.4608 C 17.11663,2.2828 16.855029,2.2081 16.600428,2.2304 Z m 10.466835,46.3477 c -0.554002,0 -1.000004,0.446 -1.000004,1 v 6.75 c 0,0.554 0.446002,1 1.000004,1 h 6.13872 c -1.892506,-2.4885 -3.151511,-5.4823 -3.488312,-8.75 z" />
    <path
       id="path1479-1-2-0-9-6-8-2-67-7-2-3"
       style="fill:#808084;fill-opacity:1;stroke-width:0;stroke-dashoffset:2.1875"
       d="m 46.886749,32.000107 a 15.000049,15 0 0 0 -14.886749,15 15.000049,15 0 0 0 15.00005,15 15.000049,15 0 0 0 15.000049,-15 15.000049,15 0 0 0 -15.000049,-15 15.000049,15 0 0 0 -0.113301,0 z m 0.113301,4 c 0.969503,0 1.750006,0.7805 1.750006,1.75 v 9.75 h 5.750018 c 0.969504,0 1.750006,0.7805 1.750006,1.75 0,0.9695 -0.780502,1.75 -1.750006,1.75 H 47.00005 c -0.969503,0 -1.750006,-0.7805 -1.750006,-1.75 v -11.5 c 0,-0.9695 0.780503,-1.75 1.750006,-1.75 z" />
  </g>
</svg>
