<?xml version="1.0" encoding="UTF-8" standalone="no"?>
<svg
   xmlns:dc="http://purl.org/dc/elements/1.1/"
   xmlns:cc="http://creativecommons.org/ns#"
   xmlns:rdf="http://www.w3.org/1999/02/22-rdf-syntax-ns#"
   xmlns:svg="http://www.w3.org/2000/svg"
   xmlns="http://www.w3.org/2000/svg"
   xmlns:sodipodi="http://sodipodi.sourceforge.net/DTD/sodipodi-0.dtd"
   xmlns:inkscape="http://www.inkscape.org/namespaces/inkscape"
   width="64"
   height="64"
   viewBox="0 0 64 64.000003"
   version="1.1"
   id="svg8"
   inkscape:version="1.0.2 (e86c870879, 2021-01-15)"
   sodipodi:docname="format-text-clear-formatting-symbolic.svg">
  <defs
     id="defs2" />
  <sodipodi:namedview
     id="base"
     pagecolor="#c3c3c3"
     bordercolor="#666666"
     borderopacity="1.0"
     inkscape:pageopacity="0"
     inkscape:pageshadow="2"
     inkscape:zoom="2.7201533"
     inkscape:cx="56.014239"
     inkscape:cy="79.055322"
     inkscape:document-units="px"
     inkscape:current-layer="layer1"
     inkscape:document-rotation="0"
     showgrid="false"
     units="px"
     inkscape:window-width="2048"
     inkscape:window-height="1080"
     inkscape:window-x="0"
     inkscape:window-y="0"
     inkscape:window-maximized="1" />
  <metadata
     id="metadata5">
    <rdf:RDF>
      <cc:Work
         rdf:about="">
        <dc:format>image/svg+xml</dc:format>
        <dc:type
           rdf:resource="http://purl.org/dc/dcmitype/StillImage" />
        <dc:title />
      </cc:Work>
    </rdf:RDF>
  </metadata>
  <g
     inkscape:label="Layer 1"
     inkscape:groupmode="layer"
     id="layer1">
    <path
       id="rect1014-3"
       style="fill:#808084;stroke:none;stroke-width:44.4304;stroke-linecap:round;stroke-linejoin:round;stroke-miterlimit:4;stroke-dasharray:none;stroke-opacity:1;fill-opacity:1"
       d="M 10.174,4 V 14.34961 25.5625 35.91211 52 H 20.5236 V 35.91211 h 11.2852 a 17,17 0 0 1 7.6445,-6.52734 V 25.5625 H 20.5236 V 14.34961 H 41.8263 V 4 H 20.5236 Z" />
    <path
       id="path1337"
       style="fill:#cb2a58;fill-opacity:1;stroke-width:0;stroke-linecap:round;stroke-linejoin:round;stroke-dashoffset:2.1875"
       d="m 48.06072,32.000107 a 15,15 0 0 0 -14.88672,15 15,15 0 0 0 15,15 15,15 0 0 0 15,-15 15,15 0 0 0 -15,-15 15,15 0 0 0 -0.11328,0 z m -6.49024,4.91992 c 0.25562,0 0.51117,0.0971 0.70704,0.29297 l 5.89648,5.89649 5.89648,-5.89649 c 0.39174,-0.39177 1.02233,-0.39177 1.41407,0 l 2.47461,2.47656 c 0.39173,0.39176 0.39173,1.0223 0,1.41407 l -5.89649,5.89648 5.89844,5.89648 c 0.39174,0.39177 0.39174,1.02231 0,1.41407 l -2.47656,2.47656 c -0.39174,0.39175 -1.02233,0.39175 -1.41407,0 l -5.89648,-5.89844 -5.89648,5.89844 c -0.39174,0.39175 -1.02233,0.39175 -1.41407,0 l -2.47656,-2.47656 c -0.39175,-0.39176 -0.39175,-1.0223 0,-1.41407 l 5.89844,-5.89648 -5.89649,-5.89648 c -0.39173,-0.39177 -0.39173,-1.02231 0,-1.41407 l 2.47461,-2.47656 c 0.19587,-0.19588 0.45142,-0.29297 0.70703,-0.29297 z"
       class="error" />
  </g>
</svg>
