<?xml version="1.0" encoding="UTF-8" standalone="no"?>
<svg
   xmlns:dc="http://purl.org/dc/elements/1.1/"
   xmlns:cc="http://creativecommons.org/ns#"
   xmlns:rdf="http://www.w3.org/1999/02/22-rdf-syntax-ns#"
   xmlns:svg="http://www.w3.org/2000/svg"
   xmlns="http://www.w3.org/2000/svg"
   xmlns:sodipodi="http://sodipodi.sourceforge.net/DTD/sodipodi-0.dtd"
   xmlns:inkscape="http://www.inkscape.org/namespaces/inkscape"
   width="64"
   height="64"
   viewBox="0 0 64 64.000003"
   version="1.1"
   id="svg8"
   inkscape:version="1.0.2 (e86c870879, 2021-01-15)"
   sodipodi:docname="format-indent-less-symbolic-rtl.svg">
  <defs
     id="defs2" />
  <sodipodi:namedview
     id="base"
     pagecolor="#c3c3c3"
     bordercolor="#666666"
     borderopacity="1.0"
     inkscape:pageopacity="0"
     inkscape:pageshadow="2"
     inkscape:zoom="8.035538"
     inkscape:cx="28.944586"
     inkscape:cy="37.355707"
     inkscape:document-units="px"
     inkscape:current-layer="layer1"
     inkscape:document-rotation="0"
     showgrid="false"
     units="px"
     inkscape:window-width="2048"
     inkscape:window-height="1080"
     inkscape:window-x="0"
     inkscape:window-y="0"
     inkscape:window-maximized="1" />
  <metadata
     id="metadata5">
    <rdf:RDF>
      <cc:Work
         rdf:about="">
        <dc:format>image/svg+xml</dc:format>
        <dc:type
           rdf:resource="http://purl.org/dc/dcmitype/StillImage" />
        <dc:title />
      </cc:Work>
    </rdf:RDF>
  </metadata>
  <g
     inkscape:label="Layer 1"
     inkscape:groupmode="layer"
     id="layer1">
    <path
       id="rect1790-5-2-3-3"
       style="fill:#808084;fill-opacity:1;stroke-width:7.00005;stroke-dashoffset:2.1875"
       d="m 41.96278,9.5088525 c -0.3917,0.39171 -0.3917,1.0224105 0,1.4142205 L 52.0391,20.999513 41.96278,31.075862 c -0.3917,0.391801 -0.3917,1.02251 0,1.414321 l 4.77301,4.77297 c 0.39169,0.3918 1.0225,0.3918 1.4142,0 l 10.7834,-10.78355 4.77299,-4.77297 c 0.3917,-0.39179 0.3917,-1.0225 0,-1.41433 L 58.93339,15.519332 48.14999,4.7357825 c -0.3917,-0.39171 -1.02251,-0.39171 -1.4142,0 z" />
    <rect
       style="fill:#808084;fill-opacity:1;stroke-width:0;stroke-dashoffset:2.1875"
       id="rect839-6-9-0-6-5"
       width="22"
       height="6"
       x="4"
       y="6.9995131"
       ry="1"
       rx="1" />
    <rect
       style="fill:#808084;fill-opacity:1;stroke-width:0;stroke-dashoffset:2.1875"
       id="rect841-7-3-6-7-6"
       width="50"
       height="6"
       x="4.0000534"
       y="50.999516"
       ry="1"
       rx="1" />
    <rect
       style="fill:#808084;fill-opacity:1;stroke-width:0;stroke-dashoffset:2.1875"
       id="rect843-5-6-2-5-2"
       width="22"
       height="6"
       x="4"
       y="28.999514"
       ry="1"
       rx="1" />
  </g>
</svg>
