<?xml version="1.0" encoding="UTF-8" standalone="no"?>
<svg
   xmlns:dc="http://purl.org/dc/elements/1.1/"
   xmlns:cc="http://creativecommons.org/ns#"
   xmlns:rdf="http://www.w3.org/1999/02/22-rdf-syntax-ns#"
   xmlns:svg="http://www.w3.org/2000/svg"
   xmlns="http://www.w3.org/2000/svg"
   xmlns:sodipodi="http://sodipodi.sourceforge.net/DTD/sodipodi-0.dtd"
   xmlns:inkscape="http://www.inkscape.org/namespaces/inkscape"
   width="64"
   height="64"
   viewBox="0 0 16.933333 16.933334"
   version="1.1"
   id="svg841"
   inkscape:version="1.0.2 (e86c870879, 2021-01-15)"
   sodipodi:docname="help-faq-symbolic.svg">
  <defs
     id="defs835" />
  <sodipodi:namedview
     id="base"
     pagecolor="#c4c4c4"
     bordercolor="#666666"
     borderopacity="1.0"
     inkscape:pageopacity="0"
     inkscape:pageshadow="2"
     inkscape:zoom="3.5451024"
     inkscape:cx="68.811251"
     inkscape:cy="38.515083"
     inkscape:document-units="px"
     inkscape:current-layer="layer1"
     inkscape:document-rotation="0"
     showgrid="false"
     units="px"
     inkscape:window-width="2048"
     inkscape:window-height="1080"
     inkscape:window-x="0"
     inkscape:window-y="0"
     inkscape:window-maximized="1" />
  <metadata
     id="metadata838">
    <rdf:RDF>
      <cc:Work
         rdf:about="">
        <dc:format>image/svg+xml</dc:format>
        <dc:type
           rdf:resource="http://purl.org/dc/dcmitype/StillImage" />
        <dc:title></dc:title>
      </cc:Work>
    </rdf:RDF>
  </metadata>
  <g
     inkscape:label="Layer 1"
     inkscape:groupmode="layer"
     id="layer1">
    <path
       id="path1035-5-5-2"
       style="color:#000000;font-style:normal;font-variant:normal;font-weight:normal;font-stretch:normal;font-size:medium;line-height:normal;font-family:sans-serif;font-variant-ligatures:normal;font-variant-position:normal;font-variant-caps:normal;font-variant-numeric:normal;font-variant-alternates:normal;font-variant-east-asian:normal;font-feature-settings:normal;font-variation-settings:normal;text-indent:0;text-align:start;text-decoration:none;text-decoration-line:none;text-decoration-style:solid;text-decoration-color:#000000;letter-spacing:normal;word-spacing:normal;text-transform:none;writing-mode:lr-tb;direction:ltr;text-orientation:mixed;dominant-baseline:auto;baseline-shift:baseline;text-anchor:start;white-space:normal;shape-padding:0;shape-margin:0;inline-size:0;clip-rule:nonzero;display:inline;overflow:visible;visibility:visible;isolation:auto;mix-blend-mode:normal;color-interpolation:sRGB;color-interpolation-filters:linearRGB;solid-color:#000000;solid-opacity:1;vector-effect:none;fill:#808084;fill-opacity:1;fill-rule:nonzero;stroke:none;stroke-width:0.926042;stroke-linecap:round;stroke-linejoin:round;stroke-miterlimit:4;stroke-dasharray:none;stroke-dashoffset:2.1875;stroke-opacity:1;paint-order:normal;color-rendering:auto;image-rendering:auto;shape-rendering:auto;text-rendering:auto;enable-background:accumulate;stop-color:#000000"
       d="m 8.4918068,2.2489683 c -1.5888599,-2e-6 -2.9534589,1.0572 -3.3057409,2.634464 a 0.46306715,0.46306715 0 0 0 -0.01963,0.0615 l -0.04289,0.178281 c -0.08313,0.339535 0.133993,0.700003 0.474906,0.783416 l 1.117762,0.273886 c 0.339481,0.08305 0.7000079,-0.134612 0.7834119,-0.475425 l 0.04444,-0.179835 a 0.46306715,0.46306715 0 0 0 0.0083,-0.04237 c 0.05201,-0.348173 0.176406,-0.546893 0.329179,-0.675412 0.152776,-0.128516 0.353997,-0.197403 0.610817,-0.197403 0.298815,0 0.517718,0.09133 0.668176,0.237712 0.150458,0.146384 0.252185,0.359677 0.25218,0.697632 8e-6,0.493432 -0.14183,0.702858 -0.688329,1.081588 -0.489958,0.332703 -0.948812,0.708089 -1.262454,1.264521 -0.2856129,0.506724 -0.4176589,1.1096828 -0.4433839,1.8422668 a 0.46306715,0.46306715 0 0 0 -5.29e-4,0.01601 v 5.29e-4 0.185 c 0,0.3520119 0.298056,0.6480219 0.6485389,0.6480219 h 1.11828 c 0.350475,0 0.648022,-0.297531 0.648022,-0.6480219 v -0.16433 c 0.02006,-0.334992 0.07388,-0.533453 0.149344,-0.675929 0.09387,-0.177162 0.248431,-0.344972 0.6061642,-0.595312 1.001487,-0.6951368 1.639178,-1.6868938 1.639178,-2.9145498 0,-1.522598 -0.958453,-2.80326 -2.3610972,-3.202389 -0.09331,-0.02656 -0.188634,-0.04941 -0.285771,-0.06821 -0.19323,-0.03744 -0.396161,-0.05238 -0.602546,-0.05736 a 0.46306715,0.46306715 0 0 0 -0.0863,-0.0083 z m -0.284736,9.2604157 a 1.5874992,1.5874813 0 0 0 -1.5657969,1.5875 1.5874992,1.5874813 0 0 0 1.5874999,1.5875 1.5874992,1.5874813 0 0 0 1.5875,-1.5875 1.5874992,1.5874813 0 0 0 -1.5875,-1.5875 1.5874992,1.5874813 0 0 0 -0.0217,0 z" />
    <path
       id="rect2657"
       style="display:inline;fill:#808084;fill-opacity:1;stroke:none;stroke-width:0;stroke-linecap:round;stroke-linejoin:round;stroke-dashoffset:2.1875"
       d="m 2.1166664,0.26458335 c -1.026054,0 -1.8520829,0.82602995 -1.8520829,1.85208395 V 14.816667 c 0,1.026054 0.8260289,1.852083 1.8520829,1.852083 H 14.816666 c 1.026054,0 1.852084,-0.826029 1.852084,-1.852083 V 2.1166673 c 0,-1.026054 -0.82603,-1.85208385 -1.852084,-1.85208385 z m 0,0.92604195 H 14.816666 c 0.513027,0 0.926042,0.413015 0.926042,0.926042 V 14.816667 c 0,0.513027 -0.413015,0.926042 -0.926042,0.926042 H 2.1166664 c -0.513027,0 -0.926042,-0.413015 -0.926042,-0.926042 V 2.1166673 c 0,-0.513027 0.413015,-0.926042 0.926042,-0.926042 z" />
  </g>
</svg>
