<?xml version="1.0" encoding="UTF-8" standalone="no"?>
<svg
   xmlns:dc="http://purl.org/dc/elements/1.1/"
   xmlns:cc="http://creativecommons.org/ns#"
   xmlns:rdf="http://www.w3.org/1999/02/22-rdf-syntax-ns#"
   xmlns:svg="http://www.w3.org/2000/svg"
   xmlns="http://www.w3.org/2000/svg"
   xmlns:sodipodi="http://sodipodi.sourceforge.net/DTD/sodipodi-0.dtd"
   xmlns:inkscape="http://www.inkscape.org/namespaces/inkscape"
   width="64"
   height="64"
   viewBox="0 0 16.933333 16.933334"
   version="1.1"
   id="svg841"
   inkscape:version="1.0.2 (e86c870879, 2021-01-15)"
   sodipodi:docname="help-contents-symbolic.svg">
  <defs
     id="defs835" />
  <sodipodi:namedview
     id="base"
     pagecolor="#c4c4c4"
     bordercolor="#666666"
     borderopacity="1.0"
     inkscape:pageopacity="0"
     inkscape:pageshadow="2"
     inkscape:zoom="3.5451024"
     inkscape:cx="68.811251"
     inkscape:cy="38.515083"
     inkscape:document-units="px"
     inkscape:current-layer="layer1"
     inkscape:document-rotation="0"
     showgrid="false"
     units="px"
     inkscape:window-width="2048"
     inkscape:window-height="1080"
     inkscape:window-x="0"
     inkscape:window-y="0"
     inkscape:window-maximized="1" />
  <metadata
     id="metadata838">
    <rdf:RDF>
      <cc:Work
         rdf:about="">
        <dc:format>image/svg+xml</dc:format>
        <dc:type
           rdf:resource="http://purl.org/dc/dcmitype/StillImage" />
        <dc:title></dc:title>
      </cc:Work>
    </rdf:RDF>
  </metadata>
  <g
     inkscape:label="Layer 1"
     inkscape:groupmode="layer"
     id="layer1">
    <path
       id="path957-9-2"
       style="fill:#808084;fill-opacity:1;stroke-width:1.17549;stroke-linecap:round;stroke-linejoin:round;stroke-dashoffset:2.1875"
       d="M 8.4666664,8.4499999e-7 A 8.4666674,8.4666674 0 0 0 1.9999999e-7,8.4666668 8.4666674,8.4666674 0 0 0 8.4666664,16.933333 8.4666674,8.4666674 0 0 0 16.933333,8.4666668 8.4666674,8.4666674 0 0 0 8.4666664,8.4499999e-7 Z m 0,1.19062395500001 a 7.2760416,7.2760416 0 0 1 7.2760416,7.276042 7.2760416,7.2760416 0 0 1 -7.2760416,7.2760412 7.2760416,7.2760416 0 0 1 -7.276041,-7.2760412 7.2760416,7.2760416 0 0 1 7.276041,-7.276042 z" />
    <path
       id="path1035-5-5-2"
       style="color:#000000;font-style:normal;font-variant:normal;font-weight:normal;font-stretch:normal;font-size:medium;line-height:normal;font-family:sans-serif;font-variant-ligatures:normal;font-variant-position:normal;font-variant-caps:normal;font-variant-numeric:normal;font-variant-alternates:normal;font-variant-east-asian:normal;font-feature-settings:normal;font-variation-settings:normal;text-indent:0;text-align:start;text-decoration:none;text-decoration-line:none;text-decoration-style:solid;text-decoration-color:#000000;letter-spacing:normal;word-spacing:normal;text-transform:none;writing-mode:lr-tb;direction:ltr;text-orientation:mixed;dominant-baseline:auto;baseline-shift:baseline;text-anchor:start;white-space:normal;shape-padding:0;shape-margin:0;inline-size:0;clip-rule:nonzero;display:inline;overflow:visible;visibility:visible;isolation:auto;mix-blend-mode:normal;color-interpolation:sRGB;color-interpolation-filters:linearRGB;solid-color:#000000;solid-opacity:1;vector-effect:none;fill:#808084;fill-opacity:1;fill-rule:nonzero;stroke:none;stroke-width:0.926042;stroke-linecap:round;stroke-linejoin:round;stroke-miterlimit:4;stroke-dasharray:none;stroke-dashoffset:2.1875;stroke-opacity:1;paint-order:normal;color-rendering:auto;image-rendering:auto;shape-rendering:auto;text-rendering:auto;enable-background:accumulate;stop-color:#000000"
       d="m 8.4918067,2.2489685 c -1.5888601,-2e-6 -2.9534591,1.0572 -3.305741,2.634464 a 0.46306715,0.46306715 0 0 0 -0.01963,0.0615 l -0.04289,0.178281 c -0.08313,0.339535 0.133993,0.700003 0.474906,0.783416 l 1.117762,0.273886 c 0.339481,0.08305 0.700008,-0.134612 0.783412,-0.475425 l 0.04444,-0.179835 a 0.46306715,0.46306715 0 0 0 0.0083,-0.04237 c 0.05201,-0.348173 0.176406,-0.546893 0.329179,-0.675412 0.152776,-0.128516 0.353997,-0.197403 0.610817,-0.197403 0.298815,0 0.517718,0.09133 0.668176,0.237712 0.1504584,0.146384 0.2521854,0.359677 0.2521804,0.697632 8e-6,0.493432 -0.1418304,0.702858 -0.6883294,1.081588 -0.489958,0.332703 -0.948812,0.708089 -1.262454,1.264521 -0.285613,0.506724 -0.417659,1.109683 -0.443384,1.8422674 a 0.46306715,0.46306715 0 0 0 -5.29e-4,0.01601 v 5.29e-4 0.185 c 0,0.3520111 0.298056,0.6480211 0.648539,0.6480211 h 1.11828 c 0.350475,0 0.6480224,-0.297531 0.6480224,-0.6480211 v -0.16433 c 0.02006,-0.3349924 0.07388,-0.5334534 0.149344,-0.6759294 0.09387,-0.177162 0.248431,-0.344972 0.6061639,-0.595312 1.001487,-0.695137 1.639178,-1.686894 1.639178,-2.91455 0,-1.522598 -0.958453,-2.80326 -2.3610969,-3.202389 -0.09331,-0.02656 -0.1886345,-0.04941 -0.2857715,-0.06821 -0.19323,-0.03744 -0.3961609,-0.05238 -0.602546,-0.05736 a 0.46306715,0.46306715 0 0 0 -0.0863,-0.0083 z m -0.284736,9.2604155 a 1.5874992,1.5874813 0 0 0 -1.5657971,1.5875 1.5874992,1.5874813 0 0 0 1.5875001,1.5875 1.5874992,1.5874813 0 0 0 1.5875004,-1.5875 1.5874992,1.5874813 0 0 0 -1.5875004,-1.5875 1.5874992,1.5874813 0 0 0 -0.0217,0 z" />
  </g>
</svg>
