<?xml version="1.0" encoding="UTF-8" standalone="no"?>
<svg
   xmlns:dc="http://purl.org/dc/elements/1.1/"
   xmlns:cc="http://creativecommons.org/ns#"
   xmlns:rdf="http://www.w3.org/1999/02/22-rdf-syntax-ns#"
   xmlns:svg="http://www.w3.org/2000/svg"
   xmlns="http://www.w3.org/2000/svg"
   xmlns:sodipodi="http://sodipodi.sourceforge.net/DTD/sodipodi-0.dtd"
   xmlns:inkscape="http://www.inkscape.org/namespaces/inkscape"
   width="64"
   height="64"
   viewBox="0 0 64 64.000003"
   version="1.1"
   id="svg8"
   inkscape:version="1.0.2 (e86c870879, 2021-01-15)"
   sodipodi:docname="image-rotate-symbolic.svg">
  <defs
     id="defs2" />
  <sodipodi:namedview
     id="base"
     pagecolor="#c3c3c3"
     bordercolor="#666666"
     borderopacity="1.0"
     inkscape:pageopacity="0"
     inkscape:pageshadow="2"
     inkscape:zoom="4.6759116"
     inkscape:cx="37.812898"
     inkscape:cy="43.139236"
     inkscape:document-units="px"
     inkscape:current-layer="layer1"
     inkscape:document-rotation="0"
     showgrid="false"
     units="px"
     inkscape:window-width="2048"
     inkscape:window-height="1080"
     inkscape:window-x="0"
     inkscape:window-y="0"
     inkscape:window-maximized="1" />
  <metadata
     id="metadata5">
    <rdf:RDF>
      <cc:Work
         rdf:about="">
        <dc:format>image/svg+xml</dc:format>
        <dc:type
           rdf:resource="http://purl.org/dc/dcmitype/StillImage" />
        <dc:title></dc:title>
      </cc:Work>
    </rdf:RDF>
  </metadata>
  <g
     inkscape:label="Layer 1"
     inkscape:groupmode="layer"
     id="layer1">
    <path
       id="rect1114-2"
       style="fill:#808084;fill-opacity:1;stroke:none;stroke-width:8.75009;stroke-linecap:butt;stroke-linejoin:round;stroke-miterlimit:4;stroke-dasharray:none;stroke-opacity:1"
       d="m 12.204012,0.02999996 c 0.554101,-10e-5 1.000202,0.44600111 1.000002,1.00000244 V 8.512521 c 2.217505,-1.5972039 4.61741,-2.8854072 7.136715,-3.8301095 2.892406,-1.0837027 5.936013,-1.7279043 9.021519,-1.9063047 0.617102,-0.036 1.235903,-0.053 1.855504,-0.051 4.337109,0.012 8.712219,0.9443024 12.828127,2.8634072 12.543427,5.849014 19.622042,19.445148 17.218737,33.074782 C 58.861311,52.29283 47.559887,62.646856 33.772358,63.853159 20.151229,65.044862 7.3716019,57.022242 2.5008909,44.28841 l -0.17,-0.470701 c -0.1892,-0.520501 0.077,-1.092003 0.597701,-1.281403 L 9.2723059,40.2277 c 0.520601,-0.1894 1.0919021,0.077 1.2813021,0.597702 l 0.01,0.022 c 3.400207,9.310423 12.578826,15.151437 22.455047,14.287335 9.884321,-0.864702 17.911938,-8.22142 19.634842,-17.992445 C 54.3764,27.371068 49.34899,17.711844 40.356571,13.518734 32.487254,9.8493244 23.363335,11.195528 16.932721,16.682841 l 11.039123,1.945405 c 0.545802,0.096 0.906502,0.612602 0.810502,1.158203 l -1.171902,6.648617 c -0.096,0.545701 -0.612602,0.906502 -1.158203,0.810502 L 5.2900959,23.517058 c -0.14,-0.023 -0.269,-0.074 -0.3828,-0.1485 -0.047,-0.031 -0.092,-0.065 -0.132801,-0.1036 -0.01,0 -0.011,-0.01 -0.021,-0.017 -0.024,-0.024 -0.043,-0.05 -0.064,-0.076 -0.021,-0.025 -0.044,-0.049 -0.062,-0.076 0,-0.01 0,-0.015 -0.014,-0.025 -0.03,-0.047 -0.058,-0.095 -0.08,-0.1465 0,0 0,0 0,0 -0.054,-0.1249 -0.078,-0.260601 -0.078,-0.402401 V 1.0335024 c 0,-0.27700063 0.1102,-0.52640126 0.291,-0.70710171 v 0 c 0.180901,-0.18110045 0.431901,-0.29110072 0.709002,-0.29100072 z" />
  </g>
</svg>
