<?xml version="1.0" encoding="UTF-8" standalone="no"?>
<svg
   xmlns:dc="http://purl.org/dc/elements/1.1/"
   xmlns:cc="http://creativecommons.org/ns#"
   xmlns:rdf="http://www.w3.org/1999/02/22-rdf-syntax-ns#"
   xmlns:svg="http://www.w3.org/2000/svg"
   xmlns="http://www.w3.org/2000/svg"
   xmlns:sodipodi="http://sodipodi.sourceforge.net/DTD/sodipodi-0.dtd"
   xmlns:inkscape="http://www.inkscape.org/namespaces/inkscape"
   width="64"
   height="64"
   viewBox="0 0 16.933333 16.933334"
   version="1.1"
   id="svg841"
   inkscape:version="1.0.2 (e86c870879, 2021-01-15)"
   sodipodi:docname="layer-previous-symbolic.svg">
  <defs
     id="defs835" />
  <sodipodi:namedview
     id="base"
     pagecolor="#c4c4c4"
     bordercolor="#666666"
     borderopacity="1.0"
     inkscape:pageopacity="0"
     inkscape:pageshadow="2"
     inkscape:zoom="2.7718911"
     inkscape:cx="156.39811"
     inkscape:cy="62.259839"
     inkscape:document-units="px"
     inkscape:current-layer="layer1"
     inkscape:document-rotation="0"
     showgrid="false"
     units="px"
     inkscape:window-width="2048"
     inkscape:window-height="1080"
     inkscape:window-x="0"
     inkscape:window-y="0"
     inkscape:window-maximized="1" />
  <metadata
     id="metadata838">
    <rdf:RDF>
      <cc:Work
         rdf:about="">
        <dc:format>image/svg+xml</dc:format>
        <dc:type
           rdf:resource="http://purl.org/dc/dcmitype/StillImage" />
        <dc:title />
      </cc:Work>
    </rdf:RDF>
  </metadata>
  <g
     inkscape:label="Layer 1"
     inkscape:groupmode="layer"
     id="layer1">
    <path
       id="rect851-7-3-7-3-9"
       style="fill:#808084;fill-opacity:1;stroke:none;stroke-width:0;stroke-linecap:square;stroke-miterlimit:4;stroke-dasharray:none;opacity:0.5"
       d="m 4.3325834,12.501563 c -0.14658,0 -0.348006,0.08342 -0.451654,0.187068 l -1.940972,1.940967 c -0.103647,0.103647 -0.06906,0.187069 0.07751,0.187069 H 12.600827 c 0.146581,0 0.348006,-0.08342 0.451654,-0.187069 l 1.940972,-1.940967 c 0.103646,-0.103646 0.06907,-0.187068 -0.07751,-0.187068 z" />
    <path
       id="rect851-7-3-7-3-6-7"
       style="opacity:0.5;fill:#808084;fill-opacity:1;stroke:none;stroke-width:0;stroke-linecap:square;stroke-miterlimit:4;stroke-dasharray:none"
       d="m 4.3325034,7.3091147 c -0.14658,0 -0.348006,0.08342 -0.451653,0.187068 l -1.940973,1.940967 c -0.103647,0.103647 -0.06906,0.187069 0.07751,0.187069 H 12.600749 c 0.146581,0 0.348006,-0.08342 0.451654,-0.187069 l 1.940972,-1.940967 c 0.103646,-0.103646 0.06907,-0.187068 -0.07751,-0.187068 z" />
    <path
       id="rect851-7-3-7-3-7-3"
       style="opacity:1;fill:#808084;fill-opacity:1;stroke:none;stroke-width:0;stroke-linecap:square;stroke-miterlimit:4;stroke-dasharray:none"
       d="m 4.3325044,2.1166667 c -0.14658,0 -0.348006,0.08342 -0.451653,0.187068 l -1.940972,1.940967 c -0.103648,0.103647 -0.06906,0.187069 0.07751,0.187069 H 12.60075 c 0.146581,0 0.348006,-0.08342 0.451654,-0.187069 l 1.940972,-1.940967 c 0.103646,-0.103646 0.06907,-0.187068 -0.07751,-0.187068 z" />
  </g>
</svg>
