<?xml version="1.0" encoding="UTF-8" standalone="no"?>
<svg
   xmlns:dc="http://purl.org/dc/elements/1.1/"
   xmlns:cc="http://creativecommons.org/ns#"
   xmlns:rdf="http://www.w3.org/1999/02/22-rdf-syntax-ns#"
   xmlns:svg="http://www.w3.org/2000/svg"
   xmlns="http://www.w3.org/2000/svg"
   xmlns:sodipodi="http://sodipodi.sourceforge.net/DTD/sodipodi-0.dtd"
   xmlns:inkscape="http://www.inkscape.org/namespaces/inkscape"
   width="64"
   height="64"
   viewBox="0 0 16.933333 16.933334"
   version="1.1"
   id="svg841"
   inkscape:version="1.0.2 (e86c870879, 2021-01-15)"
   sodipodi:docname="layer-duplicate-symbolic.svg">
  <defs
     id="defs835" />
  <sodipodi:namedview
     id="base"
     pagecolor="#c4c4c4"
     bordercolor="#666666"
     borderopacity="1.0"
     inkscape:pageopacity="0"
     inkscape:pageshadow="2"
     inkscape:zoom="5.6573703"
     inkscape:cx="21.33798"
     inkscape:cy="54.981047"
     inkscape:document-units="px"
     inkscape:current-layer="layer1"
     inkscape:document-rotation="0"
     showgrid="false"
     units="px"
     inkscape:window-width="2048"
     inkscape:window-height="1080"
     inkscape:window-x="0"
     inkscape:window-y="0"
     inkscape:window-maximized="1" />
  <metadata
     id="metadata838">
    <rdf:RDF>
      <cc:Work
         rdf:about="">
        <dc:format>image/svg+xml</dc:format>
        <dc:type
           rdf:resource="http://purl.org/dc/dcmitype/StillImage" />
        <dc:title />
      </cc:Work>
    </rdf:RDF>
  </metadata>
  <g
     inkscape:label="Layer 1"
     inkscape:groupmode="layer"
     id="layer1">
    <path
       id="rect851-7-3-7-3-92"
       style="opacity:0.5;fill:#808084;fill-opacity:1;stroke:none;stroke-width:0;stroke-linecap:square;stroke-miterlimit:4;stroke-dasharray:none"
       d="m 4.3325104,7.3091147 c -0.14658,0 -0.348006,0.08342 -0.451654,0.187068 l -1.940973,1.940967 c -0.103647,0.103647 -0.06906,0.187069 0.07751,0.187069 H 12.600757 c 0.146581,0 0.348006,-0.08342 0.451654,-0.187069 l 1.940972,-1.940967 c 0.103646,-0.103646 0.06907,-0.187068 -0.07751,-0.187068 z" />
    <path
       id="rect851-7-3-7-3-92-9-3"
       style="opacity:0.1;fill:#808084;fill-opacity:1;stroke:none;stroke-width:0;stroke-linecap:square;stroke-miterlimit:4;stroke-dasharray:none"
       d="m 4.3325764,12.501563 c -0.14658,0 -0.348006,0.08342 -0.451654,0.187068 l -1.940973,1.940966 c -0.103647,0.103648 -0.06906,0.187069 0.07751,0.187069 H 12.600824 c 0.14658,0 0.34801,-0.08342 0.45166,-0.187069 l 1.94097,-1.940966 c 0.10365,-0.103646 0.0691,-0.187068 -0.0775,-0.187068 z" />
    <path
       id="rect851-7-3-7-3-92-9-3-3-6"
       style="color:#000000;font-style:normal;font-variant:normal;font-weight:normal;font-stretch:normal;font-size:medium;line-height:normal;font-family:sans-serif;font-variant-ligatures:normal;font-variant-position:normal;font-variant-caps:normal;font-variant-numeric:normal;font-variant-alternates:normal;font-variant-east-asian:normal;font-feature-settings:normal;font-variation-settings:normal;text-indent:0;text-align:start;text-decoration:none;text-decoration-line:none;text-decoration-style:solid;text-decoration-color:#000000;letter-spacing:normal;word-spacing:normal;text-transform:none;writing-mode:lr-tb;direction:ltr;text-orientation:mixed;dominant-baseline:auto;baseline-shift:baseline;text-anchor:start;white-space:normal;shape-padding:0;shape-margin:0;inline-size:0;clip-rule:nonzero;display:inline;overflow:visible;visibility:visible;opacity:0.75;isolation:auto;mix-blend-mode:normal;color-interpolation:sRGB;color-interpolation-filters:linearRGB;solid-color:#000000;solid-opacity:1;vector-effect:none;fill:#808084;fill-opacity:1;fill-rule:nonzero;stroke:none;stroke-width:1;stroke-linecap:round;stroke-linejoin:round;stroke-miterlimit:4;stroke-dasharray:none;stroke-dashoffset:0;stroke-opacity:1;color-rendering:auto;image-rendering:auto;shape-rendering:auto;text-rendering:auto;enable-background:accumulate;stop-color:#000000"
       d="m 4.3319425,12.170836 c -0.27206,0 -0.493346,0.09079 -0.685746,0.283186 l -1.9409671,1.941484 c -0.0481,0.0481 -0.09281,0.102046 -0.125057,0.181901 -0.03224,0.07985 -0.04811,0.199465 -0.0021,0.310575 0.04605,0.11111 0.14141,0.184945 0.220658,0.218592 0.07925,0.03365 0.149026,0.04082 0.2170411,0.04082 H 12.599622 c 0.27206,-1e-6 0.492825,-0.09285 0.685229,-0.285254 l 1.941484,-1.940967 c 0.04809,-0.04809 0.09281,-0.102061 0.125057,-0.181901 0.03225,-0.07984 0.0481,-0.199444 0.0021,-0.310575 -0.04604,-0.111132 -0.141403,-0.182875 -0.220659,-0.216524 -0.07926,-0.03365 -0.150574,-0.04134 -0.218591,-0.04134 z m 0,0.660424 H 14.380942 l -1.564762,1.564246 c -0.0149,0.0149 -0.195425,0.08992 -0.216524,0.08992 H 2.5485885 l 1.564763,-1.564246 c 0.0149,-0.0149 0.197492,-0.08992 0.218591,-0.08992 z" />
    <path
       id="rect851-7-3-7-3-92-9-3-3-6-7"
       style="color:#000000;font-style:normal;font-variant:normal;font-weight:normal;font-stretch:normal;font-size:medium;line-height:normal;font-family:sans-serif;font-variant-ligatures:normal;font-variant-position:normal;font-variant-caps:normal;font-variant-numeric:normal;font-variant-alternates:normal;font-variant-east-asian:normal;font-feature-settings:normal;font-variation-settings:normal;text-indent:0;text-align:start;text-decoration:none;text-decoration-line:none;text-decoration-style:solid;text-decoration-color:#000000;letter-spacing:normal;word-spacing:normal;text-transform:none;writing-mode:lr-tb;direction:ltr;text-orientation:mixed;dominant-baseline:auto;baseline-shift:baseline;text-anchor:start;white-space:normal;shape-padding:0;shape-margin:0;inline-size:0;clip-rule:nonzero;display:inline;overflow:visible;visibility:visible;opacity:1;isolation:auto;mix-blend-mode:normal;color-interpolation:sRGB;color-interpolation-filters:linearRGB;solid-color:#000000;solid-opacity:1;vector-effect:none;fill:#808084;fill-opacity:1;fill-rule:nonzero;stroke:none;stroke-width:1;stroke-linecap:round;stroke-linejoin:round;stroke-miterlimit:4;stroke-dasharray:none;stroke-dashoffset:0;stroke-opacity:1;color-rendering:auto;image-rendering:auto;shape-rendering:auto;text-rendering:auto;enable-background:accumulate;stop-color:#000000"
       d="m 4.3319434,6.9783885 c -0.27206,0 -0.493347,0.09079 -0.685746,0.283186 l -1.940968,1.9414839 c -0.0481,0.0481 -0.09281,0.102046 -0.125057,0.181901 -0.03224,0.07985 -0.04811,0.199465 -0.0021,0.310575 0.04605,0.11111 0.14141,0.184945 0.220658,0.218592 0.07925,0.03365 0.149026,0.04082 0.217042,0.04082 H 12.599622 c 0.27206,-1e-6 0.492825,-0.09285 0.685229,-0.285254 l 1.941484,-1.9409669 c 0.04809,-0.04809 0.09281,-0.102061 0.125057,-0.181901 0.03225,-0.07984 0.0481,-0.199444 0.0021,-0.310575 -0.04604,-0.111132 -0.141403,-0.182875 -0.220659,-0.216524 -0.07926,-0.03365 -0.150574,-0.04134 -0.218591,-0.04134 z m 0,0.660424 H 14.380942 L 12.81618,9.2030584 c -0.0149,0.0149 -0.195425,0.08992 -0.216524,0.08992 H 2.5485884 l 1.564764,-1.5642459 c 0.0149,-0.0149 0.197492,-0.08992 0.218591,-0.08992 z" />
  </g>
</svg>
