<?xml version="1.0" encoding="UTF-8" standalone="no"?>
<svg
   xmlns:dc="http://purl.org/dc/elements/1.1/"
   xmlns:cc="http://creativecommons.org/ns#"
   xmlns:rdf="http://www.w3.org/1999/02/22-rdf-syntax-ns#"
   xmlns:svg="http://www.w3.org/2000/svg"
   xmlns="http://www.w3.org/2000/svg"
   xmlns:sodipodi="http://sodipodi.sourceforge.net/DTD/sodipodi-0.dtd"
   xmlns:inkscape="http://www.inkscape.org/namespaces/inkscape"
   width="64"
   height="64"
   viewBox="0 0 16.933333 16.933334"
   version="1.1"
   id="svg841"
   inkscape:version="1.0.2 (e86c870879, 2021-01-15)"
   sodipodi:docname="mail-send-symbolic.svg">
  <defs
     id="defs835" />
  <sodipodi:namedview
     id="base"
     pagecolor="#c4c4c4"
     bordercolor="#666666"
     borderopacity="1.0"
     inkscape:pageopacity="0"
     inkscape:pageshadow="2"
     inkscape:zoom="1.8337311"
     inkscape:cx="-136.49083"
     inkscape:cy="64.007091"
     inkscape:document-units="px"
     inkscape:current-layer="layer1"
     inkscape:document-rotation="0"
     showgrid="false"
     units="px"
     inkscape:window-width="2048"
     inkscape:window-height="1080"
     inkscape:window-x="0"
     inkscape:window-y="0"
     inkscape:window-maximized="1" />
  <metadata
     id="metadata838">
    <rdf:RDF>
      <cc:Work
         rdf:about="">
        <dc:format>image/svg+xml</dc:format>
        <dc:type
           rdf:resource="http://purl.org/dc/dcmitype/StillImage" />
        <dc:title />
      </cc:Work>
    </rdf:RDF>
  </metadata>
  <g
     inkscape:label="Layer 1"
     inkscape:groupmode="layer"
     id="layer1">
    <path
       id="rect1323-3-3"
       style="display:inline;fill:#808084;fill-opacity:1;stroke:none;stroke-width:0.529167;stroke-linecap:round;stroke-linejoin:round;stroke-miterlimit:4;stroke-dasharray:none;stroke-dashoffset:2.1875;stroke-opacity:1"
       d="m 13.872392,8.4664901 c 7e-6,0.021724 2.29e-4,0.043287 -0.0027,0.065117 1.2e-5,0.018219 -0.0026,0.036193 -0.0045,0.054275 -0.0027,0.021183 -0.0037,0.042351 -0.0067,0.063532 -0.0029,0.020911 -0.0072,0.041827 -0.01139,0.062527 -0.0038,0.019918 -0.0077,0.039135 -0.01248,0.058883 -0.0048,0.019644 -0.01091,0.038645 -0.0164,0.057887 -0.0061,0.020627 -0.01203,0.041121 -0.01949,0.061541 -0.0071,0.019993 -0.01531,0.040204 -0.0233,0.059919 -0.0075,0.017768 -0.01453,0.035224 -0.02272,0.052736 -0.0094,0.020716 -0.02045,0.040796 -0.03093,0.061002 -0.0069,0.012861 -0.01282,0.02603 -0.02021,0.038683 -0.0027,0.00523 -0.0065,0.00991 -0.0096,0.015042 -0.0094,0.015916 -0.01955,0.031511 -0.02998,0.047009 -0.01353,0.020849 -0.02703,0.041632 -0.04192,0.061436 -0.0056,0.00728 -0.01174,0.014127 -0.01762,0.02094 -0.0211,0.02748 -0.04306,0.054334 -0.06609,0.079572 -0.105108,0.1148318 -0.228396,0.2071324 -0.362772,0.274949 L 4.4369804,14.645657 c -0.1095843,0.06333 -0.228762,0.110987 -0.3560923,0.139503 0,0 -0.00385,-7.22e-4 -0.00335,-9.98e-4 -0.029121,0.0065 -0.058924,0.01198 -0.088882,0.01615 -0.014136,0.0025 -0.027939,0.0045 -0.041812,0.0062 -0.020095,0.0027 -0.041055,0.0035 -0.06146,0.0047 -0.023007,0.0025 -0.045717,0.0035 -0.068744,0.0037 l -0.016108,9.6e-5 -0.00332,0.0017 c -0.015323,-3.5e-5 -0.03026,-0.0027 -0.045525,-0.0027 -0.019839,1.72e-4 -0.039661,4.4e-5 -0.059417,-0.0027 -0.024681,-0.0026 -0.048769,-0.0054 -0.072875,-0.0087 -0.01535,-0.0026 -0.031276,-0.0039 -0.046524,-0.0066 -0.029927,-0.0053 -0.059143,-0.0122 -0.088353,-0.01965 -0.0086,-0.0028 -0.017259,-0.0037 -0.025346,-0.0066 -0.033127,-0.0093 -0.066069,-0.01987 -0.0982,-0.03149 -0.00494,-0.0027 -0.00955,-0.0029 -0.01397,-0.0048 -0.034802,-0.01324 -0.069116,-0.02795 -0.1023542,-0.04386 -0.00333,-9.91e-4 -0.00421,-0.0022 -0.00629,-0.0033 -0.063125,-0.03085 -0.1222362,-0.0686 -0.1788163,-0.10902 L 8.6111248,9.0259686 c 0.155175,-0.1549496 0.232652,-0.3572391 0.232656,-0.559588 -9e-6,-0.2023102 -0.07751,-0.4045995 -0.232545,-0.5596229 L 3.0595552,2.3552482 c 0.024381,-0.017386 0.048163,-0.035434 0.073889,-0.05115 0.035069,-0.02028 0.070309,-0.040575 0.1069588,-0.058416 0.03458,-0.016619 0.069741,-0.032302 0.1059623,-0.045901 0.00449,-0.00273 0.010651,-0.00322 0.014656,-0.00537 0.03141,-0.011498 0.06351,-0.021999 0.096099,-0.03104 0.01021,-0.00288 0.02094,-0.00503 0.031489,-0.00779 0.02763,-0.00683 0.054851,-0.012737 0.083169,-0.017453 0.016633,-0.0029 0.0337,-0.00541 0.05071,-0.00758 0.02113,-0.00308 0.042409,-0.00524 0.064121,-0.00709 0.024382,-0.00278 0.0488,-0.00342 0.0734,-0.00426 0.012261,-6.16e-5 0.024382,-0.00278 0.03672,-0.00256 l 0.016233,1.252e-4 c 0.025731,1.03e-4 0.050819,0.00264 0.07645,0.0037 0.016465,-6.52e-5 0.033488,0.00267 0.04963,0.0037 0.01928,0.00258 0.038572,0.00554 0.057889,0.00874 0.02656,0.00425 0.052592,0.00818 0.07854,0.014019 l 0.0035,9.613e-4 c 0.0035,9.614e-4 0.005,2.108e-4 0.00489,0.00269 0.1259281,0.028521 0.2439718,0.07582 0.3524181,0.1384969 l 0.0066,0.00413 8.7132556,5.0307552 c 0,0 0.0034,8.977e-4 0.0034,8.977e-4 0.168739,0.082623 0.319268,0.2048012 0.440297,0.3601852 0.0049,0.00848 0.01272,0.015533 0.0186,0.023778 0.01626,0.02164 0.03113,0.044283 0.04616,0.067116 0.0076,0.013127 0.01756,0.025308 0.02524,0.038518 0.0036,0.00612 0.0092,0.010599 0.01256,0.016613 0.0073,0.012875 0.01224,0.026418 0.01966,0.039227 0.01173,0.020431 0.02129,0.042076 0.03214,0.063003 0.006,0.015437 0.01307,0.030653 0.0195,0.046007 0.0091,0.021923 0.01855,0.043779 0.02653,0.066079 0.0069,0.019542 0.01324,0.038718 0.01907,0.058416 0.0056,0.019715 0.01188,0.039575 0.01633,0.059487 0.0046,0.019271 0.0085,0.038519 0.01235,0.05791 0.0042,0.021448 0.0086,0.042471 0.01192,0.064049 0.003,0.020605 0.004,0.04131 0.0067,0.061933 0.0025,0.01832 0.0026,0.036882 0.0045,0.055349 0.0027,0.02166 0.0026,0.043101 0.0027,0.064579 z" />
  </g>
</svg>
