<?xml version="1.0" encoding="UTF-8" standalone="no"?>
<svg
   xmlns:dc="http://purl.org/dc/elements/1.1/"
   xmlns:cc="http://creativecommons.org/ns#"
   xmlns:rdf="http://www.w3.org/1999/02/22-rdf-syntax-ns#"
   xmlns:svg="http://www.w3.org/2000/svg"
   xmlns="http://www.w3.org/2000/svg"
   xmlns:sodipodi="http://sodipodi.sourceforge.net/DTD/sodipodi-0.dtd"
   xmlns:inkscape="http://www.inkscape.org/namespaces/inkscape"
   width="64"
   height="64"
   viewBox="0 0 64 64.000003"
   version="1.1"
   id="svg1461"
   inkscape:version="1.0.2 (e86c870879, 2021-01-15)"
   sodipodi:docname="object-hidden-symbolic.svg">
  <defs
     id="defs1455" />
  <sodipodi:namedview
     id="base"
     pagecolor="#c4c4c4"
     bordercolor="#666666"
     borderopacity="1.0"
     inkscape:pageopacity="0"
     inkscape:pageshadow="2"
     inkscape:zoom="4.845432"
     inkscape:cx="57.048243"
     inkscape:cy="66.031721"
     inkscape:document-units="px"
     inkscape:current-layer="layer1"
     inkscape:document-rotation="0"
     showgrid="false"
     units="px"
     inkscape:window-width="2048"
     inkscape:window-height="1080"
     inkscape:window-x="0"
     inkscape:window-y="0"
     inkscape:window-maximized="1" />
  <metadata
     id="metadata1458">
    <rdf:RDF>
      <cc:Work
         rdf:about="">
        <dc:format>image/svg+xml</dc:format>
        <dc:type
           rdf:resource="http://purl.org/dc/dcmitype/StillImage" />
        <dc:title />
      </cc:Work>
    </rdf:RDF>
  </metadata>
  <g
     inkscape:label="Layer 1"
     inkscape:groupmode="layer"
     id="layer1">
    <path
       id="rect901-6-7"
       style="fill:#808084;fill-opacity:1;stroke-width:4.99997;stroke-linecap:round;stroke-linejoin:round;stroke-dashoffset:2.1875"
       d="m 7.1099173,0 c -0.89466,0 -1.78907,0.34375 -2.474608,1.02929 -1.371081,1.37107 -1.371077,3.5781 0,4.94917 L 58.020077,59.3647 c 1.37108,1.37107 3.58009,1.37106 4.95117,0 1.37108,-1.37107 1.37108,-3.57811 0,-4.94918 L 9.5845273,1.02929 C 8.8989873,0.34375 8.0045873,0 7.1099173,0 Z" />
    <path
       id="path871-1-5"
       style="color:#000000;font-style:normal;font-variant:normal;font-weight:normal;font-stretch:normal;font-size:medium;line-height:normal;font-family:sans-serif;font-variant-ligatures:normal;font-variant-position:normal;font-variant-caps:normal;font-variant-numeric:normal;font-variant-alternates:normal;font-variant-east-asian:normal;font-feature-settings:normal;font-variation-settings:normal;text-indent:0;text-align:start;text-decoration:none;text-decoration-line:none;text-decoration-style:solid;text-decoration-color:#000000;letter-spacing:normal;word-spacing:normal;text-transform:none;writing-mode:lr-tb;direction:ltr;text-orientation:mixed;dominant-baseline:auto;baseline-shift:baseline;text-anchor:start;white-space:normal;shape-padding:0;shape-margin:0;inline-size:0;clip-rule:nonzero;display:inline;overflow:visible;visibility:visible;isolation:auto;mix-blend-mode:normal;color-interpolation:sRGB;color-interpolation-filters:linearRGB;solid-color:#000000;solid-opacity:1;vector-effect:none;fill:#808084;fill-opacity:1;fill-rule:nonzero;stroke:none;stroke-width:0;stroke-linecap:round;stroke-linejoin:round;stroke-miterlimit:4;stroke-dasharray:none;stroke-dashoffset:2.1875;stroke-opacity:1;color-rendering:auto;image-rendering:auto;shape-rendering:auto;text-rendering:auto;enable-background:accumulate;stop-color:#000000;opacity:1"
       d="m 32.009253,8.0000002 c -4.7067,0 -9.19501,1.0495795 -13.29102,2.9394528 l 5.13086,5.130859 c 2.5835,-0.852263 5.31969,-1.316406 8.16016,-1.316406 11.118,0 20.68516,7.012468 25.41406,17.242188 -1.82653,3.951215 -4.38035,7.414753 -7.46094,10.1875 l 4.55859,4.558594 c 3.98997,-3.789753 7.20926,-8.549026 9.32032,-13.96875 a 0.59913702,0.66367282 0 0 0 0.01,-0.0098 c -0.017,0.046 -0.01,0.02355 0.0273,-0.06445 a 0.59913702,0.66367282 0 0 0 0,-0.01367 l 0.01,-0.02734 c 0,-0.01 0.01,-0.01448 0.01,-0.02148 0.01,-0.022 0.0155,-0.04245 0.0215,-0.06445 0,-0.01 -2.4e-4,-0.01258 0.01,-0.01758 a 0.59913702,0.66367282 0 0 0 0.01,-0.03711 c 0,-0.01 -2.4e-4,-0.01544 0.01,-0.02344 0.01,-0.029 0.0145,-0.05694 0.0215,-0.08594 0.01,-0.037 0.0145,-0.07209 0.0195,-0.109375 4e-4,0 0,-0.0098 0,-0.0098 5e-4,0 0,-0.0098 0,-0.0098 a 0.59913702,0.66367282 0 0 0 0,-0.04102 c 2e-4,0 -2e-4,2.35e-4 0,-0.0098 0,-0.037 0.01,-0.07679 0.01,-0.113282 v -0.123046 -0.01367 a 0.59913702,0.66367282 0 0 0 0,-0.01172 c -8e-4,-0.042 2.3e-4,-0.08166 -0.01,-0.123047 a 0.59913702,0.66367282 0 0 0 0,-0.0293 c -3e-4,0 0,-0.0017 0,-0.01172 v -0.01953 c 0,-0.042 -0.0125,-0.08351 -0.0195,-0.125 -0.01,-0.037 -0.0135,-0.07123 -0.0215,-0.107422 a 0.59913702,0.66367282 0 0 0 -0.01,-0.02539 v -0.0098 -0.01172 c 0,-0.01 2.3e-4,-0.01058 -0.01,-0.01758 -0.01,-0.023 -0.0125,-0.04731 -0.0195,-0.07031 v -0.0098 c -9e-4,0 0,-0.0098 0,-0.0098 a 0.59913702,0.66367282 0 0 0 -0.01,-0.01563 c -0.01,-0.023 -0.0174,-0.04536 -0.0254,-0.06836 a 0.59913702,0.66367282 0 0 0 0,-0.01367 c -0.005,-0.0138 -0.004,-0.012 -0.008,-0.02148 a 0.59913702,0.66367282 0 0 1 0.008,0.01172 c -0.0266,-0.06294 -0.0264,-0.05869 -0.01,-0.01562 C 58.566813,17.630348 46.329753,8.0646783 32.108853,8.0175783 a 0.59913702,0.66367282 0 0 0 -0.10351,-0.00977 z M 9.4819031,17.261719 c -3.9881,3.788472 -7.20631,8.545735 -9.31639997,13.96289 0.012,-0.03 -5.5e-4,-0.01173 -0.0312,0.07227 -0.01,0.024 -0.0194,0.04827 -0.0273,0.07227 a 0.59913702,0.66367282 0 0 0 0,0.0098 c -0.01,0.027 -0.0164,0.05598 -0.0234,0.08398 -0.012,0.04 -0.0222,0.08361 -0.0312,0.125 a 0.59913702,0.66367282 0 0 0 -0.01,0.0332 c 0,0.013 -0.002,0.02606 -0.0117,0.03906 0,0.024 -0.01,0.04727 -0.0117,0.07227 a 0.59913702,0.66367282 0 0 0 0,0.01172 c 0,0.02 -0.01,0.03959 -0.01,0.05859 v -0.01953 c 0,0.03396 -0.009999997,0.06868 -0.009999997,0.10348 v 0.132812 0.0098 a 0.59913702,0.66367282 0 0 0 0,0.02539 c 0,0.043 -2.3000261e-4,0.08807 0.009999997,0.130859 0,0.038 0.01,0.07559 0.0137,0.113281 a 0.59913702,0.66367282 0 0 0 0.01,0.02539 c 9e-4,0 0.001,0.0087 0,0.01367 7e-4,0 0.001,0.01072 0,0.01172 4e-4,0 0.001,-2.34e-4 0,0.0098 0.01,0.04 0.0164,0.07915 0.0254,0.119141 a 0.59913702,0.66367282 0 0 0 0,0.01367 c 0.012,0.046 0.026,0.08862 0.041,0.132812 0.01,0.026 0.0193,0.05117 0.0293,0.07617 a 0.59913702,0.66367282 0 0 0 0,0.0098 c 0.01,0.015 0.0125,0.02992 0.0195,0.04492 C 5.4634031,46.421549 17.741963,56 31.999463,56 c 4.70398,0 9.1897,-1.0494 13.2832,-2.9375 l -5.13086,-5.130859 c -2.57776,0.848366 -5.30879,1.308593 -8.14257,1.308593 -11.1181,0 -20.68712,-7.01462 -25.4160199,-17.24414 1.82388,-3.945324 4.3720599,-7.405037 7.4472699,-10.175782 z" />
    <path
       id="path889-5-9-3"
       style="display:inline;fill:#808084;fill-opacity:1;stroke:none;stroke-width:0;stroke-linecap:round;stroke-linejoin:round;stroke-miterlimit:4;stroke-dasharray:none;stroke-dashoffset:2.1875;stroke-opacity:1;opacity:1"
       d="m 32,21 a 11,11 0 0 0 -2.8457,0.375 l 4.6875,4.6875 A 3.5,3.5 0 0 1 34.5,26 3.5,3.5 0 0 1 38,29.5 3.5,3.5 0 0 1 37.9375,30.158203 l 4.6875,4.6875 A 11,11 0 0 0 43,32 11,11 0 0 0 32,21 Z M 21.375,29.154297 A 11,11 0 0 0 21,32 11,11 0 0 0 32,43 11,11 0 0 0 34.8457,42.625 Z" />
  </g>
</svg>
