<?xml version="1.0" encoding="UTF-8" standalone="no"?>
<svg
   xmlns:dc="http://purl.org/dc/elements/1.1/"
   xmlns:cc="http://creativecommons.org/ns#"
   xmlns:rdf="http://www.w3.org/1999/02/22-rdf-syntax-ns#"
   xmlns:svg="http://www.w3.org/2000/svg"
   xmlns="http://www.w3.org/2000/svg"
   xmlns:sodipodi="http://sodipodi.sourceforge.net/DTD/sodipodi-0.dtd"
   xmlns:inkscape="http://www.inkscape.org/namespaces/inkscape"
   width="64"
   height="64"
   viewBox="0 0 16.933333 16.933334"
   version="1.1"
   id="svg841"
   inkscape:version="1.0.2 (e86c870879, 2021-01-15)"
   sodipodi:docname="org.gnome.Lollypop-suggestions-symbolic.svg">
  <defs
     id="defs835" />
  <sodipodi:namedview
     id="base"
     pagecolor="#c4c4c4"
     bordercolor="#666666"
     borderopacity="1.0"
     inkscape:pageopacity="0"
     inkscape:pageshadow="2"
     inkscape:zoom="3.5451024"
     inkscape:cx="68.811251"
     inkscape:cy="91.614804"
     inkscape:document-units="px"
     inkscape:current-layer="layer1"
     inkscape:document-rotation="0"
     showgrid="false"
     units="px"
     inkscape:window-width="2048"
     inkscape:window-height="1080"
     inkscape:window-x="0"
     inkscape:window-y="0"
     inkscape:window-maximized="1" />
  <metadata
     id="metadata838">
    <rdf:RDF>
      <cc:Work
         rdf:about="">
        <dc:format>image/svg+xml</dc:format>
        <dc:type
           rdf:resource="http://purl.org/dc/dcmitype/StillImage" />
        <dc:title></dc:title>
      </cc:Work>
    </rdf:RDF>
  </metadata>
  <g
     inkscape:label="Layer 1"
     inkscape:groupmode="layer"
     id="layer1">
    <path
       style="opacity:0.15;fill:#808084;stroke-width:1.32292;stroke-linecap:round;stroke-linejoin:round;stroke-dashoffset:2.1875"
       d="M 6.2440743,0.87630001 H 10.68928 c 2.872955,0 5.185731,2.47808099 5.185731,5.55625099 0,3.078159 -2.312776,5.55625 -5.185731,5.55625 h -0.601514 -0.02222 -1.1906247 l -3.885552,3.885034 c -0.02934,0.0302 -0.06201,0.0566 -0.09715,0.0801 -0.0067,0.0085 -0.01503,0.01154 -0.02273,0.01654 -0.02521,0.0149 -0.05009,0.03434 -0.07803,0.04134 -0.01662,0.0075 -0.03413,0.01154 -0.05116,0.01654 -0.01984,0.0062 -0.03927,0.01357 -0.05995,0.01757 -0.03824,0.0068 -0.07697,0.01058 -0.115756,0.01085 -0.0052,0 -0.0104,-0.0026 -0.0155,-0.0021 -0.03336,-0.001 -0.06682,-0.0038 -0.09973,-0.0098 -0.02872,-0.0057 -0.05563,-0.01419 -0.08268,-0.02429 -0.0091,-0.003 -0.01839,-0.0053 -0.02739,-0.0093 -0.148569,-0.0604 -0.266554,-0.178839 -0.326594,-0.327629 -0.01373,-0.03392 -0.02474,-0.06862 -0.03204,-0.10542 -0.0074,-0.03649 -0.01098,-0.07369 -0.01138,-0.110587 -2.6e-5,-0.003 -5.29e-4,-0.0047 -5.29e-4,-0.0067 v -5.29e-4 -0.410303 -3.623551 c -1.725507,-0.9001 -2.910417,-2.79209 -2.910417,-4.99401 0,-3.07817 2.312779,-5.55625099 5.185731,-5.55625099 z"
       id="path921-6" />
    <path
       id="rect4777-0-4-2-8-8-6-0-1"
       style="fill:#808084;fill-opacity:1;stroke:none;stroke-width:0.702932;stroke-linecap:round;stroke-linejoin:round;stroke-miterlimit:4;stroke-dasharray:none;stroke-dashoffset:2.1875;stroke-opacity:1"
       d="m 6.2440634,0.87630001 c -2.872951,0 -5.1857301,2.47808039 -5.1857301,5.55625039 0,2.20192 1.1849101,4.0939096 2.9104161,4.9940096 v 3.62355 0.41031 5.3e-4 c 3e-6,0.002 4.9e-4,0.004 5.16e-4,0.007 3.97e-4,0.0369 0.004,0.0741 0.01137,0.11059 0.0073,0.0368 0.0183,0.0715 0.03204,0.10542 0.06004,0.14879 0.178025,0.26723 0.326595,0.32763 0.009,0.004 0.01832,0.006 0.02739,0.009 0.02705,0.0101 0.05396,0.0186 0.08268,0.0243 0.03292,0.006 0.06638,0.009 0.09974,0.01 0.0051,-5.3e-4 0.01028,0.002 0.0155,0.002 0.03879,-2.7e-4 0.07752,-0.004 0.115756,-0.0108 0.02067,-0.004 0.04009,-0.0114 0.05994,-0.0176 0.01703,-0.005 0.03455,-0.009 0.05116,-0.0165 0.02794,-0.007 0.05283,-0.0264 0.07803,-0.0413 0.0077,-0.005 0.016,-0.008 0.02274,-0.0165 0.03514,-0.0235 0.06781,-0.0499 0.09715,-0.0801 l 3.8855505,-3.88504 h 1.1906251 0.02222 0.601514 c 2.872954,0 5.185733,-2.4780896 5.185733,-5.5562496 0,-3.07817 -2.312779,-5.55625039 -5.185733,-5.55625039 z M 6.6145834,2.06693 H 10.31875 c 2.418557,0 4.365627,1.9470604 4.365627,4.3656204 0,2.41855 -1.94707,4.3656296 -4.365627,4.3656296 h -0.230993 -0.02222 -1.4143841 -0.0186 c -0.171924,0 -0.325089,0.0728 -0.433566,0.18862 l -10e-4,-0.002 -3.0385745,3.03806 v -2.15646 -0.89245 -0.0253 c 0,-0.24479 -0.146828,-0.45351 -0.357084,-0.54519 l 0.0026,-0.002 c -1.509141,-0.6852396 -2.55592,-2.1980296 -2.55592,-3.9691796 0,-2.41856 1.947068,-4.3656204 4.365625,-4.3656204 z" />
  </g>
</svg>
