<?xml version="1.0" encoding="UTF-8" standalone="no"?>
<svg
   xmlns:dc="http://purl.org/dc/elements/1.1/"
   xmlns:cc="http://creativecommons.org/ns#"
   xmlns:rdf="http://www.w3.org/1999/02/22-rdf-syntax-ns#"
   xmlns:svg="http://www.w3.org/2000/svg"
   xmlns="http://www.w3.org/2000/svg"
   xmlns:sodipodi="http://sodipodi.sourceforge.net/DTD/sodipodi-0.dtd"
   xmlns:inkscape="http://www.inkscape.org/namespaces/inkscape"
   width="64"
   height="64"
   viewBox="0 0 64 64"
   version="1.1"
   id="svg6374"
   inkscape:version="1.0.2 (e86c870879, 2021-01-15)"
   sodipodi:docname="path-intersection-symbolic.svg">
  <defs
     id="defs6368" />
  <sodipodi:namedview
     id="base"
     pagecolor="#cecece"
     bordercolor="#666666"
     borderopacity="1.0"
     inkscape:pageopacity="0"
     inkscape:pageshadow="2"
     inkscape:zoom="4.8463024"
     inkscape:cx="-47.538283"
     inkscape:cy="32.512916"
     inkscape:document-units="px"
     inkscape:current-layer="layer1"
     inkscape:document-rotation="0"
     showgrid="false"
     units="px"
     inkscape:window-width="2048"
     inkscape:window-height="1080"
     inkscape:window-x="0"
     inkscape:window-y="0"
     inkscape:window-maximized="1" />
  <metadata
     id="metadata6371">
    <rdf:RDF>
      <cc:Work
         rdf:about="">
        <dc:format>image/svg+xml</dc:format>
        <dc:type
           rdf:resource="http://purl.org/dc/dcmitype/StillImage" />
        <dc:title />
      </cc:Work>
    </rdf:RDF>
  </metadata>
  <g
     inkscape:label="Layer 1"
     inkscape:groupmode="layer"
     id="layer1">
    <path
       style="opacity:0.25;fill:#804e84;fill-opacity:1;stroke-width:5.23809;stroke-linecap:round;stroke-linejoin:round;stroke-dashoffset:2.1875"
       d="m 41.361328,63.99023 a 22,22 0 0 0 0.298828,0.006 22,22 0 0 1 -0.298828,-0.006 z"
       id="path1827" />
    <path
       style="opacity:0.25;fill:#804e84;fill-opacity:1;stroke-width:5.23809;stroke-linecap:round;stroke-linejoin:round;stroke-dashoffset:2.1875"
       d="m 39.789062,63.88867 a 22,22 0 0 0 0.740235,0.0605 22,22 0 0 1 -0.740235,-0.0605 z"
       id="path1825" />
    <path
       style="opacity:0.25;fill:#804e84;fill-opacity:1;stroke-width:5.23809;stroke-linecap:round;stroke-linejoin:round;stroke-dashoffset:2.1875"
       d="m 37.066406,63.43945 a 22,22 0 0 0 0.234375,0.0527 22,22 0 0 1 -0.234375,-0.0527 z"
       id="path1823" />
    <path
       style="opacity:0.25;fill:#804e84;fill-opacity:1;stroke-width:5.23809;stroke-linecap:round;stroke-linejoin:round;stroke-dashoffset:2.1875"
       d="M 35.951172,63.15234 A 22,22 0 0 0 36.65625,63.3418 22,22 0 0 1 35.951172,63.15234 Z"
       id="path1821" />
    <path
       style="opacity:0.25;fill:#804e84;fill-opacity:1;stroke-width:5.23809;stroke-linecap:round;stroke-linejoin:round;stroke-dashoffset:2.1875"
       d="m 34.792969,62.78516 a 22,22 0 0 0 0.279297,0.0957 22,22 0 0 1 -0.279297,-0.0957 z"
       id="path1819" />
    <path
       style="opacity:0.25;fill:#804e84;fill-opacity:1;stroke-width:5.23809;stroke-linecap:round;stroke-linejoin:round;stroke-dashoffset:2.1875"
       d="M 30.1875,60.55859 A 22,22 0 0 0 30.392578,60.68555 22,22 0 0 1 30.1875,60.55859 Z"
       id="path1817" />
    <path
       style="opacity:0.05;fill:#808084;fill-opacity:1;stroke-width:5.23809;stroke-linecap:round;stroke-linejoin:round;stroke-dashoffset:2.1875"
       d="M 44,24.61523 V 41 c 0,1.662 -1.338,3 -3,3 H 24.615234 A 17.5,17.5 0 0 0 42,59.5 17.5,17.5 0 0 0 59.5,42 17.5,17.5 0 0 0 44,24.61523 Z"
       id="path1811" />
    <path
       style="opacity:0.25;fill:#804e84;fill-opacity:1;stroke-width:5.23809;stroke-linecap:round;stroke-linejoin:round;stroke-dashoffset:2.1875"
       d="m 25.162109,56.1582 a 22,22 0 0 0 0.166016,0.19727 22,22 0 0 1 -0.166016,-0.19727 z"
       id="path1815" />
    <path
       style="opacity:0.45;fill:#808084;fill-opacity:1;stroke-width:5.23809;stroke-linecap:round;stroke-linejoin:round;stroke-dashoffset:2.1875"
       d="M 39.496094,24.67973 A 17.5,17.5 0 0 0 24.679688,39.5 H 38 c 0.831,0 1.5,-0.669 1.5,-1.5 V 24.67969 a 17.5,17.5 0 0 0 -0.0039,0 z"
       id="path1813" />
    <path
       style="opacity:0.05;fill:#808084;fill-opacity:1;stroke-width:5.23809;stroke-linecap:round;stroke-linejoin:round;stroke-dashoffset:2.1875"
       d="m 6.0000001,4.5 c -0.831,0 -1.5,0.669 -1.5,1.5 v 32 c 0,0.831 0.669,1.5 1.5,1.5 H 20.142578 A 22,22 0 0 1 39.5,20.14258 V 6 C 39.5,5.169 38.831,4.5 38,4.5 Z"
       id="path944-6-5-3-9-8-1-2-5" />
    <path
       style="opacity:0.25;fill:#804e84;fill-opacity:1;stroke-width:5.23809;stroke-linecap:round;stroke-linejoin:round;stroke-dashoffset:2.1875"
       d="m 41.361328,63.99023 a 22,22 0 0 0 0.298828,0.006 22,22 0 0 1 -0.298828,-0.006 z"
       id="path1827-5" />
    <path
       style="opacity:0.25;fill:#804e84;fill-opacity:1;stroke-width:5.23809;stroke-linecap:round;stroke-linejoin:round;stroke-dashoffset:2.1875"
       d="m 39.789062,63.88867 a 22,22 0 0 0 0.740235,0.0605 22,22 0 0 1 -0.740235,-0.0605 z"
       id="path1825-6" />
    <path
       style="opacity:0.25;fill:#804e84;fill-opacity:1;stroke-width:5.23809;stroke-linecap:round;stroke-linejoin:round;stroke-dashoffset:2.1875"
       d="m 37.066406,63.43945 a 22,22 0 0 0 0.234375,0.0527 22,22 0 0 1 -0.234375,-0.0527 z"
       id="path1823-9" />
    <path
       style="opacity:0.25;fill:#804e84;fill-opacity:1;stroke-width:5.23809;stroke-linecap:round;stroke-linejoin:round;stroke-dashoffset:2.1875"
       d="M 35.951172,63.15234 A 22,22 0 0 0 36.65625,63.3418 22,22 0 0 1 35.951172,63.15234 Z"
       id="path1821-3" />
    <path
       style="opacity:0.25;fill:#804e84;fill-opacity:1;stroke-width:5.23809;stroke-linecap:round;stroke-linejoin:round;stroke-dashoffset:2.1875"
       d="m 34.792969,62.78516 a 22,22 0 0 0 0.279297,0.0957 22,22 0 0 1 -0.279297,-0.0957 z"
       id="path1819-7" />
    <path
       style="opacity:0.25;fill:#804e84;fill-opacity:1;stroke-width:5.23809;stroke-linecap:round;stroke-linejoin:round;stroke-dashoffset:2.1875"
       d="M 30.1875,60.55859 A 22,22 0 0 0 30.392578,60.68555 22,22 0 0 1 30.1875,60.55859 Z"
       id="path1817-4" />
    <path
       style="opacity:0.25;fill:#804e84;fill-opacity:1;stroke-width:5.23809;stroke-linecap:round;stroke-linejoin:round;stroke-dashoffset:2.1875"
       d="m 25.162109,56.1582 a 22,22 0 0 0 0.166016,0.19727 22,22 0 0 1 -0.166016,-0.19727 z"
       id="path1815-5" />
    <path
       style="fill:#808084;fill-opacity:1;stroke-width:5;stroke-linecap:round;stroke-linejoin:round;stroke-dashoffset:2.1875;opacity:1"
       d="M 41.94922,24.5 A 17.5,17.5 0 0 0 39.5,24.67969 V 38 c 0,0.831 -0.669,1.5 -1.5,1.5 H 24.67969 A 17.5,17.5 0 0 0 24.5,42 17.5,17.5 0 0 0 24.61523,44 H 41 c 1.662,0 3,-1.338 3,-3 V 24.61523 A 17.5,17.5 0 0 0 42,24.5 a 17.5,17.5 0 0 0 -0.0508,0 z"
       id="path2349-0" />
    <path
       style="opacity:0.85;fill:#808084;fill-opacity:1;stroke-width:5;stroke-linecap:round;stroke-linejoin:round;stroke-dashoffset:2.1875"
       d="M 3.0000001,0 C 1.3380001,0 0,1.338 0,3 v 38 c 0,1.662 1.3380001,3 3.0000001,3 H 20.0918 A 22,22 0 0 1 20,42 22,22 0 0 1 20.14258,39.5 H 6.0000001 c -0.831,0 -1.5,-0.669 -1.5,-1.5 V 6 c 0,-0.831 0.669,-1.5 1.5,-1.5 H 38 c 0.831,0 1.5,0.669 1.5,1.5 V 20.14258 A 22,22 0 0 1 41.75586,20 22,22 0 0 1 42,20 22,22 0 0 1 44,20.0918 V 3 C 44,1.338 42.662,0 41,0 Z"
       id="rect942-3-7-2-1-7-0-7-91" />
    <path
       style="fill:#808084;fill-opacity:1;stroke-width:5.23809;stroke-linecap:round;stroke-linejoin:round;stroke-dashoffset:2.1875;opacity:1"
       d="m 39.5,20.14294 a 22,22 0 0 0 -19.35742,19.3574 h 4.53711 A 17.5,17.5 0 0 1 39.5,24.68003 Z"
       id="path2341-4-9" />
    <path
       style="opacity:0.85;fill:#808084;fill-opacity:1;stroke-width:5.23809;stroke-linecap:round;stroke-linejoin:round;stroke-dashoffset:2.1875"
       d="m 44,20.09214 v 4.52343 a 17.5,17.5 0 0 1 15.5,17.38477 17.5,17.5 0 0 1 -17.5,17.5 17.5,17.5 0 0 1 -17.38477,-15.5 H 20.0918 a 22,22 0 0 0 21.9082,20 22,22 0 0 0 22,-22 22,22 0 0 0 -20,-21.9082 z"
       id="path944-6-5-3-2-0-2-26-9-3" />
    <path
       style="fill:#808084;fill-opacity:1;stroke-width:5.23809;stroke-linecap:round;stroke-linejoin:round;stroke-dashoffset:2.1875;opacity:1"
       d="m 20.14258,39.50034 a 22,22 0 0 0 -0.14258,2.5 22,22 0 0 0 0.0918,2 h 4.52343 a 17.5,17.5 0 0 1 -0.11523,-2 17.5,17.5 0 0 1 0.18164,-2.5 z"
       id="path2773-9" />
    <path
       style="fill:#808084;fill-opacity:1;stroke-width:5.23809;stroke-linecap:round;stroke-linejoin:round;stroke-dashoffset:2.1875;opacity:1"
       d="M 41.75586,20.00034 A 22,22 0 0 0 39.5,20.14292 v 4.53711 a 17.5,17.5 0 0 1 2.44922,-0.17969 17.5,17.5 0 0 1 0.0508,0 17.5,17.5 0 0 1 2,0.11523 V 20.09214 A 22,22 0 0 0 42,20.00034 a 22,22 0 0 0 -0.24414,0 z"
       id="path944-6-5-3-2-0-2-5-0" />
  </g>
</svg>
