<?xml version="1.0" encoding="UTF-8" standalone="no"?>
<svg
   xmlns:dc="http://purl.org/dc/elements/1.1/"
   xmlns:cc="http://creativecommons.org/ns#"
   xmlns:rdf="http://www.w3.org/1999/02/22-rdf-syntax-ns#"
   xmlns:svg="http://www.w3.org/2000/svg"
   xmlns="http://www.w3.org/2000/svg"
   xmlns:sodipodi="http://sodipodi.sourceforge.net/DTD/sodipodi-0.dtd"
   xmlns:inkscape="http://www.inkscape.org/namespaces/inkscape"
   width="64"
   height="64"
   viewBox="0 0 64 64"
   version="1.1"
   id="svg6374"
   inkscape:version="1.0.2 (e86c870879, 2021-01-15)"
   sodipodi:docname="path-union-symbolic.svg">
  <defs
     id="defs6368" />
  <sodipodi:namedview
     id="base"
     pagecolor="#cecece"
     bordercolor="#666666"
     borderopacity="1.0"
     inkscape:pageopacity="0"
     inkscape:pageshadow="2"
     inkscape:zoom="3.2130262"
     inkscape:cx="16.207814"
     inkscape:cy="43.709718"
     inkscape:document-units="px"
     inkscape:current-layer="layer1"
     inkscape:document-rotation="0"
     showgrid="false"
     units="px"
     inkscape:window-width="2048"
     inkscape:window-height="1080"
     inkscape:window-x="0"
     inkscape:window-y="0"
     inkscape:window-maximized="1" />
  <metadata
     id="metadata6371">
    <rdf:RDF>
      <cc:Work
         rdf:about="">
        <dc:format>image/svg+xml</dc:format>
        <dc:type
           rdf:resource="http://purl.org/dc/dcmitype/StillImage" />
        <dc:title />
      </cc:Work>
    </rdf:RDF>
  </metadata>
  <g
     inkscape:label="Layer 1"
     inkscape:groupmode="layer"
     id="layer1">
    <path
       id="path944-6-5-3-9-8"
       style="opacity:0.175;fill:#808084;fill-opacity:1;stroke-width:5.23809;stroke-linecap:round;stroke-linejoin:round;stroke-dashoffset:2.1875"
       d="M 3,0 C 1.338,0 0,1.338 0,3 v 38 c 0,1.662 1.338,3 3,3 H 20.091797 A 22,22 0 0 0 42,64 22,22 0 0 0 64,42 22,22 0 0 0 44,20.0918 V 3 C 44,1.338 42.662,0 41,0 Z" />
    <path
       id="rect1349"
       style="fill:#808084;fill-opacity:1;stroke-width:5;stroke-linecap:round;stroke-linejoin:round;stroke-dashoffset:2.1875"
       d="M 3,0 C 1.337999,0 0,1.338 0,3 v 38 c 0,1.662 1.337999,3 3,3 h 13.615234 3.476563 A 22,22 0 0 0 42,64 22,22 0 0 0 64,42 22,22 0 0 0 44,20.0918 V 16.61523 3 C 44,1.338 42.662,0 41,0 Z M 5.9999996,4.5 H 38 c 0.831,0 1.5,0.669 1.5,1.5 v 10.61523 3.52735 0.97265 2.5 c 0,0.554 0.446,1 1,1 H 43 44 A 17.5,17.5 0 0 1 59.5,42 17.5,17.5 0 0 1 42,59.5 17.5,17.5 0 0 1 24.615234,44 v -1 -2.5 c 0,-0.554 -0.446,-1 -1,-1 h -2.5 -0.972656 -3.527344 -10.6152344 c -0.831,0 -1.5,-0.669 -1.5,-1.5 V 6 c 0,-0.831 0.669,-1.5 1.5,-1.5 z" />
  </g>
</svg>
