<?xml version="1.0" encoding="UTF-8" standalone="no"?>
<svg
   xmlns:dc="http://purl.org/dc/elements/1.1/"
   xmlns:cc="http://creativecommons.org/ns#"
   xmlns:rdf="http://www.w3.org/1999/02/22-rdf-syntax-ns#"
   xmlns:svg="http://www.w3.org/2000/svg"
   xmlns="http://www.w3.org/2000/svg"
   xmlns:sodipodi="http://sodipodi.sourceforge.net/DTD/sodipodi-0.dtd"
   xmlns:inkscape="http://www.inkscape.org/namespaces/inkscape"
   width="64"
   height="64"
   viewBox="0 0 16.933333 16.933334"
   version="1.1"
   id="svg841"
   inkscape:version="1.0.2 (e86c870879, 2021-01-15)"
   sodipodi:docname="playlist-queue-symbolic.svg">
  <defs
     id="defs835" />
  <sodipodi:namedview
     id="base"
     pagecolor="#c4c4c4"
     bordercolor="#666666"
     borderopacity="1.0"
     inkscape:pageopacity="0"
     inkscape:pageshadow="2"
     inkscape:zoom="4.1920668"
     inkscape:cx="56.075117"
     inkscape:cy="33.383919"
     inkscape:document-units="px"
     inkscape:current-layer="layer1"
     inkscape:document-rotation="0"
     showgrid="false"
     units="px"
     inkscape:window-width="2048"
     inkscape:window-height="1080"
     inkscape:window-x="0"
     inkscape:window-y="0"
     inkscape:window-maximized="1" />
  <metadata
     id="metadata838">
    <rdf:RDF>
      <cc:Work
         rdf:about="">
        <dc:format>image/svg+xml</dc:format>
        <dc:type
           rdf:resource="http://purl.org/dc/dcmitype/StillImage" />
        <dc:title />
      </cc:Work>
    </rdf:RDF>
  </metadata>
  <g
     inkscape:label="Layer 1"
     inkscape:groupmode="layer"
     id="layer1">
    <rect
       style="fill:#808084;fill-opacity:1;stroke:none;stroke-width:0;stroke-linecap:square;stroke-miterlimit:4;stroke-dasharray:none"
       id="rect851-9-1-7-0-9-6"
       width="3.96875"
       height="1.587503"
       x="0.26458335"
       y="2.9104166"
       rx="0.26458335"
       ry="0.26458335" />
    <rect
       style="fill:#808084;fill-opacity:1;stroke:none;stroke-width:0;stroke-linecap:square;stroke-miterlimit:4;stroke-dasharray:none"
       id="rect851-7-2-5-7-8-6-4"
       width="3.96875"
       height="1.587503"
       x="0.26458335"
       y="7.6729217"
       rx="0.26458335"
       ry="0.26458335" />
    <rect
       style="fill:#808084;fill-opacity:1;stroke:none;stroke-width:0;stroke-linecap:square;stroke-miterlimit:4;stroke-dasharray:none"
       id="rect851-5-66-9-1-8-3-3"
       width="3.96875"
       height="1.587503"
       x="0.26458335"
       y="12.435426"
       rx="0.26458335"
       ry="0.26458335" />
    <path
       id="path4140-76-3-6-2"
       style="fill:#808084;fill-opacity:1;stroke:none;stroke-width:2.11667;stroke-linecap:round;stroke-linejoin:round;stroke-miterlimit:4;stroke-dasharray:none;stroke-dashoffset:2.1875;stroke-opacity:1"
       d="m 12.168768,7.4083335 a 4.4979168,4.4979168 0 0 0 -4.4958514,4.4979225 4.4979168,4.4979168 0 0 0 4.4979184,4.49792 4.4979168,4.4979168 0 0 0 4.497916,-4.49792 4.4979168,4.4979168 0 0 0 -4.497916,-4.4979225 4.4979168,4.4979168 0 0 0 -0.0021,0 z m -0.05013,0.926042 a 3.5718751,3.5718751 0 0 1 0.05219,0 3.5718751,3.5718751 0 0 1 3.571874,3.5718805 3.5718751,3.5718751 0 0 1 -3.571874,3.57188 3.5718751,3.5718751 0 0 1 -3.5718764,-3.57188 3.5718751,3.5718751 0 0 1 3.5196814,-3.5718805 z m 0.05219,1.8520835 a 1.7197917,1.7197917 0 0 0 -1.719792,1.719797 1.7197917,1.7197917 0 0 0 1.719792,1.7198 1.7197917,1.7197917 0 0 0 1.719791,-1.7198 1.7197917,1.7197917 0 0 0 -1.719791,-1.719797 z m -0.0078,0.727604 a 0.99218752,0.99218752 0 0 1 0.0078,0 0.99218752,0.99218752 0 0 1 0.992186,0.992193 0.99218752,0.99218752 0 0 1 -0.992186,0.99219 0.99218752,0.99218752 0 0 1 -0.992188,-0.99219 0.99218752,0.99218752 0 0 1 0.984435,-0.992193 z" />
    <path
       id="path4140-4-4-1-8"
       style="color:#000000;font-style:normal;font-variant:normal;font-weight:normal;font-stretch:normal;font-size:medium;line-height:normal;font-family:sans-serif;font-variant-ligatures:normal;font-variant-position:normal;font-variant-caps:normal;font-variant-numeric:normal;font-variant-alternates:normal;font-variant-east-asian:normal;font-feature-settings:normal;font-variation-settings:normal;text-indent:0;text-align:start;text-decoration:none;text-decoration-line:none;text-decoration-style:solid;text-decoration-color:#000000;letter-spacing:normal;word-spacing:normal;text-transform:none;writing-mode:lr-tb;direction:ltr;text-orientation:mixed;dominant-baseline:auto;baseline-shift:baseline;text-anchor:start;white-space:normal;shape-padding:0;shape-margin:0;inline-size:0;clip-rule:nonzero;display:inline;overflow:visible;visibility:visible;isolation:auto;mix-blend-mode:normal;color-interpolation:sRGB;color-interpolation-filters:linearRGB;solid-color:#000000;solid-opacity:1;vector-effect:none;fill:#808084;fill-opacity:1;fill-rule:nonzero;stroke:none;stroke-width:1.00007;stroke-linecap:round;stroke-linejoin:round;stroke-miterlimit:4;stroke-dasharray:none;stroke-dashoffset:2.1875;stroke-opacity:1;color-rendering:auto;image-rendering:auto;shape-rendering:auto;text-rendering:auto;enable-background:accumulate;stop-color:#000000"
       d="m 12.172127,0.52916667 c -0.90308,0 -1.806403,0.270975 -2.5802634,0.81287103 -1.54771,1.083789 -2.254833,3.022624 -1.765822,4.847765 a 0.46304178,0.46307006 0 0 0 0.566387,0.328147 0.46304178,0.46307006 0 0 0 0.328152,-0.566375 c -0.389073,-1.452134 0.171123,-2.989668 1.4025314,-3.851961 1.231402,-0.86229 2.866105,-0.86229 4.097509,0 1.231409,0.862293 1.789537,2.399827 1.400463,3.851961 a 0.46304178,0.46307006 0 0 0 0.328154,0.566375 0.46304178,0.46307006 0 0 0 0.566384,-0.328147 C 17.004642,4.3646617 16.297516,2.4258267 14.7498,1.3420377 13.975943,0.80014167 13.075206,0.52916667 12.172127,0.52916667 Z m 5.29e-4,2.75228803 c -0.94567,0 -1.72138,0.773581 -1.72138,1.719792 a 0.36386439,0.36407239 0 0 0 0.363294,0.363802 0.36386439,0.36407239 0 0 0 0.36536,-0.363802 c 0,-0.552691 0.440351,-0.992706 0.992725,-0.992706 0.552372,0 0.992208,0.440015 0.992208,0.992706 a 0.36386439,0.36407239 0 0 0 0.363294,0.363802 0.36386439,0.36407239 0 0 0 0.362776,-0.363802 c 0,-0.946211 -0.772611,-1.719792 -1.718277,-1.719792 z" />
  </g>
</svg>
