<?xml version="1.0" encoding="UTF-8" standalone="no"?>
<svg
   xmlns:dc="http://purl.org/dc/elements/1.1/"
   xmlns:cc="http://creativecommons.org/ns#"
   xmlns:rdf="http://www.w3.org/1999/02/22-rdf-syntax-ns#"
   xmlns:svg="http://www.w3.org/2000/svg"
   xmlns="http://www.w3.org/2000/svg"
   xmlns:sodipodi="http://sodipodi.sourceforge.net/DTD/sodipodi-0.dtd"
   xmlns:inkscape="http://www.inkscape.org/namespaces/inkscape"
   width="64"
   height="64"
   viewBox="0 0 64 64"
   version="1.1"
   id="svg6374"
   inkscape:version="1.0.2 (e86c870879, 2021-01-15)"
   sodipodi:docname="show-dialogs-symbolic.svg">
  <defs
     id="defs6368" />
  <sodipodi:namedview
     id="base"
     pagecolor="#cecece"
     bordercolor="#666666"
     borderopacity="1.0"
     inkscape:pageopacity="0"
     inkscape:pageshadow="2"
     inkscape:zoom="2.5474209"
     inkscape:cx="8.9391144"
     inkscape:cy="12.040898"
     inkscape:document-units="px"
     inkscape:current-layer="layer1"
     inkscape:document-rotation="0"
     showgrid="false"
     units="px"
     inkscape:window-width="1500"
     inkscape:window-height="970"
     inkscape:window-x="68"
     inkscape:window-y="56"
     inkscape:window-maximized="0" />
  <metadata
     id="metadata6371">
    <rdf:RDF>
      <cc:Work
         rdf:about="">
        <dc:format>image/svg+xml</dc:format>
        <dc:type
           rdf:resource="http://purl.org/dc/dcmitype/StillImage" />
        <dc:title></dc:title>
      </cc:Work>
    </rdf:RDF>
  </metadata>
  <g
     inkscape:label="Layer 1"
     inkscape:groupmode="layer"
     id="layer1">
    <path
       id="rect1052-2-1-8"
       style="fill:#808084;fill-opacity:1;stroke:none;stroke-linecap:round;stroke-linejoin:round;stroke-dashoffset:2.1875"
       d="M 6.9999997,2 C 3.676,2 1,4.676 1,8 v 48 c 0,3.324 2.676,6 5.9999997,6 H 57 c 3.324,0 6,-2.676 6,-6 V 8 C 63,4.676 60.324,2 57,2 Z m 2.5,5.5 H 54.5 c 1.662,0 3,1.338 3,3 v 43 c 0,1.662 -1.338,3 -3,3 H 9.4999997 c -1.662,0 -3,-1.338 -3,-3 v -43 c 0,-1.662 1.338,-3 3,-3 z" />
    <circle
       style="fill:#808084;fill-opacity:1;stroke:none;stroke-width:0.60512;stroke-linecap:round;stroke-linejoin:round;stroke-dashoffset:2.1875"
       id="path1050-7"
       cx="49.75"
       cy="13.749999"
       r="2.75" />
  </g>
</svg>
