<?xml version="1.0" encoding="UTF-8" standalone="no"?>
<svg
   xmlns:dc="http://purl.org/dc/elements/1.1/"
   xmlns:cc="http://creativecommons.org/ns#"
   xmlns:rdf="http://www.w3.org/1999/02/22-rdf-syntax-ns#"
   xmlns:svg="http://www.w3.org/2000/svg"
   xmlns="http://www.w3.org/2000/svg"
   xmlns:sodipodi="http://sodipodi.sourceforge.net/DTD/sodipodi-0.dtd"
   xmlns:inkscape="http://www.inkscape.org/namespaces/inkscape"
   width="64"
   height="64"
   viewBox="0 0 16.933333 16.933334"
   version="1.1"
   id="svg841"
   inkscape:version="1.0.2 (e86c870879, 2021-01-15)"
   sodipodi:docname="skip-forward-symbolic.svg">
  <defs
     id="defs835" />
  <sodipodi:namedview
     id="base"
     pagecolor="#c4c4c4"
     bordercolor="#666666"
     borderopacity="1.0"
     inkscape:pageopacity="0"
     inkscape:pageshadow="2"
     inkscape:zoom="3.5451024"
     inkscape:cx="68.811251"
     inkscape:cy="38.515083"
     inkscape:document-units="px"
     inkscape:current-layer="layer1"
     inkscape:document-rotation="0"
     showgrid="false"
     units="px"
     inkscape:window-width="2048"
     inkscape:window-height="1080"
     inkscape:window-x="0"
     inkscape:window-y="0"
     inkscape:window-maximized="1" />
  <metadata
     id="metadata838">
    <rdf:RDF>
      <cc:Work
         rdf:about="">
        <dc:format>image/svg+xml</dc:format>
        <dc:type
           rdf:resource="http://purl.org/dc/dcmitype/StillImage" />
        <dc:title />
      </cc:Work>
    </rdf:RDF>
  </metadata>
  <g
     inkscape:label="Layer 1"
     inkscape:groupmode="layer"
     id="layer1">
    <path
       id="rect1112-8-8-4-3-3-3-0-9-8-2-64"
       style="fill:#808084;fill-opacity:1;stroke-width:1.19063;stroke-linecap:round;stroke-linejoin:round;stroke-dashoffset:2.1875"
       d="m 3.6045214,8.73923 c -0.624748,2.939211 1.238518,5.808389 4.1777265,6.433137 l 0.129402,0.0275 c 0.143375,0.03048 0.283335,-0.06042 0.313811,-0.203792 l 0.27505,-1.294008 c 0.03047,-0.143376 -0.06042,-0.283336 -0.203792,-0.313811 l -0.129401,-0.0275 C 6.2317414,12.949406 5.0047124,11.059878 5.4161324,9.1243 5.7651084,7.4824962 7.1780569,6.3548942 8.7800049,6.3001712 l -10e-5,0.124659 -5.18e-4,-1.1e-4 6.5e-5,2.1570998 5.19e-4,1.1e-4 -8.5e-5,0.276288 c -4e-6,0.154024 0.106354,0.277833 0.23838,0.277842 0.01959,-2.6e-5 0.03807,-0.0035 0.05626,-0.0087 0.0011,1.1e-5 0.0019,1.61e-4 0.0031,1.27e-4 0.01315,-0.0041 0.02594,-0.0089 0.03809,-0.01515 0.01431,-0.0074 0.02802,-0.01679 0.04067,-0.02728 L 13.351515,5.6583602 c 0.06624,-0.05407 0.09773,-0.139665 0.09791,-0.226966 -1.7e-5,-0.08745 -0.03167,-0.173214 -0.09801,-0.227401 L 9.1546229,1.7761053 c -0.01244,-0.01021 -0.02538,-0.01843 -0.03942,-0.02581 -0.01297,-0.0065 -0.02687,-0.01174 -0.04096,-0.01607 -5.42e-4,7e-6 -6.22e-4,3.81e-4 -0.0012,2.88e-4 -0.01346,-0.0031 -0.02764,-0.0068 -0.04189,-0.0068 -2.04e-4,10e-7 -0.0012,1.6e-4 -0.0017,1.86e-4 -0.004,-3.5e-5 -0.0075,-3.65e-4 -0.01157,-3.12e-4 -0.132023,1e-6 -0.238194,0.123981 -0.238184,0.277982 l -1.64e-4,0.207062 -5.18e-4,-1.1e-4 -7e-5,2.2273359 5.18e-4,1.1e-4 3.28e-4,0.0038 C 6.3193174,4.4965372 4.1394004,6.2228222 3.6045214,8.73923 Z" />
  </g>
</svg>
