<?xml version="1.0" encoding="UTF-8" standalone="no"?>
<svg
   xmlns:dc="http://purl.org/dc/elements/1.1/"
   xmlns:cc="http://creativecommons.org/ns#"
   xmlns:rdf="http://www.w3.org/1999/02/22-rdf-syntax-ns#"
   xmlns:svg="http://www.w3.org/2000/svg"
   xmlns="http://www.w3.org/2000/svg"
   xmlns:sodipodi="http://sodipodi.sourceforge.net/DTD/sodipodi-0.dtd"
   xmlns:inkscape="http://www.inkscape.org/namespaces/inkscape"
   width="64"
   height="64"
   viewBox="0 0 16.933333 16.933334"
   version="1.1"
   id="svg841"
   inkscape:version="1.0.2 (e86c870879, 2021-01-15)"
   sodipodi:docname="tag-new-symbolic.svg">
  <defs
     id="defs835" />
  <sodipodi:namedview
     id="base"
     pagecolor="#c4c4c4"
     bordercolor="#666666"
     borderopacity="1.0"
     inkscape:pageopacity="0"
     inkscape:pageshadow="2"
     inkscape:zoom="5.5369997"
     inkscape:cx="12.304872"
     inkscape:cy="48.039352"
     inkscape:document-units="px"
     inkscape:current-layer="layer1"
     inkscape:document-rotation="0"
     showgrid="false"
     units="px"
     inkscape:window-width="2048"
     inkscape:window-height="1080"
     inkscape:window-x="0"
     inkscape:window-y="0"
     inkscape:window-maximized="1" />
  <metadata
     id="metadata838">
    <rdf:RDF>
      <cc:Work
         rdf:about="">
        <dc:format>image/svg+xml</dc:format>
        <dc:type
           rdf:resource="http://purl.org/dc/dcmitype/StillImage" />
        <dc:title />
      </cc:Work>
    </rdf:RDF>
  </metadata>
  <g
     inkscape:label="Layer 1"
     inkscape:groupmode="layer"
     id="layer1">
    <path
       id="path1070-6-7-0-7-1-8-7-5"
       style="display:inline;fill:#808084;fill-opacity:1;stroke-width:0.672026;stroke-linecap:round;stroke-linejoin:round;stroke-dashoffset:2.1875"
       d="M 1.1461749,1.1448177 C 0.85920784,1.4317583 0.68209584,1.828337 0.68209584,2.2680771 v 4.7623522 c 0,0.43992 0.1765564,0.836678 0.46370866,1.123638 v 2.64e-4 l 4.2120345,4.2120507 1.9417771,1.941769 c 0.00265,0.0021 0.00265,0.005 0.0045,0.007 l 1.4897633,1.489771 c 0.105568,0.105558 0.274187,0.107299 0.377825,0.004 l 0.584649,-0.584649 c 0.103664,-0.103651 0.101918,-0.272273 -0.0037,-0.377831 L 9.1950444,14.288822 8.2628904,13.356671 2.1036023,7.1973623 v -0.0011 c -0.1436952,-0.143481 -0.23241,-0.34122 -0.23241,-0.561271 V 2.6659787 c 0,-0.4397507 0.3539331,-0.7936706 0.7936706,-0.7936706 l 3.9697759,-7.938e-4 c 0.220054,-7.9e-6 0.4181475,0.089001 0.5616311,0.2327619 l 1.4104675,1.41047 c 0,5.292e-4 0,0.00212 0.0026,0.00212 L 10.0991,5.0066265 c 0.105568,0.1055714 0.274187,0.1073097 0.377851,0.004 l 0.58465,-0.5846498 c 0.103683,-0.1036586 0.101937,-0.2722776 -0.0037,-0.3778384 L 10.500307,3.4905183 9.5681804,2.5583701 8.1562311,1.146429 V 1.1461644 C 7.8692376,0.85902527 7.4721774,0.68209577 7.0322282,0.68209577 l -4.761627,-5.291e-4 c -0.4397375,0 -0.8366919,0.1774904 -1.1236325,0.46443103 z M 3.7120512,3.7187479 A 1.3229104,1.322917 0 0 0 3.3283525,4.6498167 1.3229104,1.322917 0 0 0 4.6515073,5.9729473 1.3229104,1.322917 0 0 0 5.9746357,4.6498087 1.3229104,1.322917 0 0 0 4.6515073,3.3266777 1.3229104,1.322917 0 0 0 3.7120512,3.7187479 Z" />
    <path
       id="rect1673-3-3-9"
       style="display:inline;fill:#808084;fill-opacity:1;stroke-width:0;stroke-dashoffset:2.1875"
       d="m 12.303125,6.0854167 c -0.146579,0 -0.264583,0.118004 -0.264583,0.264583 v 2.778125 H 9.2604174 c -0.14658,0 -0.264584,0.118004 -0.264584,0.264584 v 1.3229153 c 0,0.146579 0.118004,0.264584 0.264584,0.264584 h 2.7781246 v 2.778125 c 0,0.146579 0.118004,0.264583 0.264583,0.264583 h 1.322917 c 0.146579,0 0.264583,-0.118004 0.264583,-0.264583 v -2.778125 h 2.778125 c 0.146579,0 0.264583,-0.118005 0.264583,-0.264584 V 9.3927087 c 0,-0.14658 -0.118004,-0.264584 -0.264583,-0.264584 h -2.778125 v -2.778125 c 0,-0.146579 -0.118004,-0.264583 -0.264583,-0.264583 z" />
  </g>
</svg>
