<?xml version="1.0" encoding="UTF-8" standalone="no"?>
<svg
   xmlns:dc="http://purl.org/dc/elements/1.1/"
   xmlns:cc="http://creativecommons.org/ns#"
   xmlns:rdf="http://www.w3.org/1999/02/22-rdf-syntax-ns#"
   xmlns:svg="http://www.w3.org/2000/svg"
   xmlns="http://www.w3.org/2000/svg"
   xmlns:sodipodi="http://sodipodi.sourceforge.net/DTD/sodipodi-0.dtd"
   xmlns:inkscape="http://www.inkscape.org/namespaces/inkscape"
   width="64"
   height="64"
   viewBox="0 0 16.933333 16.933334"
   version="1.1"
   id="svg841"
   inkscape:version="1.0.2 (e86c870879, 2021-01-15)"
   sodipodi:docname="tool-measure-symbolic.svg">
  <defs
     id="defs835" />
  <sodipodi:namedview
     id="base"
     pagecolor="#c4c4c4"
     bordercolor="#666666"
     borderopacity="1.0"
     inkscape:pageopacity="0"
     inkscape:pageshadow="2"
     inkscape:zoom="5.7391493"
     inkscape:cx="17.577159"
     inkscape:cy="32.816918"
     inkscape:document-units="px"
     inkscape:current-layer="layer1"
     inkscape:document-rotation="0"
     showgrid="false"
     units="px"
     inkscape:window-width="2048"
     inkscape:window-height="1080"
     inkscape:window-x="0"
     inkscape:window-y="0"
     inkscape:window-maximized="1" />
  <metadata
     id="metadata838">
    <rdf:RDF>
      <cc:Work
         rdf:about="">
        <dc:format>image/svg+xml</dc:format>
        <dc:type
           rdf:resource="http://purl.org/dc/dcmitype/StillImage" />
        <dc:title />
      </cc:Work>
    </rdf:RDF>
  </metadata>
  <g
     inkscape:label="Layer 1"
     inkscape:groupmode="layer"
     id="layer1">
    <path
       id="rect1066-3"
       style="fill:#808084;fill-opacity:1;stroke-width:0;stroke-linecap:round;stroke-linejoin:round;stroke-dashoffset:2.1875"
       d="m 3.1749997,0.52916667 c -0.146579,0 -0.264583,0.1180041 -0.264583,0.2645833 V 1.4552084 c 0,0.1465791 0.118004,0.2645833 0.264583,0.2645833 h 4.696354 v 2.5466146 h -2.315104 c -0.146579,0 -0.264583,0.1180042 -0.264583,0.2645834 V 5.192448 c 0,0.1465792 0.118004,0.2645834 0.264583,0.2645834 h 2.315104 v 2.2820313 h -5.490104 c -0.146579,0 -0.264583,0.1180042 -0.264583,0.2645833 v 0.9260417 c 0,0.1465792 0.118004,0.2645834 0.264583,0.2645834 h 5.490104 v 2.2820309 h -2.315104 c -0.146579,0 -0.264583,0.118004 -0.264583,0.264584 v 0.661458 c 0,0.146579 0.118004,0.264583 0.264583,0.264583 h 2.315104 v 2.546615 h -4.696354 c -0.146579,0 -0.264583,0.118004 -0.264583,0.264583 v 0.661459 c 0,0.146579 0.118004,0.264583 0.264583,0.264583 h 4.960938 0.661458 4.9609373 c 0.14658,0 0.264584,-0.118004 0.264584,-0.264583 v -0.661459 c 0,-0.146579 -0.118004,-0.264583 -0.264584,-0.264583 H 9.0619787 v -2.546615 h 2.3151043 c 0.146579,0 0.264584,-0.118004 0.264584,-0.264583 v -0.661458 c 0,-0.14658 -0.118005,-0.264584 -0.264584,-0.264584 H 9.0619787 V 9.1942711 h 5.4901043 c 0.14658,0 0.264584,-0.1180042 0.264584,-0.2645834 V 8.003646 c 0,-0.1465791 -0.118004,-0.2645833 -0.264584,-0.2645833 H 9.0619787 V 5.4570314 h 2.3151043 c 0.146579,0 0.264584,-0.1180042 0.264584,-0.2645834 V 4.5309897 c 0,-0.1465792 -0.118005,-0.2645834 -0.264584,-0.2645834 H 9.0619787 V 1.7197917 h 4.6963543 c 0.14658,0 0.264584,-0.1180042 0.264584,-0.2645833 V 0.79374997 c 0,-0.1465792 -0.118004,-0.2645833 -0.264584,-0.2645833 H 8.7973957 8.1359377 Z" />
  </g>
</svg>
