<?xml version="1.0" encoding="UTF-8" standalone="no"?>
<svg
   xmlns:dc="http://purl.org/dc/elements/1.1/"
   xmlns:cc="http://creativecommons.org/ns#"
   xmlns:rdf="http://www.w3.org/1999/02/22-rdf-syntax-ns#"
   xmlns:svg="http://www.w3.org/2000/svg"
   xmlns="http://www.w3.org/2000/svg"
   xmlns:sodipodi="http://sodipodi.sourceforge.net/DTD/sodipodi-0.dtd"
   xmlns:inkscape="http://www.inkscape.org/namespaces/inkscape"
   width="64"
   height="64"
   viewBox="0 0 16.933333 16.933334"
   version="1.1"
   id="svg841"
   inkscape:version="1.0.2 (e86c870879, 2021-01-15)"
   sodipodi:docname="transform-skew-vertical-symbolic.svg">
  <defs
     id="defs835" />
  <sodipodi:namedview
     id="base"
     pagecolor="#c4c4c4"
     bordercolor="#666666"
     borderopacity="1.0"
     inkscape:pageopacity="0"
     inkscape:pageshadow="2"
     inkscape:zoom="5.9484002"
     inkscape:cx="26.157268"
     inkscape:cy="41.076003"
     inkscape:document-units="px"
     inkscape:current-layer="layer1"
     inkscape:document-rotation="0"
     showgrid="false"
     units="px"
     inkscape:window-width="2048"
     inkscape:window-height="1080"
     inkscape:window-x="0"
     inkscape:window-y="0"
     inkscape:window-maximized="1" />
  <metadata
     id="metadata838">
    <rdf:RDF>
      <cc:Work
         rdf:about="">
        <dc:format>image/svg+xml</dc:format>
        <dc:type
           rdf:resource="http://purl.org/dc/dcmitype/StillImage" />
        <dc:title />
      </cc:Work>
    </rdf:RDF>
  </metadata>
  <g
     inkscape:label="Layer 1"
     inkscape:groupmode="layer"
     id="layer1">
    <rect
       style="opacity:0.25;fill:#808084;fill-opacity:1;stroke-width:0;stroke-linecap:round;stroke-linejoin:round;stroke-dashoffset:2.1875"
       id="rect2685-7-3-9"
       width="8.4469109"
       height="7.9375"
       x="9.0100393"
       y="8.2848864"
       rx="0.98547298"
       ry="0.92604166"
       transform="matrix(0.93969262,-0.34202014,0,1,0,0)" />
    <path
       id="rect2685-2-5-6-4"
       style="fill:#808084;fill-opacity:1;stroke-width:0;stroke-linecap:round;stroke-linejoin:round;stroke-dashoffset:2.1875"
       d="m 9.3927083,4.8662222 c -0.513027,0.18672 -0.9260419,0.75006 -0.9260419,1.26309 v 6.0854198 c 0,0.51303 0.4130149,0.77571 0.9260419,0.58899 l 6.0854177,-2.21492 c 0.513027,-0.18672 0.926041,-0.7500598 0.926041,-1.2630898 v -6.08542 c 0,-0.51303 -0.413014,-0.77571 -0.926041,-0.58899 z m 0.7276047,0.92579 4.630209,-1.68526 c 0.256513,-0.0934 0.46302,0.038 0.46302,0.2945 v 4.63021 c 0,0.25652 -0.206507,0.53818 -0.46302,0.63154 l -4.630209,1.6852598 c -0.2565137,0.0934 -0.4630217,-0.038 -0.4630217,-0.2945 V 6.4235522 c 0,-0.25651 0.206508,-0.53818 0.4630217,-0.63154 z" />
    <path
       id="rect1790-5-2-3-3-8-5-1-9-0-7"
       style="fill:#808084;fill-opacity:1;stroke-width:1.85208;stroke-dashoffset:2.1875"
       d="M 7.0776037,12.765323 H 4.3986977 V 8.2566823 c 0,-0.14658 -0.118004,-0.26458 -0.264584,-0.26458 h -0.661458 c -0.146579,0 -0.264583,0.118 -0.264583,0.26458 V 12.765323 H 0.52916667 l 1.82417903,1.82413 1.262971,1.26242 c 0.103661,0.10364 0.270465,0.10364 0.374137,0 l 1.262972,-1.26242 z" />
  </g>
</svg>
