<?xml version="1.0" encoding="UTF-8" standalone="no"?>
<svg
   xmlns:dc="http://purl.org/dc/elements/1.1/"
   xmlns:cc="http://creativecommons.org/ns#"
   xmlns:rdf="http://www.w3.org/1999/02/22-rdf-syntax-ns#"
   xmlns:svg="http://www.w3.org/2000/svg"
   xmlns="http://www.w3.org/2000/svg"
   xmlns:sodipodi="http://sodipodi.sourceforge.net/DTD/sodipodi-0.dtd"
   xmlns:inkscape="http://www.inkscape.org/namespaces/inkscape"
   width="64"
   height="64"
   viewBox="0 0 16.933333 16.933334"
   version="1.1"
   id="svg841"
   inkscape:version="1.0.2 (e86c870879, 2021-01-15)"
   sodipodi:docname="transform-scale-horizontal-symbolic.svg">
  <defs
     id="defs835" />
  <sodipodi:namedview
     id="base"
     pagecolor="#c4c4c4"
     bordercolor="#666666"
     borderopacity="1.0"
     inkscape:pageopacity="0"
     inkscape:pageshadow="2"
     inkscape:zoom="4.0852415"
     inkscape:cx="-19.69384"
     inkscape:cy="-1.6401787"
     inkscape:document-units="px"
     inkscape:current-layer="layer1"
     inkscape:document-rotation="0"
     showgrid="false"
     units="px"
     inkscape:window-width="2048"
     inkscape:window-height="1080"
     inkscape:window-x="0"
     inkscape:window-y="0"
     inkscape:window-maximized="1" />
  <metadata
     id="metadata838">
    <rdf:RDF>
      <cc:Work
         rdf:about="">
        <dc:format>image/svg+xml</dc:format>
        <dc:type
           rdf:resource="http://purl.org/dc/dcmitype/StillImage" />
        <dc:title />
      </cc:Work>
    </rdf:RDF>
  </metadata>
  <g
     inkscape:label="Layer 1"
     inkscape:groupmode="layer"
     id="layer1">
    <rect
       style="opacity:0.25;fill:#808084;fill-opacity:1;stroke-width:0;stroke-linecap:round;stroke-linejoin:round;stroke-dashoffset:2.1875"
       id="rect2685-7-6"
       width="7.9375"
       height="7.9375"
       x="4.4981313"
       y="8.4666662"
       rx="0.92604166"
       ry="0.92604166" />
    <path
       id="rect2685-2-5-2"
       style="fill:#808084;fill-opacity:1;stroke-width:0;stroke-linecap:round;stroke-linejoin:round;stroke-dashoffset:2.1875"
       d="m 5.4241723,8.4666657 c -0.5130271,0 -0.9260417,0.413015 -0.9260417,0.926042 v 6.0854173 c 0,0.513027 0.4130146,0.926042 0.9260417,0.926042 H 11.50959 c 0.513027,0 0.926041,-0.413015 0.926041,-0.926042 V 9.3927077 c 0,-0.513027 -0.413014,-0.926042 -0.926041,-0.926042 z m 0.7276046,1.190625 h 4.6302091 c 0.256513,0 0.46302,0.206507 0.46302,0.4630213 v 4.630209 c 0,0.256514 -0.206507,0.463021 -0.46302,0.463021 H 6.1517769 c -0.256514,0 -0.4630213,-0.206507 -0.4630213,-0.463021 v -4.630209 c 0,-0.2565143 0.2065073,-0.4630213 0.4630213,-0.4630213 z" />
    <path
       id="rect1790-5-2-3-3-8-79"
       style="fill:#808084;fill-opacity:1;stroke-width:1.85208;stroke-dashoffset:2.1875"
       d="M 4.4877007,0.52916667 2.6630604,2.3533437 1.4006429,3.6163167 c -0.1036349,0.103672 -0.1036349,0.270476 0,0.374137 l 1.2624175,1.262973 1.8246403,1.824177 v -2.678906 h 7.9579323 v 2.678906 l 1.82464,-1.824177 1.262418,-1.262973 c 0.103635,-0.103661 0.103635,-0.270465 0,-0.374137 L 14.270273,2.3533437 12.445633,0.52916667 V 3.2080727 H 4.4877007 Z" />
  </g>
</svg>
