<?xml version="1.0" encoding="UTF-8" standalone="no"?>
<svg
   xmlns:dc="http://purl.org/dc/elements/1.1/"
   xmlns:cc="http://creativecommons.org/ns#"
   xmlns:rdf="http://www.w3.org/1999/02/22-rdf-syntax-ns#"
   xmlns:svg="http://www.w3.org/2000/svg"
   xmlns="http://www.w3.org/2000/svg"
   xmlns:sodipodi="http://sodipodi.sourceforge.net/DTD/sodipodi-0.dtd"
   xmlns:inkscape="http://www.inkscape.org/namespaces/inkscape"
   width="64"
   height="64"
   viewBox="0 0 16.933333 16.933334"
   version="1.1"
   id="svg841"
   inkscape:version="1.0.2 (e86c870879, 2021-01-15)"
   sodipodi:docname="view-presentation-symbolic.svg">
  <defs
     id="defs835" />
  <sodipodi:namedview
     id="base"
     pagecolor="#c4c4c4"
     bordercolor="#666666"
     borderopacity="1.0"
     inkscape:pageopacity="0"
     inkscape:pageshadow="2"
     inkscape:zoom="2.8903394"
     inkscape:cx="46.372831"
     inkscape:cy="36.927888"
     inkscape:document-units="px"
     inkscape:current-layer="layer1"
     inkscape:document-rotation="0"
     showgrid="false"
     units="px"
     inkscape:window-width="2048"
     inkscape:window-height="1080"
     inkscape:window-x="0"
     inkscape:window-y="0"
     inkscape:window-maximized="1" />
  <metadata
     id="metadata838">
    <rdf:RDF>
      <cc:Work
         rdf:about="">
        <dc:format>image/svg+xml</dc:format>
        <dc:type
           rdf:resource="http://purl.org/dc/dcmitype/StillImage" />
        <dc:title></dc:title>
      </cc:Work>
    </rdf:RDF>
  </metadata>
  <g
     inkscape:label="Layer 1"
     inkscape:groupmode="layer"
     id="layer1">
    <path
       id="rect896-3-36-7-2"
       style="fill:#808084;fill-opacity:1;stroke-width:0;stroke-linecap:round;stroke-linejoin:round;stroke-dashoffset:2.1875"
       d="M 3.7041692,-2.5000001e-7 C 1.6520602,-2.5000001e-7 2.25e-6,1.6520577 2.25e-6,3.7041667 v 9.5250003 c 0,2.052108 1.65205795,3.704167 3.70416695,3.704167 h 9.5250018 c 2.05211,0 3.70416,-1.652059 3.70416,-3.704167 V 3.7041667 c 0,-2.052109 -1.65205,-3.70416695000001 -3.70416,-3.70416695000001 z M 5.7097312,3.7041667 l 0.002,5.29e-4 c 0.004,0 0.008,5.29e-4 0.0124,5.29e-4 0.0172,2.01e-4 0.034,0.0016 0.0512,0.0026 0.0152,0.0011 0.031,0.0019 0.046,0.0036 0.0105,0.0013 0.0205,0.0031 0.031,0.0047 0.0223,0.0033 0.0449,0.007 0.0667,0.01188 0,2.65e-4 0.002,2.65e-4 0.002,5.29e-4 0.0951,0.02133 0.18436,0.05689 0.26614,0.104389 l 6.5210498,3.782713 c 0.1003,0.05085 0.19238,0.120068 0.27078,0.20619 0.0172,0.01892 0.0333,0.03939 0.0491,0.05994 0.004,0.0055 0.009,0.01 0.0135,0.01551 0.011,0.01484 0.0207,0.03086 0.031,0.04651 0.008,0.01161 0.0152,0.02323 0.0222,0.03514 0.002,0.0039 0.005,0.0073 0.007,0.01138 0.005,0.0096 0.01,0.01924 0.015,0.02894 0.008,0.01506 0.0162,0.03003 0.0233,0.04548 0.006,0.01312 0.0111,0.02651 0.0171,0.03979 0.006,0.01479 0.0121,0.0299 0.0171,0.04496 0.006,0.01535 0.009,0.0305 0.0145,0.04599 0.004,0.01442 0.008,0.0288 0.0124,0.04341 0.003,0.01479 0.006,0.02961 0.009,0.04444 0.003,0.01553 0.006,0.03084 0.008,0.04651 0.002,0.0159 0.003,0.03214 0.005,0.04806 0.002,0.01355 0.004,0.02673 0.004,0.04031 0.002,0.01635 0.002,0.03279 0.002,0.04909 0,0.01614 -6e-5,0.03242 -0.002,0.04857 -0.002,0.01381 -0.002,0.0276 -0.004,0.04134 -0.002,0.0155 -0.003,0.03099 -0.005,0.04651 -0.002,0.01624 -0.006,0.03196 -0.009,0.04806 -0.003,0.0145 -0.005,0.02898 -0.009,0.04341 -0.003,0.01492 -0.008,0.02974 -0.0119,0.04444 -0.004,0.01476 -0.009,0.02929 -0.0145,0.04392 -0.006,0.01675 -0.0126,0.03317 -0.0196,0.04961 -0.005,0.01146 -0.01,0.02326 -0.015,0.03462 -0.007,0.01601 -0.0158,0.03141 -0.0238,0.04703 -0.005,0.0097 -0.008,0.01976 -0.0145,0.02945 -0.003,0.0046 -0.006,0.0084 -0.009,0.01291 -0.006,0.0098 -0.0126,0.01934 -0.0186,0.02894 -0.011,0.01717 -0.0225,0.0344 -0.0346,0.05064 -0.004,0.006 -0.009,0.01167 -0.0139,0.01757 -0.0904,0.116544 -0.20221,0.208317 -0.32815,0.270267 0,2.65e-4 -0.002,2.65e-4 -0.002,5.29e-4 l -6.5034798,3.7728953 -0.005,0.0031 c -0.081,0.04702 -0.16905,0.08249 -0.26303,0.10387 0,1.56e-4 -0.002,7.94e-4 -0.004,0.0011 -0.002,0 -0.002,5.29e-4 -0.002,5.29e-4 -0.0193,0.0043 -0.0386,0.0072 -0.0584,0.01035 -0.0144,0.0024 -0.029,0.0051 -0.0434,0.0067 -0.012,0.0013 -0.0245,0.0016 -0.0367,0.0026 -0.0192,0.0013 -0.0382,0.0024 -0.0574,0.0026 -0.004,0 -0.008,5.29e-4 -0.0119,5.29e-4 -0.009,0 -0.0183,-5.29e-4 -0.0274,-0.0011 -0.0184,-5.29e-4 -0.0366,-0.0016 -0.0548,-0.0031 -0.0162,-0.0013 -0.0323,-0.0029 -0.0481,-0.0052 -0.0126,-0.0019 -0.0253,-0.0039 -0.0377,-0.0062 -0.0211,-0.0038 -0.0414,-0.0083 -0.062,-0.01344 -0.008,-0.0021 -0.0156,-0.0034 -0.0233,-0.0057 -0.0243,-0.0067 -0.0483,-0.01466 -0.0718,-0.02326 -0.003,-0.0013 -0.008,-0.003 -0.0109,-0.0041 -0.027,-0.01024 -0.0533,-0.02204 -0.0791,-0.03462 -0.0274,-0.01336 -0.0538,-0.02756 -0.0796,-0.04341 -0.0263,-0.01614 -0.0515,-0.03416 -0.076,-0.05271 -0.0248,-0.01879 -0.0485,-0.03833 -0.0713,-0.05943 -0.15763,-0.14596 -0.26558,-0.344815 -0.29611,-0.569473 0,-0.0064 -0.003,-0.01273 -0.003,-0.01913 -10e-4,-0.01717 -10e-4,-0.03473 -0.003,-0.05219 0,-0.01603 -0.003,-0.03205 -0.003,-0.04806 v -0.01138 -7.6196913 c 0,-0.0038 -4e-5,-0.007 0,-0.01085 0,-0.01582 5.2e-4,-0.03171 0.003,-0.04754 0,-0.01789 0.001,-0.03564 0.003,-0.05323 0,-0.0058 -1.2e-4,-0.01125 0.003,-0.01707 0.0431,-0.320611 0.24355,-0.588959 0.52142,-0.725537 0.002,-7.94e-4 0.003,-0.0016 0.005,-0.0026 0.0248,-0.01201 0.0505,-0.02328 0.0765,-0.03307 0.003,-0.0013 0.007,-0.0026 0.0104,-0.0036 0.024,-0.0088 0.0485,-0.01699 0.0734,-0.02379 0.006,-0.0019 0.0123,-0.003 0.0186,-0.0047 0.0218,-0.0055 0.0438,-0.01048 0.0661,-0.01447 0.0114,-0.0021 0.0232,-0.0036 0.0346,-0.0052 0.018,-0.0024 0.0359,-0.0054 0.0543,-0.0067 0.0148,-0.0013 0.0296,-0.0016 0.0444,-0.0021 0.0115,-5.29e-4 0.0226,-0.0021 0.0341,-0.0021 z" />
  </g>
</svg>
