<?xml version="1.0" encoding="UTF-8" standalone="no"?>
<svg
   xmlns:dc="http://purl.org/dc/elements/1.1/"
   xmlns:cc="http://creativecommons.org/ns#"
   xmlns:rdf="http://www.w3.org/1999/02/22-rdf-syntax-ns#"
   xmlns:svg="http://www.w3.org/2000/svg"
   xmlns="http://www.w3.org/2000/svg"
   xmlns:sodipodi="http://sodipodi.sourceforge.net/DTD/sodipodi-0.dtd"
   xmlns:inkscape="http://www.inkscape.org/namespaces/inkscape"
   width="64"
   height="64"
   viewBox="0 0 16.933333 16.933334"
   version="1.1"
   id="svg841"
   inkscape:version="1.0.2 (e86c870879, 2021-01-15)"
   sodipodi:docname="window-unpin-symbolic.svg">
  <defs
     id="defs835" />
  <sodipodi:namedview
     id="base"
     pagecolor="#c4c4c4"
     bordercolor="#666666"
     borderopacity="1.0"
     inkscape:pageopacity="0"
     inkscape:pageshadow="2"
     inkscape:zoom="2.8903394"
     inkscape:cx="46.372831"
     inkscape:cy="36.927888"
     inkscape:document-units="px"
     inkscape:current-layer="layer1"
     inkscape:document-rotation="0"
     showgrid="false"
     units="px"
     inkscape:window-width="2048"
     inkscape:window-height="1080"
     inkscape:window-x="0"
     inkscape:window-y="0"
     inkscape:window-maximized="1" />
  <metadata
     id="metadata838">
    <rdf:RDF>
      <cc:Work
         rdf:about="">
        <dc:format>image/svg+xml</dc:format>
        <dc:type
           rdf:resource="http://purl.org/dc/dcmitype/StillImage" />
        <dc:title></dc:title>
      </cc:Work>
    </rdf:RDF>
  </metadata>
  <g
     inkscape:label="Layer 1"
     inkscape:groupmode="layer"
     id="layer1">
    <path
       id="rect901-6-7-27"
       style="display:inline;fill:#808084;fill-opacity:1;stroke-width:1.32291;stroke-linecap:round;stroke-linejoin:round;stroke-dashoffset:2.1875"
       d="m 1.8811674,0 c -0.236696,0 -0.47334,0.09095 -0.654738,0.272333 -0.36276996,0.3627619 -0.36276996,0.9467059 0,1.3094679 L 15.351159,15.706912 c 0.362769,0.36276 0.947234,0.362757 1.309977,0 0.362771,-0.362764 0.362771,-0.94671 0,-1.309472 L 2.5359054,0.272333 C 2.3545334,0.090951 2.1178904,0 1.8811674,0 Z" />
    <path
       id="rect851-3-2-6-3-7-9-1"
       style="opacity:0.5;fill:#808084;fill-opacity:1;stroke-width:0.926069;stroke-linecap:round;stroke-linejoin:round"
       d="m 12.575456,0.2328962 a 4.1011374,4.1011162 88.516039 0 0 -2.8758447,1.200988 4.1011374,4.1011162 88.516039 0 0 -0.605659,5.0287513 l -0.271307,0.301797 1.3461957,1.346203 0.301796,-0.271308 a 4.1011374,4.1011162 88.516039 0 0 5.028724,-0.605662 4.1011374,4.1011162 88.516039 0 0 0,-5.7997813 4.1011374,4.1011162 88.516039 0 0 -2.923905,-1.200988 z m -5.7036317,8.6973463 -2.413849,2.6810355 -0.0072,0.0088 h -5.29e-4 l -3.189033,3.800375 h 5.16e-4 l -0.41910296,0.499721 -0.609793,0.780333 0.78032796,-0.609796 0.49972,-0.419106 3.800354,-3.18851 v -5.29e-4 l 0.0088,-0.0072 2.681023,-2.413863 z" />
  </g>
</svg>
