<?xml version="1.0" encoding="UTF-8" standalone="no"?>
<svg
   xmlns:dc="http://purl.org/dc/elements/1.1/"
   xmlns:cc="http://creativecommons.org/ns#"
   xmlns:rdf="http://www.w3.org/1999/02/22-rdf-syntax-ns#"
   xmlns:svg="http://www.w3.org/2000/svg"
   xmlns="http://www.w3.org/2000/svg"
   xmlns:sodipodi="http://sodipodi.sourceforge.net/DTD/sodipodi-0.dtd"
   xmlns:inkscape="http://www.inkscape.org/namespaces/inkscape"
   width="64"
   height="64"
   viewBox="0 0 64 64.000003"
   version="1.1"
   id="svg1461"
   inkscape:version="1.0.2 (e86c870879, 2021-01-15)"
   sodipodi:docname="xml-attribute-delete-symbolic.svg">
  <defs
     id="defs1455" />
  <sodipodi:namedview
     id="base"
     pagecolor="#c4c4c4"
     bordercolor="#666666"
     borderopacity="1.0"
     inkscape:pageopacity="0"
     inkscape:pageshadow="2"
     inkscape:zoom="4.1717316"
     inkscape:cx="24.823413"
     inkscape:cy="46.747521"
     inkscape:document-units="px"
     inkscape:current-layer="layer1"
     inkscape:document-rotation="0"
     showgrid="false"
     units="px"
     inkscape:window-width="2048"
     inkscape:window-height="1080"
     inkscape:window-x="0"
     inkscape:window-y="0"
     inkscape:window-maximized="1" />
  <metadata
     id="metadata1458">
    <rdf:RDF>
      <cc:Work
         rdf:about="">
        <dc:format>image/svg+xml</dc:format>
        <dc:type
           rdf:resource="http://purl.org/dc/dcmitype/StillImage" />
        <dc:title />
      </cc:Work>
    </rdf:RDF>
  </metadata>
  <g
     inkscape:label="Layer 1"
     inkscape:groupmode="layer"
     id="layer1">
    <path
       id="path1337"
       style="fill:#cb2a58;fill-opacity:1;stroke-width:0;stroke-linecap:round;stroke-linejoin:round;stroke-dashoffset:2.1875"
       d="M 48.88672,34.000107 A 15,15 0 0 0 34,49.000108 a 15,15 0 0 0 15,15 15,15 0 0 0 15,-15 15,15 0 0 0 -15,-15.000001 15,15 0 0 0 -0.11328,0 z m -6.49024,4.91992 c 0.25562,0 0.51117,0.0971 0.70704,0.29297 L 49,45.109488 l 5.89648,-5.89649 c 0.39174,-0.39177 1.02233,-0.39177 1.41407,0 l 2.47461,2.47656 c 0.39173,0.391759 0.39173,1.0223 0,1.41407 l -5.89649,5.89648 5.89844,5.896479 c 0.39174,0.39177 0.39174,1.02231 0,1.41407 l -2.47656,2.47656 c -0.39174,0.391751 -1.02233,0.391751 -1.41407,0 L 49,52.888777 l -5.89648,5.89844 c -0.39174,0.391751 -1.02233,0.391751 -1.41407,0 l -2.47656,-2.47656 c -0.39175,-0.391759 -0.39175,-1.0223 0,-1.41407 l 5.89844,-5.896479 -5.89649,-5.89648 c -0.39173,-0.39177 -0.39173,-1.02231 0,-1.41407 l 2.47461,-2.47656 c 0.19587,-0.195881 0.45142,-0.29297 0.70703,-0.292971 z"
       class="error" />
    <path
       id="rect2657-6"
       style="fill:#808084;stroke:none;stroke-width:0;stroke-linecap:round;stroke-linejoin:round;stroke-dashoffset:2.1875;fill-opacity:1"
       d="M 8,1 C 4.122,1 1,4.122 1,8.0000003 V 56 c 0,3.878 3.122,7 7,7 h 10 1 9.000003 c 0.554,0 1,-0.446 1,-1 v -1.5 c 0,-0.554 -0.446,-1 -1,-1 H 19 18 8 C 6.061,59.5 4.5,57.938999 4.5,56 V 8.0000003 C 4.5,6.061 6.061,4.5 8,4.5 h 48.000003 c 1.939,0 3.5,1.561 3.5,3.5000003 V 18 v 1 9 c 0,0.554 0.446,1 1,1 h 1.5 c 0.554,0 1,-0.446 1,-1 V 19 18 8.0000003 C 63.000003,4.122 59.878003,1 56.000003,1 Z" />
    <path
       id="rect1031-56-3"
       style="fill:#808084;fill-opacity:1;stroke-width:3.24964;stroke-linecap:round;stroke-linejoin:round;stroke-dashoffset:2.1875"
       d="M 18.9192,8 8,38 h 5.9863 l 2.5293,-6.9494 H 28.3344 L 30.8638,38 h 5.9863 L 25.9309,8 Z m 3.5058,6.814 3.8623,10.6116 h -7.7246 z" />
  </g>
</svg>
