<?xml version="1.0" encoding="UTF-8" standalone="no"?>
<svg
   xmlns:dc="http://purl.org/dc/elements/1.1/"
   xmlns:cc="http://creativecommons.org/ns#"
   xmlns:rdf="http://www.w3.org/1999/02/22-rdf-syntax-ns#"
   xmlns:svg="http://www.w3.org/2000/svg"
   xmlns="http://www.w3.org/2000/svg"
   xmlns:sodipodi="http://sodipodi.sourceforge.net/DTD/sodipodi-0.dtd"
   xmlns:inkscape="http://www.inkscape.org/namespaces/inkscape"
   width="64"
   height="64"
   viewBox="0 0 16.933333 16.933334"
   version="1.1"
   id="svg841"
   inkscape:version="1.0.2 (e86c870879, 2021-01-15)"
   sodipodi:docname="xml-node-duplicate-symbolic.svg">
  <defs
     id="defs835" />
  <sodipodi:namedview
     id="base"
     pagecolor="#c4c4c4"
     bordercolor="#666666"
     borderopacity="1.0"
     inkscape:pageopacity="0"
     inkscape:pageshadow="2"
     inkscape:zoom="6.7433256"
     inkscape:cx="52.287283"
     inkscape:cy="52.977128"
     inkscape:document-units="px"
     inkscape:current-layer="layer1"
     inkscape:document-rotation="0"
     showgrid="false"
     units="px"
     inkscape:window-width="2048"
     inkscape:window-height="1080"
     inkscape:window-x="0"
     inkscape:window-y="0"
     inkscape:window-maximized="1" />
  <metadata
     id="metadata838">
    <rdf:RDF>
      <cc:Work
         rdf:about="">
        <dc:format>image/svg+xml</dc:format>
        <dc:type
           rdf:resource="http://purl.org/dc/dcmitype/StillImage" />
        <dc:title />
      </cc:Work>
    </rdf:RDF>
  </metadata>
  <g
     inkscape:label="Layer 1"
     inkscape:groupmode="layer"
     id="layer1">
    <path
       id="rect848-7-3-1-7-8"
       style="opacity:0.15;fill:#808084;fill-opacity:1;stroke-width:0;stroke-linecap:round;stroke-linejoin:round;stroke-dashoffset:2.1875"
       d="M 1.852084,0 C 0.82603,0 0,0.826029 0,1.852083 v 6.8130208 1.191659 0.131258 C 0,11.014076 0.82603,11.840104 1.852084,11.840104 H 3.175001 V 9.8567628 8.6651038 5.027083 C 3.175001,4.001029 4.00103,3.175 5.027084,3.175 h 3.638021 0.785998 2.389002 V 1.852083 C 11.840105,0.826029 11.014076,0 9.988022,0 H 9.451103 8.665105 Z" />
    <path
       id="rect848-7-3-0-2"
       style="fill:#808084;stroke-width:0;stroke-linecap:round;stroke-linejoin:round;stroke-dashoffset:2.1875;fill-opacity:1"
       d="M 5.027083,3.175 C 4.001029,3.175 3.175,4.00103 3.175,5.027084 v 10.054167 c 0,1.026054 0.826029,1.852083 1.852083,1.852083 h 10.054163 c 1.02606,0 1.85209,-0.826029 1.85209,-1.852083 V 5.027084 c 0,-1.026054 -0.82603,-1.852084 -1.85209,-1.852084 z m 0.264584,1.190625 h 9.524999 c 0.51303,0 0.92604,0.413015 0.92604,0.926042 v 9.525 c 0,0.513027 -0.41301,0.926042 -0.92604,0.926042 H 5.291667 c -0.513027,0 -0.926042,-0.413015 -0.926042,-0.926042 v -9.525 c 0,-0.513027 0.413015,-0.926042 0.926042,-0.926042 z" />
    <path
       id="rect2009-3-4-4-7-1-6"
       style="display:inline;fill:#808084;fill-opacity:1;stroke-width:1.85208;stroke-dashoffset:2.1875"
       d="M 1.8520844,0 C 0.8260302,0 1e-6,0.8260291 1e-6,1.8520834 v 2.7052612 3.9754682 0.518314 0.745175 0.05943 0.132291 c 0,1.0260502 0.8260292,1.8520842 1.8520834,1.8520842 H 1.984376 2.7693419 3.3072927 c 0.1465792,0 0.2645834,-0.118005 0.2645834,-0.264584 v -0.661458 c 0,-0.146579 -0.1180042,-0.264583 -0.2645834,-0.264583 H 2.7693419 2.1166677 c -0.5130271,0 -0.9260417,-0.413016 -0.9260417,-0.9260422 v -0.672311 -0.518314 -5.6223961 -0.79375 c 0,-0.5130271 0.4130146,-0.9260417 0.9260417,-0.9260417 h 0.79375 3.7439573 1.878439 0.651639 0.538986 c 0.513027,0 0.926041,0.4130146 0.926041,0.9260417 v 0.6723105 0.5183145 c 0,0.1465792 0.118005,0.2645834 0.264584,0.2645834 h 0.661458 c 0.146579,0 0.264583,-0.1180042 0.264583,-0.2645834 V 2.7889772 1.9843751 1.8520834 C 11.840105,0.8260291 11.014076,0 9.988022,0 H 9.85573 9.184453 8.532814 6.654375 2.9104177 Z" />
    <path
       id="rect853-5-9-6"
       style="opacity:1;fill:#808084;fill-opacity:1;stroke-width:0.595313"
       d="M 8.8087254,7.7564143 C 8.6286288,7.6432553 8.3916627,7.6419293 8.2059251,7.7719923 l -2.6545329,1.859202 c -0.00495,0.003 -0.00958,0.0066 -0.01442,0.0098 l -0.013123,0.0093 c -0.00527,0.0037 -0.00915,0.0084 -0.014261,0.01224 -0.020532,0.01558 -0.040529,0.03175 -0.059,0.05048 -0.012647,0.01266 -0.023495,0.02643 -0.034679,0.04006 -0.00833,0.01026 -0.017912,0.01883 -0.025638,0.02985 -0.0028,0.004 -0.00423,0.0086 -0.00696,0.01264 -0.011853,0.01778 -0.021537,0.03644 -0.031155,0.0553 -0.00648,0.01278 -0.013441,0.02531 -0.018838,0.03839 -0.00791,0.01911 -0.01352,0.03867 -0.019182,0.05848 -0.00418,0.01466 -0.00939,0.02906 -0.012303,0.04391 -0.00415,0.02096 -0.0055,0.04228 -0.00714,0.0636 -0.00106,0.01274 -0.00296,0.02538 -0.00302,0.0381 -1.614e-4,0.02215 0.0027,0.044 0.00527,0.06614 0.00159,0.01304 0.00185,0.02613 0.00437,0.03902 0.00439,0.02302 0.011536,0.04562 0.018997,0.06817 0.00336,0.01018 0.00587,0.02056 0.00984,0.03055 0.00876,0.02203 0.020373,0.04301 0.032189,0.06417 0.0059,0.01058 0.010901,0.02148 0.017568,0.03169 0.00365,0.0056 0.00585,0.01169 0.00971,0.0172 0.012118,0.01732 0.026884,0.03138 0.040539,0.04684 0.00508,0.0057 0.00942,0.01191 0.014764,0.01744 0.023416,0.0244 0.048718,0.04596 0.075496,0.06516 0.00132,0.001 0.00238,0.0022 0.00392,0.0032 l 0.00445,0.0031 c 0.00844,0.0058 0.016378,0.01228 0.025082,0.01756 l 2.6525565,1.857341 C 8.454072,12.59433 8.7930377,12.53456 8.9664403,12.286914 9.1398456,12.039268 9.0800762,11.700301 8.8324289,11.526899 L 6.7894227,10.096376 8.8317044,8.6662673 C 9.0793491,8.4928633 9.1393619,8.1539023 8.9659593,7.9062563 8.9226073,7.8443433 8.8687805,7.7941503 8.8087465,7.7564313 Z" />
    <path
       id="rect853-5-9-6-3"
       style="opacity:1;fill:#808084;fill-opacity:1;stroke-width:0.595313"
       d="m 11.634045,7.7564143 c 0.180097,-0.113159 0.417063,-0.114485 0.6028,0.01558 l 2.654533,1.859202 c 0.0049,0.003 0.0096,0.0066 0.01442,0.0098 l 0.01312,0.0093 c 0.0053,0.0037 0.0091,0.0084 0.01426,0.01224 0.02053,0.01558 0.04053,0.03175 0.059,0.05048 0.01265,0.01266 0.0235,0.02643 0.03468,0.04006 0.0083,0.01026 0.01791,0.01883 0.02564,0.02985 0.0028,0.004 0.0042,0.0086 0.007,0.01264 0.01185,0.01778 0.02154,0.03644 0.03116,0.0553 0.0065,0.01278 0.01344,0.02531 0.01884,0.03839 0.0079,0.01911 0.01352,0.03867 0.01918,0.05848 0.0042,0.01466 0.0094,0.02906 0.0123,0.04391 0.0042,0.02096 0.0055,0.04228 0.0071,0.0636 0.0011,0.01274 0.003,0.02538 0.003,0.0381 1.62e-4,0.02215 -0.0027,0.044 -0.0053,0.06614 -0.0016,0.01304 -0.0018,0.02613 -0.0044,0.03902 -0.0044,0.02302 -0.01154,0.04562 -0.019,0.06817 -0.0034,0.01018 -0.0059,0.02056 -0.0098,0.03055 -0.0088,0.02203 -0.02037,0.04301 -0.03219,0.06417 -0.0059,0.01058 -0.0109,0.02148 -0.01757,0.03169 -0.0037,0.0056 -0.0059,0.01169 -0.0097,0.0172 -0.01212,0.01732 -0.02688,0.03138 -0.04054,0.04684 -0.0051,0.0057 -0.0094,0.01191 -0.01476,0.01744 -0.02342,0.0244 -0.04872,0.04596 -0.0755,0.06516 -0.0013,10e-4 -0.0024,0.0022 -0.0039,0.0032 l -0.0045,0.0031 c -0.0084,0.0058 -0.01638,0.01228 -0.02508,0.01756 l -2.652556,1.857341 c -0.247647,0.173405 -0.586613,0.113635 -0.760016,-0.134011 -0.173405,-0.247646 -0.113636,-0.586613 0.134012,-0.760015 l 2.043006,-1.430524 -2.042282,-1.4301089 c -0.247645,-0.173404 -0.307657,-0.512365 -0.134255,-0.760011 0.04335,-0.06191 0.09718,-0.112106 0.157213,-0.149825 z" />
  </g>
</svg>
