<?xml version="1.0" encoding="UTF-8" standalone="no"?>
<svg
   xmlns:dc="http://purl.org/dc/elements/1.1/"
   xmlns:cc="http://creativecommons.org/ns#"
   xmlns:rdf="http://www.w3.org/1999/02/22-rdf-syntax-ns#"
   xmlns:svg="http://www.w3.org/2000/svg"
   xmlns="http://www.w3.org/2000/svg"
   xmlns:sodipodi="http://sodipodi.sourceforge.net/DTD/sodipodi-0.dtd"
   xmlns:inkscape="http://www.inkscape.org/namespaces/inkscape"
   width="64"
   height="64"
   viewBox="0 0 64 64.000003"
   version="1.1"
   id="svg1461"
   inkscape:version="1.0.2 (e86c870879, 2021-01-15)"
   sodipodi:docname="xml-cdata-symbolic.svg">
  <defs
     id="defs1455" />
  <sodipodi:namedview
     id="base"
     pagecolor="#c4c4c4"
     bordercolor="#666666"
     borderopacity="1.0"
     inkscape:pageopacity="0"
     inkscape:pageshadow="2"
     inkscape:zoom="4.636981"
     inkscape:cx="33.496514"
     inkscape:cy="15.345337"
     inkscape:document-units="px"
     inkscape:current-layer="layer1"
     inkscape:document-rotation="0"
     showgrid="false"
     units="px"
     inkscape:window-width="2048"
     inkscape:window-height="1080"
     inkscape:window-x="0"
     inkscape:window-y="0"
     inkscape:window-maximized="1" />
  <metadata
     id="metadata1458">
    <rdf:RDF>
      <cc:Work
         rdf:about="">
        <dc:format>image/svg+xml</dc:format>
        <dc:type
           rdf:resource="http://purl.org/dc/dcmitype/StillImage" />
        <dc:title />
      </cc:Work>
    </rdf:RDF>
  </metadata>
  <g
     inkscape:label="Layer 1"
     inkscape:groupmode="layer"
     id="layer1">
    <path
       id="rect2657"
       style="fill:#808084;stroke:none;stroke-width:0;stroke-linecap:round;stroke-linejoin:round;stroke-dashoffset:2.1875;fill-opacity:1"
       d="m 8,1.0000004 c -3.878,0 -7,3.122 -7,7 V 56 c 0,3.878 3.122,7 7,7 h 48 c 3.878,0 7,-3.122 7,-7 V 8.0000004 c 0,-3.878 -3.122,-7 -7,-7 z m 0,3.5 h 48 c 1.939,0 3.5,1.561 3.5,3.5 V 56 c 0,1.939 -1.561,3.5 -3.5,3.5 H 8 C 6.061001,59.5 4.5,57.939 4.5,56 V 8.0000004 c 0,-1.939 1.561001,-3.5 3.5,-3.5 z" />
    <path
       id="path2015-6"
       style="color:#000000;font-style:normal;font-variant:normal;font-weight:normal;font-stretch:normal;font-size:medium;line-height:normal;font-family:sans-serif;font-variant-ligatures:normal;font-variant-position:normal;font-variant-caps:normal;font-variant-numeric:normal;font-variant-alternates:normal;font-variant-east-asian:normal;font-feature-settings:normal;font-variation-settings:normal;text-indent:0;text-align:start;text-decoration:none;text-decoration-line:none;text-decoration-style:solid;text-decoration-color:#000000;letter-spacing:normal;word-spacing:normal;text-transform:none;writing-mode:lr-tb;direction:ltr;text-orientation:mixed;dominant-baseline:auto;baseline-shift:baseline;text-anchor:start;white-space:normal;shape-padding:0;shape-margin:0;inline-size:0;clip-rule:nonzero;display:inline;overflow:visible;visibility:visible;isolation:auto;mix-blend-mode:normal;color-interpolation:sRGB;color-interpolation-filters:linearRGB;solid-color:#000000;solid-opacity:1;vector-effect:none;fill:#808084;fill-opacity:1;fill-rule:nonzero;stroke:none;stroke-width:0.834391;stroke-linecap:butt;stroke-linejoin:miter;stroke-miterlimit:4;stroke-dasharray:none;stroke-dashoffset:2.1875;stroke-opacity:1;color-rendering:auto;image-rendering:auto;shape-rendering:auto;text-rendering:auto;enable-background:accumulate;stop-color:#000000"
       d="m 34.156869,12.000024 c -0.34954,8.32e-4 -0.69965,0.01324 -1.04952,0.03589 -1.866,0.121353 -3.73049,0.554246 -5.52456,1.321663 -7.17651,3.069634 -11.647288,10.521275 -11.647288,18.641754 0,8.120498 4.470778,15.573757 11.647288,18.643398 7.17652,3.069624 15.48342,0.789621 20.48171,-5.395827 l -5.84071,-4.719513 c -3.09208,3.826501 -7.57695,4.968884 -11.68801,3.210437 -4.11115,-1.758445 -7.09075,-6.386574 -7.09075,-11.738495 0,-5.351911 2.9796,-9.978413 7.09075,-11.73686 4.11106,-1.758436 8.59593,-0.616063 11.68801,3.210448 l 5.84071,-4.719523 c -3.51437,-4.349126 -8.66486,-6.767948 -13.90763,-6.75333 z" />
  </g>
</svg>
