<?xml version="1.0" encoding="UTF-8" standalone="no"?>
<svg
   xmlns:dc="http://purl.org/dc/elements/1.1/"
   xmlns:cc="http://creativecommons.org/ns#"
   xmlns:rdf="http://www.w3.org/1999/02/22-rdf-syntax-ns#"
   xmlns:svg="http://www.w3.org/2000/svg"
   xmlns="http://www.w3.org/2000/svg"
   xmlns:sodipodi="http://sodipodi.sourceforge.net/DTD/sodipodi-0.dtd"
   xmlns:inkscape="http://www.inkscape.org/namespaces/inkscape"
   width="64"
   height="64"
   viewBox="0 0 64 64.000003"
   version="1.1"
   id="svg8"
   inkscape:version="1.0.2 (e86c870879, 2021-01-15)"
   sodipodi:docname="zoom-fit-best-symbolic.svg">
  <defs
     id="defs2" />
  <sodipodi:namedview
     id="base"
     pagecolor="#c3c3c3"
     bordercolor="#666666"
     borderopacity="1.0"
     inkscape:pageopacity="0"
     inkscape:pageshadow="2"
     inkscape:zoom="6.588527"
     inkscape:cx="72.543755"
     inkscape:cy="33.664188"
     inkscape:document-units="px"
     inkscape:current-layer="layer1"
     inkscape:document-rotation="0"
     showgrid="false"
     units="px"
     inkscape:window-width="2048"
     inkscape:window-height="1080"
     inkscape:window-x="0"
     inkscape:window-y="0"
     inkscape:window-maximized="1" />
  <metadata
     id="metadata5">
    <rdf:RDF>
      <cc:Work
         rdf:about="">
        <dc:format>image/svg+xml</dc:format>
        <dc:type
           rdf:resource="http://purl.org/dc/dcmitype/StillImage" />
        <dc:title />
      </cc:Work>
    </rdf:RDF>
  </metadata>
  <g
     inkscape:label="Layer 1"
     inkscape:groupmode="layer"
     id="layer1">
    <path
       id="rect2009-36-0-3-3-35-0-6-1-3"
       style="display:inline;fill:#808084;fill-opacity:1;stroke-width:6.99999;stroke-dashoffset:2.1875"
       d="m 8.999998,1.9999995 c -3.878,0 -6.999999,3.1219965 -6.999999,7 v 0.5 3.0410155 1.958984 10.499999 c 0,0.554 0.446,1.000003 0.999999,1.000003 h 2.499999 c 0.553999,0 1.000002,-0.446003 1.000002,-1.000003 V 13.499999 12.541015 9.9999995 c 0,-1.939 1.560998,-3.5000002 3.499997,-3.5000002 h 2.4668 1.033202 0.999998 10.500005 c 0.554,0 1,-0.4460005 1,-0.9999999 v -2.5 c 0,-0.5540031 -0.446,-0.9999999 -1,-0.9999999 H 14.499996 13.499998 12.466796 9.499999 Z m 30.000003,0 c -0.554,0 -1,0.4459968 -1,0.9999999 v 2.5 c 0,0.5539994 0.446,0.9999999 1,0.9999999 h 11.5 0.95898 2.54102 c 1.939,0 3.5,1.5610002 3.5,3.5000002 v 2.4667965 1.033203 1 10.499999 c 0,0.554 0.446,1.000003 1,1.000003 h 2.5 c 0.554,0 1,-0.446003 1,-1.000003 v -10.499999 -1 -1.033203 -2.9667965 -0.5 c 0,-3.8780035 -3.122,-7 -7,-7 h -0.5 -3.04102 -1.95898 z M 2.999998,38.000001 c -0.553999,0 -0.999999,0.445999 -0.999999,0.999998 v 10.5 0.999999 1.033206 V 54.5 54.999998 C 1.999999,58.877997 5.121998,62 8.999998,62 h 0.500001 3.041015 1.958982 10.500005 c 0.554,0 1,-0.446003 1,-1.000001 V 58.5 c 0,-0.553999 -0.446,-1 -1,-1 H 13.499998 12.541014 9.999996 C 8.060997,57.5 6.499999,55.939 6.499999,54 V 51.533205 50.499999 49.5 39 c 0,-0.553999 -0.446003,-0.999998 -1.000002,-0.999998 z m 55.500003,0 c -0.554,0 -1,0.445999 -1,0.999998 v 11.499999 0.958987 2.541014 c 0,1.939 -1.561,3.500001 -3.5,3.500001 h -2.4668 -1.0332 -1 -10.5 c -0.554,0 -1,0.446 -1,0.999999 v 2.499999 c 0,0.553999 0.446,1.000002 1,1.000002 h 10.5 1 1.0332 2.9668 0.5 c 3.878,0 7,-3.122003 7,-7.000002 V 54.5 v -3.041015 -1.958986 -10.5 c 0,-0.553999 -0.446,-0.999998 -1,-0.999998 z" />
  </g>
</svg>
