<?xml version="1.0" encoding="UTF-8" standalone="no"?>
<svg
   xmlns:dc="http://purl.org/dc/elements/1.1/"
   xmlns:cc="http://creativecommons.org/ns#"
   xmlns:rdf="http://www.w3.org/1999/02/22-rdf-syntax-ns#"
   xmlns:svg="http://www.w3.org/2000/svg"
   xmlns="http://www.w3.org/2000/svg"
   xmlns:sodipodi="http://sodipodi.sourceforge.net/DTD/sodipodi-0.dtd"
   xmlns:inkscape="http://www.inkscape.org/namespaces/inkscape"
   width="64"
   height="64"
   viewBox="0 0 16.933333 16.933334"
   version="1.1"
   id="svg841"
   inkscape:version="1.0.2 (e86c870879, 2021-01-15)"
   sodipodi:docname="zoom-center-page-symbolic.svg">
  <defs
     id="defs835" />
  <sodipodi:namedview
     id="base"
     pagecolor="#c4c4c4"
     bordercolor="#666666"
     borderopacity="1.0"
     inkscape:pageopacity="0"
     inkscape:pageshadow="2"
     inkscape:zoom="6.6365717"
     inkscape:cx="59.141512"
     inkscape:cy="41.783303"
     inkscape:document-units="px"
     inkscape:current-layer="layer1"
     inkscape:document-rotation="0"
     showgrid="false"
     units="px"
     inkscape:window-width="2048"
     inkscape:window-height="1080"
     inkscape:window-x="0"
     inkscape:window-y="0"
     inkscape:window-maximized="1" />
  <metadata
     id="metadata838">
    <rdf:RDF>
      <cc:Work
         rdf:about="">
        <dc:format>image/svg+xml</dc:format>
        <dc:type
           rdf:resource="http://purl.org/dc/dcmitype/StillImage" />
        <dc:title />
      </cc:Work>
    </rdf:RDF>
  </metadata>
  <g
     inkscape:label="Layer 1"
     inkscape:groupmode="layer"
     id="layer1">
    <path
       id="rect2009-3-4-4"
       style="display:inline;fill:#808084;fill-opacity:1;stroke-width:1.85208;stroke-dashoffset:2.1875"
       d="m 2.3812501,0.52916667 c -1.0260542,0 -1.85208343,0.82602903 -1.85208343,1.85208303 V 14.552092 c 0,1.026054 0.82602923,1.852083 1.85208343,1.852083 H 14.552083 c 1.026055,0 1.852084,-0.826029 1.852084,-1.852083 V 2.3812497 c 0,-1.026054 -0.826029,-1.85208303 -1.852084,-1.85208303 z M 2.6458334,1.7197917 H 14.2875 c 0.513027,0 0.926042,0.413014 0.926042,0.926041 V 14.287508 c 0,0.513027 -0.413015,0.926042 -0.926042,0.926042 H 2.6458334 c -0.5130271,0 -0.9260417,-0.413015 -0.9260417,-0.926042 V 2.6458327 c 0,-0.513027 0.4130146,-0.926041 0.9260417,-0.926041 z" />
    <path
       id="rect2972-6"
       style="fill:#808084;fill-opacity:1;stroke-width:0;stroke-linecap:round;stroke-linejoin:round;stroke-dashoffset:2.1875;opacity:1"
       d="m 5.55625,4.7625 c -0.4397375,0 -0.79375,0.3540125 -0.79375,0.79375 v 5.820833 c 0,0.439738 0.3540125,0.79375 0.79375,0.79375 h 5.820834 c 0.439737,0 0.79375,-0.354012 0.79375,-0.79375 V 5.55625 c 0,-0.4397375 -0.354013,-0.79375 -0.79375,-0.79375 z M 6.35,5.953125 h 4.233334 c 0.219868,0 0.396875,0.1770063 0.396875,0.396875 v 4.233333 c 0,0.219869 -0.177007,0.396875 -0.396875,0.396875 H 6.35 c -0.2198687,0 -0.396875,-0.177006 -0.396875,-0.396875 V 6.35 c 0,-0.2198687 0.1770063,-0.396875 0.396875,-0.396875 z" />
  </g>
</svg>
