<?xml version="1.0" encoding="UTF-8" standalone="no"?>
<svg
   xmlns:dc="http://purl.org/dc/elements/1.1/"
   xmlns:cc="http://creativecommons.org/ns#"
   xmlns:rdf="http://www.w3.org/1999/02/22-rdf-syntax-ns#"
   xmlns:svg="http://www.w3.org/2000/svg"
   xmlns="http://www.w3.org/2000/svg"
   xmlns:sodipodi="http://sodipodi.sourceforge.net/DTD/sodipodi-0.dtd"
   xmlns:inkscape="http://www.inkscape.org/namespaces/inkscape"
   width="64"
   height="64"
   viewBox="0 0 64 64.000003"
   version="1.1"
   id="svg8"
   inkscape:version="1.0.2 (e86c870879, 2021-01-15)"
   sodipodi:docname="zoom-next-symbolic.svg">
  <defs
     id="defs2" />
  <sodipodi:namedview
     id="base"
     pagecolor="#c3c3c3"
     bordercolor="#666666"
     borderopacity="1.0"
     inkscape:pageopacity="0"
     inkscape:pageshadow="2"
     inkscape:zoom="3.1447315"
     inkscape:cx="44.666959"
     inkscape:cy="44.714802"
     inkscape:document-units="px"
     inkscape:current-layer="layer1"
     inkscape:document-rotation="0"
     showgrid="false"
     units="px"
     inkscape:window-width="2048"
     inkscape:window-height="1080"
     inkscape:window-x="0"
     inkscape:window-y="0"
     inkscape:window-maximized="1" />
  <metadata
     id="metadata5">
    <rdf:RDF>
      <cc:Work
         rdf:about="">
        <dc:format>image/svg+xml</dc:format>
        <dc:type
           rdf:resource="http://purl.org/dc/dcmitype/StillImage" />
        <dc:title />
      </cc:Work>
    </rdf:RDF>
  </metadata>
  <g
     inkscape:label="Layer 1"
     inkscape:groupmode="layer"
     id="layer1">
    <path
       id="rect2009-3-4-4-2"
       style="display:inline;fill:#808084;fill-opacity:1;stroke-width:7;stroke-dashoffset:2.1875"
       d="M 9,2 C 5.122,2 2,5.122 2,9 v 46.00003 c 0,3.878 3.122,7 7,7 h 46 c 3.878,0 7,-3.122 7,-7 V 9 C 62,5.122 58.878,2 55,2 Z m 1,4.5 h 44 c 1.939,0 3.5,1.561 3.5,3.5 v 44.00003 c 0,1.939 -1.561,3.5 -3.5,3.5 H 10 c -1.939,0 -3.5,-1.561 -3.5,-3.5 V 10 C 6.5,8.061 8.061,6.5 10,6.5 Z" />
    <path
       id="rect1523-7-6-3-2-1-20-3"
       style="display:inline;fill:#808084;stroke-width:0;stroke-linecap:round;stroke-linejoin:round;stroke-dashoffset:2.1875;fill-opacity:1"
       d="m 32.082031,15.874417 c -0.763939,0.06684 -1.502953,0.425919 -2.037109,1.062504 -1.068313,1.273172 -0.902072,3.158263 0.371094,4.22658 l 9.33789,7.835971 H 16 c -1.662,0 -3,1.338005 -3,3.000012 0,1.662007 1.338,3.000013 3,3.000013 h 23.753906 l -9.339844,7.837924 c -1.273165,1.068316 -1.437453,2.953408 -0.36914,4.226579 1.068313,1.273172 2.953397,1.43746 4.226562,0.369143 L 49.859375,34.35301 c 0.0014,-0.0011 0.0025,-0.0028 0.0039,-0.0039 l 0.06055,-0.05078 c 0.02165,-0.01817 0.03758,-0.03996 0.05859,-0.05859 0.08731,-0.07727 0.16836,-0.159206 0.246094,-0.246094 0.02092,-0.02343 0.04607,-0.04022 0.06641,-0.06445 0.0092,-0.01102 0.01437,-0.02404 0.02344,-0.03516 0.02712,-0.0331 0.05066,-0.06755 0.07617,-0.101562 0.06693,-0.08939 0.126823,-0.182519 0.183594,-0.279298 0.02327,-0.03951 0.05098,-0.07695 0.07227,-0.117189 0.01824,-0.03458 0.03202,-0.07032 0.04883,-0.105468 0.04694,-0.0983 0.08683,-0.198809 0.123047,-0.302737 0.01591,-0.04529 0.03713,-0.08897 0.05078,-0.134765 0.01181,-0.03984 0.01721,-0.08087 0.02734,-0.121095 0.02216,-0.08856 0.0386,-0.177993 0.05273,-0.269532 0.0096,-0.06096 0.0255,-0.120376 0.03125,-0.181642 0.0047,-0.0501 -2.41e-4,-0.10011 0.002,-0.150391 0.0019,-0.04429 0.01367,-0.08608 0.01367,-0.13086 0,-0.04286 -0.01,-0.08258 -0.01172,-0.125 -0.0023,-0.05607 -3.76e-4,-0.112126 -0.0059,-0.16797 -0.005,-0.05062 -0.01976,-0.09997 -0.02734,-0.150391 -0.01385,-0.09335 -0.0286,-0.185099 -0.05078,-0.275392 -0.01248,-0.05042 -0.02199,-0.100589 -0.03711,-0.150391 -0.01076,-0.03538 -0.02891,-0.06844 -0.04102,-0.103516 -0.0011,-0.0033 -0.0028,-0.0065 -0.0039,-0.0098 -0.03679,-0.106122 -0.07509,-0.210283 -0.123047,-0.310548 -0.01795,-0.03741 -0.03511,-0.07456 -0.05469,-0.111329 -0.01613,-0.03023 -0.03743,-0.05806 -0.05469,-0.08789 -0.0596,-0.103542 -0.122212,-0.203621 -0.19336,-0.298829 -0.02744,-0.03658 -0.05273,-0.07384 -0.08203,-0.109376 -0.0072,-0.0088 -0.01216,-0.01856 -0.01953,-0.02734 -0.01722,-0.02052 -0.039,-0.03474 -0.05664,-0.05469 -0.08015,-0.09051 -0.163434,-0.175665 -0.253906,-0.25586 -0.02101,-0.01863 -0.03694,-0.04043 -0.05859,-0.05859 L 34.271484,16.567779 C 33.634901,16.03362 32.84597,15.807581 32.082031,15.874417 Z" />
  </g>
</svg>
