<?xml version="1.0" encoding="UTF-8" standalone="no"?>
<svg
   xmlns:dc="http://purl.org/dc/elements/1.1/"
   xmlns:cc="http://creativecommons.org/ns#"
   xmlns:rdf="http://www.w3.org/1999/02/22-rdf-syntax-ns#"
   xmlns:svg="http://www.w3.org/2000/svg"
   xmlns="http://www.w3.org/2000/svg"
   xmlns:sodipodi="http://sodipodi.sourceforge.net/DTD/sodipodi-0.dtd"
   xmlns:inkscape="http://www.inkscape.org/namespaces/inkscape"
   width="64"
   height="64"
   viewBox="0 0 64 64.000003"
   version="1.1"
   id="svg1461"
   inkscape:version="1.0.2 (e86c870879, 2021-01-15)"
   sodipodi:docname="zoom-fit-height-symbolic.svg">
  <defs
     id="defs1455" />
  <sodipodi:namedview
     id="base"
     pagecolor="#c4c4c4"
     bordercolor="#666666"
     borderopacity="1.0"
     inkscape:pageopacity="0"
     inkscape:pageshadow="2"
     inkscape:zoom="4.0276672"
     inkscape:cx="-26.364786"
     inkscape:cy="82.535948"
     inkscape:document-units="px"
     inkscape:current-layer="layer1"
     inkscape:document-rotation="0"
     showgrid="false"
     units="px"
     inkscape:window-width="2048"
     inkscape:window-height="1080"
     inkscape:window-x="0"
     inkscape:window-y="0"
     inkscape:window-maximized="1" />
  <metadata
     id="metadata1458">
    <rdf:RDF>
      <cc:Work
         rdf:about="">
        <dc:format>image/svg+xml</dc:format>
        <dc:type
           rdf:resource="http://purl.org/dc/dcmitype/StillImage" />
        <dc:title></dc:title>
      </cc:Work>
    </rdf:RDF>
  </metadata>
  <g
     inkscape:label="Layer 1"
     inkscape:groupmode="layer"
     id="layer1">
    <path
       id="rect2009-3-4-4-0"
       style="display:inline;fill:#808084;fill-opacity:1;stroke-width:7;stroke-dashoffset:2.1875"
       d="M 9,2 C 5.122,2 2,5.122 2,9 v 46 c 0,3.878 3.122,7 7,7 h 46 c 3.878,0 7,-3.122 7,-7 V 9 C 62,5.122 58.878,2 55,2 Z m 1,4.5 h 44 c 1.939,0 3.5,1.561 3.5,3.5 v 44 c 0,1.939 -1.561,3.5 -3.5,3.5 H 10 C 8.061,57.5 6.5,55.939 6.5,54 V 10 C 6.5,8.061 8.061,6.5 10,6.5 Z" />
    <path
       id="rect868-6-3"
       style="display:inline;fill:#808084;fill-opacity:1;stroke-width:0;stroke-linecap:round;stroke-linejoin:round;stroke-dashoffset:2.1875"
       d="m 43.875,15 c 0,-0.554 -0.446,-1 -1,-1 h -8.625 -4.5 -8.625 c -0.554,0 -1,0.446 -1,1 v 2 c 0,0.554 0.446,1 1,1 h 8.625 v 28 h -8.625 c -0.554,0 -1,0.446 -1,1 v 2 c 0,0.554 0.446,1 1,1 h 21.75 c 0.554,0 1,-0.446 1,-1 v -2 c 0,-0.554 -0.446,-1 -1,-1 H 34.25 V 18 h 8.625 c 0.554,0 1,-0.446 1,-1 z" />
  </g>
</svg>
