<?xml version="1.0" encoding="UTF-8" standalone="no"?>
<svg
   xmlns:dc="http://purl.org/dc/elements/1.1/"
   xmlns:cc="http://creativecommons.org/ns#"
   xmlns:rdf="http://www.w3.org/1999/02/22-rdf-syntax-ns#"
   xmlns:svg="http://www.w3.org/2000/svg"
   xmlns="http://www.w3.org/2000/svg"
   xmlns:sodipodi="http://sodipodi.sourceforge.net/DTD/sodipodi-0.dtd"
   xmlns:inkscape="http://www.inkscape.org/namespaces/inkscape"
   width="64"
   height="64"
   viewBox="0 0 64 64"
   version="1.1"
   id="svg6374"
   inkscape:version="1.0.2 (e86c870879, 2021-01-15)"
   sodipodi:docname="go-last.svg">
  <defs
     id="defs6368" />
  <sodipodi:namedview
     id="base"
     pagecolor="#cecece"
     bordercolor="#666666"
     borderopacity="1.0"
     inkscape:pageopacity="0"
     inkscape:pageshadow="2"
     inkscape:zoom="6.8818909"
     inkscape:cx="20.896034"
     inkscape:cy="43.723975"
     inkscape:document-units="px"
     inkscape:current-layer="layer1"
     inkscape:document-rotation="0"
     showgrid="false"
     units="px"
     inkscape:window-width="1500"
     inkscape:window-height="970"
     inkscape:window-x="68"
     inkscape:window-y="56"
     inkscape:window-maximized="0" />
  <metadata
     id="metadata6371">
    <rdf:RDF>
      <cc:Work
         rdf:about="">
        <dc:format>image/svg+xml</dc:format>
        <dc:type
           rdf:resource="http://purl.org/dc/dcmitype/StillImage" />
        <dc:title />
      </cc:Work>
    </rdf:RDF>
  </metadata>
  <g
     inkscape:label="Layer 1"
     inkscape:groupmode="layer"
     id="layer1">
    <path
       style="color:#000000;font-style:normal;font-variant:normal;font-weight:normal;font-stretch:normal;font-size:medium;line-height:normal;font-family:sans-serif;font-variant-ligatures:normal;font-variant-position:normal;font-variant-caps:normal;font-variant-numeric:normal;font-variant-alternates:normal;font-variant-east-asian:normal;font-feature-settings:normal;font-variation-settings:normal;text-indent:0;text-align:start;text-decoration:none;text-decoration-line:none;text-decoration-style:solid;text-decoration-color:#000000;letter-spacing:normal;word-spacing:normal;text-transform:none;writing-mode:lr-tb;direction:ltr;text-orientation:mixed;dominant-baseline:auto;baseline-shift:baseline;text-anchor:start;white-space:normal;shape-padding:0;shape-margin:0;inline-size:0;clip-rule:nonzero;display:inline;overflow:visible;visibility:visible;opacity:0.075;isolation:auto;mix-blend-mode:normal;color-interpolation:sRGB;color-interpolation-filters:linearRGB;solid-color:#000000;solid-opacity:1;vector-effect:none;fill:#0c0c0c;fill-opacity:1;fill-rule:nonzero;stroke:none;stroke-width:0.94491;stroke-linecap:butt;stroke-linejoin:miter;stroke-miterlimit:4;stroke-dasharray:none;stroke-dashoffset:0;stroke-opacity:1;color-rendering:auto;image-rendering:auto;shape-rendering:auto;text-rendering:auto;enable-background:accumulate;stop-color:#000000"
       d="m 62.499999,57.94958 c 0,1.39539 -1.15328,2.55042 -2.54879,2.55042 h -6.40058 C 52.15513,60.5 51,59.34497 51,57.94958 V 8.05041 C 51,6.65502 52.15513,5.5 53.550629,5.5 h 6.40058 c 1.39551,0 2.54879,1.15502 2.54879,2.55041 z m -1.9988,0 V 8.05041 c 0,-0.32199 -0.22797,-0.54994 -0.54999,-0.54994 h -6.40058 c -0.322019,0 -0.549989,0.22795 -0.549989,0.54994 v 49.89917 c 0,0.322 0.22797,0.54995 0.549989,0.54995 h 6.40058 c 0.32202,0 0.54999,-0.22795 0.54999,-0.54995 z"
       id="rect850-3-2-0-3" />
    <rect
       style="fill:#978ee1;fill-opacity:1;stroke-width:8.9881"
       id="rect850-6-0"
       width="53"
       height="9.5"
       x="-58.499943"
       y="-61.499996"
       rx="1.5500001"
       ry="1.5500001"
       transform="matrix(0,-1,-1,0,0,0)" />
    <path
       style="color:#000000;font-style:normal;font-variant:normal;font-weight:normal;font-stretch:normal;font-size:medium;line-height:normal;font-family:sans-serif;font-variant-ligatures:normal;font-variant-position:normal;font-variant-caps:normal;font-variant-numeric:normal;font-variant-alternates:normal;font-variant-east-asian:normal;font-feature-settings:normal;font-variation-settings:normal;text-indent:0;text-align:start;text-decoration:none;text-decoration-line:none;text-decoration-style:solid;text-decoration-color:#000000;letter-spacing:normal;word-spacing:normal;text-transform:none;writing-mode:lr-tb;direction:ltr;text-orientation:mixed;dominant-baseline:auto;baseline-shift:baseline;text-anchor:start;white-space:normal;shape-padding:0;shape-margin:0;inline-size:0;clip-rule:nonzero;display:inline;overflow:visible;visibility:visible;opacity:0.85;isolation:auto;mix-blend-mode:normal;color-interpolation:sRGB;color-interpolation-filters:linearRGB;solid-color:#000000;solid-opacity:1;vector-effect:none;fill:#322791;fill-opacity:1;fill-rule:nonzero;stroke:none;stroke-width:0.94491;stroke-linecap:butt;stroke-linejoin:miter;stroke-miterlimit:4;stroke-dasharray:none;stroke-dashoffset:0;stroke-opacity:1;color-rendering:auto;image-rendering:auto;shape-rendering:auto;text-rendering:auto;enable-background:accumulate;stop-color:#000000"
       d="m 62.499999,56.94958 c 0,1.39539 -1.15328,2.55042 -2.54879,2.55042 h -6.40058 C 52.15513,59.5 51,58.34497 51,56.94958 V 7.05041 C 51,5.65502 52.15513,4.5 53.550629,4.5 h 6.40058 c 1.39551,0 2.54879,1.15502 2.54879,2.55041 z m -1.9988,0 V 7.05041 c 0,-0.32199 -0.22797,-0.54994 -0.54999,-0.54994 h -6.40058 c -0.322019,0 -0.549989,0.22795 -0.549989,0.54994 v 49.89917 c 0,0.322 0.22797,0.54995 0.549989,0.54995 h 6.40058 c 0.32202,0 0.54999,-0.22795 0.54999,-0.54995 z"
       id="rect850-3-1-7" />
    <path
       id="path1113-1-0-6-8-3-2-5-4-0-7-1-1-1-5-8"
       style="color:#000000;font-style:normal;font-variant:normal;font-weight:normal;font-stretch:normal;font-size:medium;line-height:normal;font-family:sans-serif;font-variant-ligatures:normal;font-variant-position:normal;font-variant-caps:normal;font-variant-numeric:normal;font-variant-alternates:normal;font-variant-east-asian:normal;font-feature-settings:normal;font-variation-settings:normal;text-indent:0;text-align:start;text-decoration:none;text-decoration-line:none;text-decoration-style:solid;text-decoration-color:#000000;letter-spacing:normal;word-spacing:normal;text-transform:none;writing-mode:lr-tb;direction:ltr;text-orientation:mixed;dominant-baseline:auto;baseline-shift:baseline;text-anchor:start;white-space:normal;shape-padding:0;shape-margin:0;inline-size:0;clip-rule:nonzero;display:inline;overflow:visible;visibility:visible;opacity:0.075;isolation:auto;mix-blend-mode:normal;color-interpolation:sRGB;color-interpolation-filters:linearRGB;solid-color:#000000;solid-opacity:1;vector-effect:none;fill:#0c0c0c;fill-opacity:1;fill-rule:nonzero;stroke:none;stroke-width:1.268;stroke-linecap:round;stroke-linejoin:round;stroke-miterlimit:4;stroke-dasharray:none;stroke-dashoffset:0;stroke-opacity:1;color-rendering:auto;image-rendering:auto;shape-rendering:auto;text-rendering:auto;enable-background:accumulate;stop-color:#000000"
       d="m 48.5,33.01149 c 0,-0.60425 -0.27328,-1.20928 -0.82021,-1.5918 L 27.57205,17.35605 c -0.34185,-0.23924 -0.75426,-0.36413 -1.17531,-0.35564 -1.0699,0.0215 -1.92814,0.90617 -1.928,1.94743 v 4.33632 3.36018 H 2.9956501 C 1.6291,26.64434 0.5,27.75178 0.5,29.09211 v 7.83632 c 0,1.34032 1.1291,2.44774 2.4956501,2.44774 H 24.46874 v 3.36021 4.33632 c 5.9e-4,1.50824 1.84562,2.47205 3.10331,1.59179 L 47.67979,34.60083 C 48.22672,34.21833 48.5,33.61572 48.5,33.01149 Z m -1.898,0 c 0,0.0198 -0.0115,0.0384 -0.0375,0.0564 L 26.45675,47.12911 c -0.0773,0.0542 -0.0675,0.0635 -0.0675,-0.0565 V 42.73629 38.43427 A 0.9603462,0.94192325 0 0 0 25.429,37.49245 H 2.9956701 c -0.3358,0 -0.5751601,-0.23476 -0.5751601,-0.5641 v -7.83631 c 0,-0.32936 0.2393601,-0.56412 0.5751601,-0.56412 H 25.429 a 0.9603462,0.94192325 0 0 0 0.96025,-0.94184 v -4.30199 -4.33633 c 0,-0.0545 0.0179,-0.0658 0.0451,-0.0663 0.006,-1.2e-4 0.0142,10e-4 0.0225,0.007 L 46.5646,32.95214 c 0.0259,0.0181 0.0375,0.039 0.0375,0.0589 z" />
    <path
       id="path1113-1-0-6-8-3-2-5-4-3-0-5-6"
       style="color:#000000;font-style:normal;font-variant:normal;font-weight:normal;font-stretch:normal;font-size:medium;line-height:normal;font-family:sans-serif;font-variant-ligatures:normal;font-variant-position:normal;font-variant-caps:normal;font-variant-numeric:normal;font-variant-alternates:normal;font-variant-east-asian:normal;font-feature-settings:normal;font-variation-settings:normal;text-indent:0;text-align:start;text-decoration:none;text-decoration-line:none;text-decoration-style:solid;text-decoration-color:#000000;letter-spacing:normal;word-spacing:normal;text-transform:none;writing-mode:lr-tb;direction:ltr;text-orientation:mixed;dominant-baseline:auto;baseline-shift:baseline;text-anchor:start;white-space:normal;shape-padding:0;shape-margin:0;inline-size:0;clip-rule:nonzero;display:inline;overflow:visible;visibility:visible;isolation:auto;mix-blend-mode:normal;color-interpolation:sRGB;color-interpolation-filters:linearRGB;solid-color:#000000;solid-opacity:1;vector-effect:none;fill:#978ee1;fill-opacity:1;fill-rule:nonzero;stroke:none;stroke-width:0;stroke-linecap:round;stroke-linejoin:round;stroke-miterlimit:4;stroke-dasharray:none;stroke-dashoffset:0;stroke-opacity:1;color-rendering:auto;image-rendering:auto;shape-rendering:auto;text-rendering:auto;enable-background:accumulate;stop-color:#000000"
       d="m 1.4600036,28.08475 c 0,-0.83426 0.68507,-1.50589 1.5360095,-1.50589 H 25.421663 v -4.29692 -4.33518 a 1.007189,1.0054581 0 0 1 0.98701,-1.00539 1.007189,1.0054581 0 0 1 0.59821,0.1818 l 20.10367,14.05377 a 1.007189,1.0054581 0 0 1 0,1.6472 l -20.10367,14.05262 a 1.007189,1.0054581 0 0 1 -1.58522,-0.823 V 41.7193 37.42107 H 2.9960131 c -0.8509395,0 -1.5360095,-0.67163 -1.5360095,-1.50589 z" />
    <path
       id="path1113-1-0-6-8-3-2-5-4-0-7-1-63-4-8"
       style="color:#000000;font-style:normal;font-variant:normal;font-weight:normal;font-stretch:normal;font-size:medium;line-height:normal;font-family:sans-serif;font-variant-ligatures:normal;font-variant-position:normal;font-variant-caps:normal;font-variant-numeric:normal;font-variant-alternates:normal;font-variant-east-asian:normal;font-feature-settings:normal;font-variation-settings:normal;text-indent:0;text-align:start;text-decoration:none;text-decoration-line:none;text-decoration-style:solid;text-decoration-color:#000000;letter-spacing:normal;word-spacing:normal;text-transform:none;writing-mode:lr-tb;direction:ltr;text-orientation:mixed;dominant-baseline:auto;baseline-shift:baseline;text-anchor:start;white-space:normal;shape-padding:0;shape-margin:0;inline-size:0;clip-rule:nonzero;display:inline;overflow:visible;visibility:visible;opacity:0.85;isolation:auto;mix-blend-mode:normal;color-interpolation:sRGB;color-interpolation-filters:linearRGB;solid-color:#000000;solid-opacity:1;vector-effect:none;fill:#322791;fill-opacity:1;fill-rule:nonzero;stroke:none;stroke-width:1.268;stroke-linecap:round;stroke-linejoin:round;stroke-miterlimit:4;stroke-dasharray:none;stroke-dashoffset:0;stroke-opacity:1;color-rendering:auto;image-rendering:auto;shape-rendering:auto;text-rendering:auto;enable-background:accumulate;stop-color:#000000"
       d="m 48.5,32.01149 c 0,-0.60425 -0.27328,-1.20928 -0.82021,-1.5918 L 27.57205,16.35605 c -0.34185,-0.23924 -0.75426,-0.36413 -1.17531,-0.35564 -1.0699,0.0215 -1.92814,0.90617 -1.928,1.94743 v 4.33632 3.36018 H 2.9956501 C 1.6291,25.64434 0.5,26.75178 0.5,28.09211 v 7.83632 c 0,1.34032 1.1291,2.44774 2.4956501,2.44774 H 24.46874 v 3.36021 4.33632 c 5.9e-4,1.50824 1.84562,2.47205 3.10331,1.59179 L 47.67979,33.60083 C 48.22672,33.21833 48.5,32.61572 48.5,32.01149 Z m -1.898,0 c 0,0.0198 -0.0115,0.0384 -0.0375,0.0564 L 26.45675,46.12911 c -0.0773,0.0542 -0.0675,0.0635 -0.0675,-0.0565 V 41.73629 37.43427 A 0.9603462,0.94192325 0 0 0 25.429,36.49245 H 2.9956701 c -0.3358,0 -0.5751601,-0.23476 -0.5751601,-0.5641 v -7.83631 c 0,-0.32936 0.2393601,-0.56412 0.5751601,-0.56412 H 25.429 a 0.9603462,0.94192325 0 0 0 0.96025,-0.94184 v -4.30199 -4.33633 c 0,-0.0545 0.0179,-0.0658 0.0451,-0.0663 0.006,-1.2e-4 0.0142,10e-4 0.0225,0.007 L 46.5646,31.95214 c 0.0259,0.0181 0.0375,0.039 0.0375,0.0589 z" />
  </g>
</svg>
