<?xml version="1.0" encoding="UTF-8" standalone="no"?>
<svg
   xmlns:dc="http://purl.org/dc/elements/1.1/"
   xmlns:cc="http://creativecommons.org/ns#"
   xmlns:rdf="http://www.w3.org/1999/02/22-rdf-syntax-ns#"
   xmlns:svg="http://www.w3.org/2000/svg"
   xmlns="http://www.w3.org/2000/svg"
   xmlns:xlink="http://www.w3.org/1999/xlink"
   xmlns:sodipodi="http://sodipodi.sourceforge.net/DTD/sodipodi-0.dtd"
   xmlns:inkscape="http://www.inkscape.org/namespaces/inkscape"
   width="64"
   height="64"
   viewBox="0 0 64 64"
   version="1.1"
   id="svg6374"
   inkscape:version="1.0.2 (e86c870879, 2021-01-15)"
   sodipodi:docname="tab-new.svg">
  <defs
     id="defs6368">
    <linearGradient
       inkscape:collect="always"
       xlink:href="#linearGradient2526"
       id="linearGradient2796"
       x1="631.89758"
       y1="510.14041"
       x2="631.51007"
       y2="554.56793"
       gradientUnits="userSpaceOnUse"
       gradientTransform="translate(-600,-500)" />
    <linearGradient
       inkscape:collect="always"
       id="linearGradient2526">
      <stop
         style="stop-color:#68acc0;stop-opacity:1"
         offset="0"
         id="stop2522" />
      <stop
         style="stop-color:#4b9db4;stop-opacity:1"
         offset="1"
         id="stop2524" />
    </linearGradient>
  </defs>
  <sodipodi:namedview
     id="base"
     pagecolor="#cecece"
     bordercolor="#666666"
     borderopacity="1.0"
     inkscape:pageopacity="0"
     inkscape:pageshadow="2"
     inkscape:zoom="7.7170596"
     inkscape:cx="12.271255"
     inkscape:cy="33.052101"
     inkscape:document-units="px"
     inkscape:current-layer="layer1"
     inkscape:document-rotation="0"
     showgrid="false"
     units="px"
     inkscape:window-width="1500"
     inkscape:window-height="970"
     inkscape:window-x="68"
     inkscape:window-y="56"
     inkscape:window-maximized="0" />
  <metadata
     id="metadata6371">
    <rdf:RDF>
      <cc:Work
         rdf:about="">
        <dc:format>image/svg+xml</dc:format>
        <dc:type
           rdf:resource="http://purl.org/dc/dcmitype/StillImage" />
        <dc:title></dc:title>
      </cc:Work>
    </rdf:RDF>
  </metadata>
  <g
     inkscape:label="Layer 1"
     inkscape:groupmode="layer"
     id="layer1">
    <path
       id="rect2082-9-7-6-0-5-0-9-6"
       style="color:#000000;font-style:normal;font-variant:normal;font-weight:normal;font-stretch:normal;font-size:medium;line-height:normal;font-family:sans-serif;font-variant-ligatures:normal;font-variant-position:normal;font-variant-caps:normal;font-variant-numeric:normal;font-variant-alternates:normal;font-variant-east-asian:normal;font-feature-settings:normal;font-variation-settings:normal;text-indent:0;text-align:start;text-decoration:none;text-decoration-line:none;text-decoration-style:solid;text-decoration-color:#000000;letter-spacing:normal;word-spacing:normal;text-transform:none;writing-mode:lr-tb;direction:ltr;text-orientation:mixed;dominant-baseline:auto;baseline-shift:baseline;text-anchor:start;white-space:normal;shape-padding:0;shape-margin:0;inline-size:0;clip-rule:nonzero;display:inline;overflow:visible;visibility:visible;opacity:0.1;isolation:auto;mix-blend-mode:normal;color-interpolation:sRGB;color-interpolation-filters:linearRGB;solid-color:#000000;solid-opacity:1;vector-effect:none;fill:#0c0c0c;fill-opacity:1;fill-rule:nonzero;stroke:none;stroke-linecap:round;stroke-linejoin:round;stroke-miterlimit:4;stroke-dasharray:none;stroke-dashoffset:0;stroke-opacity:1;paint-order:stroke fill markers;color-rendering:auto;image-rendering:auto;shape-rendering:auto;text-rendering:auto;enable-background:accumulate;stop-color:#000000"
       d="m 29,10.5 c -1.0907,0 -2,0.9093 -2,2 V 29 H 10.5 c -1.0907,0 -2,0.9093 -2,2 v 6 c 0,1.09071 0.9093,2 2,2 H 27 v 16.5 c 0,1.09071 0.9093,2 2,2 h 6 c 1.0907,0 2,-0.90929 2,-2 V 39 h 16.5 c 1.0907,0 2,-0.90929 2,-2 v -6 c 0,-1.0907 -0.9093,-2 -2,-2 H 37 V 12.5 c 0,-1.0907 -0.9093,-2 -2,-2 z m 0,2 h 6 V 30 a 1.0001,1.0001 0 0 0 1,1 h 17.5 v 6 H 36 a 1.0001,1.0001 0 0 0 -1,1 V 55.5 H 29 V 38 A 1.0001,1.0001 0 0 0 28,37 H 10.5 V 31 H 28 a 1.0001,1.0001 0 0 0 1,-1 z" />
    <path
       id="rect2082-9-7-6-0-5-0"
       style="color:#000000;font-style:normal;font-variant:normal;font-weight:normal;font-stretch:normal;font-size:medium;line-height:normal;font-family:sans-serif;font-variant-ligatures:normal;font-variant-position:normal;font-variant-caps:normal;font-variant-numeric:normal;font-variant-alternates:normal;font-variant-east-asian:normal;font-feature-settings:normal;font-variation-settings:normal;text-indent:0;text-align:start;text-decoration:none;text-decoration-line:none;text-decoration-style:solid;text-decoration-color:#000000;letter-spacing:normal;word-spacing:normal;text-transform:none;writing-mode:lr-tb;direction:ltr;text-orientation:mixed;dominant-baseline:auto;baseline-shift:baseline;text-anchor:start;white-space:normal;shape-padding:0;shape-margin:0;inline-size:0;clip-rule:nonzero;display:inline;overflow:visible;visibility:visible;isolation:auto;mix-blend-mode:normal;color-interpolation:sRGB;color-interpolation-filters:linearRGB;solid-color:#000000;solid-opacity:1;vector-effect:none;fill:#244b56;fill-opacity:1;fill-rule:nonzero;stroke:none;stroke-linecap:round;stroke-linejoin:round;stroke-miterlimit:4;stroke-dasharray:none;stroke-dashoffset:0;stroke-opacity:1;paint-order:stroke fill markers;color-rendering:auto;image-rendering:auto;shape-rendering:auto;text-rendering:auto;enable-background:accumulate;stop-color:#000000"
       d="m 29,8.5 c -1.0907,0 -2,0.9093 -2,2 V 27 H 10.5 c -1.0907,0 -2,0.9093 -2,2 v 6 c 0,1.09071 0.9093,2 2,2 H 27 v 16.5 c 0,1.09071 0.9093,2 2,2 h 6 c 1.0907,0 2,-0.90929 2,-2 V 37 h 16.5 c 1.0907,0 2,-0.90929 2,-2 v -6 c 0,-1.0907 -0.9093,-2 -2,-2 H 37 V 10.5 c 0,-1.0907 -0.9093,-2 -2,-2 z m 0,2 h 6 V 28 a 1.0001,1.0001 0 0 0 1,1 h 17.5 v 6 H 36 a 1.0001,1.0001 0 0 0 -1,1 V 53.5 H 29 V 36 A 1.0001,1.0001 0 0 0 28,35 H 10.5 V 29 H 28 a 1.0001,1.0001 0 0 0 1,-1 z" />
    <path
       id="rect2082-9-7-6-0"
       style="fill:url(#linearGradient2796);fill-opacity:1;stroke-width:4;stroke-linecap:round;stroke-linejoin:round;paint-order:stroke fill markers"
       d="m 29,9.5 c -0.554,0 -1,0.446 -1,1 V 28 H 10.5 c -0.554,0 -1,0.446 -1,1 v 6 c 0,0.554 0.446,1 1,1 H 28 v 17.5 c 0,0.554 0.446,1 1,1 h 6 c 0.554,0 1,-0.446 1,-1 V 36 h 17.5 c 0.554,0 1,-0.446 1,-1 v -6 c 0,-0.554 -0.446,-1 -1,-1 H 36 V 10.5 c 0,-0.554 -0.446,-1 -1,-1 z" />
  </g>
</svg>
