<?xml version="1.0" encoding="UTF-8" standalone="no"?>
<svg
   xmlns:dc="http://purl.org/dc/elements/1.1/"
   xmlns:cc="http://creativecommons.org/ns#"
   xmlns:rdf="http://www.w3.org/1999/02/22-rdf-syntax-ns#"
   xmlns:svg="http://www.w3.org/2000/svg"
   xmlns="http://www.w3.org/2000/svg"
   xmlns:xlink="http://www.w3.org/1999/xlink"
   xmlns:sodipodi="http://sodipodi.sourceforge.net/DTD/sodipodi-0.dtd"
   xmlns:inkscape="http://www.inkscape.org/namespaces/inkscape"
   width="64"
   height="64"
   viewBox="0 0 64 64"
   version="1.1"
   id="svg6374"
   inkscape:version="1.0.2 (e86c870879, 2021-01-15)"
   sodipodi:docname="media-playback-start.svg">
  <defs
     id="defs6368">
    <linearGradient
       inkscape:collect="always"
       xlink:href="#linearGradient2208"
       id="linearGradient2301"
       x1="951.93933"
       y1="6.2468019"
       x2="951.9068"
       y2="53.703613"
       gradientUnits="userSpaceOnUse"
       gradientTransform="translate(-920.43592,2.1738376)" />
    <linearGradient
       inkscape:collect="always"
       id="linearGradient2208">
      <stop
         style="stop-color:#fbfcfd;stop-opacity:0.44999999"
         offset="0"
         id="stop2204" />
      <stop
         style="stop-color:#fcfcfc;stop-opacity:0"
         offset="1"
         id="stop2206" />
    </linearGradient>
  </defs>
  <sodipodi:namedview
     id="base"
     pagecolor="#cecece"
     bordercolor="#666666"
     borderopacity="1.0"
     inkscape:pageopacity="0"
     inkscape:pageshadow="2"
     inkscape:zoom="3.8306558"
     inkscape:cx="2.6569011"
     inkscape:cy="47.590434"
     inkscape:document-units="px"
     inkscape:current-layer="layer1"
     inkscape:document-rotation="0"
     showgrid="false"
     units="px"
     inkscape:window-width="1500"
     inkscape:window-height="970"
     inkscape:window-x="68"
     inkscape:window-y="56"
     inkscape:window-maximized="0" />
  <metadata
     id="metadata6371">
    <rdf:RDF>
      <cc:Work
         rdf:about="">
        <dc:format>image/svg+xml</dc:format>
        <dc:type
           rdf:resource="http://purl.org/dc/dcmitype/StillImage" />
        <dc:title></dc:title>
      </cc:Work>
    </rdf:RDF>
  </metadata>
  <g
     inkscape:label="Layer 1"
     inkscape:groupmode="layer"
     id="layer1">
    <path
       id="rect1323-3-6-3-2"
       style="color:#000000;font-style:normal;font-variant:normal;font-weight:normal;font-stretch:normal;font-size:medium;line-height:normal;font-family:sans-serif;font-variant-ligatures:normal;font-variant-position:normal;font-variant-caps:normal;font-variant-numeric:normal;font-variant-alternates:normal;font-variant-east-asian:normal;font-feature-settings:normal;font-variation-settings:normal;text-indent:0;text-align:start;text-decoration:none;text-decoration-line:none;text-decoration-style:solid;text-decoration-color:#000000;letter-spacing:normal;word-spacing:normal;text-transform:none;writing-mode:lr-tb;direction:ltr;text-orientation:mixed;dominant-baseline:auto;baseline-shift:baseline;text-anchor:start;white-space:normal;shape-padding:0;shape-margin:0;inline-size:0;clip-rule:nonzero;display:inline;overflow:visible;visibility:visible;opacity:0.15;isolation:auto;mix-blend-mode:normal;color-interpolation:sRGB;color-interpolation-filters:linearRGB;solid-color:#000000;solid-opacity:1;vector-effect:none;fill:#0c0c0c;fill-opacity:1;fill-rule:nonzero;stroke:none;stroke-width:1.00015;stroke-linecap:round;stroke-linejoin:round;stroke-miterlimit:4;stroke-dasharray:none;stroke-dashoffset:2.1875;stroke-opacity:1;color-rendering:auto;image-rendering:auto;shape-rendering:auto;text-rendering:auto;enable-background:accumulate;stop-color:#000000"
       d="m 15.351874,8.5024165 a 1.0004473,1.0000467 0 0 0 -0.10944,0.0078 c -0.024,0.0022 -0.092,0.004 -0.088,0.0039 -0.072,0.0019 -0.16106,0.003 -0.26959,0.01172 -0.13685,0.01059 -0.2499,0.02926 -0.33412,0.04102 v -0.0019 c -0.043,0.0059 -0.11534,0.0148 -0.21688,0.0332 -0.15055,0.02675 -0.2839,0.05855 -0.40054,0.08788 -0.01,0.0017 -0.052,0.01158 -0.11524,0.0293 0,5.64e-4 0,0.0014 -0.01,0.0019 0,0.0013 0,5.72e-4 -0.01,0.002 -0.15126,0.04193 -0.29491,0.09006 -0.43376,0.140616 -0.02,0.0069 -0.041,0.0145 -0.064,0.02344 -0.13915,0.05247 -0.2726,0.110205 -0.40444,0.171866 v 0.002 0.0019 a 1.0004473,1.0000467 0 0 0 -0.09,0.03906 c -1.657,0.810238 -2.8324096,2.3992475 -3.1378196,4.2810225 -0.038,0.156601 -0.076,0.341088 -0.076,0.361308 l 0.01,-0.113274 c -0.012,0.110882 -0.023,0.238951 -0.023,0.380838 l 0.016,-0.173818 c -0.031,0.176893 -0.031,0.317614 -0.031,0.414039 -10e-5,0.02336 0,0.04493 0,0.05469 v 38.398346 0.0566 c 0,0.212868 0.016,0.293383 0.016,0.242176 a 1.0004473,1.0000467 0 0 0 0.01,0.113274 c 0,0.0128 0,0.08899 0.014,0.230457 0,0.19748 0.012,0.233308 0.012,0.0156 a 1.0004473,1.0000467 0 0 0 0.01,0.134763 c 0.18657,1.36611 0.8469996,2.58035 1.8111496,3.468558 0.14066,0.129512 0.28651,0.250625 0.43575,0.363269 0.14465,0.109134 0.30042,0.218537 0.46697,0.320291 v -0.002 c 0.15625,0.09559 0.31761,0.18549 0.48647,0.267564 0.15526,0.0753 0.31752,0.147272 0.48648,0.210929 a 1.0004473,1.0000467 0 0 0 0.02,0.008 c -0.01,-0.004 0.011,0.004 0.055,0.0195 0.13555,0.0491 0.2788,0.09499 0.42976,0.136712 0.078,0.0218 0.12804,0.0335 0.14265,0.0371 0.11514,0.0286 0.23978,0.0577 0.37703,0.08199 0.091,0.0165 0.16856,0.0264 0.23058,0.0352 0.094,0.0129 0.19107,0.0245 0.29311,0.0332 0.10754,0.009 0.21207,0.0141 0.31651,0.0176 0.019,8e-4 0.079,0.008 0.18177,0.008 0.15005,0 0.17056,-0.004 0.061,-0.004 a 1.0004473,1.0000467 0 0 0 0.01,0 c 0.13225,-0.001 0.25029,-0.0102 0.35363,-0.0176 0.031,-0.002 0.10613,-0.004 0.22478,-0.0176 v 0.002 c 0.12174,-0.0133 0.20887,-0.0319 0.26569,-0.041 0.098,-0.0155 0.21758,-0.0315 0.35753,-0.0625 a 1.0004473,1.0000467 0 0 0 0.033,-0.01 1.0004473,1.0000467 0 0 0 0.10164,-0.0312 c 0.01,-0.003 0.016,-0.003 0.023,-0.006 0.041,-0.0155 0.081,-0.0303 0.15046,-0.0703 v -0.002 c 0.46716,-0.132303 0.92563,-0.287134 1.33447,-0.52341 a 1.0004473,1.0000467 0 0 0 0.029,-0.0176 l 0.01,-0.006 32.87851,-18.977508 v 0.004 c 0.01,-0.003 0.011,-0.0104 0.018,-0.0137 l 0.029,-0.0176 a 1.0004473,1.0000467 0 0 0 0.016,-0.01 c 0,10e-4 -0.017,0.007 -0.023,0.01 0.017,-0.008 0.029,-0.0145 0.039,-0.0195 a 1.0004473,1.0000467 0 0 0 0,-0.002 c 0.01,-0.004 0.037,-0.0176 0.037,-0.0176 0,0 0.024,-0.0217 0.029,-0.0273 a 1.0004473,1.0000467 0 0 0 0.16796,-0.16015 c 0.63052,-0.367519 1.23544,-0.795164 1.6979,-1.388599 a 1.0004473,1.0000467 0 0 0 0,-0.002 c 0.01,-0.008 0.04,-0.0466 0.082,-0.103504 l 0.01,-0.0117 c 0.079,-0.106353 0.14505,-0.206918 0.20328,-0.296862 a 1.0004473,1.0000467 0 0 0 0,-0.002 c 0.023,-0.0354 0.059,-0.092 0.10353,-0.164051 v -0.004 c -0.036,0.059 -0.026,0.0514 0.045,-0.0645 a 1.0004473,1.0000467 0 0 0 0.012,-0.0215 c 0.073,-0.127763 0.096,-0.18719 0.09,-0.17577 v -0.004 c 0.045,-0.08409 0.092,-0.17706 0.14065,-0.279284 a 1.0004473,1.0000467 0 0 0 0.01,-0.0137 c 0.041,-0.08929 0.064,-0.153061 0.08,-0.189449 a 1.0004473,1.0000467 0 0 0 0.01,-0.0176 c 0.029,-0.0698 0.072,-0.16657 0.11724,-0.294903 a 1.0004473,1.0000467 0 0 0 0,-0.002 c 0.03,-0.0862 0.06,-0.175659 0.088,-0.269514 a 1.0004473,1.0000467 0 0 0 0,-0.0117 c 0.014,-0.0493 0.043,-0.138512 0.07,-0.255845 0.026,-0.106764 0.043,-0.193009 0.057,-0.257805 a 1.0004473,1.0000467 0 0 0 0,-0.008 c 0.014,-0.0704 0.034,-0.16655 0.053,-0.290993 a 1.0004473,1.0000467 0 0 0 0,-0.006 c 0.018,-0.127242 0.022,-0.197338 0.025,-0.230456 v -0.0156 c 0.019,-0.137852 0.02,-0.215338 0.02,-0.214838 v -0.008 c 0.018,-0.156281 0.016,-0.277844 0.016,-0.3574 0,-0.0649 0,-0.183839 -0.016,-0.314441 -0.01,-0.110844 -0.013,-0.215098 -0.018,-0.253886 a 1.0004473,1.0000467 0 0 0 0,-0.008 c 0,-0.0317 -0.01,-0.115383 -0.025,-0.251946 a 1.0004473,1.0000467 0 0 0 0,-0.002 c -0.016,-0.113634 -0.033,-0.205968 -0.049,-0.283224 v -0.0156 c -0.015,-0.08119 -0.033,-0.16649 -0.055,-0.257795 a 1.0004473,1.0000467 0 0 0 0,-0.002 c -0.029,-0.117233 -0.058,-0.203548 -0.074,-0.259755 a 1.0004473,1.0000467 0 0 0 0,-0.004 c -0.023,-0.07829 -0.052,-0.175349 -0.092,-0.285133 v -0.002 c -0.037,-0.103964 -0.073,-0.190519 -0.10163,-0.261705 a 1.0004473,1.0000467 0 0 0 -0.01,-0.0137 c -0.026,-0.0613 -0.058,-0.139072 -0.10163,-0.232416 v -0.004 c -0.051,-0.110724 -0.10014,-0.202578 -0.13875,-0.275374 a 1.0004473,1.0000467 0 0 0 0,-0.002 c 0,-0.008 -0.035,-0.072 -0.082,-0.156241 v -0.004 c -0.063,-0.113853 -0.088,-0.143251 -0.055,-0.08789 v -0.002 c -0.044,-0.0738 -0.09,-0.143582 -0.13485,-0.210928 v -0.008 c -0.046,-0.0701 -0.10574,-0.16159 -0.18957,-0.273424 a 1.0004473,1.0000467 0 0 0 0,-0.004 c -0.051,-0.0675 -0.068,-0.0843 -0.072,-0.08789 l -0.012,-0.0156 c -0.088,-0.112763 -0.18326,-0.229436 -0.2911,-0.347639 a 1.0004473,1.0000467 0 0 0 0,-0.002 c -0.48017,-0.52449 -1.04647,-0.945975 -1.66079,-1.255787 l 0.051,0.0254 -33.03287,-19.0614875 c -0.39984,-0.231106 -0.8477,-0.386726 -1.30706,-0.515598 l -0.14655,-0.05469 c -0.04,-0.01729 -0.088,-0.03769 -0.10004,-0.04297 0,5.63e-4 0.036,0.0168 0.066,0.03125 l -0.031,-0.01172 c -0.027,-0.01288 -0.054,-0.02631 -0.084,-0.0332 0,-9.4e-4 -0.01,-0.003 -0.012,-0.0039 -0.01,-0.0013 -0.01,-0.0046 -0.016,-0.0059 v 0.0039 l -0.016,-0.0059 c -0.019,-0.0041 -0.034,-0.006 -0.053,-0.0098 0,-7.23e-4 -0.01,-0.0015 -0.012,-0.002 0,-5.63e-4 -0.01,-0.0014 -0.01,-0.0019 0,-4.91e-4 -9e-4,4.21e-4 0,0 -0.11244,-0.02286 -0.22298,-0.04517 -0.32632,-0.06055 v 0 c -0.033,-0.0051 -0.097,-0.01677 -0.18756,-0.02734 h -0.01 c -0.12054,-0.01396 -0.21337,-0.01752 -0.27549,-0.02148 v 0 c -0.081,-0.0056 -0.18367,-0.01414 -0.31262,-0.01563 a 1.0004473,1.0000467 0 0 0 -0.012,0 c 0.043,0 0.027,-0.002 -0.062,-0.002 a 1.0004473,1.0000467 0 0 0 -0.01,0 z m 1.32077,0.152334 c 0.017,0.0041 0.047,0.01175 0.047,0.01172 0,-6.23e-4 -0.014,-0.0059 -0.014,-0.0059 -9e-5,-2.2e-5 -0.023,-0.0037 -0.033,-0.0059 z m -1.28364,1.8475575 c 4.9e-4,5.92e-4 -0.014,0.002 0.041,0.002 0.043,8.95e-4 0.10404,0.0037 0.19147,0.0098 a 1.0004473,1.0000467 0 0 0 0,0.002 c 0.091,0.0059 0.15374,0.0086 0.17976,0.01172 0.01,0.0011 0.049,0.0087 0.12114,0.01953 0.098,0.01459 0.18867,0.03135 0.26769,0.04883 v -0.0039 a 1.0004473,1.0000467 0 0 0 0.012,0.0039 c 0.37863,0.08451 0.73396,0.226754 1.06477,0.417947 l 33.033,19.061485 a 1.0004473,1.0000467 0 0 0 0.049,0.0273 c 0.40175,0.202658 0.76988,0.476792 1.08429,0.820272 0.062,0.0675 0.12795,0.148412 0.19737,0.238266 a 1.0004473,1.0000467 0 0 0 0.012,0.0137 c 0.05,0.0623 0.065,0.0801 0.047,0.0566 0.026,0.0351 0.064,0.09359 0.12114,0.17968 a 1.0004473,1.0000467 0 0 0 0.01,0.008 c 0.032,0.0468 0.06,0.092 0.086,0.134752 a 1.0004473,1.0000467 0 0 0 0,0.002 c 0.062,0.103334 0.065,0.108994 0.016,0.0195 a 1.0004473,1.0000467 0 0 0 0.014,0.0215 c -0.01,-0.0104 0.01,0.0268 0.057,0.115233 0.041,0.077 0.074,0.139282 0.094,0.18163 a 1.0004473,1.0000467 0 0 0 0,0.004 c 0.017,0.0369 0.039,0.0885 0.068,0.160151 0.029,0.0712 0.053,0.131712 0.068,0.17577 a 1.0004473,1.0000467 0 0 0 0,0.006 c 0.015,0.0419 0.032,0.09779 0.055,0.173819 0.025,0.086 0.044,0.144472 0.051,0.17382 0.012,0.0516 0.023,0.106564 0.035,0.16991 a 1.0004473,1.0000467 0 0 0 0,0.0156 c 0.016,0.07709 0.026,0.135782 0.031,0.173819 0,0.0243 0.01,0.09899 0.023,0.226547 0.01,0.0707 0.01,0.108374 0.01,0.082 a 1.0004473,1.0000467 0 0 0 0.01,0.126952 c -6e-4,-0.005 0,0.0321 0,0.119133 0,0.0813 0,0.119414 0,0.121083 a 1.0004473,1.0000467 0 0 0 0,0.008 c -0.017,0.145361 -0.019,0.205208 -0.016,0.179679 a 1.0004473,1.0000467 0 0 0 0,0.0176 c -0.016,0.127874 -0.021,0.200179 -0.023,0.220688 -0.01,0.0395 -0.018,0.100484 -0.035,0.189449 -0.016,0.076 -0.028,0.134923 -0.037,0.171859 a 1.0004473,1.0000467 0 0 0 0,0.0195 c 0,0.018 -0.022,0.0767 -0.049,0.17187 -0.015,0.0512 -0.033,0.103134 -0.053,0.160151 -0.013,0.0373 -0.042,0.102734 -0.076,0.185529 -0.034,0.0792 -0.055,0.132952 -0.066,0.158201 -0.026,0.0545 -0.056,0.114503 -0.092,0.181629 a 1.0004473,1.0000467 0 0 0 0,0.002 c -0.053,0.09959 -0.058,0.117703 -0.049,0.103514 0.029,-0.0489 0.029,-0.0541 -0.037,0.0527 a 1.0004473,1.0000467 0 0 0 0,0.004 c -0.014,0.0233 -0.041,0.067 -0.08,0.126943 -0.051,0.0785 -0.096,0.145291 -0.13485,0.197258 a 1.0004473,1.0000467 0 0 0 -0.01,0.01 c 0.01,-0.008 -0.012,0.0153 -0.049,0.0625 v 0 0.002 c -0.36643,0.469611 -0.81659,0.832281 -1.31477,1.076107 a 1.0004473,1.0000467 0 0 0 -0.068,0.0371 1.0004473,1.0000467 0 0 0 0,0.002 c 0,4.9e-4 -0.01,0.002 -0.01,0.002 l 0.01,-0.008 -32.94304,19.012526 a 1.0004473,1.0000467 0 0 0 -0.025,0.0156 c -0.32622,0.188519 -0.67774,0.329021 -1.05318,0.414036 a 1.0004473,1.0000467 0 0 0 -0.033,0.01 c -0.055,0.0118 -0.12924,0.0237 -0.22658,0.0391 -0.089,0.0143 -0.14655,0.0248 -0.16996,0.0273 0,4e-4 -0.056,0.003 -0.14845,0.01 -0.089,0.006 -0.16196,0.0112 -0.22278,0.0117 -0.10184,7.7e-4 -0.14865,0.004 -0.053,0.004 0.01,0 -0.022,-0.003 -0.096,-0.006 a 1.0004473,1.0000467 0 0 0 -0.01,0 c -0.079,-0.002 -0.15535,-0.008 -0.22858,-0.0137 v 0.002 c -0.062,-0.005 -0.12514,-0.0143 -0.19147,-0.0234 v 0.002 c -0.066,-0.009 -0.11724,-0.0171 -0.15235,-0.0234 -0.075,-0.0132 -0.15466,-0.032 -0.24619,-0.0547 v 0 c -0.062,-0.0155 -0.094,-0.0233 -0.088,-0.0215 a 1.0004473,1.0000467 0 0 0 -0.01,-0.002 c -0.092,-0.0253 -0.18747,-0.0555 -0.28721,-0.0918 a 1.0004473,1.0000467 0 0 0 -0.01,-0.004 c 0.01,0.002 -0.018,-0.006 -0.033,-0.0117 l -0.01,-0.004 c -0.01,-0.002 0,-9.88e-4 -0.01,-0.004 -0.098,-0.0377 -0.19787,-0.0828 -0.297,-0.130854 v 0 c -0.10794,-0.0525 -0.21208,-0.109903 -0.31662,-0.17381 -0.099,-0.0609 -0.20157,-0.131122 -0.30471,-0.208977 -0.10143,-0.0765 -0.19547,-0.155531 -0.2853,-0.238267 -0.62462,-0.575436 -1.04937,-1.352291 -1.17812,-2.23621 0,-0.166502 -0.012,-0.197659 -0.012,0.008 a 1.0004473,1.0000467 0 0 0 0,-0.08199 c 0,-0.0317 -9e-4,-0.131705 -0.02,-0.294915 l 0.01,0.113283 c 0,-0.212807 -0.016,-0.293653 -0.016,-0.242176 v -0.0566 -38.398347 -0.04492 a 1.0004473,1.0000467 0 0 0 0,-0.0098 c 0,-0.06297 0,-0.08565 0,-0.06836 a 1.0004473,1.0000467 0 0 0 0.016,-0.171865 c 0,-0.03735 0,-0.08825 0.01,-0.152336 2e-4,-0.0016 -10e-5,-0.0023 0,-0.0039 a 1.0004473,1.0000467 0 0 0 0.012,-0.06641 c 0.17316,-1.282073 0.97525,-2.346092 2.08855,-2.890472 a 1.0004473,1.0000467 0 0 0 0.02,-0.0098 c 0.10034,-0.04833 0.20248,-0.09227 0.30481,-0.130851 a 1.0004473,1.0000467 0 0 0 0.018,-0.0078 c -8e-4,2.69e-4 0,-6.3e-4 0.01,-0.002 a 1.0004473,1.0000467 0 0 0 0,-0.0019 1.0004473,1.0000467 0 0 0 0.014,-0.0039 c 0.10003,-0.03635 0.19777,-0.06957 0.2931,-0.09569 a 1.0004473,1.0000467 0 0 0 0.016,-0.0039 c -0.018,0.0052 -3e-4,5.58e-4 0.057,-0.01367 0.10313,-0.02596 0.18957,-0.04551 0.26379,-0.05859 a 1.0004473,1.0000467 0 0 0 0,-0.0019 c 0.014,-0.0026 0.061,-0.0075 0.13485,-0.01758 0.096,-0.01344 0.16506,-0.02388 0.21108,-0.02734 a 1.0004473,1.0000467 0 0 0 0.01,0 c 0.038,-0.0031 0.095,-0.0058 0.17196,-0.0078 a 1.0004473,1.0000467 0 0 0 0.01,0 c 0.12545,-0.0043 0.16846,-0.0078 0.13675,-0.0078 a 1.0004473,1.0000467 0 0 0 0.027,-0.002 z m 1.03355,45.878419 c -0.028,0 -0.066,10e-4 -0.10943,0.006 0,-4.19e-4 0.01,-0.002 0.01,-0.002 z m -0.97104,0.85347 a 1.0004473,1.0000467 0 0 0 -0.01,0.084 c 2e-4,-0.01 0,-0.0254 0,-0.0254 z m 0.99055,0.140612 c 0,0 0.01,-10e-6 0.01,0 v 0.002 c 0,-1e-5 0,-0.002 0,-0.002 z m 0.17776,0.976513 c -0.031,0.008 -0.056,0.0174 -0.072,0.0195 -0.01,8.3e-4 -0.01,0.001 -0.014,0.002 0.034,-0.004 0.057,-0.0156 0.086,-0.0215 z" />
    <path
       id="rect1323-3-6"
       style="color:#000000;font-style:normal;font-variant:normal;font-weight:normal;font-stretch:normal;font-size:medium;line-height:normal;font-family:sans-serif;font-variant-ligatures:normal;font-variant-position:normal;font-variant-caps:normal;font-variant-numeric:normal;font-variant-alternates:normal;font-variant-east-asian:normal;font-feature-settings:normal;font-variation-settings:normal;text-indent:0;text-align:start;text-decoration:none;text-decoration-line:none;text-decoration-style:solid;text-decoration-color:#000000;letter-spacing:normal;word-spacing:normal;text-transform:none;writing-mode:lr-tb;direction:ltr;text-orientation:mixed;dominant-baseline:auto;baseline-shift:baseline;text-anchor:start;white-space:normal;shape-padding:0;shape-margin:0;inline-size:0;clip-rule:nonzero;display:inline;overflow:visible;visibility:visible;opacity:0.85;isolation:auto;mix-blend-mode:normal;color-interpolation:sRGB;color-interpolation-filters:linearRGB;solid-color:#000000;solid-opacity:1;vector-effect:none;fill:#0e8168;fill-opacity:1;fill-rule:nonzero;stroke:none;stroke-width:1.00015;stroke-linecap:round;stroke-linejoin:round;stroke-miterlimit:4;stroke-dasharray:none;stroke-dashoffset:2.1875;stroke-opacity:1;color-rendering:auto;image-rendering:auto;shape-rendering:auto;text-rendering:auto;enable-background:accumulate;stop-color:#000000"
       d="m 15.351874,7.0023965 a 1.0004473,1.0000467 0 0 0 -0.10944,0.0078 c -0.024,0.0022 -0.092,0.004 -0.088,0.0039 -0.072,0.0019 -0.16106,0.003 -0.26959,0.01172 -0.13685,0.01059 -0.2499,0.02926 -0.33412,0.04102 v -0.0019 c -0.043,0.0059 -0.11534,0.0148 -0.21688,0.0332 -0.15055,0.02675 -0.2839,0.05855 -0.40054,0.08788 -0.01,0.0017 -0.052,0.01158 -0.11524,0.0293 0,5.64e-4 0,0.0014 -0.01,0.0019 0,0.0013 0,5.73e-4 -0.01,0.002 -0.15126,0.04193 -0.29491,0.09007 -0.43376,0.140616 -0.02,0.0069 -0.041,0.0145 -0.064,0.02344 -0.13915,0.05247 -0.2726,0.110205 -0.40444,0.171866 v 0.002 0.0019 a 1.0004473,1.0000467 0 0 0 -0.09,0.03906 c -1.657,0.810237 -2.8324096,2.399249 -3.1378196,4.2810225 -0.038,0.156601 -0.076,0.341088 -0.076,0.361308 l 0.01,-0.113274 c -0.012,0.110882 -0.023,0.238951 -0.023,0.380838 l 0.016,-0.173818 c -0.031,0.176893 -0.031,0.317614 -0.031,0.414039 -10e-5,0.02336 0,0.04493 0,0.05469 v 38.398346 0.0566 c 0,0.212868 0.016,0.293383 0.016,0.242176 a 1.0004473,1.0000467 0 0 0 0.01,0.113274 c 0,0.0128 0,0.08899 0.014,0.230455 0,0.197479 0.012,0.233308 0.012,0.0156 a 1.0004473,1.0000467 0 0 0 0.01,0.134762 c 0.18657,1.36611 0.8469996,2.580351 1.8111496,3.468559 0.14066,0.129511 0.28651,0.250624 0.43575,0.363269 0.14465,0.109134 0.30042,0.218537 0.46697,0.320291 v -0.002 c 0.15625,0.0956 0.31761,0.18549 0.48647,0.267565 0.15526,0.0753 0.31752,0.147271 0.48648,0.210928 a 1.0004473,1.0000467 0 0 0 0.02,0.008 c -0.01,-0.004 0.011,0.004 0.055,0.0195 0.13555,0.0491 0.2788,0.09499 0.42976,0.136712 0.078,0.0218 0.12804,0.0335 0.14265,0.0371 0.11514,0.0286 0.23978,0.0577 0.37703,0.082 0.091,0.0165 0.16856,0.0264 0.23058,0.0352 0.094,0.0129 0.19107,0.0245 0.29311,0.0332 0.10754,0.009 0.21207,0.0141 0.31651,0.0176 0.019,8e-4 0.079,0.008 0.18177,0.008 0.15005,0 0.17056,-0.004 0.061,-0.004 a 1.0004473,1.0000467 0 0 0 0.01,0 c 0.13225,-10e-4 0.25029,-0.0102 0.35363,-0.0176 0.031,-0.002 0.10613,-0.004 0.22478,-0.0176 v 0.002 c 0.12174,-0.0133 0.20887,-0.0319 0.26569,-0.041 0.098,-0.0155 0.21758,-0.0315 0.35753,-0.0625 a 1.0004473,1.0000467 0 0 0 0.033,-0.01 1.0004473,1.0000467 0 0 0 0.10164,-0.0312 c 0.01,-0.003 0.016,-0.003 0.023,-0.006 0.041,-0.0155 0.081,-0.0303 0.15046,-0.0703 v -0.002 c 0.46716,-0.132303 0.92563,-0.287134 1.33447,-0.52341 a 1.0004473,1.0000467 0 0 0 0.029,-0.0176 l 0.01,-0.006 32.87851,-18.977506 v 0.004 c 0.01,-0.003 0.011,-0.0104 0.018,-0.0137 l 0.029,-0.0176 a 1.0004473,1.0000467 0 0 0 0.016,-0.01 c 0,0.001 -0.017,0.007 -0.023,0.01 0.017,-0.008 0.029,-0.0145 0.039,-0.0195 a 1.0004473,1.0000467 0 0 0 0,-0.002 c 0.01,-0.004 0.037,-0.0176 0.037,-0.0176 0,0 0.024,-0.0217 0.029,-0.0273 a 1.0004473,1.0000467 0 0 0 0.16796,-0.16015 c 0.63052,-0.367519 1.23544,-0.795164 1.6979,-1.388599 a 1.0004473,1.0000467 0 0 0 0,-0.002 c 0.01,-0.008 0.04,-0.0466 0.082,-0.103504 l 0.01,-0.0117 c 0.079,-0.106353 0.14505,-0.206918 0.20328,-0.296862 a 1.0004473,1.0000467 0 0 0 0,-0.002 c 0.023,-0.0354 0.059,-0.092 0.10353,-0.164051 v -0.004 c -0.036,0.059 -0.026,0.0514 0.045,-0.0645 a 1.0004473,1.0000467 0 0 0 0.012,-0.0215 c 0.073,-0.127763 0.096,-0.18719 0.09,-0.17577 v -0.004 c 0.045,-0.08409 0.092,-0.17706 0.14065,-0.279284 a 1.0004473,1.0000467 0 0 0 0.01,-0.0137 c 0.041,-0.08929 0.064,-0.153061 0.08,-0.189449 a 1.0004473,1.0000467 0 0 0 0.01,-0.0176 c 0.029,-0.0698 0.072,-0.16657 0.11724,-0.294903 a 1.0004473,1.0000467 0 0 0 0,-0.002 c 0.03,-0.0862 0.06,-0.175659 0.088,-0.269514 a 1.0004473,1.0000467 0 0 0 0,-0.0117 c 0.014,-0.0493 0.043,-0.138512 0.07,-0.255845 0.026,-0.106764 0.043,-0.193009 0.057,-0.257805 a 1.0004473,1.0000467 0 0 0 0,-0.008 c 0.014,-0.0704 0.034,-0.16655 0.053,-0.290993 a 1.0004473,1.0000467 0 0 0 0,-0.006 c 0.018,-0.127242 0.022,-0.197338 0.025,-0.230456 v -0.0156 c 0.019,-0.137852 0.02,-0.215338 0.02,-0.214838 v -0.008 c 0.018,-0.156281 0.016,-0.277844 0.016,-0.3574 0,-0.0649 0,-0.183839 -0.016,-0.314441 -0.01,-0.110844 -0.013,-0.215098 -0.018,-0.253886 a 1.0004473,1.0000467 0 0 0 0,-0.008 c 0,-0.0317 -0.01,-0.115383 -0.025,-0.251946 a 1.0004473,1.0000467 0 0 0 0,-0.002 c -0.016,-0.113634 -0.033,-0.205968 -0.049,-0.283224 v -0.0156 c -0.015,-0.08119 -0.033,-0.16649 -0.055,-0.257795 a 1.0004473,1.0000467 0 0 0 0,-0.002 c -0.029,-0.117233 -0.058,-0.203548 -0.074,-0.259755 a 1.0004473,1.0000467 0 0 0 0,-0.004 c -0.023,-0.07829 -0.052,-0.175349 -0.092,-0.285133 v -0.002 c -0.037,-0.103964 -0.073,-0.190519 -0.10163,-0.261705 a 1.0004473,1.0000467 0 0 0 -0.01,-0.0137 c -0.026,-0.0613 -0.058,-0.139072 -0.10163,-0.232416 v -0.004 c -0.051,-0.110724 -0.10014,-0.202578 -0.13875,-0.275374 a 1.0004473,1.0000467 0 0 0 0,-0.002 c 0,-0.008 -0.035,-0.072 -0.082,-0.156241 v -0.004 c -0.063,-0.113853 -0.088,-0.143251 -0.055,-0.08789 v -0.002 c -0.044,-0.0738 -0.09,-0.143582 -0.13485,-0.210928 v -0.008 c -0.046,-0.0701 -0.10574,-0.16159 -0.18957,-0.273424 a 1.0004473,1.0000467 0 0 0 0,-0.004 c -0.051,-0.0675 -0.068,-0.0843 -0.072,-0.08789 l -0.012,-0.0156 c -0.088,-0.112763 -0.18326,-0.229436 -0.2911,-0.347639 a 1.0004473,1.0000467 0 0 0 0,-0.002 c -0.48017,-0.52449 -1.04647,-0.945975 -1.66079,-1.255787 l 0.051,0.0254 -33.03281,-19.0614865 c -0.39983,-0.231107 -0.84769,-0.386727 -1.30706,-0.515598 l -0.14655,-0.05469 c -0.04,-0.01729 -0.088,-0.03769 -0.10004,-0.04297 0,5.63e-4 0.036,0.0168 0.066,0.03125 l -0.031,-0.01172 c -0.027,-0.01288 -0.054,-0.02631 -0.084,-0.0332 0,-9.4e-4 -0.01,-0.003 -0.012,-0.0039 -0.01,-0.0013 -0.01,-0.0046 -0.016,-0.0059 v 0.0039 l -0.016,-0.0059 c -0.019,-0.0041 -0.034,-0.006 -0.053,-0.0098 0,-7.23e-4 -0.01,-0.0015 -0.012,-0.002 0,-5.63e-4 -0.01,-0.0014 -0.01,-0.0019 0,-4.91e-4 -9e-4,4.21e-4 0,0 -0.11244,-0.02286 -0.22298,-0.04517 -0.32632,-0.06055 v 0 c -0.033,-0.0051 -0.097,-0.01677 -0.18756,-0.02734 h -0.01 c -0.12054,-0.01396 -0.21337,-0.01752 -0.27549,-0.02148 v 0 c -0.081,-0.0056 -0.18367,-0.01414 -0.31262,-0.01563 a 1.0004473,1.0000467 0 0 0 -0.012,0 c 0.043,0 0.027,-0.002 -0.062,-0.002 a 1.0004473,1.0000467 0 0 0 -0.01,0 z m 1.32077,0.152334 c 0.017,0.0041 0.047,0.01175 0.047,0.01172 0,-6.23e-4 -0.014,-0.0059 -0.014,-0.0059 -9e-5,-2.1e-5 -0.023,-0.0037 -0.033,-0.0059 z m -1.28364,1.847559 c 4.9e-4,5.92e-4 -0.014,0.002 0.041,0.002 0.043,8.95e-4 0.10404,0.0037 0.19147,0.0098 a 1.0004473,1.0000467 0 0 0 0,0.002 c 0.091,0.0059 0.15374,0.0086 0.17976,0.01172 0.01,0.0011 0.049,0.0087 0.12114,0.01953 0.098,0.01459 0.18867,0.03135 0.26769,0.04883 v -0.0039 a 1.0004473,1.0000467 0 0 0 0.012,0.0039 c 0.37863,0.08451 0.73396,0.226754 1.06477,0.417947 l 33.03298,19.0614845 a 1.0004473,1.0000467 0 0 0 0.049,0.0273 c 0.40175,0.202658 0.76988,0.476792 1.08429,0.820272 0.062,0.0675 0.12795,0.148412 0.19737,0.238266 a 1.0004473,1.0000467 0 0 0 0.012,0.0137 c 0.05,0.0623 0.065,0.0801 0.047,0.0566 0.026,0.0351 0.064,0.09359 0.12114,0.17968 a 1.0004473,1.0000467 0 0 0 0.01,0.008 c 0.032,0.0468 0.06,0.092 0.086,0.134752 a 1.0004473,1.0000467 0 0 0 0,0.002 c 0.062,0.103334 0.065,0.108994 0.016,0.0195 a 1.0004473,1.0000467 0 0 0 0.014,0.0215 c -0.01,-0.0104 0.01,0.0268 0.057,0.115233 0.041,0.077 0.074,0.139282 0.094,0.18163 a 1.0004473,1.0000467 0 0 0 0,0.004 c 0.017,0.0369 0.039,0.0885 0.068,0.160151 0.029,0.0712 0.053,0.131712 0.068,0.17577 a 1.0004473,1.0000467 0 0 0 0,0.006 c 0.015,0.0419 0.032,0.09779 0.055,0.173819 0.025,0.086 0.044,0.144472 0.051,0.17382 0.012,0.0516 0.023,0.106564 0.035,0.16991 a 1.0004473,1.0000467 0 0 0 0,0.0156 c 0.016,0.07709 0.026,0.135782 0.031,0.173819 0,0.0243 0.01,0.09899 0.023,0.226547 0.01,0.0707 0.01,0.108374 0.01,0.082 a 1.0004473,1.0000467 0 0 0 0.01,0.126952 c -6e-4,-0.005 0,0.0321 0,0.119133 0,0.0813 0,0.119414 0,0.121083 a 1.0004473,1.0000467 0 0 0 0,0.008 c -0.017,0.145361 -0.019,0.205208 -0.016,0.179679 a 1.0004473,1.0000467 0 0 0 0,0.0176 c -0.016,0.127874 -0.021,0.200179 -0.023,0.220688 -0.01,0.0395 -0.018,0.100484 -0.035,0.189449 -0.016,0.076 -0.028,0.134923 -0.037,0.171859 a 1.0004473,1.0000467 0 0 0 0,0.0195 c 0,0.018 -0.022,0.0767 -0.049,0.17187 -0.015,0.0512 -0.033,0.103134 -0.053,0.160151 -0.013,0.0373 -0.042,0.102734 -0.076,0.185529 -0.034,0.0792 -0.055,0.132952 -0.066,0.158201 -0.026,0.0545 -0.056,0.114503 -0.092,0.181629 a 1.0004473,1.0000467 0 0 0 0,0.002 c -0.053,0.09959 -0.058,0.117703 -0.049,0.103514 0.029,-0.0489 0.029,-0.0541 -0.037,0.0527 a 1.0004473,1.0000467 0 0 0 0,0.004 c -0.014,0.0233 -0.041,0.067 -0.08,0.126943 -0.051,0.0785 -0.096,0.145291 -0.13485,0.197258 a 1.0004473,1.0000467 0 0 0 -0.01,0.01 c 0.01,-0.008 -0.012,0.0153 -0.049,0.0625 v 0 0.002 c -0.36643,0.469611 -0.81659,0.832281 -1.31477,1.076107 a 1.0004473,1.0000467 0 0 0 -0.068,0.0371 1.0004473,1.0000467 0 0 0 0,0.002 c 0,4.9e-4 -0.01,0.002 -0.01,0.002 l 0.01,-0.008 -32.94304,19.012524 a 1.0004473,1.0000467 0 0 0 -0.025,0.0156 c -0.32622,0.188519 -0.67774,0.329021 -1.05318,0.414036 a 1.0004473,1.0000467 0 0 0 -0.033,0.01 c -0.055,0.0118 -0.12924,0.0237 -0.22658,0.0391 -0.089,0.0143 -0.14655,0.0248 -0.16996,0.0273 0,4e-4 -0.056,0.003 -0.14845,0.01 -0.089,0.006 -0.16196,0.0112 -0.22278,0.0117 -0.10184,7.7e-4 -0.14865,0.004 -0.053,0.004 0.01,0 -0.022,-0.003 -0.096,-0.006 a 1.0004473,1.0000467 0 0 0 -0.01,0 c -0.079,-0.002 -0.15535,-0.008 -0.22858,-0.0137 v 0.002 c -0.062,-0.005 -0.12514,-0.0143 -0.19147,-0.0234 v 0.002 c -0.066,-0.009 -0.11724,-0.0171 -0.15235,-0.0234 -0.075,-0.0132 -0.15466,-0.032 -0.24619,-0.0547 v 0 c -0.062,-0.0155 -0.094,-0.0233 -0.088,-0.0215 a 1.0004473,1.0000467 0 0 0 -0.01,-0.002 c -0.092,-0.0253 -0.18747,-0.0555 -0.2872,-0.09179 a 1.0004473,1.0000467 0 0 0 -0.01,-0.004 c 0.01,0.002 -0.018,-0.006 -0.033,-0.0117 l -0.01,-0.004 c -0.01,-0.002 0,-9.89e-4 -0.01,-0.004 -0.098,-0.0377 -0.19787,-0.08279 -0.29701,-0.130853 v 0 c -0.10793,-0.0525 -0.21208,-0.109903 -0.31661,-0.17381 -0.099,-0.0609 -0.20157,-0.131122 -0.30471,-0.208977 -0.10144,-0.0765 -0.19547,-0.155531 -0.2853,-0.238267 -0.62463,-0.575436 -1.04937,-1.352291 -1.17812,-2.23621 0,-0.1665 -0.012,-0.197658 -0.012,0.008 a 1.0004473,1.0000467 0 0 0 0,-0.08199 c 0,-0.0317 -9e-4,-0.131703 -0.02,-0.294913 l 0.01,0.113284 c 0,-0.212807 -0.016,-0.293653 -0.016,-0.242177 v -0.0566 -38.398347 -0.04492 a 1.0004473,1.0000467 0 0 0 0,-0.0098 c 0,-0.06297 0,-0.08565 0,-0.06836 a 1.0004473,1.0000467 0 0 0 0.016,-0.171865 c 0,-0.03735 0,-0.08825 0.01,-0.152336 2e-4,-0.0016 -10e-5,-0.0023 0,-0.0039 a 1.0004473,1.0000467 0 0 0 0.012,-0.06641 c 0.17316,-1.282073 0.97524,-2.3460905 2.08855,-2.8904715 a 1.0004473,1.0000467 0 0 0 0.02,-0.0098 c 0.10034,-0.04833 0.20248,-0.09228 0.30481,-0.130851 a 1.0004473,1.0000467 0 0 0 0.018,-0.0078 c -8e-4,2.69e-4 0,-6.3e-4 0.01,-0.002 a 1.0004473,1.0000467 0 0 0 0,-0.0019 1.0004473,1.0000467 0 0 0 0.014,-0.0039 c 0.10002,-0.03635 0.19777,-0.06957 0.2931,-0.09569 a 1.0004473,1.0000467 0 0 0 0.016,-0.0039 c -0.018,0.0052 -3e-4,5.58e-4 0.057,-0.01367 0.10312,-0.02596 0.18957,-0.04551 0.26378,-0.05859 a 1.0004473,1.0000467 0 0 0 0,-0.0019 c 0.014,-0.0026 0.061,-0.0075 0.13486,-0.01758 0.096,-0.01344 0.16506,-0.02388 0.21108,-0.02734 a 1.0004473,1.0000467 0 0 0 0.01,0 c 0.038,-0.0031 0.095,-0.0058 0.17196,-0.0078 a 1.0004473,1.0000467 0 0 0 0.01,0 c 0.12545,-0.0043 0.16846,-0.0078 0.13675,-0.0078 a 1.0004473,1.0000467 0 0 0 0.027,-0.002 z m 1.03355,45.8784165 c -0.028,0 -0.066,10e-4 -0.10943,0.006 0,-4.19e-4 0.01,-0.002 0.01,-0.002 z m -0.97104,0.85347 a 1.0004473,1.0000467 0 0 0 -0.01,0.084 c 2e-4,-0.01 0,-0.0254 0,-0.0254 z m 0.99055,0.140612 c 0,0 0.01,-1e-5 0.01,0 v 0.002 c 0,-10e-6 0,-0.002 0,-0.002 z m 0.17776,0.976513 c -0.031,0.008 -0.056,0.0174 -0.072,0.0195 -0.01,8.3e-4 -0.01,10e-4 -0.014,0.002 0.034,-0.004 0.057,-0.0156 0.086,-0.0215 z" />
    <path
       id="rect1323-3"
       style="fill:#14b895;fill-opacity:1;stroke:none;stroke-width:1.99998;stroke-linecap:round;stroke-linejoin:round;stroke-miterlimit:4;stroke-dasharray:none;stroke-dashoffset:2.1875;stroke-opacity:1"
       d="m 15.361064,8.0000675 v 0.002 c -0.058,0 -0.1139,0.0078 -0.1719,0.0098 -0.075,0.002 -0.1496,0.0038 -0.2246,0.0098 -0.093,0.007 -0.1844,0.0205 -0.2754,0.0332 -0.058,0.008 -0.1179,0.01489 -0.1758,0.02539 -0.1133,0.02 -0.2235,0.04642 -0.3339,0.07422 -0.032,0.008 -0.063,0.01444 -0.094,0.02344 -0.1258,0.0345 -0.2497,0.0749 -0.3711,0.119141 -0.018,0.006 -0.036,0.01253 -0.053,0.01953 -0.1315,0.0496 -0.2611,0.105516 -0.3867,0.166016 -0.01,0.004 -0.015,0.008 -0.025,0.01172 -1.4071,0.688286 -2.4205,2.0404795 -2.6387,3.6562315 -0.014,0.0292 -0.014,0.05869 -0.014,0.08789 -0.01,0.0887 -0.017,0.177476 -0.017,0.267577 -0.014,0.07979 -0.016,0.160532 -0.016,0.240233 -2e-4,0.019 0,0.03579 0,0.05469 v 38.400206 0.0566 c 0,0.08069 0.016,0.161378 0.016,0.242177 0.01,0.08799 0.01,0.177078 0.017,0.263678 0,0.0324 0.014,0.0634 0.014,0.09569 0.1546,1.132179 0.6999,2.133548 1.4981,2.869122 0.1154,0.106299 0.23581,0.206078 0.36131,0.300776 0.1239,0.0935 0.2517,0.182379 0.38469,0.263678 0.1306,0.07989 0.2638,0.153299 0.4024,0.220698 0.1306,0.0634 0.2654,0.122229 0.4023,0.173828 0.017,0.006 0.036,0.0135 0.053,0.0195 0.119,0.0433 0.2401,0.0832 0.3632,0.117189 0.039,0.011 0.079,0.0193 0.1192,0.0293 0.1043,0.0259 0.2074,0.0495 0.3144,0.0684 0.063,0.0114 0.1275,0.0203 0.1914,0.0293 0.08,0.011 0.1602,0.0203 0.2422,0.0273 0.092,0.008 0.1844,0.0126 0.2774,0.0156 0.046,0.002 0.092,0.006 0.1387,0.006 0.02,0 0.041,-0.004 0.061,-0.004 0.097,-8e-4 0.1921,-0.007 0.2891,-0.0137 0.062,-0.005 0.1265,-0.007 0.1875,-0.0137 0.073,-0.008 0.1457,-0.0215 0.2187,-0.0332 0.1002,-0.0158 0.1989,-0.031 0.2969,-0.0527 0,0 -4e-4,-0.002 0.01,-0.002 0.01,-10e-4 0.018,-0.005 0.018,-0.006 0.4759,-0.107839 0.9221,-0.286447 1.332,-0.523434 l 0.025,-0.0156 32.9314,-19.013582 c 0,-10e-4 0.012,-9.1e-4 0.012,-0.002 0.6377,-0.312197 1.2066,-0.773992 1.6641,-1.361316 0.023,-0.0297 0.048,-0.0595 0.07,-0.0898 0.061,-0.08179 0.1178,-0.167308 0.1738,-0.253907 0.031,-0.0482 0.064,-0.0973 0.094,-0.146488 0.014,-0.0227 0.031,-0.0415 0.045,-0.0644 0.028,-0.0486 0.048,-0.09939 0.074,-0.148438 0.042,-0.07869 0.083,-0.157589 0.1211,-0.238288 0.026,-0.0573 0.049,-0.116028 0.074,-0.173828 0.034,-0.0828 0.07,-0.165498 0.1,-0.249997 0.026,-0.0737 0.05,-0.146399 0.072,-0.220699 0.021,-0.07409 0.045,-0.149508 0.062,-0.224607 0.018,-0.0727 0.032,-0.145649 0.047,-0.218748 0.016,-0.0811 0.033,-0.160288 0.045,-0.242188 0.011,-0.0782 0.015,-0.156179 0.025,-0.234377 0.01,-0.0692 0.01,-0.139379 0.018,-0.208979 0.01,-0.0815 0.01,-0.162837 0.01,-0.244137 0,-0.08219 6e-4,-0.163698 -0.01,-0.246097 0,-0.0685 -0.01,-0.136879 -0.018,-0.205078 -0.01,-0.0802 -0.014,-0.160129 -0.025,-0.240229 -0.011,-0.07899 -0.027,-0.158027 -0.043,-0.236327 -0.014,-0.0748 -0.029,-0.148158 -0.047,-0.222658 -0.018,-0.0736 -0.041,-0.146148 -0.062,-0.218748 -0.023,-0.078 -0.046,-0.155118 -0.074,-0.232418 -0.027,-0.07589 -0.058,-0.151968 -0.088,-0.226567 -0.028,-0.067 -0.055,-0.133019 -0.086,-0.199218 -0.036,-0.0778 -0.077,-0.154569 -0.1172,-0.230467 -0.026,-0.0489 -0.048,-0.09821 -0.076,-0.14648 -0.011,-0.0201 -0.025,-0.0367 -0.037,-0.0566 -0.036,-0.06 -0.074,-0.119239 -0.1133,-0.177738 -0.052,-0.0789 -0.1022,-0.157618 -0.1582,-0.232418 -0.021,-0.0278 -0.044,-0.0527 -0.066,-0.0801 -0.08,-0.103519 -0.163,-0.205378 -0.25,-0.300777 -0.3972,-0.434015 -0.8632,-0.782812 -1.3711,-1.03906 l -33.021,-19.0623055 c -0.4141,-0.23938 -0.8643,-0.419851 -1.3457,-0.527341 0,-10e-4 -0.012,-9.03e-4 -0.012,-0.002 -0.1103,-0.0244 -0.2229,-0.04375 -0.3359,-0.06055 -0.053,-0.008 -0.1052,-0.01744 -0.1582,-0.02344 -0.076,-0.009 -0.1554,-0.01258 -0.2324,-0.01758 -0.087,-0.006 -0.1728,-0.01267 -0.2598,-0.01367 -0.021,0 -0.043,-0.002 -0.062,-0.002 z" />
    <path
       id="rect1323-3-6-49"
       style="color:#000000;font-style:normal;font-variant:normal;font-weight:normal;font-stretch:normal;font-size:medium;line-height:normal;font-family:sans-serif;font-variant-ligatures:normal;font-variant-position:normal;font-variant-caps:normal;font-variant-numeric:normal;font-variant-alternates:normal;font-variant-east-asian:normal;font-feature-settings:normal;font-variation-settings:normal;text-indent:0;text-align:start;text-decoration:none;text-decoration-line:none;text-decoration-style:solid;text-decoration-color:#000000;letter-spacing:normal;word-spacing:normal;text-transform:none;writing-mode:lr-tb;direction:ltr;text-orientation:mixed;dominant-baseline:auto;baseline-shift:baseline;text-anchor:start;white-space:normal;shape-padding:0;shape-margin:0;inline-size:0;clip-rule:nonzero;display:inline;overflow:visible;visibility:visible;opacity:0.25;isolation:auto;mix-blend-mode:normal;color-interpolation:sRGB;color-interpolation-filters:linearRGB;solid-color:#000000;solid-opacity:1;vector-effect:none;fill:#0e8168;fill-opacity:1;fill-rule:nonzero;stroke:none;stroke-width:1.00015;stroke-linecap:round;stroke-linejoin:round;stroke-miterlimit:4;stroke-dasharray:none;stroke-dashoffset:2.1875;stroke-opacity:1;color-rendering:auto;image-rendering:auto;shape-rendering:auto;text-rendering:auto;enable-background:accumulate;stop-color:#000000"
       d="m 15.351874,7.0024045 a 1.0004473,1.0000468 0 0 0 -0.10944,0.0078 c -0.024,0.0022 -0.092,0.004 -0.088,0.0039 -0.072,0.0019 -0.16106,0.003 -0.26959,0.01172 -0.13685,0.01059 -0.2499,0.02926 -0.33412,0.04102 v -0.0019 c -0.043,0.0059 -0.11534,0.0148 -0.21688,0.0332 -0.15055,0.02675 -0.2839,0.05855 -0.40054,0.08788 -0.01,0.0017 -0.052,0.01158 -0.11524,0.0293 0,5.64e-4 0,0.0014 -0.01,0.0019 0,0.0013 0,5.73e-4 -0.01,0.002 -0.15126,0.04193 -0.29491,0.09006 -0.43376,0.140616 -0.02,0.0069 -0.041,0.0145 -0.064,0.02344 -0.13915,0.05247 -0.2726,0.110205 -0.40444,0.171866 v 0.002 0.0019 a 1.0004473,1.0000468 0 0 0 -0.09,0.03906 c -1.657,0.810236 -2.8324096,2.399248 -3.1378196,4.2810225 -0.038,0.156601 -0.076,0.341089 -0.076,0.361308 l 0.01,-0.113275 c -0.012,0.110883 -0.023,0.238952 -0.023,0.380839 l 0.016,-0.173819 c -0.031,0.176894 -0.031,0.317616 -0.031,0.41404 -10e-5,0.02336 0,0.04493 0,0.05469 v 38.398347 0.0566 c 0,0.212867 0.016,0.293383 0.016,0.242176 a 1.0004473,1.0000468 0 0 0 0.01,0.113273 c 0,0.0128 0,0.08899 0.014,0.230457 0,0.197478 0.012,0.233306 0.012,0.0156 a 1.0004473,1.0000468 0 0 0 0.01,0.134762 c 0.18657,1.36611 0.8469996,2.58035 1.8111496,3.468558 0.14066,0.129513 0.28651,0.250626 0.43575,0.363269 0.14465,0.109134 0.30042,0.218538 0.46697,0.320292 v -0.002 c 0.15625,0.09559 0.31761,0.185489 0.48647,0.267564 0.15526,0.0753 0.31752,0.147272 0.48648,0.210928 a 1.0004473,1.0000468 0 0 0 0.02,0.008 c -0.01,-0.004 0.011,0.004 0.055,0.0195 0.13555,0.0491 0.2788,0.095 0.42976,0.136712 0.078,0.0218 0.12804,0.0335 0.14265,0.0371 0.11514,0.0286 0.23978,0.0577 0.37703,0.08199 0.091,0.0165 0.16856,0.0264 0.23058,0.0352 0.094,0.0129 0.19107,0.0245 0.29311,0.0332 0.10754,0.009 0.21207,0.0141 0.31651,0.0176 0.019,8e-4 0.079,0.008 0.18177,0.008 0.15005,0 0.17056,-0.004 0.061,-0.004 a 1.0004473,1.0000468 0 0 0 0.01,0 c 0.13225,-10e-4 0.25029,-0.0102 0.35363,-0.0176 0.031,-0.002 0.10613,-0.004 0.22478,-0.0176 v 0.002 c 0.12174,-0.0133 0.20887,-0.0319 0.26569,-0.041 0.098,-0.0155 0.21758,-0.0315 0.35753,-0.0625 a 1.0004473,1.0000468 0 0 0 0.033,-0.01 1.0004473,1.0000468 0 0 0 0.10164,-0.0312 c 0.01,-0.003 0.016,-0.003 0.023,-0.006 0.041,-0.0155 0.081,-0.0303 0.15046,-0.0703 v -0.002 c 0.46716,-0.132302 0.92563,-0.287133 1.33447,-0.523409 a 1.0004473,1.0000468 0 0 0 0.029,-0.0176 l 0.01,-0.006 32.87851,-18.977507 v 0.004 c 0.01,-0.003 0.011,-0.0104 0.018,-0.0137 l 0.029,-0.0176 a 1.0004473,1.0000468 0 0 0 0.016,-0.01 c 0,10e-4 -0.017,0.007 -0.023,0.01 0.017,-0.008 0.029,-0.0145 0.039,-0.0195 a 1.0004473,1.0000468 0 0 0 0,-0.002 c 0.01,-0.004 0.037,-0.0176 0.037,-0.0176 0,0 0.024,-0.0217 0.029,-0.0273 a 1.0004473,1.0000468 0 0 0 0.16796,-0.160151 c 0.63052,-0.367518 1.23544,-0.795164 1.6979,-1.388599 a 1.0004473,1.0000468 0 0 0 0,-0.002 c 0.01,-0.008 0.04,-0.0466 0.082,-0.103504 l 0.01,-0.0117 c 0.079,-0.106354 0.14505,-0.206918 0.20328,-0.296863 a 1.0004473,1.0000468 0 0 0 0,-0.002 c 0.023,-0.0354 0.059,-0.092 0.10353,-0.16405 v -0.004 c -0.036,0.059 -0.026,0.0514 0.045,-0.0645 a 1.0004473,1.0000468 0 0 0 0.012,-0.0215 c 0.073,-0.127763 0.096,-0.187189 0.09,-0.17577 v -0.004 c 0.045,-0.08409 0.092,-0.177059 0.14065,-0.279283 a 1.0004473,1.0000468 0 0 0 0.01,-0.0137 c 0.041,-0.08929 0.064,-0.153061 0.08,-0.189449 a 1.0004473,1.0000468 0 0 0 0.01,-0.0176 c 0.029,-0.0698 0.072,-0.16657 0.11724,-0.294903 a 1.0004473,1.0000468 0 0 0 0,-0.002 c 0.03,-0.0862 0.06,-0.17566 0.088,-0.269515 a 1.0004473,1.0000468 0 0 0 0,-0.0117 c 0.014,-0.0493 0.043,-0.138512 0.07,-0.255845 0.026,-0.106764 0.043,-0.193009 0.057,-0.257805 a 1.0004473,1.0000468 0 0 0 0,-0.008 c 0.014,-0.0704 0.034,-0.16655 0.053,-0.290993 a 1.0004473,1.0000468 0 0 0 0,-0.006 c 0.018,-0.127242 0.022,-0.197338 0.025,-0.230456 v -0.0156 c 0.019,-0.137852 0.02,-0.215338 0.02,-0.214838 v -0.008 c 0.018,-0.156281 0.016,-0.277844 0.016,-0.357399 0,-0.0649 0,-0.18384 -0.016,-0.314442 -0.01,-0.110844 -0.013,-0.215098 -0.018,-0.253885 a 1.0004473,1.0000468 0 0 0 0,-0.008 c 0,-0.0317 -0.01,-0.115383 -0.025,-0.251945 a 1.0004473,1.0000468 0 0 0 0,-0.002 c -0.016,-0.113634 -0.033,-0.205968 -0.049,-0.283224 v -0.0156 c -0.015,-0.0812 -0.033,-0.16649 -0.055,-0.257795 a 1.0004473,1.0000468 0 0 0 0,-0.002 c -0.029,-0.117233 -0.058,-0.203548 -0.074,-0.259755 a 1.0004473,1.0000468 0 0 0 0,-0.004 c -0.023,-0.0783 -0.052,-0.17535 -0.092,-0.285134 v -0.002 c -0.037,-0.103964 -0.073,-0.190519 -0.10163,-0.261705 a 1.0004473,1.0000468 0 0 0 -0.01,-0.0137 c -0.026,-0.0613 -0.058,-0.139072 -0.10163,-0.232416 v -0.004 c -0.051,-0.110724 -0.10014,-0.202578 -0.13875,-0.275374 a 1.0004473,1.0000468 0 0 0 0,-0.002 c 0,-0.008 -0.035,-0.072 -0.082,-0.156241 v -0.004 c -0.063,-0.113853 -0.088,-0.143251 -0.055,-0.08789 v -0.002 c -0.044,-0.0738 -0.09,-0.143582 -0.13485,-0.210928 v -0.008 c -0.046,-0.0701 -0.10574,-0.16159 -0.18957,-0.273424 a 1.0004473,1.0000468 0 0 0 0,-0.004 c -0.051,-0.0675 -0.068,-0.0843 -0.072,-0.08789 l -0.012,-0.0156 c -0.088,-0.112763 -0.18326,-0.229436 -0.2911,-0.347639 a 1.0004473,1.0000468 0 0 0 0,-0.002 c -0.48017,-0.52449 -1.04647,-0.945975 -1.66079,-1.255787 l 0.051,0.0254 -33.03287,-19.0614865 c -0.39984,-0.231107 -0.8477,-0.386727 -1.30706,-0.515598 l -0.14655,-0.05469 c -0.04,-0.01729 -0.088,-0.03769 -0.10004,-0.04297 0,5.63e-4 0.036,0.0168 0.066,0.03125 l -0.031,-0.01172 c -0.027,-0.01288 -0.054,-0.02631 -0.084,-0.0332 0,-9.41e-4 -0.01,-0.003 -0.012,-0.0039 -0.01,-0.0013 -0.01,-0.0046 -0.016,-0.0059 v 0.0039 l -0.016,-0.0059 c -0.019,-0.0041 -0.034,-0.006 -0.053,-0.0098 0,-7.23e-4 -0.01,-0.0015 -0.012,-0.002 0,-5.63e-4 -0.01,-0.0014 -0.01,-0.0019 0,-4.91e-4 -9e-4,4.21e-4 0,0 -0.11244,-0.02286 -0.22298,-0.04517 -0.32632,-0.06055 v 0 c -0.033,-0.0051 -0.097,-0.01677 -0.18756,-0.02734 h -0.01 c -0.12054,-0.01396 -0.21337,-0.01752 -0.27549,-0.02148 v 0 c -0.081,-0.0056 -0.18367,-0.01414 -0.31262,-0.01563 a 1.0004473,1.0000468 0 0 0 -0.012,0 c 0.043,0 0.027,-0.002 -0.062,-0.002 a 1.0004473,1.0000468 0 0 0 -0.01,0 z m 1.32077,0.152334 c 0.017,0.0041 0.047,0.01175 0.047,0.01172 0,-6.22e-4 -0.014,-0.0059 -0.014,-0.0059 -9e-5,-2.1e-5 -0.023,-0.0037 -0.033,-0.0059 z m -1.28364,1.84756 c 4.9e-4,5.92e-4 -0.014,0.002 0.041,0.002 0.043,8.94e-4 0.10404,0.0037 0.19147,0.0098 a 1.0004473,1.0000468 0 0 0 0,0.002 c 0.091,0.0059 0.15374,0.0086 0.17976,0.01172 0.01,0.0011 0.049,0.0087 0.12114,0.01953 0.098,0.01459 0.18867,0.03135 0.26769,0.04883 v -0.0039 a 1.0004473,1.0000468 0 0 0 0.012,0.0039 c 0.37863,0.08451 0.73396,0.226754 1.06477,0.417947 l 33.03298,19.0614865 a 1.0004473,1.0000468 0 0 0 0.049,0.0273 c 0.40175,0.202658 0.76988,0.476792 1.08429,0.820272 0.062,0.0675 0.12795,0.148412 0.19737,0.238266 a 1.0004473,1.0000468 0 0 0 0.012,0.0137 c 0.05,0.0623 0.065,0.0801 0.047,0.0566 0.026,0.0351 0.064,0.0936 0.12114,0.17968 a 1.0004473,1.0000468 0 0 0 0.01,0.008 c 0.032,0.0468 0.06,0.09199 0.086,0.134753 a 1.0004473,1.0000468 0 0 0 0,0.002 c 0.062,0.103334 0.065,0.108994 0.016,0.0195 a 1.0004473,1.0000468 0 0 0 0.014,0.0215 c -0.01,-0.0104 0.01,0.0268 0.057,0.115233 0.041,0.077 0.074,0.139282 0.094,0.18163 a 1.0004473,1.0000468 0 0 0 0,0.004 c 0.017,0.0369 0.039,0.08849 0.068,0.16015 0.029,0.0712 0.053,0.131713 0.068,0.17577 a 1.0004473,1.0000468 0 0 0 0,0.006 c 0.015,0.0419 0.032,0.09779 0.055,0.17382 0.025,0.086 0.044,0.144471 0.051,0.17382 0.012,0.0516 0.023,0.106563 0.035,0.16991 a 1.0004473,1.0000468 0 0 0 0,0.0156 c 0.016,0.07709 0.026,0.135782 0.031,0.17382 0,0.0243 0.01,0.09899 0.023,0.226546 0.01,0.0707 0.01,0.108374 0.01,0.082 a 1.0004473,1.0000468 0 0 0 0.01,0.126952 c -6e-4,-0.005 0,0.0321 0,0.119133 0,0.0813 0,0.119413 0,0.121083 a 1.0004473,1.0000468 0 0 0 0,0.008 c -0.017,0.145361 -0.019,0.205208 -0.016,0.179679 a 1.0004473,1.0000468 0 0 0 0,0.0176 c -0.016,0.127873 -0.021,0.200179 -0.023,0.220688 -0.01,0.0395 -0.018,0.100484 -0.035,0.189449 -0.016,0.07599 -0.028,0.134922 -0.037,0.17186 a 1.0004473,1.0000468 0 0 0 0,0.0195 c 0,0.018 -0.022,0.0767 -0.049,0.17187 -0.015,0.0512 -0.033,0.103134 -0.053,0.16015 -0.013,0.0373 -0.042,0.102734 -0.076,0.185529 -0.034,0.0792 -0.055,0.132953 -0.066,0.158201 -0.026,0.0545 -0.056,0.114504 -0.092,0.18163 a 1.0004473,1.0000468 0 0 0 0,0.002 c -0.053,0.09959 -0.058,0.117703 -0.049,0.103514 0.029,-0.0489 0.029,-0.0541 -0.037,0.0527 a 1.0004473,1.0000468 0 0 0 0,0.004 c -0.014,0.0233 -0.041,0.067 -0.08,0.126943 -0.051,0.0785 -0.096,0.145291 -0.13485,0.197258 a 1.0004473,1.0000468 0 0 0 -0.01,0.01 c 0.01,-0.008 -0.012,0.0153 -0.049,0.0625 v 0 0.002 c -0.36643,0.469613 -0.81659,0.832282 -1.31477,1.076108 a 1.0004473,1.0000468 0 0 0 -0.068,0.0371 1.0004473,1.0000468 0 0 0 0,0.002 c 0,4.9e-4 -0.01,0.002 -0.01,0.002 l 0.01,-0.008 -32.94304,19.012524 a 1.0004473,1.0000468 0 0 0 -0.025,0.0156 c -0.32622,0.188519 -0.67774,0.329021 -1.05318,0.414036 a 1.0004473,1.0000468 0 0 0 -0.033,0.01 c -0.055,0.0118 -0.12924,0.0237 -0.22658,0.0391 -0.089,0.0143 -0.14655,0.0248 -0.16996,0.0273 0,4e-4 -0.056,0.003 -0.14845,0.01 -0.089,0.006 -0.16196,0.0112 -0.22278,0.0117 -0.10184,7.7e-4 -0.14865,0.004 -0.053,0.004 0.01,0 -0.022,-0.003 -0.096,-0.006 a 1.0004473,1.0000468 0 0 0 -0.01,0 c -0.079,-0.002 -0.15535,-0.008 -0.22858,-0.0137 v 0.002 c -0.062,-0.005 -0.12514,-0.0143 -0.19147,-0.0234 v 0.002 c -0.066,-0.009 -0.11724,-0.0171 -0.15235,-0.0234 -0.075,-0.0132 -0.15466,-0.032 -0.24619,-0.0547 v 0 c -0.062,-0.0155 -0.094,-0.0233 -0.088,-0.0215 a 1.0004473,1.0000468 0 0 0 -0.01,-0.002 c -0.092,-0.0253 -0.18747,-0.0555 -0.2872,-0.09179 a 1.0004473,1.0000468 0 0 0 -0.01,-0.004 c 0.01,0.002 -0.018,-0.006 -0.033,-0.0117 l -0.01,-0.004 c -0.01,-0.002 0,-9.9e-4 -0.01,-0.004 -0.098,-0.0377 -0.19787,-0.0828 -0.29701,-0.130852 v 0 c -0.10793,-0.0525 -0.21208,-0.109904 -0.31661,-0.17381 -0.099,-0.0609 -0.20157,-0.131123 -0.30471,-0.208978 -0.10144,-0.0765 -0.19547,-0.155531 -0.2853,-0.238266 -0.62463,-0.575437 -1.04937,-1.352292 -1.17812,-2.23621 0,-0.166501 -0.012,-0.197659 -0.012,0.008 a 1.0004473,1.0000468 0 0 0 0,-0.08199 c 0,-0.0317 -9e-4,-0.131702 -0.02,-0.294913 l 0.01,0.113283 c 0,-0.212807 -0.016,-0.293652 -0.016,-0.242175 v -0.0566 -38.398349 -0.04492 a 1.0004473,1.0000468 0 0 0 0,-0.0098 c 0,-0.06297 0,-0.08565 0,-0.06836 a 1.0004473,1.0000468 0 0 0 0.016,-0.171865 c 0,-0.03735 0,-0.08824 0.01,-0.152336 2e-4,-0.0016 -10e-5,-0.0023 0,-0.0039 a 1.0004473,1.0000468 0 0 0 0.012,-0.06641 c 0.17316,-1.282074 0.97524,-2.3460915 2.08855,-2.8904715 a 1.0004473,1.0000468 0 0 0 0.02,-0.0098 c 0.10034,-0.04833 0.20248,-0.09227 0.30481,-0.130851 a 1.0004473,1.0000468 0 0 0 0.018,-0.0078 c -8e-4,2.69e-4 0,-6.3e-4 0.01,-0.002 a 1.0004473,1.0000468 0 0 0 0,-0.0019 1.0004473,1.0000468 0 0 0 0.014,-0.0039 c 0.10002,-0.03635 0.19777,-0.06957 0.2931,-0.09569 a 1.0004473,1.0000468 0 0 0 0.016,-0.0039 c -0.018,0.0052 -3e-4,5.58e-4 0.057,-0.01367 0.10312,-0.02596 0.18957,-0.04551 0.26378,-0.05859 a 1.0004473,1.0000468 0 0 0 0,-0.0019 c 0.014,-0.0026 0.061,-0.0075 0.13486,-0.01758 0.096,-0.01344 0.16506,-0.02388 0.21108,-0.02734 a 1.0004473,1.0000468 0 0 0 0.01,0 c 0.038,-0.0031 0.095,-0.0058 0.17196,-0.0078 a 1.0004473,1.0000468 0 0 0 0.01,0 c 0.12545,-0.0043 0.16846,-0.0078 0.13675,-0.0078 a 1.0004473,1.0000468 0 0 0 0.027,-0.002 z m 1.03355,45.8784175 c -0.028,0 -0.066,10e-4 -0.10943,0.006 0,-4.2e-4 0.01,-0.002 0.01,-0.002 z m -0.97104,0.853471 a 1.0004473,1.0000468 0 0 0 -0.01,0.084 c 2e-4,-0.01 0,-0.0254 0,-0.0254 z m 0.99055,0.140611 c 0,0 0.01,-10e-6 0.01,0 v 0.002 c 0,-1e-5 0,-0.002 0,-0.002 z m 0.17776,0.976514 c -0.031,0.008 -0.056,0.0174 -0.072,0.0195 -0.01,8.29e-4 -0.01,9.99e-4 -0.014,0.002 0.034,-0.004 0.057,-0.0156 0.086,-0.0215 z" />
    <path
       id="rect1323-3-6-4"
       style="color:#000000;font-style:normal;font-variant:normal;font-weight:normal;font-stretch:normal;font-size:medium;line-height:normal;font-family:sans-serif;font-variant-ligatures:normal;font-variant-position:normal;font-variant-caps:normal;font-variant-numeric:normal;font-variant-alternates:normal;font-variant-east-asian:normal;font-feature-settings:normal;font-variation-settings:normal;text-indent:0;text-align:start;text-decoration:none;text-decoration-line:none;text-decoration-style:solid;text-decoration-color:#000000;letter-spacing:normal;word-spacing:normal;text-transform:none;writing-mode:lr-tb;direction:ltr;text-orientation:mixed;dominant-baseline:auto;baseline-shift:baseline;text-anchor:start;white-space:normal;shape-padding:0;shape-margin:0;inline-size:0;clip-rule:nonzero;display:inline;overflow:visible;visibility:visible;isolation:auto;mix-blend-mode:normal;color-interpolation:sRGB;color-interpolation-filters:linearRGB;solid-color:#000000;solid-opacity:1;vector-effect:none;fill:url(#linearGradient2301);fill-opacity:1;fill-rule:nonzero;stroke:none;stroke-width:0.999997;stroke-linecap:round;stroke-linejoin:round;stroke-miterlimit:4;stroke-dasharray:none;stroke-dashoffset:2.1875;stroke-opacity:1;color-rendering:auto;image-rendering:auto;shape-rendering:auto;text-rendering:auto;enable-background:accumulate;stop-color:#000000"
       d="m 15.360964,8.0000095 v 0.0019 c -0.058,0 -0.11388,0.0078 -0.17188,0.0098 -0.075,0.002 -0.14961,0.0038 -0.22461,0.0098 -0.093,0.007 -0.18439,0.0205 -0.27539,0.0332 -0.058,0.008 -0.11788,0.01489 -0.17578,0.02539 -0.1133,0.02 -0.22163,0.04642 -0.33203,0.07422 -0.032,0.008 -0.0647,0.01444 -0.0957,0.02344 -0.1258,0.0345 -0.24969,0.0749 -0.37109,0.119141 -0.018,0.006 -0.0357,0.01253 -0.0527,0.01953 -0.13149,0.0496 -0.26112,0.105515 -0.38671,0.166015 -0.01,0.004 -0.0154,0.008 -0.0254,0.01172 -1.4071,0.688293 -2.42049,2.0404815 -2.63868,3.6562495 -0.014,0.0292 -0.0137,0.05869 -0.0137,0.08789 -0.01,0.0887 -0.0156,0.177479 -0.0156,0.267578 -0.0136,0.0798 -0.0176,0.160535 -0.0176,0.240235 -2e-4,0.019 0,0.03579 0,0.05469 v 38.058594 0.341797 0.05664 c 0,0.0807 0.0176,0.161388 0.0176,0.242188 0.01,0.088 0.009,0.177072 0.0156,0.263672 0,0.0324 0.0137,0.0634 0.0137,0.0957 0.15458,1.13219 0.69984,2.133561 1.49804,2.869141 0.1154,0.106299 0.23583,0.206081 0.36133,0.300781 0.1239,0.0935 0.25177,0.182372 0.38477,0.263672 0.1306,0.0799 0.26374,0.153303 0.40234,0.220703 0.1306,0.0634 0.26544,0.122228 0.40234,0.173828 0.017,0.006 0.0377,0.01353 0.0547,0.01953 0.119,0.0433 0.24018,0.0832 0.36328,0.117188 0.039,0.011 0.0789,0.0193 0.11914,0.0293 0.1043,0.0259 0.20746,0.04946 0.31446,0.06836 0.063,0.0114 0.12751,0.0203 0.19141,0.0293 0.08,0.011 0.16018,0.02034 0.24219,0.02734 0.092,0.008 0.18434,0.01261 0.27734,0.01562 0.046,0.002 0.092,0.0059 0.13868,0.0059 0.0201,0 0.0405,-0.0039 0.0605,-0.0039 0.097,-8e-4 0.19206,-0.007 0.28906,-0.01367 0.062,-0.005 0.1265,-0.007 0.1875,-0.01367 0.073,-0.008 0.14575,-0.0215 0.21875,-0.0332 0.1002,-0.0158 0.19888,-0.03103 0.29688,-0.05273 0,0 -8.7e-4,-0.002 0.01,-0.002 0.01,-9.99e-4 0.0176,-0.0049 0.0176,-0.0059 0.4759,-0.10784 0.92213,-0.286448 1.33203,-0.523438 l 0.0254,-0.01563 32.93164,-19.013671 c 0,-0.001 0.0117,-8.07e-4 0.0117,-0.002 0.6377,-0.3122 1.20657,-0.773998 1.66407,-1.361328 0.023,-0.0297 0.0483,-0.05954 0.0703,-0.08984 0.061,-0.0818 0.11783,-0.167308 0.17383,-0.253906 0.0309,-0.04819 0.0638,-0.09729 0.0937,-0.146484 0.014,-0.0227 0.0309,-0.04155 0.0449,-0.06445 0.028,-0.0486 0.0482,-0.0994 0.0742,-0.148438 0.042,-0.0787 0.083,-0.157581 0.12109,-0.238281 0.026,-0.0573 0.0492,-0.116028 0.0742,-0.173828 0.034,-0.0828 0.0696,-0.1655 0.0996,-0.25 0.026,-0.0737 0.0503,-0.146403 0.0723,-0.220703 0.021,-0.0741 0.0455,-0.14951 0.0625,-0.22461 0.018,-0.0727 0.0319,-0.14565 0.0469,-0.21875 0.016,-0.0811 0.0329,-0.160287 0.0449,-0.242187 0.011,-0.0782 0.0134,-0.156175 0.0234,-0.234375 0.01,-0.0692 0.0115,-0.139384 0.0195,-0.208985 0.0102,-0.0815 0.01,-0.16284 0.01,-0.24414 0,-0.0822 0.001,-0.163694 -0.01,-0.246094 0,-0.0685 -0.0115,-0.136878 -0.0195,-0.205078 -0.01,-0.0802 -0.0124,-0.160134 -0.0234,-0.240234 -0.011,-0.079 -0.027,-0.158029 -0.043,-0.236328 -0.014,-0.0748 -0.0289,-0.148156 -0.0469,-0.222657 -0.018,-0.0736 -0.0415,-0.146149 -0.0625,-0.21875 -0.023,-0.078 -0.0462,-0.155122 -0.0742,-0.232422 -0.027,-0.0759 -0.0579,-0.151962 -0.0879,-0.226562 -0.028,-0.067 -0.0549,-0.133019 -0.0859,-0.199219 -0.036,-0.0778 -0.077,-0.154569 -0.11719,-0.230469 -0.026,-0.0489 -0.0482,-0.09821 -0.0762,-0.146484 -0.011,-0.0201 -0.0251,-0.03674 -0.0371,-0.05664 -0.036,-0.06 -0.074,-0.119234 -0.11328,-0.177734 -0.052,-0.0789 -0.10221,-0.157622 -0.1582,-0.232422 -0.021,-0.0278 -0.0444,-0.05268 -0.0664,-0.08008 -0.08,-0.10352 -0.163,-0.205381 -0.25,-0.300781 -0.3972,-0.43402 -0.8632,-0.782813 -1.37109,-1.039063 L 17.773064,8.6464935 c -0.4141,-0.239382 -0.86429,-0.419852 -1.3457,-0.527343 0,-9.97e-4 -0.0117,-8.57e-4 -0.0117,-0.0019 -0.1103,-0.0244 -0.22292,-0.04375 -0.33594,-0.06055 -0.053,-0.008 -0.1052,-0.01744 -0.1582,-0.02344 -0.076,-0.009 -0.15542,-0.01258 -0.23242,-0.01758 -0.087,-0.006 -0.17277,-0.01267 -0.25977,-0.01367 -0.0211,0 -0.0415,-0.0019 -0.0605,-0.0019 z m -4.19532,0.810547 c -0.22359,0.238972 -0.42082,0.502511 -0.60156,0.777343 v 0.0039 c 0.18111,-0.276192 0.37698,-0.541226 0.60156,-0.78125 z m 4.22071,0.189453 c 5e-4,5.92e-4 -0.014,0.0019 0.041,0.0019 0.043,8.95e-4 0.10401,0.0037 0.19141,0.0098 a 1.0000908,1.0001049 0 0 0 0,0.002 c 0.091,0.0059 0.15368,0.0086 0.17969,0.01172 0.01,0.0011 0.049,0.0087 0.12109,0.01953 0.098,0.01459 0.18858,0.03135 0.26758,0.04883 v -0.0039 a 1.0000908,1.0001049 0 0 0 0.0137,0.0039 c 0.37851,0.08451 0.73375,0.226765 1.06445,0.417969 l 33.01953,19.0624995 a 1.0000908,1.0001049 0 0 0 0.0488,0.02734 c 0.4016,0.20267 0.76968,0.476813 1.08398,0.820313 0.062,0.0675 0.12787,0.148421 0.19727,0.238281 a 1.0000908,1.0001049 0 0 0 0.0137,0.01367 c 0.05,0.0623 0.0649,0.08014 0.0469,0.05664 0.026,0.0351 0.064,0.0936 0.12109,0.179687 a 1.0000908,1.0001049 0 0 0 0.01,0.0078 c 0.032,0.0468 0.0599,0.09201 0.0859,0.134765 a 1.0000908,1.0001049 0 0 0 0,0.002 c 0.062,0.10334 0.0646,0.109033 0.0156,0.01953 a 1.0000908,1.0001049 0 0 0 0.0137,0.02148 c -0.01,-0.0104 0.01,0.02679 0.0566,0.115234 0.041,0.077 0.0738,0.139291 0.0937,0.181641 a 1.0000908,1.0001049 0 0 0 0,0.0039 c 0.017,0.0369 0.0394,0.0885 0.0684,0.160156 0.029,0.0712 0.0534,0.131722 0.0684,0.175782 a 1.0000908,1.0001049 0 0 0 0,0.0078 c 0.015,0.0419 0.0317,0.0978 0.0547,0.173828 0.025,0.086 0.0438,0.144479 0.0508,0.173828 0.012,0.0516 0.0232,0.106572 0.0352,0.169922 a 1.0000908,1.0001049 0 0 0 0,0.01563 c 0.016,0.0771 0.0263,0.135789 0.0312,0.173829 0,0.0243 0.0104,0.099 0.0234,0.226562 0.01,0.0707 0.01,0.108412 0.01,0.08203 a 1.0000908,1.0001049 0 0 0 0.01,0.126953 c -6e-4,-0.005 -3e-5,0.0321 0,0.119141 v 0.121094 a 1.0000908,1.0001049 0 0 0 0,0.0078 c -0.017,0.14537 -0.0186,0.205218 -0.0156,0.179688 a 1.0000908,1.0001049 0 0 0 0,0.01758 c -0.016,0.12788 -0.0214,0.200193 -0.0234,0.220703 -0.01,0.0395 -0.0181,0.100483 -0.0352,0.189453 -0.016,0.076 -0.0281,0.134935 -0.0371,0.171875 a 1.0000908,1.0001049 0 0 0 0,0.01953 c 0,0.018 -0.0218,0.0767 -0.0488,0.171875 -0.015,0.0512 -0.0327,0.103137 -0.0527,0.160157 -0.013,0.0373 -0.0422,0.102747 -0.0762,0.185547 -0.034,0.0792 -0.0554,0.132953 -0.0664,0.158203 -0.026,0.0545 -0.0558,0.11451 -0.0918,0.18164 a 1.0000908,1.0001049 0 0 0 0,0.002 c -0.053,0.0996 -0.0578,0.117706 -0.0488,0.103516 0.029,-0.0489 0.0289,-0.05407 -0.0371,0.05273 a 1.0000908,1.0001049 0 0 0 0,0.0039 c -0.014,0.0233 -0.0411,0.067 -0.0801,0.126953 -0.051,0.0785 -0.096,0.145295 -0.13476,0.197265 a 1.0000908,1.0001049 0 0 0 -0.01,0.0098 c 0.01,-0.008 -0.0118,0.0153 -0.0488,0.0625 v 0.002 c -0.3663,0.46964 -0.81645,0.832332 -1.31445,1.076172 a 1.0000908,1.0001049 0 0 0 -0.0684,0.03711 1.0000908,1.0001049 0 0 0 0,0.002 c 0,4.9e-4 -0.01,0.002 -0.01,0.002 l 0.01,-0.0078 -32.92969,19.013672 a 1.0000908,1.0001049 0 0 0 -0.0254,0.01563 c -0.3261,0.18853 -0.67743,0.329042 -1.05273,0.414062 a 1.0000908,1.0001049 0 0 0 -0.0332,0.0098 c -0.055,0.0118 -0.12927,0.02366 -0.22657,0.03906 -0.089,0.0143 -0.14652,0.02484 -0.16992,0.02734 0,4e-4 -0.056,0.0028 -0.14844,0.0098 -0.089,0.006 -0.16185,0.01122 -0.22265,0.01172 -0.1018,7.7e-4 -0.14838,0.0039 -0.0527,0.0039 0.01,0 -0.0217,-0.0029 -0.0957,-0.0059 a 1.0000908,1.0001049 0 0 0 -0.0117,0 c -0.079,-0.002 -0.15531,-0.008 -0.22851,-0.01367 v 0.002 c -0.062,-0.005 -0.12511,-0.01434 -0.19141,-0.02344 v 0.002 c -0.066,-0.009 -0.11724,-0.01714 -0.15234,-0.02344 -0.075,-0.0132 -0.1546,-0.03199 -0.2461,-0.05469 -0.062,-0.0155 -0.0939,-0.02329 -0.0879,-0.02148 a 1.0000908,1.0001049 0 0 0 -0.01,-0.002 c -0.092,-0.0253 -0.18741,-0.0555 -0.28711,-0.0918 a 1.0000908,1.0001049 0 0 0 -0.01,-0.0039 c 0.01,0.002 -0.0182,-0.006 -0.0332,-0.01172 l -0.01,-0.0039 c -0.01,-0.002 4.8e-4,-9.02e-4 -0.01,-0.0039 -0.098,-0.0377 -0.19778,-0.0828 -0.29688,-0.13086 -0.1079,-0.0525 -0.2119,-0.109918 -0.3164,-0.173828 -0.099,-0.0609 -0.20159,-0.131124 -0.30469,-0.208984 -0.1014,-0.0765 -0.19536,-0.155541 -0.28516,-0.238282 -0.6244,-0.57547 -1.04903,-1.352358 -1.17773,-2.236328 0,-0.16651 -0.0117,-0.197845 -0.0117,0.0078 a 1.0000908,1.0001049 0 0 0 0,-0.08203 c 0,-0.0317 -4.6e-4,-0.131702 -0.0195,-0.294922 l 0.01,0.113281 c 0,-0.21282 -0.0156,-0.293668 -0.0156,-0.242187 v -0.05664 -38.400391 -0.04492 a 1.0000908,1.0001049 0 0 0 0,-0.0098 v -0.06836 a 1.0000908,1.0001049 0 0 0 0.0156,-0.171875 c 0,-0.03735 -4.6e-4,-0.08825 0.01,-0.152343 2e-4,-0.0016 -10e-5,-0.0023 0,-0.0039 a 1.0000908,1.0001049 0 0 0 0.0117,-0.06641 c 0.1731,-1.282147 0.97499,-2.3462125 2.08789,-2.8906245 a 1.0000908,1.0001049 0 0 0 0.0195,-0.0098 c 0.1003,-0.04833 0.20239,-0.09228 0.30469,-0.130859 a 1.0000908,1.0001049 0 0 0 0.0176,-0.0078 c -8.2e-4,2.69e-4 0.002,-5.86e-4 0.0117,-0.0019 a 1.0000908,1.0001049 0 0 0 0,-0.002 1.0000908,1.0001049 0 0 0 0.0137,-0.0039 c 0.1,-0.03635 0.19766,-0.06957 0.29296,-0.0957 a 1.0000908,1.0001049 0 0 0 0.0156,-0.0039 c -0.018,0.0052 -6.2e-4,5.56e-4 0.0566,-0.01367 0.1031,-0.02596 0.18947,-0.04551 0.26367,-0.05859 a 1.0000908,1.0001049 0 0 0 0,-0.0019 c 0.014,-0.0026 0.061,-0.0075 0.13477,-0.01758 0.096,-0.01344 0.16494,-0.02388 0.21094,-0.02734 a 1.0000908,1.0001049 0 0 0 0.01,0 c 0.038,-0.0031 0.095,-0.0058 0.17188,-0.0078 a 1.0000908,1.0001049 0 0 0 0.01,0 c 0.1254,-0.0043 0.16842,-0.0078 0.13672,-0.0078 a 1.0000908,1.0001049 0 0 0 0.0273,-0.0019 z m 35.87304,17.8222655 0.0352,0.01758 -0.0117,-0.0078 z m -34.83984,28.058593 c -0.028,0 -0.066,8.2e-4 -0.10938,0.0059 0,-4.2e-4 0.0117,-0.002 0.0117,-0.002 z m -0.9707,0.853516 a 1.0000908,1.0001049 0 0 0 -0.01,0.08398 c 2e-4,-0.01 0,-0.02539 0,-0.02539 z" />
  </g>
</svg>
