<?xml version="1.0" encoding="UTF-8" standalone="no"?>
<svg
   xmlns:dc="http://purl.org/dc/elements/1.1/"
   xmlns:cc="http://creativecommons.org/ns#"
   xmlns:rdf="http://www.w3.org/1999/02/22-rdf-syntax-ns#"
   xmlns:svg="http://www.w3.org/2000/svg"
   xmlns="http://www.w3.org/2000/svg"
   xmlns:xlink="http://www.w3.org/1999/xlink"
   xmlns:sodipodi="http://sodipodi.sourceforge.net/DTD/sodipodi-0.dtd"
   xmlns:inkscape="http://www.inkscape.org/namespaces/inkscape"
   width="64"
   height="64"
   viewBox="0 0 64 64"
   version="1.1"
   id="svg6374"
   inkscape:version="1.0.2 (e86c870879, 2021-01-15)"
   sodipodi:docname="list-add.svg">
  <defs
     id="defs6368">
    <linearGradient
       inkscape:collect="always"
       xlink:href="#linearGradient979-8"
       id="linearGradient2486"
       gradientUnits="userSpaceOnUse"
       gradientTransform="matrix(3.7795275,0,0,3.7795275,0,-99.999996)"
       x1="8.3343754"
       y1="37.041672"
       x2="8.598959"
       y2="29.104166" />
    <linearGradient
       inkscape:collect="always"
       id="linearGradient979-8">
      <stop
         style="stop-color:#f9f9f7;stop-opacity:0"
         offset="0"
         id="stop975-7" />
      <stop
         style="stop-color:#f9f9f7;stop-opacity:0.1"
         offset="1"
         id="stop977-9" />
    </linearGradient>
  </defs>
  <sodipodi:namedview
     id="base"
     pagecolor="#cecece"
     bordercolor="#666666"
     borderopacity="1.0"
     inkscape:pageopacity="0"
     inkscape:pageshadow="2"
     inkscape:zoom="8.4390618"
     inkscape:cx="41.653757"
     inkscape:cy="54.482012"
     inkscape:document-units="px"
     inkscape:current-layer="layer1"
     inkscape:document-rotation="0"
     showgrid="false"
     units="px"
     inkscape:window-width="2048"
     inkscape:window-height="1080"
     inkscape:window-x="0"
     inkscape:window-y="0"
     inkscape:window-maximized="1" />
  <metadata
     id="metadata6371">
    <rdf:RDF>
      <cc:Work
         rdf:about="">
        <dc:format>image/svg+xml</dc:format>
        <dc:type
           rdf:resource="http://purl.org/dc/dcmitype/StillImage" />
        <dc:title />
      </cc:Work>
    </rdf:RDF>
  </metadata>
  <g
     inkscape:label="Layer 1"
     inkscape:groupmode="layer"
     id="layer1">
    <path
       id="path1181-0-2-9-62-2-2"
       style="color:#000000;font-style:normal;font-variant:normal;font-weight:normal;font-stretch:normal;font-size:medium;line-height:normal;font-family:sans-serif;font-variant-ligatures:normal;font-variant-position:normal;font-variant-caps:normal;font-variant-numeric:normal;font-variant-alternates:normal;font-variant-east-asian:normal;font-feature-settings:normal;font-variation-settings:normal;text-indent:0;text-align:start;text-decoration:none;text-decoration-line:none;text-decoration-style:solid;text-decoration-color:#000000;letter-spacing:normal;word-spacing:normal;text-transform:none;writing-mode:lr-tb;direction:ltr;text-orientation:mixed;dominant-baseline:auto;baseline-shift:baseline;text-anchor:start;white-space:normal;shape-padding:0;shape-margin:0;inline-size:0;clip-rule:nonzero;display:inline;overflow:visible;visibility:visible;opacity:0.15;isolation:auto;mix-blend-mode:normal;color-interpolation:sRGB;color-interpolation-filters:linearRGB;solid-color:#000000;solid-opacity:1;vector-effect:none;fill:#0c0c0c;fill-opacity:1;fill-rule:nonzero;stroke:none;stroke-width:0;stroke-linecap:round;stroke-linejoin:round;stroke-miterlimit:4;stroke-dasharray:none;stroke-dashoffset:2.1875;stroke-opacity:1;color-rendering:auto;image-rendering:auto;shape-rendering:auto;text-rendering:auto;enable-background:accumulate;stop-color:#000000"
       d="M 32,9.5 C 18.76186,9.5 8,20.2634 8,33.501 c 0,13.2376 10.76186,23.998999 24,23.998999 13.23814,0 24,-10.7614 24,-23.998999 C 56,20.2634 45.23814,9.5 32,9.5 Z m 0,2.9982 c 11.61669,0 21.00366,9.386599 21.00366,21.0028 0,11.6162 -9.38697,21.000799 -21.00366,21.000799 -11.61668,0 -21.00366,-9.384599 -21.00366,-21.000799 0,-11.6162 9.38697,-21.0028 21.00366,-21.0028 z" />
    <path
       id="path1181-0-6-2-9-0-9"
       style="color:#000000;font-style:normal;font-variant:normal;font-weight:normal;font-stretch:normal;font-size:medium;line-height:normal;font-family:sans-serif;font-variant-ligatures:normal;font-variant-position:normal;font-variant-caps:normal;font-variant-numeric:normal;font-variant-alternates:normal;font-variant-east-asian:normal;font-feature-settings:normal;font-variation-settings:normal;text-indent:0;text-align:start;text-decoration:none;text-decoration-line:none;text-decoration-style:solid;text-decoration-color:#000000;letter-spacing:normal;word-spacing:normal;text-transform:none;writing-mode:lr-tb;direction:ltr;text-orientation:mixed;dominant-baseline:auto;baseline-shift:baseline;text-anchor:start;white-space:normal;shape-padding:0;shape-margin:0;inline-size:0;clip-rule:nonzero;display:inline;overflow:visible;visibility:visible;opacity:0.85;isolation:auto;mix-blend-mode:normal;color-interpolation:sRGB;color-interpolation-filters:linearRGB;solid-color:#000000;solid-opacity:1;vector-effect:none;fill:#0e8168;fill-opacity:1;fill-rule:nonzero;stroke:none;stroke-width:3.77975;stroke-linecap:round;stroke-linejoin:round;stroke-miterlimit:4;stroke-dasharray:none;stroke-dashoffset:2.1875;stroke-opacity:1;color-rendering:auto;image-rendering:auto;shape-rendering:auto;text-rendering:auto;enable-background:accumulate;stop-color:#000000"
       d="M 32,8 C 18.76186,8 8,18.7634 8,32.000999 c 0,13.2376 10.76186,23.999 24,23.999 13.23814,0 24,-10.7614 24,-23.999 C 56,18.7634 45.23814,8 32,8 Z m 0,2.9982 c 11.61669,0 21.00366,9.386599 21.00366,21.0028 0,11.6162 -9.38697,21.000799 -21.00366,21.000799 -11.61668,0 -21.00366,-9.384599 -21.00366,-21.000799 0,-11.6162 9.38697,-21.0028 21.00366,-21.0028 z" />
    <circle
       style="fill:#14b895;fill-opacity:1;stroke:#771832;stroke-width:0;stroke-linecap:round;stroke-linejoin:round;stroke-miterlimit:4;stroke-dasharray:none;stroke-dashoffset:2.1875;stroke-opacity:1"
       id="path1181-0-1-2-1"
       cx="31.999989"
       cy="32.000004"
       r="22.499998" />
    <circle
       style="display:inline;fill:url(#linearGradient2486);fill-opacity:1;stroke:#771832;stroke-width:0;stroke-linecap:round;stroke-linejoin:round;stroke-miterlimit:4;stroke-dasharray:none;stroke-dashoffset:2.1875;stroke-opacity:1"
       id="path1181-6-2-7-3-2"
       cx="31.999989"
       cy="32.000004"
       r="22.499998" />
    <path
       id="path1181-0-2-9-3-2-7-7"
       style="color:#000000;font-style:normal;font-variant:normal;font-weight:normal;font-stretch:normal;font-size:medium;line-height:normal;font-family:sans-serif;font-variant-ligatures:normal;font-variant-position:normal;font-variant-caps:normal;font-variant-numeric:normal;font-variant-alternates:normal;font-variant-east-asian:normal;font-feature-settings:normal;font-variation-settings:normal;text-indent:0;text-align:start;text-decoration:none;text-decoration-line:none;text-decoration-style:solid;text-decoration-color:#000000;letter-spacing:normal;word-spacing:normal;text-transform:none;writing-mode:lr-tb;direction:ltr;text-orientation:mixed;dominant-baseline:auto;baseline-shift:baseline;text-anchor:start;white-space:normal;shape-padding:0;shape-margin:0;inline-size:0;clip-rule:nonzero;display:inline;overflow:visible;visibility:visible;opacity:0.15;isolation:auto;mix-blend-mode:normal;color-interpolation:sRGB;color-interpolation-filters:linearRGB;solid-color:#000000;solid-opacity:1;vector-effect:none;fill:#0a5c4a;fill-opacity:1;fill-rule:nonzero;stroke:none;stroke-width:0;stroke-linecap:round;stroke-linejoin:round;stroke-miterlimit:4;stroke-dasharray:none;stroke-dashoffset:2.1875;stroke-opacity:1;color-rendering:auto;image-rendering:auto;shape-rendering:auto;text-rendering:auto;enable-background:accumulate;stop-color:#000000"
       d="M 32,8 C 18.76186,8 8,18.7634 8,32.000999 c 0,13.2376 10.76186,23.999 24,23.999 13.23814,0 24,-10.7614 24,-23.999 C 56,18.7634 45.23814,8 32,8 Z m 0,2.9982 c 11.61669,0 21.00366,9.386599 21.00366,21.0028 0,11.6162 -9.38697,21.000799 -21.00366,21.000799 -11.61668,0 -21.00366,-9.384599 -21.00366,-21.000799 0,-11.6162 9.38698,-21.0028 21.00366,-21.0028 z" />
    <path
       id="rect4307-0-2-9-9-3-2-7-06"
       style="color:#000000;font-style:normal;font-variant:normal;font-weight:normal;font-stretch:normal;font-size:medium;line-height:normal;font-family:sans-serif;font-variant-ligatures:normal;font-variant-position:normal;font-variant-caps:normal;font-variant-numeric:normal;font-variant-alternates:normal;font-variant-east-asian:normal;font-feature-settings:normal;font-variation-settings:normal;text-indent:0;text-align:start;text-decoration:none;text-decoration-line:none;text-decoration-style:solid;text-decoration-color:#000000;letter-spacing:normal;word-spacing:normal;text-transform:none;writing-mode:lr-tb;direction:ltr;text-orientation:mixed;dominant-baseline:auto;baseline-shift:baseline;text-anchor:start;white-space:normal;shape-padding:0;shape-margin:0;inline-size:0;clip-rule:nonzero;display:inline;overflow:visible;visibility:visible;opacity:0.35;isolation:auto;mix-blend-mode:normal;color-interpolation:sRGB;color-interpolation-filters:linearRGB;solid-color:#000000;solid-opacity:1;vector-effect:none;fill:#0a5c4a;fill-opacity:1;fill-rule:nonzero;stroke:none;stroke-width:3.77953;stroke-linecap:round;stroke-linejoin:round;stroke-miterlimit:4;stroke-dasharray:none;stroke-dashoffset:2.1875;stroke-opacity:1;color-rendering:auto;image-rendering:auto;shape-rendering:auto;text-rendering:auto;enable-background:accumulate;stop-color:#000000"
       d="m 30.50196,18.25 c -0.95654,0 -1.75,0.7916 -1.75,1.748101 V 30.002 H 18.75001 c -0.95653,0 -1.75,0.7915 -1.75,1.748 v 2.9981 c 0,0.9565 0.79347,1.75 1.75,1.75 h 10.00195 v 10.002 c 0,0.9565 0.79346,1.7499 1.75,1.7499 h 2.99609 c 0.95652,0 1.75,-0.7934 1.75,-1.7499 V 36.4981 H 45.25 c 0.95653,0 1.75,-0.7935 1.75,-1.75 V 31.75 c 0,-0.9565 -0.79347,-1.748 -1.75,-1.748 H 35.24805 V 19.998101 c 0,-0.9565 -0.79349,-1.748101 -1.75,-1.748101 z m 0,1.498101 h 2.99609 c 0.15148,0 0.25194,0.099 0.25194,0.2502 V 30.7464 a 0.75007497,0.75007497 0 0 0 0.75195,0.7539 H 45.25 c 0.15148,0 0.25193,0.099 0.25193,0.2498 v 2.998 c 0,0.1516 -0.10045,0.2499 -0.25193,0.2499 H 34.50193 a 0.75007497,0.75007497 0 0 0 -0.75194,0.7539 v 10.748 c 0,0.1516 -0.10046,0.2498 -0.25194,0.2498 h -2.99611 c -0.15148,0 -0.25193,-0.099 -0.25193,-0.2498 V 35.7519 A 0.75007497,0.75007497 0 0 0 29.5039,34.998 H 18.75001 c -0.15148,0 -0.25195,-0.099 -0.25195,-0.2499 v -2.998 c 0,-0.1516 0.10047,-0.2498 0.25195,-0.2498 H 29.5039 a 0.75007497,0.75007497 0 0 0 0.74609,-0.7539 V 19.998301 c 0,-0.1516 0.10046,-0.2502 0.25194,-0.2502 z" />
    <path
       id="rect4307-0-2-9-9-1-5-3"
       style="color:#000000;font-style:normal;font-variant:normal;font-weight:normal;font-stretch:normal;font-size:medium;line-height:normal;font-family:sans-serif;font-variant-ligatures:normal;font-variant-position:normal;font-variant-caps:normal;font-variant-numeric:normal;font-variant-alternates:normal;font-variant-east-asian:normal;font-feature-settings:normal;font-variation-settings:normal;text-indent:0;text-align:start;text-decoration:none;text-decoration-line:none;text-decoration-style:solid;text-decoration-color:#000000;letter-spacing:normal;word-spacing:normal;text-transform:none;writing-mode:lr-tb;direction:ltr;text-orientation:mixed;dominant-baseline:auto;baseline-shift:baseline;text-anchor:start;white-space:normal;shape-padding:0;shape-margin:0;inline-size:0;clip-rule:nonzero;display:inline;overflow:visible;visibility:visible;opacity:0.75;isolation:auto;mix-blend-mode:normal;color-interpolation:sRGB;color-interpolation-filters:linearRGB;solid-color:#000000;solid-opacity:1;vector-effect:none;fill:#0a5c4a;fill-opacity:1;fill-rule:nonzero;stroke:none;stroke-width:3.77953;stroke-linecap:round;stroke-linejoin:round;stroke-miterlimit:4;stroke-dasharray:none;stroke-dashoffset:2.1875;stroke-opacity:1;color-rendering:auto;image-rendering:auto;shape-rendering:auto;text-rendering:auto;enable-background:accumulate;stop-color:#000000"
       d="m 30.50196,16.999999 c -0.95654,0 -1.75,0.7915 -1.75,1.748101 V 28.751999 H 18.75001 c -0.95653,0 -1.75,0.7915 -1.75,1.748 v 2.9981 c 0,0.9565 0.79347,1.75 1.75,1.75 h 10.00195 v 10.002 c 0,0.9565 0.79346,1.75 1.75,1.75 h 2.99609 c 0.95652,0 1.75,-0.7935 1.75,-1.75 v -10.002 H 45.25 c 0.95653,0 1.75,-0.7935 1.75,-1.75 v -2.9981 c 0,-0.9565 -0.79347,-1.748 -1.75,-1.748 H 35.24805 V 18.7481 c 0,-0.956601 -0.79349,-1.748101 -1.75,-1.748101 z m 0,1.498101 h 2.99609 c 0.15148,0 0.25194,0.099 0.25194,0.2498 v 10.747999 a 0.75007497,0.75007497 0 0 0 0.75195,0.7539 H 45.25 c 0.15148,0 0.25193,0.099 0.25193,0.249901 v 2.997999 c 0,0.1516 -0.10045,0.2499 -0.25193,0.2499 H 34.50193 a 0.75007497,0.75007497 0 0 0 -0.75194,0.7539 v 10.748 c 0,0.1516 -0.10046,0.2498 -0.25194,0.2498 h -2.99611 c -0.15148,0 -0.25193,-0.099 -0.25193,-0.2498 v -10.748 a 0.75007497,0.75007497 0 0 0 -0.74611,-0.7539 H 18.75001 c -0.15148,0 -0.25195,-0.099 -0.25195,-0.2499 V 30.4997 c 0,-0.151601 0.10047,-0.249901 0.25195,-0.249901 H 29.5039 a 0.75007497,0.75007497 0 0 0 0.74609,-0.7539 V 18.7479 c 0,-0.1515 0.10046,-0.2498 0.25194,-0.2498 z" />
    <path
       id="rect4307-0-2-6-35-2"
       style="fill:#fdfbfc;fill-opacity:1;stroke:none;stroke-width:0;stroke-linecap:round;stroke-linejoin:round;stroke-miterlimit:4;stroke-dasharray:none;stroke-dashoffset:2.1875;stroke-opacity:1"
       d="m 30.5,17.749999 c -0.554,0 -1,0.446001 -1,1 v 10.75 H 18.75 c -0.554,0 -1,0.446001 -1,1.0001 v 2.9999 c 0,0.554 0.446,1 1,1 H 29.5 v 10.7501 c 0,0.554001 0.446,0.9999 1,0.9999 h 3 c 0.55399,0 1,-0.4459 1,-0.9999 v -10.7501 h 10.75 c 0.55399,0 1,-0.446 1,-1 v -2.9999 c 0,-0.5541 -0.44601,-1.0001 -1,-1.0001 H 34.5 v -10.75 c 0,-0.553999 -0.44601,-1 -1,-1 z" />
  </g>
</svg>
