<?xml version="1.0" encoding="UTF-8" standalone="no"?>
<svg
   xmlns:dc="http://purl.org/dc/elements/1.1/"
   xmlns:cc="http://creativecommons.org/ns#"
   xmlns:rdf="http://www.w3.org/1999/02/22-rdf-syntax-ns#"
   xmlns:svg="http://www.w3.org/2000/svg"
   xmlns="http://www.w3.org/2000/svg"
   xmlns:sodipodi="http://sodipodi.sourceforge.net/DTD/sodipodi-0.dtd"
   xmlns:inkscape="http://www.inkscape.org/namespaces/inkscape"
   width="64"
   height="64"
   viewBox="0 0 64 64.000003"
   version="1.1"
   id="svg8"
   inkscape:version="1.0.2 (e86c870879, 2021-01-15)"
   sodipodi:docname="window-close-symbolic.svg">
  <defs
     id="defs2" />
  <sodipodi:namedview
     id="base"
     pagecolor="#ffffff"
     bordercolor="#666666"
     borderopacity="1.0"
     inkscape:pageopacity="0.0"
     inkscape:pageshadow="2"
     inkscape:zoom="6.0775334"
     inkscape:cx="0.46402038"
     inkscape:cy="45.629428"
     inkscape:document-units="px"
     inkscape:current-layer="layer1"
     inkscape:document-rotation="0"
     showgrid="false"
     units="px"
     inkscape:window-width="1024"
     inkscape:window-height="1080"
     inkscape:window-x="68"
     inkscape:window-y="56"
     inkscape:window-maximized="0" />
  <metadata
     id="metadata5">
    <rdf:RDF>
      <cc:Work
         rdf:about="">
        <dc:format>image/svg+xml</dc:format>
        <dc:type
           rdf:resource="http://purl.org/dc/dcmitype/StillImage" />
        <dc:title />
      </cc:Work>
    </rdf:RDF>
  </metadata>
  <g
     inkscape:label="Layer 1"
     inkscape:groupmode="layer"
     id="layer1">
    <path
       id="rect1598"
       style="fill:#808084;fill-opacity:1;stroke-width:0;stroke-dashoffset:2.1875"
       d="m 47.910012,16.090212 c -1.566949,-1.566949 -4.0899,-1.566949 -5.656849,0 L 32.000112,26.343262 21.747063,16.090212 c -1.56695,-1.566949 -4.0899,-1.566949 -5.656851,0 -1.566949,1.56695 -1.566949,4.0899 0,5.65685 l 10.253051,10.25305 -10.25305,10.253051 c -1.56695,1.566949 -1.56695,4.0899 0,5.656849 1.56695,1.56695 4.0899,1.56695 5.65685,0 l 10.253049,-10.25305 10.253051,10.25305 c 1.566949,1.56695 4.0899,1.56695 5.656849,0 1.56695,-1.566949 1.56695,-4.0899 0,-5.656849 L 37.656963,32.000112 47.910012,21.747062 c 1.56695,-1.56695 1.56695,-4.0899 0,-5.65685 z" />
  </g>
</svg>
