<?xml version="1.0" encoding="UTF-8" standalone="no"?>
<svg
   xmlns:dc="http://purl.org/dc/elements/1.1/"
   xmlns:cc="http://creativecommons.org/ns#"
   xmlns:rdf="http://www.w3.org/1999/02/22-rdf-syntax-ns#"
   xmlns:svg="http://www.w3.org/2000/svg"
   xmlns="http://www.w3.org/2000/svg"
   xmlns:xlink="http://www.w3.org/1999/xlink"
   xmlns:sodipodi="http://sodipodi.sourceforge.net/DTD/sodipodi-0.dtd"
   xmlns:inkscape="http://www.inkscape.org/namespaces/inkscape"
   width="64"
   height="64"
   viewBox="0 0 16.933333 16.933334"
   version="1.1"
   id="svg841"
   inkscape:version="1.0.2 (e86c870879, 2021-01-15)"
   sodipodi:docname="network-card.svg">
  <defs
     id="defs835">
    <linearGradient
       inkscape:collect="always"
       xlink:href="#linearGradient3970"
       id="linearGradient1092-4-3"
       gradientUnits="userSpaceOnUse"
       gradientTransform="translate(-0.56858961,-20.419316)"
       x1="10.548038"
       y1="24.225462"
       x2="10.556611"
       y2="33.185467" />
    <linearGradient
       inkscape:collect="always"
       id="linearGradient3970">
      <stop
         style="stop-color:#c47491;stop-opacity:1"
         offset="0"
         id="stop3966" />
      <stop
         style="stop-color:#bd6586;stop-opacity:1"
         offset="1"
         id="stop3968" />
    </linearGradient>
  </defs>
  <sodipodi:namedview
     id="base"
     pagecolor="#c4c4c4"
     bordercolor="#666666"
     borderopacity="1.0"
     inkscape:pageopacity="0"
     inkscape:pageshadow="2"
     inkscape:zoom="4.5621655"
     inkscape:cx="10.649692"
     inkscape:cy="17.000831"
     inkscape:document-units="px"
     inkscape:current-layer="layer1"
     inkscape:document-rotation="0"
     showgrid="false"
     units="px"
     inkscape:window-width="2048"
     inkscape:window-height="1080"
     inkscape:window-x="0"
     inkscape:window-y="0"
     inkscape:window-maximized="1" />
  <metadata
     id="metadata838">
    <rdf:RDF>
      <cc:Work
         rdf:about="">
        <dc:format>image/svg+xml</dc:format>
        <dc:type
           rdf:resource="http://purl.org/dc/dcmitype/StillImage" />
        <dc:title />
      </cc:Work>
    </rdf:RDF>
  </metadata>
  <g
     inkscape:label="Layer 1"
     inkscape:groupmode="layer"
     id="layer1">
    <path
       id="rect848-9-6-6-1-6-3-6"
       style="color:#000000;font-style:normal;font-variant:normal;font-weight:normal;font-stretch:normal;font-size:medium;line-height:normal;font-family:sans-serif;font-variant-ligatures:normal;font-variant-position:normal;font-variant-caps:normal;font-variant-numeric:normal;font-variant-alternates:normal;font-variant-east-asian:normal;font-feature-settings:normal;font-variation-settings:normal;text-indent:0;text-align:start;text-decoration:none;text-decoration-line:none;text-decoration-style:solid;text-decoration-color:#000000;letter-spacing:normal;word-spacing:normal;text-transform:none;writing-mode:lr-tb;direction:ltr;text-orientation:mixed;dominant-baseline:auto;baseline-shift:baseline;text-anchor:start;white-space:normal;shape-padding:0;shape-margin:0;inline-size:0;clip-rule:nonzero;display:inline;overflow:visible;visibility:visible;opacity:0.15;isolation:auto;mix-blend-mode:normal;color-interpolation:sRGB;color-interpolation-filters:linearRGB;solid-color:#000000;solid-opacity:1;vector-effect:none;fill:#0c0c0c;fill-opacity:1;fill-rule:nonzero;stroke:none;stroke-width:1.00001;stroke-linecap:round;stroke-linejoin:round;stroke-miterlimit:4;stroke-dasharray:none;stroke-dashoffset:2.1875;stroke-opacity:1;color-rendering:auto;image-rendering:auto;shape-rendering:auto;text-rendering:auto;enable-background:accumulate;stop-color:#000000"
       d="m 3.7707915,3.6380208 c -0.5794322,0 -1.0588123,0.4794224 -1.0588123,1.0589049 v 7.6722903 c 0,0.579485 0.4793801,1.058391 1.0588123,1.058391 h 0.9254913 a 0.39690007,0.39693568 0 0 0 0.3963432,-0.39638 v -1.32402 c 0,-0.08015 0.05265,-0.131263 0.1328024,-0.131263 h 3.1759155 c 0.08015,0 0.1307386,0.0511 0.1307386,0.131263 v 1.32402 a 0.39690007,0.39693568 0 0 0 0.3963432,0.39638 h 6.7481773 c 0.579432,0 1.058293,-0.478906 1.058293,-1.058391 V 4.6969257 c 0,-0.5794825 -0.478861,-1.0589049 -1.058293,-1.0589049 z m 0,0.7932738 H 15.676605 c 0.153437,0 0.263538,0.112178 0.263538,0.2656311 v 7.6722903 c 0,0.153455 -0.110101,0.265633 -0.263538,0.265633 H 9.3268353 v -0.927642 c 0,-0.50619 -0.4193461,-0.926089 -0.9254914,-0.926089 H 5.2254284 c -0.5061427,0 -0.9254914,0.419901 -0.9254914,0.926089 v 0.927642 H 3.7707915 c -0.1534372,0 -0.2656073,-0.112178 -0.2656073,-0.265633 V 4.6969257 c 0,-0.1534531 0.1121701,-0.2656311 0.2656073,-0.2656311 z" />
    <path
       id="rect848-9-6-2-6-7"
       style="color:#000000;font-style:normal;font-variant:normal;font-weight:normal;font-stretch:normal;font-size:medium;line-height:normal;font-family:sans-serif;font-variant-ligatures:normal;font-variant-position:normal;font-variant-caps:normal;font-variant-numeric:normal;font-variant-alternates:normal;font-variant-east-asian:normal;font-feature-settings:normal;font-variation-settings:normal;text-indent:0;text-align:start;text-decoration:none;text-decoration-line:none;text-decoration-style:solid;text-decoration-color:#000000;letter-spacing:normal;word-spacing:normal;text-transform:none;writing-mode:lr-tb;direction:ltr;text-orientation:mixed;dominant-baseline:auto;baseline-shift:baseline;text-anchor:start;white-space:normal;shape-padding:0;shape-margin:0;inline-size:0;clip-rule:nonzero;display:inline;overflow:visible;visibility:visible;opacity:0.75;isolation:auto;mix-blend-mode:normal;color-interpolation:sRGB;color-interpolation-filters:linearRGB;solid-color:#000000;solid-opacity:1;vector-effect:none;fill:#642b40;fill-opacity:1;fill-rule:nonzero;stroke:none;stroke-width:1.00001;stroke-linecap:round;stroke-linejoin:round;stroke-miterlimit:4;stroke-dasharray:none;stroke-dashoffset:2.1875;stroke-opacity:1;color-rendering:auto;image-rendering:auto;shape-rendering:auto;text-rendering:auto;enable-background:accumulate;stop-color:#000000"
       d="m 3.7707915,3.3734375 c -0.5794322,0 -1.0588123,0.4794224 -1.0588123,1.0589048 v 7.6722897 c 0,0.579485 0.4793801,1.058392 1.0588123,1.058392 H 4.6962828 A 0.39690007,0.39693568 0 0 0 5.092626,12.766646 v -1.324022 c 0,-0.08015 0.05265,-0.131263 0.1328024,-0.131263 h 3.1759181 c 0.08015,0 0.130736,0.0511 0.130736,0.131263 v 1.324022 a 0.39690007,0.39693568 0 0 0 0.3963432,0.396378 h 6.7481773 c 0.579432,0 1.058293,-0.478907 1.058293,-1.058392 V 4.4323423 c 0,-0.5794798 -0.478861,-1.0589048 -1.058293,-1.0589048 z m 0,0.7932738 H 15.676605 c 0.153437,0 0.263538,0.1121806 0.263538,0.265631 v 7.6722897 c 0,0.153456 -0.110101,0.265634 -0.263538,0.265634 H 9.3268353 v -0.927642 c 0,-0.506191 -0.4193461,-0.92609 -0.9254888,-0.92609 H 5.2254284 c -0.5061427,0 -0.9254914,0.419902 -0.9254914,0.92609 v 0.927642 H 3.7707915 c -0.1534372,0 -0.2656073,-0.112178 -0.2656073,-0.265634 V 4.4323423 c 0,-0.1534504 0.1121701,-0.265631 0.2656073,-0.265631 z" />
    <path
       id="rect848-9-3-7-1-5"
       style="display:inline;fill:url(#linearGradient1092-4-3);fill-opacity:1;stroke-width:1.32292;stroke-linecap:round;stroke-linejoin:round;stroke-dashoffset:2.1875"
       d="m 3.7703126,3.7703125 c -0.3664479,0 -0.6614584,0.2950104 -0.6614584,0.6614583 V 12.10469 c 0,0.366448 0.2950105,0.661459 0.6614584,0.661459 h 0.9260417 v -1.322917 c 0,-0.293158 0.2360083,-0.529167 0.5291667,-0.529167 h 3.175 c 0.2931584,0 0.5291667,0.236009 0.5291667,0.529167 v 1.322917 h 6.7468753 c 0.36645,0 0.661458,-0.295011 0.661458,-0.661459 V 4.4317708 c 0,-0.3664479 -0.295008,-0.6614583 -0.661458,-0.6614583 z" />
    <path
       id="rect848-9-6-6-9-0-3"
       style="color:#000000;font-style:normal;font-variant:normal;font-weight:normal;font-stretch:normal;font-size:medium;line-height:normal;font-family:sans-serif;font-variant-ligatures:normal;font-variant-position:normal;font-variant-caps:normal;font-variant-numeric:normal;font-variant-alternates:normal;font-variant-east-asian:normal;font-feature-settings:normal;font-variation-settings:normal;text-indent:0;text-align:start;text-decoration:none;text-decoration-line:none;text-decoration-style:solid;text-decoration-color:#000000;letter-spacing:normal;word-spacing:normal;text-transform:none;writing-mode:lr-tb;direction:ltr;text-orientation:mixed;dominant-baseline:auto;baseline-shift:baseline;text-anchor:start;white-space:normal;shape-padding:0;shape-margin:0;inline-size:0;clip-rule:nonzero;display:inline;overflow:visible;visibility:visible;opacity:0.15;isolation:auto;mix-blend-mode:normal;color-interpolation:sRGB;color-interpolation-filters:linearRGB;solid-color:#000000;solid-opacity:1;vector-effect:none;fill:#0c0c0c;fill-opacity:1;fill-rule:nonzero;stroke:none;stroke-width:1.00001;stroke-linecap:round;stroke-linejoin:round;stroke-miterlimit:4;stroke-dasharray:none;stroke-dashoffset:2.1875;stroke-opacity:1;color-rendering:auto;image-rendering:auto;shape-rendering:auto;text-rendering:auto;enable-background:accumulate;stop-color:#000000"
       d="m 3.7707915,3.3734375 c -0.5794322,0 -1.0588123,0.4794224 -1.0588123,1.0589048 v 7.6722897 c 0,0.579485 0.4793801,1.058392 1.0588123,1.058392 H 4.6962828 A 0.39690007,0.39693568 0 0 0 5.092626,12.766646 v -1.324022 c 0,-0.08015 0.05265,-0.131263 0.1328024,-0.131263 h 3.1759181 c 0.08015,0 0.130736,0.0511 0.130736,0.131263 v 1.324022 a 0.39690007,0.39693568 0 0 0 0.3963432,0.396378 h 6.7481773 c 0.579432,0 1.058293,-0.478907 1.058293,-1.058392 V 4.4323423 c 0,-0.5794798 -0.478861,-1.0589048 -1.058293,-1.0589048 z m 0,0.7932738 H 15.676605 c 0.153437,0 0.263538,0.1121806 0.263538,0.265631 v 7.6722897 c 0,0.153456 -0.110101,0.265634 -0.263538,0.265634 H 9.3268353 v -0.927642 c 0,-0.506191 -0.4193461,-0.92609 -0.9254888,-0.92609 H 5.2254284 c -0.5061427,0 -0.9254914,0.419902 -0.9254914,0.92609 v 0.927642 H 3.7707915 c -0.1534372,0 -0.2656073,-0.112178 -0.2656073,-0.265634 V 4.4323423 c 0,-0.1534504 0.1121701,-0.265631 0.2656073,-0.265631 z" />
    <path
       id="rect854-9-2-8-3-5"
       style="opacity:0.15;fill:#0c0c0c;fill-opacity:1;stroke-width:1.32292;stroke-linecap:round;stroke-linejoin:round;stroke-dashoffset:2.1875"
       d="m 14.816667,11.443232 c -0.109932,0 -0.198435,0.0885 -0.198435,0.198438 v 1.984375 c 0,0.109934 0.0885,0.198437 0.198435,0.198437 h 0.79375 c 0.109937,0 0.198438,-0.0885 0.198438,-0.198437 V 11.64167 c 0,-0.109935 -0.0885,-0.198438 -0.198438,-0.198438 z m 0.165367,0.264583 h 0.463018 c 0.05497,0 0.09922,0.04425 0.09922,0.09922 v 1.653646 c 0,0.05497 -0.04425,0.09922 -0.09922,0.09922 h -0.463018 c -0.05497,0 -0.09922,-0.04425 -0.09922,-0.09922 v -1.653646 c 0,-0.05497 0.04425,-0.09922 0.09922,-0.09922 z" />
    <path
       id="rect854-9-2-8-6"
       style="opacity:0.15;fill:#0c0c0c;fill-opacity:1;stroke-width:1.32292;stroke-linecap:round;stroke-linejoin:round;stroke-dashoffset:2.1875"
       d="m 9.6572919,11.443232 c -0.1099344,0 -0.1984375,0.0885 -0.1984375,0.198438 v 1.984375 c 0,0.109934 0.0885,0.198437 0.1984375,0.198437 h 0.7937501 c 0.109934,0 0.198437,-0.0885 0.198437,-0.198437 V 11.64167 c 0,-0.109935 -0.0885,-0.198438 -0.198437,-0.198438 z m 0.1653641,0.264583 h 0.463021 c 0.05497,0 0.09922,0.04425 0.09922,0.09922 v 1.653646 c 0,0.05497 -0.04425,0.09922 -0.09922,0.09922 H 9.822656 c -0.05497,0 -0.099218,-0.04425 -0.099218,-0.09922 v -1.653646 c 0,-0.05497 0.044249,-0.09922 0.099218,-0.09922 z" />
    <path
       id="rect850-0-6-1-2-2"
       style="color:#000000;font-style:normal;font-variant:normal;font-weight:normal;font-stretch:normal;font-size:medium;line-height:normal;font-family:sans-serif;font-variant-ligatures:normal;font-variant-position:normal;font-variant-caps:normal;font-variant-numeric:normal;font-variant-alternates:normal;font-variant-east-asian:normal;font-feature-settings:normal;font-variation-settings:normal;text-indent:0;text-align:start;text-decoration:none;text-decoration-line:none;text-decoration-style:solid;text-decoration-color:#000000;letter-spacing:normal;word-spacing:normal;text-transform:none;writing-mode:lr-tb;direction:ltr;text-orientation:mixed;dominant-baseline:auto;baseline-shift:baseline;text-anchor:start;white-space:normal;shape-padding:0;shape-margin:0;inline-size:0;clip-rule:nonzero;display:inline;overflow:visible;visibility:visible;opacity:0.15;isolation:auto;mix-blend-mode:normal;color-interpolation:sRGB;color-interpolation-filters:linearRGB;solid-color:#000000;solid-opacity:1;vector-effect:none;fill:#0c0c0c;fill-opacity:1;fill-rule:nonzero;stroke:none;stroke-width:1.00012;stroke-linecap:round;stroke-linejoin:round;stroke-miterlimit:4;stroke-dasharray:none;stroke-dashoffset:2.1875;stroke-opacity:1;color-rendering:auto;image-rendering:auto;shape-rendering:auto;text-rendering:auto;enable-background:accumulate;stop-color:#000000"
       d="m 1.1247808,2.0505208 c -0.50861648,0 -0.9263433,0.4170415 -0.9263433,0.9254517 0,0.5084127 0.41772682,0.9275207 0.9263433,0.9275207 H 1.5212695 V 14.35217 c 0,0.50841 0.4177269,0.927521 0.9263407,0.927521 0.5086165,0 0.9258274,-0.419111 0.9258274,-0.927521 V 2.9759725 c 0,-0.5084102 -0.4172083,-0.9254517 -0.9258274,-0.9254517 z m 0,0.5291243 h 1.3228294 c 0.2245201,0 0.3964887,0.1718998 0.3964887,0.3963274 V 14.35217 c 0,0.22443 -0.1719686,0.398396 -0.3964887,0.398396 -0.2245175,0 -0.397002,-0.173966 -0.397002,-0.398396 V 3.6378965 A 0.26469597,0.26458913 0 0 0 1.784903,3.3743688 H 1.1247808 c -0.22451751,0 -0.39648606,-0.1739688 -0.39648606,-0.3983963 0,-0.2244276 0.17196855,-0.3963274 0.39648606,-0.3963274 z" />
    <path
       id="rect854-9-2-8-7-9"
       style="opacity:0.15;fill:#0c0c0c;fill-opacity:1;stroke-width:1.32292;stroke-linecap:round;stroke-linejoin:round;stroke-dashoffset:2.1875"
       d="m 13.096875,11.443232 c -0.109934,0 -0.198437,0.0885 -0.198437,0.198438 v 1.984375 c 0,0.109934 0.0885,0.198437 0.198437,0.198437 h 0.79375 c 0.109935,0 0.198438,-0.0885 0.198438,-0.198437 V 11.64167 c 0,-0.109935 -0.0885,-0.198438 -0.198438,-0.198438 z m 0.165365,0.264583 h 0.463021 c 0.05497,0 0.09922,0.04425 0.09922,0.09922 v 1.653646 c 0,0.05497 -0.04425,0.09922 -0.09922,0.09922 H 13.26224 c -0.05497,0 -0.09922,-0.04425 -0.09922,-0.09922 v -1.653646 c 0,-0.05497 0.04425,-0.09922 0.09922,-0.09922 z" />
    <path
       id="rect854-9-2-8-9-1"
       style="opacity:0.15;fill:#0c0c0c;fill-opacity:1;stroke-width:1.32292;stroke-linecap:round;stroke-linejoin:round;stroke-dashoffset:2.1875"
       d="m 11.377086,11.443232 c -0.109937,0 -0.19844,0.0885 -0.19844,0.198438 v 1.984375 c 0,0.109934 0.0885,0.198437 0.19844,0.198437 h 0.793748 c 0.109934,0 0.198437,-0.0885 0.198437,-0.198437 V 11.64167 c 0,-0.109935 -0.0885,-0.198438 -0.198437,-0.198438 z m 0.165362,0.264583 h 0.463021 c 0.05497,0 0.09922,0.04425 0.09922,0.09922 v 1.653646 c 0,0.05497 -0.04425,0.09922 -0.09922,0.09922 h -0.463021 c -0.05497,0 -0.09922,-0.04425 -0.09922,-0.09922 v -1.653646 c 0,-0.05497 0.04425,-0.09922 0.09922,-0.09922 z" />
    <path
       id="rect850-0-6-1-27"
       style="color:#000000;font-style:normal;font-variant:normal;font-weight:normal;font-stretch:normal;font-size:medium;line-height:normal;font-family:sans-serif;font-variant-ligatures:normal;font-variant-position:normal;font-variant-caps:normal;font-variant-numeric:normal;font-variant-alternates:normal;font-variant-east-asian:normal;font-feature-settings:normal;font-variation-settings:normal;text-indent:0;text-align:start;text-decoration:none;text-decoration-line:none;text-decoration-style:solid;text-decoration-color:#000000;letter-spacing:normal;word-spacing:normal;text-transform:none;writing-mode:lr-tb;direction:ltr;text-orientation:mixed;dominant-baseline:auto;baseline-shift:baseline;text-anchor:start;white-space:normal;shape-padding:0;shape-margin:0;inline-size:0;clip-rule:nonzero;display:inline;overflow:visible;visibility:visible;opacity:0.75;isolation:auto;mix-blend-mode:normal;color-interpolation:sRGB;color-interpolation-filters:linearRGB;solid-color:#000000;solid-opacity:1;vector-effect:none;fill:#45454a;fill-opacity:1;fill-rule:nonzero;stroke:none;stroke-width:1.00012;stroke-linecap:round;stroke-linejoin:round;stroke-miterlimit:4;stroke-dasharray:none;stroke-dashoffset:2.1875;stroke-opacity:1;color-rendering:auto;image-rendering:auto;shape-rendering:auto;text-rendering:auto;enable-background:accumulate;stop-color:#000000"
       d="m 1.1247808,1.6536458 c -0.50861648,0 -0.9263433,0.4170415 -0.9263433,0.9254516 0,0.5084128 0.41772682,0.9275208 0.9263433,0.9275208 H 1.5212695 V 13.955295 c 0,0.50841 0.4177269,0.927521 0.9263407,0.927521 0.5086165,0 0.9258274,-0.419111 0.9258274,-0.927521 V 2.5790974 c 0,-0.5084101 -0.4172083,-0.9254516 -0.9258274,-0.9254516 z m 0,0.5291243 h 1.3228294 c 0.2245201,0 0.3964887,0.1718998 0.3964887,0.3963273 V 13.955295 c 0,0.22443 -0.1719686,0.398394 -0.3964887,0.398394 -0.2245175,0 -0.397002,-0.173964 -0.397002,-0.398394 V 3.2410215 A 0.26469597,0.26458913 0 0 0 1.784903,2.9774938 H 1.1247808 c -0.22451751,0 -0.39648606,-0.1739688 -0.39648606,-0.3983964 0,-0.2244275 0.17196855,-0.3963273 0.39648606,-0.3963273 z" />
    <path
       id="rect850-3-8-9-0"
       style="fill:#d6d6db;fill-opacity:1;stroke-width:1.32292;stroke-linecap:round;stroke-linejoin:round;stroke-dashoffset:2.1875"
       d="m 1.1244792,1.9182291 c -0.36644794,0 -0.66145837,0.2950104 -0.66145837,0.6614584 0,0.3664505 0.29501043,0.6614583 0.66145837,0.6614583 H 1.7859375 V 13.956771 c 0,0.366448 0.2950105,0.661461 0.6614584,0.661461 0.3664479,0 0.6614583,-0.295013 0.6614583,-0.661461 V 2.5796875 c 0,-0.366448 -0.2950104,-0.6614584 -0.6614583,-0.6614584 z" />
    <rect
       style="fill:#edcd03;fill-opacity:1;stroke-width:1.32292;stroke-linecap:round;stroke-linejoin:round;stroke-dashoffset:2.1875"
       id="rect854-3-9"
       width="1.190625"
       height="2.3812499"
       x="9.4588547"
       y="11.17865"
       rx="0.19843751"
       ry="0.19843751" />
    <path
       id="rect854-9-2-3"
       style="opacity:0.65;fill:#8d7a02;fill-opacity:1;stroke-width:1.32292;stroke-linecap:round;stroke-linejoin:round;stroke-dashoffset:2.1875"
       d="m 9.6572919,11.178649 c -0.1099344,0 -0.1984375,0.0885 -0.1984375,0.198437 v 1.984375 c 0,0.109935 0.0885,0.198438 0.1984375,0.198438 h 0.7937501 c 0.109934,0 0.198437,-0.0885 0.198437,-0.198438 v -1.984375 c 0,-0.109934 -0.0885,-0.198437 -0.198437,-0.198437 z m 0.1653641,0.264583 h 0.463021 c 0.05497,0 0.09922,0.04425 0.09922,0.09922 V 13.1961 c 0,0.05497 -0.04425,0.09922 -0.09922,0.09922 H 9.822656 c -0.05497,0 -0.099218,-0.04425 -0.099218,-0.09922 v -1.653648 c 0,-0.05497 0.044249,-0.09922 0.099218,-0.09922 z" />
    <rect
       style="fill:#edcd03;fill-opacity:1;stroke-width:1.32292;stroke-linecap:round;stroke-linejoin:round;stroke-dashoffset:2.1875"
       id="rect854-5-6-6"
       width="1.190625"
       height="2.3812499"
       x="11.178646"
       y="11.178645"
       rx="0.19843751"
       ry="0.19843751" />
    <rect
       style="fill:#edcd03;fill-opacity:1;stroke-width:1.32292;stroke-linecap:round;stroke-linejoin:round;stroke-dashoffset:2.1875"
       id="rect854-6-7-0"
       width="1.190625"
       height="2.3812499"
       x="12.898438"
       y="11.178645"
       rx="0.19843751"
       ry="0.19843751" />
    <rect
       style="fill:#edcd03;fill-opacity:1;stroke-width:1.32292;stroke-linecap:round;stroke-linejoin:round;stroke-dashoffset:2.1875"
       id="rect854-2-5-62"
       width="1.190625"
       height="2.3812499"
       x="14.618229"
       y="11.178645"
       rx="0.19843751"
       ry="0.19843751" />
    <path
       id="rect854-7-3-61"
       style="opacity:0.65;fill:#8d7a02;fill-opacity:1;stroke-width:1.32292;stroke-linecap:round;stroke-linejoin:round;stroke-dashoffset:2.1875"
       d="m 9.6572919,11.178649 c -0.1099344,0 -0.1984375,0.0885 -0.1984375,0.198437 v 0.529167 c 0,-0.109937 0.0885,-0.19844 0.1984375,-0.19844 h 0.7937501 c 0.109934,0 0.198437,0.0885 0.198437,0.19844 v -0.529167 c 0,-0.109934 -0.0885,-0.198437 -0.198437,-0.198437 z" />
    <path
       id="rect854-7-3-5-8"
       style="opacity:0.65;fill:#8d7a02;fill-opacity:1;stroke-width:1.32292;stroke-linecap:round;stroke-linejoin:round;stroke-dashoffset:2.1875"
       d="m 11.377086,11.178646 c -0.109934,0 -0.19844,0.0885 -0.19844,0.198438 v 0.529166 c 0,-0.109934 0.0885,-0.198437 0.19844,-0.198437 h 0.793748 c 0.109934,0 0.198437,0.0885 0.198437,0.198437 v -0.529166 c 0,-0.109935 -0.0885,-0.198438 -0.198437,-0.198438 z" />
    <path
       id="rect854-7-3-6-79"
       style="opacity:0.65;fill:#8d7a02;fill-opacity:1;stroke-width:1.32292;stroke-linecap:round;stroke-linejoin:round;stroke-dashoffset:2.1875"
       d="m 13.096875,11.178649 c -0.109934,0 -0.198437,0.0885 -0.198437,0.198437 v 0.529167 c 0,-0.109937 0.0885,-0.19844 0.198437,-0.19844 h 0.79375 c 0.109935,0 0.198438,0.0885 0.198438,0.19844 v -0.529167 c 0,-0.109934 -0.0885,-0.198437 -0.198438,-0.198437 z" />
    <path
       id="rect854-7-3-2-2"
       style="opacity:0.65;fill:#8d7a02;fill-opacity:1;stroke-width:1.32292;stroke-linecap:round;stroke-linejoin:round;stroke-dashoffset:2.1875"
       d="m 14.816667,11.178649 c -0.109934,0 -0.198437,0.0885 -0.198437,0.198437 v 0.529167 c 0,-0.109937 0.0885,-0.19844 0.198437,-0.19844 h 0.79375 c 0.109934,0 0.198438,0.0885 0.198438,0.19844 v -0.529167 c 0,-0.109934 -0.0885,-0.198437 -0.198438,-0.198437 z" />
    <path
       id="rect854-9-2-7-0"
       style="opacity:0.65;fill:#8d7a02;fill-opacity:1;stroke-width:1.32292;stroke-linecap:round;stroke-linejoin:round;stroke-dashoffset:2.1875"
       d="m 11.377086,11.178646 c -0.109937,0 -0.19844,0.0885 -0.19844,0.19844 v 1.984375 c 0,0.109932 0.0885,0.198435 0.19844,0.198435 h 0.79375 c 0.109932,0 0.198435,-0.0885 0.198435,-0.198435 v -1.984375 c 0,-0.109937 -0.0885,-0.19844 -0.198435,-0.19844 z m 0.165362,0.264586 h 0.463021 c 0.05497,0 0.09922,0.04425 0.09922,0.09922 v 1.653646 c 0,0.05497 -0.04425,0.09922 -0.09922,0.09922 h -0.463021 c -0.05497,0 -0.09922,-0.04425 -0.09922,-0.09922 v -1.653646 c 0,-0.05497 0.04425,-0.09922 0.09922,-0.09922 z" />
    <path
       id="rect854-9-2-0-2"
       style="opacity:0.65;fill:#8d7a02;fill-opacity:1;stroke-width:1.32292;stroke-linecap:round;stroke-linejoin:round;stroke-dashoffset:2.1875"
       d="m 13.096875,11.178649 c -0.109934,0 -0.198437,0.0885 -0.198437,0.198437 v 1.984375 c 0,0.109935 0.0885,0.198438 0.198437,0.198438 h 0.79375 c 0.109935,0 0.198438,-0.0885 0.198438,-0.198438 v -1.984375 c 0,-0.109934 -0.0885,-0.198437 -0.198438,-0.198437 z m 0.165365,0.264583 h 0.463021 c 0.05497,0 0.09922,0.04425 0.09922,0.09922 V 13.1961 c 0,0.05497 -0.04425,0.09922 -0.09922,0.09922 H 13.26224 c -0.05497,0 -0.09922,-0.04425 -0.09922,-0.09922 v -1.653648 c 0,-0.05497 0.04425,-0.09922 0.09922,-0.09922 z" />
    <path
       id="rect854-9-2-9-3"
       style="opacity:0.65;fill:#8d7a02;fill-opacity:1;stroke-width:1.32292;stroke-linecap:round;stroke-linejoin:round;stroke-dashoffset:2.1875"
       d="m 14.816667,11.178649 c -0.109932,0 -0.198435,0.0885 -0.198435,0.198437 v 1.984375 c 0,0.109935 0.0885,0.198438 0.198435,0.198438 h 0.793753 c 0.109934,0 0.198437,-0.0885 0.198437,-0.198438 v -1.984375 c 0,-0.109934 -0.0885,-0.198437 -0.198437,-0.198437 z m 0.165367,0.264583 h 0.463021 c 0.05497,0 0.09922,0.04425 0.09922,0.09922 V 13.1961 c 0,0.05497 -0.04425,0.09922 -0.09922,0.09922 h -0.463021 c -0.05497,0 -0.09922,-0.04425 -0.09922,-0.09922 v -1.653648 c 0,-0.05497 0.04425,-0.09922 0.09922,-0.09922 z" />
    <rect
       style="opacity:0.2;fill:#0c0c0c;fill-opacity:1;stroke-width:1.32292;stroke-linecap:round;stroke-linejoin:round;stroke-dashoffset:2.1875"
       id="rect1032-9-2-5-7"
       width="0.66145837"
       height="1.5875001"
       x="8.7312498"
       y="8.7973919"
       rx="0.13229167"
       ry="0.13229167" />
    <rect
       style="fill:#eeeef2;fill-opacity:1;stroke-width:1.32292;stroke-linecap:round;stroke-linejoin:round;stroke-dashoffset:2.1875"
       id="rect1032-5-5"
       width="0.66145837"
       height="1.5875001"
       x="8.7312498"
       y="5.2255187"
       rx="0.13229167"
       ry="0.13229167" />
    <rect
       style="fill:#eeeef2;fill-opacity:1;stroke-width:1.32292;stroke-linecap:round;stroke-linejoin:round;stroke-dashoffset:2.1875"
       id="rect1032-0-9-9"
       width="0.66145837"
       height="1.5875001"
       x="10.054167"
       y="5.2255187"
       rx="0.13229167"
       ry="0.13229167" />
    <rect
       style="opacity:0.2;fill:#0c0c0c;fill-opacity:1;stroke-width:1.32292;stroke-linecap:round;stroke-linejoin:round;stroke-dashoffset:2.1875"
       id="rect986-0-4-2"
       width="1.5875001"
       height="0.66145837"
       x="10.649479"
       y="6.8791604"
       rx="0.13229167"
       ry="0.13229167" />
    <rect
       style="fill:#eeeef2;fill-opacity:1;stroke-width:1.32292;stroke-linecap:round;stroke-linejoin:round;stroke-dashoffset:2.1875"
       id="rect986-0-2"
       width="1.5875001"
       height="0.66145837"
       x="10.649479"
       y="6.7468686"
       rx="0.13229167"
       ry="0.13229167" />
    <rect
       style="opacity:0.2;fill:#0c0c0c;fill-opacity:1;stroke-width:1.32292;stroke-linecap:round;stroke-linejoin:round;stroke-dashoffset:2.1875"
       id="rect986-1-2-7-8"
       width="1.5875001"
       height="0.66145837"
       x="10.649479"
       y="8.2020826"
       rx="0.13229167"
       ry="0.13229167" />
    <rect
       style="fill:#eeeef2;fill-opacity:1;stroke-width:1.32292;stroke-linecap:round;stroke-linejoin:round;stroke-dashoffset:2.1875"
       id="rect986-1-2-9"
       width="1.5875001"
       height="0.66145837"
       x="10.649479"
       y="8.0697918"
       rx="0.13229167"
       ry="0.13229167" />
    <rect
       style="opacity:0.2;fill:#0c0c0c;fill-opacity:1;stroke-width:1.32292;stroke-linecap:round;stroke-linejoin:round;stroke-dashoffset:2.1875"
       id="rect986-2-3-8-7"
       width="1.5875001"
       height="0.66145837"
       x="7.2098961"
       y="6.8791604"
       rx="0.13229167"
       ry="0.13229167" />
    <rect
       style="fill:#eeeef2;fill-opacity:1;stroke-width:1.32292;stroke-linecap:round;stroke-linejoin:round;stroke-dashoffset:2.1875"
       id="rect986-2-3-3"
       width="1.5875001"
       height="0.66145837"
       x="7.2098961"
       y="6.7468686"
       rx="0.13229167"
       ry="0.13229167" />
    <rect
       style="opacity:0.2;fill:#0c0c0c;fill-opacity:1;stroke-width:1.32292;stroke-linecap:round;stroke-linejoin:round;stroke-dashoffset:2.1875"
       id="rect986-1-7-7-4-6"
       width="1.5875001"
       height="0.66145837"
       x="7.2098961"
       y="8.2020826"
       rx="0.13229167"
       ry="0.13229167" />
    <rect
       style="fill:#eeeef2;fill-opacity:1;stroke-width:1.32292;stroke-linecap:round;stroke-linejoin:round;stroke-dashoffset:2.1875"
       id="rect986-1-7-7-1"
       width="1.5875001"
       height="0.66145837"
       x="7.2098961"
       y="8.0697918"
       rx="0.13229167"
       ry="0.13229167" />
    <rect
       style="opacity:0.2;fill:#0c0c0c;fill-opacity:1;stroke-width:1.32292;stroke-linecap:round;stroke-linejoin:round;stroke-dashoffset:2.1875"
       id="rect1032-0-3-2-0-2"
       width="0.66145837"
       height="1.5875001"
       x="10.054167"
       y="8.7973919"
       rx="0.13229167"
       ry="0.13229167" />
    <rect
       style="fill:#eeeef2;fill-opacity:1;stroke-width:1.32292;stroke-linecap:round;stroke-linejoin:round;stroke-dashoffset:2.1875"
       id="rect1032-9-2-9"
       width="0.66145837"
       height="1.5875001"
       x="8.7312498"
       y="8.6650953"
       rx="0.13229167"
       ry="0.13229167" />
    <rect
       style="fill:#eeeef2;fill-opacity:1;stroke-width:1.32292;stroke-linecap:round;stroke-linejoin:round;stroke-dashoffset:2.1875"
       id="rect1032-0-3-2-3"
       width="0.66145837"
       height="1.5875001"
       x="10.054167"
       y="8.6650953"
       rx="0.13229167"
       ry="0.13229167" />
    <rect
       style="fill:#504b50;fill-opacity:1;stroke-width:1.32292;stroke-linecap:round;stroke-linejoin:round;stroke-dashoffset:2.1875"
       id="rect984-2-1"
       width="3.1750002"
       height="3.1750002"
       x="8.1359377"
       y="6.1515603"
       rx="0.79375005"
       ry="0.79375005" />
    <path
       id="rect984-2-62-1-9"
       style="opacity:0.1;fill:#0c0c0c;fill-opacity:1;stroke-width:1.32292;stroke-linecap:round;stroke-linejoin:round;stroke-dashoffset:2.1875"
       d="m 8.9296904,6.1515599 c -0.4397375,0 -0.79375,0.3540125 -0.79375,0.79375 v 1.5875 c 0,0.439738 0.3540125,0.79375 0.79375,0.79375 H 10.51719 c 0.439738,0 0.79375,-0.354012 0.79375,-0.79375 v -1.5875 c 0,-0.4397375 -0.354012,-0.79375 -0.79375,-0.79375 z m 0,0.2645833 H 10.51719 c 0.293159,0 0.529167,0.2360084 0.529167,0.5291667 v 1.5875 c 0,0.293158 -0.236008,0.529169 -0.529167,0.529169 H 8.9296904 c -0.2931584,0 -0.5291667,-0.236011 -0.5291667,-0.529169 v -1.5875 c 0,-0.2931583 0.2360083,-0.5291667 0.5291667,-0.5291667 z" />
    <path
       id="rect984-2-9-8-4"
       style="opacity:0.25;fill:#c0c0c0;fill-opacity:1;stroke-width:1.32292;stroke-linecap:round;stroke-linejoin:round;stroke-dashoffset:2.1875"
       d="m 8.9296904,6.4161432 c -0.293161,0 -0.5291667,0.2360084 -0.5291667,0.5291588 v 1.5874999 c 0,0.293161 0.2360057,0.529172 0.5291667,0.529172 H 10.51719 c 0.293159,0 0.529167,-0.236011 0.529167,-0.529172 V 6.945302 c 0,-0.2931504 -0.236008,-0.5291588 -0.529167,-0.5291588 z m 0,0.2645807 H 10.51719 c 0.14658,0 0.264584,0.1179989 0.264584,0.2645781 v 1.5874999 c 0,0.146582 -0.118004,0.264591 -0.264584,0.264591 H 8.9296904 c -0.1465792,0 -0.264586,-0.118009 -0.264586,-0.264591 V 6.945302 c 0,-0.1465792 0.1180068,-0.2645781 0.264586,-0.2645781 z" />
  </g>
</svg>
