<?xml version="1.0" encoding="UTF-8" standalone="no"?>
<svg
   xmlns:dc="http://purl.org/dc/elements/1.1/"
   xmlns:cc="http://creativecommons.org/ns#"
   xmlns:rdf="http://www.w3.org/1999/02/22-rdf-syntax-ns#"
   xmlns:svg="http://www.w3.org/2000/svg"
   xmlns="http://www.w3.org/2000/svg"
   xmlns:xlink="http://www.w3.org/1999/xlink"
   xmlns:sodipodi="http://sodipodi.sourceforge.net/DTD/sodipodi-0.dtd"
   xmlns:inkscape="http://www.inkscape.org/namespaces/inkscape"
   width="64"
   height="64"
   viewBox="0 0 64 64"
   version="1.1"
   id="svg6374"
   inkscape:version="1.0.2 (e86c870879, 2021-01-15)"
   sodipodi:docname="folder-videos.svg">
  <defs
     id="defs6368">
    <linearGradient
       inkscape:collect="always"
       xlink:href="#linearGradient3008"
       id="linearGradient3010"
       x1="142.20973"
       y1="232.32875"
       x2="141.32628"
       y2="283.61243"
       gradientUnits="userSpaceOnUse"
       gradientTransform="matrix(0.99999633,0,0,1,-114.18901,-225.85098)" />
    <linearGradient
       inkscape:collect="always"
       id="linearGradient3008">
      <stop
         style="stop-color:#fafafa;stop-opacity:0.55000001"
         offset="0"
         id="stop3004" />
      <stop
         style="stop-color:#fafafa;stop-opacity:0"
         offset="1"
         id="stop3006" />
    </linearGradient>
  </defs>
  <sodipodi:namedview
     id="base"
     pagecolor="#cecece"
     bordercolor="#666666"
     borderopacity="1.0"
     inkscape:pageopacity="0"
     inkscape:pageshadow="2"
     inkscape:zoom="4.3497237"
     inkscape:cx="1.9941514"
     inkscape:cy="68.762066"
     inkscape:document-units="px"
     inkscape:current-layer="layer1"
     inkscape:document-rotation="0"
     showgrid="false"
     units="px"
     inkscape:window-width="1500"
     inkscape:window-height="970"
     inkscape:window-x="68"
     inkscape:window-y="56"
     inkscape:window-maximized="0" />
  <metadata
     id="metadata6371">
    <rdf:RDF>
      <cc:Work
         rdf:about="">
        <dc:format>image/svg+xml</dc:format>
        <dc:type
           rdf:resource="http://purl.org/dc/dcmitype/StillImage" />
        <dc:title></dc:title>
      </cc:Work>
    </rdf:RDF>
  </metadata>
  <g
     inkscape:label="Layer 1"
     inkscape:groupmode="layer"
     id="layer1">
    <path
       id="rect1323-3-5-22-1-5-6-2-3-6"
       style="color:#000000;font-style:normal;font-variant:normal;font-weight:normal;font-stretch:normal;font-size:medium;line-height:normal;font-family:sans-serif;font-variant-ligatures:normal;font-variant-position:normal;font-variant-caps:normal;font-variant-numeric:normal;font-variant-alternates:normal;font-variant-east-asian:normal;font-feature-settings:normal;font-variation-settings:normal;text-indent:0;text-align:start;text-decoration:none;text-decoration-line:none;text-decoration-style:solid;text-decoration-color:#000000;letter-spacing:normal;word-spacing:normal;text-transform:none;writing-mode:lr-tb;direction:ltr;text-orientation:mixed;dominant-baseline:auto;baseline-shift:baseline;text-anchor:start;white-space:normal;shape-padding:0;shape-margin:0;inline-size:0;clip-rule:nonzero;display:inline;overflow:visible;visibility:visible;opacity:0.15;isolation:auto;mix-blend-mode:normal;color-interpolation:sRGB;color-interpolation-filters:linearRGB;solid-color:#000000;solid-opacity:1;vector-effect:none;fill:#0c0c0c;fill-opacity:1;fill-rule:nonzero;stroke:none;stroke-width:0.999879;stroke-linecap:round;stroke-linejoin:round;stroke-miterlimit:4;stroke-dasharray:none;stroke-dashoffset:2.1875;stroke-opacity:1;color-rendering:auto;image-rendering:auto;shape-rendering:auto;text-rendering:auto;enable-background:accumulate;stop-color:#000000"
       d="m 13.878584,3.5045701 v 0.002 a 4.0000076,3.9998586 0 0 0 -0.041,0.002 c -0.0895,0.004 -0.25404,0.008 -0.18748,0.006 a 4.0000076,3.9998586 0 0 0 -0.0117,0 c -0.084,0.004 -0.24236,0.0112 -0.43942,0.0274 -0.0219,0.002 -0.0255,-1.6e-4 -0.0488,0.002 h 0.0176 c -0.19708,0.0169 -0.33689,0.0349 -0.41598,0.0449 a 4.0000076,3.9998586 0 0 0 -0.0703,0.0117 c -0.0102,10e-4 -0.10118,0.0162 -0.13867,0.0215 -0.0442,0.006 -0.0581,0.008 -0.13866,0.0215 a 4.0000076,3.9998586 0 0 0 -0.0586,0.01 c -0.009,0.002 -0.0124,0.002 -0.0215,0.004 -0.0108,0.002 -0.008,0.002 -0.0195,0.004 -0.008,0.002 -0.006,-5e-5 -0.0137,0.002 -0.20078,0.0371 -0.38155,0.0777 -0.53317,0.11522 -0.008,0.002 -0.0213,0.004 -0.0293,0.006 -0.0552,0.0134 -0.11279,0.0291 -0.15038,0.0391 a 4.0000076,3.9998586 0 0 0 -0.0742,0.0195 c -0.24632,0.0681 -0.46333,0.14012 -0.66009,0.21091 -0.0637,0.0228 -0.004,7.6e-4 -0.0273,0.01 -0.002,0.001 -0.004,0.001 -0.006,0.002 -0.024,0.009 -0.10926,0.0394 -0.043,0.0156 a 4.0000076,3.9998586 0 0 0 -0.0586,0.0215 c -0.19449,0.0733 -0.36952,0.15542 -0.54684,0.2363 -0.0399,0.0182 -0.084,0.0343 -0.12303,0.0527 a 4.0000076,3.9998586 0 0 0 -0.0312,0.0137 4.0000076,3.9998586 0 0 0 -0.0195,0.01 c -0.006,0.003 -0.0134,0.005 -0.0195,0.008 -0.0104,0.005 -0.0229,0.009 -0.0332,0.0137 -0.27377,0.13285 -0.53257,0.27537 -0.77533,0.42378 -0.0439,0.0268 -0.0749,0.0532 -0.11718,0.0801 -0.0559,0.0355 -0.10896,0.0746 -0.16405,0.1113 -0.15724,0.10537 -0.3235,0.21219 -0.45895,0.31442 -0.0649,0.0489 -0.13026,0.1103 -0.1953,0.16209 -0.0559,0.0449 -0.10923,0.0924 -0.16405,0.13866 -0.11126,0.0929 -0.2232,0.17519 -0.33395,0.2773 -0.12014,0.11071 -0.23154,0.23048 -0.34568,0.34762 -1.33666,1.37164 -2.25878,3.16814 -2.53107,5.1594899 a 4.0000076,3.9998586 0 0 0 -0.0215,0.17772 c -0.007,0.0775 -0.0122,0.10899 -0.0137,0.16599 -0.002,0.0673 -0.003,0.11966 -0.002,0.15428 -3.1e-4,-0.0307 -0.002,-0.0663 -0.002,-0.0879 -3e-5,-0.002 4e-5,-0.006 0,-0.008 -1.7e-4,-0.0113 7e-5,-0.0192 0,-0.041 2.8e-4,-0.004 -3.5e-4,-0.003 0,-0.008 -0.003,-0.70782 -0.0107,-0.68516 -0.0117,0.17576 a 4.0000076,3.9998586 0 0 0 -0.0195,0.40034 c 0,-0.43961 -0.0176,-0.35102 -0.0176,0.26363 -1e-5,3.2e-4 0,0.002 0,0.002 v 0.0586 41.59239 0.002 0.0566 0.004 c 0,0.61465 0.0176,0.70324 0.0176,0.26363 a 4.0000076,3.9998586 0 0 0 0.0195,0.40034 c 0.001,0.86092 0.009,0.88358 0.0117,0.17576 -3.5e-4,-0.005 2.8e-4,-0.004 0,-0.008 7e-5,-0.0208 -1.6e-4,-0.028 0,-0.0391 -2e-4,-0.002 2.1e-4,-0.006 0,-0.008 4.1e-4,-0.0227 0.002,-0.0585 0.002,-0.0898 -10e-4,0.0355 8e-5,0.0873 0.002,0.15623 5.1e-4,0.005 -5.1e-4,0.0146 0,0.0195 0.002,0.0417 0.004,0.0541 0.008,0.10545 7e-4,0.009 0.005,0.0243 0.006,0.0332 a 4.0000076,3.9998586 0 0 0 0.0215,0.18357 c 0.29554,2.16142 1.34977,4.10007 2.87675,5.50712 0.11815,0.10892 0.23673,0.19836 0.35543,0.29683 0.0415,0.0348 0.0828,0.0695 0.125,0.10351 0.0711,0.0569 0.14199,0.12425 0.21287,0.17771 0.14851,0.11208 0.32899,0.22812 0.50387,0.3437 0.0345,0.0227 0.0668,0.0481 0.10156,0.0703 0.0483,0.0309 0.0843,0.061 0.13475,0.0918 0.24276,0.14841 0.50156,0.29092 0.77534,0.42378 0.0163,0.008 0.0363,0.0136 0.0527,0.0215 0.006,0.003 0.0132,0.007 0.0195,0.01 a 4.0000076,3.9998586 0 0 0 0.15429,0.0664 c 0.17731,0.0809 0.35234,0.16303 0.54683,0.2363 a 4.0000076,3.9998586 0 0 0 0.0586,0.0215 c -0.0663,-0.0238 0.019,0.007 0.043,0.0156 0.002,6.3e-4 0.004,9.5e-4 0.006,0.002 0.0235,0.009 -0.0363,-0.013 0.0273,0.01 0.19676,0.0708 0.41377,0.14285 0.66009,0.21091 a 4.0000076,3.9998586 0 0 0 0.0742,0.0195 c 0.0376,0.01 0.0952,0.0257 0.15038,0.0391 0.008,0.002 0.021,0.004 0.0293,0.006 0.15162,0.0375 0.33239,0.0781 0.53317,0.11523 0.008,0.002 0.006,4.4e-4 0.0137,0.002 0.0113,0.002 0.009,0.002 0.0195,0.004 0.009,0.002 0.0123,0.002 0.0215,0.004 a 4.0000076,3.9998586 0 0 0 0.0586,0.01 c 0.0806,0.0131 0.0944,0.0151 0.13866,0.0215 0.0375,0.005 0.12846,0.0201 0.13867,0.0215 a 4.0000076,3.9998586 0 0 0 0.0703,0.01 c 0.0676,0.009 0.2013,0.0245 0.35544,0.0391 0.0217,0.002 0.032,0.004 0.0547,0.006 0.005,4.1e-4 0.005,0.002 0.01,0.002 0.003,2.3e-4 0.003,-2.3e-4 0.006,0 a 4.0000076,3.9998586 0 0 0 0.0215,0.002 c 0.0365,0.003 0.0426,0.002 0.0742,0.004 0.14761,0.0102 0.29539,0.0185 0.36522,0.0215 a 4.0000076,3.9998586 0 0 0 0.0117,0 c -0.0208,-7.5e-4 0.064,0.002 0.0586,0.002 -1.8e-4,1e-5 0.002,-2e-5 0.002,0 a 4.0000076,3.9998586 0 0 0 0.16795,0.008 4.0000076,3.9998586 0 0 0 0.082,0 4.0000076,3.9998586 0 0 0 0.002,0 c 0.0426,-2e-5 -0.0292,7e-5 0.006,0 a 4.0000076,3.9998586 0 0 0 0.30856,-0.0117 c 0.0429,-0.002 0.0749,-0.004 0.11719,-0.006 0.0483,-0.003 0.16274,-0.007 0.18162,-0.008 a 4.0000076,3.9998586 0 0 0 0.002,0 c 0.0151,-9e-4 0.0352,-0.003 0.0508,-0.004 0.0882,-0.006 0.17947,-0.0114 0.28708,-0.0215 a 4.0000076,3.9998586 0 0 0 0.0801,-0.008 c 0.16547,-0.0188 0.19757,-0.0276 0.26366,-0.0391 0.0254,-0.004 0.0903,-0.0116 0.10155,-0.0137 0.0134,-0.002 0.0332,-0.006 0.0469,-0.008 a 4.0000076,3.9998586 0 0 0 0.002,0 c 0.0898,-0.0143 0.27612,-0.0401 0.55465,-0.10154 a 4.0000076,3.9998586 0 0 0 0.0312,-0.008 4.0000076,3.9998586 0 0 0 0.0195,-0.004 4.0000076,3.9998586 0 0 0 0.004,-0.002 4.0000076,3.9998586 0 0 0 0.1328,-0.0332 c 0.004,-5.8e-4 0.0195,-0.004 0.0195,-0.004 0,0 0.004,-7.7e-4 0.006,-0.002 10e-4,-5e-4 0.002,-0.002 0.002,-0.002 a 4.0000076,3.9998586 0 0 1 0.002,0 4.0000076,3.9998586 0 0 0 0.11914,-0.0352 4.0000076,3.9998586 0 0 0 0.0117,-0.004 c 0.0122,-0.004 0.0168,-0.002 0.0293,-0.006 0.007,-0.002 0.023,-0.0107 0.0312,-0.0137 a 4.0000076,3.9998586 0 0 0 0.0625,-0.0234 4.0000076,3.9998586 0 0 0 0.0234,-0.008 4.0000076,3.9998586 0 0 0 0.0703,-0.0273 c 5.3e-4,-1.4e-4 10e-4,1.3e-4 0.002,0 a 4.0000076,3.9998586 0 0 0 0.0117,-0.004 4.0000076,3.9998586 0 0 0 0.0508,-0.0215 4.0000076,3.9998586 0 0 0 0.0234,-0.008 4.0000076,3.9998586 0 0 0 0.0137,-0.006 4.0000076,3.9998586 0 0 0 0.1367,-0.0586 4.0000076,3.9998586 0 0 0 0.004,-0.002 4.0000076,3.9998586 0 0 0 0.004,-0.002 4.0000076,3.9998586 0 0 0 0.14647,-0.0723 4.0000076,3.9998586 0 0 0 0.0781,-0.041 4.0000076,3.9998586 0 0 0 0.0703,-0.0391 c 5.5e-4,-2.2e-4 0.004,-0.001 0.006,-0.002 a 4.0000076,3.9998586 0 0 0 0.004,-0.002 c 0.004,-10e-4 0.008,-0.002 0.0117,-0.004 0.25713,-0.0943 0.51989,-0.17875 0.77729,-0.27144 0.11189,-0.0394 0.21241,-0.0955 0.32029,-0.14062 0.12975,-0.0553 0.2661,-0.10037 0.38668,-0.16989 l 0.002,-0.002 35.76101,-20.6302 -0.16991,0.0918 c 0.0485,-0.0245 0.0945,-0.0547 0.14257,-0.0801 0.003,-10e-4 0.015,-0.006 0.0273,-0.0117 l 0.008,-0.004 0.008,-0.004 c 0,0 0.004,-0.003 0.006,-0.004 0.003,-0.003 0.006,-0.005 0.0117,-0.01 0.89559,-0.48049 1.72333,-1.1094 2.43146,-1.88257 a 4.0000076,3.9998586 0 0 0 0.004,-0.004 c 0.19705,-0.21571 0.35479,-0.41033 0.48434,-0.57805 3e-4,0.003 -0.0254,0.0401 0.0937,-0.11717 a 4.0000076,3.9998586 0 0 0 0.0137,-0.0176 c 0.17819,-0.23806 0.27303,-0.39402 0.31052,-0.45111 0.0558,-0.084 0.11655,-0.18019 0.17967,-0.28317 l 0.008,-0.0137 c -0.0554,0.0913 0.0328,-0.0513 0.0215,-0.0312 -0.17604,0.29529 -0.1109,0.21776 0.0547,-0.0859 a 4.0000076,3.9998586 0 0 0 0.0234,-0.0391 c 0.17251,-0.29944 0.15917,-0.2939 0.11914,-0.22653 -6.9e-4,0.001 0.003,-0.005 0.002,-0.004 -0.003,0.004 0.0164,-0.0316 0.0215,-0.041 l 0.006,-0.01 a 4.0000076,3.9998586 0 0 0 0.004,-0.002 c 0.0397,-0.075 0.11777,-0.2211 0.22069,-0.44331 l 0.002,-0.002 c 0.0803,-0.17309 0.13148,-0.29898 0.15428,-0.35347 a 4.0000076,3.9998586 0 0 0 0.0195,-0.0488 c 0.0284,-0.0707 0.0815,-0.19828 0.14648,-0.37886 l 0.006,-0.0137 c 0.0748,-0.20892 0.12029,-0.36801 0.14647,-0.45698 a 4.0000076,3.9998586 0 0 0 0.004,-0.01 4.0000076,3.9998586 0 0 0 0.004,-0.0156 c 2.6e-4,-8.7e-4 0.005,-0.02 0.006,-0.0215 0.008,-0.0271 0.0469,-0.1395 0.10546,-0.37886 a 4.0000076,3.9998586 0 0 0 0.002,-0.0117 c 0.0371,-0.15371 0.0643,-0.28137 0.0859,-0.39449 0.0248,-0.12184 0.0515,-0.26628 0.0781,-0.44135 a 4.0000076,3.9998586 0 0 0 0.004,-0.0274 4.0000076,3.9998586 0 0 0 0.006,-0.0293 c 0.006,-0.041 -3.7e-4,-0.007 0.004,-0.041 0.0212,-0.16754 0.0246,-0.213 0.0215,-0.2031 -0.001,0.003 0.0106,-0.0887 0.008,-0.0664 a 4.0000076,3.9998586 0 0 0 0.002,-0.0254 c 0,2e-5 0.002,-0.0288 0.002,-0.0312 0.0112,-0.11758 0.0353,-0.33745 0.0195,-0.20115 l -0.004,0.0273 c 0.0495,-0.40543 0.041,-0.6618 0.041,-0.74991 0,-1.8e-4 0,-0.002 0,-0.002 0,-0.0881 0.008,-0.34447 -0.041,-0.7499 l 0.004,0.0273 c 0.0158,0.13631 -0.008,-0.0836 -0.0195,-0.20115 -0.002,-0.0182 6.5e-4,-0.008 -0.002,-0.0312 a 4.0000076,3.9998586 0 0 0 -0.002,-0.0254 c 0.003,0.0223 -0.009,-0.0696 -0.008,-0.0664 0.003,0.01 -2.4e-4,-0.0356 -0.0215,-0.2031 -0.004,-0.0338 0.002,-10e-6 -0.004,-0.041 a 4.0000076,3.9998586 0 0 0 -0.006,-0.0293 c -0.002,-0.0155 -0.002,-0.0126 -0.004,-0.0273 -0.0266,-0.17507 -0.0533,-0.31951 -0.0781,-0.44135 -0.0216,-0.11312 -0.0488,-0.24078 -0.0859,-0.39448 a 4.0000076,3.9998586 0 0 0 -0.002,-0.0117 c -0.0586,-0.23936 -0.097,-0.3518 -0.10546,-0.37886 a 4.0000076,3.9998586 0 0 0 -0.006,-0.0215 4.0000076,3.9998586 0 0 0 -0.004,-0.0156 c -5.5e-4,-0.002 -0.003,-0.008 -0.004,-0.01 -0.0262,-0.089 -0.0716,-0.24807 -0.14647,-0.45699 l -0.006,-0.0137 c -0.065,-0.18058 -0.11804,-0.30817 -0.14648,-0.37886 a 4.0000076,3.9998586 0 0 0 -0.0195,-0.0488 c -0.0228,-0.0545 -0.074,-0.18039 -0.15428,-0.35348 l -0.002,-0.002 c -0.10292,-0.22221 -0.18095,-0.36834 -0.22069,-0.44331 a 4.0000076,3.9998586 0 0 0 -0.004,-0.002 c 0.002,0.004 -0.005,-0.007 -0.006,-0.01 0.0129,0.0238 -0.0292,-0.0542 -0.0215,-0.041 -0.001,-0.002 -8.5e-4,-0.002 -0.002,-0.004 0.04,0.0674 0.0534,0.0729 -0.11914,-0.22653 a 4.0000076,3.9998586 0 0 0 -0.0234,-0.0391 c -0.16559,-0.30368 -0.23073,-0.38121 -0.0547,-0.0859 -0.007,-0.0121 -0.0143,-0.0195 -0.0215,-0.0312 l -0.008,-0.0137 c -0.0631,-0.10298 -0.12383,-0.19921 -0.17967,-0.28317 -0.0375,-0.0571 -0.13234,-0.21305 -0.31053,-0.45111 a 4.0000076,3.9998586 0 0 0 -0.0137,-0.0176 c -0.11917,-0.1573 -0.0934,-0.11967 -0.0937,-0.11717 -0.12955,-0.16771 -0.2873,-0.36233 -0.48435,-0.57805 a 4.0000076,3.9998586 0 0 0 -0.004,-0.004 c -0.70813,-0.77318 -1.53586,-1.40208 -2.43146,-1.88257 -0.006,-0.005 -0.009,-0.007 -0.0117,-0.01 l -0.006,-0.004 c 0,0 -0.008,-0.005 -0.0156,-0.008 -0.0124,-0.005 -0.0248,-0.0105 -0.0273,-0.0117 -0.0481,-0.0254 -0.0941,-0.0556 -0.14257,-0.0801 l 0.16991,0.0918 -35.76101,-20.6302099 -0.002,-0.002 c -0.0612,-0.0353 -0.13314,-0.0549 -0.19725,-0.0859 -0.40695,-0.19892 -0.85293,-0.33678 -1.28702,-0.49602 -0.004,-0.002 -0.008,-0.003 -0.0117,-0.004 a 4.0000076,3.9998586 0 0 0 -0.004,-0.002 4.0000076,3.9998586 0 0 0 -0.006,-0.002 4.0000076,3.9998586 0 0 0 -0.14843,-0.0801 4.0000076,3.9998586 0 0 0 -0.14647,-0.0723 4.0000076,3.9998586 0 0 0 -0.004,-0.002 4.0000076,3.9998586 0 0 0 -0.004,-0.002 4.0000076,3.9998586 0 0 0 -0.1367,-0.0586 4.0000076,3.9998586 0 0 0 -0.0137,-0.006 4.0000076,3.9998586 0 0 0 -0.0234,-0.008 4.0000076,3.9998586 0 0 0 -0.0508,-0.0215 4.0000076,3.9998586 0 0 0 -0.0117,-0.004 4.0000076,3.9998586 0 0 0 -0.0723,-0.0273 4.0000076,3.9998586 0 0 0 -0.0859,-0.0312 c -0.008,-0.003 -0.0242,-0.0117 -0.0312,-0.0137 -0.0125,-0.004 -0.0171,-0.002 -0.0293,-0.006 a 4.0000076,3.9998586 0 0 0 -0.0117,-0.004 4.0000076,3.9998586 0 0 0 -0.11914,-0.0352 4.0000076,3.9998586 0 0 0 -0.002,0 c -4e-5,-2e-5 -9.4e-4,-0.001 -0.002,-0.002 -0.002,-10e-4 -0.006,-0.002 -0.006,-0.002 -10e-6,0 -0.009,-8e-4 -0.0156,-0.002 -0.002,-4.5e-4 -0.005,-0.002 -0.006,-0.002 a 4.0000076,3.9998586 0 0 0 -0.13085,-0.0352 4.0000076,3.9998586 0 0 0 -0.004,-0.002 4.0000076,3.9998586 0 0 0 -0.0508,-0.0117 c -0.27853,-0.0615 -0.46486,-0.0873 -0.55465,-0.10155 a 4.0000076,3.9998586 0 0 1 -0.002,0 c -9.1e-4,-1.4e-4 -0.0181,-0.002 -0.0195,-0.002 -0.008,-0.001 -0.0195,-0.005 -0.0273,-0.006 0.0106,10e-4 -0.13851,-0.0187 -0.25974,-0.0352 -0.0493,-0.007 -0.0342,-0.008 -0.10547,-0.0156 a 4.0000076,3.9998586 0 0 0 -0.0176,-0.002 4.0000076,3.9998586 0 0 0 -0.0625,-0.008 c -0.10761,-0.0101 -0.19888,-0.016 -0.28708,-0.0215 -0.0156,-9.8e-4 -0.0356,-0.003 -0.0508,-0.004 a 4.0000076,3.9998586 0 0 1 -0.002,0 c -0.0189,-10e-4 -0.13332,-0.005 -0.18162,-0.008 -0.0423,-0.002 -0.0743,-0.004 -0.11719,-0.006 a 4.0000076,3.9998586 0 0 0 -0.30857,-0.0117 c -0.035,-7e-5 0.0367,2e-5 -0.006,0 a 4.0000076,3.9998586 0 0 0 -0.002,0 4.0000076,3.9998586 0 0 0 -0.082,0 z m 0.0781,8.0028999 c 0.001,1.3e-4 0.0169,5.8e-4 0.0371,0.002 0.007,5e-4 0.004,10e-4 0.0137,0.002 -0.0426,-6e-5 -0.0363,-0.002 0.0937,0.006 -0.005,-5.3e-4 0.0289,0.003 0.0195,0.002 a 4.0000076,3.9998586 0 0 0 0.0137,0.002 c 10e-4,6.4e-4 -0.0218,-0.002 0.0156,0.004 a 4.0000076,3.9998586 0 0 0 0.004,0 c 0.0576,0.009 0.0761,0.0114 0.0781,0.0117 -0.004,-9.5e-4 0.0137,0.003 0.008,0.002 0.002,2.8e-4 0.004,0 0.004,0 a 4.0000076,3.9998586 0 0 0 0.006,0.002 c 0.11156,0.0253 0.21438,0.0671 0.32223,0.12889 10e-4,8.2e-4 0.002,0.001 0.004,0.002 a 4.0000076,3.9998586 0 0 0 0.0273,0.0176 l 35.69657,20.5931 c 0,0 0.0397,0.0204 0.0469,0.0234 2.4e-4,1e-4 0.002,-7e-5 0.002,0 l 0.0234,0.0137 a 4.0000076,3.9998586 0 0 0 0.0234,0.0137 4.0000076,3.9998586 0 0 0 0.01,0.006 4.0000076,3.9998586 0 0 0 0.16405,0.0879 c 0.10649,0.0537 0.19784,0.13156 0.28514,0.21677 0.0335,0.0339 0.0688,0.0601 0.10155,0.10155 0.003,0.004 0.002,8.4e-4 0.006,0.006 a 4.0000076,3.9998586 0 0 0 0.008,0.01 4.0000076,3.9998586 0 0 0 0.0156,0.0215 c -0.0168,-0.0225 0.005,0.009 0.0312,0.0488 0.0634,0.0984 0.0808,0.1272 0.0508,0.0781 a 4.0000076,3.9998586 0 0 0 0.006,0.01 c 0.0209,0.0391 -0.0421,-0.0736 0.002,0.01 a 4.0000076,3.9998586 0 0 0 0.008,0.0156 c 0.0183,0.0346 0.0204,0.0393 0.0274,0.0527 -0.002,-0.005 0.01,0.0204 0.0117,0.0254 0.0521,0.12698 0.0556,0.13587 0.0371,0.084 v -0.004 c 5.4e-4,9.9e-4 0.005,0.0125 0.004,0.01 a 4.0000076,3.9998586 0 0 0 0.008,0.0215 c -0.0224,-0.0617 -0.019,-0.0617 0.004,0.0156 0.0157,0.0551 0.0168,0.0587 0.0137,0.0449 -9.5e-4,-0.004 0.008,0.0307 0.004,0.0137 a 4.0000076,3.9998586 0 0 0 0.002,0.0117 c -0.009,-0.0361 0.002,0.0199 0.008,0.0469 0.005,0.023 -10e-4,-0.004 0.002,0.0117 0.004,0.0166 -0.001,-0.008 0.004,0.0176 a 4.0000076,3.9998586 0 0 0 0.002,0.006 c 0.002,0.008 0.005,0.0199 0.004,0.0137 4.6e-4,0.002 -3.1e-4,0.005 0,0.006 -0.002,-0.009 0.007,0.0566 0.0117,0.0996 0.002,0.0148 -3e-5,0.006 0.002,0.0234 9.7e-4,0.009 7.5e-4,0.002 0.002,0.0117 3.9e-4,0.003 -4.1e-4,0.002 0,0.006 1.4e-4,0.003 -3e-4,-0.002 0.002,0.0176 0.001,0.009 7.9e-4,0.004 0.002,0.0137 a 4.0000076,3.9998586 0 0 0 0,0.004 v 0.002 0.002 c 0,-7.7e-4 0,0.003 0,0.002 v 0.002 0.002 a 4.0000076,3.9998586 0 0 0 0,0.004 c 3.2e-4,-4.6e-4 -1.9e-4,-9.8e-4 -0.002,0.0137 -0.003,0.0254 5e-5,0.004 -0.002,0.0234 -2.6e-4,0.002 2.5e-4,0.002 0,0.004 -3.9e-4,0.002 -0.001,0.002 -0.002,0.008 -0.002,0.0172 -3.6e-4,0.009 -0.002,0.0234 -0.005,0.043 -0.0136,0.10824 -0.0117,0.0996 1.1e-4,-5e-4 -1.3e-4,0.007 0,0.006 -10e-4,0.004 -10e-4,0.002 -0.004,0.0137 -9.1e-4,0.004 -0.001,0.003 -0.002,0.006 -0.005,0.0256 -3.7e-4,9.8e-4 -0.004,0.0176 -0.003,0.0162 0.003,-0.0113 -0.002,0.0117 -0.006,0.027 -0.0166,0.083 -0.008,0.0469 -5e-4,0.002 -0.002,0.0113 -0.002,0.0117 a 4.0000076,3.9998586 0 0 0 -0.004,0.0137 c 0.003,-0.0138 0.002,-0.0102 -0.0137,0.0449 -0.0229,0.0773 -0.0263,0.0773 -0.004,0.0156 a 4.0000076,3.9998586 0 0 0 -0.008,0.0215 c 9.8e-4,-0.003 -0.003,0.008 -0.004,0.01 v -0.004 c 0.0185,-0.0519 0.015,-0.043 -0.0371,0.084 -0.002,0.005 -0.0142,0.0305 -0.0117,0.0254 -0.007,0.0134 -0.009,0.0181 -0.0274,0.0527 a 4.0000076,3.9998586 0 0 0 -0.008,0.0156 c -0.0441,0.0834 0.019,-0.0293 -0.002,0.01 a 4.0000076,3.9998586 0 0 0 -0.006,0.008 c 0.03,-0.0491 0.0126,-0.0203 -0.0508,0.0781 -0.0262,0.0395 -0.0481,0.0713 -0.0312,0.0488 a 4.0000076,3.9998586 0 0 0 -0.0234,0.0332 4.0000076,3.9998586 0 0 0 -0.01,0.0117 c 0.007,-0.009 0.055,-0.0737 0.004,-0.008 -0.0353,0.0446 -0.0732,0.0735 -0.10936,0.10935 -0.0854,0.082 -0.17374,0.15872 -0.27733,0.21092 a 4.0000076,3.9998586 0 0 0 -0.16405,0.0879 4.0000076,3.9998586 0 0 0 -0.01,0.006 4.0000076,3.9998586 0 0 0 -0.0234,0.0137 4.0000076,3.9998586 0 0 0 -0.0234,0.0137 h -0.002 c -0.007,0.003 -0.0469,0.0215 -0.0469,0.0215 L 14.603814,55.3182 a 4.0000076,3.9998586 0 0 0 -0.0273,0.0176 c -6e-4,3.5e-4 -10e-4,-3.4e-4 -0.002,0 a 4.0000076,3.9998586 0 0 0 -0.002,0.002 c -0.11395,0.0654 -0.21531,0.1046 -0.32419,0.12889 a 4.0000076,3.9998586 0 0 0 -0.002,0 4.0000076,3.9998586 0 0 0 -0.006,0.002 c -0.003,5.8e-4 -0.008,0.002 -0.008,0.002 0.0452,-0.01 0.034,-0.007 -0.082,0.0117 -0.0375,0.006 -0.0146,0.003 -0.0156,0.004 a 4.0000076,3.9998586 0 0 0 -0.0137,0.002 c 0.009,-0.001 -0.0244,0.002 -0.0195,0.002 0.0232,-0.003 0.0317,-0.004 -0.0937,0.006 -0.009,7e-4 -0.006,0.001 -0.0137,0.002 -0.0202,10e-4 -0.0359,0.002 -0.0371,0.002 -0.0248,-0.001 -0.0187,-8.9e-4 -0.0332,-0.002 0.0449,-5.9e-4 0.14565,-5.1e-4 -0.0352,-0.006 a 4.0000076,3.9998586 0 0 0 -0.0156,0 c -0.035,-7e-4 -0.0141,10e-4 -0.004,0.002 a 4.0000076,3.9998586 0 0 0 -0.0176,-0.002 c -0.008,-10e-4 -0.0155,-0.002 -0.0527,-0.008 -0.0525,-0.008 -0.0406,-0.005 -0.0605,-0.008 0.005,10e-4 -0.0137,-0.004 -0.0117,-0.004 0.0127,0.002 0.006,0.004 -0.0703,-0.0156 l 0.0273,0.008 c -0.0515,-0.0133 0.0372,0.0109 0.0137,0.004 -0.0113,-0.002 -0.007,1.4e-4 -0.0312,-0.006 a 4.0000076,3.9998586 0 0 0 -0.002,0 4.0000076,3.9998586 0 0 0 -0.0312,-0.01 c -0.0148,-0.004 -0.0438,-0.0146 -0.084,-0.0293 a 4.0000076,3.9998586 0 0 0 -0.0215,-0.008 c -0.003,-10e-4 -0.0116,-0.004 -0.0156,-0.006 -0.006,-0.002 -0.0149,-0.007 -0.0215,-0.01 -0.0178,-0.007 -0.0352,-0.0142 -0.0586,-0.0254 a 4.0000076,3.9998586 0 0 0 -0.004,-0.002 c -5e-4,-2.4e-4 -10e-4,2.5e-4 -0.002,0 -0.0776,-0.0381 -0.14637,-0.0867 -0.21287,-0.13865 -0.0165,-0.0127 -0.0313,-0.0233 -0.043,-0.0332 -0.0196,-0.0168 -0.0343,-0.0386 -0.0527,-0.0566 -0.0695,-0.0695 -0.13051,-0.14323 -0.17772,-0.22654 -0.005,-0.009 -0.0105,-0.0181 -0.0156,-0.0273 -0.0517,-0.0976 -0.0915,-0.20376 -0.11717,-0.31832 -0.003,-0.34306 -0.005,-0.35291 -0.008,-0.0234 -0.004,-0.0222 -0.0138,-0.0411 -0.0195,-0.0625 -10e-4,-0.005 -0.003,-0.009 -0.004,-0.0137 -5e-5,-0.004 3e-5,0.002 0,-0.002 a 4.0000076,3.9998586 0 0 0 0,-0.002 c -7.6e-4,-0.0764 -0.003,0.007 -0.004,-0.0391 a 4.0000076,3.9998586 0 0 0 -0.002,-0.041 c -0.003,-0.0316 -0.007,-0.20736 -0.008,-0.0859 a 4.0000076,3.9998586 0 0 0 -0.002,-0.041 V 12.74856 a 4.0000076,3.9998586 0 0 0 0.002,-0.043 c 0.001,0.13787 0.005,-0.0388 0.008,-0.0977 a 4.0000076,3.9998586 0 0 0 0.002,-0.0273 c 9.9e-4,-0.0427 0.003,0.0327 0.004,-0.0371 8e-5,-0.007 -9e-5,0.004 0,-0.004 1.7e-4,-10e-4 -1.8e-4,-0.003 0,-0.004 9.9e-4,-0.009 0.005,-0.0171 0.008,-0.0254 0.006,-0.0166 0.0123,-0.0328 0.0156,-0.0508 0.003,0.32946 0.005,0.31963 0.008,-0.0234 0.0257,-0.11454 0.0655,-0.21882 0.11717,-0.31637 0.005,-0.01 0.01,-0.0198 0.0156,-0.0293 0.0451,-0.0793 0.1047,-0.14997 0.16991,-0.21676 0.0234,-0.0234 0.0429,-0.0508 0.0684,-0.0723 0.007,-0.006 0.0153,-0.0112 0.0234,-0.0176 0.0699,-0.056 0.14408,-0.10615 0.22654,-0.14646 a 4.0000076,3.9998586 0 0 0 0.004,-0.002 c 0.0321,-0.0154 0.0576,-0.0263 0.0801,-0.0352 a 4.0000076,3.9998586 0 0 0 0.0156,-0.008 4.0000076,3.9998586 0 0 0 0.002,-0.002 4.0000076,3.9998586 0 0 0 0.0117,-0.004 c 0.004,-0.002 0.004,-4.8e-4 0.008,-0.002 0.0402,-0.0147 0.0692,-0.0253 0.084,-0.0293 a 4.0000076,3.9998586 0 0 0 0.0332,-0.008 c 0.0138,-0.003 0.008,-0.002 0.0176,-0.004 l -0.0273,0.01 c 0.0763,-0.0192 0.083,-0.0179 0.0703,-0.0156 -0.002,3.9e-4 0.0163,-0.005 0.0117,-0.004 0.0199,-0.003 0.008,-0.002 0.0605,-0.01 0.01,-0.001 0.006,-9.2e-4 0.0137,-0.002 0.007,-10e-4 0.0461,-0.005 0.0391,-0.004 a 4.0000076,3.9998586 0 0 0 0.0176,-0.002 c -0.007,7.3e-4 -0.0261,6e-4 0.004,0 a 4.0000076,3.9998586 0 0 0 0.0156,0 c 0.0701,-0.002 -0.0113,-8.1e-4 0.0137,-0.002 0.01,-7.8e-4 0.0139,-0.002 0.0547,-0.004 z" />
    <path
       id="rect1323-3-5-22-1-5-6-2"
       style="color:#000000;font-style:normal;font-variant:normal;font-weight:normal;font-stretch:normal;font-size:medium;line-height:normal;font-family:sans-serif;font-variant-ligatures:normal;font-variant-position:normal;font-variant-caps:normal;font-variant-numeric:normal;font-variant-alternates:normal;font-variant-east-asian:normal;font-feature-settings:normal;font-variation-settings:normal;text-indent:0;text-align:start;text-decoration:none;text-decoration-line:none;text-decoration-style:solid;text-decoration-color:#000000;letter-spacing:normal;word-spacing:normal;text-transform:none;writing-mode:lr-tb;direction:ltr;text-orientation:mixed;dominant-baseline:auto;baseline-shift:baseline;text-anchor:start;white-space:normal;shape-padding:0;shape-margin:0;inline-size:0;clip-rule:nonzero;display:inline;overflow:visible;visibility:visible;opacity:0.85;isolation:auto;mix-blend-mode:normal;color-interpolation:sRGB;color-interpolation-filters:linearRGB;solid-color:#000000;solid-opacity:1;vector-effect:none;fill:#613682;fill-opacity:1;fill-rule:nonzero;stroke:none;stroke-width:0.999879;stroke-linecap:round;stroke-linejoin:round;stroke-miterlimit:4;stroke-dasharray:none;stroke-dashoffset:2.1875;stroke-opacity:1;color-rendering:auto;image-rendering:auto;shape-rendering:auto;text-rendering:auto;enable-background:accumulate;stop-color:#000000"
       d="m 13.879074,2.0045701 v 0.002 a 4.0000076,3.9998586 0 0 0 -0.041,0.002 c -0.0895,0.004 -0.25404,0.008 -0.18748,0.006 a 4.0000076,3.9998586 0 0 0 -0.0117,0 c -0.084,0.004 -0.24236,0.0112 -0.43942,0.0274 -0.0219,0.002 -0.0255,-1.6e-4 -0.0488,0.002 h 0.0176 c -0.19708,0.0169 -0.33689,0.0349 -0.41598,0.0449 a 4.0000076,3.9998586 0 0 0 -0.0703,0.0117 c -0.0102,10e-4 -0.10117,0.0162 -0.13867,0.0215 -0.0442,0.006 -0.0581,0.008 -0.13866,0.0215 a 4.0000076,3.9998586 0 0 0 -0.0586,0.01 c -0.009,0.002 -0.0124,0.002 -0.0215,0.004 -0.0108,0.002 -0.008,0.002 -0.0195,0.004 -0.008,0.002 -0.006,-5e-5 -0.0137,0.002 -0.20078,0.0371 -0.38155,0.0777 -0.53317,0.11522 -0.008,0.002 -0.0213,0.004 -0.0293,0.006 -0.0552,0.0134 -0.11279,0.0291 -0.15038,0.0391 a 4.0000076,3.9998586 0 0 0 -0.0742,0.0195 c -0.24632,0.0681 -0.46333,0.14012 -0.66009,0.21091 -0.0637,0.0228 -0.004,7.6e-4 -0.0273,0.01 -0.002,10e-4 -0.004,10e-4 -0.006,0.002 -0.024,0.009 -0.10926,0.0394 -0.043,0.0156 a 4.0000076,3.9998586 0 0 0 -0.0586,0.0215 c -0.19449,0.0733 -0.36952,0.15542 -0.54684,0.2363 -0.0399,0.0182 -0.084,0.0343 -0.12304,0.0527 a 4.0000076,3.9998586 0 0 0 -0.0312,0.0137 4.0000076,3.9998586 0 0 0 -0.0195,0.01 c -0.006,0.003 -0.0134,0.005 -0.0195,0.008 -0.0104,0.005 -0.0229,0.009 -0.0332,0.0137 -0.27378,0.13285 -0.53258,0.27537 -0.77534,0.42378 -0.0439,0.0268 -0.0749,0.0532 -0.11718,0.0801 -0.0559,0.0355 -0.10896,0.0746 -0.16405,0.1113 -0.15723,0.10537 -0.32349,0.21219 -0.45894,0.31442 -0.0649,0.0489 -0.13026,0.1103 -0.1953,0.16209 -0.0559,0.0449 -0.10923,0.0924 -0.16405,0.13866 -0.11126,0.0929 -0.2232,0.17519 -0.33395,0.2773 -0.12014,0.11071 -0.23154,0.23048 -0.34568,0.34762 -1.33666,1.37164 -2.25878,3.16814 -2.53107,5.15949 a 4.0000076,3.9998586 0 0 0 -0.0215,0.1777199 c -0.007,0.0775 -0.0122,0.10899 -0.0137,0.16599 -0.002,0.0673 -0.003,0.11966 -0.002,0.15428 -3.1e-4,-0.0307 -0.002,-0.0663 -0.002,-0.0879 -3e-5,-0.002 4e-5,-0.006 0,-0.008 -1.7e-4,-0.0113 7e-5,-0.0192 0,-0.041 2.8e-4,-0.004 -3.5e-4,-0.003 0,-0.008 -0.003,-0.7078199 -0.0107,-0.6851599 -0.0117,0.17576 a 4.0000076,3.9998586 0 0 0 -0.0195,0.40034 c 0,-0.43961 -0.0176,-0.35102 -0.0176,0.26363 -10e-6,3.2e-4 0,0.002 0,0.002 v 0.0586 41.59239 0.002 0.0566 0.004 c 0,0.61465 0.0176,0.70324 0.0176,0.26363 a 4.0000076,3.9998586 0 0 0 0.0195,0.40034 c 10e-4,0.86092 0.009,0.88358 0.0117,0.17576 -3.5e-4,-0.005 2.8e-4,-0.004 0,-0.008 7e-5,-0.0208 -1.6e-4,-0.028 0,-0.0391 -2e-4,-0.002 2.1e-4,-0.006 0,-0.008 4.1e-4,-0.0227 0.002,-0.0585 0.002,-0.0898 -0.001,0.0355 8e-5,0.0873 0.002,0.15623 5.1e-4,0.005 -5.1e-4,0.0146 0,0.0195 0.002,0.0417 0.004,0.0541 0.008,0.10545 7e-4,0.009 0.005,0.0243 0.006,0.0332 a 4.0000076,3.9998586 0 0 0 0.0215,0.18357 c 0.29554,2.16142 1.34976,4.10007 2.87675,5.50712 0.11815,0.10892 0.23673,0.19836 0.35543,0.29683 0.0415,0.0348 0.0828,0.0695 0.125,0.10351 0.0711,0.0569 0.14199,0.12425 0.21287,0.17771 0.14851,0.11208 0.32899,0.22812 0.50386,0.3437 0.0345,0.0227 0.0668,0.0481 0.10156,0.0703 0.0483,0.0309 0.0843,0.061 0.13475,0.0918 0.24276,0.14841 0.50156,0.29092 0.77534,0.42378 0.0163,0.008 0.0363,0.0136 0.0527,0.0215 0.006,0.003 0.0132,0.007 0.0195,0.01 a 4.0000076,3.9998586 0 0 0 0.15429,0.0664 c 0.17732,0.0809 0.35235,0.16303 0.54684,0.2363 a 4.0000076,3.9998586 0 0 0 0.0586,0.0215 c -0.0663,-0.0238 0.019,0.007 0.043,0.0156 0.002,6.3e-4 0.004,9.5e-4 0.006,0.002 0.0235,0.009 -0.0363,-0.013 0.0273,0.01 0.19676,0.0708 0.41377,0.14285 0.66009,0.21091 a 4.0000076,3.9998586 0 0 0 0.0742,0.0195 c 0.0376,0.01 0.0952,0.0257 0.15038,0.0391 0.008,0.002 0.021,0.004 0.0293,0.006 0.15162,0.0375 0.33239,0.0781 0.53316,0.11523 0.008,0.002 0.006,4.4e-4 0.0137,0.002 0.0113,0.002 0.009,0.002 0.0195,0.004 0.009,0.002 0.0123,0.002 0.0215,0.004 a 4.0000076,3.9998586 0 0 0 0.0586,0.01 c 0.0806,0.0131 0.0944,0.0151 0.13866,0.0215 0.0375,0.005 0.12846,0.0201 0.13867,0.0215 a 4.0000076,3.9998586 0 0 0 0.0703,0.01 c 0.0676,0.009 0.2013,0.0245 0.35544,0.0391 0.0217,0.002 0.032,0.004 0.0547,0.006 0.005,4.1e-4 0.005,0.002 0.01,0.002 0.003,2.3e-4 0.003,-2.3e-4 0.006,0 a 4.0000076,3.9998586 0 0 0 0.0215,0.002 c 0.0365,0.003 0.0426,0.002 0.0742,0.004 0.14761,0.0102 0.29539,0.0185 0.36522,0.0215 a 4.0000076,3.9998586 0 0 0 0.0117,0 c -0.0208,-7.5e-4 0.064,0.002 0.0586,0.002 -1.8e-4,1e-5 0.002,-2e-5 0.002,0 a 4.0000076,3.9998586 0 0 0 0.16796,0.008 4.0000076,3.9998586 0 0 0 0.082,0 4.0000076,3.9998586 0 0 0 0.002,0 c 0.0426,-2e-5 -0.0292,7e-5 0.006,0 a 4.0000076,3.9998586 0 0 0 0.30857,-0.0117 c 0.0429,-0.002 0.0749,-0.004 0.11719,-0.006 0.0483,-0.003 0.16274,-0.007 0.18162,-0.008 a 4.0000076,3.9998586 0 0 0 0.002,0 c 0.0151,-9e-4 0.0352,-0.003 0.0508,-0.004 0.0882,-0.006 0.17947,-0.0114 0.28708,-0.0215 a 4.0000076,3.9998586 0 0 0 0.0801,-0.008 c 0.16547,-0.0188 0.19757,-0.0276 0.26366,-0.0391 0.0254,-0.004 0.0903,-0.0116 0.10155,-0.0137 0.0134,-0.002 0.0332,-0.006 0.0469,-0.008 a 4.0000076,3.9998586 0 0 0 0.002,0 c 0.0898,-0.0143 0.27612,-0.0401 0.55464,-0.10154 a 4.0000076,3.9998586 0 0 0 0.0312,-0.008 4.0000076,3.9998586 0 0 0 0.0195,-0.004 4.0000076,3.9998586 0 0 0 0.004,-0.002 4.0000076,3.9998586 0 0 0 0.1328,-0.0332 c 0.004,-5.8e-4 0.0195,-0.004 0.0195,-0.004 0,0 0.004,-7.7e-4 0.006,-0.002 0.001,-5e-4 0.002,-0.002 0.002,-0.002 a 4.0000076,3.9998586 0 0 1 0.002,0 4.0000076,3.9998586 0 0 0 0.11914,-0.0352 4.0000076,3.9998586 0 0 0 0.0117,-0.004 c 0.0122,-0.004 0.0168,-0.002 0.0293,-0.006 0.007,-0.002 0.023,-0.0107 0.0312,-0.0137 a 4.0000076,3.9998586 0 0 0 0.0625,-0.0234 4.0000076,3.9998586 0 0 0 0.0234,-0.008 4.0000076,3.9998586 0 0 0 0.0703,-0.0273 c 5.3e-4,-1.4e-4 0.001,1.3e-4 0.002,0 a 4.0000076,3.9998586 0 0 0 0.0117,-0.004 4.0000076,3.9998586 0 0 0 0.0508,-0.0215 4.0000076,3.9998586 0 0 0 0.0234,-0.008 4.0000076,3.9998586 0 0 0 0.0137,-0.006 4.0000076,3.9998586 0 0 0 0.1367,-0.0586 4.0000076,3.9998586 0 0 0 0.004,-0.002 4.0000076,3.9998586 0 0 0 0.004,-0.002 4.0000076,3.9998586 0 0 0 0.14647,-0.0723 4.0000076,3.9998586 0 0 0 0.0781,-0.041 4.0000076,3.9998586 0 0 0 0.0703,-0.0391 c 5.5e-4,-2.2e-4 0.004,-0.001 0.006,-0.002 a 4.0000076,3.9998586 0 0 0 0.004,-0.002 c 0.004,-10e-4 0.008,-0.002 0.0117,-0.004 0.25713,-0.0943 0.51989,-0.17875 0.7773,-0.27144 0.11189,-0.0394 0.21241,-0.0955 0.32029,-0.14062 0.12975,-0.0553 0.2661,-0.10037 0.38668,-0.16989 l 0.002,-0.002 35.761,-20.6302 -0.1699,0.0918 c 0.0485,-0.0245 0.0945,-0.0547 0.14257,-0.0801 0.003,-10e-4 0.015,-0.006 0.0273,-0.0117 l 0.008,-0.004 0.008,-0.004 c 0,0 0.004,-0.003 0.006,-0.004 0.003,-0.003 0.006,-0.005 0.0117,-0.01 0.89559,-0.48049 1.72333,-1.1094 2.43146,-1.88257 a 4.0000076,3.9998586 0 0 0 0.004,-0.004 c 0.19705,-0.21571 0.3548,-0.41033 0.48435,-0.57805 3e-4,0.003 -0.0254,0.0401 0.0937,-0.11717 a 4.0000076,3.9998586 0 0 0 0.0137,-0.0176 c 0.17819,-0.23806 0.27303,-0.39402 0.31052,-0.45111 0.0558,-0.084 0.11655,-0.18019 0.17967,-0.28317 l 0.008,-0.0137 c -0.0554,0.0913 0.0328,-0.0513 0.0215,-0.0312 -0.17604,0.29529 -0.1109,0.21776 0.0547,-0.0859 a 4.0000076,3.9998586 0 0 0 0.0234,-0.0391 c 0.17251,-0.29944 0.15917,-0.2939 0.11914,-0.22653 -6.9e-4,0.001 0.003,-0.005 0.002,-0.004 -0.003,0.004 0.0164,-0.0316 0.0215,-0.041 l 0.006,-0.01 a 4.0000076,3.9998586 0 0 0 0.004,-0.002 c 0.0397,-0.075 0.11777,-0.2211 0.22069,-0.44331 l 0.002,-0.002 c 0.0803,-0.17309 0.13148,-0.29898 0.15428,-0.35347 a 4.0000076,3.9998586 0 0 0 0.0195,-0.0488 c 0.0284,-0.0707 0.0815,-0.19828 0.14648,-0.37886 l 0.006,-0.0137 c 0.0748,-0.20892 0.12029,-0.36801 0.14647,-0.45698 a 4.0000076,3.9998586 0 0 0 0.004,-0.01 4.0000076,3.9998586 0 0 0 0.004,-0.0156 c 2.6e-4,-8.7e-4 0.005,-0.02 0.006,-0.0215 0.008,-0.0271 0.0469,-0.1395 0.10546,-0.37886 a 4.0000076,3.9998586 0 0 0 0.002,-0.0117 c 0.0371,-0.15371 0.0643,-0.28137 0.0859,-0.39449 0.0248,-0.12184 0.0515,-0.26628 0.0781,-0.44135 a 4.0000076,3.9998586 0 0 0 0.004,-0.0274 4.0000076,3.9998586 0 0 0 0.006,-0.0293 c 0.006,-0.041 -3.7e-4,-0.007 0.004,-0.041 0.0212,-0.16754 0.0246,-0.213 0.0215,-0.2031 -10e-4,0.003 0.0106,-0.0887 0.008,-0.0664 a 4.0000076,3.9998586 0 0 0 0.002,-0.0254 c 0,2e-5 0.002,-0.0288 0.002,-0.0312 0.0112,-0.11758 0.0353,-0.33745 0.0195,-0.20115 l -0.004,0.0273 c 0.0495,-0.40543 0.041,-0.6618 0.041,-0.74991 0,-1.8e-4 0,-0.002 0,-0.002 0,-0.0881 0.008,-0.34447 -0.041,-0.7499 l 0.004,0.0273 c 0.0158,0.13631 -0.008,-0.0836 -0.0195,-0.20115 -0.002,-0.0182 6.5e-4,-0.008 -0.002,-0.0312 a 4.0000076,3.9998586 0 0 0 -0.002,-0.0254 c 0.003,0.0223 -0.009,-0.0696 -0.008,-0.0664 0.003,0.01 -2.4e-4,-0.0356 -0.0215,-0.2031 -0.004,-0.0338 0.002,-10e-6 -0.004,-0.041 a 4.0000076,3.9998586 0 0 0 -0.006,-0.0293 c -0.002,-0.0155 -0.002,-0.0126 -0.004,-0.0273 -0.0266,-0.17507 -0.0533,-0.31951 -0.0781,-0.44135 -0.0216,-0.11312 -0.0488,-0.24078 -0.0859,-0.39448 a 4.0000076,3.9998586 0 0 0 -0.002,-0.0117 c -0.0586,-0.23936 -0.097,-0.3518 -0.10546,-0.37886 a 4.0000076,3.9998586 0 0 0 -0.006,-0.0215 4.0000076,3.9998586 0 0 0 -0.004,-0.0156 c -5.5e-4,-0.002 -0.003,-0.008 -0.004,-0.01 -0.0262,-0.089 -0.0716,-0.24807 -0.14647,-0.45699 l -0.006,-0.0137 c -0.065,-0.18058 -0.11804,-0.30817 -0.14648,-0.37886 a 4.0000076,3.9998586 0 0 0 -0.0195,-0.0488 c -0.0228,-0.0545 -0.074,-0.18039 -0.15428,-0.35348 l -0.002,-0.002 c -0.10292,-0.22221 -0.18095,-0.36834 -0.22069,-0.44331 a 4.0000076,3.9998586 0 0 0 -0.004,-0.002 c 0.002,0.004 -0.005,-0.007 -0.006,-0.01 0.0129,0.0238 -0.0292,-0.0542 -0.0215,-0.041 -10e-4,-0.002 -8.5e-4,-0.002 -0.002,-0.004 0.04,0.0674 0.0534,0.0729 -0.11914,-0.22653 a 4.0000076,3.9998586 0 0 0 -0.0234,-0.0391 c -0.16559,-0.30368 -0.23073,-0.38121 -0.0547,-0.0859 -0.007,-0.0121 -0.0143,-0.0195 -0.0215,-0.0312 l -0.008,-0.0137 c -0.0631,-0.10298 -0.12383,-0.19921 -0.17967,-0.28317 -0.0375,-0.0571 -0.13234,-0.21305 -0.31053,-0.45111 a 4.0000076,3.9998586 0 0 0 -0.0137,-0.0176 c -0.11917,-0.1573 -0.0934,-0.11967 -0.0937,-0.11717 -0.12955,-0.16771 -0.2873,-0.36233 -0.48435,-0.57805 a 4.0000076,3.9998586 0 0 0 -0.004,-0.004 c -0.70813,-0.77318 -1.53586,-1.40208 -2.43146,-1.88257 -0.006,-0.005 -0.009,-0.007 -0.0117,-0.01 l -0.006,-0.004 c 0,0 -0.008,-0.005 -0.0156,-0.008 -0.0124,-0.005 -0.0248,-0.0105 -0.0273,-0.0117 -0.0481,-0.0254 -0.0941,-0.0556 -0.14257,-0.0801 l 0.16991,0.0918 -35.76101,-20.6302099 -0.002,-0.002 c -0.0612,-0.0353 -0.13314,-0.0549 -0.19725,-0.0859 -0.40695,-0.19892 -0.85292,-0.33678 -1.28701,-0.49602 -0.004,-0.002 -0.008,-0.003 -0.0117,-0.004 a 4.0000076,3.9998586 0 0 0 -0.004,-0.002 4.0000076,3.9998586 0 0 0 -0.006,-0.002 4.0000076,3.9998586 0 0 0 -0.14843,-0.0801 4.0000076,3.9998586 0 0 0 -0.14647,-0.0723 4.0000076,3.9998586 0 0 0 -0.004,-0.002 4.0000076,3.9998586 0 0 0 -0.004,-0.002 4.0000076,3.9998586 0 0 0 -0.1367,-0.0586 4.0000076,3.9998586 0 0 0 -0.0137,-0.006 4.0000076,3.9998586 0 0 0 -0.0234,-0.008 4.0000076,3.9998586 0 0 0 -0.0508,-0.0215 4.0000076,3.9998586 0 0 0 -0.0117,-0.004 4.0000076,3.9998586 0 0 0 -0.0723,-0.0273 4.0000076,3.9998586 0 0 0 -0.0859,-0.0312 c -0.008,-0.003 -0.0242,-0.0117 -0.0312,-0.0137 -0.0125,-0.004 -0.0171,-0.002 -0.0293,-0.006 a 4.0000076,3.9998586 0 0 0 -0.0117,-0.004 4.0000076,3.9998586 0 0 0 -0.11914,-0.0352 4.0000076,3.9998586 0 0 0 -0.002,0 c -4e-5,-2e-5 -9.4e-4,-0.001 -0.002,-0.002 -0.002,-10e-4 -0.006,-0.002 -0.006,-0.002 -10e-6,0 -0.009,-8e-4 -0.0156,-0.002 -0.002,-4.5e-4 -0.005,-0.002 -0.006,-0.002 a 4.0000076,3.9998586 0 0 0 -0.13085,-0.0352 4.0000076,3.9998586 0 0 0 -0.004,-0.002 4.0000076,3.9998586 0 0 0 -0.0508,-0.0117 c -0.27853,-0.0615 -0.46486,-0.0873 -0.55465,-0.10155 a 4.0000076,3.9998586 0 0 1 -0.002,0 c -9.1e-4,-1.4e-4 -0.0181,-0.002 -0.0195,-0.002 -0.008,-0.001 -0.0195,-0.005 -0.0273,-0.006 0.0106,10e-4 -0.13851,-0.0187 -0.25974,-0.0352 -0.0493,-0.007 -0.0342,-0.008 -0.10547,-0.0156 a 4.0000076,3.9998586 0 0 0 -0.0176,-0.002 4.0000076,3.9998586 0 0 0 -0.0625,-0.008 c -0.10761,-0.0101 -0.19888,-0.016 -0.28708,-0.0215 -0.0156,-9.8e-4 -0.0356,-0.003 -0.0508,-0.004 a 4.0000076,3.9998586 0 0 1 -0.002,0 c -0.0189,-10e-4 -0.13332,-0.005 -0.18162,-0.008 -0.0423,-0.002 -0.0743,-0.004 -0.11718,-0.006 a 4.0000076,3.9998586 0 0 0 -0.30857,-0.0117 c -0.035,-7e-5 0.0367,2e-5 -0.006,0 a 4.0000076,3.9998586 0 0 0 -0.002,0 4.0000076,3.9998586 0 0 0 -0.082,0 z m 0.0781,8.0028999 c 10e-4,1.3e-4 0.0169,5.8e-4 0.0371,0.002 0.007,5e-4 0.004,10e-4 0.0137,0.002 -0.0426,-6e-5 -0.0363,-0.002 0.0937,0.006 -0.005,-5.3e-4 0.0289,0.003 0.0195,0.002 a 4.0000076,3.9998586 0 0 0 0.0137,0.002 c 10e-4,6.4e-4 -0.0218,-0.002 0.0156,0.004 a 4.0000076,3.9998586 0 0 0 0.004,0 c 0.0576,0.009 0.0761,0.0114 0.0781,0.0117 -0.004,-9.5e-4 0.0137,0.003 0.008,0.002 0.002,2.8e-4 0.004,0 0.004,0 a 4.0000076,3.9998586 0 0 0 0.006,0.002 c 0.11156,0.0253 0.21438,0.0671 0.32223,0.12889 0.001,8.2e-4 0.002,0.001 0.004,0.002 a 4.0000076,3.9998586 0 0 0 0.0273,0.0176 l 35.69656,20.5931 c 0,0 0.0397,0.0204 0.0469,0.0234 2.4e-4,1e-4 0.002,-7e-5 0.002,0 l 0.0234,0.0137 a 4.0000076,3.9998586 0 0 0 0.0234,0.0137 4.0000076,3.9998586 0 0 0 0.01,0.006 4.0000076,3.9998586 0 0 0 0.16405,0.0879 c 0.10649,0.0537 0.19784,0.13156 0.28514,0.21677 0.0335,0.0339 0.0688,0.0601 0.10155,0.10155 0.003,0.004 0.002,8.4e-4 0.006,0.006 a 4.0000076,3.9998586 0 0 0 0.008,0.01 4.0000076,3.9998586 0 0 0 0.0156,0.0215 c -0.0168,-0.0225 0.005,0.009 0.0312,0.0488 0.0634,0.0984 0.0808,0.1272 0.0508,0.0781 a 4.0000076,3.9998586 0 0 0 0.006,0.01 c 0.0209,0.0391 -0.0421,-0.0736 0.002,0.01 a 4.0000076,3.9998586 0 0 0 0.008,0.0156 c 0.0183,0.0346 0.0204,0.0393 0.0274,0.0527 -0.002,-0.005 0.01,0.0204 0.0117,0.0254 0.0521,0.12698 0.0556,0.13587 0.0371,0.084 v -0.004 c 5.4e-4,9.9e-4 0.005,0.0125 0.004,0.01 a 4.0000076,3.9998586 0 0 0 0.008,0.0215 c -0.0224,-0.0617 -0.019,-0.0617 0.004,0.0156 0.0157,0.0551 0.0168,0.0587 0.0137,0.0449 -9.5e-4,-0.004 0.008,0.0307 0.004,0.0137 a 4.0000076,3.9998586 0 0 0 0.002,0.0117 c -0.009,-0.0361 0.002,0.0199 0.008,0.0469 0.005,0.023 -0.001,-0.004 0.002,0.0117 0.004,0.0166 -10e-4,-0.008 0.004,0.0176 a 4.0000076,3.9998586 0 0 0 0.002,0.006 c 0.002,0.008 0.005,0.0199 0.004,0.0137 4.6e-4,0.002 -3.1e-4,0.005 0,0.006 -0.002,-0.009 0.007,0.0566 0.0117,0.0996 0.002,0.0148 -3e-5,0.006 0.002,0.0234 9.7e-4,0.009 7.5e-4,0.002 0.002,0.0117 3.9e-4,0.003 -4.1e-4,0.002 0,0.006 1.4e-4,0.003 -3e-4,-0.002 0.002,0.0176 10e-4,0.009 7.9e-4,0.004 0.002,0.0137 a 4.0000076,3.9998586 0 0 0 0,0.004 v 0.002 0.002 c 0,-7.7e-4 0,0.003 0,0.002 v 0.002 0.002 a 4.0000076,3.9998586 0 0 0 0,0.004 c 3.2e-4,-4.6e-4 -1.9e-4,-9.8e-4 -0.002,0.0137 -0.003,0.0254 5e-5,0.004 -0.002,0.0234 -2.6e-4,0.002 2.5e-4,0.002 0,0.004 -3.9e-4,0.002 -10e-4,0.002 -0.002,0.008 -0.002,0.0172 -3.6e-4,0.009 -0.002,0.0234 -0.005,0.043 -0.0136,0.10824 -0.0117,0.0996 1.1e-4,-5e-4 -1.3e-4,0.007 0,0.006 -10e-4,0.004 -10e-4,0.002 -0.004,0.0137 -9.1e-4,0.004 -10e-4,0.003 -0.002,0.006 -0.005,0.0256 -3.7e-4,9.8e-4 -0.004,0.0176 -0.003,0.0162 0.003,-0.0113 -0.002,0.0117 -0.006,0.027 -0.0166,0.083 -0.008,0.0469 -5e-4,0.002 -0.002,0.0113 -0.002,0.0117 a 4.0000076,3.9998586 0 0 0 -0.004,0.0137 c 0.003,-0.0138 0.002,-0.0102 -0.0137,0.0449 -0.0229,0.0773 -0.0263,0.0773 -0.004,0.0156 a 4.0000076,3.9998586 0 0 0 -0.008,0.0215 c 9.8e-4,-0.003 -0.003,0.008 -0.004,0.01 v -0.004 c 0.0185,-0.0519 0.015,-0.043 -0.0371,0.084 -0.002,0.005 -0.0142,0.0305 -0.0117,0.0254 -0.007,0.0134 -0.009,0.0181 -0.0274,0.0527 a 4.0000076,3.9998586 0 0 0 -0.008,0.0156 c -0.0441,0.0834 0.019,-0.0293 -0.002,0.01 a 4.0000076,3.9998586 0 0 0 -0.006,0.008 c 0.03,-0.0491 0.0126,-0.0203 -0.0508,0.0781 -0.0262,0.0395 -0.0481,0.0713 -0.0312,0.0488 a 4.0000076,3.9998586 0 0 0 -0.0234,0.0332 4.0000076,3.9998586 0 0 0 -0.01,0.0117 c 0.007,-0.009 0.055,-0.0737 0.004,-0.008 -0.0353,0.0446 -0.0732,0.0735 -0.10936,0.10935 -0.0854,0.082 -0.17374,0.15872 -0.27733,0.21092 a 4.0000076,3.9998586 0 0 0 -0.16405,0.0879 4.0000076,3.9998586 0 0 0 -0.01,0.006 4.0000076,3.9998586 0 0 0 -0.0234,0.0137 4.0000076,3.9998586 0 0 0 -0.0234,0.0137 h -0.002 c -0.007,0.003 -0.0469,0.0215 -0.0469,0.0215 L 14.604304,53.8182 a 4.0000076,3.9998586 0 0 0 -0.0273,0.0176 c -6e-4,3.5e-4 -0.001,-3.4e-4 -0.002,0 a 4.0000076,3.9998586 0 0 0 -0.002,0.002 c -0.11395,0.0654 -0.21531,0.1046 -0.32419,0.12889 a 4.0000076,3.9998586 0 0 0 -0.002,0 4.0000076,3.9998586 0 0 0 -0.006,0.002 c -0.003,5.8e-4 -0.008,0.002 -0.008,0.002 0.0452,-0.01 0.034,-0.007 -0.082,0.0117 -0.0375,0.006 -0.0146,0.003 -0.0156,0.004 a 4.0000076,3.9998586 0 0 0 -0.0137,0.002 c 0.009,-0.001 -0.0244,0.002 -0.0195,0.002 0.0232,-0.003 0.0317,-0.004 -0.0937,0.006 -0.009,7e-4 -0.006,0.001 -0.0137,0.002 -0.0202,10e-4 -0.0359,0.002 -0.0371,0.002 -0.0248,-0.001 -0.0187,-8.9e-4 -0.0332,-0.002 0.0449,-5.9e-4 0.14565,-5.1e-4 -0.0352,-0.006 a 4.0000076,3.9998586 0 0 0 -0.0156,0 c -0.035,-7e-4 -0.0141,10e-4 -0.004,0.002 a 4.0000076,3.9998586 0 0 0 -0.0176,-0.002 c -0.008,-10e-4 -0.0155,-0.002 -0.0527,-0.008 -0.0525,-0.008 -0.0406,-0.005 -0.0605,-0.008 0.005,10e-4 -0.0137,-0.004 -0.0117,-0.004 0.0127,0.002 0.006,0.004 -0.0703,-0.0156 l 0.0273,0.008 c -0.0515,-0.0133 0.0372,0.0109 0.0137,0.004 -0.0113,-0.002 -0.007,1.4e-4 -0.0312,-0.006 a 4.0000076,3.9998586 0 0 0 -0.002,0 4.0000076,3.9998586 0 0 0 -0.0312,-0.01 c -0.0148,-0.004 -0.0438,-0.0146 -0.084,-0.0293 a 4.0000076,3.9998586 0 0 0 -0.0215,-0.008 c -0.003,-10e-4 -0.0116,-0.004 -0.0156,-0.006 -0.006,-0.002 -0.0149,-0.007 -0.0215,-0.01 -0.0178,-0.007 -0.0352,-0.0142 -0.0586,-0.0254 a 4.0000076,3.9998586 0 0 0 -0.004,-0.002 c -5e-4,-2.4e-4 -0.001,2.5e-4 -0.002,0 -0.0776,-0.0381 -0.14637,-0.0867 -0.21287,-0.13865 -0.0165,-0.0127 -0.0313,-0.0233 -0.043,-0.0332 -0.0196,-0.0168 -0.0343,-0.0386 -0.0527,-0.0566 -0.0695,-0.0695 -0.13051,-0.14323 -0.17772,-0.22654 -0.005,-0.009 -0.0105,-0.0181 -0.0156,-0.0273 -0.0517,-0.0976 -0.0915,-0.20376 -0.11718,-0.31832 -0.003,-0.34306 -0.005,-0.35291 -0.008,-0.0234 -0.004,-0.0222 -0.0138,-0.0411 -0.0195,-0.0625 -10e-4,-0.005 -0.003,-0.009 -0.004,-0.0137 -4e-5,-0.004 3e-5,0.002 0,-0.002 a 4.0000076,3.9998586 0 0 0 0,-0.002 c -7.5e-4,-0.0764 -0.003,0.007 -0.004,-0.0391 a 4.0000076,3.9998586 0 0 0 -0.002,-0.041 c -0.003,-0.0316 -0.007,-0.20736 -0.008,-0.0859 a 4.0000076,3.9998586 0 0 0 -0.002,-0.041 V 11.24856 a 4.0000076,3.9998586 0 0 0 0.002,-0.043 c 10e-4,0.13787 0.005,-0.0388 0.008,-0.0977 a 4.0000076,3.9998586 0 0 0 0.002,-0.0273 c 10e-4,-0.0427 0.003,0.0327 0.004,-0.0371 8e-5,-0.007 -8e-5,0.004 0,-0.004 1.7e-4,-10e-4 -1.8e-4,-0.003 0,-0.004 10e-4,-0.009 0.005,-0.0171 0.008,-0.0254 0.006,-0.0166 0.0123,-0.0328 0.0156,-0.0508 0.003,0.32946 0.005,0.31963 0.008,-0.0234 0.0257,-0.11454 0.0655,-0.21882 0.11718,-0.31637 0.005,-0.01 0.01,-0.0198 0.0156,-0.0293 0.0451,-0.0793 0.1047,-0.14997 0.16991,-0.21676 0.0234,-0.0234 0.0429,-0.0508 0.0684,-0.0723 0.007,-0.006 0.0153,-0.0112 0.0234,-0.0176 0.0699,-0.056 0.14408,-0.10615 0.22654,-0.14646 a 4.0000076,3.9998586 0 0 0 0.004,-0.002 c 0.0321,-0.0154 0.0576,-0.0263 0.0801,-0.0352 a 4.0000076,3.9998586 0 0 0 0.0156,-0.008 4.0000076,3.9998586 0 0 0 0.002,-0.002 4.0000076,3.9998586 0 0 0 0.0117,-0.004 c 0.004,-0.002 0.004,-4.8e-4 0.008,-0.002 0.0402,-0.0147 0.0692,-0.0253 0.084,-0.0293 a 4.0000076,3.9998586 0 0 0 0.0332,-0.008 c 0.0138,-0.003 0.008,-0.002 0.0176,-0.004 l -0.0273,0.01 c 0.0763,-0.0192 0.083,-0.0179 0.0703,-0.0156 -0.002,3.9e-4 0.0163,-0.005 0.0117,-0.004 0.0199,-0.003 0.008,-0.002 0.0605,-0.01 0.01,-0.001 0.006,-9.2e-4 0.0137,-0.002 0.007,-10e-4 0.0461,-0.005 0.0391,-0.004 a 4.0000076,3.9998586 0 0 0 0.0176,-0.002 c -0.007,7.3e-4 -0.0261,6e-4 0.004,0 a 4.0000076,3.9998586 0 0 0 0.0156,0 c 0.0701,-0.002 -0.0113,-8.1e-4 0.0137,-0.002 0.01,-7.8e-4 0.0139,-0.002 0.0547,-0.004 z" />
    <path
       id="rect1323-3-5-22-1-5-6"
       style="display:inline;fill:#b793d2;fill-opacity:1;stroke:none;stroke-width:2.1673;stroke-linecap:round;stroke-linejoin:round;stroke-miterlimit:4;stroke-dasharray:none;stroke-dashoffset:2.1875;stroke-opacity:1"
       d="m 13.963954,6.0000001 v 0.002 c -0.0628,0 -0.1235,0.009 -0.18655,0.0108 -0.0812,0.002 -0.16207,0.004 -0.24347,0.0108 -0.10075,0.009 -0.19998,0.0221 -0.29852,0.036 -0.0628,0.009 -0.12762,0.0173 -0.19067,0.0275 -0.12263,0.0217 -0.24226,0.0503 -0.36193,0.0804 -0.0347,0.009 -0.0682,0.0152 -0.10183,0.0254 -0.13629,0.0373 -0.27068,0.081 -0.40229,0.12913 -0.0195,0.006 -0.039,0.013 -0.0574,0.0217 -0.14257,0.0537 -0.28304,0.11439 -0.41919,0.17983 -0.0108,0.004 -0.0173,0.009 -0.0271,0.013 -1.52533,0.74562 -2.6238696,2.21044 -2.8604296,3.9607799 -0.0152,0.0316 -0.0152,0.0635 -0.0152,0.0951 -0.0108,0.096 -0.0195,0.19219 -0.0195,0.28988 -0.0152,0.0864 -0.0173,0.17398 -0.0173,0.26023 -2.1e-4,0.0217 0,0.0388 0,0.0591 v 41.59866 0.0613 c 0,0.0875 0.0173,0.17485 0.0173,0.26236 0.0108,0.0953 0.0108,0.19175 0.0195,0.28563 0,0.0351 0.0152,0.0687 0.0152,0.10356 0.1677,1.22649 0.75873,2.31126 1.6239696,3.10811 0.12502,0.11526 0.25563,0.22325 0.39167,0.32584 0.13434,0.1014 0.27285,0.19759 0.41702,0.2856 0.14149,0.0865 0.28598,0.16618 0.43622,0.23909 0.14148,0.0687 0.28769,0.13238 0.43608,0.18828 0.0195,0.007 0.039,0.0152 0.0574,0.0217 0.12892,0.0468 0.26028,0.0901 0.3937,0.12696 0.0422,0.0108 0.0856,0.0217 0.12914,0.0318 0.11287,0.0282 0.22482,0.0535 0.3408,0.0741 0.0683,0.013 0.13824,0.0219 0.20757,0.0318 0.0867,0.0108 0.17377,0.0219 0.26254,0.0295 0.0997,0.009 0.19998,0.013 0.30073,0.0173 0.0498,0.002 0.0997,0.007 0.15015,0.007 0.0217,0 0.0444,-0.004 0.0661,-0.004 0.10509,-8.7e-4 0.20844,-0.009 0.31339,-0.0152 0.0672,-0.004 0.13693,-0.009 0.20323,-0.0152 0.0791,-0.009 0.15795,-0.0234 0.23708,-0.036 0.10855,-0.0173 0.2158,-0.0336 0.32184,-0.057 0,0 -4.4e-4,-0.002 0.0108,-0.002 0.0108,-10e-4 0.0195,-0.004 0.0195,-0.006 0.51591,-0.11678 0.99969,-0.31031 1.44403,-0.56703 l 0.0271,-0.0173 35.69861,-20.59726 c 0,-10e-4 0.013,-9.7e-4 0.013,-0.002 0.69128,-0.33819 1.308,-0.83846 1.80391,-1.4747 0.0249,-0.0321 0.052,-0.0643 0.0758,-0.0973 0.0661,-0.0886 0.12761,-0.18113 0.1885,-0.27505 0.0336,-0.0522 0.0693,-0.1053 0.10183,-0.1586 0.0152,-0.0247 0.0336,-0.0448 0.0488,-0.0698 0.0303,-0.0526 0.052,-0.10746 0.0802,-0.16076 0.0455,-0.0851 0.0899,-0.17073 0.1313,-0.25811 0.0282,-0.062 0.0531,-0.12567 0.0802,-0.18828 0.0368,-0.0897 0.0758,-0.1794 0.10833,-0.27083 0.0282,-0.0799 0.0542,-0.1586 0.078,-0.23909 0.0227,-0.0804 0.0487,-0.16206 0.0672,-0.24331 0.0195,-0.0786 0.0347,-0.15773 0.0509,-0.23697 0.0173,-0.0878 0.0358,-0.17376 0.0487,-0.26236 0.0108,-0.0847 0.0152,-0.16921 0.0271,-0.25388 0.0108,-0.075 0.0108,-0.15102 0.0195,-0.22639 0.0108,-0.0884 0.0108,-0.17637 0.0108,-0.26449 0,-0.089 6.5e-4,-0.17723 -0.0108,-0.26658 0,-0.0743 -0.0108,-0.1482 -0.0195,-0.22216 -0.0108,-0.0869 -0.0152,-0.17355 -0.0271,-0.26024 -0.013,-0.0856 -0.0292,-0.17116 -0.0466,-0.25601 -0.0152,-0.081 -0.0314,-0.16055 -0.0509,-0.24121 -0.0195,-0.0797 -0.0444,-0.15838 -0.0672,-0.23697 -0.0249,-0.0845 -0.0498,-0.16813 -0.0802,-0.25178 -0.0293,-0.0821 -0.0628,-0.16466 -0.0953,-0.24544 -0.0303,-0.0726 -0.0596,-0.14408 -0.0932,-0.21579 -0.039,-0.0843 -0.0834,-0.16748 -0.12697,-0.24967 -0.0282,-0.0531 -0.052,-0.10638 -0.0823,-0.15859 -0.0108,-0.0219 -0.0271,-0.0397 -0.0401,-0.0613 -0.039,-0.065 -0.0802,-0.12913 -0.12264,-0.19261 -0.0563,-0.0856 -0.11072,-0.17073 -0.17138,-0.25177 -0.0228,-0.0301 -0.0477,-0.057 -0.0715,-0.0867 -0.0867,-0.11223 -0.17659,-0.22249 -0.27099,-0.32584 -0.43057,-0.47016 -0.93573,-0.848 -1.4863,-1.12561 L 16.578514,6.7028901 c -0.44889,-0.2593 -0.9369,-0.45482 -1.45877,-0.57125 0,-0.001 -0.013,-9.8e-4 -0.013,-0.002 -0.1196,-0.0264 -0.24162,-0.0472 -0.36411,-0.0654 -0.0574,-0.009 -0.11396,-0.0195 -0.17138,-0.0254 -0.0823,-0.009 -0.16857,-0.013 -0.25192,-0.0195 -0.0943,-0.007 -0.18742,-0.013 -0.28162,-0.0152 -0.0228,0 -0.0466,-0.002 -0.0672,-0.002 z" />
    <path
       id="rect1323-3-5-22-1-5-6-2-5"
       style="color:#000000;font-style:normal;font-variant:normal;font-weight:normal;font-stretch:normal;font-size:medium;line-height:normal;font-family:sans-serif;font-variant-ligatures:normal;font-variant-position:normal;font-variant-caps:normal;font-variant-numeric:normal;font-variant-alternates:normal;font-variant-east-asian:normal;font-feature-settings:normal;font-variation-settings:normal;text-indent:0;text-align:start;text-decoration:none;text-decoration-line:none;text-decoration-style:solid;text-decoration-color:#000000;letter-spacing:normal;word-spacing:normal;text-transform:none;writing-mode:lr-tb;direction:ltr;text-orientation:mixed;dominant-baseline:auto;baseline-shift:baseline;text-anchor:start;white-space:normal;shape-padding:0;shape-margin:0;inline-size:0;clip-rule:nonzero;display:inline;overflow:visible;visibility:visible;isolation:auto;mix-blend-mode:normal;color-interpolation:sRGB;color-interpolation-filters:linearRGB;solid-color:#000000;solid-opacity:1;vector-effect:none;fill:url(#linearGradient3010);fill-opacity:1;fill-rule:nonzero;stroke:none;stroke-width:0.99998;stroke-linecap:round;stroke-linejoin:round;stroke-miterlimit:4;stroke-dasharray:none;stroke-dashoffset:2.1875;stroke-opacity:1;color-rendering:auto;image-rendering:auto;shape-rendering:auto;text-rendering:auto;enable-background:accumulate;stop-color:#000000"
       d="m 13.963574,6.0000001 v 0.002 c -0.0628,0 -0.12439,0.01 -0.18751,0.0117 -0.0812,0.002 -0.16276,0.003 -0.24417,0.01 -0.10075,0.009 -0.19838,0.0232 -0.29689,0.0371 -0.0628,0.009 -0.12833,0.0172 -0.19143,0.0274 -0.12262,0.0217 -0.2417,0.05 -0.36134,0.0801 -0.0347,0.009 -0.068,0.0152 -0.10158,0.0254 -0.1363,0.0373 -0.27077,0.0808 -0.40238,0.12892 -0.0195,0.006 -0.0402,0.0125 -0.0586,0.0215 -0.1426,0.0537 -0.28186,0.11429 -0.41801,0.1797 -0.0108,0.004 -0.0174,0.01 -0.0273,0.0137 -1.52535,0.74561 -2.6249996,2.21106 -2.8615796,3.9613799 -0.0152,0.0316 -0.0156,0.0641 -0.0156,0.0957 -0.0105,0.096 -0.0195,0.19138 -0.0195,0.28909 -0.0152,0.0864 -0.0156,0.17358 -0.0156,0.25979 -2.1e-4,0.0218 -1e-5,0.0402 0,0.0606 v 41.59648 0.0606 c 0,0.0875 0.0156,0.17619 0.0156,0.2637 0.0105,0.0953 0.0105,0.19127 0.0195,0.28518 0,0.0351 0.0156,0.0686 0.0156,0.10353 0.16771,1.22647 0.75988,2.31093 1.6251396,3.10777 0.12502,0.11527 0.25463,0.22362 0.39067,0.32621 0.13434,0.1014 0.27383,0.19718 0.41801,0.28519 0.14149,0.0865 0.28532,0.16735 0.43559,0.24026 0.14145,0.0687 0.28718,0.13162 0.43558,0.18752 0.0195,0.007 0.0402,0.0145 0.0586,0.0215 0.12892,0.0467 0.25918,0.0901 0.39261,0.12697 0.0422,0.0108 0.0854,0.0231 0.12891,0.0332 0.11288,0.0282 0.22585,0.0536 0.34183,0.0742 0.0683,0.013 0.13774,0.0213 0.20705,0.0312 0.0867,0.0108 0.17488,0.0213 0.26369,0.0293 0.0997,0.009 0.20006,0.0136 0.30081,0.0176 0.0498,0.002 0.0979,0.006 0.14845,0.006 0.0217,0 0.0448,-0.004 0.0664,-0.004 0.10512,-9e-4 0.20953,-0.008 0.31449,-0.0137 0.0672,-0.004 0.13683,-0.01 0.20314,-0.0156 0.0791,-0.009 0.15724,-0.0245 0.23635,-0.0371 0.10856,-0.0173 0.21626,-0.0332 0.3223,-0.0566 0,0 -10e-4,-0.002 0.01,-0.002 0.0105,-0.001 0.0195,-0.004 0.0195,-0.006 0.51591,-0.11677 1.00109,-0.30976 1.44544,-0.56646 l 0.0273,-0.0176 35.69648,-20.59803 c 0,-10e-4 0.0137,-9.5e-4 0.0137,-0.002 0.69129,-0.33819 1.30892,-0.83855 1.80484,-1.47478 0.0249,-0.0321 0.0504,-0.0647 0.0742,-0.0977 0.0661,-0.0886 0.12856,-0.18152 0.18947,-0.27543 0.0336,-0.0522 0.0691,-0.10491 0.10157,-0.15822 0.0152,-0.0247 0.0336,-0.0453 0.0488,-0.0703 0.0303,-0.0526 0.0519,-0.10687 0.0801,-0.16017 0.0454,-0.0851 0.0895,-0.16848 0.13087,-0.25589 0.0282,-0.062 0.053,-0.12492 0.0801,-0.18752 0.0368,-0.0897 0.0769,-0.1801 0.10938,-0.27152 0.0282,-0.0799 0.0543,-0.15779 0.0781,-0.2383 0.0227,-0.0804 0.0479,-0.16296 0.0664,-0.24417 0.0195,-0.0786 0.0346,-0.15715 0.0508,-0.23636 0.0173,-0.0878 0.0359,-0.17509 0.0488,-0.2637 0.0108,-0.0847 0.0154,-0.16922 0.0273,-0.25393 0.0105,-0.075 0.0105,-0.15118 0.0195,-0.22659 0.0108,-0.0884 0.0117,-0.17559 0.0117,-0.2637 0,-0.089 -3.2e-4,-0.1783 -0.0117,-0.26761 0,-0.0743 -0.0105,-0.14672 -0.0195,-0.22073 -0.0108,-0.0869 -0.0154,-0.17503 -0.0273,-0.26174 -0.013,-0.0856 -0.0295,-0.17108 -0.0469,-0.25589 -0.0152,-0.081 -0.0313,-0.15956 -0.0508,-0.24027 -0.0195,-0.0797 -0.0436,-0.15775 -0.0664,-0.23636 -0.0249,-0.0845 -0.0497,-0.16827 -0.0801,-0.25198 -0.0293,-0.0821 -0.0632,-0.1653 -0.0957,-0.24611 -0.0303,-0.0726 -0.0601,-0.14317 -0.0937,-0.21488 -0.0389,-0.0843 -0.0833,-0.16782 -0.12696,-0.25003 -0.0282,-0.0531 -0.0517,-0.10796 -0.082,-0.16016 -0.0108,-0.022 -0.0261,-0.039 -0.0391,-0.0606 -0.039,-0.065 -0.0806,-0.12987 -0.12305,-0.19338 -0.0563,-0.0856 -0.11119,-0.16902 -0.1719,-0.25003 -0.0228,-0.0301 -0.0465,-0.0582 -0.0703,-0.0879 -0.0867,-0.11223 -0.1771,-0.22286 -0.27151,-0.32621 -0.43059,-0.47015 -0.93587,-0.84751 -1.48645,-1.12512 L 16.577294,6.7033501 c -0.4489,-0.25929 -0.93724,-0.45395 -1.45911,-0.57038 0,-10e-4 -0.0117,-9.5e-4 -0.0117,-0.002 -0.1196,-0.0264 -0.24278,-0.0482 -0.36527,-0.0664 -0.0574,-0.009 -0.11253,-0.0194 -0.16993,-0.0254 -0.0823,-0.009 -0.16868,-0.0125 -0.25198,-0.0195 -0.0943,-0.007 -0.18902,-0.0136 -0.28323,-0.0156 -0.0228,0 -0.0458,-0.002 -0.0664,-0.002 z m -0.008,4.0043499 c 10e-4,1.3e-4 0.0169,5.4e-4 0.0371,0.002 0.007,5e-4 0.004,9.5e-4 0.0137,0.002 -0.0426,-6e-5 -0.0362,-0.002 0.0937,0.006 -0.005,-5.3e-4 0.0289,0.003 0.0195,0.002 a 4.0003712,4.0003094 0 0 0 0.0137,0.002 c 10e-4,6.4e-4 -0.0218,-0.002 0.0156,0.004 a 4.0003712,4.0003094 0 0 0 0.004,0 c 0.0576,0.009 0.0761,0.0114 0.0781,0.0117 -0.004,-9.5e-4 0.0135,0.003 0.008,0.002 0.002,2.8e-4 0.004,0 0.004,0 a 4.0003712,4.0003094 0 0 0 0.006,0.002 c 0.11157,0.0253 0.21444,0.0671 0.3223,0.12891 10e-4,8.2e-4 0.002,9.5e-4 0.004,0.002 a 4.0003712,4.0003094 0 0 0 0.0274,0.0176 l 35.70038,20.59607 c 0,0 0.0397,0.0205 0.0469,0.0234 h 0.002 l 0.0234,0.0137 a 4.0003712,4.0003094 0 0 0 0.0234,0.0137 4.0003712,4.0003094 0 0 0 0.01,0.006 4.0003712,4.0003094 0 0 0 0.16407,0.0879 c 0.1065,0.0537 0.19788,0.1316 0.28519,0.21682 0.0335,0.0339 0.0688,0.0601 0.10157,0.10157 0.003,0.004 0.002,7e-4 0.006,0.006 a 4.0003712,4.0003094 0 0 0 0.008,0.01 4.0003712,4.0003094 0 0 0 0.0156,0.0215 c -0.0168,-0.0225 0.005,0.009 0.0312,0.0488 0.0634,0.0984 0.0808,0.12725 0.0508,0.0781 a 4.0003712,4.0003094 0 0 0 0.006,0.01 c 0.0209,0.0391 -0.0421,-0.0738 0.002,0.01 a 4.0003712,4.0003094 0 0 0 0.008,0.0156 c 0.0183,0.0346 0.0203,0.0393 0.0273,0.0527 -0.002,-0.005 0.01,0.0204 0.0117,0.0254 0.0521,0.12699 0.0556,0.13586 0.0371,0.084 v -0.004 c 5.4e-4,9.9e-4 0.005,0.0123 0.004,0.01 a 4.0003712,4.0003094 0 0 0 0.008,0.0215 c -0.0224,-0.0617 -0.0191,-0.0617 0.004,0.0156 0.0157,0.0551 0.0168,0.0587 0.0137,0.0449 -9.5e-4,-0.004 0.008,0.0307 0.004,0.0137 a 4.0003712,4.0003094 0 0 0 0.002,0.0117 c -0.009,-0.0361 0.002,0.0199 0.008,0.0469 0.005,0.023 -10e-4,-0.004 0.002,0.0117 0.004,0.0166 8.6e-4,-0.008 0.006,0.0176 a 4.0003712,4.0003094 0 0 0 0.002,0.006 c 0.002,0.008 0.005,0.0199 0.004,0.0137 4.6e-4,0.002 -3.1e-4,0.005 0,0.006 -0.002,-0.009 0.007,0.0566 0.0117,0.0996 0.002,0.0148 -8e-5,0.006 0.002,0.0234 9.7e-4,0.009 7e-4,0.002 0.002,0.0117 3.9e-4,0.003 -4.1e-4,0.004 0,0.008 1.4e-4,0.003 -3.4e-4,-0.002 0.002,0.0176 10e-4,0.009 7.4e-4,0.004 0.002,0.0137 a 4.0003712,4.0003094 0 0 0 0,0.004 v 0.002 0.002 0.002 0.002 0.002 a 4.0003712,4.0003094 0 0 0 0,0.004 c 3.2e-4,-4.6e-4 -1.4e-4,-0.001 -0.002,0.0137 -0.003,0.0254 9e-5,0.004 -0.002,0.0234 -2.6e-4,0.002 2.5e-4,0.002 0,0.004 -3.9e-4,0.002 -9.5e-4,0.002 -0.002,0.008 -0.002,0.0172 -3.1e-4,0.009 -0.002,0.0234 -0.005,0.043 -0.0136,0.10826 -0.0117,0.0996 1.1e-4,-5e-4 -1.3e-4,0.007 0,0.006 -0.001,0.004 -9.1e-4,0.002 -0.004,0.0137 -9.1e-4,0.004 -9.5e-4,0.003 -0.002,0.006 -0.005,0.0256 -0.002,9.6e-4 -0.006,0.0176 -0.003,0.0162 0.003,-0.0113 -0.002,0.0117 -0.006,0.027 -0.0164,0.083 -0.008,0.0469 -5e-4,0.002 -0.002,0.0113 -0.002,0.0117 a 4.0003712,4.0003094 0 0 0 -0.004,0.0137 c 0.003,-0.0138 0.002,-0.0102 -0.0137,0.0449 -0.0229,0.0773 -0.0262,0.0773 -0.004,0.0156 a 4.0003712,4.0003094 0 0 0 -0.008,0.0215 c 9.8e-4,-0.003 -0.003,0.008 -0.004,0.01 v -0.004 c 0.0185,-0.0519 0.015,-0.043 -0.0371,0.084 -0.002,0.005 -0.0142,0.0305 -0.0117,0.0254 -0.007,0.0134 -0.009,0.0181 -0.0273,0.0527 a 4.0003712,4.0003094 0 0 0 -0.008,0.0156 c -0.0441,0.0834 0.019,-0.0295 -0.002,0.01 a 4.0003712,4.0003094 0 0 0 -0.006,0.008 c 0.03,-0.0491 0.0126,-0.0203 -0.0508,0.0781 -0.0262,0.0395 -0.0482,0.0713 -0.0312,0.0488 a 4.0003712,4.0003094 0 0 0 -0.0234,0.0332 4.0003712,4.0003094 0 0 0 -0.01,0.0117 c 0.007,-0.009 0.0549,-0.0735 0.004,-0.008 -0.0353,0.0446 -0.0732,0.0735 -0.10938,0.10938 -0.0854,0.082 -0.17378,0.15876 -0.27738,0.21096 a 4.0003712,4.0003094 0 0 0 -0.16407,0.0879 4.0003712,4.0003094 0 0 0 -0.01,0.006 4.0003712,4.0003094 0 0 0 -0.0234,0.0137 4.0003712,4.0003094 0 0 0 -0.0234,0.0137 h -0.002 c -0.007,0.003 -0.0469,0.0215 -0.0469,0.0215 l -35.70038,20.59802 a 4.0003712,4.0003094 0 0 0 -0.0274,0.0176 h -0.002 a 4.0003712,4.0003094 0 0 0 -0.002,0.002 c -0.11396,0.0654 -0.21536,0.10463 -0.32425,0.12893 a 4.0003712,4.0003094 0 0 0 -0.002,0 4.0003712,4.0003094 0 0 0 -0.006,0.002 c -0.003,5.8e-4 -0.008,0.002 -0.008,0.002 0.0452,-0.01 0.034,-0.007 -0.082,0.0117 -0.0375,0.006 -0.0146,0.003 -0.0156,0.004 a 4.0003712,4.0003094 0 0 0 -0.0137,0.002 c 0.009,-10e-4 -0.0244,0.002 -0.0195,0.002 0.0232,-0.003 0.0316,-0.004 -0.0937,0.006 -0.009,7e-4 -0.006,9.6e-4 -0.0137,0.002 -0.0202,10e-4 -0.0359,0.002 -0.0371,0.002 -0.0248,-10e-4 -0.0187,-8.4e-4 -0.0332,-0.002 0.0449,-5.9e-4 0.1457,-3.7e-4 -0.0352,-0.006 a 4.0003712,4.0003094 0 0 0 -0.0156,0 c -0.035,-7e-4 -0.014,9.5e-4 -0.004,0.002 a 4.0003712,4.0003094 0 0 0 -0.0176,-0.002 c -0.008,-0.001 -0.0155,-0.002 -0.0527,-0.008 -0.0525,-0.008 -0.0406,-0.005 -0.0605,-0.008 0.005,0.001 -0.0137,-0.004 -0.0117,-0.004 0.0127,0.002 0.006,0.004 -0.0703,-0.0156 l 0.0273,0.008 c -0.0515,-0.0133 0.0372,0.0108 0.0137,0.004 -0.0113,-0.002 -0.007,2.8e-4 -0.0312,-0.006 a 4.0003712,4.0003094 0 0 0 -0.002,0 4.0003712,4.0003094 0 0 0 -0.0312,-0.01 c -0.0148,-0.004 -0.0438,-0.0146 -0.084,-0.0293 a 4.0003712,4.0003094 0 0 0 -0.0215,-0.008 c -0.003,-10e-4 -0.0116,-0.004 -0.0156,-0.006 -0.006,-0.002 -0.0149,-0.007 -0.0215,-0.01 -0.0178,-0.007 -0.0352,-0.0142 -0.0586,-0.0254 a 4.0003712,4.0003094 0 0 0 -0.004,-0.002 h -0.002 c -0.0776,-0.0381 -0.1464,-0.0867 -0.21291,-0.13869 -0.0165,-0.0127 -0.0313,-0.0233 -0.043,-0.0332 -0.0196,-0.0168 -0.0343,-0.0386 -0.0527,-0.0566 -0.0695,-0.0695 -0.13055,-0.14327 -0.17776,-0.22659 -0.005,-0.009 -0.0105,-0.0181 -0.0156,-0.0273 -0.0517,-0.0976 -0.0915,-0.20381 -0.1172,-0.31839 -0.003,-0.34309 -0.005,-0.35298 -0.008,-0.0234 -0.004,-0.0222 -0.0138,-0.0411 -0.0195,-0.0625 -10e-4,-0.005 -0.003,-0.009 -0.004,-0.0137 v -0.002 a 4.0003712,4.0003094 0 0 0 0,-0.002 c -7.5e-4,-0.0764 -0.003,0.007 -0.004,-0.0391 a 4.0003712,4.0003094 0 0 0 -0.002,-0.041 c -0.003,-0.0316 -0.007,-0.20742 -0.008,-0.0859 a 4.0003712,4.0003094 0 0 0 -0.002,-0.041 V 11.24739 a 4.0003712,4.0003094 0 0 0 0.002,-0.043 c 10e-4,0.13788 0.005,-0.0388 0.008,-0.0977 a 4.0003712,4.0003094 0 0 0 0.002,-0.0274 c 10e-4,-0.0427 0.003,0.0327 0.004,-0.0371 8e-5,-0.007 -8e-5,0.004 0,-0.004 1.7e-4,-10e-4 -1.8e-4,-0.003 0,-0.004 10e-4,-0.009 0.005,-0.0171 0.008,-0.0254 0.006,-0.0166 0.0123,-0.0328 0.0156,-0.0508 0.003,0.3295 0.005,0.31963 0.008,-0.0234 0.0257,-0.11456 0.0655,-0.21889 0.1172,-0.31645 0.005,-0.01 0.01,-0.0198 0.0156,-0.0293 0.0451,-0.0793 0.10473,-0.15002 0.16995,-0.21682 0.0234,-0.0234 0.0429,-0.0508 0.0684,-0.0723 0.007,-0.006 0.0153,-0.0112 0.0234,-0.0176 0.0699,-0.056 0.14413,-0.10618 0.22659,-0.14649 a 4.0003712,4.0003094 0 0 0 0.004,-0.002 c 0.0321,-0.0154 0.0576,-0.0263 0.0801,-0.0352 a 4.0003712,4.0003094 0 0 0 0.0156,-0.008 4.0003712,4.0003094 0 0 0 0.002,-0.002 4.0003712,4.0003094 0 0 0 0.0117,-0.004 c 0.004,-0.002 0.004,-4.4e-4 0.008,-0.002 0.0402,-0.0147 0.0692,-0.0253 0.084,-0.0293 a 4.0003712,4.0003094 0 0 0 0.0332,-0.008 c 0.0138,-0.003 0.008,-0.002 0.0176,-0.004 l -0.0273,0.01 c 0.0763,-0.0192 0.083,-0.0179 0.0703,-0.0156 -0.002,3.9e-4 0.0163,-0.005 0.0117,-0.004 0.0199,-0.003 0.008,-0.002 0.0605,-0.01 0.01,-10e-4 0.006,-8.8e-4 0.0137,-0.002 0.007,-10e-4 0.0461,-0.005 0.0391,-0.004 a 4.0003712,4.0003094 0 0 0 0.0176,-0.002 c -0.007,7.4e-4 -0.0262,6.1e-4 0.004,0 a 4.0003712,4.0003094 0 0 0 0.0156,0 c 0.0701,-0.002 -0.0113,-7.6e-4 0.0137,-0.002 0.01,-7.8e-4 0.0139,-0.002 0.0547,-0.004 z" />
    <path
       id="rect1323-3-5-22-1-5-6-2-3"
       style="color:#000000;font-style:normal;font-variant:normal;font-weight:normal;font-stretch:normal;font-size:medium;line-height:normal;font-family:sans-serif;font-variant-ligatures:normal;font-variant-position:normal;font-variant-caps:normal;font-variant-numeric:normal;font-variant-alternates:normal;font-variant-east-asian:normal;font-feature-settings:normal;font-variation-settings:normal;text-indent:0;text-align:start;text-decoration:none;text-decoration-line:none;text-decoration-style:solid;text-decoration-color:#000000;letter-spacing:normal;word-spacing:normal;text-transform:none;writing-mode:lr-tb;direction:ltr;text-orientation:mixed;dominant-baseline:auto;baseline-shift:baseline;text-anchor:start;white-space:normal;shape-padding:0;shape-margin:0;inline-size:0;clip-rule:nonzero;display:inline;overflow:visible;visibility:visible;opacity:0.25;isolation:auto;mix-blend-mode:normal;color-interpolation:sRGB;color-interpolation-filters:linearRGB;solid-color:#000000;solid-opacity:1;vector-effect:none;fill:#613682;fill-opacity:1;fill-rule:nonzero;stroke:none;stroke-width:0.999879;stroke-linecap:round;stroke-linejoin:round;stroke-miterlimit:4;stroke-dasharray:none;stroke-dashoffset:2.1875;stroke-opacity:1;color-rendering:auto;image-rendering:auto;shape-rendering:auto;text-rendering:auto;enable-background:accumulate;stop-color:#000000"
       d="m 13.879084,2.0045701 v 0.002 a 4.0000076,3.9998586 0 0 0 -0.041,0.002 c -0.0895,0.004 -0.25404,0.008 -0.18748,0.006 a 4.0000076,3.9998586 0 0 0 -0.0117,0 c -0.084,0.004 -0.24236,0.0112 -0.43942,0.0274 -0.0219,0.002 -0.0255,-1.6e-4 -0.0488,0.002 h 0.0176 c -0.19708,0.0169 -0.33689,0.0349 -0.41598,0.0449 a 4.0000076,3.9998586 0 0 0 -0.0703,0.0117 c -0.0102,10e-4 -0.10118,0.0162 -0.13867,0.0215 -0.0442,0.006 -0.0581,0.008 -0.13866,0.0215 a 4.0000076,3.9998586 0 0 0 -0.0586,0.01 c -0.009,0.002 -0.0124,0.002 -0.0215,0.004 -0.0108,0.002 -0.008,0.002 -0.0195,0.004 -0.008,0.002 -0.006,-5e-5 -0.0137,0.002 -0.20078,0.0371 -0.38155,0.0777 -0.53317,0.11522 -0.008,0.002 -0.0213,0.004 -0.0293,0.006 -0.0552,0.0134 -0.11279,0.0291 -0.15038,0.0391 a 4.0000076,3.9998586 0 0 0 -0.0742,0.0195 c -0.24632,0.0681 -0.46333,0.14012 -0.66009,0.21091 -0.0637,0.0228 -0.004,7.6e-4 -0.0273,0.01 -0.002,10e-4 -0.004,10e-4 -0.006,0.002 -0.024,0.009 -0.10926,0.0394 -0.043,0.0156 a 4.0000076,3.9998586 0 0 0 -0.0586,0.0215 c -0.19449,0.0733 -0.36952,0.15542 -0.54683,0.2363 -0.0399,0.0182 -0.084,0.0343 -0.12304,0.0527 a 4.0000076,3.9998586 0 0 0 -0.0312,0.0137 4.0000076,3.9998586 0 0 0 -0.0195,0.01 c -0.006,0.003 -0.0134,0.005 -0.0195,0.008 -0.0104,0.005 -0.0229,0.009 -0.0332,0.0137 -0.27377,0.13285 -0.53257,0.27537 -0.77533,0.42378 -0.0439,0.0268 -0.0749,0.0532 -0.11718,0.0801 -0.0559,0.0355 -0.10896,0.0746 -0.16405,0.1113 -0.15724,0.10537 -0.3235,0.21219 -0.45895,0.31442 -0.0649,0.0489 -0.13026,0.1103 -0.1953,0.16209 -0.0559,0.0449 -0.10923,0.0924 -0.16405,0.13866 -0.11126,0.0929 -0.2232,0.17519 -0.33395,0.2773 -0.12014,0.11071 -0.23154,0.23048 -0.34568,0.34762 -1.33666,1.37164 -2.25878,3.16814 -2.53107,5.15949 a 4.0000076,3.9998586 0 0 0 -0.0215,0.1777199 c -0.007,0.0775 -0.0122,0.10899 -0.0137,0.16599 -0.002,0.0673 -0.003,0.11966 -0.002,0.15428 -3.1e-4,-0.0307 -0.002,-0.0663 -0.002,-0.0879 -3e-5,-0.002 4e-5,-0.006 0,-0.008 -1.7e-4,-0.0113 7e-5,-0.0192 0,-0.041 2.8e-4,-0.004 -3.5e-4,-0.003 0,-0.008 -0.003,-0.7078199 -0.0107,-0.6851599 -0.0117,0.17576 a 4.0000076,3.9998586 0 0 0 -0.0195,0.40034 c 0,-0.43961 -0.0176,-0.35102 -0.0176,0.26363 -10e-6,3.2e-4 0,0.002 0,0.002 v 0.0586 41.59239 0.002 0.0566 0.004 c 0,0.61465 0.0176,0.70324 0.0176,0.26363 a 4.0000076,3.9998586 0 0 0 0.0195,0.40034 c 10e-4,0.86092 0.009,0.88358 0.0117,0.17576 -3.5e-4,-0.005 2.8e-4,-0.004 0,-0.008 7e-5,-0.0208 -1.6e-4,-0.028 0,-0.0391 -2e-4,-0.002 2.1e-4,-0.006 0,-0.008 4.1e-4,-0.0227 0.002,-0.0585 0.002,-0.0898 -10e-4,0.0355 8e-5,0.0873 0.002,0.15623 5.1e-4,0.005 -5.1e-4,0.0146 0,0.0195 0.002,0.0417 0.004,0.0541 0.008,0.10545 7e-4,0.009 0.005,0.0243 0.006,0.0332 a 4.0000076,3.9998586 0 0 0 0.0215,0.18357 c 0.29554,2.16142 1.34977,4.10007 2.87675,5.50712 0.11815,0.10892 0.23673,0.19836 0.35543,0.29683 0.0415,0.0348 0.0828,0.0695 0.125,0.10351 0.0711,0.0569 0.14199,0.12425 0.21287,0.17771 0.14851,0.11208 0.32899,0.22812 0.50387,0.3437 0.0345,0.0227 0.0668,0.0481 0.10156,0.0703 0.0483,0.0309 0.0843,0.061 0.13475,0.0918 0.24276,0.14841 0.50156,0.29092 0.77533,0.42378 0.0163,0.008 0.0363,0.0136 0.0527,0.0215 0.006,0.003 0.0132,0.007 0.0195,0.01 a 4.0000076,3.9998586 0 0 0 0.15429,0.0664 c 0.17731,0.0809 0.35234,0.16303 0.54683,0.2363 a 4.0000076,3.9998586 0 0 0 0.0586,0.0215 c -0.0663,-0.0238 0.019,0.007 0.043,0.0156 0.002,6.3e-4 0.004,9.5e-4 0.006,0.002 0.0235,0.009 -0.0363,-0.013 0.0273,0.01 0.19676,0.0708 0.41377,0.14285 0.66009,0.21091 a 4.0000076,3.9998586 0 0 0 0.0742,0.0195 c 0.0376,0.01 0.0952,0.0257 0.15038,0.0391 0.008,0.002 0.021,0.004 0.0293,0.006 0.15162,0.0375 0.33239,0.0781 0.53317,0.11523 0.008,0.002 0.006,4.4e-4 0.0137,0.002 0.0113,0.002 0.009,0.002 0.0195,0.004 0.009,0.002 0.0123,0.002 0.0215,0.004 a 4.0000076,3.9998586 0 0 0 0.0586,0.01 c 0.0806,0.0131 0.0944,0.0151 0.13866,0.0215 0.0375,0.005 0.12846,0.0201 0.13867,0.0215 a 4.0000076,3.9998586 0 0 0 0.0703,0.01 c 0.0676,0.009 0.2013,0.0245 0.35544,0.0391 0.0217,0.002 0.032,0.004 0.0547,0.006 0.005,4.1e-4 0.005,0.002 0.01,0.002 0.003,2.3e-4 0.003,-2.3e-4 0.006,0 a 4.0000076,3.9998586 0 0 0 0.0215,0.002 c 0.0365,0.003 0.0426,0.002 0.0742,0.004 0.14761,0.0102 0.29539,0.0185 0.36522,0.0215 a 4.0000076,3.9998586 0 0 0 0.0117,0 c -0.0208,-7.5e-4 0.064,0.002 0.0586,0.002 -1.8e-4,1e-5 0.002,-2e-5 0.002,0 a 4.0000076,3.9998586 0 0 0 0.16796,0.008 4.0000076,3.9998586 0 0 0 0.082,0 4.0000076,3.9998586 0 0 0 0.002,0 c 0.0426,-2e-5 -0.0292,7e-5 0.006,0 a 4.0000076,3.9998586 0 0 0 0.30856,-0.0117 c 0.0429,-0.002 0.0749,-0.004 0.11719,-0.006 0.0483,-0.003 0.16274,-0.007 0.18162,-0.008 a 4.0000076,3.9998586 0 0 0 0.002,0 c 0.0151,-9e-4 0.0352,-0.003 0.0508,-0.004 0.0882,-0.006 0.17947,-0.0114 0.28708,-0.0215 a 4.0000076,3.9998586 0 0 0 0.0801,-0.008 c 0.16547,-0.0188 0.19757,-0.0276 0.26366,-0.0391 0.0254,-0.004 0.0903,-0.0116 0.10155,-0.0137 0.0134,-0.002 0.0332,-0.006 0.0469,-0.008 a 4.0000076,3.9998586 0 0 0 0.002,0 c 0.0898,-0.0143 0.27612,-0.0401 0.55465,-0.10154 a 4.0000076,3.9998586 0 0 0 0.0312,-0.008 4.0000076,3.9998586 0 0 0 0.0195,-0.004 4.0000076,3.9998586 0 0 0 0.004,-0.002 4.0000076,3.9998586 0 0 0 0.1328,-0.0332 c 0.004,-5.8e-4 0.0195,-0.004 0.0195,-0.004 0,0 0.004,-7.7e-4 0.006,-0.002 0.001,-5e-4 0.002,-0.002 0.002,-0.002 a 4.0000076,3.9998586 0 0 1 0.002,0 4.0000076,3.9998586 0 0 0 0.11914,-0.0352 4.0000076,3.9998586 0 0 0 0.0117,-0.004 c 0.0122,-0.004 0.0168,-0.002 0.0293,-0.006 0.007,-0.002 0.023,-0.0107 0.0312,-0.0137 a 4.0000076,3.9998586 0 0 0 0.0625,-0.0234 4.0000076,3.9998586 0 0 0 0.0234,-0.008 4.0000076,3.9998586 0 0 0 0.0703,-0.0273 c 5.3e-4,-1.4e-4 0.001,1.3e-4 0.002,0 a 4.0000076,3.9998586 0 0 0 0.0117,-0.004 4.0000076,3.9998586 0 0 0 0.0508,-0.0215 4.0000076,3.9998586 0 0 0 0.0234,-0.008 4.0000076,3.9998586 0 0 0 0.0137,-0.006 4.0000076,3.9998586 0 0 0 0.1367,-0.0586 4.0000076,3.9998586 0 0 0 0.004,-0.002 4.0000076,3.9998586 0 0 0 0.004,-0.002 4.0000076,3.9998586 0 0 0 0.14647,-0.0723 4.0000076,3.9998586 0 0 0 0.0781,-0.041 4.0000076,3.9998586 0 0 0 0.0703,-0.0391 c 5.5e-4,-2.2e-4 0.004,-0.001 0.006,-0.002 a 4.0000076,3.9998586 0 0 0 0.004,-0.002 c 0.004,-10e-4 0.008,-0.002 0.0117,-0.004 0.25713,-0.0943 0.51988,-0.17875 0.77729,-0.27144 0.11189,-0.0394 0.21241,-0.0955 0.32029,-0.14062 0.12975,-0.0553 0.2661,-0.10037 0.38668,-0.16989 l 0.002,-0.002 35.761,-20.6302 -0.16991,0.0918 c 0.0485,-0.0245 0.0945,-0.0547 0.14257,-0.0801 0.003,-10e-4 0.015,-0.006 0.0273,-0.0117 l 0.008,-0.004 0.008,-0.004 c 0,0 0.004,-0.003 0.006,-0.004 0.003,-0.003 0.006,-0.005 0.0117,-0.01 0.89559,-0.48049 1.72333,-1.1094 2.43147,-1.88257 a 4.0000076,3.9998586 0 0 0 0.004,-0.004 c 0.19705,-0.21571 0.3548,-0.41033 0.48434,-0.57805 3e-4,0.003 -0.0254,0.0401 0.0937,-0.11717 a 4.0000076,3.9998586 0 0 0 0.0137,-0.0176 c 0.17819,-0.23806 0.27303,-0.39402 0.31052,-0.45111 0.0558,-0.084 0.11655,-0.18019 0.17967,-0.28317 l 0.008,-0.0137 c -0.0554,0.0913 0.0328,-0.0513 0.0215,-0.0312 -0.17604,0.29529 -0.11091,0.21776 0.0547,-0.0859 a 4.0000076,3.9998586 0 0 0 0.0234,-0.0391 c 0.17252,-0.29944 0.15918,-0.2939 0.11914,-0.22653 -6.8e-4,0.001 0.003,-0.005 0.002,-0.004 -0.003,0.004 0.0164,-0.0316 0.0215,-0.041 l 0.006,-0.01 a 4.0000076,3.9998586 0 0 0 0.004,-0.002 c 0.0397,-0.075 0.11776,-0.2211 0.22068,-0.44331 l 0.002,-0.002 c 0.0803,-0.17309 0.13147,-0.29898 0.15428,-0.35347 a 4.0000076,3.9998586 0 0 0 0.0195,-0.0488 c 0.0284,-0.0707 0.0815,-0.19828 0.14648,-0.37886 l 0.006,-0.0137 c 0.0748,-0.20892 0.12029,-0.36801 0.14647,-0.45698 a 4.0000076,3.9998586 0 0 0 0.004,-0.01 4.0000076,3.9998586 0 0 0 0.004,-0.0156 c 2.6e-4,-8.7e-4 0.005,-0.02 0.006,-0.0215 0.008,-0.0271 0.0469,-0.1395 0.10546,-0.37886 a 4.0000076,3.9998586 0 0 0 0.002,-0.0117 c 0.0371,-0.15371 0.0643,-0.28137 0.0859,-0.39449 0.0248,-0.12184 0.0515,-0.26628 0.0781,-0.44135 a 4.0000076,3.9998586 0 0 0 0.004,-0.0274 4.0000076,3.9998586 0 0 0 0.006,-0.0293 c 0.006,-0.041 -3.6e-4,-0.007 0.004,-0.041 0.0212,-0.16754 0.0246,-0.213 0.0215,-0.2031 -0.001,0.003 0.0106,-0.0887 0.008,-0.0664 a 4.0000076,3.9998586 0 0 0 0.002,-0.0254 c 0,2e-5 0.002,-0.0288 0.002,-0.0312 0.0112,-0.11758 0.0353,-0.33745 0.0195,-0.20115 l -0.004,0.0273 c 0.0495,-0.40543 0.041,-0.6618 0.041,-0.74991 0,-1.8e-4 0,-0.002 0,-0.002 0,-0.0881 0.008,-0.34447 -0.041,-0.7499 l 0.004,0.0273 c 0.0158,0.13631 -0.008,-0.0836 -0.0195,-0.20115 -0.002,-0.0182 6.5e-4,-0.008 -0.002,-0.0312 a 4.0000076,3.9998586 0 0 0 -0.002,-0.0254 c 0.003,0.0223 -0.009,-0.0696 -0.008,-0.0664 0.003,0.01 -2.5e-4,-0.0356 -0.0215,-0.2031 -0.004,-0.0338 0.002,-10e-6 -0.004,-0.041 a 4.0000076,3.9998586 0 0 0 -0.006,-0.0293 c -0.002,-0.0155 -0.002,-0.0126 -0.004,-0.0273 -0.0266,-0.17507 -0.0533,-0.31951 -0.0781,-0.44135 -0.0216,-0.11312 -0.0488,-0.24078 -0.0859,-0.39448 a 4.0000076,3.9998586 0 0 0 -0.002,-0.0117 c -0.0586,-0.23936 -0.097,-0.3518 -0.10546,-0.37886 a 4.0000076,3.9998586 0 0 0 -0.006,-0.0215 4.0000076,3.9998586 0 0 0 -0.004,-0.0156 c -5.5e-4,-0.002 -0.003,-0.008 -0.004,-0.01 -0.0262,-0.089 -0.0716,-0.24807 -0.14647,-0.45699 l -0.006,-0.0137 c -0.065,-0.18058 -0.11804,-0.30817 -0.14648,-0.37886 a 4.0000076,3.9998586 0 0 0 -0.0195,-0.0488 c -0.0228,-0.0545 -0.074,-0.18039 -0.15428,-0.35348 l -0.002,-0.002 c -0.10292,-0.22221 -0.18095,-0.36834 -0.22068,-0.44331 a 4.0000076,3.9998586 0 0 0 -0.004,-0.002 c 0.002,0.004 -0.005,-0.007 -0.006,-0.01 0.0129,0.0238 -0.0292,-0.0542 -0.0215,-0.041 -9.9e-4,-0.002 -8.5e-4,-0.002 -0.002,-0.004 0.04,0.0674 0.0534,0.0729 -0.11914,-0.22653 a 4.0000076,3.9998586 0 0 0 -0.0234,-0.0391 c -0.16559,-0.30368 -0.23073,-0.38121 -0.0547,-0.0859 -0.007,-0.0121 -0.0143,-0.0195 -0.0215,-0.0312 l -0.008,-0.0137 c -0.0631,-0.10298 -0.12383,-0.19921 -0.17967,-0.28317 -0.0375,-0.0571 -0.13234,-0.21305 -0.31053,-0.45111 a 4.0000076,3.9998586 0 0 0 -0.0137,-0.0176 c -0.11917,-0.1573 -0.0934,-0.11967 -0.0937,-0.11717 -0.12955,-0.16771 -0.2873,-0.36233 -0.48435,-0.57805 a 4.0000076,3.9998586 0 0 0 -0.004,-0.004 c -0.70813,-0.77318 -1.53586,-1.40208 -2.43146,-1.88257 -0.006,-0.005 -0.009,-0.007 -0.0117,-0.01 l -0.006,-0.004 c 0,0 -0.008,-0.005 -0.0156,-0.008 -0.0124,-0.005 -0.0248,-0.0105 -0.0273,-0.0117 -0.0481,-0.0254 -0.0941,-0.0556 -0.14257,-0.0801 l 0.16991,0.0918 -35.761,-20.6302099 -0.002,-0.002 c -0.0612,-0.0353 -0.13314,-0.0549 -0.19725,-0.0859 -0.40695,-0.19892 -0.85293,-0.33678 -1.28702,-0.49602 -0.004,-0.002 -0.008,-0.003 -0.0117,-0.004 a 4.0000076,3.9998586 0 0 0 -0.004,-0.002 4.0000076,3.9998586 0 0 0 -0.006,-0.002 4.0000076,3.9998586 0 0 0 -0.14843,-0.0801 4.0000076,3.9998586 0 0 0 -0.14647,-0.0723 4.0000076,3.9998586 0 0 0 -0.004,-0.002 4.0000076,3.9998586 0 0 0 -0.004,-0.002 4.0000076,3.9998586 0 0 0 -0.1367,-0.0586 4.0000076,3.9998586 0 0 0 -0.0137,-0.006 4.0000076,3.9998586 0 0 0 -0.0234,-0.008 4.0000076,3.9998586 0 0 0 -0.0508,-0.0215 4.0000076,3.9998586 0 0 0 -0.0117,-0.004 4.0000076,3.9998586 0 0 0 -0.0723,-0.0273 4.0000076,3.9998586 0 0 0 -0.0859,-0.0312 c -0.008,-0.003 -0.0242,-0.0117 -0.0312,-0.0137 -0.0125,-0.004 -0.0171,-0.002 -0.0293,-0.006 a 4.0000076,3.9998586 0 0 0 -0.0117,-0.004 4.0000076,3.9998586 0 0 0 -0.11914,-0.0352 4.0000076,3.9998586 0 0 0 -0.002,0 c -4e-5,-2e-5 -9.4e-4,-0.001 -0.002,-0.002 -0.002,-10e-4 -0.006,-0.002 -0.006,-0.002 -10e-6,0 -0.009,-8e-4 -0.0156,-0.002 -0.002,-4.5e-4 -0.005,-0.002 -0.006,-0.002 a 4.0000076,3.9998586 0 0 0 -0.13085,-0.0352 4.0000076,3.9998586 0 0 0 -0.004,-0.002 4.0000076,3.9998586 0 0 0 -0.0508,-0.0117 c -0.27852,-0.0615 -0.46485,-0.0873 -0.55464,-0.10155 a 4.0000076,3.9998586 0 0 1 -0.002,0 c -9.1e-4,-1.4e-4 -0.0181,-0.002 -0.0195,-0.002 -0.008,-0.001 -0.0195,-0.005 -0.0273,-0.006 0.0106,10e-4 -0.13851,-0.0187 -0.25974,-0.0352 -0.0493,-0.007 -0.0342,-0.008 -0.10547,-0.0156 a 4.0000076,3.9998586 0 0 0 -0.0176,-0.002 4.0000076,3.9998586 0 0 0 -0.0625,-0.008 c -0.10761,-0.0101 -0.19888,-0.016 -0.28708,-0.0215 -0.0156,-9.8e-4 -0.0356,-0.003 -0.0508,-0.004 a 4.0000076,3.9998586 0 0 1 -0.002,0 c -0.0189,-10e-4 -0.13332,-0.005 -0.18162,-0.008 -0.0423,-0.002 -0.0743,-0.004 -0.11719,-0.006 a 4.0000076,3.9998586 0 0 0 -0.30857,-0.0117 c -0.035,-7e-5 0.0367,2e-5 -0.006,0 a 4.0000076,3.9998586 0 0 0 -0.002,0 4.0000076,3.9998586 0 0 0 -0.082,0 z m 0.0781,8.0028999 c 10e-4,1.3e-4 0.0169,5.8e-4 0.0371,0.002 0.007,5e-4 0.004,10e-4 0.0137,0.002 -0.0426,-6e-5 -0.0363,-0.002 0.0937,0.006 -0.005,-5.3e-4 0.0289,0.003 0.0195,0.002 a 4.0000076,3.9998586 0 0 0 0.0137,0.002 c 0.001,6.4e-4 -0.0218,-0.002 0.0156,0.004 a 4.0000076,3.9998586 0 0 0 0.004,0 c 0.0576,0.009 0.0761,0.0114 0.0781,0.0117 -0.004,-9.5e-4 0.0137,0.003 0.008,0.002 0.002,2.8e-4 0.004,0 0.004,0 a 4.0000076,3.9998586 0 0 0 0.006,0.002 c 0.11155,0.0253 0.21437,0.0671 0.32222,0.12889 0.001,8.2e-4 0.002,0.001 0.004,0.002 a 4.0000076,3.9998586 0 0 0 0.0273,0.0176 l 35.69656,20.5931 c 0,0 0.0397,0.0204 0.0469,0.0234 2.4e-4,1e-4 0.002,-7e-5 0.002,0 l 0.0234,0.0137 a 4.0000076,3.9998586 0 0 0 0.0234,0.0137 4.0000076,3.9998586 0 0 0 0.01,0.006 4.0000076,3.9998586 0 0 0 0.16405,0.0879 c 0.10649,0.0537 0.19784,0.13156 0.28514,0.21677 0.0335,0.0339 0.0688,0.0601 0.10156,0.10155 0.003,0.004 0.002,8.4e-4 0.006,0.006 a 4.0000076,3.9998586 0 0 0 0.008,0.01 4.0000076,3.9998586 0 0 0 0.0156,0.0215 c -0.0168,-0.0225 0.005,0.009 0.0312,0.0488 0.0634,0.0984 0.0808,0.1272 0.0508,0.0781 a 4.0000076,3.9998586 0 0 0 0.006,0.01 c 0.0209,0.0391 -0.0421,-0.0736 0.002,0.01 a 4.0000076,3.9998586 0 0 0 0.008,0.0156 c 0.0183,0.0346 0.0204,0.0393 0.0274,0.0527 -0.002,-0.005 0.01,0.0204 0.0117,0.0254 0.0521,0.12698 0.0556,0.13587 0.0371,0.084 v -0.004 c 5.4e-4,9.9e-4 0.005,0.0125 0.004,0.01 a 4.0000076,3.9998586 0 0 0 0.008,0.0215 c -0.0224,-0.0617 -0.019,-0.0617 0.004,0.0156 0.0157,0.0551 0.0168,0.0587 0.0137,0.0449 -9.4e-4,-0.004 0.008,0.0307 0.004,0.0137 a 4.0000076,3.9998586 0 0 0 0.002,0.0117 c -0.009,-0.0361 0.002,0.0199 0.008,0.0469 0.005,0.023 -10e-4,-0.004 0.002,0.0117 0.004,0.0166 -0.001,-0.008 0.004,0.0176 a 4.0000076,3.9998586 0 0 0 0.002,0.006 c 0.002,0.008 0.005,0.0199 0.004,0.0137 4.6e-4,0.002 -3.2e-4,0.005 0,0.006 -0.002,-0.009 0.007,0.0566 0.0117,0.0996 0.002,0.0148 -3e-5,0.006 0.002,0.0234 9.6e-4,0.009 7.5e-4,0.002 0.002,0.0117 3.9e-4,0.003 -4.2e-4,0.002 0,0.006 1.4e-4,0.003 -3e-4,-0.002 0.002,0.0176 0.001,0.009 8e-4,0.004 0.002,0.0137 a 4.0000076,3.9998586 0 0 0 0,0.004 v 0.002 0.002 c 0,-7.7e-4 0,0.003 0,0.002 v 0.002 0.002 a 4.0000076,3.9998586 0 0 0 0,0.004 c 3.2e-4,-4.6e-4 -1.9e-4,-9.8e-4 -0.002,0.0137 -0.003,0.0254 6e-5,0.004 -0.002,0.0234 -2.6e-4,0.002 2.5e-4,0.002 0,0.004 -3.9e-4,0.002 -0.001,0.002 -0.002,0.008 -0.002,0.0172 -3.6e-4,0.009 -0.002,0.0234 -0.005,0.043 -0.0136,0.10824 -0.0117,0.0996 1.1e-4,-5e-4 -1.4e-4,0.007 0,0.006 -10e-4,0.004 -10e-4,0.002 -0.004,0.0137 -9.1e-4,0.004 -0.001,0.003 -0.002,0.006 -0.005,0.0256 -3.8e-4,9.8e-4 -0.004,0.0176 -0.003,0.0162 0.003,-0.0113 -0.002,0.0117 -0.006,0.027 -0.0166,0.083 -0.008,0.0469 -4.9e-4,0.002 -0.002,0.0113 -0.002,0.0117 a 4.0000076,3.9998586 0 0 0 -0.004,0.0137 c 0.003,-0.0138 0.002,-0.0102 -0.0137,0.0449 -0.0229,0.0773 -0.0263,0.0773 -0.004,0.0156 a 4.0000076,3.9998586 0 0 0 -0.008,0.0215 c 9.8e-4,-0.003 -0.003,0.008 -0.004,0.01 v -0.004 c 0.0185,-0.0519 0.015,-0.043 -0.0371,0.084 -0.002,0.005 -0.0142,0.0305 -0.0117,0.0254 -0.007,0.0134 -0.009,0.0181 -0.0274,0.0527 a 4.0000076,3.9998586 0 0 0 -0.008,0.0156 c -0.0441,0.0834 0.019,-0.0293 -0.002,0.01 a 4.0000076,3.9998586 0 0 0 -0.006,0.008 c 0.03,-0.0491 0.0126,-0.0203 -0.0508,0.0781 -0.0262,0.0395 -0.0481,0.0713 -0.0312,0.0488 a 4.0000076,3.9998586 0 0 0 -0.0234,0.0332 4.0000076,3.9998586 0 0 0 -0.01,0.0117 c 0.007,-0.009 0.055,-0.0737 0.004,-0.008 -0.0353,0.0446 -0.0732,0.0735 -0.10937,0.10935 -0.0854,0.082 -0.17374,0.15872 -0.27733,0.21092 a 4.0000076,3.9998586 0 0 0 -0.16405,0.0879 4.0000076,3.9998586 0 0 0 -0.01,0.006 4.0000076,3.9998586 0 0 0 -0.0234,0.0137 4.0000076,3.9998586 0 0 0 -0.0234,0.0137 h -0.002 c -0.007,0.003 -0.0469,0.0215 -0.0469,0.0215 L 14.604304,53.8182 a 4.0000076,3.9998586 0 0 0 -0.0273,0.0176 c -6e-4,3.5e-4 -0.001,-3.4e-4 -0.002,0 a 4.0000076,3.9998586 0 0 0 -0.002,0.002 c -0.11395,0.0654 -0.21531,0.1046 -0.32419,0.12889 a 4.0000076,3.9998586 0 0 0 -0.002,0 4.0000076,3.9998586 0 0 0 -0.006,0.002 c -0.003,5.8e-4 -0.008,0.002 -0.008,0.002 0.0452,-0.01 0.034,-0.007 -0.082,0.0117 -0.0375,0.006 -0.0146,0.003 -0.0156,0.004 a 4.0000076,3.9998586 0 0 0 -0.0137,0.002 c 0.009,-0.001 -0.0244,0.002 -0.0195,0.002 0.0232,-0.003 0.0317,-0.004 -0.0937,0.006 -0.009,7e-4 -0.006,0.001 -0.0137,0.002 -0.0202,10e-4 -0.0359,0.002 -0.0371,0.002 -0.0248,-0.001 -0.0187,-8.9e-4 -0.0332,-0.002 0.0449,-5.9e-4 0.14565,-5.1e-4 -0.0352,-0.006 a 4.0000076,3.9998586 0 0 0 -0.0156,0 c -0.035,-7e-4 -0.0141,10e-4 -0.004,0.002 a 4.0000076,3.9998586 0 0 0 -0.0176,-0.002 c -0.008,-10e-4 -0.0155,-0.002 -0.0527,-0.008 -0.0525,-0.008 -0.0406,-0.005 -0.0605,-0.008 0.005,10e-4 -0.0137,-0.004 -0.0117,-0.004 0.0127,0.002 0.006,0.004 -0.0703,-0.0156 l 0.0273,0.008 c -0.0515,-0.0133 0.0372,0.0109 0.0137,0.004 -0.0113,-0.002 -0.007,1.4e-4 -0.0312,-0.006 a 4.0000076,3.9998586 0 0 0 -0.002,0 4.0000076,3.9998586 0 0 0 -0.0312,-0.01 c -0.0148,-0.004 -0.0438,-0.0146 -0.084,-0.0293 a 4.0000076,3.9998586 0 0 0 -0.0215,-0.008 c -0.003,-10e-4 -0.0116,-0.004 -0.0156,-0.006 -0.006,-0.002 -0.0149,-0.007 -0.0215,-0.01 -0.0178,-0.007 -0.0352,-0.0142 -0.0586,-0.0254 a 4.0000076,3.9998586 0 0 0 -0.004,-0.002 c -5e-4,-2.4e-4 -0.001,2.5e-4 -0.002,0 -0.0776,-0.0381 -0.14637,-0.0867 -0.21287,-0.13865 -0.0165,-0.0127 -0.0313,-0.0233 -0.043,-0.0332 -0.0196,-0.0168 -0.0343,-0.0386 -0.0527,-0.0566 -0.0695,-0.0695 -0.13051,-0.14323 -0.17772,-0.22654 -0.005,-0.009 -0.0105,-0.0181 -0.0156,-0.0273 -0.0517,-0.0976 -0.0915,-0.20376 -0.11717,-0.31832 -0.003,-0.34306 -0.005,-0.35291 -0.008,-0.0234 -0.004,-0.0222 -0.0138,-0.0411 -0.0195,-0.0625 -10e-4,-0.005 -0.003,-0.009 -0.004,-0.0137 -4e-5,-0.004 4e-5,0.002 0,-0.002 a 4.0000076,3.9998586 0 0 0 0,-0.002 c -7.5e-4,-0.0764 -0.003,0.007 -0.004,-0.0391 a 4.0000076,3.9998586 0 0 0 -0.002,-0.041 c -0.003,-0.0316 -0.007,-0.20736 -0.008,-0.0859 a 4.0000076,3.9998586 0 0 0 -0.002,-0.041 V 11.24856 a 4.0000076,3.9998586 0 0 0 0.002,-0.043 c 10e-4,0.13787 0.005,-0.0388 0.008,-0.0977 a 4.0000076,3.9998586 0 0 0 0.002,-0.0273 c 9.9e-4,-0.0427 0.003,0.0327 0.004,-0.0371 9e-5,-0.007 -8e-5,0.004 0,-0.004 1.8e-4,-10e-4 -1.8e-4,-0.003 0,-0.004 0.001,-0.009 0.005,-0.0171 0.008,-0.0254 0.006,-0.0166 0.0123,-0.0328 0.0156,-0.0508 0.003,0.32946 0.005,0.31963 0.008,-0.0234 0.0257,-0.11454 0.0655,-0.21882 0.11718,-0.31637 0.005,-0.01 0.01,-0.0198 0.0156,-0.0293 0.0451,-0.0793 0.1047,-0.14997 0.16991,-0.21676 0.0234,-0.0234 0.0429,-0.0508 0.0684,-0.0723 0.007,-0.006 0.0153,-0.0112 0.0234,-0.0176 0.0699,-0.056 0.14408,-0.10615 0.22654,-0.14646 a 4.0000076,3.9998586 0 0 0 0.004,-0.002 c 0.0321,-0.0154 0.0576,-0.0263 0.0801,-0.0352 a 4.0000076,3.9998586 0 0 0 0.0156,-0.008 4.0000076,3.9998586 0 0 0 0.002,-0.002 4.0000076,3.9998586 0 0 0 0.0117,-0.004 c 0.004,-0.002 0.004,-4.8e-4 0.008,-0.002 0.0402,-0.0147 0.0692,-0.0253 0.084,-0.0293 a 4.0000076,3.9998586 0 0 0 0.0332,-0.008 c 0.0138,-0.003 0.008,-0.002 0.0176,-0.004 l -0.0273,0.01 c 0.0763,-0.0192 0.083,-0.0179 0.0703,-0.0156 -0.002,3.9e-4 0.0163,-0.005 0.0117,-0.004 0.0199,-0.003 0.008,-0.002 0.0605,-0.01 0.01,-0.001 0.006,-9.2e-4 0.0137,-0.002 0.007,-10e-4 0.0461,-0.005 0.0391,-0.004 a 4.0000076,3.9998586 0 0 0 0.0176,-0.002 c -0.007,7.3e-4 -0.0261,6e-4 0.004,0 a 4.0000076,3.9998586 0 0 0 0.0156,0 c 0.0701,-0.002 -0.0113,-8.1e-4 0.0137,-0.002 0.01,-7.8e-4 0.0139,-0.002 0.0547,-0.004 z" />
  </g>
</svg>
