<?xml version="1.0" encoding="UTF-8" standalone="no"?>
<svg
   xmlns:dc="http://purl.org/dc/elements/1.1/"
   xmlns:cc="http://creativecommons.org/ns#"
   xmlns:rdf="http://www.w3.org/1999/02/22-rdf-syntax-ns#"
   xmlns:svg="http://www.w3.org/2000/svg"
   xmlns="http://www.w3.org/2000/svg"
   xmlns:sodipodi="http://sodipodi.sourceforge.net/DTD/sodipodi-0.dtd"
   xmlns:inkscape="http://www.inkscape.org/namespaces/inkscape"
   width="64"
   height="64"
   viewBox="0 0 64 64"
   version="1.1"
   id="svg6374"
   inkscape:version="1.0.2 (e86c870879, 2021-01-15)"
   sodipodi:docname="document-open.svg">
  <defs
     id="defs6368" />
  <sodipodi:namedview
     id="base"
     pagecolor="#cecece"
     bordercolor="#666666"
     borderopacity="1.0"
     inkscape:pageopacity="0"
     inkscape:pageshadow="2"
     inkscape:zoom="7.5046773"
     inkscape:cx="15.961847"
     inkscape:cy="37.861521"
     inkscape:document-units="px"
     inkscape:current-layer="layer1"
     inkscape:document-rotation="0"
     showgrid="false"
     units="px"
     inkscape:window-width="2048"
     inkscape:window-height="1080"
     inkscape:window-x="0"
     inkscape:window-y="0"
     inkscape:window-maximized="1" />
  <metadata
     id="metadata6371">
    <rdf:RDF>
      <cc:Work
         rdf:about="">
        <dc:format>image/svg+xml</dc:format>
        <dc:type
           rdf:resource="http://purl.org/dc/dcmitype/StillImage" />
        <dc:title></dc:title>
      </cc:Work>
    </rdf:RDF>
  </metadata>
  <g
     inkscape:label="Layer 1"
     inkscape:groupmode="layer"
     id="layer1">
    <path
       id="rect954-7-0-7-3-0-0-0-6-7"
       style="color:#000000;font-style:normal;font-variant:normal;font-weight:normal;font-stretch:normal;font-size:medium;line-height:normal;font-family:sans-serif;font-variant-ligatures:normal;font-variant-position:normal;font-variant-caps:normal;font-variant-numeric:normal;font-variant-alternates:normal;font-variant-east-asian:normal;font-feature-settings:normal;font-variation-settings:normal;text-indent:0;text-align:start;text-decoration:none;text-decoration-line:none;text-decoration-style:solid;text-decoration-color:#000000;letter-spacing:normal;word-spacing:normal;text-transform:none;writing-mode:lr-tb;direction:ltr;text-orientation:mixed;dominant-baseline:auto;baseline-shift:baseline;text-anchor:start;white-space:normal;shape-padding:0;shape-margin:0;inline-size:0;clip-rule:nonzero;display:inline;overflow:visible;visibility:visible;opacity:0.85;isolation:auto;mix-blend-mode:normal;color-interpolation:sRGB;color-interpolation-filters:linearRGB;solid-color:#000000;solid-opacity:1;vector-effect:none;fill:#3c5e31;fill-opacity:1;fill-rule:nonzero;stroke:none;stroke-linecap:round;stroke-linejoin:round;stroke-miterlimit:4;stroke-dasharray:none;stroke-dashoffset:2.1875;stroke-opacity:1;color-rendering:auto;image-rendering:auto;shape-rendering:auto;text-rendering:auto;enable-background:accumulate;stop-color:#000000"
       d="M 13,2.5 C 10.53295,2.5 8.5,4.53295 8.5,7 v 49.99999 c 0,2.46706 2.03295,4.5 4.5,4.5 h 38 c 2.467,0 4.5,-2.03294 4.5,-4.5 V 7 C 55.5,4.53295 53.467,2.5 51,2.5 Z m 0,3 h 38 c 0.8569,0 1.5,0.64306 1.5,1.5 v 49.99999 c 0,0.85695 -0.6431,1.5 -1.5,1.5 H 13 c -0.85695,0 -1.5,-0.64305 -1.5,-1.5 V 7 c 0,-0.85694 0.64305,-1.5 1.5,-1.5 z" />
    <rect
       style="fill:#fcfcfc;fill-opacity:1;stroke-width:0.495;stroke-linecap:round;stroke-linejoin:round;stroke-miterlimit:4;stroke-dasharray:none;stroke-dashoffset:2.1875"
       id="rect954-7-0-7-3-0-0-5"
       width="44"
       height="56"
       x="10.000092"
       y="4"
       rx="3"
       ry="3" />
    <path
       id="path1113-1-0-6-8-3-2-5-4-8"
       style="color:#000000;font-style:normal;font-variant:normal;font-weight:normal;font-stretch:normal;font-size:medium;line-height:normal;font-family:sans-serif;font-variant-ligatures:normal;font-variant-position:normal;font-variant-caps:normal;font-variant-numeric:normal;font-variant-alternates:normal;font-variant-east-asian:normal;font-feature-settings:normal;font-variation-settings:normal;text-indent:0;text-align:start;text-decoration:none;text-decoration-line:none;text-decoration-style:solid;text-decoration-color:#000000;letter-spacing:normal;word-spacing:normal;text-transform:none;writing-mode:lr-tb;direction:ltr;text-orientation:mixed;dominant-baseline:auto;baseline-shift:baseline;text-anchor:start;white-space:normal;shape-padding:0;shape-margin:0;inline-size:0;clip-rule:nonzero;display:inline;overflow:visible;visibility:visible;opacity:0.15;isolation:auto;mix-blend-mode:normal;color-interpolation:sRGB;color-interpolation-filters:linearRGB;solid-color:#000000;solid-opacity:1;vector-effect:none;fill:#0c0c10;fill-opacity:1;fill-rule:nonzero;stroke:none;stroke-width:0;stroke-linecap:round;stroke-linejoin:round;stroke-miterlimit:4;stroke-dasharray:none;stroke-dashoffset:0;stroke-opacity:1;color-rendering:auto;image-rendering:auto;shape-rendering:auto;text-rendering:auto;enable-background:accumulate;stop-color:#000000"
       d="m 28.88004,52 c -0.6648,0 -1.20001,-0.53521 -1.20001,-1.20001 V 33.27995 h -3.42411 -3.45459 a 0.80122439,0.78686644 0 0 1 -0.80117,-0.7711 0.80122439,0.78686644 0 0 1 0.14487,-0.46735 l 11.1991,-15.70599 a 0.80122439,0.78686644 0 0 1 1.31261,0 L 43.85492,32.0415 a 0.80122439,0.78686644 0 0 1 -0.65583,1.23845 H 39.74507 36.31992 V 50.79999 C 36.31992,51.46479 35.78471,52 35.11991,52 Z" />
    <path
       id="path1113-1-0-6-8-3-2-5-4"
       style="color:#000000;font-style:normal;font-variant:normal;font-weight:normal;font-stretch:normal;font-size:medium;line-height:normal;font-family:sans-serif;font-variant-ligatures:normal;font-variant-position:normal;font-variant-caps:normal;font-variant-numeric:normal;font-variant-alternates:normal;font-variant-east-asian:normal;font-feature-settings:normal;font-variation-settings:normal;text-indent:0;text-align:start;text-decoration:none;text-decoration-line:none;text-decoration-style:solid;text-decoration-color:#000000;letter-spacing:normal;word-spacing:normal;text-transform:none;writing-mode:lr-tb;direction:ltr;text-orientation:mixed;dominant-baseline:auto;baseline-shift:baseline;text-anchor:start;white-space:normal;shape-padding:0;shape-margin:0;inline-size:0;clip-rule:nonzero;display:inline;overflow:visible;visibility:visible;isolation:auto;mix-blend-mode:normal;color-interpolation:sRGB;color-interpolation-filters:linearRGB;solid-color:#000000;solid-opacity:1;vector-effect:none;fill:#7bb169;fill-opacity:1;fill-rule:nonzero;stroke:none;stroke-width:0;stroke-linecap:round;stroke-linejoin:round;stroke-miterlimit:4;stroke-dasharray:none;stroke-dashoffset:0;stroke-opacity:1;color-rendering:auto;image-rendering:auto;shape-rendering:auto;text-rendering:auto;enable-background:accumulate;stop-color:#000000"
       d="m 28.88004,50 c -0.6648,0 -1.20001,-0.53521 -1.20001,-1.20001 V 31.27995 h -3.42411 -3.45459 a 0.80122439,0.78686644 0 0 1 -0.80117,-0.7711 0.80122439,0.78686644 0 0 1 0.14487,-0.46735 l 11.1991,-15.70599 a 0.80122439,0.78686644 0 0 1 1.31261,0 L 43.85492,30.0415 a 0.80122439,0.78686644 0 0 1 -0.65583,1.23845 H 39.74507 36.31992 V 48.79999 C 36.31992,49.46479 35.78471,50 35.11991,50 Z" />
    <path
       id="path1113-1-0-6-8-3-2-5-4-0-7"
       style="color:#000000;font-style:normal;font-variant:normal;font-weight:normal;font-stretch:normal;font-size:medium;line-height:normal;font-family:sans-serif;font-variant-ligatures:normal;font-variant-position:normal;font-variant-caps:normal;font-variant-numeric:normal;font-variant-alternates:normal;font-variant-east-asian:normal;font-feature-settings:normal;font-variation-settings:normal;text-indent:0;text-align:start;text-decoration:none;text-decoration-line:none;text-decoration-style:solid;text-decoration-color:#000000;letter-spacing:normal;word-spacing:normal;text-transform:none;writing-mode:lr-tb;direction:ltr;text-orientation:mixed;dominant-baseline:auto;baseline-shift:baseline;text-anchor:start;white-space:normal;shape-padding:0;shape-margin:0;inline-size:0;clip-rule:nonzero;display:inline;overflow:visible;visibility:visible;opacity:0.925;isolation:auto;mix-blend-mode:normal;color-interpolation:sRGB;color-interpolation-filters:linearRGB;solid-color:#000000;solid-opacity:1;vector-effect:none;fill:#3c5e31;fill-opacity:1;fill-rule:nonzero;stroke:none;stroke-width:1.00048;stroke-linecap:round;stroke-linejoin:round;stroke-miterlimit:4;stroke-dasharray:none;stroke-dashoffset:0;stroke-opacity:1;color-rendering:auto;image-rendering:auto;shape-rendering:auto;text-rendering:auto;enable-background:accumulate;stop-color:#000000"
       d="m 32.00915,13.25 c -0.48151,0 -0.96364,0.2135 -1.26846,0.64079 L 19.53372,29.59996 c -0.19064,0.26707 -0.29016,0.58927 -0.2834,0.91821 0.0171,0.83586 0.72211,1.50636 1.55186,1.50625 h 3.45551 2.67764 v 16.77585 c 0,1.06762 0.88249,1.94973 1.95057,1.94973 h 6.24456 c 1.06807,0 1.95055,-0.88211 1.95055,-1.94973 V 32.02442 h 2.67766 3.45551 c 1.20188,-4.6e-4 1.96991,-1.44189 1.26846,-2.42446 L 33.27566,13.89079 C 32.97085,13.4635 32.49065,13.25 32.00915,13.25 Z m 0,1.48281 c 0.0158,0 0.0306,0.009 0.0449,0.0293 l 11.20504,15.70918 c 0.0432,0.0604 0.0506,0.0527 -0.045,0.0527 h -3.45551 -3.42817 a 0.75059507,0.75027047 0 0 0 -0.75051,0.7502 v 17.52604 c 0,0.26234 -0.18708,0.44934 -0.44952,0.44934 h -6.24456 c -0.26246,0 -0.44953,-0.187 -0.44953,-0.44934 V 31.27419 a 0.75059507,0.75027047 0 0 0 -0.75053,-0.7502 H 24.25761 20.8021 c -0.0434,0 -0.0524,-0.014 -0.0528,-0.0352 -1e-4,-0.005 9.9e-4,-0.0111 0.006,-0.0176 L 31.96229,14.76201 c 0.0144,-0.0202 0.0311,-0.0293 0.0469,-0.0293 z" />
  </g>
</svg>
