<?xml version="1.0" encoding="UTF-8" standalone="no"?>
<svg
   xmlns:dc="http://purl.org/dc/elements/1.1/"
   xmlns:cc="http://creativecommons.org/ns#"
   xmlns:rdf="http://www.w3.org/1999/02/22-rdf-syntax-ns#"
   xmlns:svg="http://www.w3.org/2000/svg"
   xmlns="http://www.w3.org/2000/svg"
   xmlns:sodipodi="http://sodipodi.sourceforge.net/DTD/sodipodi-0.dtd"
   xmlns:inkscape="http://www.inkscape.org/namespaces/inkscape"
   width="64"
   height="64"
   viewBox="0 0 64 64"
   version="1.1"
   id="svg6374"
   inkscape:version="1.0.2 (e86c870879, 2021-01-15)"
   sodipodi:docname="go-down.svg">
  <defs
     id="defs6368" />
  <sodipodi:namedview
     id="base"
     pagecolor="#cecece"
     bordercolor="#666666"
     borderopacity="1.0"
     inkscape:pageopacity="0"
     inkscape:pageshadow="2"
     inkscape:zoom="6.8818909"
     inkscape:cx="20.896034"
     inkscape:cy="43.723975"
     inkscape:document-units="px"
     inkscape:current-layer="layer1"
     inkscape:document-rotation="0"
     showgrid="false"
     units="px"
     inkscape:window-width="1500"
     inkscape:window-height="970"
     inkscape:window-x="68"
     inkscape:window-y="56"
     inkscape:window-maximized="0" />
  <metadata
     id="metadata6371">
    <rdf:RDF>
      <cc:Work
         rdf:about="">
        <dc:format>image/svg+xml</dc:format>
        <dc:type
           rdf:resource="http://purl.org/dc/dcmitype/StillImage" />
        <dc:title />
      </cc:Work>
    </rdf:RDF>
  </metadata>
  <g
     inkscape:label="Layer 1"
     inkscape:groupmode="layer"
     id="layer1">
    <path
       id="path1113-1-0-6-8-3-2-5-4-0-7-1-1"
       style="color:#000000;font-style:normal;font-variant:normal;font-weight:normal;font-stretch:normal;font-size:medium;line-height:normal;font-family:sans-serif;font-variant-ligatures:normal;font-variant-position:normal;font-variant-caps:normal;font-variant-numeric:normal;font-variant-alternates:normal;font-variant-east-asian:normal;font-feature-settings:normal;font-variation-settings:normal;text-indent:0;text-align:start;text-decoration:none;text-decoration-line:none;text-decoration-style:solid;text-decoration-color:#000000;letter-spacing:normal;word-spacing:normal;text-transform:none;writing-mode:lr-tb;direction:ltr;text-orientation:mixed;dominant-baseline:auto;baseline-shift:baseline;text-anchor:start;white-space:normal;shape-padding:0;shape-margin:0;inline-size:0;clip-rule:nonzero;display:inline;overflow:visible;visibility:visible;opacity:0.075;isolation:auto;mix-blend-mode:normal;color-interpolation:sRGB;color-interpolation-filters:linearRGB;solid-color:#000000;solid-opacity:1;vector-effect:none;fill:#0c0c0c;fill-opacity:1;fill-rule:nonzero;stroke:none;stroke-width:1.268;stroke-linecap:round;stroke-linejoin:round;stroke-miterlimit:4;stroke-dasharray:none;stroke-dashoffset:0;stroke-opacity:1;color-rendering:auto;image-rendering:auto;shape-rendering:auto;text-rendering:auto;enable-background:accumulate;stop-color:#000000"
       d="m 32.011487,58 c -0.604248,0 -1.209274,-0.27328 -1.591793,-0.820211 L 16.356045,37.072051 c -0.239235,-0.341849 -0.364123,-0.754265 -0.35564,-1.175309 0.02146,-1.0699 0.906178,-1.92814 1.947433,-1.928 h 4.336326 3.360176 V 12.495654 C 25.64434,11.129101 26.751778,10 28.092114,10 h 7.836311 c 1.340323,0 2.447749,1.129101 2.447749,2.495654 v 21.473088 h 3.360201 4.336326 c 1.508242,5.89e-4 2.472044,1.84562 1.591793,3.103309 L 33.600833,57.179789 C 33.218326,57.72672 32.615722,58 32.011487,58 Z m 0,-1.897997 c 0.01983,0 0.0384,-0.01152 0.05635,-0.0375 l 14.061227,-20.10775 c 0.05421,-0.07731 0.0635,-0.06746 -0.05647,-0.06746 H 41.736268 37.43425 A 0.94192325,0.9603462 0 0 1 36.492434,34.929037 V 12.495706 c 0,-0.335796 -0.234767,-0.575156 -0.564104,-0.575156 h -7.83631 c -0.329362,0 -0.564117,0.23936 -0.564117,0.575156 v 22.433331 a 0.94192325,0.9603462 0 0 1 -0.941841,0.960256 H 22.28407 17.947743 c -0.05446,0 -0.06576,0.01792 -0.06626,0.04506 -1.25e-4,0.0064 0.0012,0.01421 0.0075,0.02253 l 14.063674,20.10775 c 0.01807,0.02586 0.03903,0.0375 0.05886,0.0375 z" />
    <path
       id="path1113-1-0-6-8-3-2-5-4-3"
       style="color:#000000;font-style:normal;font-variant:normal;font-weight:normal;font-stretch:normal;font-size:medium;line-height:normal;font-family:sans-serif;font-variant-ligatures:normal;font-variant-position:normal;font-variant-caps:normal;font-variant-numeric:normal;font-variant-alternates:normal;font-variant-east-asian:normal;font-feature-settings:normal;font-variation-settings:normal;text-indent:0;text-align:start;text-decoration:none;text-decoration-line:none;text-decoration-style:solid;text-decoration-color:#000000;letter-spacing:normal;word-spacing:normal;text-transform:none;writing-mode:lr-tb;direction:ltr;text-orientation:mixed;dominant-baseline:auto;baseline-shift:baseline;text-anchor:start;white-space:normal;shape-padding:0;shape-margin:0;inline-size:0;clip-rule:nonzero;display:inline;overflow:visible;visibility:visible;isolation:auto;mix-blend-mode:normal;color-interpolation:sRGB;color-interpolation-filters:linearRGB;solid-color:#000000;solid-opacity:1;vector-effect:none;fill:#978ee1;fill-opacity:1;fill-rule:nonzero;stroke:none;stroke-width:0;stroke-linecap:round;stroke-linejoin:round;stroke-miterlimit:4;stroke-dasharray:none;stroke-dashoffset:0;stroke-opacity:1;color-rendering:auto;image-rendering:auto;shape-rendering:auto;text-rendering:auto;enable-background:accumulate;stop-color:#000000"
       d="m 28.08476,8.96 c -0.834259,0 -1.505895,0.685069 -1.505895,1.536013 v 22.425651 h -4.296922 -4.335172 a 1.0054581,1.007189 0 0 0 -1.00539,0.987008 1.0054581,1.007189 0 0 0 0.181798,0.598208 l 14.053773,20.103667 a 1.0054581,1.007189 0 0 0 1.647197,0 L 46.876767,34.50688 A 1.0054581,1.007189 0 0 0 46.053765,32.921664 H 41.719308 37.42108 V 10.496013 C 37.42108,9.645069 36.749444,8.96 35.915186,8.96 Z" />
    <path
       id="path1113-1-0-6-8-3-2-5-4-0-7-1"
       style="color:#000000;font-style:normal;font-variant:normal;font-weight:normal;font-stretch:normal;font-size:medium;line-height:normal;font-family:sans-serif;font-variant-ligatures:normal;font-variant-position:normal;font-variant-caps:normal;font-variant-numeric:normal;font-variant-alternates:normal;font-variant-east-asian:normal;font-feature-settings:normal;font-variation-settings:normal;text-indent:0;text-align:start;text-decoration:none;text-decoration-line:none;text-decoration-style:solid;text-decoration-color:#000000;letter-spacing:normal;word-spacing:normal;text-transform:none;writing-mode:lr-tb;direction:ltr;text-orientation:mixed;dominant-baseline:auto;baseline-shift:baseline;text-anchor:start;white-space:normal;shape-padding:0;shape-margin:0;inline-size:0;clip-rule:nonzero;display:inline;overflow:visible;visibility:visible;opacity:0.85;isolation:auto;mix-blend-mode:normal;color-interpolation:sRGB;color-interpolation-filters:linearRGB;solid-color:#000000;solid-opacity:1;vector-effect:none;fill:#322791;fill-opacity:1;fill-rule:nonzero;stroke:none;stroke-width:1.268;stroke-linecap:round;stroke-linejoin:round;stroke-miterlimit:4;stroke-dasharray:none;stroke-dashoffset:0;stroke-opacity:1;color-rendering:auto;image-rendering:auto;shape-rendering:auto;text-rendering:auto;enable-background:accumulate;stop-color:#000000"
       d="m 32.011487,56 c -0.604248,0 -1.209274,-0.27328 -1.591793,-0.820211 L 16.356045,35.072051 c -0.239235,-0.341849 -0.364123,-0.754265 -0.35564,-1.175309 0.02146,-1.0699 0.906178,-1.92814 1.947433,-1.928 h 4.336326 3.360176 V 10.495654 C 25.64434,9.129101 26.751778,8 28.092114,8 h 7.836311 c 1.340323,0 2.447749,1.129101 2.447749,2.495654 v 21.473088 h 3.360201 4.336326 c 1.508242,5.89e-4 2.472044,1.84562 1.591793,3.103309 L 33.600833,55.179789 C 33.218326,55.72672 32.615722,56 32.011487,56 Z m 0,-1.897997 c 0.01983,0 0.0384,-0.01152 0.05635,-0.0375 l 14.061227,-20.10775 c 0.05421,-0.07731 0.0635,-0.06746 -0.05647,-0.06746 H 41.736268 37.43425 A 0.94192325,0.9603462 0 0 1 36.492434,32.929037 V 10.495706 c 0,-0.335796 -0.234767,-0.575156 -0.564104,-0.575156 h -7.83631 c -0.329362,0 -0.564117,0.23936 -0.564117,0.575156 v 22.433331 a 0.94192325,0.9603462 0 0 1 -0.941841,0.960256 H 22.28407 17.947743 c -0.05446,0 -0.06576,0.01792 -0.06626,0.04506 -1.25e-4,0.0064 0.0012,0.01421 0.0075,0.02253 l 14.063674,20.10775 c 0.01807,0.02586 0.03903,0.0375 0.05886,0.0375 z" />
  </g>
</svg>
