<?xml version="1.0" encoding="UTF-8" standalone="no"?>
<svg
   xmlns:dc="http://purl.org/dc/elements/1.1/"
   xmlns:cc="http://creativecommons.org/ns#"
   xmlns:rdf="http://www.w3.org/1999/02/22-rdf-syntax-ns#"
   xmlns:svg="http://www.w3.org/2000/svg"
   xmlns="http://www.w3.org/2000/svg"
   xmlns:sodipodi="http://sodipodi.sourceforge.net/DTD/sodipodi-0.dtd"
   xmlns:inkscape="http://www.inkscape.org/namespaces/inkscape"
   width="64"
   height="64"
   viewBox="0 0 64 64"
   version="1.1"
   id="svg6374"
   inkscape:version="1.0.2 (e86c870879, 2021-01-15)"
   sodipodi:docname="go-previous.svg">
  <defs
     id="defs6368" />
  <sodipodi:namedview
     id="base"
     pagecolor="#cecece"
     bordercolor="#666666"
     borderopacity="1.0"
     inkscape:pageopacity="0"
     inkscape:pageshadow="2"
     inkscape:zoom="6.8818909"
     inkscape:cx="20.896034"
     inkscape:cy="43.723975"
     inkscape:document-units="px"
     inkscape:current-layer="layer1"
     inkscape:document-rotation="0"
     showgrid="false"
     units="px"
     inkscape:window-width="1500"
     inkscape:window-height="970"
     inkscape:window-x="68"
     inkscape:window-y="56"
     inkscape:window-maximized="0" />
  <metadata
     id="metadata6371">
    <rdf:RDF>
      <cc:Work
         rdf:about="">
        <dc:format>image/svg+xml</dc:format>
        <dc:type
           rdf:resource="http://purl.org/dc/dcmitype/StillImage" />
        <dc:title />
      </cc:Work>
    </rdf:RDF>
  </metadata>
  <g
     inkscape:label="Layer 1"
     inkscape:groupmode="layer"
     id="layer1">
    <path
       id="path1113-1-0-6-8-3-2-5-4-0-7-1-1-9-8"
       style="color:#000000;font-style:normal;font-variant:normal;font-weight:normal;font-stretch:normal;font-size:medium;line-height:normal;font-family:sans-serif;font-variant-ligatures:normal;font-variant-position:normal;font-variant-caps:normal;font-variant-numeric:normal;font-variant-alternates:normal;font-variant-east-asian:normal;font-feature-settings:normal;font-variation-settings:normal;text-indent:0;text-align:start;text-decoration:none;text-decoration-line:none;text-decoration-style:solid;text-decoration-color:#000000;letter-spacing:normal;word-spacing:normal;text-transform:none;writing-mode:lr-tb;direction:ltr;text-orientation:mixed;dominant-baseline:auto;baseline-shift:baseline;text-anchor:start;white-space:normal;shape-padding:0;shape-margin:0;inline-size:0;clip-rule:nonzero;display:inline;overflow:visible;visibility:visible;opacity:0.075;isolation:auto;mix-blend-mode:normal;color-interpolation:sRGB;color-interpolation-filters:linearRGB;solid-color:#000000;solid-opacity:1;vector-effect:none;fill:#0c0c0c;fill-opacity:1;fill-rule:nonzero;stroke:none;stroke-width:1.268;stroke-linecap:round;stroke-linejoin:round;stroke-miterlimit:4;stroke-dasharray:none;stroke-dashoffset:0;stroke-opacity:1;color-rendering:auto;image-rendering:auto;shape-rendering:auto;text-rendering:auto;enable-background:accumulate;stop-color:#000000"
       d="m 8,33.988514 c 0,0.60425 0.2732798,1.20928 0.8202098,1.59179 L 28.92795,49.643954 c 0.34185,0.23924 0.75427,0.36413 1.17531,0.35564 1.0699,-0.0215 1.92814,-0.90617 1.928,-1.94743 v -4.33633 -3.36017 h 21.473088 c 1.366553,0 2.495654,-1.10744 2.495654,-2.44778 v -7.83631 c 0,-1.34032 -1.129101,-2.44775 -2.495654,-2.44775 H 32.03126 v -3.3602 -4.33632 c -5.9e-4,-1.50824 -1.84562,-2.47205 -3.10331,-1.5918 L 8.8202098,32.399174 C 8.2732798,32.781674 8,33.384284 8,33.988514 Z m 1.8979998,0 c 0,-0.0198 0.0115,-0.0384 0.0375,-0.0564 L 30.04325,19.870884 c 0.0773,-0.0542 0.0675,-0.0635 0.0675,0.0565 v 4.33633 4.30202 a 0.9603462,0.94192325 0 0 0 0.96025,0.94181 h 22.433296 c 0.335796,0 0.575156,0.23477 0.575156,0.56411 v 7.83631 c 0,0.32936 -0.23936,0.56412 -0.575156,0.56412 H 31.07096 a 0.9603462,0.94192325 0 0 0 -0.96025,0.94184 v 4.30199 4.33633 c 0,0.0545 -0.0179,0.0658 -0.0451,0.0663 -0.006,1.2e-4 -0.0142,-10e-4 -0.0225,-0.007 L 9.9353598,34.047864 c -0.0259,-0.0181 -0.0375,-0.039 -0.0375,-0.0589 z" />
    <path
       id="path1113-1-0-6-8-3-2-5-4-3-4-4"
       style="color:#000000;font-style:normal;font-variant:normal;font-weight:normal;font-stretch:normal;font-size:medium;line-height:normal;font-family:sans-serif;font-variant-ligatures:normal;font-variant-position:normal;font-variant-caps:normal;font-variant-numeric:normal;font-variant-alternates:normal;font-variant-east-asian:normal;font-feature-settings:normal;font-variation-settings:normal;text-indent:0;text-align:start;text-decoration:none;text-decoration-line:none;text-decoration-style:solid;text-decoration-color:#000000;letter-spacing:normal;word-spacing:normal;text-transform:none;writing-mode:lr-tb;direction:ltr;text-orientation:mixed;dominant-baseline:auto;baseline-shift:baseline;text-anchor:start;white-space:normal;shape-padding:0;shape-margin:0;inline-size:0;clip-rule:nonzero;display:inline;overflow:visible;visibility:visible;isolation:auto;mix-blend-mode:normal;color-interpolation:sRGB;color-interpolation-filters:linearRGB;solid-color:#000000;solid-opacity:1;vector-effect:none;fill:#978ee1;fill-opacity:1;fill-rule:nonzero;stroke:none;stroke-width:0;stroke-linecap:round;stroke-linejoin:round;stroke-miterlimit:4;stroke-dasharray:none;stroke-dashoffset:0;stroke-opacity:1;color-rendering:auto;image-rendering:auto;shape-rendering:auto;text-rendering:auto;enable-background:accumulate;stop-color:#000000"
       d="m 55.039998,35.915254 c 0,0.83426 -0.685069,1.50589 -1.536013,1.50589 H 31.078337 v 4.29692 4.33518 a 1.007189,1.0054581 0 0 1 -0.98701,1.00539 1.007189,1.0054581 0 0 1 -0.59821,-0.1818 L 9.3894468,32.823054 a 1.007189,1.0054581 0 0 1 0,-1.64719 L 29.493117,17.123244 a 1.007189,1.0054581 0 0 1 1.58522,0.823 v 4.33446 4.29823 h 22.425648 c 0.850944,0 1.536013,0.67163 1.536013,1.50589 z" />
    <path
       id="path1113-1-0-6-8-3-2-5-4-0-7-1-7-5"
       style="color:#000000;font-style:normal;font-variant:normal;font-weight:normal;font-stretch:normal;font-size:medium;line-height:normal;font-family:sans-serif;font-variant-ligatures:normal;font-variant-position:normal;font-variant-caps:normal;font-variant-numeric:normal;font-variant-alternates:normal;font-variant-east-asian:normal;font-feature-settings:normal;font-variation-settings:normal;text-indent:0;text-align:start;text-decoration:none;text-decoration-line:none;text-decoration-style:solid;text-decoration-color:#000000;letter-spacing:normal;word-spacing:normal;text-transform:none;writing-mode:lr-tb;direction:ltr;text-orientation:mixed;dominant-baseline:auto;baseline-shift:baseline;text-anchor:start;white-space:normal;shape-padding:0;shape-margin:0;inline-size:0;clip-rule:nonzero;display:inline;overflow:visible;visibility:visible;opacity:0.85;isolation:auto;mix-blend-mode:normal;color-interpolation:sRGB;color-interpolation-filters:linearRGB;solid-color:#000000;solid-opacity:1;vector-effect:none;fill:#322791;fill-opacity:1;fill-rule:nonzero;stroke:none;stroke-width:1.268;stroke-linecap:round;stroke-linejoin:round;stroke-miterlimit:4;stroke-dasharray:none;stroke-dashoffset:0;stroke-opacity:1;color-rendering:auto;image-rendering:auto;shape-rendering:auto;text-rendering:auto;enable-background:accumulate;stop-color:#000000"
       d="m 8,31.988514 c 0,0.60425 0.2732798,1.20928 0.8202098,1.59179 L 28.92795,47.643954 c 0.34185,0.23924 0.75427,0.36413 1.17531,0.35564 1.0699,-0.0215 1.92814,-0.90617 1.928,-1.94743 v -4.33633 -3.36017 h 21.473088 c 1.366553,0 2.495654,-1.10744 2.495654,-2.44778 v -7.83631 c 0,-1.34032 -1.129101,-2.44775 -2.495654,-2.44775 H 32.03126 v -3.3602 -4.33632 c -5.9e-4,-1.50824 -1.84562,-2.47205 -3.10331,-1.5918 L 8.8202098,30.399174 C 8.2732798,30.781674 8,31.384284 8,31.988514 Z m 1.8979998,0 c 0,-0.0198 0.0115,-0.0384 0.0375,-0.0564 L 30.04325,17.870884 c 0.0773,-0.0542 0.0675,-0.0635 0.0675,0.0565 v 4.33633 4.30202 a 0.9603462,0.94192325 0 0 0 0.96025,0.94181 h 22.433296 c 0.335796,0 0.575156,0.23477 0.575156,0.56411 v 7.83631 c 0,0.32936 -0.23936,0.56412 -0.575156,0.56412 H 31.07096 a 0.9603462,0.94192325 0 0 0 -0.96025,0.94184 v 4.30199 4.33633 c 0,0.0545 -0.0179,0.0658 -0.0451,0.0663 -0.006,1.2e-4 -0.0142,-10e-4 -0.0225,-0.007 L 9.9353598,32.047864 c -0.0259,-0.0181 -0.0375,-0.039 -0.0375,-0.0589 z" />
  </g>
</svg>
