<?xml version="1.0" encoding="UTF-8" standalone="no"?>
<svg
   xmlns:dc="http://purl.org/dc/elements/1.1/"
   xmlns:cc="http://creativecommons.org/ns#"
   xmlns:rdf="http://www.w3.org/1999/02/22-rdf-syntax-ns#"
   xmlns:svg="http://www.w3.org/2000/svg"
   xmlns="http://www.w3.org/2000/svg"
   xmlns:sodipodi="http://sodipodi.sourceforge.net/DTD/sodipodi-0.dtd"
   xmlns:inkscape="http://www.inkscape.org/namespaces/inkscape"
   width="64"
   height="64"
   viewBox="0 0 16.933333 16.933334"
   version="1.1"
   id="svg841"
   inkscape:version="1.0.2 (e86c870879, 2021-01-15)"
   sodipodi:docname="vc-resolve-24.svg">
  <defs
     id="defs835" />
  <sodipodi:namedview
     id="base"
     pagecolor="#c4c4c4"
     bordercolor="#666666"
     borderopacity="1.0"
     inkscape:pageopacity="0"
     inkscape:pageshadow="2"
     inkscape:zoom="2.8903394"
     inkscape:cx="46.372831"
     inkscape:cy="36.927888"
     inkscape:document-units="px"
     inkscape:current-layer="layer1"
     inkscape:document-rotation="0"
     showgrid="false"
     units="px"
     inkscape:window-width="2048"
     inkscape:window-height="1080"
     inkscape:window-x="0"
     inkscape:window-y="0"
     inkscape:window-maximized="1" />
  <metadata
     id="metadata838">
    <rdf:RDF>
      <cc:Work
         rdf:about="">
        <dc:format>image/svg+xml</dc:format>
        <dc:type
           rdf:resource="http://purl.org/dc/dcmitype/StillImage" />
        <dc:title />
      </cc:Work>
    </rdf:RDF>
  </metadata>
  <g
     inkscape:label="Layer 1"
     inkscape:groupmode="layer"
     id="layer1">
    <path
       id="rect954-7-0-7-3-0-0-5-1-3-4-5-0-1-4-1-0"
       style="color:#000000;font-style:normal;font-variant:normal;font-weight:normal;font-stretch:normal;font-size:medium;line-height:normal;font-family:sans-serif;font-variant-ligatures:normal;font-variant-position:normal;font-variant-caps:normal;font-variant-numeric:normal;font-variant-alternates:normal;font-variant-east-asian:normal;font-feature-settings:normal;font-variation-settings:normal;text-indent:0;text-align:start;text-decoration:none;text-decoration-line:none;text-decoration-style:solid;text-decoration-color:#000000;letter-spacing:normal;word-spacing:normal;text-transform:none;writing-mode:lr-tb;direction:ltr;text-orientation:mixed;dominant-baseline:auto;baseline-shift:baseline;text-anchor:start;white-space:normal;shape-padding:0;shape-margin:0;inline-size:0;clip-rule:nonzero;display:inline;overflow:visible;visibility:visible;opacity:0.15;isolation:auto;mix-blend-mode:normal;color-interpolation:sRGB;color-interpolation-filters:linearRGB;solid-color:#000000;solid-opacity:1;vector-effect:none;fill:#0c0c0c;fill-opacity:1;fill-rule:nonzero;stroke:none;stroke-width:0.264583;stroke-linecap:round;stroke-linejoin:round;stroke-miterlimit:4;stroke-dasharray:none;stroke-dashoffset:2.1875;stroke-opacity:1;color-rendering:auto;image-rendering:auto;shape-rendering:auto;text-rendering:auto;enable-background:accumulate;stop-color:#000000"
       d="m 3.4395834,2.6458334 c -0.652743,0 -1.190625,0.5378979 -1.190625,1.190625 V 13.890625 c 0,0.652754 0.537882,1.190625 1.190625,1.190625 H 13.49375 c 0.652762,0 1.190633,-0.537871 1.190633,-1.190625 V 3.8364584 c 0,-0.6527271 -0.537871,-1.190625 -1.190633,-1.190625 z m 0,0.79375 H 13.49375 c 0.226722,0 0.396875,0.1701536 0.396875,0.396875 V 13.890625 c 0,0.226748 -0.170153,0.396875 -0.396875,0.396875 H 3.4395834 c -0.2267347,0 -0.396875,-0.170127 -0.396875,-0.396875 V 3.8364584 c 0,-0.2267214 0.1701403,-0.396875 0.396875,-0.396875 z" />
    <path
       id="rect954-7-0-7-3-0-0-5-1-3-4-5-0-6-3-7"
       style="color:#000000;font-style:normal;font-variant:normal;font-weight:normal;font-stretch:normal;font-size:medium;line-height:normal;font-family:sans-serif;font-variant-ligatures:normal;font-variant-position:normal;font-variant-caps:normal;font-variant-numeric:normal;font-variant-alternates:normal;font-variant-east-asian:normal;font-feature-settings:normal;font-variation-settings:normal;text-indent:0;text-align:start;text-decoration:none;text-decoration-line:none;text-decoration-style:solid;text-decoration-color:#000000;letter-spacing:normal;word-spacing:normal;text-transform:none;writing-mode:lr-tb;direction:ltr;text-orientation:mixed;dominant-baseline:auto;baseline-shift:baseline;text-anchor:start;white-space:normal;shape-padding:0;shape-margin:0;inline-size:0;clip-rule:nonzero;display:inline;overflow:visible;visibility:visible;opacity:0.95;isolation:auto;mix-blend-mode:normal;color-interpolation:sRGB;color-interpolation-filters:linearRGB;solid-color:#000000;solid-opacity:1;vector-effect:none;fill:#0a5c4b;fill-opacity:1;fill-rule:nonzero;stroke:none;stroke-width:0.264583;stroke-linecap:round;stroke-linejoin:round;stroke-miterlimit:4;stroke-dasharray:none;stroke-dashoffset:2.1875;stroke-opacity:1;color-rendering:auto;image-rendering:auto;shape-rendering:auto;text-rendering:auto;enable-background:accumulate;stop-color:#000000"
       d="m 3.4395834,2.2489584 c -0.652743,0 -1.190625,0.5378979 -1.190625,1.190625 V 13.49375 c 0,0.652754 0.537882,1.190625 1.190625,1.190625 H 13.49375 c 0.652754,0 1.190625,-0.537871 1.190625,-1.190625 V 3.4395834 c 0,-0.6527271 -0.537871,-1.190625 -1.190625,-1.190625 z m 0,0.79375 H 13.49375 c 0.226722,0 0.396875,0.1701536 0.396875,0.396875 V 13.49375 c 0,0.226748 -0.170153,0.396875 -0.396875,0.396875 H 3.4395834 c -0.2267347,0 -0.396875,-0.170127 -0.396875,-0.396875 V 3.4395834 c 0,-0.2267214 0.1701403,-0.396875 0.396875,-0.396875 z" />
    <rect
       style="fill:#fbfaf9;fill-opacity:1;stroke-width:0.130969;stroke-linecap:round;stroke-linejoin:round;stroke-miterlimit:4;stroke-dasharray:none;stroke-dashoffset:2.1875"
       id="rect954-7-0-7-3-0-0-5-1-3-4-9-1-5"
       width="11.641667"
       height="11.641667"
       x="2.6458335"
       y="2.6458657"
       rx="0.79375005"
       ry="0.79375005" />
    <path
       id="rect16-6-1-5-5-9-7-6-0-1-6-7-7-2-9"
       style="display:inline;opacity:0.25;fill:#0c0c0c;fill-opacity:1;stroke:none;stroke-width:0;stroke-miterlimit:4;stroke-dasharray:none"
       d="m 11.710382,5.5566735 c -0.288393,-0.00503 -0.574307,0.1287198 -0.752901,0.3831696 L 7.496244,10.870909 5.928384,9.0064434 C 5.6081482,8.6256815 5.0430881,8.5759927 4.6614478,8.8954771 4.2798101,9.2149615 4.2299706,9.7787092 4.5502037,10.159471 l 2.3125673,2.748836 c 0.134728,0.160179 0.312832,0.258974 0.502324,0.299058 0.01439,0.0034 0.0288,0.0056 0.04332,0.0082 0.0331,0.0053 0.06606,0.01005 0.09954,0.01164 0.0459,0.0032 0.09141,0.0026 0.13699,-0.0026 0.255726,-0.02223 0.499835,-0.14904 0.659228,-0.376158 l 4.12632,-5.8797561 C 12.716246,6.5614816 12.61845,6.0049041 12.210357,5.7198156 12.057314,5.6129239 11.883411,5.5593193 11.710377,5.5562501 Z" />
    <path
       id="rect16-6-1-5-5-9-7-6-0-1-6-0-3-3"
       style="display:inline;fill:#13af8e;fill-opacity:1;stroke:none;stroke-width:0;stroke-miterlimit:4;stroke-dasharray:none"
       d="M 11.710382,4.8952151 C 11.421986,4.890188 11.136075,5.0239349 10.957481,5.2783847 L 7.496244,10.209451 5.928384,8.344985 C 5.6081482,7.9642231 5.0430881,7.9145344 4.6614478,8.2340187 4.2798101,8.5535031 4.2299706,9.1172509 4.5502037,9.4980127 L 6.862771,12.246848 c 0.134728,0.160179 0.312832,0.258975 0.502324,0.299059 0.01439,0.0034 0.0288,0.0056 0.04332,0.0082 0.0331,0.0053 0.06606,0.01005 0.09954,0.01164 0.0459,0.0032 0.09141,0.0026 0.13699,-0.0026 0.255726,-0.02223 0.499835,-0.14904 0.659228,-0.376158 l 4.12632,-5.8797564 C 12.716246,5.9000233 12.61845,5.3434458 12.210357,5.0583572 12.057314,4.9514655 11.883411,4.897861 11.710377,4.8947918 Z" />
    <path
       id="rect16-6-1-5-5-9-7-6-0-1-6-5-3-92-9-4"
       style="color:#000000;font-style:normal;font-variant:normal;font-weight:normal;font-stretch:normal;font-size:medium;line-height:normal;font-family:sans-serif;font-variant-ligatures:normal;font-variant-position:normal;font-variant-caps:normal;font-variant-numeric:normal;font-variant-alternates:normal;font-variant-east-asian:normal;font-feature-settings:normal;font-variation-settings:normal;text-indent:0;text-align:start;text-decoration:none;text-decoration-line:none;text-decoration-style:solid;text-decoration-color:#000000;letter-spacing:normal;word-spacing:normal;text-transform:none;writing-mode:lr-tb;direction:ltr;text-orientation:mixed;dominant-baseline:auto;baseline-shift:baseline;text-anchor:start;white-space:normal;shape-padding:0;shape-margin:0;inline-size:0;clip-rule:nonzero;display:inline;overflow:visible;visibility:visible;isolation:auto;mix-blend-mode:normal;color-interpolation:sRGB;color-interpolation-filters:linearRGB;solid-color:#000000;solid-opacity:1;vector-effect:none;fill:#0a5c4b;fill-opacity:1;fill-rule:nonzero;stroke:none;stroke-width:0.26462;stroke-linecap:round;stroke-linejoin:round;stroke-miterlimit:4;stroke-dasharray:none;stroke-dashoffset:0;stroke-opacity:1;color-rendering:auto;image-rendering:auto;shape-rendering:auto;text-rendering:auto;enable-background:accumulate;stop-color:#000000"
       d="m 11.713784,4.7630028 a 0.13234231,0.1323049 0 0 0 -0.06203,0.014552 c -0.308751,0.013758 -0.610661,0.1531408 -0.801728,0.4252913 L 7.486491,9.9937625 6.0288039,8.2605565 C 5.662774,7.8254492 5.011473,7.7683521 4.5752518,8.1334242 4.1391047,8.4984433 4.0820024,9.1488156 4.4480931,9.5839759 L 6.761266,12.332653 c 0.15449,0.183621 0.360159,0.297418 0.576358,0.343138 0.01966,0.0045 0.03626,0.0074 0.04704,0.0093 a 0.13234231,0.1323049 0 0 0 0.0026,0 c 0.03425,0.0056 0.07205,0.01085 0.113718,0.01296 h 5.29e-4 c 0.0506,0.0034 0.10242,0.0026 0.154557,-0.0032 0.291816,-0.0254 0.573611,-0.171873 0.756237,-0.432012 L 12.539877,6.3830731 C 12.866447,5.9178826 12.753467,5.2757918 12.28711,4.9500897 12.112472,4.8281432 11.912685,4.7660191 11.713856,4.7625001 Z m -0.0047,0.2651125 a 0.13234231,0.1323049 0 0 0 0.0016,0 c 0.146804,0.00291 0.293847,0.048022 0.4249,0.1395148 0.350062,0.244475 0.432745,0.7148778 0.18764,1.0640219 l -4.127532,5.879756 c -0.136247,0.194046 -0.34262,0.301281 -0.562398,0.320384 a 0.13234231,0.1323049 0 0 0 -0.0036,0 c -0.03657,0.0042 -0.07379,0.0048 -0.112686,0.0026 a 0.13234231,0.1323049 0 0 0 -0.0031,0 c -0.02431,0 -0.05157,-0.005 -0.08219,-0.0098 h -0.0026 c -0.01548,-0.0029 -0.02717,-0.0048 -0.0336,-0.0061 a 0.13234231,0.1323049 0 0 0 -0.0031,0 C 7.229519,12.384042 7.078939,12.299932 6.963901,12.163222 L 4.6501792,9.4146161 C 4.3756237,9.0882525 4.4179491,8.6111029 4.7452916,8.3371533 5.0725627,8.0632567 5.5520486,8.105299 5.8266675,8.4317154 L 7.394975,10.296208 a 0.13234231,0.1323049 0 0 0 0.209349,-0.0087 L 11.06659,5.3565175 c 0.153016,-0.2179638 0.396459,-0.3313907 0.642519,-0.3271044 z" />
  </g>
</svg>
