<?xml version="1.0" encoding="UTF-8" standalone="no"?>
<svg
   xmlns:dc="http://purl.org/dc/elements/1.1/"
   xmlns:cc="http://creativecommons.org/ns#"
   xmlns:rdf="http://www.w3.org/1999/02/22-rdf-syntax-ns#"
   xmlns:svg="http://www.w3.org/2000/svg"
   xmlns="http://www.w3.org/2000/svg"
   xmlns:xlink="http://www.w3.org/1999/xlink"
   xmlns:sodipodi="http://sodipodi.sourceforge.net/DTD/sodipodi-0.dtd"
   xmlns:inkscape="http://www.inkscape.org/namespaces/inkscape"
   width="64"
   height="64"
   viewBox="0 0 64 64"
   version="1.1"
   id="svg6374"
   inkscape:version="1.0.2 (e86c870879, 2021-01-15)"
   sodipodi:docname="software-update-available.svg">
  <defs
     id="defs6368">
    <linearGradient
       inkscape:collect="always"
       xlink:href="#linearGradient2607"
       id="linearGradient1464"
       gradientUnits="userSpaceOnUse"
       gradientTransform="matrix(1.0350877,0,0,1.0350877,-1.1227751,-1.1227743)"
       x1="32.021549"
       y1="3.5000002"
       x2="31.840481"
       y2="60.428127" />
    <linearGradient
       inkscape:collect="always"
       id="linearGradient2607">
      <stop
         style="stop-color:#fcc231;stop-opacity:1"
         offset="0"
         id="stop2603" />
      <stop
         style="stop-color:#f2ae03;stop-opacity:1"
         offset="1"
         id="stop2605" />
    </linearGradient>
    <linearGradient
       inkscape:collect="always"
       xlink:href="#linearGradient3491"
       id="linearGradient3484"
       gradientUnits="userSpaceOnUse"
       gradientTransform="translate(-53.154604,-410.3611)"
       x1="85.156502"
       y1="426.36111"
       x2="85.17971"
       y2="452.22882" />
    <linearGradient
       inkscape:collect="always"
       id="linearGradient3491">
      <stop
         style="stop-color:#a17203;stop-opacity:1"
         offset="0"
         id="stop3487" />
      <stop
         style="stop-color:#a07203;stop-opacity:0"
         offset="1"
         id="stop3489" />
    </linearGradient>
  </defs>
  <sodipodi:namedview
     id="base"
     pagecolor="#cecece"
     bordercolor="#666666"
     borderopacity="1.0"
     inkscape:pageopacity="0"
     inkscape:pageshadow="2"
     inkscape:zoom="5.5639287"
     inkscape:cx="8.3100654"
     inkscape:cy="29.551801"
     inkscape:document-units="px"
     inkscape:current-layer="layer1"
     inkscape:document-rotation="0"
     showgrid="false"
     units="px"
     inkscape:window-width="1500"
     inkscape:window-height="970"
     inkscape:window-x="68"
     inkscape:window-y="56"
     inkscape:window-maximized="0" />
  <metadata
     id="metadata6371">
    <rdf:RDF>
      <cc:Work
         rdf:about="">
        <dc:format>image/svg+xml</dc:format>
        <dc:type
           rdf:resource="http://purl.org/dc/dcmitype/StillImage" />
        <dc:title></dc:title>
      </cc:Work>
    </rdf:RDF>
  </metadata>
  <g
     inkscape:label="Layer 1"
     inkscape:groupmode="layer"
     id="layer1">
    <path
       id="path967-7-9-3-3-87-3-5-9-2-0-9-2"
       style="color:#000000;font-style:normal;font-variant:normal;font-weight:normal;font-stretch:normal;font-size:medium;line-height:normal;font-family:sans-serif;font-variant-ligatures:normal;font-variant-position:normal;font-variant-caps:normal;font-variant-numeric:normal;font-variant-alternates:normal;font-variant-east-asian:normal;font-feature-settings:normal;font-variation-settings:normal;text-indent:0;text-align:start;text-decoration:none;text-decoration-line:none;text-decoration-style:solid;text-decoration-color:#000000;letter-spacing:normal;word-spacing:normal;text-transform:none;writing-mode:lr-tb;direction:ltr;text-orientation:mixed;dominant-baseline:auto;baseline-shift:baseline;text-anchor:start;white-space:normal;shape-padding:0;shape-margin:0;inline-size:0;clip-rule:nonzero;display:inline;overflow:visible;visibility:visible;opacity:0.2;isolation:auto;mix-blend-mode:normal;color-interpolation:sRGB;color-interpolation-filters:linearRGB;solid-color:#000000;solid-opacity:1;vector-effect:none;fill:#0c0c0c;fill-opacity:1;fill-rule:nonzero;stroke:none;stroke-linecap:round;stroke-linejoin:round;stroke-miterlimit:4;stroke-dasharray:none;stroke-dashoffset:2.1875;stroke-opacity:1;color-rendering:auto;image-rendering:auto;shape-rendering:auto;text-rendering:auto;enable-background:accumulate;stop-color:#000000"
       d="m 32.023453,1.7500317 c -0.795598,-6.3e-4 -1.376948,0.35335 -1.84375,0.72461 -0.466802,0.37126 -0.859913,0.81461 -1.25,1.31055 -0.780174,0.9918701 -1.530278,2.2123801 -2.267578,3.4374999 -0.7373,1.2251098 -1.456262,2.4525097 -2.083985,3.3769504 -0.502626,0.74021 -1.064586,1.24482 -1.164062,1.375 -0.166132,-0.0214 -0.917708,0.0163 -1.792969,-0.15234 -1.097356,-0.21143 -2.474067,-0.57297 -3.861328,-0.91992 -1.387261,-0.34696 -2.78031,-0.68246 -4.033203,-0.83399 -0.626447,-0.0758 -1.217842,-0.1115907 -1.810547,-0.0449 -0.592705,0.0667 -1.255344,0.22693 -1.818359,0.78906 -0.5629916,0.56211 -0.7214506,1.22382 -0.7890616,1.81641 -0.06761,0.59258 -0.03375,1.184 0.04102,1.81055 0.149534,1.25308 0.481425,2.64546 0.8261706,4.0332 0.344746,1.38774 0.704382,2.76564 0.914062,3.86328 0.167244,0.87549 0.129039,1.62686 0.150391,1.79297 -0.130367,0.0993 -0.635894,0.66042 -1.3769516,1.16211 -0.9254971,0.62655 -2.1545371,1.34433 -3.3808601,2.08008 -1.226322,0.73574 -2.448314,1.48479 -3.441406,2.26367 -0.4965456,0.38944 -0.9405416,0.78178 -1.3124996,1.24805 -0.371957,0.46626 -0.727891,1.04813 -0.728515,1.84375 -6.2299e-4,0.79559 0.3553,1.37695 0.726562,1.84375 0.371262,0.46679 0.812657,0.85991 1.3085936,1.25 0.991875,0.78017 2.212387,1.53027 3.4375,2.26757 1.225113,0.7373 2.454472,1.45627 3.3789061,2.08399 0.7402056,0.50262 1.2433606,1.06458 1.3730456,1.16406 -0.02138,0.16613 0.01629,0.91771 -0.152344,1.79297 -0.211429,1.09735 -0.572961,2.47407 -0.919922,3.86133 -0.3469576,1.38726 -0.6804976,2.78031 -0.8320276,4.0332 -0.07576,0.62645 -0.1115901,1.21784 -0.04492,1.81055 0.06667,0.5927 0.2249771,1.25534 0.7871086,1.81836 0.562109,0.56299 1.223819,0.72145 1.816406,0.78906 0.592587,0.0676 1.184005,0.0337 1.810547,-0.041 1.253088,-0.14953 2.647416,-0.48142 4.035156,-0.82617 1.387741,-0.34474 2.765645,-0.70438 3.863282,-0.91406 0.875485,-0.16724 1.626854,-0.12904 1.792968,-0.15039 0.09929,0.13037 0.66042,0.6359 1.16211,1.37695 0.626553,0.9255 1.344335,2.15454 2.080078,3.38086 0.735744,1.22632 1.482837,2.44832 2.261719,3.44141 0.389441,0.49654 0.783735,0.94054 1.25,1.3125 0.466265,0.37196 1.046179,0.72789 1.841797,0.72851 0.795627,7.1e-4 1.37693,-0.3553 1.84375,-0.72656 0.466819,-0.37125 0.859909,-0.81266 1.25,-1.30859 0.78018,-0.99188 1.530276,-2.21237 2.267578,-3.4375 0.737301,-1.22513 1.458213,-2.45446 2.085937,-3.37891 0.501807,-0.73901 1.061772,-1.24379 1.16211,-1.375 0.166634,0.0219 0.91966,-0.0143 1.794921,0.1543 1.097356,0.21143 2.474067,0.57296 3.861329,0.91992 1.387261,0.34696 2.780321,0.6805 4.033211,0.83203 0.62645,0.0758 1.215891,0.11159 1.808591,0.0449 0.592709,-0.0667 1.25535,-0.22497 1.818359,-0.78711 0.563001,-0.56211 0.723411,-1.22577 0.791021,-1.81836 0.0676,-0.59258 0.0338,-1.18205 -0.041,-1.80859 -0.14954,-1.25309 -0.48338,-2.64741 -0.82813,-4.03516 -0.34474,-1.38774 -0.70243,-2.76564 -0.91211,-3.86328 -0.16724,-0.87549 -0.12903,-1.62685 -0.15039,-1.79297 0.13037,-0.0993 0.6359,-0.66041 1.37696,-1.16211 0.92549,-0.62655 2.15453,-1.34433 3.38086,-2.08007 1.22632,-0.73575 2.448309,-1.48479 3.4414,-2.26368 0.49655,-0.38944 0.938589,-0.78178 1.31055,-1.24804 0.37196,-0.46627 0.72789,-1.04618 0.72851,-1.8418 6.4e-4,-0.7956 -0.353341,-1.37695 -0.72461,-1.84375 -0.37126,-0.4668 -0.8146,-0.86187 -1.310541,-1.25195 -0.991879,-0.78018 -2.212389,-1.52833 -3.4375,-2.26563 -1.225119,-0.7373 -2.45252,-1.45821 -3.376959,-2.08594 -0.739,-0.5018 -1.24378,-1.06176 -1.375,-1.1621 0.0214,-0.16664 -0.0163,-0.91966 0.15235,-1.79493 0.21143,-1.09735 0.57296,-2.47406 0.919919,-3.86132 0.346961,-1.38727 0.68246,-2.78031 0.83398,-4.03321 0.0758,-0.62644 0.10964,-1.21784 0.043,-1.81054 -0.0667,-0.59271 -0.22497,-1.2534 -0.7871,-1.81641 -0.56211,-0.56299 -1.22382,-0.72341 -1.81641,-0.79102 -0.59259,-0.0676 -1.18401,-0.0337 -1.81055,0.041 -1.25308,0.14954 -2.645468,0.48338 -4.033209,0.82813 -1.387741,0.34475 -2.765644,0.70243 -3.863281,0.91211 -0.875485,0.16724 -1.626854,0.12904 -1.792969,0.15039 -0.09935,-0.13037 -0.660475,-0.6359 -1.162165,-1.37695 C 38.832446,9.6858723 38.114664,8.4568324 37.378921,7.2305126 36.643177,6.0041822 35.89413,4.7821922 35.115249,3.7891021 c -0.389441,-0.49655 -0.781782,-0.93859 -1.248047,-1.31055 -0.466265,-0.37195 -1.048132,-0.72789 -1.84375,-0.72851 z m -0.002,3.0996101 c 0.175844,0.14459 0.438428,0.41617 0.732422,0.79102 0.608339,0.77564 1.330466,1.9289496 2.052734,3.1328095 0.722268,1.20386 1.45054,2.4598007 2.167969,3.5195307 0.717429,1.05973 1.227874,1.97724 2.482422,2.49805 1.254511,0.52078 2.262641,0.23424 3.519531,-0.006 1.256889,-0.2401 2.661118,-0.61079 4.023437,-0.94922 1.362319,-0.33843 2.687373,-0.64298 3.666023,-0.75977 0.47217,-0.0563 0.84951,-0.0594 1.07617,-0.0371 0.022,0.22671 0.018,0.60406 -0.0391,1.07618 -0.11835,0.97851 -0.42502,2.30416 -0.76563,3.66601 -0.3406,1.36185 -0.71297,2.76493 -0.95507,4.02149 -0.24211,1.25656 -0.52861,2.26416 -0.01,3.51953 0.51886,1.25544 1.43358,1.7675 2.49218,2.48633 1.05861,0.71882 2.31295,1.45003 3.51563,2.17383 1.202671,0.72378 2.35626,1.44541 3.130861,2.05468 0.373859,0.29407 0.64268,0.55644 0.78711,0.73242 -0.1446,0.17585 -0.414221,0.44039 -0.789071,0.73438 -0.77564,0.60834 -1.92895,1.32851 -3.13281,2.05078 -1.20386,0.72227 -2.4598,1.45054 -3.51953,2.16797 -1.05973,0.71743 -1.97724,1.22788 -2.49805,2.48242 -0.52078,1.25451 -0.23424,2.26459 0.006,3.52149 0.24011,1.25689 0.61079,2.65916 0.94922,4.02148 0.33843,1.36232 0.64298,2.68932 0.75977,3.66797 0.0563,0.47214 0.0594,0.84755 0.0371,1.07422 -0.22671,0.022 -0.60406,0.018 -1.07617,-0.0391 -0.97852,-0.11834 -2.304174,-0.42502 -3.666023,-0.76562 -1.361851,-0.3406 -2.764926,-0.71298 -4.021484,-0.95508 -1.256558,-0.2421 -2.264157,-0.5286 -3.519531,-0.01 -1.255462,0.51887 -1.767503,1.43552 -2.486328,2.49414 -0.718826,1.05862 -1.450035,2.31294 -2.173828,3.51562 -0.723794,1.20269 -1.445421,2.35432 -2.054688,3.12891 -0.293687,0.37337 -0.556439,0.64253 -0.732422,0.78711 -0.175863,-0.14477 -0.440759,-0.4147 -0.734375,-0.78906 -0.60834,-0.77565 -1.328512,-1.92896 -2.050781,-3.13282 -0.722269,-1.20386 -1.450539,-2.4598 -2.167969,-3.51953 -0.717429,-1.05973 -1.22787,-1.97529 -2.482422,-2.49609 -1.254512,-0.52079 -2.264593,-0.2362 -3.521484,0.004 -1.256891,0.24011 -2.659164,0.61079 -4.021485,0.94922 -1.362319,0.33843 -2.689323,0.64298 -3.667968,0.75977 -0.473002,0.0564 -0.849697,0.0596 -1.076172,0.0371 -0.02195,-0.22671 -0.01608,-0.60406 0.04102,-1.07617 0.118344,-0.97852 0.423066,-2.30222 0.763671,-3.66407 0.340606,-1.36185 0.712975,-2.76492 0.955079,-4.02148 0.242101,-1.25656 0.53056,-2.26611 0.01172,-3.52149 -0.518865,-1.25543 -1.435539,-1.7675 -2.49414,-2.48632 -1.058602,-0.71883 -2.3129517,-1.44808 -3.5156237,-2.17188 -1.202673,-0.72379 -2.354303,-1.44541 -3.128907,-2.05469 -0.373401,-0.2937 -0.642515,-0.55837 -0.787109,-0.73437 0.144764,-0.17586 0.414696,-0.44076 0.789063,-0.73438 0.775646,-0.60834 1.92895,-1.32851 3.132812,-2.05078 1.203862,-0.72227 2.4597987,-1.45054 3.5195297,-2.16797 1.059732,-0.71742 1.975287,-1.22787 2.496094,-2.48242 0.520785,-1.25451 0.236196,-2.26264 -0.0039,-3.51953 -0.240103,-1.25689 -0.610788,-2.66112 -0.949219,-4.02344 -0.338431,-1.36232 -0.642982,-2.68737 -0.759766,-3.66601 -0.05634,-0.47218 -0.05942,-0.84952 -0.03711,-1.07618 0.226714,-0.0219 0.602137,-0.018 1.074219,0.0391 0.978514,0.11835 2.304164,0.42502 3.666015,0.76563 1.361852,0.3406 2.764927,0.71298 4.021485,0.95508 1.256558,0.2421 2.26611,0.5286 3.521484,0.01 1.25544,-0.51887 1.765549,-1.43359 2.484375,-2.49219 0.718826,-1.0586 1.450033,-2.3129507 2.173828,-3.5156307 0.723795,-1.2026699 1.445413,-2.3562495 2.054688,-3.1308595 0.294444,-0.37434 0.558414,-0.6448 0.734375,-0.78906 z" />
    <path
       id="path967-7-9-3-3-87-3-5-9-2-0-1-6-3"
       style="color:#000000;font-style:normal;font-variant:normal;font-weight:normal;font-stretch:normal;font-size:medium;line-height:normal;font-family:sans-serif;font-variant-ligatures:normal;font-variant-position:normal;font-variant-caps:normal;font-variant-numeric:normal;font-variant-alternates:normal;font-variant-east-asian:normal;font-feature-settings:normal;font-variation-settings:normal;text-indent:0;text-align:start;text-decoration:none;text-decoration-line:none;text-decoration-style:solid;text-decoration-color:#000000;letter-spacing:normal;word-spacing:normal;text-transform:none;writing-mode:lr-tb;direction:ltr;text-orientation:mixed;dominant-baseline:auto;baseline-shift:baseline;text-anchor:start;white-space:normal;shape-padding:0;shape-margin:0;inline-size:0;clip-rule:nonzero;display:inline;overflow:visible;visibility:visible;isolation:auto;mix-blend-mode:normal;color-interpolation:sRGB;color-interpolation-filters:linearRGB;solid-color:#000000;solid-opacity:1;vector-effect:none;fill:#a17302;fill-opacity:1;fill-rule:nonzero;stroke:none;stroke-linecap:round;stroke-linejoin:round;stroke-miterlimit:4;stroke-dasharray:none;stroke-dashoffset:2.1875;stroke-opacity:1;color-rendering:auto;image-rendering:auto;shape-rendering:auto;text-rendering:auto;enable-background:accumulate;stop-color:#000000"
       d="m 32.02345,1.0000008 c -0.7956,-6.2996e-4 -1.37695,0.35335 -1.84375,0.72461 -0.4668,0.37126 -0.85991,0.81461 -1.25,1.31055 -0.78017,0.99187 -1.53028,2.21238 -2.26758,3.4375 -0.7373,1.2251096 -1.45626,2.4525095 -2.08398,3.3769495 -0.50263,0.7402107 -1.06459,1.2448207 -1.16406,1.3750007 -0.166129,-0.0214 -0.91771,0.0163 -1.79297,-0.15234 -1.09736,-0.21143 -2.47407,-0.57297 -3.86133,-0.91993 -1.38726,-0.3469507 -2.78031,-0.6824507 -4.0332,-0.8339807 -0.62645,-0.0758 -1.21784,-0.11159 -1.81055,-0.0449 -0.5927,0.0667 -1.255339,0.22693 -1.81836,0.7890607 -0.5629896,0.56211 -0.7214496,1.22382 -0.7890596,1.81641 -0.0676,0.59258 -0.0337,1.184 0.041,1.81054 0.149531,1.25309 0.48142,2.64547 0.8261706,4.03321 0.344749,1.38774 0.70438,2.76564 0.91406,3.86328 0.167249,0.87549 0.129039,1.62686 0.150389,1.79297 -0.13036,0.0993 -0.63589,0.66042 -1.3769486,1.16211 -0.9255001,0.62655 -2.1545401,1.34433 -3.3808601,2.08008 -1.226321,0.73574 -2.44831,1.48479 -3.4414,2.26367 -0.4965505,0.38944 -0.9405505,0.78178 -1.3125005,1.24805 -0.37196,0.46626 -0.7279,1.04813 -0.72852,1.84375 -6.1999e-4,0.79559 0.3553,1.37695 0.72656,1.84375 0.37126,0.46679 0.81266,0.85991 1.3086005,1.25 0.99187,0.78017 2.21238,1.53027 3.4375,2.26757 1.22511,0.7373 2.45447,1.45627 3.3788991,2.08399 0.7402096,0.50262 1.2433596,1.06458 1.3730496,1.16406 -0.0214,0.16613 0.0163,0.91771 -0.15234,1.79297 -0.21143,1.09735 -0.57297,2.47407 -0.91993,3.86133 -0.3469596,1.38726 -0.6804996,2.78031 -0.8320296,4.0332 -0.0758,0.62645 -0.1115901,1.21784 -0.0449,1.81055 0.0667,0.5927 0.2249801,1.25534 0.7871106,1.81836 0.56211,0.56299 1.22382,0.72145 1.81641,0.78906 0.59258,0.0676 1.184,0.0337 1.81054,-0.041 1.25309,-0.14953 2.64742,-0.48142 4.03516,-0.82617 1.38774,-0.34474 2.765641,-0.70438 3.86328,-0.91406 0.87549,-0.16724 1.62686,-0.12904 1.79297,-0.15039 0.0993,0.13037 0.66042,0.6359 1.16211,1.37695 0.62655,0.9255 1.34434,2.15454 2.08008,3.38086 0.73574,1.22632 1.48283,2.44832 2.26172,3.44141 0.38944,0.49654 0.78373,0.94054 1.25,1.3125 0.46626,0.37196 1.04618,0.72789 1.84179,0.72851 0.79563,7.1e-4 1.37693,-0.3553 1.84375,-0.72656 0.46682,-0.37125 0.85991,-0.81266 1.25,-1.30859 0.78018,-0.99188 1.53028,-2.21237 2.26758,-3.4375 0.7373,-1.22513 1.45821,-2.45446 2.08594,-3.37891 0.50181,-0.73901 1.06177,-1.24379 1.16211,-1.375 0.16663,0.0219 0.91966,-0.0143 1.79492,0.1543 1.09736,0.21143 2.47407,0.57296 3.86133,0.91992 1.38726,0.34696 2.78032,0.6805 4.03321,0.83203 0.62645,0.0758 1.21589,0.11159 1.80859,0.0449 0.59271,-0.0667 1.25535,-0.22497 1.81836,-0.78711 0.563,-0.56211 0.72341,-1.22577 0.79102,-1.81836 0.0676,-0.59258 0.0338,-1.18205 -0.041,-1.80859 -0.14954,-1.25309 -0.48338,-2.64741 -0.82813,-4.03516 -0.34474,-1.38774 -0.70243,-2.76564 -0.91211,-3.86328 -0.16724,-0.87549 -0.12903,-1.62685 -0.15039,-1.79297 0.13037,-0.0993 0.6359,-0.66041 1.37696,-1.16211 0.92549,-0.62655 2.15453,-1.34433 3.38086,-2.08007 1.22632,-0.73575 2.44831,-1.48479 3.4414,-2.26368 0.49655,-0.38944 0.93859,-0.78178 1.31055,-1.24804 0.37196,-0.46627 0.72789,-1.04618 0.72851,-1.8418 6.4e-4,-0.7956 -0.35334,-1.37695 -0.72461,-1.84375 -0.37126,-0.4668 -0.8146,-0.86187 -1.31054,-1.25195 -0.99188,-0.78018 -2.21239,-1.52833 -3.4375,-2.26563 -1.22512,-0.7373 -2.45252,-1.45821 -3.37696,-2.08594 -0.739,-0.5018 -1.24378,-1.06176 -1.375,-1.1621 0.0214,-0.16664 -0.0163,-0.91966 0.15235,-1.79493 0.21143,-1.09735 0.57296,-2.47406 0.91992,-3.86133 0.34696,-1.38726 0.68246,-2.78031 0.83398,-4.0332 0.0758,-0.62645 0.10964,-1.21784 0.043,-1.81055 -0.0667,-0.5927 -0.22497,-1.25339 -0.7871,-1.8164 -0.56211,-0.5629907 -1.22382,-0.7234107 -1.81641,-0.7910207 -0.59259,-0.0676 -1.18401,-0.0337 -1.81055,0.041 -1.25308,0.14954 -2.64547,0.48338 -4.03321,0.8281307 -1.38774,0.34474 -2.76564,0.70243 -3.86328,0.91211 -0.87548,0.16724 -1.62685,0.12904 -1.79297,0.15039 -0.0994,-0.13037 -0.66047,-0.6359 -1.16216,-1.3769607 -0.62656,-0.92549 -1.34434,-2.1545299 -2.08008,-3.3808495 -0.73575,-1.22633 -1.48479,-2.44832 -2.26367,-3.44141 -0.38944,-0.49655 -0.78179,-0.93859 -1.24805,-1.31055 -0.46627,-0.37196 -1.04813,-0.72789 -1.84375,-0.72851 z m -0.002,3.09961 c 0.17585,0.14459 0.43843,0.41617 0.73242,0.79102 0.60834,0.77564 1.33047,1.92895 2.05274,3.1328096 0.72227,1.2038599 1.45054,2.4598006 2.16797,3.5195306 0.71743,1.05973 1.22787,1.97724 2.48242,2.498051 1.25451,0.52078 2.26264,0.23424 3.51953,-0.006 1.25689,-0.24011 2.66112,-0.610791 4.02344,-0.949221 1.36232,-0.33843 2.68737,-0.64298 3.66602,-0.75977 0.47217,-0.0564 0.84951,-0.0594 1.07617,-0.0371 0.022,0.22671 0.018,0.60406 -0.0391,1.07617 -0.11835,0.97852 -0.42502,2.30417 -0.76563,3.66602 -0.3406,1.361851 -0.71297,2.76493 -0.95507,4.02149 -0.24211,1.25656 -0.52861,2.26416 -0.01,3.51953 0.51886,1.25544 1.43358,1.7675 2.49218,2.48633 1.05861,0.71882 2.31295,1.45003 3.51563,2.17383 1.20267,0.72378 2.35626,1.44541 3.13086,2.05468 0.37386,0.29407 0.64268,0.55644 0.78711,0.73242 -0.1446,0.17585 -0.41422,0.44039 -0.78907,0.73438 -0.77564,0.60834 -1.92895,1.32851 -3.13281,2.05078 -1.20386,0.722271 -2.4598,1.45054 -3.51953,2.16797 -1.05973,0.71743 -1.97724,1.22788 -2.49805,2.48242 -0.52078,1.25451 -0.23424,2.26459 0.006,3.52149 0.24011,1.25689 0.61079,2.65916 0.94922,4.02148 0.33843,1.36232 0.64298,2.68932 0.75977,3.66797 0.0563,0.47214 0.0594,0.84755 0.0371,1.07422 -0.22671,0.022 -0.60406,0.018 -1.07617,-0.0391 -0.97852,-0.11834 -2.30417,-0.42502 -3.66602,-0.76562 -1.36185,-0.3406 -2.76493,-0.71298 -4.02149,-0.95508 -1.25655,-0.2421 -2.26415,-0.5286 -3.51953,-0.01 -1.25546,0.51887 -1.7675,1.43552 -2.48633,2.49414 -0.71882,1.05862 -1.45003,2.31294 -2.17382,3.51562 -0.7238,1.20269 -1.44542,2.35432 -2.05469,3.12891 -0.29369,0.37337 -0.55644,0.64253 -0.73242,0.78711 -0.17587,-0.14477 -0.44076,-0.4147 -0.73438,-0.78906 -0.60834,-0.77565 -1.32851,-1.92896 -2.05078,-3.13282 -0.72227,-1.20386 -1.45054,-2.4598 -2.16797,-3.51953 -0.71743,-1.05973 -1.22787,-1.97529 -2.48242,-2.49609 -1.25451,-0.52079 -2.26459,-0.2362 -3.52148,0.004 -1.2569,0.24011 -2.65917,0.61079 -4.02149,0.94922 -1.36232,0.33843 -2.68932,0.64298 -3.66797,0.75977 -0.473,0.0564 -0.84969,0.0596 -1.07617,0.0371 -0.0219,-0.22671 -0.0161,-0.60406 0.041,-1.07617 0.11834,-0.97852 0.42307,-2.30222 0.76367,-3.66407 0.34061,-1.36185 0.71298,-2.76492 0.95508,-4.02148 0.2421,-1.25656 0.53056,-2.26611 0.0117,-3.52149 -0.51886,-1.25543 -1.43554,-1.7675 -2.49414,-2.48632 -1.058599,-0.71883 -2.3129497,-1.44808 -3.5156187,-2.17188 -1.20268,-0.72379 -2.35431,-1.44541 -3.12891,-2.05469 -0.3734,-0.2937 -0.64252,-0.55837 -0.787111,-0.73437 0.144761,-0.17586 0.4147,-0.44076 0.789061,-0.73438 0.77565,-0.60834 1.928949,-1.32851 3.13281,-2.05078 1.203869,-0.72227 2.4597987,-1.45054 3.5195387,-2.16797 1.05973,-0.71742 1.97528,-1.22787 2.49609,-2.48242 0.52079,-1.25451 0.2362,-2.26264 -0.004,-3.51953 -0.240101,-1.25689 -0.610791,-2.66112 -0.949221,-4.02344 -0.33843,-1.36232 -0.64298,-2.68737 -0.759769,-3.66602 -0.0563,-0.47217 -0.0594,-0.84951 -0.0371,-1.07617 0.22671,-0.0219 0.602131,-0.018 1.07421,0.0391 0.97852,0.11835 2.30417,0.42502 3.666021,0.76563 1.361849,0.3406 2.76493,0.71297 4.021479,0.95508 1.25656,0.2421 2.266111,0.5286 3.52149,0.01 1.25544,-0.51887 1.765551,-1.43359 2.48437,-2.49219 0.718831,-1.05861 1.45004,-2.3129507 2.17383,-3.5156306 0.7238,-1.2026696 1.44541,-2.3562596 2.054691,-3.1308596 0.29444,-0.37434 0.558409,-0.6448 0.734369,-0.78906 z" />
    <path
       id="path967-7-9-3-3-87-3-5-3"
       style="display:inline;fill:url(#linearGradient1464);fill-opacity:1;stroke:none;stroke-width:7.26318;stroke-linecap:round;stroke-linejoin:round;stroke-miterlimit:4;stroke-dasharray:none;stroke-dashoffset:2.1875"
       d="m 32.022338,2.5000317 c -2.263219,-0.002 -5.93018,9.2780303 -8.021799,10.1424803 -2.091622,0.86445 -11.241467,-3.1175607 -12.843058,-1.51849 -1.6015926,1.59909 2.365781,10.75466 1.498047,12.84492 -0.867738,2.09026 -10.1537191,5.74556 -10.1554958,8.00878 -0.00177,2.26322 9.2780278,5.93019 10.1424838,8.02181 0.864458,2.09162 -3.1175736,11.24146 -1.518491,12.84305 1.599084,1.6016 10.754651,-2.36578 12.844917,-1.49804 2.090263,0.86773 5.745573,10.15371 8.008791,10.15549 2.263219,0.002 5.930174,-9.27803 8.021797,-10.14248 2.091619,-0.86446 11.241466,3.11757 12.843056,1.51849 1.601594,-1.59907 -2.365785,-10.75465 -1.498047,-12.84492 0.867739,-2.09026 10.153721,-5.74556 10.155493,-8.00878 0.0018,-2.26322 -9.278025,-5.93018 -10.142483,-8.0218 -0.864455,-2.09163 3.117576,-11.24146 1.518493,-12.84306 -1.599084,-1.6015907 -10.754654,2.36578 -12.844915,1.49805 -2.090264,-0.86774 -5.74557,-10.1537203 -8.008789,-10.1555003 z" />
    <path
       id="path1113-1-0-6-8-3-2-5-4-8-3-92-8-3-6-5-69-3-7-2-4"
       style="color:#000000;font-style:normal;font-variant:normal;font-weight:normal;font-stretch:normal;font-size:medium;line-height:normal;font-family:sans-serif;font-variant-ligatures:normal;font-variant-position:normal;font-variant-caps:normal;font-variant-numeric:normal;font-variant-alternates:normal;font-variant-east-asian:normal;font-feature-settings:normal;font-variation-settings:normal;text-indent:0;text-align:start;text-decoration:none;text-decoration-line:none;text-decoration-style:solid;text-decoration-color:#000000;letter-spacing:normal;word-spacing:normal;text-transform:none;writing-mode:lr-tb;direction:ltr;text-orientation:mixed;dominant-baseline:auto;baseline-shift:baseline;text-anchor:start;white-space:normal;shape-padding:0;shape-margin:0;inline-size:0;clip-rule:nonzero;display:inline;overflow:visible;visibility:visible;opacity:0.35;isolation:auto;mix-blend-mode:normal;color-interpolation:sRGB;color-interpolation-filters:linearRGB;solid-color:#000000;solid-opacity:1;vector-effect:none;fill:#5a4102;fill-opacity:0.6;fill-rule:nonzero;stroke:none;stroke-width:1.00011;stroke-linecap:round;stroke-linejoin:round;stroke-miterlimit:4;stroke-dasharray:none;stroke-dashoffset:0;stroke-opacity:1;color-rendering:auto;image-rendering:auto;shape-rendering:auto;text-rendering:auto;enable-background:accumulate;stop-color:#000000"
       d="m 32.000116,18 c -0.409295,-3e-5 -0.798696,0.178699 -1.050781,0.50586 L 19.748163,33.048828 c -0.164282,0.213497 -0.25456,0.47844 -0.248047,0.75 0.01637,0.688862 0.620803,1.200992 1.298828,1.201172 a 0.50016046,0.50005 0 0 0 0.002,0 h 6.878907 0.820312 v 14.750002 c 0,0.68385 0.566001,1.25 1.25,1.25 h 4.501953 c 0.683999,0 1.25,-0.56615 1.25,-1.25 V 35 h 0.820313 6.888672 a 0.50016046,0.50005 0 0 0 0.0059,0 c 0.492287,-0.004 0.918721,-0.266527 1.134766,-0.648437 0.216044,-0.381902 0.206447,-0.910322 -0.0957,-1.302735 L 33.054804,18.50586 C 32.802719,18.178698 32.409411,17.99997 32.000116,18 Z" />
    <path
       id="path1113-1-0-6-8-3-2-5-4-8-3-92-8-3-6-5-69-3-7"
       style="color:#000000;font-style:normal;font-variant:normal;font-weight:normal;font-stretch:normal;font-size:medium;line-height:normal;font-family:sans-serif;font-variant-ligatures:normal;font-variant-position:normal;font-variant-caps:normal;font-variant-numeric:normal;font-variant-alternates:normal;font-variant-east-asian:normal;font-feature-settings:normal;font-variation-settings:normal;text-indent:0;text-align:start;text-decoration:none;text-decoration-line:none;text-decoration-style:solid;text-decoration-color:#000000;letter-spacing:normal;word-spacing:normal;text-transform:none;writing-mode:lr-tb;direction:ltr;text-orientation:mixed;dominant-baseline:auto;baseline-shift:baseline;text-anchor:start;white-space:normal;shape-padding:0;shape-margin:0;inline-size:0;clip-rule:nonzero;display:inline;overflow:visible;visibility:visible;opacity:0.85;isolation:auto;mix-blend-mode:normal;color-interpolation:sRGB;color-interpolation-filters:linearRGB;solid-color:#000000;solid-opacity:1;vector-effect:none;fill:#785602;fill-opacity:1;fill-rule:nonzero;stroke:none;stroke-width:1.00011;stroke-linecap:round;stroke-linejoin:round;stroke-miterlimit:4;stroke-dasharray:none;stroke-dashoffset:0;stroke-opacity:1;color-rendering:auto;image-rendering:auto;shape-rendering:auto;text-rendering:auto;enable-background:accumulate;stop-color:#000000"
       d="m 32.001114,15.500021 c -0.409295,-3e-5 -0.798927,0.178699 -1.051012,0.50586 L 19.748408,30.54885 c -0.164282,0.213497 -0.254616,0.47844 -0.248102,0.75 0.01637,0.688862 0.621089,1.200992 1.299116,1.201172 a 0.50016046,0.50005 0 0 0 0.002,0 h 6.878473 0.820494 v 14.75 c 0,0.68385 0.566277,1.25 1.250276,1.25 h 4.500994 c 0.683999,0 1.250276,-0.56615 1.250276,-1.25 v -14.75 h 0.820493 6.888241 a 0.50016046,0.50005 0 0 0 0.0059,0 c 0.492287,-0.004 0.918972,-0.26653 1.135017,-0.64844 0.216044,-0.381902 0.20643,-0.910319 -0.09572,-1.302732 L 33.05408,16.005881 c -0.252085,-0.327161 -0.643671,-0.50589 -1.052966,-0.50586 z m 0,1 c 0.113515,-8e-6 0.213879,0.05307 0.261778,0.115235 l 11.199737,14.542968 c 0.06762,0.08782 0.05709,0.131341 0.01758,0.201172 -0.0395,0.06983 -0.121066,0.139259 -0.273496,0.140625 h -6.884335 -1.320603 a 0.50016046,0.50005 0 0 0 -0.50011,0.500001 v 15.25 c 0,0.14715 -0.102889,0.25 -0.250056,0.25 h -4.500993 c -0.147167,0 -0.250055,-0.10285 -0.250055,-0.25 v -15.25 a 0.50016046,0.50005 0 0 0 -0.50011,-0.500001 h -1.320603 -6.878473 c -0.19346,-5.1e-5 -0.300345,-0.121263 -0.302801,-0.224609 -9.15e-4,-0.03809 0.01003,-0.0769 0.04103,-0.117188 L 31.741292,16.615256 c 0.0479,-0.06216 0.146308,-0.115243 0.259822,-0.115235 z" />
    <path
       id="path1113-1-0-6-8-3-2-5-4-8-3-92-8-3-6-5-69"
       style="color:#000000;font-style:normal;font-variant:normal;font-weight:normal;font-stretch:normal;font-size:medium;line-height:normal;font-family:sans-serif;font-variant-ligatures:normal;font-variant-position:normal;font-variant-caps:normal;font-variant-numeric:normal;font-variant-alternates:normal;font-variant-east-asian:normal;font-feature-settings:normal;font-variation-settings:normal;text-indent:0;text-align:start;text-decoration:none;text-decoration-line:none;text-decoration-style:solid;text-decoration-color:#000000;letter-spacing:normal;word-spacing:normal;text-transform:none;writing-mode:lr-tb;direction:ltr;text-orientation:mixed;dominant-baseline:auto;baseline-shift:baseline;text-anchor:start;white-space:normal;shape-padding:0;shape-margin:0;inline-size:0;clip-rule:nonzero;display:inline;overflow:visible;visibility:visible;isolation:auto;mix-blend-mode:normal;color-interpolation:sRGB;color-interpolation-filters:linearRGB;solid-color:#000000;solid-opacity:1;vector-effect:none;fill:#fbfcfd;fill-opacity:1;fill-rule:nonzero;stroke:none;stroke-width:0;stroke-linecap:round;stroke-linejoin:round;stroke-miterlimit:4;stroke-dasharray:none;stroke-dashoffset:0;stroke-opacity:1;color-rendering:auto;image-rendering:auto;shape-rendering:auto;text-rendering:auto;enable-background:accumulate;stop-color:#000000"
       d="m 31.999949,16.00002 a 0.80118333,0.72863185 0 0 0 -0.656236,0.31055 L 20.144739,30.853542 a 0.80118333,0.72863185 0 0 0 -0.144528,0.43359 0.80118333,0.72863185 0 0 0 0.800764,0.71289 h 6.878757 1.320282 v 15.25 c 0,0.4155 0.334493,0.75 0.749985,0.75 h 4.499902 c 0.415491,0 0.749983,-0.3345 0.749983,-0.75 v -15.25 h 1.320284 6.886569 a 0.80118333,0.72863185 0 0 0 0.648424,-1.14648 L 32.656185,16.31057 a 0.80118333,0.72863185 0 0 0 -0.656236,-0.31055 z" />
    <path
       id="path967-7-9-3-3-87-3-5-9-2-9-7-2-9"
       style="color:#000000;font-style:normal;font-variant:normal;font-weight:normal;font-stretch:normal;font-size:medium;line-height:normal;font-family:sans-serif;font-variant-ligatures:normal;font-variant-position:normal;font-variant-caps:normal;font-variant-numeric:normal;font-variant-alternates:normal;font-variant-east-asian:normal;font-feature-settings:normal;font-variation-settings:normal;text-indent:0;text-align:start;text-decoration:none;text-decoration-line:none;text-decoration-style:solid;text-decoration-color:#000000;letter-spacing:normal;word-spacing:normal;text-transform:none;writing-mode:lr-tb;direction:ltr;text-orientation:mixed;dominant-baseline:auto;baseline-shift:baseline;text-anchor:start;white-space:normal;shape-padding:0;shape-margin:0;inline-size:0;clip-rule:nonzero;display:inline;overflow:visible;visibility:visible;isolation:auto;mix-blend-mode:normal;color-interpolation:sRGB;color-interpolation-filters:linearRGB;solid-color:#000000;solid-opacity:1;vector-effect:none;fill:#f0b727;fill-opacity:1;fill-rule:nonzero;stroke:none;stroke-linecap:round;stroke-linejoin:round;stroke-miterlimit:4;stroke-dasharray:none;stroke-dashoffset:2.1875;stroke-opacity:1;color-rendering:auto;image-rendering:auto;shape-rendering:auto;text-rendering:auto;enable-background:accumulate;stop-color:#000000"
       d="m 32.02346,2.5000209 c -2.263219,-0.002 -5.93182,9.2781281 -8.02344,10.1425781 -2.09162,0.864449 -11.24021,-3.1186027 -12.8418,-1.519531 -1.6015896,1.59909 2.36578,10.755443 1.49805,12.845703 -0.86774,2.09026 -10.1542492,5.746546 -10.1562492,8.009766 -0.002,2.263219 9.2781192,5.929864 10.1425792,8.021484 0.86445,2.09162 -3.1166596,11.240207 -1.51758,12.841797 1.599091,1.6016 10.75349,-2.365787 12.84375,-1.498047 2.090271,0.86773 5.74655,10.15445 8.009771,10.15625 2.263219,0.002 5.929859,-9.278128 8.021479,-10.142578 2.09162,-0.86446 11.24216,3.118611 12.84375,1.519531 1.6016,-1.59907 -2.365789,-10.755433 -1.49805,-12.845703 0.86774,-2.09026 10.152301,-5.746545 10.1543,-8.009766 0.002,-2.26322 -9.27812,-5.929864 -10.14258,-8.021484 -0.86446,-2.09163 3.11861,-11.240197 1.51953,-12.841797 C 51.27789,9.5566333 42.12153,13.524 40.03127,12.656271 37.941001,11.788531 34.28668,2.5018009 32.02346,2.5000209 Z m -0.002,1.599609 c 0.17585,0.14459 0.43843,0.416166 0.73243,0.791016 0.60834,0.77564 1.33046,1.928953 2.05273,3.1328115 0.72227,1.2038599 1.45054,2.4598026 2.16797,3.5195326 0.71743,1.05973 1.22787,1.977236 2.48242,2.498047 1.25451,0.52078 2.26264,0.23438 3.51953,-0.0059 1.25689,-0.24011 2.66112,-0.610788 4.02344,-0.949218 1.36232,-0.338431 2.68737,-0.642976 3.66602,-0.759766 0.47217,-0.0564 0.84951,-0.05941 1.07617,-0.03711 0.022,0.226711 0.018,0.604062 -0.0391,1.076172 -0.11835,0.97852 -0.42501,2.304166 -0.76562,3.666016 -0.3406,1.361851 -0.71298,2.764924 -0.95508,4.021484 -0.24211,1.25656 -0.52837,2.264162 -0.01,3.519532 0.51886,1.25544 1.43358,1.767498 2.49218,2.486328 1.05861,0.71882 2.31295,1.450028 3.51563,2.173828 1.20267,0.72378 2.356261,1.445417 3.13086,2.054687 0.373861,0.29407 0.64268,0.556442 0.78711,0.732422 -0.1446,0.17585 -0.41422,0.440385 -0.78906,0.734375 -0.775649,0.60834 -1.92896,1.328511 -3.13282,2.050782 -1.20386,0.72227 -2.4598,1.450538 -3.51953,2.167968 -1.05973,0.71743 -1.97724,1.227882 -2.49805,2.482422 -0.52078,1.25451 -0.23438,2.264584 0.006,3.521484 0.24011,1.25689 0.61079,2.659165 0.94922,4.021485 0.33843,1.36232 0.64298,2.689319 0.75977,3.667969 0.0563,0.47214 0.0594,0.847548 0.0371,1.074218 -0.22671,0.022 -0.60406,0.01804 -1.07617,-0.03906 -0.97852,-0.11834 -2.30417,-0.425025 -3.66602,-0.765625 -1.36185,-0.3406 -2.76493,-0.712978 -4.02148,-0.955078 -1.25656,-0.2421 -2.26416,-0.528366 -3.51954,-0.0098 -1.25546,0.51887 -1.7675,1.435521 -2.48632,2.494141 -0.71883,1.05862 -1.45004,2.312945 -2.17383,3.515625 -0.7238,1.20269 -1.44542,2.354316 -2.05469,3.128906 -0.29369,0.37337 -0.55644,0.642529 -0.73242,0.787109 -0.17586,-0.14477 -0.44076,-0.414702 -0.73438,-0.789062 -0.60834,-0.77565 -1.32851,-1.928953 -2.05078,-3.132813 -0.72227,-1.20386 -1.45054,-2.459801 -2.16797,-3.519531 -0.71742,-1.05973 -1.22787,-1.975294 -2.48242,-2.496094 -1.25451,-0.52079 -2.26459,-0.236293 -3.52148,0.0039 -1.25689,0.24011 -2.65917,0.610788 -4.02149,0.949218 -1.36232,0.33843 -2.68932,0.642976 -3.66797,0.759766 -0.473,0.0564 -0.84969,0.05961 -1.07617,0.03711 -0.0219,-0.22671 -0.0161,-0.604062 0.041,-1.076172 0.11835,-0.97852 0.42307,-2.302212 0.76367,-3.664062 0.34061,-1.36185 0.71298,-2.764924 0.95508,-4.021484 0.2421,-1.25656 0.53058,-2.266105 0.0117,-3.521485 -0.51886,-1.25543 -1.43554,-1.767508 -2.49414,-2.486328 -1.0586,-0.71883 -2.3129597,-1.448075 -3.5156287,-2.171875 -1.20267,-0.72379 -2.3543,-1.445407 -3.12891,-2.054687 -0.3734,-0.2937 -0.6425,-0.558375 -0.787101,-0.734375 0.144771,-0.17586 0.41469,-0.440755 0.789061,-0.734375 0.77564,-0.60834 1.92895,-1.328512 3.132809,-2.050782 1.20386,-0.72227 2.4597997,-1.450538 3.5195297,-2.167968 1.05973,-0.71742 1.97529,-1.227872 2.4961,-2.482422 0.52079,-1.25451 0.23629,-2.262641 -0.004,-3.519531 -0.2401,-1.25689 -0.61079,-2.661118 -0.94922,-4.023438 -0.33843,-1.36232 -0.64299,-2.687366 -0.75977,-3.666016 -0.0563,-0.47217 -0.0594,-0.849512 -0.0371,-1.076172 0.22671,-0.0219 0.60212,-0.01804 1.07421,0.03906 0.97851,0.11835 2.304171,0.425015 3.66602,0.765625 1.361851,0.3406 2.764921,0.712968 4.021481,0.955078 1.256549,0.2421 2.26612,0.528366 3.52149,0.0098 1.25544,-0.51887 1.76554,-1.433588 2.48437,-2.492188 0.71882,-1.05861 1.45004,-2.3129457 2.17383,-3.5156256 0.723799,-1.2026695 1.44542,-2.3562585 2.05469,-3.1308585 0.29444,-0.37434 0.5584,-0.644803 0.73437,-0.789063 z M 23.38084,52.759787 c -0.12458,0.01601 -0.57756,-0.0022 -1.166019,0.05859 0.588459,-0.06081 1.04144,-0.04258 1.166019,-0.05859 z m 19,0.167968 c 1.09736,0.21143 2.47407,0.572962 3.86133,0.919922 -1.387259,-0.34696 -2.76397,-0.708492 -3.86133,-0.919922 z" />
    <path
       id="path1113-1-0-6-8-3-2-5-4-8-3-92-8-3-6-5-69-3-7-5-8-3-8-8"
       style="color:#000000;font-style:normal;font-variant:normal;font-weight:normal;font-stretch:normal;font-size:medium;line-height:normal;font-family:sans-serif;font-variant-ligatures:normal;font-variant-position:normal;font-variant-caps:normal;font-variant-numeric:normal;font-variant-alternates:normal;font-variant-east-asian:normal;font-feature-settings:normal;font-variation-settings:normal;text-indent:0;text-align:start;text-decoration:none;text-decoration-line:none;text-decoration-style:solid;text-decoration-color:#000000;letter-spacing:normal;word-spacing:normal;text-transform:none;writing-mode:lr-tb;direction:ltr;text-orientation:mixed;dominant-baseline:auto;baseline-shift:baseline;text-anchor:start;white-space:normal;shape-padding:0;shape-margin:0;inline-size:0;clip-rule:nonzero;display:inline;overflow:visible;visibility:visible;isolation:auto;mix-blend-mode:normal;color-interpolation:sRGB;color-interpolation-filters:linearRGB;solid-color:#000000;solid-opacity:1;vector-effect:none;fill:url(#linearGradient3484);fill-opacity:1;fill-rule:nonzero;stroke:none;stroke-width:1.0001;stroke-linecap:round;stroke-linejoin:round;stroke-miterlimit:4;stroke-dasharray:none;stroke-dashoffset:0;stroke-opacity:1;color-rendering:auto;image-rendering:auto;shape-rendering:auto;text-rendering:auto;enable-background:accumulate;stop-color:#000000"
       d="m 32.001898,16.000022 a 0.80121646,0.72863185 0 0 0 -0.656235,0.31055 L 20.14669,30.853542 a 0.80121646,0.72863185 0 0 0 -0.144527,0.43359 0.80121646,0.72863185 0 0 0 0.798812,0.71289 h 6.878749 1.32029 v 15.25 c 0,0.4155 0.334473,0.75 0.749984,0.75 h 4.50185 c 0.415511,0 0.749984,-0.3345 0.749984,-0.75 v -15.25 h 1.320281 6.886568 a 0.80121646,0.72863185 0 0 0 0.648425,-1.14648 L 32.658134,16.310572 a 0.80121646,0.72863185 0 0 0 -0.656236,-0.31055 z m 0.002,0.5 c 0.113508,-10e-6 0.213815,0.0531 0.261714,0.11523 l 11.198973,14.54297 c 0.0676,0.0878 0.0571,0.13132 0.0176,0.20118 -0.0395,0.0698 -0.121008,0.13925 -0.273434,0.14062 h -6.884608 -1.320291 a 0.50014942,0.50005 0 0 0 -0.499989,0.5 v 15.25 c 0,0.14715 -0.102828,0.25 -0.249995,0.25 h -4.50192 c -0.147167,0 -0.249995,-0.10285 -0.249995,-0.25 v -15.25 a 0.50014942,0.50005 0 0 0 -0.499989,-0.5 h -1.320281 -6.878758 c -0.193455,-5e-5 -0.300273,-0.12126 -0.302723,-0.22461 -9.2e-4,-0.0381 0.01,-0.0769 0.041,-0.11719 l 11.202883,-14.54297 c 0.0479,-0.0622 0.146237,-0.11524 0.259754,-0.11523 z" />
  </g>
</svg>
