<?xml version="1.0" encoding="UTF-8" standalone="no"?>
<svg
   xmlns:dc="http://purl.org/dc/elements/1.1/"
   xmlns:cc="http://creativecommons.org/ns#"
   xmlns:rdf="http://www.w3.org/1999/02/22-rdf-syntax-ns#"
   xmlns:svg="http://www.w3.org/2000/svg"
   xmlns="http://www.w3.org/2000/svg"
   xmlns:xlink="http://www.w3.org/1999/xlink"
   xmlns:sodipodi="http://sodipodi.sourceforge.net/DTD/sodipodi-0.dtd"
   xmlns:inkscape="http://www.inkscape.org/namespaces/inkscape"
   width="64"
   height="64"
   viewBox="0 0 64 64"
   version="1.1"
   id="svg6374"
   inkscape:version="1.0.2 (e86c870879, 2021-01-15)"
   sodipodi:docname="bookmark-missing.svg">
  <defs
     id="defs6368">
    <linearGradient
       inkscape:collect="always"
       xlink:href="#linearGradient976-6"
       id="linearGradient1736"
       gradientUnits="userSpaceOnUse"
       gradientTransform="translate(-901.0876,-368.25035)"
       x1="934.08234"
       y1="375.25061"
       x2="934.47302"
       y2="427.64557" />
    <linearGradient
       inkscape:collect="always"
       id="linearGradient976-6">
      <stop
         style="stop-color:#afafb1;stop-opacity:1"
         offset="0"
         id="stop972-0" />
      <stop
         style="stop-color:#a0a0a2;stop-opacity:1"
         offset="1"
         id="stop974-6" />
    </linearGradient>
  </defs>
  <sodipodi:namedview
     id="base"
     pagecolor="#cecece"
     bordercolor="#666666"
     borderopacity="1.0"
     inkscape:pageopacity="0"
     inkscape:pageshadow="2"
     inkscape:zoom="3.6639695"
     inkscape:cx="-19.349289"
     inkscape:cy="60.060993"
     inkscape:document-units="px"
     inkscape:current-layer="layer1"
     inkscape:document-rotation="0"
     showgrid="false"
     units="px"
     inkscape:window-width="1500"
     inkscape:window-height="970"
     inkscape:window-x="68"
     inkscape:window-y="56"
     inkscape:window-maximized="0" />
  <metadata
     id="metadata6371">
    <rdf:RDF>
      <cc:Work
         rdf:about="">
        <dc:format>image/svg+xml</dc:format>
        <dc:type
           rdf:resource="http://purl.org/dc/dcmitype/StillImage" />
        <dc:title></dc:title>
      </cc:Work>
    </rdf:RDF>
  </metadata>
  <g
     inkscape:label="Layer 1"
     inkscape:groupmode="layer"
     id="layer1">
    <path
       id="rect2288-3-1-2-0-2"
       style="color:#000000;font-style:normal;font-variant:normal;font-weight:normal;font-stretch:normal;font-size:medium;line-height:normal;font-family:sans-serif;font-variant-ligatures:normal;font-variant-position:normal;font-variant-caps:normal;font-variant-numeric:normal;font-variant-alternates:normal;font-variant-east-asian:normal;font-feature-settings:normal;font-variation-settings:normal;text-indent:0;text-align:start;text-decoration:none;text-decoration-line:none;text-decoration-style:solid;text-decoration-color:#000000;letter-spacing:normal;word-spacing:normal;text-transform:none;writing-mode:lr-tb;direction:ltr;text-orientation:mixed;dominant-baseline:auto;baseline-shift:baseline;text-anchor:start;white-space:normal;shape-padding:0;shape-margin:0;inline-size:0;clip-rule:nonzero;display:inline;overflow:visible;visibility:visible;opacity:0.1;isolation:auto;mix-blend-mode:normal;color-interpolation:sRGB;color-interpolation-filters:linearRGB;solid-color:#000000;solid-opacity:1;vector-effect:none;fill:#0c0c0c;fill-opacity:1;fill-rule:nonzero;stroke:none;stroke-width:1.00008;stroke-linecap:round;stroke-linejoin:round;stroke-miterlimit:4;stroke-dasharray:none;stroke-dashoffset:2.1875;stroke-opacity:1;color-rendering:auto;image-rendering:auto;shape-rendering:auto;text-rendering:auto;enable-background:accumulate;stop-color:#000000"
       d="m 32.95622,7.5004511 c -0.89297,0.0343 -1.47162,0.69762 -1.84179,1.36156 -0.37018,0.66393 -0.63564,1.4735699 -0.87696,2.4203199 -0.48263,1.89348 -0.8348,4.32785 -1.17187,6.80582 -0.33708,2.47796 -0.6553,4.99491 -1.03516,6.96991 -0.18993,0.98749 -0.39878,1.8412 -0.61328,2.45744 -0.2145,0.61623 -0.4919,0.96878 -0.48438,0.96305 0.008,-0.006 -0.36776,0.15085 -0.98437,0.1719 -0.61661,0.021 -1.45302,-0.0371 -2.40625,-0.15628 -1.90647,-0.23841 -4.292,-0.70874 -6.64648,-1.14667 -2.35449,-0.43794 -4.67114,-0.84724 -6.54493,-0.95133 -0.9368898,-0.0521 -1.7614998,-0.036 -2.4921798,0.1387 -0.73069,0.17468 -1.51714,0.607 -1.77539,1.43773 -0.25829,0.83074 0.12428,1.61767 0.60742,2.20154 0.48313,0.58388 1.13632,1.10508 1.91992,1.64285 1.5672098,1.07554 3.6660798,2.18484 5.8124998,3.29156 2.14641,1.10674 4.33713,2.20679 6.01172,3.1978 0.83729,0.49551 1.54525,0.96668 2.03515,1.36937 0.48991,0.40269 0.71992,0.76759 0.72657,0.78919 0.007,0.0217 0.0243,0.47918 -0.15039,1.11347 -0.17472,0.63429 -0.48875,1.45464 -0.89258,2.37344 -0.80767,1.83762 -1.97023,4.07746 -3.09375,6.29402 -1.12352,2.21656 -2.20818,4.40347 -2.87696,6.2315 -0.33438,0.91402 -0.57106,1.73192 -0.63671,2.49261 -0.0657,0.76068 0.0493,1.63007 0.75195,2.16833 0.70273,0.53813 1.60767,0.39641 2.29492,0.0899 0.68725,-0.30655 1.35758,-0.79794 2.08594,-1.41429 1.45672,-1.23272 3.10676,-2.98547 4.77148,-4.78791 1.66473,-1.80244 3.33814,-3.65209 4.75391,-5.02036 0.70788,-0.68415 1.35399,-1.24901 1.86914,-1.61356 0.51515,-0.36454 0.9232,-0.46877 0.89258,-0.46883 a 1.0001,1.0002663 0 0 0 0.002,0 h 0.0332 a 1.0001,1.0002663 0 0 0 0.0117,0 1.0001,1.0002663 0 0 0 0.0215,0 c -0.0301,0 0.37922,0.1058 0.89453,0.47079 0.51531,0.36498 1.16122,0.92926 1.86914,1.61355 1.41584,1.36859 3.08916,3.21822 4.75391,5.02036 1.66474,1.80214 3.31472,3.5556 4.77148,4.78791 0.72838,0.61615 1.39867,1.10595 2.08594,1.41234 0.68726,0.30639 1.59228,0.44822 2.29492,-0.0899 0.70265,-0.53828 0.81767,-1.40765 0.75195,-2.16833 -0.0657,-0.76069 -0.3042,-1.57859 -0.63867,-2.49261 -0.66894,-1.82803 -1.75128,-4.01495 -2.875,-6.2315 -1.12372,-2.21655 -2.28792,-4.45641 -3.0957,-6.29402 -0.40389,-0.9188 -0.71785,-1.73916 -0.89258,-2.37344 -0.17473,-0.63428 -0.15706,-1.09179 -0.15039,-1.11347 0.007,-0.0216 0.23666,-0.3865 0.72656,-0.78919 0.48991,-0.40269 1.19787,-0.87386 2.03516,-1.36937 1.67458,-0.991 3.86531,-2.09106 6.01172,-3.1978 2.1464,-1.10672 4.24529,-2.21602 5.8125,-3.29156 0.7836,-0.53777 1.43678,-1.05897 1.91992,-1.64285 0.48314,-0.58388 0.86567,-1.37079 0.60742,-2.20154 -0.25825,-0.83073 -1.04471,-1.26305 -1.77539,-1.43773 -0.73068,-0.1747 -1.5553,-0.19075 -2.49219,-0.1387 -1.87378,0.10409 -4.19043,0.51339 -6.54492,0.95133 -2.35449,0.43793 -4.74002,0.90826 -6.64648,1.14667 -0.95324,0.11921 -1.78769,0.17732 -2.4043,0.15628 -0.61662,-0.0211 -0.99391,-0.17767 -0.98633,-0.1719 0.008,0.006 -0.26987,-0.34683 -0.48437,-0.96305 -0.21451,-0.61623 -0.4214,-1.46996 -0.61133,-2.45744 -0.37987,-1.97498 -0.70003,-4.49197 -1.03711,-6.96991 -0.33709,-2.47795 -0.68924,-4.91233 -1.17188,-6.80582 -0.24132,-0.94675 -0.50678,-1.7563699 -0.87695,-2.4203199 -0.37017,-0.66395 -0.94883,-1.32718 -1.8418,-1.36156 a 1.0001,1.0002663 0 0 0 -0.0391,0 h -0.01 a 1.0001,1.0002663 0 0 0 -0.0391,0 z m 0.0449,2.098 c 0.0204,0.0329 0.057,0.0918 0.13868,0.23833 0.21866,0.3921899 0.46667,1.0810899 0.68554,1.9397699 0.43775,1.71736 0.79362,4.11641 1.12891,6.58118 0.33529,2.46476 0.65281,5.00003 1.05273,7.07929 0.19996,1.03964 0.41862,1.96433 0.6875,2.73679 0.26889,0.77246 0.53328,1.41834 1.16211,1.8968 0.63093,0.4801 1.33206,0.55299 2.12891,0.58017 0.79685,0.0272 1.70983,-0.0455 2.7207,-0.1719 2.02175,-0.25282 4.42618,-0.73107 6.76563,-1.16621 2.33945,-0.43515 4.619,-0.82535 6.28906,-0.91813 0.83503,-0.0464 1.52152,-0.008 1.91602,0.086 0.19362,0.0463 0.2776,0.0818 0.31445,0.0996 -0.0102,0.0261 -0.0419,0.0999 -0.22266,0.31841 -0.27398,0.33111 -0.80777,0.78798 -1.50976,1.26974 -1.40399,0.96352 -3.46462,2.06085 -5.59766,3.16069 -2.13304,1.09983 -4.34298,2.20758 -6.11523,3.2564 -0.88613,0.5244 -1.66316,1.03035 -2.28711,1.54322 -0.62396,0.51287 -1.13715,1.00053 -1.36719,1.74833 -0.23004,0.74783 -0.0837,1.43978 0.13477,2.2328 0.21844,0.79302 0.56281,1.67904 0.98828,2.64693 0.85092,1.93575 2.02527,4.18974 3.14257,6.39364 1.11731,2.20389 2.17861,4.36245 2.78321,6.01467 0.3023,0.82611 0.48484,1.53206 0.52344,1.97884 0.0169,0.19574 0.005,0.28455 -0.004,0.34577 -0.0439,-0.013 -0.0901,-0.0227 -0.23633,-0.0879 -0.3749,-0.16714 -0.95588,-0.56066 -1.60937,-1.11346 -1.30699,-1.10563 -2.93893,-2.82657 -4.59375,-4.61796 -1.65482,-1.79139 -3.33845,-3.65483 -4.83399,-5.10046 -0.74777,-0.72281 -1.44594,-1.34315 -2.10351,-1.80889 -0.65758,-0.46577 -1.2492,-0.83804 -2.04883,-0.83804 -0.004,-3e-5 -0.005,3e-5 -0.0117,0 -0.006,-2e-5 -0.012,-4e-5 -0.0215,0 h -0.0312 -0.002 c -0.0119,4.9e-4 -0.0291,0.002 -0.0293,0.002 -1.2e-4,10e-6 -0.0761,0.008 -0.0762,0.008 -1e-5,0 -0.0612,0.0211 -0.10156,0.0352 -0.69104,0.0585 -1.24707,0.37223 -1.8418,0.7931 -0.65776,0.46546 -1.35569,1.08225 -2.10351,1.80498 -1.49564,1.44546 -3.17915,3.31069 -4.83399,5.10241 -1.65484,1.79174 -3.28673,3.51193 -4.59375,4.61796 -0.6535,0.55301 -1.23642,0.94818 -1.61132,1.11542 -0.146,0.0651 -0.19072,0.0749 -0.23438,0.0879 -0.009,-0.0612 -0.0208,-0.15002 -0.004,-0.34577 0.0386,-0.44678 0.22122,-1.15273 0.52344,-1.97884 0.60445,-1.65222 1.66415,-3.81078 2.78125,-6.01467 1.1171,-2.20389 2.29178,-4.4579 3.14258,-6.39364 0.4254,-0.96788 0.76985,-1.85393 0.98828,-2.64693 0.21844,-0.793 0.36471,-1.48502 0.13477,-2.2328 -0.23005,-0.7478 -0.74323,-1.23546 -1.36719,-1.74833 -0.62396,-0.51287 -1.40098,-1.01882 -2.28711,-1.54322 -1.77227,-1.04882 -3.98024,-2.15657 -6.11328,-3.2564 -2.13305,-1.09985 -4.19563,-2.19717 -5.5996098,-3.16069 -0.70199,-0.48176 -1.23579,-0.93864 -1.50977,-1.26974 -0.18078,-0.21848 -0.21248,-0.29229 -0.22265,-0.31841 0.0368,-0.0178 0.12083,-0.0533 0.31445,-0.0996 0.3945,-0.0943 1.08099,-0.13233 1.9160198,-0.086 1.67005,0.0928 3.95156,0.48298 6.29101,0.91813 2.33945,0.43514 4.74193,0.91339 6.76367,1.16621 1.01087,0.12641 1.92386,0.19909 2.72071,0.1719 0.79684,-0.0272 1.49798,-0.10007 2.1289,-0.58017 0.62884,-0.47847 0.89323,-1.12433 1.16211,-1.8968 0.26888,-0.77247 0.48755,-1.69714 0.6875,-2.73679 0.39992,-2.07928 0.71941,-4.61451 1.05469,-7.07929 0.33528,-2.46479 0.68922,-4.86384 1.12695,-6.58118 0.21887,-0.85867 0.4669,-1.54956 0.68555,-1.9417299 0.0816,-0.14638 0.11984,-0.20391 0.14062,-0.23637 z" />
    <path
       id="rect2288-3-1-2-9-3"
       style="color:#000000;font-style:normal;font-variant:normal;font-weight:normal;font-stretch:normal;font-size:medium;line-height:normal;font-family:sans-serif;font-variant-ligatures:normal;font-variant-position:normal;font-variant-caps:normal;font-variant-numeric:normal;font-variant-alternates:normal;font-variant-east-asian:normal;font-feature-settings:normal;font-variation-settings:normal;text-indent:0;text-align:start;text-decoration:none;text-decoration-line:none;text-decoration-style:solid;text-decoration-color:#000000;letter-spacing:normal;word-spacing:normal;text-transform:none;writing-mode:lr-tb;direction:ltr;text-orientation:mixed;dominant-baseline:auto;baseline-shift:baseline;text-anchor:start;white-space:normal;shape-padding:0;shape-margin:0;inline-size:0;clip-rule:nonzero;display:inline;overflow:visible;visibility:visible;opacity:0.85;isolation:auto;mix-blend-mode:normal;color-interpolation:sRGB;color-interpolation-filters:linearRGB;solid-color:#000000;solid-opacity:1;vector-effect:none;fill:#45454a;fill-opacity:1;fill-rule:nonzero;stroke:none;stroke-width:1.00008;stroke-linecap:round;stroke-linejoin:round;stroke-miterlimit:4;stroke-dasharray:none;stroke-dashoffset:2.1875;stroke-opacity:1;color-rendering:auto;image-rendering:auto;shape-rendering:auto;text-rendering:auto;enable-background:accumulate;stop-color:#000000"
       d="m 32.95622,6.0004511 c -0.89297,0.0343 -1.47162,0.69762 -1.84179,1.36156 -0.37018,0.66393 -0.63564,1.47357 -0.87696,2.42032 -0.48263,1.8934799 -0.8348,4.3278499 -1.17187,6.8058199 -0.33708,2.47796 -0.6553,4.99491 -1.03516,6.96991 -0.18993,0.98749 -0.39878,1.8412 -0.61328,2.45744 -0.2145,0.61623 -0.4919,0.96878 -0.48438,0.96305 0.008,-0.006 -0.36776,0.15085 -0.98437,0.1719 -0.61661,0.021 -1.45302,-0.0371 -2.40625,-0.15628 -1.90647,-0.23841 -4.292,-0.70874 -6.64648,-1.14667 -2.35449,-0.43794 -4.67114,-0.84724 -6.54493,-0.95133 -0.9368898,-0.0521 -1.7614998,-0.036 -2.4921798,0.1387 -0.73069,0.17468 -1.51714,0.607 -1.77539,1.43773 -0.25829,0.83074 0.12428,1.61767 0.60742,2.20154 0.48313,0.58388 1.13632,1.10508 1.91992,1.64285 1.5672098,1.07554 3.6660798,2.18484 5.8124998,3.29156 2.14641,1.10674 4.33713,2.20679 6.01172,3.1978 0.83729,0.49551 1.54525,0.96668 2.03515,1.36937 0.48991,0.40269 0.71992,0.76759 0.72657,0.78919 0.007,0.0217 0.0243,0.47918 -0.15039,1.11347 -0.17472,0.63429 -0.48875,1.45464 -0.89258,2.37344 -0.80767,1.83762 -1.97023,4.07746 -3.09375,6.29402 -1.12352,2.21656 -2.20818,4.40347 -2.87696,6.2315 -0.33438,0.91402 -0.57106,1.73192 -0.63671,2.49261 -0.0657,0.76068 0.0493,1.63007 0.75195,2.16833 0.70273,0.53813 1.60767,0.39641 2.29492,0.0899 0.68725,-0.30655 1.35758,-0.79794 2.08594,-1.41429 1.45672,-1.23272 3.10676,-2.98547 4.77148,-4.78791 1.66473,-1.80244 3.33814,-3.65209 4.75391,-5.02036 0.70788,-0.68415 1.35399,-1.24901 1.86914,-1.61356 0.51515,-0.36454 0.9232,-0.46877 0.89258,-0.46883 a 1.0001,1.0002663 0 0 0 0.002,0 h 0.0332 a 1.0001,1.0002663 0 0 0 0.0117,0 1.0001,1.0002663 0 0 0 0.0215,0 c -0.0301,0 0.37922,0.1058 0.89453,0.47079 0.51531,0.36498 1.16122,0.92926 1.86914,1.61355 1.41584,1.36859 3.08916,3.21822 4.75391,5.02036 1.66474,1.80214 3.31472,3.5556 4.77148,4.78791 0.72838,0.61615 1.39867,1.10595 2.08594,1.41234 0.68726,0.30639 1.59228,0.44822 2.29492,-0.0899 0.70265,-0.53828 0.81767,-1.40765 0.75195,-2.16833 -0.0657,-0.76069 -0.3042,-1.57859 -0.63867,-2.49261 -0.66894,-1.82803 -1.75128,-4.01495 -2.875,-6.2315 -1.12372,-2.21655 -2.28792,-4.45641 -3.0957,-6.29402 -0.40389,-0.9188 -0.71785,-1.73916 -0.89258,-2.37344 -0.17473,-0.63428 -0.15706,-1.09179 -0.15039,-1.11347 0.007,-0.0216 0.23666,-0.3865 0.72656,-0.78919 0.48991,-0.40269 1.19787,-0.87386 2.03516,-1.36937 1.67458,-0.991 3.86531,-2.09106 6.01172,-3.1978 2.1464,-1.10672 4.24529,-2.21602 5.8125,-3.29156 0.7836,-0.53777 1.43678,-1.05897 1.91992,-1.64285 0.48314,-0.58388 0.86567,-1.37079 0.60742,-2.20154 -0.25825,-0.83073 -1.04471,-1.26305 -1.77539,-1.43773 -0.73068,-0.1747 -1.5553,-0.19075 -2.49219,-0.1387 -1.87378,0.10409 -4.19043,0.51339 -6.54492,0.95133 -2.35449,0.43793 -4.74002,0.90826 -6.64648,1.14667 -0.95324,0.11921 -1.78769,0.17732 -2.4043,0.15628 -0.61662,-0.0211 -0.99391,-0.17767 -0.98633,-0.1719 0.008,0.006 -0.26987,-0.34683 -0.48437,-0.96305 -0.21451,-0.61623 -0.4214,-1.46996 -0.61133,-2.45744 -0.37987,-1.97498 -0.70003,-4.49197 -1.03711,-6.96991 -0.33709,-2.47795 -0.68924,-4.91233 -1.17188,-6.8058199 -0.24132,-0.94675 -0.50678,-1.75637 -0.87695,-2.42032 -0.37017,-0.66395 -0.94883,-1.32718 -1.8418,-1.36156 a 1.0001,1.0002663 0 0 0 -0.0391,0 h -0.01 a 1.0001,1.0002663 0 0 0 -0.0391,0 z m 0.0449,2.098 c 0.0204,0.0329 0.057,0.0918 0.13868,0.23833 0.21866,0.39219 0.46667,1.08109 0.68554,1.9397699 0.43775,1.71736 0.79362,4.11641 1.12891,6.58118 0.33529,2.46476 0.65281,5.00003 1.05273,7.07929 0.19996,1.03964 0.41862,1.96433 0.6875,2.73679 0.26889,0.77246 0.53328,1.41834 1.16211,1.8968 0.63093,0.4801 1.33206,0.55299 2.12891,0.58017 0.79685,0.0272 1.70983,-0.0455 2.7207,-0.1719 2.02175,-0.25282 4.42618,-0.73107 6.76563,-1.16621 2.33945,-0.43515 4.619,-0.82535 6.28906,-0.91813 0.83503,-0.0464 1.52152,-0.008 1.91602,0.086 0.19362,0.0463 0.2776,0.0818 0.31445,0.0996 -0.0102,0.0261 -0.0419,0.0999 -0.22266,0.31841 -0.27398,0.33111 -0.80777,0.78798 -1.50976,1.26974 -1.40399,0.96352 -3.46462,2.06085 -5.59766,3.16069 -2.13304,1.09983 -4.34298,2.20758 -6.11523,3.2564 -0.88613,0.5244 -1.66316,1.03035 -2.28711,1.54322 -0.62396,0.51287 -1.13715,1.00053 -1.36719,1.74833 -0.23004,0.74783 -0.0837,1.43978 0.13477,2.2328 0.21844,0.79302 0.56281,1.67904 0.98828,2.64693 0.85092,1.93575 2.02527,4.18974 3.14257,6.39364 1.11731,2.20389 2.17861,4.36245 2.78321,6.01467 0.3023,0.82611 0.48484,1.53206 0.52344,1.97884 0.0169,0.19574 0.005,0.28455 -0.004,0.34577 -0.0439,-0.013 -0.0901,-0.0227 -0.23633,-0.0879 -0.3749,-0.16714 -0.95588,-0.56066 -1.60937,-1.11346 -1.30699,-1.10563 -2.93893,-2.82657 -4.59375,-4.61796 -1.65482,-1.79139 -3.33845,-3.65483 -4.83399,-5.10046 -0.74777,-0.72281 -1.44594,-1.34315 -2.10351,-1.80889 -0.65758,-0.46577 -1.2492,-0.83804 -2.04883,-0.83804 -0.004,-3e-5 -0.005,3e-5 -0.0117,0 -0.006,-2e-5 -0.012,-4e-5 -0.0215,0 h -0.0312 -0.002 c -0.0119,4.9e-4 -0.0291,0.002 -0.0293,0.002 -1.2e-4,10e-6 -0.0761,0.008 -0.0762,0.008 -1e-5,0 -0.0612,0.0211 -0.10156,0.0352 -0.69104,0.0585 -1.24707,0.37223 -1.8418,0.7931 -0.65776,0.46546 -1.35569,1.08225 -2.10351,1.80498 -1.49564,1.44546 -3.17915,3.31069 -4.83399,5.10241 -1.65484,1.79174 -3.28673,3.51193 -4.59375,4.61796 -0.6535,0.55301 -1.23642,0.94818 -1.61132,1.11542 -0.146,0.0651 -0.19072,0.0749 -0.23438,0.0879 -0.009,-0.0612 -0.0208,-0.15002 -0.004,-0.34577 0.0386,-0.44678 0.22122,-1.15273 0.52344,-1.97884 0.60445,-1.65222 1.66415,-3.81078 2.78125,-6.01467 1.1171,-2.20389 2.29178,-4.4579 3.14258,-6.39364 0.4254,-0.96788 0.76985,-1.85393 0.98828,-2.64693 0.21844,-0.793 0.36471,-1.48502 0.13477,-2.2328 -0.23005,-0.7478 -0.74323,-1.23546 -1.36719,-1.74833 -0.62396,-0.51287 -1.40098,-1.01882 -2.28711,-1.54322 -1.77227,-1.04882 -3.98024,-2.15657 -6.11328,-3.2564 -2.13305,-1.09985 -4.19563,-2.19717 -5.5996098,-3.16069 -0.70199,-0.48176 -1.23579,-0.93864 -1.50977,-1.26974 -0.18078,-0.21848 -0.21248,-0.29229 -0.22265,-0.31841 0.0368,-0.0178 0.12083,-0.0533 0.31445,-0.0996 0.3945,-0.0943 1.08099,-0.13233 1.9160198,-0.086 1.67005,0.0928 3.95156,0.48298 6.29101,0.91813 2.33945,0.43514 4.74193,0.91339 6.76367,1.16621 1.01087,0.12641 1.92386,0.19909 2.72071,0.1719 0.79684,-0.0272 1.49798,-0.10007 2.1289,-0.58017 0.62884,-0.47847 0.89323,-1.12433 1.16211,-1.8968 0.26888,-0.77247 0.48755,-1.69714 0.6875,-2.73679 0.39992,-2.07928 0.71941,-4.61451 1.05469,-7.07929 0.33528,-2.46479 0.68922,-4.86384 1.12695,-6.58118 0.21887,-0.8586699 0.4669,-1.5495599 0.68555,-1.9417299 0.0816,-0.14638 0.11984,-0.20391 0.14062,-0.23637 z" />
    <path
       id="rect2288-3-7"
       style="fill:url(#linearGradient1736);fill-opacity:1;stroke-width:0;stroke-linecap:round;stroke-linejoin:round;stroke-dashoffset:2.1875;stroke-opacity:0.5"
       d="m 32.99476,7.0002611 c -3.04763,0.117 -2.97061,18.8809399 -5.45584,20.7714999 -2.49335,1.89705 -19.5444798,-4.08038 -20.5003498,-1.00604 -0.95591,3.07408 16.1664998,8.82326 17.1132698,11.90043 0.94648,3.07748 -9.73298,18.26496 -7.24548,20.17018 2.48783,1.90485 12.98292,-13.42449 16.06142,-13.41929 h 0.0325 c 0,-3.2e-4 0.0335,0 0.0335,0 3.07834,0 13.57353,15.32414 16.06136,13.41929 2.4875,-1.90522 -8.19375,-17.0927 -7.24694,-20.17018 0.94677,-3.07717 18.06907,-8.82629 17.11326,-11.90043 -0.95587,-3.07434 -18.007,2.90309 -20.50035,1.00604 -2.48523,-1.89056 -2.4083,-20.6541799 -5.45593,-20.7714999 z" />
    <path
       id="rect2288-3-1-2-7-5"
       style="color:#000000;font-style:normal;font-variant:normal;font-weight:normal;font-stretch:normal;font-size:medium;line-height:normal;font-family:sans-serif;font-variant-ligatures:normal;font-variant-position:normal;font-variant-caps:normal;font-variant-numeric:normal;font-variant-alternates:normal;font-variant-east-asian:normal;font-feature-settings:normal;font-variation-settings:normal;text-indent:0;text-align:start;text-decoration:none;text-decoration-line:none;text-decoration-style:solid;text-decoration-color:#000000;letter-spacing:normal;word-spacing:normal;text-transform:none;writing-mode:lr-tb;direction:ltr;text-orientation:mixed;dominant-baseline:auto;baseline-shift:baseline;text-anchor:start;white-space:normal;shape-padding:0;shape-margin:0;inline-size:0;clip-rule:nonzero;display:inline;overflow:visible;visibility:visible;opacity:0.25;isolation:auto;mix-blend-mode:normal;color-interpolation:sRGB;color-interpolation-filters:linearRGB;solid-color:#000000;solid-opacity:1;vector-effect:none;fill:#45454a;fill-opacity:1;fill-rule:nonzero;stroke:none;stroke-width:1.00008;stroke-linecap:round;stroke-linejoin:round;stroke-miterlimit:4;stroke-dasharray:none;stroke-dashoffset:2.1875;stroke-opacity:1;color-rendering:auto;image-rendering:auto;shape-rendering:auto;text-rendering:auto;enable-background:accumulate;stop-color:#000000"
       d="m 32.95642,6.0001911 c -0.89297,0.0343 -1.47162,0.69762 -1.84179,1.36156 -0.37018,0.66393 -0.63564,1.47357 -0.87696,2.42032 -0.48263,1.8934799 -0.8348,4.3278499 -1.17187,6.8058199 -0.33708,2.47796 -0.6553,4.99491 -1.03516,6.96991 -0.18993,0.98749 -0.39878,1.8412 -0.61328,2.45744 -0.2145,0.61623 -0.4919,0.96878 -0.48438,0.96305 0.008,-0.006 -0.36776,0.15085 -0.98437,0.1719 -0.61661,0.021 -1.45302,-0.0371 -2.40625,-0.15628 -1.90647,-0.23841 -4.292,-0.70874 -6.64648,-1.14667 -2.35449,-0.43794 -4.67114,-0.84724 -6.54493,-0.95133 -0.9368898,-0.0521 -1.7614998,-0.036 -2.4921798,0.1387 -0.73069,0.17468 -1.51714,0.607 -1.77539,1.43773 -0.25829,0.83074 0.12428,1.61767 0.60742,2.20154 0.48313,0.58388 1.13632,1.10508 1.91992,1.64285 1.5672098,1.07554 3.6660798,2.18484 5.8124998,3.29156 2.14641,1.10674 4.33713,2.20679 6.01172,3.1978 0.83729,0.49551 1.54525,0.96668 2.03515,1.36937 0.48991,0.40269 0.71992,0.76759 0.72657,0.78919 0.007,0.0217 0.0243,0.47918 -0.15039,1.11347 -0.17472,0.63429 -0.48875,1.45464 -0.89258,2.37344 -0.80767,1.83762 -1.97023,4.07746 -3.09375,6.29402 -1.12352,2.21656 -2.20818,4.40347 -2.87696,6.2315 -0.33438,0.91402 -0.57106,1.73192 -0.63671,2.49261 -0.0657,0.76068 0.0493,1.63007 0.75195,2.16833 0.70273,0.53813 1.60767,0.39641 2.29492,0.0899 0.68725,-0.30655 1.35758,-0.79794 2.08594,-1.41429 1.45672,-1.23272 3.10676,-2.98547 4.77148,-4.78791 1.66473,-1.80244 3.33814,-3.65209 4.75391,-5.02036 0.70788,-0.68415 1.35399,-1.24901 1.86914,-1.61356 0.51515,-0.36454 0.9232,-0.46877 0.89258,-0.46883 a 1.0001,1.0002663 0 0 0 0.002,0 h 0.0332 a 1.0001,1.0002663 0 0 0 0.0117,0 1.0001,1.0002663 0 0 0 0.0215,0 c -0.0301,0 0.37922,0.1058 0.89453,0.47079 0.51531,0.36498 1.16122,0.92926 1.86914,1.61355 1.41584,1.36859 3.08916,3.21822 4.75391,5.02036 1.66474,1.80214 3.31472,3.5556 4.77148,4.78791 0.72838,0.61615 1.39867,1.10595 2.08594,1.41234 0.68726,0.30639 1.59228,0.44822 2.29492,-0.0899 0.70265,-0.53828 0.81767,-1.40765 0.75195,-2.16833 -0.0657,-0.76069 -0.3042,-1.57859 -0.63867,-2.49261 -0.66894,-1.82803 -1.75128,-4.01495 -2.875,-6.2315 -1.12372,-2.21655 -2.28792,-4.45641 -3.0957,-6.29402 -0.40389,-0.9188 -0.71785,-1.73916 -0.89258,-2.37344 -0.17473,-0.63428 -0.15706,-1.09179 -0.15039,-1.11347 0.007,-0.0216 0.23666,-0.3865 0.72656,-0.78919 0.48991,-0.40269 1.19787,-0.87386 2.03516,-1.36937 1.67458,-0.991 3.86531,-2.09106 6.01172,-3.1978 2.1464,-1.10672 4.24529,-2.21602 5.8125,-3.29156 0.7836,-0.53777 1.43678,-1.05897 1.91992,-1.64285 0.48314,-0.58388 0.86567,-1.37079 0.60742,-2.20154 -0.25825,-0.83073 -1.04471,-1.26305 -1.77539,-1.43773 -0.73068,-0.1747 -1.5553,-0.19075 -2.49219,-0.1387 -1.87378,0.10409 -4.19043,0.51339 -6.54492,0.95133 -2.35449,0.43793 -4.74002,0.90826 -6.64648,1.14667 -0.95324,0.11921 -1.78769,0.17732 -2.4043,0.15628 -0.61662,-0.0211 -0.99391,-0.17767 -0.98633,-0.1719 0.008,0.006 -0.26987,-0.34683 -0.48437,-0.96305 -0.21451,-0.61623 -0.4214,-1.46996 -0.61133,-2.45744 -0.37987,-1.97498 -0.70003,-4.49197 -1.03711,-6.96991 -0.33709,-2.47795 -0.68924,-4.91233 -1.17188,-6.8058199 -0.24132,-0.94675 -0.50678,-1.75637 -0.87695,-2.42032 -0.37017,-0.66395 -0.94883,-1.32718 -1.8418,-1.36156 a 1.0001,1.0002663 0 0 0 -0.0391,0 h -0.01 a 1.0001,1.0002663 0 0 0 -0.0391,0 z m 0.0449,2.098 c 0.0204,0.0329 0.057,0.0918 0.13868,0.23833 0.21866,0.39219 0.46667,1.08109 0.68554,1.9397699 0.43775,1.71736 0.79362,4.11641 1.12891,6.58118 0.33529,2.46476 0.65281,5.00003 1.05273,7.07929 0.19996,1.03964 0.41862,1.96433 0.6875,2.73679 0.26889,0.77246 0.53328,1.41834 1.16211,1.8968 0.63093,0.4801 1.33206,0.55299 2.12891,0.58017 0.79685,0.0272 1.70983,-0.0455 2.7207,-0.1719 2.02175,-0.25282 4.42618,-0.73107 6.76563,-1.16621 2.33945,-0.43515 4.619,-0.82535 6.28906,-0.91813 0.83503,-0.0464 1.52152,-0.008 1.91602,0.086 0.19362,0.0463 0.2776,0.0818 0.31445,0.0996 -0.0102,0.0261 -0.0419,0.0999 -0.22266,0.31841 -0.27398,0.33111 -0.80777,0.78798 -1.50976,1.26974 -1.40399,0.96352 -3.46462,2.06085 -5.59766,3.16069 -2.13304,1.09983 -4.34298,2.20758 -6.11523,3.2564 -0.88613,0.5244 -1.66316,1.03035 -2.28711,1.54322 -0.62396,0.51287 -1.13715,1.00053 -1.36719,1.74833 -0.23004,0.74783 -0.0837,1.43978 0.13477,2.2328 0.21844,0.79302 0.56281,1.67904 0.98828,2.64693 0.85092,1.93575 2.02527,4.18974 3.14257,6.39364 1.11731,2.20389 2.17861,4.36245 2.78321,6.01467 0.3023,0.82611 0.48484,1.53206 0.52344,1.97884 0.0169,0.19574 0.005,0.28455 -0.004,0.34577 -0.0439,-0.013 -0.0901,-0.0227 -0.23633,-0.0879 -0.3749,-0.16714 -0.95588,-0.56066 -1.60937,-1.11346 -1.30699,-1.10563 -2.93893,-2.82657 -4.59375,-4.61796 -1.65482,-1.79139 -3.33845,-3.65483 -4.83399,-5.10046 -0.74777,-0.72281 -1.44594,-1.34315 -2.10351,-1.80889 -0.65758,-0.46577 -1.2492,-0.83804 -2.04883,-0.83804 -0.004,-3e-5 -0.005,3e-5 -0.0117,0 -0.006,-2e-5 -0.012,-4e-5 -0.0215,0 h -0.0312 -0.002 c -0.0119,4.9e-4 -0.0291,0.002 -0.0293,0.002 -1.2e-4,1e-5 -0.0761,0.008 -0.0762,0.008 -1e-5,0 -0.0612,0.0211 -0.10156,0.0352 -0.69104,0.0585 -1.24707,0.37223 -1.8418,0.7931 -0.65776,0.46546 -1.35569,1.08225 -2.10351,1.80498 -1.49564,1.44546 -3.17915,3.31069 -4.83399,5.10241 -1.65484,1.79174 -3.28673,3.51193 -4.59375,4.61796 -0.6535,0.55301 -1.23642,0.94818 -1.61132,1.11542 -0.146,0.0651 -0.19072,0.0749 -0.23438,0.0879 -0.009,-0.0612 -0.0208,-0.15002 -0.004,-0.34577 0.0386,-0.44678 0.22122,-1.15273 0.52344,-1.97884 0.60445,-1.65222 1.66415,-3.81078 2.78125,-6.01467 1.1171,-2.20389 2.29178,-4.4579 3.14258,-6.39364 0.4254,-0.96788 0.76985,-1.85393 0.98828,-2.64693 0.21844,-0.793 0.36471,-1.48502 0.13477,-2.2328 -0.23005,-0.7478 -0.74323,-1.23546 -1.36719,-1.74833 -0.62396,-0.51287 -1.40098,-1.01882 -2.28711,-1.54322 -1.77227,-1.04882 -3.98024,-2.15657 -6.11328,-3.2564 -2.13305,-1.09985 -4.19563,-2.19717 -5.5996098,-3.16069 -0.70199,-0.48176 -1.23579,-0.93864 -1.50977,-1.26974 -0.18078,-0.21848 -0.21248,-0.29229 -0.22265,-0.31841 0.0368,-0.0178 0.12083,-0.0533 0.31445,-0.0996 0.3945,-0.0943 1.08099,-0.13233 1.9160198,-0.086 1.67005,0.0928 3.95156,0.48298 6.29101,0.91813 2.33945,0.43514 4.74193,0.91339 6.76367,1.16621 1.01087,0.12641 1.92386,0.19909 2.72071,0.1719 0.79684,-0.0272 1.49798,-0.10007 2.1289,-0.58017 0.62884,-0.47847 0.89323,-1.12433 1.16211,-1.8968 0.26888,-0.77247 0.48755,-1.69714 0.6875,-2.73679 0.39992,-2.07928 0.71941,-4.61451 1.05469,-7.07929 0.33528,-2.46479 0.68922,-4.86384 1.12695,-6.58118 0.21887,-0.8586699 0.4669,-1.5495599 0.68555,-1.9417299 0.0816,-0.14638 0.11984,-0.20391 0.14062,-0.23637 z" />
  </g>
</svg>
