<?xml version="1.0" encoding="UTF-8" standalone="no"?>
<svg
   xmlns:dc="http://purl.org/dc/elements/1.1/"
   xmlns:cc="http://creativecommons.org/ns#"
   xmlns:rdf="http://www.w3.org/1999/02/22-rdf-syntax-ns#"
   xmlns:svg="http://www.w3.org/2000/svg"
   xmlns="http://www.w3.org/2000/svg"
   xmlns:xlink="http://www.w3.org/1999/xlink"
   xmlns:sodipodi="http://sodipodi.sourceforge.net/DTD/sodipodi-0.dtd"
   xmlns:inkscape="http://www.inkscape.org/namespaces/inkscape"
   width="64"
   height="64"
   viewBox="0 0 64 64"
   version="1.1"
   id="svg6374"
   inkscape:version="1.0.2 (e86c870879, 2021-01-15)"
   sodipodi:docname="folder-music.svg">
  <defs
     id="defs6368">
    <linearGradient
       inkscape:collect="always"
       xlink:href="#linearGradient1077"
       id="linearGradient2881"
       gradientUnits="userSpaceOnUse"
       x1="33.48571"
       y1="4.0123987"
       x2="33.594517"
       y2="23.910183" />
    <linearGradient
       inkscape:collect="always"
       id="linearGradient1077">
      <stop
         style="stop-color:#9e9ea4;stop-opacity:1"
         offset="0"
         id="stop1073" />
      <stop
         style="stop-color:#797984;stop-opacity:1"
         offset="1"
         id="stop1075" />
    </linearGradient>
    <linearGradient
       inkscape:collect="always"
       xlink:href="#linearGradient1083"
       id="linearGradient2883"
       gradientUnits="userSpaceOnUse"
       gradientTransform="translate(-5.70703,-71.2207)"
       x1="38.194393"
       y1="86.220306"
       x2="37.853539"
       y2="130.25267" />
    <linearGradient
       inkscape:collect="always"
       id="linearGradient1083">
      <stop
         style="stop-color:#c2c2d1;stop-opacity:1"
         offset="0"
         id="stop1079" />
      <stop
         style="stop-color:#6e6e76;stop-opacity:1"
         offset="1"
         id="stop1081" />
    </linearGradient>
  </defs>
  <sodipodi:namedview
     id="base"
     pagecolor="#cecece"
     bordercolor="#666666"
     borderopacity="1.0"
     inkscape:pageopacity="0"
     inkscape:pageshadow="2"
     inkscape:zoom="5.5639287"
     inkscape:cx="8.3100654"
     inkscape:cy="29.73153"
     inkscape:document-units="px"
     inkscape:current-layer="layer1"
     inkscape:document-rotation="0"
     showgrid="false"
     units="px"
     inkscape:window-width="1368"
     inkscape:window-height="846"
     inkscape:window-x="68"
     inkscape:window-y="56"
     inkscape:window-maximized="0" />
  <metadata
     id="metadata6371">
    <rdf:RDF>
      <cc:Work
         rdf:about="">
        <dc:format>image/svg+xml</dc:format>
        <dc:type
           rdf:resource="http://purl.org/dc/dcmitype/StillImage" />
        <dc:title></dc:title>
      </cc:Work>
    </rdf:RDF>
  </metadata>
  <g
     inkscape:label="Layer 1"
     inkscape:groupmode="layer"
     id="layer1">
    <path
       id="rect1006-9-7-2-1"
       style="isolation:isolate;fill:#797984;fill-opacity:1;stroke:none;stroke-width:0.611371;stroke-miterlimit:4;stroke-dasharray:none;stroke-opacity:1"
       d="M 7.01922,4.5 C 5.34662,4.5 4,5.85756 4,7.54373 v 4.9091 0.0489 15.95454 C 4,30.14244 5.34662,31.5 7.01922,31.5 H 56.98077 C 58.65337,31.5 60,30.14244 60,28.45627 V 12.45282 C 60,10.76665 58.65336,9.40909 56.98077,9.40909 H 28.5913 L 24.2087,4.5 H 20.45903 7.16522 Z" />
    <path
       id="rect1006-9-9-5-72-0"
       style="color:#000000;font-style:normal;font-variant:normal;font-weight:normal;font-stretch:normal;font-size:medium;line-height:normal;font-family:sans-serif;font-variant-ligatures:normal;font-variant-position:normal;font-variant-caps:normal;font-variant-numeric:normal;font-variant-alternates:normal;font-variant-east-asian:normal;font-feature-settings:normal;font-variation-settings:normal;text-indent:0;text-align:start;text-decoration:none;text-decoration-line:none;text-decoration-style:solid;text-decoration-color:#000000;letter-spacing:normal;word-spacing:normal;text-transform:none;writing-mode:lr-tb;direction:ltr;text-orientation:mixed;dominant-baseline:auto;baseline-shift:baseline;text-anchor:start;white-space:normal;shape-padding:0;shape-margin:0;inline-size:0;clip-rule:nonzero;display:inline;overflow:visible;visibility:visible;isolation:isolate;mix-blend-mode:normal;color-interpolation:sRGB;color-interpolation-filters:linearRGB;solid-color:#000000;solid-opacity:1;vector-effect:none;fill:url(#linearGradient2881);fill-opacity:1;fill-rule:nonzero;stroke:none;stroke-linecap:butt;stroke-linejoin:miter;stroke-miterlimit:4;stroke-dasharray:none;stroke-dashoffset:0;stroke-opacity:1;color-rendering:auto;image-rendering:auto;shape-rendering:auto;text-rendering:auto;enable-background:accumulate;stop-color:#000000"
       d="M 7.01953,4.125 C 5.14402,4.125 3.625,5.65714 3.625,7.54297 v 4.91016 0.0488 15.95507 c 0,1.88584 1.51902,3.41797 3.39453,3.41797 h 49.96094 c 1.87551,0 3.39453,-1.53213 3.39453,-3.41797 V 12.4531 c 0,-1.88584 -1.51902,-3.41992 -3.39453,-3.41992 H 28.75976 L 24.37695,4.125 H 20.45898 7.16602 Z m 0,0.75 h 0.14649 13.29296 3.58203 l 4.38282,4.90821 h 28.55664 c 1.46969,0 2.64453,1.1834 2.64453,2.66992 v 16.0039 c 0,1.48653 -1.17484,2.66797 -2.64453,2.66797 H 7.01953 C 5.54984,31.125 4.375,29.94356 4.375,28.45703 V 12.50196 12.45316 7.543 c 0,-1.48652 1.17484,-2.66797 2.64453,-2.66797 z" />
    <path
       id="rect880-1-9-6-9-2-7"
       style="opacity:0.125;isolation:isolate;fill:#313135;fill-opacity:1;stroke:none;stroke-width:0.609903;stroke-miterlimit:4;stroke-dasharray:none;stroke-opacity:1"
       d="m 32.32031,13.5 -0.11133,0.125 -4.27148,4.76367 H 7.01953 c -1.87467,0 -3.39453,1.52653 -3.39453,3.40625 v 33.04883 c 0,1.87971 1.51986,3.40625 3.39453,3.40625 h 49.96094 c 1.87467,0 3.39453,-1.52653 3.39453,-3.40625 v -22 -11.04883 -4.88867 C 60.375,15.02653 58.85514,13.5 56.98047,13.5 h -5.01563 -8.42382 z" />
    <path
       id="rect880-1-9-2-6-5"
       style="opacity:0.15;isolation:isolate;fill:#313135;fill-opacity:1;stroke:none;stroke-width:0.609903;stroke-miterlimit:4;stroke-dasharray:none;stroke-opacity:1"
       d="M 32.32031,16.125 32.20898,16.25 27.9375,21.01367 H 7.01953 c -1.87467,0 -3.39453,1.52653 -3.39453,3.40625 v 33.04883 c 0,1.87971 1.51986,3.40625 3.39453,3.40625 h 49.96094 c 1.87467,0 3.39453,-1.52653 3.39453,-3.40625 v -22 -11.04883 -4.88867 c 0,-1.87972 -1.51986,-3.40625 -3.39453,-3.40625 h -5.01563 -8.42382 z" />
    <path
       id="rect880-1-28-1-8"
       style="isolation:isolate;fill:#9e9ea4;fill-opacity:1;stroke:none;stroke-width:0.609904;stroke-miterlimit:4;stroke-dasharray:none;stroke-opacity:1"
       d="m 32.48697,15 -4.38261,4.88889 H 7.0192 C 5.3466,19.88889 4,21.24086 4,22.92009 v 33.0487 C 4,57.64803 5.3466,59 7.0192,59 H 56.98078 C 58.65338,59 60,57.64803 60,55.96879 V 33.96927 22.92009 18.03121 C 60,16.35197 58.65338,15 56.98078,15 h -5.01555 -8.4243 z" />
    <path
       id="rect880-1-2-9-061-7"
       style="color:#000000;font-style:normal;font-variant:normal;font-weight:normal;font-stretch:normal;font-size:medium;line-height:normal;font-family:sans-serif;font-variant-ligatures:normal;font-variant-position:normal;font-variant-caps:normal;font-variant-numeric:normal;font-variant-alternates:normal;font-variant-east-asian:normal;font-feature-settings:normal;font-variation-settings:normal;text-indent:0;text-align:start;text-decoration:none;text-decoration-line:none;text-decoration-style:solid;text-decoration-color:#000000;letter-spacing:normal;word-spacing:normal;text-transform:none;writing-mode:lr-tb;direction:ltr;text-orientation:mixed;dominant-baseline:auto;baseline-shift:baseline;text-anchor:start;white-space:normal;shape-padding:0;shape-margin:0;inline-size:0;clip-rule:nonzero;display:inline;overflow:visible;visibility:visible;isolation:isolate;mix-blend-mode:normal;color-interpolation:sRGB;color-interpolation-filters:linearRGB;solid-color:#000000;solid-opacity:1;vector-effect:none;fill:url(#linearGradient2883);fill-opacity:1;fill-rule:nonzero;stroke:none;stroke-linecap:butt;stroke-linejoin:miter;stroke-miterlimit:4;stroke-dasharray:none;stroke-dashoffset:0;stroke-opacity:1;color-rendering:auto;image-rendering:auto;shape-rendering:auto;text-rendering:auto;enable-background:accumulate;stop-color:#000000"
       d="M 32.32031,14.625 32.20898,14.75 27.9375,19.51367 H 7.01953 c -1.87467,0 -3.39453,1.52654 -3.39453,3.40625 v 33.04882 c 0,1.87971 1.51986,3.40625 3.39453,3.40625 h 49.96094 c 1.87467,0 3.39453,-1.52653 3.39453,-3.40625 V 33.96875 22.91992 18.03125 c 0,-1.87972 -1.51986,-3.40625 -3.39453,-3.40625 h -5.01563 -8.42382 z m 0.33399,0.75 h 10.88672 8.42382 5.01563 c 1.47052,0 2.64453,1.1775 2.64453,2.65625 v 4.88867 11.04883 21.99999 c 0,1.47875 -1.17401,2.65625 -2.64453,2.65625 H 7.01953 c -1.47052,0 -2.64453,-1.1775 -2.64453,-2.65625 V 22.91992 c 0,-1.47876 1.17401,-2.65625 2.64453,-2.65625 h 21.25195 z" />
    <path
       id="path3360-2-2-0"
       style="opacity:0.15;fill:#4c1a2c;fill-opacity:1;stroke:none;stroke-width:3.34469;stroke-linecap:round;stroke-linejoin:round;stroke-miterlimit:4;stroke-dasharray:none;stroke-opacity:1"
       d="m 31.89257,28.00011 a 13,13 0 0 0 -12.89257,13 13,13 0 0 0 13,13 13,13 0 0 0 13,-13 13,13 0 0 0 -13,-13 13,13 0 0 0 -0.10743,0 z m 0.10743,2 a 11,11 0 0 1 11,11 11,11 0 0 1 -11,11 11,11 0 0 1 -11,-11 11,11 0 0 1 11,-11 z" />
    <circle
       style="fill:#adadb3;fill-opacity:1;stroke:none;stroke-width:2.83012;stroke-linecap:round;stroke-linejoin:round;stroke-miterlimit:4;stroke-dasharray:none;stroke-opacity:1"
       id="path3360-1-4-4"
       cx="32"
       cy="39"
       r="11" />
    <path
       id="path3360-1-1-5-8-8"
       style="color:#000000;font-style:normal;font-variant:normal;font-weight:normal;font-stretch:normal;font-size:medium;line-height:normal;font-family:sans-serif;font-variant-ligatures:normal;font-variant-position:normal;font-variant-caps:normal;font-variant-numeric:normal;font-variant-alternates:normal;font-variant-east-asian:normal;font-feature-settings:normal;font-variation-settings:normal;text-indent:0;text-align:start;text-decoration:none;text-decoration-line:none;text-decoration-style:solid;text-decoration-color:#000000;letter-spacing:normal;word-spacing:normal;text-transform:none;writing-mode:lr-tb;direction:ltr;text-orientation:mixed;dominant-baseline:auto;baseline-shift:baseline;text-anchor:start;white-space:normal;shape-padding:0;shape-margin:0;inline-size:0;clip-rule:nonzero;display:inline;overflow:visible;visibility:visible;opacity:0.8;isolation:auto;mix-blend-mode:normal;color-interpolation:sRGB;color-interpolation-filters:linearRGB;solid-color:#000000;solid-opacity:1;vector-effect:none;fill:#fafafa;fill-opacity:1;fill-rule:nonzero;stroke:none;stroke-width:0.999886;stroke-linecap:round;stroke-linejoin:round;stroke-miterlimit:4;stroke-dasharray:none;stroke-dashoffset:0;stroke-opacity:1;color-rendering:auto;image-rendering:auto;shape-rendering:auto;text-rendering:auto;enable-background:accumulate;stop-color:#000000"
       d="m 32.66824,30.5292 a 0.74982863,0.75 0 0 0 -0.74023,0.6836 0.74982863,0.75 0 0 0 0.68164,0.8125 c 2.93348,0.25671 5.38824,2.3171 6.15039,5.16211 a 0.74982863,0.75 0 0 0 0.91797,0.53125 0.74982863,0.75 0 0 0 0.53125,-0.91992 C 39.28527,33.3496 36.29692,30.84238 32.74051,30.53116 a 0.74982863,0.75 0 0 0 -0.0723,-0.002 z m -8.1914,9.72657 a 0.74987266,0.75 0 0 0 -0.15625,0.0254 0.74987266,0.75 0 0 0 -0.53125,0.91797 c 0.92404,3.44913 3.91213,5.95636 7.46875,6.26757 a 0.74987266,0.75 0 0 0 0.8125,-0.68164 0.74987266,0.75 0 0 0 -0.68164,-0.8125 c -2.93366,-0.25671 -5.3882,-2.3171 -6.15039,-5.1621 a 0.74987266,0.75 0 0 0 -0.76172,-0.55469 z" />
    <circle
       style="opacity:0.075;fill:#313135;fill-opacity:1;stroke:none;stroke-width:2.83012;stroke-linecap:round;stroke-linejoin:round;stroke-miterlimit:4;stroke-dasharray:none;stroke-opacity:1"
       id="path3360-1-4-7-0"
       cx="32"
       cy="39"
       r="11" />
    <path
       id="path3360-2-4"
       style="fill:#fafafa;fill-opacity:1;stroke:none;stroke-width:3.34469;stroke-linecap:round;stroke-linejoin:round;stroke-miterlimit:4;stroke-dasharray:none;stroke-opacity:1"
       d="m 31.89257,26.00011 a 13,13 0 0 0 -12.89257,13 13,13 0 0 0 13,13 13,13 0 0 0 13,-13 13,13 0 0 0 -13,-13 13,13 0 0 0 -0.10743,0 z m 0.10743,2 a 11,11 0 0 1 11,11 11,11 0 0 1 -11,11 11,11 0 0 1 -11,-11 11,11 0 0 1 11,-11 z" />
    <path
       id="path3360-9-6-8-2"
       style="opacity:0.15;fill:#313135;fill-opacity:1;stroke:none;stroke-width:1.25426;stroke-linecap:round;stroke-linejoin:round;stroke-miterlimit:4;stroke-dasharray:none;stroke-opacity:1"
       d="m 31.95508,35.37505 a 4.875,4.875 0 0 0 -4.83008,4.875 4.875,4.875 0 0 0 4.875,4.875 4.875,4.875 0 0 0 4.875,-4.875 4.875,4.875 0 0 0 -4.875,-4.875 4.875,4.875 0 0 0 -0.0449,0 z m -0.004,1.5 a 3.375,3.375 0 0 1 0.0488,0 3.375,3.375 0 0 1 3.375,3.375 3.375,3.375 0 0 1 -3.375,3.375 3.375,3.375 0 0 1 -3.375,-3.375 3.375,3.375 0 0 1 3.32617,-3.375 z" />
    <circle
       style="opacity:0.95;fill:#fafafa;fill-opacity:1;stroke:none;stroke-width:0.385927;stroke-linecap:round;stroke-linejoin:round;stroke-miterlimit:4;stroke-dasharray:none;stroke-opacity:1"
       id="path3360-1-3-0-9"
       cx="32"
       cy="39"
       r="1.5" />
    <path
       id="path3360-9-6-6"
       style="fill:#fafafa;fill-opacity:1;stroke:none;stroke-width:1.25426;stroke-linecap:round;stroke-linejoin:round;stroke-miterlimit:4;stroke-dasharray:none;stroke-opacity:1"
       d="m 31.95508,34.12505 a 4.875,4.875 0 0 0 -4.83008,4.875 4.875,4.875 0 0 0 4.875,4.875 4.875,4.875 0 0 0 4.875,-4.875 4.875,4.875 0 0 0 -4.875,-4.875 4.875,4.875 0 0 0 -0.0449,0 z m -0.004,1.5 a 3.375,3.375 0 0 1 0.0488,0 3.375,3.375 0 0 1 3.375,3.375 3.375,3.375 0 0 1 -3.375,3.375 3.375,3.375 0 0 1 -3.375,-3.375 3.375,3.375 0 0 1 3.32617,-3.375 z" />
    <path
       id="path3360-4-9-1"
       style="opacity:0.15;fill:#313135;fill-opacity:1;stroke:none;stroke-width:2.83012;stroke-linecap:round;stroke-linejoin:round;stroke-miterlimit:4;stroke-dasharray:none;stroke-opacity:1"
       d="m 32,28.00011 a 11,11 0 0 0 -11,11 11,11 0 0 0 11,11 11,11 0 0 0 11,-11 11,11 0 0 0 -11,-11 z m -0.0195,1.5 a 10,10 0 0 1 0.0195,0 10,10 0 0 1 10,10 10,10 0 0 1 -10,10 10,10 0 0 1 -10,-10 10,10 0 0 1 9.98046,-10 z" />
  </g>
</svg>
