<?xml version="1.0" encoding="UTF-8" standalone="no"?>
<svg
   xmlns:dc="http://purl.org/dc/elements/1.1/"
   xmlns:cc="http://creativecommons.org/ns#"
   xmlns:rdf="http://www.w3.org/1999/02/22-rdf-syntax-ns#"
   xmlns:svg="http://www.w3.org/2000/svg"
   xmlns="http://www.w3.org/2000/svg"
   xmlns:xlink="http://www.w3.org/1999/xlink"
   xmlns:sodipodi="http://sodipodi.sourceforge.net/DTD/sodipodi-0.dtd"
   xmlns:inkscape="http://www.inkscape.org/namespaces/inkscape"
   width="64"
   height="64"
   viewBox="0 0 64 64"
   version="1.1"
   id="svg6374"
   inkscape:version="1.0.2 (e86c870879, 2021-01-15)"
   sodipodi:docname="folder-drag-accept.svg">
  <defs
     id="defs6368">
    <linearGradient
       inkscape:collect="always"
       xlink:href="#linearGradient1077"
       id="linearGradient2903"
       gradientUnits="userSpaceOnUse"
       gradientTransform="translate(-99.240168,-105.29205)"
       x1="128.86517"
       y1="108.2198"
       x2="129.1488"
       y2="128.50296" />
    <linearGradient
       inkscape:collect="always"
       id="linearGradient1077">
      <stop
         style="stop-color:#9e9ea4;stop-opacity:1"
         offset="0"
         id="stop1073" />
      <stop
         style="stop-color:#797984;stop-opacity:1"
         offset="1"
         id="stop1075" />
    </linearGradient>
    <linearGradient
       inkscape:collect="always"
       xlink:href="#linearGradient1083"
       id="linearGradient2905"
       gradientUnits="userSpaceOnUse"
       gradientTransform="translate(-100.017,-104)"
       x1="125.98243"
       y1="137.97363"
       x2="126.31945"
       y2="163.21983" />
    <linearGradient
       inkscape:collect="always"
       id="linearGradient1083">
      <stop
         style="stop-color:#c2c2d1;stop-opacity:1"
         offset="0"
         id="stop1079" />
      <stop
         style="stop-color:#6e6e76;stop-opacity:1"
         offset="1"
         id="stop1081" />
    </linearGradient>
  </defs>
  <sodipodi:namedview
     id="base"
     pagecolor="#cecece"
     bordercolor="#666666"
     borderopacity="1.0"
     inkscape:pageopacity="0"
     inkscape:pageshadow="2"
     inkscape:zoom="5.5639287"
     inkscape:cx="8.3100654"
     inkscape:cy="29.73153"
     inkscape:document-units="px"
     inkscape:current-layer="layer1"
     inkscape:document-rotation="0"
     showgrid="false"
     units="px"
     inkscape:window-width="1368"
     inkscape:window-height="846"
     inkscape:window-x="68"
     inkscape:window-y="56"
     inkscape:window-maximized="0" />
  <metadata
     id="metadata6371">
    <rdf:RDF>
      <cc:Work
         rdf:about="">
        <dc:format>image/svg+xml</dc:format>
        <dc:type
           rdf:resource="http://purl.org/dc/dcmitype/StillImage" />
        <dc:title></dc:title>
      </cc:Work>
    </rdf:RDF>
  </metadata>
  <g
     inkscape:label="Layer 1"
     inkscape:groupmode="layer"
     id="layer1">
    <path
       id="rect1006-9-4-25-42"
       style="display:inline;isolation:isolate;fill:#797984;fill-opacity:1;stroke:none;stroke-width:0.603774;stroke-miterlimit:4;stroke-dasharray:none;stroke-opacity:1"
       d="m 7.0191223,4.50004 c -1.6726,0 -3.01923,1.32544 -3.01923,2.97172 v 4.79294 0.0477 8.11804 13.41789 8.53509 c 0,1.64628 1.34663,2.97171 3.01923,2.97171 H 56.980742 c 1.6726,0 3.01924,-1.32543 3.01924,-2.97171 V 33.84833 20.43044 12.26466 c 0,-1.64628 -1.34664,-2.97172 -3.01924,-2.97172 H 28.591232 L 24.208622,4.5 H 20.458962 7.1651223 Z" />
    <path
       id="path2239-3-6-7-2"
       style="color:#000000;font-style:normal;font-variant:normal;font-weight:normal;font-stretch:normal;font-size:medium;line-height:normal;font-family:sans-serif;font-variant-ligatures:normal;font-variant-position:normal;font-variant-caps:normal;font-variant-numeric:normal;font-variant-alternates:normal;font-variant-east-asian:normal;font-feature-settings:normal;font-variation-settings:normal;text-indent:0;text-align:start;text-decoration:none;text-decoration-line:none;text-decoration-style:solid;text-decoration-color:#000000;letter-spacing:normal;word-spacing:normal;text-transform:none;writing-mode:lr-tb;direction:ltr;text-orientation:mixed;dominant-baseline:auto;baseline-shift:baseline;text-anchor:start;white-space:normal;shape-padding:0;shape-margin:0;inline-size:0;clip-rule:nonzero;display:inline;overflow:visible;visibility:visible;opacity:0.15;isolation:auto;mix-blend-mode:normal;color-interpolation:sRGB;color-interpolation-filters:linearRGB;solid-color:#000000;solid-opacity:1;vector-effect:none;fill:#313135;fill-opacity:1;fill-rule:nonzero;stroke:none;stroke-width:0.603889;stroke-linecap:butt;stroke-linejoin:round;stroke-miterlimit:4;stroke-dasharray:none;stroke-dashoffset:0;stroke-opacity:1;color-rendering:auto;image-rendering:auto;shape-rendering:auto;text-rendering:auto;enable-background:accumulate;stop-color:#000000"
       d="m 34.275312,35.561 a 0.37504991,0.3750375 0 0 0 -0.26367,0.10938 l -0.0898,0.0879 -4.60937,4.5957 h -2.98633 -4.14844 -17.0761697 c -2.03921,0 -3.61055,1.69245 -3.43164,3.70508 l 0.10547,1.20703 1.06836,12.02149 c 0.17825,2.00534 1.92884,3.58789 3.96093,3.58789 h 20.6152397 0.66406 28.68164 c 2.03209,0 3.78462,-1.58255 3.96289,-3.58789 l 1.06836,-12.02149 0.10742,-1.20703 0.42579,-4.79297 c 0.1789,-2.01263 -1.39243,-3.70508 -3.43164,-3.70508 h -5.01758 -8.42383 z" />
    <path
       id="rect1006-9-4-25-4-6"
       style="color:#000000;font-style:normal;font-variant:normal;font-weight:normal;font-stretch:normal;font-size:medium;line-height:normal;font-family:sans-serif;font-variant-ligatures:normal;font-variant-position:normal;font-variant-caps:normal;font-variant-numeric:normal;font-variant-alternates:normal;font-variant-east-asian:normal;font-feature-settings:normal;font-variation-settings:normal;text-indent:0;text-align:start;text-decoration:none;text-decoration-line:none;text-decoration-style:solid;text-decoration-color:#000000;letter-spacing:normal;word-spacing:normal;text-transform:none;writing-mode:lr-tb;direction:ltr;text-orientation:mixed;dominant-baseline:auto;baseline-shift:baseline;text-anchor:start;white-space:normal;shape-padding:0;shape-margin:0;inline-size:0;clip-rule:nonzero;display:inline;overflow:visible;visibility:visible;isolation:isolate;mix-blend-mode:normal;color-interpolation:sRGB;color-interpolation-filters:linearRGB;solid-color:#000000;solid-opacity:1;vector-effect:none;fill:url(#linearGradient2903);fill-opacity:1;fill-rule:nonzero;stroke:none;stroke-linecap:round;stroke-linejoin:round;stroke-miterlimit:4;stroke-dasharray:none;stroke-dashoffset:0;stroke-opacity:1;color-rendering:auto;image-rendering:auto;shape-rendering:auto;text-rendering:auto;enable-background:accumulate;stop-color:#000000"
       d="m 7.0195423,4.125 c -1.87072,0 -3.39454,1.49688 -3.39454,3.34766 v 4.79297 0.0469 8.11914 13.41797 8.53516 c 0,1.85078 1.52383,3.3457 3.39454,3.3457 H 56.980472 c 1.87071,0 3.39453,-1.49492 3.39453,-3.3457 V 33.84964 20.43167 12.26566 c 0,-1.85078 -1.52382,-3.34766 -3.39453,-3.34766 h -28.22461 l -4.26953,-4.66992 a 0.3750375,0.3750375 0 0 0 -0.27734,-0.12305 h -3.75 -13.2929697 z m 0,0.75 h 0.14648 13.2929697 3.58398 l 4.27149,4.67188 a 0.3750375,0.3750375 0 0 0 0.27734,0.12109 h 28.38867 c 1.47449,0 2.64453,1.15588 2.64453,2.59766 v 8.16601 13.41797 8.53516 c 0,1.44178 -1.17004,2.5957 -2.64453,2.5957 H 7.0195423 c -1.4745,0 -2.64454,-1.15392 -2.64454,-2.5957 V 33.84961 20.43164 12.3125 12.2656 7.47263 c 0,-1.44178 1.17005,-2.59766 2.64454,-2.59766 z" />
    <path
       id="path2239-3-6-7-4-4"
       style="color:#000000;font-style:normal;font-variant:normal;font-weight:normal;font-stretch:normal;font-size:medium;line-height:normal;font-family:sans-serif;font-variant-ligatures:normal;font-variant-position:normal;font-variant-caps:normal;font-variant-numeric:normal;font-variant-alternates:normal;font-variant-east-asian:normal;font-feature-settings:normal;font-variation-settings:normal;text-indent:0;text-align:start;text-decoration:none;text-decoration-line:none;text-decoration-style:solid;text-decoration-color:#000000;letter-spacing:normal;word-spacing:normal;text-transform:none;writing-mode:lr-tb;direction:ltr;text-orientation:mixed;dominant-baseline:auto;baseline-shift:baseline;text-anchor:start;white-space:normal;shape-padding:0;shape-margin:0;inline-size:0;clip-rule:nonzero;display:inline;overflow:visible;visibility:visible;opacity:0.172;isolation:auto;mix-blend-mode:normal;color-interpolation:sRGB;color-interpolation-filters:linearRGB;solid-color:#000000;solid-opacity:1;vector-effect:none;fill:#313135;fill-opacity:1;fill-rule:nonzero;stroke:none;stroke-width:0.603889;stroke-linecap:butt;stroke-linejoin:round;stroke-miterlimit:4;stroke-dasharray:none;stroke-dashoffset:0;stroke-opacity:1;color-rendering:auto;image-rendering:auto;shape-rendering:auto;text-rendering:auto;enable-background:accumulate;stop-color:#000000"
       d="m 34.275312,32.561 a 0.37504991,0.3750375 0 0 0 -0.26367,0.10938 l -0.0898,0.0879 -4.60937,4.5957 h -2.98633 -4.14844 -17.0761697 c -2.03921,0 -3.61055,1.69245 -3.43164,3.70508 l 0.10547,1.20703 1.06836,12.02149 c 0.17825,2.00534 1.92884,3.58789 3.96093,3.58789 h 20.6152397 0.66406 28.68164 c 2.03209,0 3.78462,-1.58255 3.96289,-3.58789 l 1.06836,-12.02149 0.10742,-1.20703 0.42579,-4.79297 c 0.1789,-2.01263 -1.39243,-3.70508 -3.43164,-3.70508 h -5.01758 -8.42383 z" />
    <path
       id="path2239-3-1"
       style="color:#000000;font-style:normal;font-variant:normal;font-weight:normal;font-stretch:normal;font-size:medium;line-height:normal;font-family:sans-serif;font-variant-ligatures:normal;font-variant-position:normal;font-variant-caps:normal;font-variant-numeric:normal;font-variant-alternates:normal;font-variant-east-asian:normal;font-feature-settings:normal;font-variation-settings:normal;text-indent:0;text-align:start;text-decoration:none;text-decoration-line:none;text-decoration-style:solid;text-decoration-color:#000000;letter-spacing:normal;word-spacing:normal;text-transform:none;writing-mode:lr-tb;direction:ltr;text-orientation:mixed;dominant-baseline:auto;baseline-shift:baseline;text-anchor:start;white-space:normal;shape-padding:0;shape-margin:0;inline-size:0;clip-rule:nonzero;display:inline;overflow:visible;visibility:visible;isolation:auto;mix-blend-mode:normal;color-interpolation:sRGB;color-interpolation-filters:linearRGB;solid-color:#000000;solid-opacity:1;vector-effect:none;fill:#9e9ea4;fill-opacity:1;fill-rule:nonzero;stroke:none;stroke-width:0.603889;stroke-linecap:butt;stroke-linejoin:round;stroke-miterlimit:4;stroke-dasharray:none;stroke-dashoffset:0;stroke-opacity:1;color-rendering:auto;image-rendering:auto;shape-rendering:auto;text-rendering:auto;enable-background:accumulate;stop-color:#000000"
       d="m 34.276652,34.43603 -0.0895,0.0889 -4.7193,4.70401 h -3.14002 -4.14913 -17.0768097 c -1.83595,0 -3.21869,1.49226 -3.05822,3.29749 l 0.10699,1.2076 1.06855,12.02073 c 0.16046,1.80523 1.7506,3.24506 3.58656,3.24506 h 20.6153397 0.66434 28.682 c 1.83596,0 3.42609,-1.43983 3.58656,-3.24506 l 1.06855,-12.02073 0.10747,-1.2076 0.42608,-4.79294 c 0.16047,-1.80523 -1.22227,-3.29749 -3.05822,-3.29749 h -5.01556 -8.42429 z" />
    <path
       id="path2239-3-0-2"
       style="color:#000000;font-style:normal;font-variant:normal;font-weight:normal;font-stretch:normal;font-size:medium;line-height:normal;font-family:sans-serif;font-variant-ligatures:normal;font-variant-position:normal;font-variant-caps:normal;font-variant-numeric:normal;font-variant-alternates:normal;font-variant-east-asian:normal;font-feature-settings:normal;font-variation-settings:normal;text-indent:0;text-align:start;text-decoration:none;text-decoration-line:none;text-decoration-style:solid;text-decoration-color:#000000;letter-spacing:normal;word-spacing:normal;text-transform:none;writing-mode:lr-tb;direction:ltr;text-orientation:mixed;dominant-baseline:auto;baseline-shift:baseline;text-anchor:start;white-space:normal;shape-padding:0;shape-margin:0;inline-size:0;clip-rule:nonzero;display:inline;overflow:visible;visibility:visible;isolation:auto;mix-blend-mode:normal;color-interpolation:sRGB;color-interpolation-filters:linearRGB;solid-color:#000000;solid-opacity:1;vector-effect:none;fill:url(#linearGradient2905);fill-opacity:1;fill-rule:nonzero;stroke:none;stroke-width:1.00002;stroke-linecap:round;stroke-linejoin:round;stroke-miterlimit:4;stroke-dasharray:none;stroke-dashoffset:0;stroke-opacity:1;color-rendering:auto;image-rendering:auto;shape-rendering:auto;text-rendering:auto;enable-background:accumulate;stop-color:#000000"
       d="m 34.276402,34.061 a 0.37504991,0.3750375 0 0 0 -0.26368,0.10938 l -0.0898,0.0879 -4.60953,4.5957 h -2.98643 -4.14857 -17.0767397 c -2.03921,0 -3.61067,1.69245 -3.43176,3.70508 l 0.10547,1.20703 1.0684,12.02149 c 0.17826,2.00534 1.92898,3.58789 3.96107,3.58789 h 20.6159097 0.66409 28.68259 c 2.03209,0 3.78281,-1.58255 3.96108,-3.58789 l 1.06838,-12.02149 0.10743,-1.20703 0.4258,-4.79297 c 0.1789,-2.01263 -1.39254,-3.70508 -3.43175,-3.70508 h -5.0158 -8.42411 z m 0.15431,0.75 h 11.0277 8.42411 5.0158 c 1.6328,0 2.82767,1.29085 2.68562,2.88867 l -0.42579,4.79297 -0.10742,1.20703 a 0.37504991,0.3750375 0 0 0 -0.002,0 l -1.0684,12.02149 c -0.14268,1.60512 -1.57304,2.9043 -3.213,2.9043 H 28.084742 27.420652 6.8047423 c -1.63995,0 -3.07032,-1.29918 -3.213,-2.9043 l -1.06839,-12.02149 -0.10742,-1.20703 c -0.14205,-1.59783 1.05282,-2.88867 2.68563,-2.88867 h 17.0767397 4.14857 3.14073 a 0.37504991,0.3750375 0 0 0 0.26368,-0.10937 z" />
  </g>
</svg>
