<?xml version="1.0" encoding="UTF-8" standalone="no"?>
<svg
   xmlns:dc="http://purl.org/dc/elements/1.1/"
   xmlns:cc="http://creativecommons.org/ns#"
   xmlns:rdf="http://www.w3.org/1999/02/22-rdf-syntax-ns#"
   xmlns:svg="http://www.w3.org/2000/svg"
   xmlns="http://www.w3.org/2000/svg"
   xmlns:xlink="http://www.w3.org/1999/xlink"
   xmlns:sodipodi="http://sodipodi.sourceforge.net/DTD/sodipodi-0.dtd"
   xmlns:inkscape="http://www.inkscape.org/namespaces/inkscape"
   width="64"
   height="64"
   viewBox="0 0 64 64"
   version="1.1"
   id="svg6374"
   inkscape:version="1.0.2 (e86c870879, 2021-01-15)"
   sodipodi:docname="application-json.svg">
  <defs
     id="defs6368">
    <linearGradient
       x1="102.48344"
       y1="103.26587"
       x2="238.25964"
       y2="231.90547"
       id="linearGradient-2"
       gradientTransform="matrix(0.11086626,0,0,0.11203135,188.08384,722.26635)"
       gradientUnits="userSpaceOnUse">
      <stop
         stop-color="#FFE052"
         offset="0%"
         id="stop119" />
      <stop
         stop-color="#FFC331"
         offset="100%"
         id="stop121" />
    </linearGradient>
    <linearGradient
       x1="24.714943"
       y1="22.898218"
       x2="151.13554"
       y2="148.33669"
       id="linearGradient-1"
       gradientTransform="matrix(0.11086626,0,0,0.11203134,188.08384,722.26635)"
       gradientUnits="userSpaceOnUse">
      <stop
         stop-color="#387EB8"
         offset="0%"
         id="stop114" />
      <stop
         stop-color="#366994"
         offset="100%"
         id="stop116" />
    </linearGradient>
    <linearGradient
       inkscape:collect="always"
       xlink:href="#linearGradient1101"
       id="linearGradient4051-2"
       gradientUnits="userSpaceOnUse"
       gradientTransform="matrix(0.93219804,0,0,0.93989829,0.28702,1.97416)"
       x1="20.074585"
       y1="22.750345"
       x2="42.246277"
       y2="43.052834" />
    <linearGradient
       inkscape:collect="always"
       id="linearGradient1101">
      <stop
         style="stop-color:#2d282d;stop-opacity:1"
         offset="0"
         id="stop1097" />
      <stop
         style="stop-color:#e1dce1;stop-opacity:1"
         offset="1"
         id="stop1099" />
    </linearGradient>
    <linearGradient
       inkscape:collect="always"
       xlink:href="#linearGradient1109"
       id="linearGradient4053-1"
       gradientUnits="userSpaceOnUse"
       gradientTransform="matrix(0.93219804,0,0,0.93989829,0.28702,1.97416)"
       x1="24.456549"
       y1="26.798227"
       x2="48.423134"
       y2="49.078449" />
    <linearGradient
       inkscape:collect="always"
       id="linearGradient1109">
      <stop
         style="stop-color:#e1dce1;stop-opacity:1"
         offset="0"
         id="stop1105" />
      <stop
         style="stop-color:#2d282d;stop-opacity:1"
         offset="1"
         id="stop1107" />
    </linearGradient>
  </defs>
  <sodipodi:namedview
     id="base"
     pagecolor="#cecece"
     bordercolor="#666666"
     borderopacity="1.0"
     inkscape:pageopacity="0"
     inkscape:pageshadow="2"
     inkscape:zoom="2.7426703"
     inkscape:cx="32.197047"
     inkscape:cy="49.267595"
     inkscape:document-units="px"
     inkscape:current-layer="layer1"
     inkscape:document-rotation="0"
     showgrid="false"
     units="px"
     inkscape:window-width="1024"
     inkscape:window-height="1080"
     inkscape:window-x="68"
     inkscape:window-y="56"
     inkscape:window-maximized="0" />
  <metadata
     id="metadata6371">
    <rdf:RDF>
      <cc:Work
         rdf:about="">
        <dc:format>image/svg+xml</dc:format>
        <dc:type
           rdf:resource="http://purl.org/dc/dcmitype/StillImage" />
        <dc:title></dc:title>
      </cc:Work>
    </rdf:RDF>
  </metadata>
  <g
     inkscape:label="Layer 1"
     inkscape:groupmode="layer"
     id="layer1">
    <path
       id="rect954-7-0-7-3-0-0-0-6-3-3-2-6-56"
       style="color:#000000;font-style:normal;font-variant:normal;font-weight:normal;font-stretch:normal;font-size:medium;line-height:normal;font-family:sans-serif;font-variant-ligatures:normal;font-variant-position:normal;font-variant-caps:normal;font-variant-numeric:normal;font-variant-alternates:normal;font-variant-east-asian:normal;font-feature-settings:normal;font-variation-settings:normal;text-indent:0;text-align:start;text-decoration:none;text-decoration-line:none;text-decoration-style:solid;text-decoration-color:#000000;letter-spacing:normal;word-spacing:normal;text-transform:none;writing-mode:lr-tb;direction:ltr;text-orientation:mixed;dominant-baseline:auto;baseline-shift:baseline;text-anchor:start;white-space:normal;shape-padding:0;shape-margin:0;inline-size:0;clip-rule:nonzero;display:inline;overflow:visible;visibility:visible;opacity:0.85;isolation:auto;mix-blend-mode:normal;color-interpolation:sRGB;color-interpolation-filters:linearRGB;solid-color:#000000;solid-opacity:1;vector-effect:none;fill:#5f5a5f;fill-opacity:1;fill-rule:nonzero;stroke:none;stroke-linecap:round;stroke-linejoin:round;stroke-miterlimit:4;stroke-dasharray:none;stroke-dashoffset:2.1875;stroke-opacity:1;color-rendering:auto;image-rendering:auto;shape-rendering:auto;text-rendering:auto;enable-background:accumulate;stop-color:#000000"
       d="M 13,2.5 C 10.53295,2.5 8.5,4.53295 8.5,7 v 49.99999 c 0,2.46706 2.03295,4.5 4.5,4.5 h 38 c 2.467,0 4.5,-2.03294 4.5,-4.5 V 7 C 55.5,4.53295 53.467,2.5 51,2.5 Z m 0,3 h 38 c 0.8569,0 1.5,0.64306 1.5,1.5 v 49.99999 c 0,0.85695 -0.6431,1.5 -1.5,1.5 H 13 c -0.85695,0 -1.5,-0.64305 -1.5,-1.5 V 7 c 0,-0.85694 0.64305,-1.5 1.5,-1.5 z" />
    <rect
       style="fill:#e3e4e2;fill-opacity:1;stroke-width:0.495;stroke-linecap:round;stroke-linejoin:round;stroke-miterlimit:4;stroke-dasharray:none;stroke-dashoffset:2.1875"
       id="rect954-7-0-7-3-1-4-8-5"
       width="44"
       height="56"
       x="10.000031"
       y="4.0000453"
       rx="3"
       ry="3" />
    <path
       id="rect1031-9-9-0-1-4-2"
       style="opacity:0.35;fill:#0c0c0c;fill-opacity:1;stroke:none;stroke-width:3.44724;stroke-linecap:round;stroke-linejoin:round;stroke-opacity:0.25"
       d="m 32.22267,18.75199 c -0.0813,0.003 -0.15522,0.009 -0.22208,0.0185 0.37005,0 0.74625,0.0189 1.12484,0.049 -0.35181,-0.0558 -0.65874,-0.0764 -0.90276,-0.0675 z m 0.90276,0.0675 c 0.12884,0.0204 0.26595,0.0478 0.40658,0.0782 -0.53614,-0.0834 -1.05023,-0.12726 -1.53142,-0.12726 -8.57298,0 -16.73759,7.14349 -16.73759,16.91763 0,10.86404 9.35901,16.88216 16.73759,16.88216 8.57299,0 16.73712,-7.14397 16.73712,-16.91811 0,-10.31919 -8.44218,-16.26209 -15.61228,-16.83262 z m -2.4149,8.38231 c 0.0949,0.0124 0.19135,0.029 0.28807,0.0466 0.32065,0.0586 0.64986,0.14265 0.98947,0.25937 0.10011,0.0374 4.92999,1.95819 4.92999,8.2332 0,6.24835 -4.91168,8.18366 -4.91168,8.18366 0.0115,0.0158 0.0232,0.0299 0.0347,0.0456 -0.0267,-0.011 -0.0544,-0.0192 -0.0809,-0.0306 -0.10009,-0.0374 -4.92999,-1.95868 -4.92999,-8.23368 0,-6.24836 4.89916,-8.20552 4.89916,-8.20552 -0.30648,-0.10651 -0.61733,-0.19031 -0.9307,-0.25208 -0.0957,-0.0189 -0.19193,-0.0319 -0.28807,-0.0466 z" />
    <path
       id="rect1031-8-2-5-9"
       style="fill:url(#linearGradient4051-2);fill-opacity:1;stroke-width:3.44724;stroke-linecap:round;stroke-linejoin:round;stroke-opacity:0.25"
       d="m 32.0004,17.77056 c -8.57299,0 -16.7374,7.14364 -16.7374,16.91777 0,10.86405 9.35881,16.88185 16.7374,16.88185 -1.66971,-0.2424 -7.2342,-1.44456 -7.309,-14.36677 -0.0504,-8.73981 2.82751,-12.23168 7.29671,-10.6957 0.10015,0.0374 4.93,1.95846 4.93,8.23347 0,6.24835 -4.91157,8.18351 -4.91157,8.18351 C 39.42757,53.12486 46.6901,40.0779 46.67941,32.23187 46.66681,22.95528 37.34155,17.77056 32.0004,17.77056 Z" />
    <path
       id="rect1031-7-7-7-8-0"
       style="fill:url(#linearGradient4053-1);fill-opacity:1;stroke-width:3.44724;stroke-linecap:round;stroke-linejoin:round;stroke-opacity:0.25"
       d="m 32.22275,17.75198 c -0.0813,0.003 -0.15549,0.009 -0.22234,0.0186 0.37005,0 0.74623,0.019 1.12481,0.0491 -0.35182,-0.0558 -0.65845,-0.0766 -0.90247,-0.0677 z m 0.90247,0.0677 c 3.11546,0.49396 9.89027,3.7988 9.89027,14.54388 0,8.06225 -6.6986,12.45124 -11.05562,10.57598 -0.10005,-0.0374 -4.92998,-1.95846 -4.92998,-8.23346 0,-6.24836 4.89927,-8.2054 4.89927,-8.2054 -4.90366,-1.70411 -10.91109,2.37106 -10.91109,10.53304 0,13.32704 9.79497,14.53645 10.98234,14.53645 8.57298,0 16.7374,-7.14363 16.7374,-16.91777 0,-10.31919 -8.44249,-16.26219 -15.61259,-16.83272 z" />
  </g>
</svg>
