<?xml version="1.0" encoding="UTF-8" standalone="no"?>
<svg
   xmlns:dc="http://purl.org/dc/elements/1.1/"
   xmlns:cc="http://creativecommons.org/ns#"
   xmlns:rdf="http://www.w3.org/1999/02/22-rdf-syntax-ns#"
   xmlns:svg="http://www.w3.org/2000/svg"
   xmlns="http://www.w3.org/2000/svg"
   xmlns:sodipodi="http://sodipodi.sourceforge.net/DTD/sodipodi-0.dtd"
   xmlns:inkscape="http://www.inkscape.org/namespaces/inkscape"
   width="64"
   height="64"
   viewBox="0 0 64 64"
   version="1.1"
   id="svg6374"
   inkscape:version="1.0.2 (e86c870879, 2021-01-15)"
   sodipodi:docname="document-export-rtl.svg">
  <defs
     id="defs6368" />
  <sodipodi:namedview
     id="base"
     pagecolor="#cecece"
     bordercolor="#666666"
     borderopacity="1.0"
     inkscape:pageopacity="0"
     inkscape:pageshadow="2"
     inkscape:zoom="3.8730982"
     inkscape:cx="7.9573605"
     inkscape:cy="66.041324"
     inkscape:document-units="px"
     inkscape:current-layer="layer1"
     inkscape:document-rotation="0"
     showgrid="false"
     units="px"
     inkscape:window-width="1500"
     inkscape:window-height="970"
     inkscape:window-x="68"
     inkscape:window-y="56"
     inkscape:window-maximized="0" />
  <metadata
     id="metadata6371">
    <rdf:RDF>
      <cc:Work
         rdf:about="">
        <dc:format>image/svg+xml</dc:format>
        <dc:type
           rdf:resource="http://purl.org/dc/dcmitype/StillImage" />
        <dc:title></dc:title>
      </cc:Work>
    </rdf:RDF>
  </metadata>
  <g
     inkscape:label="Layer 1"
     inkscape:groupmode="layer"
     id="layer1">
    <path
       id="rect954-7-0-7-3-0-0-0-6-7-7-8"
       style="color:#000000;font-style:normal;font-variant:normal;font-weight:normal;font-stretch:normal;font-size:medium;line-height:normal;font-family:sans-serif;font-variant-ligatures:normal;font-variant-position:normal;font-variant-caps:normal;font-variant-numeric:normal;font-variant-alternates:normal;font-variant-east-asian:normal;font-feature-settings:normal;font-variation-settings:normal;text-indent:0;text-align:start;text-decoration:none;text-decoration-line:none;text-decoration-style:solid;text-decoration-color:#000000;letter-spacing:normal;word-spacing:normal;text-transform:none;writing-mode:lr-tb;direction:ltr;text-orientation:mixed;dominant-baseline:auto;baseline-shift:baseline;text-anchor:start;white-space:normal;shape-padding:0;shape-margin:0;inline-size:0;clip-rule:nonzero;display:inline;overflow:visible;visibility:visible;opacity:0.85;isolation:auto;mix-blend-mode:normal;color-interpolation:sRGB;color-interpolation-filters:linearRGB;solid-color:#000000;solid-opacity:1;vector-effect:none;fill:#721d5c;fill-opacity:1;fill-rule:nonzero;stroke:none;stroke-linecap:round;stroke-linejoin:round;stroke-miterlimit:4;stroke-dasharray:none;stroke-dashoffset:2.1875;stroke-opacity:1;color-rendering:auto;image-rendering:auto;shape-rendering:auto;text-rendering:auto;enable-background:accumulate;stop-color:#000000"
       d="M 20.5,2.5 C 18.03295,2.5 16,4.53295 16,7 v 49.99999 c 0,2.46706 2.03295,4.5 4.5,4.5 h 38 c 2.46699,0 4.5,-2.03294 4.5,-4.5 V 7 C 63,4.53295 60.96699,2.5 58.5,2.5 Z m 0,3 h 38 C 59.3569,5.5 60,6.14306 60,7 v 49.99999 c 0,0.85695 -0.6431,1.5 -1.5,1.5 h -38 c -0.85696,0 -1.5,-0.64305 -1.5,-1.5 V 7 c 0,-0.85694 0.64304,-1.5 1.5,-1.5 z" />
    <rect
       style="fill:#fcfcfc;fill-opacity:1;stroke-width:0.495;stroke-linecap:round;stroke-linejoin:round;stroke-miterlimit:4;stroke-dasharray:none;stroke-dashoffset:2.1875"
       id="rect954-7-0-7-3-0-0-5-0-6-8"
       width="44"
       height="56"
       x="17.500113"
       y="3.9999998"
       rx="3"
       ry="3" />
    <path
       id="path1113-1-0-6-8-3-2-5-4-0-7-1-1-9-4-3-6"
       style="color:#000000;font-style:normal;font-variant:normal;font-weight:normal;font-stretch:normal;font-size:medium;line-height:normal;font-family:sans-serif;font-variant-ligatures:normal;font-variant-position:normal;font-variant-caps:normal;font-variant-numeric:normal;font-variant-alternates:normal;font-variant-east-asian:normal;font-feature-settings:normal;font-variation-settings:normal;text-indent:0;text-align:start;text-decoration:none;text-decoration-line:none;text-decoration-style:solid;text-decoration-color:#000000;letter-spacing:normal;word-spacing:normal;text-transform:none;writing-mode:lr-tb;direction:ltr;text-orientation:mixed;dominant-baseline:auto;baseline-shift:baseline;text-anchor:start;white-space:normal;shape-padding:0;shape-margin:0;inline-size:0;clip-rule:nonzero;display:inline;overflow:visible;visibility:visible;opacity:0.075;isolation:auto;mix-blend-mode:normal;color-interpolation:sRGB;color-interpolation-filters:linearRGB;solid-color:#000000;solid-opacity:1;vector-effect:none;fill:#0c0c0c;fill-opacity:1;fill-rule:nonzero;stroke:none;stroke-width:1.268;stroke-linecap:round;stroke-linejoin:round;stroke-miterlimit:4;stroke-dasharray:none;stroke-dashoffset:0;stroke-opacity:1;color-rendering:auto;image-rendering:auto;shape-rendering:auto;text-rendering:auto;enable-background:accumulate;stop-color:#000000"
       d="m 1,33.98851 c 0,0.60425 0.27328,1.20928 0.82021,1.59179 l 20.10773,14.06365 c 0.34186,0.23924 0.75428,0.36413 1.17531,0.35564 1.06991,-0.0215 1.92814,-0.90617 1.92801,-1.94743 V 43.71583 40.35566 H 46.50435 C 47.87089,40.35566 49,39.24822 49,37.90788 v -7.83631 c 0,-1.34032 -1.12911,-2.44775 -2.49565,-2.44775 H 25.03126 v -3.3602 -4.33632 c -6e-4,-1.50824 -1.84562,-2.47205 -3.10332,-1.5918 L 1.82021,32.39917 C 1.27328,32.78167 1,33.38428 1,33.98851 Z m 1.898,0 c 0,-0.0198 0.0115,-0.0384 0.0375,-0.0564 L 23.04326,19.87088 c 0.0773,-0.0542 0.0675,-0.0635 0.0675,0.0565 v 4.33633 4.30202 a 0.9603462,0.94192325 0 0 0 0.96024,0.94181 h 22.4333 c 0.33579,0 0.57516,0.23477 0.57516,0.56411 v 7.83631 c 0,0.32936 -0.23937,0.56412 -0.57516,0.56412 H 24.07097 a 0.9603462,0.94192325 0 0 0 -0.96025,0.94184 v 4.30199 4.33633 c 0,0.0545 -0.0179,0.0658 -0.0451,0.0663 -0.006,1.2e-4 -0.0142,-0.001 -0.0225,-0.007 L 2.93537,34.04786 c -0.0259,-0.0181 -0.0375,-0.039 -0.0375,-0.0589 z" />
    <path
       id="path1113-1-0-6-8-3-2-5-4-3-4-44-1-2"
       style="color:#000000;font-style:normal;font-variant:normal;font-weight:normal;font-stretch:normal;font-size:medium;line-height:normal;font-family:sans-serif;font-variant-ligatures:normal;font-variant-position:normal;font-variant-caps:normal;font-variant-numeric:normal;font-variant-alternates:normal;font-variant-east-asian:normal;font-feature-settings:normal;font-variation-settings:normal;text-indent:0;text-align:start;text-decoration:none;text-decoration-line:none;text-decoration-style:solid;text-decoration-color:#000000;letter-spacing:normal;word-spacing:normal;text-transform:none;writing-mode:lr-tb;direction:ltr;text-orientation:mixed;dominant-baseline:auto;baseline-shift:baseline;text-anchor:start;white-space:normal;shape-padding:0;shape-margin:0;inline-size:0;clip-rule:nonzero;display:inline;overflow:visible;visibility:visible;isolation:auto;mix-blend-mode:normal;color-interpolation:sRGB;color-interpolation-filters:linearRGB;solid-color:#000000;solid-opacity:1;vector-effect:none;fill:#e187ca;fill-opacity:1;fill-rule:nonzero;stroke:none;stroke-width:0;stroke-linecap:round;stroke-linejoin:round;stroke-miterlimit:4;stroke-dasharray:none;stroke-dashoffset:0;stroke-opacity:1;color-rendering:auto;image-rendering:auto;shape-rendering:auto;text-rendering:auto;enable-background:accumulate;stop-color:#000000"
       d="m 48.04001,35.91525 c 0,0.83426 -0.68507,1.50589 -1.53602,1.50589 H 24.07834 v 4.29692 4.33518 a 1.007189,1.0054581 0 0 1 -0.98701,1.00539 1.007189,1.0054581 0 0 1 -0.59821,-0.1818 L 2.38945,32.82305 a 1.007189,1.0054581 0 0 1 0,-1.64719 L 22.49312,17.12324 a 1.007189,1.0054581 0 0 1 1.58522,0.823 v 4.33446 4.29823 h 22.42565 c 0.85095,0 1.53602,0.67163 1.53602,1.50589 z" />
    <path
       id="path1113-1-0-6-8-3-2-5-4-0-7-1-7-4-7-1"
       style="color:#000000;font-style:normal;font-variant:normal;font-weight:normal;font-stretch:normal;font-size:medium;line-height:normal;font-family:sans-serif;font-variant-ligatures:normal;font-variant-position:normal;font-variant-caps:normal;font-variant-numeric:normal;font-variant-alternates:normal;font-variant-east-asian:normal;font-feature-settings:normal;font-variation-settings:normal;text-indent:0;text-align:start;text-decoration:none;text-decoration-line:none;text-decoration-style:solid;text-decoration-color:#000000;letter-spacing:normal;word-spacing:normal;text-transform:none;writing-mode:lr-tb;direction:ltr;text-orientation:mixed;dominant-baseline:auto;baseline-shift:baseline;text-anchor:start;white-space:normal;shape-padding:0;shape-margin:0;inline-size:0;clip-rule:nonzero;display:inline;overflow:visible;visibility:visible;opacity:0.95;isolation:auto;mix-blend-mode:normal;color-interpolation:sRGB;color-interpolation-filters:linearRGB;solid-color:#000000;solid-opacity:1;vector-effect:none;fill:#721d5c;fill-opacity:1;fill-rule:nonzero;stroke:none;stroke-width:1.268;stroke-linecap:round;stroke-linejoin:round;stroke-miterlimit:4;stroke-dasharray:none;stroke-dashoffset:0;stroke-opacity:1;color-rendering:auto;image-rendering:auto;shape-rendering:auto;text-rendering:auto;enable-background:accumulate;stop-color:#000000"
       d="m 1,31.98851 c 0,0.60425 0.27328,1.20928 0.82021,1.59179 l 20.10773,14.06365 c 0.34186,0.23924 0.75428,0.36413 1.17531,0.35564 1.06991,-0.0215 1.92814,-0.90617 1.92801,-1.94743 V 41.71583 38.35566 H 46.50435 C 47.87089,38.35566 49,37.24822 49,35.90788 v -7.83631 c 0,-1.34032 -1.12911,-2.44775 -2.49565,-2.44775 H 25.03126 v -3.3602 -4.33632 c -6e-4,-1.50824 -1.84562,-2.47205 -3.10332,-1.5918 L 1.82021,30.39917 C 1.27328,30.78167 1,31.38428 1,31.98851 Z m 1.898,0 c 0,-0.0198 0.0115,-0.0384 0.0375,-0.0564 L 23.04326,17.87088 c 0.0773,-0.0542 0.0675,-0.0635 0.0675,0.0565 v 4.33633 4.30202 a 0.9603462,0.94192325 0 0 0 0.96024,0.94181 h 22.4333 c 0.33579,0 0.57516,0.23477 0.57516,0.56411 v 7.83631 c 0,0.32936 -0.23937,0.56412 -0.57516,0.56412 H 24.07097 a 0.9603462,0.94192325 0 0 0 -0.96025,0.94184 v 4.30199 4.33633 c 0,0.0545 -0.0179,0.0658 -0.0451,0.0663 -0.006,1.2e-4 -0.0142,-0.001 -0.0225,-0.007 L 2.93537,32.04786 c -0.0259,-0.0181 -0.0375,-0.039 -0.0375,-0.0589 z" />
  </g>
</svg>
