<?xml version="1.0" encoding="UTF-8" standalone="no"?>
<svg
   xmlns:dc="http://purl.org/dc/elements/1.1/"
   xmlns:cc="http://creativecommons.org/ns#"
   xmlns:rdf="http://www.w3.org/1999/02/22-rdf-syntax-ns#"
   xmlns:svg="http://www.w3.org/2000/svg"
   xmlns="http://www.w3.org/2000/svg"
   xmlns:xlink="http://www.w3.org/1999/xlink"
   xmlns:sodipodi="http://sodipodi.sourceforge.net/DTD/sodipodi-0.dtd"
   xmlns:inkscape="http://www.inkscape.org/namespaces/inkscape"
   width="64"
   height="64"
   viewBox="0 0 64 64"
   version="1.1"
   id="svg6374"
   inkscape:version="1.0.2 (e86c870879, 2021-01-15)"
   sodipodi:docname="folder-remote.svg">
  <defs
     id="defs6368">
    <linearGradient
       inkscape:collect="always"
       xlink:href="#linearGradient998"
       id="linearGradient1935"
       gradientUnits="userSpaceOnUse"
       x1="33.48571"
       y1="4.0123987"
       x2="33.594517"
       y2="23.910183" />
    <linearGradient
       inkscape:collect="always"
       id="linearGradient998">
      <stop
         style="stop-color:#d7799c;stop-opacity:1"
         offset="0"
         id="stop994" />
      <stop
         style="stop-color:#cc648a;stop-opacity:1"
         offset="1"
         id="stop996" />
    </linearGradient>
    <linearGradient
       inkscape:collect="always"
       xlink:href="#linearGradient993"
       id="linearGradient1937"
       gradientUnits="userSpaceOnUse"
       gradientTransform="translate(-5.707032,-71.2207)"
       x1="38.194393"
       y1="86.220306"
       x2="37.853539"
       y2="130.25267" />
    <linearGradient
       inkscape:collect="always"
       id="linearGradient993">
      <stop
         style="stop-color:#ea9ab7;stop-opacity:1"
         offset="0"
         id="stop989" />
      <stop
         style="stop-color:#b44c72;stop-opacity:1"
         offset="1"
         id="stop991" />
    </linearGradient>
  </defs>
  <sodipodi:namedview
     id="base"
     pagecolor="#cecece"
     bordercolor="#666666"
     borderopacity="1.0"
     inkscape:pageopacity="0"
     inkscape:pageshadow="2"
     inkscape:zoom="5.874722"
     inkscape:cx="-6.1793338"
     inkscape:cy="50.335815"
     inkscape:document-units="px"
     inkscape:current-layer="layer1"
     inkscape:document-rotation="0"
     showgrid="false"
     units="px"
     inkscape:window-width="2048"
     inkscape:window-height="1080"
     inkscape:window-x="0"
     inkscape:window-y="0"
     inkscape:window-maximized="1" />
  <metadata
     id="metadata6371">
    <rdf:RDF>
      <cc:Work
         rdf:about="">
        <dc:format>image/svg+xml</dc:format>
        <dc:type
           rdf:resource="http://purl.org/dc/dcmitype/StillImage" />
        <dc:title />
      </cc:Work>
    </rdf:RDF>
  </metadata>
  <g
     inkscape:label="Layer 1"
     inkscape:groupmode="layer"
     id="layer1">
    <path
       id="rect1006-9-7-4-2-5-8"
       style="isolation:isolate;fill:#cc648a;fill-opacity:1;stroke:none;stroke-width:0.611371;stroke-miterlimit:4;stroke-dasharray:none;stroke-opacity:1"
       d="M 7.019224,4.5 C 5.346623,4.5 4,5.85756 4,7.54373 v 4.9091 0.0489 15.95454 C 4,30.14244 5.346623,31.5 7.019224,31.5 h 49.961542 c 1.672601,0 3.019233,-1.35756 3.019233,-3.04373 V 12.45282 c 0,-1.68617 -1.346635,-3.04373 -3.019233,-3.04373 H 28.591303 L 24.208696,4.5 H 20.459026 7.16522 Z" />
    <path
       id="rect1006-9-9-5-7-6-6-8"
       style="color:#000000;font-style:normal;font-variant:normal;font-weight:normal;font-stretch:normal;font-size:medium;line-height:normal;font-family:sans-serif;font-variant-ligatures:normal;font-variant-position:normal;font-variant-caps:normal;font-variant-numeric:normal;font-variant-alternates:normal;font-variant-east-asian:normal;font-feature-settings:normal;font-variation-settings:normal;text-indent:0;text-align:start;text-decoration:none;text-decoration-line:none;text-decoration-style:solid;text-decoration-color:#000000;letter-spacing:normal;word-spacing:normal;text-transform:none;writing-mode:lr-tb;direction:ltr;text-orientation:mixed;dominant-baseline:auto;baseline-shift:baseline;text-anchor:start;white-space:normal;shape-padding:0;shape-margin:0;inline-size:0;clip-rule:nonzero;display:inline;overflow:visible;visibility:visible;isolation:isolate;mix-blend-mode:normal;color-interpolation:sRGB;color-interpolation-filters:linearRGB;solid-color:#000000;solid-opacity:1;vector-effect:none;fill:url(#linearGradient1935);fill-opacity:1;fill-rule:nonzero;stroke:none;stroke-linecap:butt;stroke-linejoin:miter;stroke-miterlimit:4;stroke-dasharray:none;stroke-dashoffset:0;stroke-opacity:1;color-rendering:auto;image-rendering:auto;shape-rendering:auto;text-rendering:auto;enable-background:accumulate;stop-color:#000000"
       d="M 7.019531,4.125 C 5.14402,4.125 3.625,5.65714 3.625,7.54297 v 4.91016 0.0488 15.95507 c 0,1.88584 1.51902,3.41797 3.394531,3.41797 h 49.960937 c 1.875509,0 3.394531,-1.53213 3.394531,-3.41797 V 12.4531 c 0,-1.88584 -1.519019,-3.41992 -3.394531,-3.41992 H 28.759765 L 24.376952,4.125 H 20.458983 7.166015 Z m 0,0.75 h 0.146484 13.292968 3.582032 l 4.382812,4.90821 h 28.556641 c 1.469687,0 2.644531,1.1834 2.644531,2.66992 v 16.0039 c 0,1.48653 -1.174841,2.66797 -2.644531,2.66797 H 7.019531 C 5.549841,31.125 4.375,29.94356 4.375,28.45703 V 12.50196 12.45316 7.543 c 0,-1.48652 1.174841,-2.66797 2.644531,-2.66797 z" />
    <path
       id="rect880-1-9-6-9-8-6-3-5"
       style="opacity:0.125;isolation:isolate;fill:#4e182c;fill-opacity:1;stroke:none;stroke-width:0.609903;stroke-miterlimit:4;stroke-dasharray:none;stroke-opacity:1"
       d="m 32.320311,13.5 -0.111328,0.125 -4.271484,4.76367 H 7.019531 C 5.144856,18.38867 3.625,19.9152 3.625,21.79492 v 33.04883 c 0,1.87971 1.519855,3.40625 3.394531,3.40625 h 49.960937 c 1.87467,0 3.394531,-1.52653 3.394531,-3.40625 v -22 -11.04883 -4.88867 c 0,-1.87972 -1.519861,-3.40625 -3.394531,-3.40625 h -5.015625 -8.423828 z" />
    <path
       id="rect880-1-9-2-4-4-9-0"
       style="opacity:0.15;isolation:isolate;fill:#4c1a2c;fill-opacity:1;stroke:none;stroke-width:0.609903;stroke-miterlimit:4;stroke-dasharray:none;stroke-opacity:1"
       d="m 32.320311,16.125 -0.111328,0.125 -4.271484,4.76367 H 7.019531 C 5.144856,21.01367 3.625,22.5402 3.625,24.41992 v 33.04883 c 0,1.87971 1.519855,3.40625 3.394531,3.40625 h 49.960937 c 1.87467,0 3.394531,-1.52653 3.394531,-3.40625 v -22 -11.04883 -4.88867 c 0,-1.87972 -1.519861,-3.40625 -3.394531,-3.40625 h -5.015625 -8.423828 z" />
    <path
       id="rect880-1-28-5-9-4-9"
       style="isolation:isolate;fill:#d7799c;fill-opacity:1;stroke:none;stroke-width:0.609904;stroke-miterlimit:4;stroke-dasharray:none;stroke-opacity:1"
       d="m 32.486969,15 -4.382605,4.88889 H 7.019202 C 5.346602,19.88889 4,21.24086 4,22.92009 v 33.0487 C 4,57.64803 5.346602,59 7.019202,59 h 49.961575 c 1.672599,0 3.019222,-1.35197 3.019222,-3.03121 V 33.96927 22.92009 18.03121 C 59.999999,16.35197 58.653376,15 56.980777,15 H 51.965225 43.54093 Z" />
    <path
       id="rect880-1-2-9-0-5-8-6"
       style="color:#000000;font-style:normal;font-variant:normal;font-weight:normal;font-stretch:normal;font-size:medium;line-height:normal;font-family:sans-serif;font-variant-ligatures:normal;font-variant-position:normal;font-variant-caps:normal;font-variant-numeric:normal;font-variant-alternates:normal;font-variant-east-asian:normal;font-feature-settings:normal;font-variation-settings:normal;text-indent:0;text-align:start;text-decoration:none;text-decoration-line:none;text-decoration-style:solid;text-decoration-color:#000000;letter-spacing:normal;word-spacing:normal;text-transform:none;writing-mode:lr-tb;direction:ltr;text-orientation:mixed;dominant-baseline:auto;baseline-shift:baseline;text-anchor:start;white-space:normal;shape-padding:0;shape-margin:0;inline-size:0;clip-rule:nonzero;display:inline;overflow:visible;visibility:visible;isolation:isolate;mix-blend-mode:normal;color-interpolation:sRGB;color-interpolation-filters:linearRGB;solid-color:#000000;solid-opacity:1;vector-effect:none;fill:url(#linearGradient1937);fill-opacity:1;fill-rule:nonzero;stroke:none;stroke-linecap:butt;stroke-linejoin:miter;stroke-miterlimit:4;stroke-dasharray:none;stroke-dashoffset:0;stroke-opacity:1;color-rendering:auto;image-rendering:auto;shape-rendering:auto;text-rendering:auto;enable-background:accumulate;stop-color:#000000"
       d="m 32.320311,14.625 -0.111328,0.125 -4.271484,4.76367 H 7.019531 c -1.874675,0 -3.394531,1.52654 -3.394531,3.40625 v 33.04882 c 0,1.87971 1.519855,3.40625 3.394531,3.40625 h 49.960942 c 1.874671,0 3.394531,-1.52653 3.394531,-3.40625 V 33.96875 22.91992 18.03125 c 0,-1.87972 -1.51986,-3.40625 -3.394531,-3.40625 h -5.01563 -8.423828 z m 0.333985,0.75 h 10.886719 8.423828 5.015627 c 1.470521,0 2.644532,1.1775 2.644532,2.65625 v 4.88867 11.04883 21.99999 c 0,1.47875 -1.174011,2.65625 -2.644532,2.65625 H 7.019531 C 5.549008,58.62499 4.375,57.44749 4.375,55.96874 V 22.91992 c 0,-1.47876 1.174009,-2.65625 2.644531,-2.65625 h 21.251952 z" />
    <path
       id="rect3612-4-1-6-0-67-7-5-60-5-2-3-5"
       style="display:inline;opacity:0.15;fill:#4c1a2c;fill-opacity:1;stroke:none;stroke-width:0;stroke-linecap:round;stroke-linejoin:round;stroke-miterlimit:4;stroke-dasharray:none;stroke-dashoffset:2.1875;stroke-opacity:1"
       d="m 41.533307,27.00217 c -0.1435,-0.0123 -0.29145,0.0275 -0.41088,0.12409 l -1.72489,1.39598 v 8.7e-4 c -0.0595,0.0482 -0.10623,0.10522 -0.13954,0.16737 v 8.7e-4 c -0.0333,0.0623 -0.053,0.13087 -0.0593,0.19939 v 8.6e-4 c -0.006,0.0687 5.6e-4,0.13867 0.0221,0.20562 v 8.7e-4 c 0.0214,0.0671 0.058,0.13026 0.10766,0.18769 v 8.7e-4 l 2.25994,2.59696 h -10.71311 c -0.31161,0 -0.56251,0.24205 -0.56251,0.54269 v 1.89945 c 0,0.30066 0.25091,0.54269 0.56251,0.54269 h 13.31131 l 1.584249,1.82106 -1.584249,1.82103 h -12.18628 v -0.006 h -9.587965 l 2.25994,-2.59685 v -8.7e-4 c 0.04986,-0.0572 0.08613,-0.12164 0.107659,-0.18872 v -8.7e-4 c 0.02142,-0.0671 0.0279,-0.13702 0.02214,-0.20563 v -8.7e-4 c -0.0063,-0.0687 -0.02619,-0.13579 -0.05931,-0.19816 v -8.6e-4 c -0.0333,-0.0626 -0.0801,-0.11836 -0.139537,-0.16636 v -8.7e-4 l -1.724887,-1.39599 c -0.119431,-0.0966 -0.2675,-0.13846 -0.410898,-0.12615 -0.143416,0.0123 -0.282133,0.0777 -0.382331,0.19302 v 8.7e-4 l -7.959759,9.14435 v 8.6e-4 c -0.0153,0.0184 -0.02142,0.04 -0.03402,0.0582 v 8.7e-4 c -0.01971,0.0291 -0.03708,0.0575 -0.05049,0.089 v 8.7e-4 c -0.01395,0.0324 -0.02313,0.0638 -0.02961,0.0977 v 8.6e-4 c -0.0072,0.0341 -0.01053,0.0671 -0.01125,0.10175 5.58e-4,0.0347 0.0045,0.0677 0.01125,0.10175 v 8.6e-4 c 0.0072,0.0336 0.01602,0.0652 0.02961,0.0977 v 8.6e-4 c 0.01323,0.0315 0.03096,0.0599 0.05049,0.089 v 8.7e-4 c 0.0126,0.0184 0.01836,0.04 0.03402,0.0582 v 8.6e-4 l 7.959759,9.14438 v 8.6e-4 c 0.100216,0.11508 0.238933,0.17949 0.382331,0.19177 0.143407,0.0125 0.291449,-0.0275 0.410898,-0.12409 l 1.724887,-1.39596 v -8.7e-4 c 0.05949,-0.0482 0.1062,-0.10502 0.139537,-0.16735 v -8.7e-4 c 0.0333,-0.0624 0.05292,-0.13067 0.05931,-0.19917 v -8.7e-4 c 0.0063,-0.0687 -5.58e-4,-0.13865 -0.02214,-0.20561 v -8.7e-4 c -0.02142,-0.0671 -0.05787,-0.13025 -0.107659,-0.18768 v -8.6e-4 l -2.25993,-2.59699 h 10.712986 c 0.31162,0 0.56251,-0.24205 0.56251,-0.54269 v -1.89945 c 0,-0.30068 -0.2509,-0.54269 -0.56251,-0.54269 H 19.814071 l -1.58427,-1.82105 1.58427,-1.82105 h 12.186286 v 0.006 h 9.58796 l -2.25994,2.59692 v 8.7e-4 c -0.0499,0.0575 -0.0861,0.12163 -0.10766,0.18872 v 8.6e-4 c -0.0214,0.0671 -0.0279,0.1368 -0.0221,0.20565 v 8.7e-4 c 0.006,0.0687 0.0262,0.13579 0.0593,0.19816 v 8.7e-4 c 0.0333,0.0626 0.0801,0.1196 0.13954,0.16736 v 8.7e-4 l 1.72489,1.396 c 0.11943,0.0966 0.2675,0.13745 0.41088,0.1251 0.14331,-0.0125 0.28213,-0.0777 0.38235,-0.19305 v -8.6e-4 l 7.95974,-9.14435 v -8.7e-4 c 0.0149,-0.0185 0.0214,-0.04 0.034,-0.0582 v -8.6e-4 c 0.0191,-0.0291 0.037,-0.0572 0.0506,-0.089 v -8.6e-4 c 0.0149,-0.0324 0.0231,-0.0638 0.0296,-0.0976 v -8.7e-4 c 0.006,-0.0341 0.0105,-0.0671 0.0105,-0.10173 -5.5e-4,-0.0347 -0.005,-0.0677 -0.0105,-0.10175 v -8.6e-4 c -0.006,-0.0336 -0.017,-0.0653 -0.0296,-0.0976 v -8.7e-4 c -0.0126,-0.0314 -0.031,-0.0599 -0.0506,-0.089 v -8.7e-4 c -0.0126,-0.0185 -0.0191,-0.04 -0.034,-0.0582 v -8.6e-4 l -7.95963,-9.14433 v -8.6e-4 c -0.10014,-0.11508 -0.23892,-0.17949 -0.38235,-0.1918 z" />
    <path
       id="rect3612-4-1-6-0-67-7-5-60-5-2-3"
       style="display:inline;fill:#fafafa;fill-opacity:1;stroke:none;stroke-width:0;stroke-linecap:round;stroke-linejoin:round;stroke-miterlimit:4;stroke-dasharray:none;stroke-dashoffset:2.1875;stroke-opacity:1"
       d="m 41.533279,25.00217 c -0.143506,-0.0123 -0.291448,0.0275 -0.410879,0.12409 l -1.724896,1.39598 v 8.7e-4 c -0.05949,0.0482 -0.106228,0.10522 -0.139537,0.16737 v 8.7e-4 c -0.0333,0.0623 -0.05301,0.13087 -0.05931,0.19939 v 8.6e-4 c -0.0063,0.0687 5.58e-4,0.13867 0.02214,0.20562 v 8.7e-4 c 0.02142,0.0671 0.05796,0.13026 0.107658,0.18769 v 8.7e-4 l 2.259941,2.59696 H 30.875292 c -0.311619,0 -0.562514,0.24205 -0.562514,0.54269 v 1.89945 c 0,0.30066 0.250905,0.54269 0.562514,0.54269 h 13.311303 l 1.584252,1.82106 -1.584252,1.82103 h -12.18628 v -0.006 h -9.587963 l 2.25994,-2.59685 v -8.7e-4 c 0.04986,-0.0572 0.08613,-0.12164 0.107659,-0.18872 v -8.7e-4 c 0.02142,-0.0671 0.0279,-0.13702 0.02214,-0.20563 v -8.7e-4 c -0.0063,-0.0687 -0.02619,-0.13579 -0.05931,-0.19816 v -8.6e-4 c -0.0333,-0.0626 -0.0801,-0.11836 -0.139537,-0.16636 v -8.7e-4 l -1.724887,-1.39599 c -0.119431,-0.0966 -0.2675,-0.13846 -0.410898,-0.12615 -0.143416,0.0123 -0.282133,0.0777 -0.382331,0.19302 v 8.7e-4 l -7.959759,9.14435 v 8.6e-4 c -0.0153,0.0184 -0.02142,0.04 -0.03402,0.0582 v 8.7e-4 c -0.01971,0.0291 -0.03708,0.0575 -0.05049,0.089 v 8.7e-4 c -0.01395,0.0324 -0.02313,0.0638 -0.02961,0.0977 v 8.6e-4 c -0.0072,0.0341 -0.01053,0.0671 -0.01125,0.10175 5.58e-4,0.0347 0.0045,0.0677 0.01125,0.10175 v 8.6e-4 c 0.0072,0.0336 0.01602,0.0652 0.02961,0.0977 v 8.6e-4 c 0.01323,0.0315 0.03096,0.0599 0.05049,0.089 v 8.7e-4 c 0.0126,0.0184 0.01836,0.04 0.03402,0.0582 v 8.6e-4 l 7.959759,9.14438 v 8.6e-4 c 0.100216,0.11508 0.238933,0.17949 0.382331,0.19177 0.143407,0.0125 0.291449,-0.0275 0.410898,-0.12409 l 1.724887,-1.39596 v -8.7e-4 c 0.05949,-0.0482 0.1062,-0.10502 0.139537,-0.16735 v -8.7e-4 c 0.0333,-0.0624 0.05292,-0.13067 0.05931,-0.19917 v -8.7e-4 c 0.0063,-0.0687 -5.58e-4,-0.13865 -0.02214,-0.20561 v -8.7e-4 c -0.02142,-0.0671 -0.05787,-0.13025 -0.107659,-0.18768 v -8.6e-4 l -2.25993,-2.59699 h 10.712987 c 0.311618,0 0.562512,-0.24205 0.562512,-0.54269 v -1.89945 c 0,-0.30068 -0.250903,-0.54269 -0.562512,-0.54269 H 19.814041 l -1.58427,-1.82105 1.58427,-1.82105 h 12.186284 v 0.006 h 9.587964 l -2.259941,2.59692 v 8.7e-4 c -0.04986,0.0575 -0.08613,0.12163 -0.107658,0.18872 v 8.6e-4 c -0.02142,0.0671 -0.0279,0.1368 -0.02214,0.20565 v 8.7e-4 c 0.0063,0.0687 0.02619,0.13579 0.05931,0.19816 v 8.7e-4 c 0.0333,0.0626 0.0801,0.1196 0.139537,0.16736 v 8.7e-4 l 1.724887,1.396 c 0.119431,0.0966 0.267499,0.13745 0.410888,0.1251 0.143308,-0.0125 0.282125,-0.0777 0.382341,-0.19305 v -8.6e-4 l 7.959745,-9.14435 v -8.7e-4 c 0.01494,-0.0185 0.02142,-0.04 0.03402,-0.0582 v -8.6e-4 c 0.01908,-0.0291 0.03699,-0.0572 0.05058,-0.089 v -8.6e-4 c 0.01494,-0.0324 0.02313,-0.0638 0.02961,-0.0976 v -8.7e-4 c 0.0063,-0.0341 0.01053,-0.0671 0.01053,-0.10173 -5.49e-4,-0.0347 -0.0045,-0.0677 -0.01053,-0.10175 v -8.6e-4 c -0.0063,-0.0336 -0.01701,-0.0653 -0.02961,-0.0976 v -8.7e-4 c -0.0126,-0.0314 -0.03096,-0.0599 -0.05058,-0.089 v -8.7e-4 c -0.0126,-0.0185 -0.01908,-0.04 -0.03402,-0.0582 v -8.6e-4 l -7.959629,-9.14433 v -8.6e-4 c -0.100144,-0.11508 -0.238925,-0.17949 -0.38235,-0.1918 z" />
  </g>
</svg>
