<?xml version="1.0" encoding="UTF-8" standalone="no"?>
<svg
   xmlns:dc="http://purl.org/dc/elements/1.1/"
   xmlns:cc="http://creativecommons.org/ns#"
   xmlns:rdf="http://www.w3.org/1999/02/22-rdf-syntax-ns#"
   xmlns:svg="http://www.w3.org/2000/svg"
   xmlns="http://www.w3.org/2000/svg"
   xmlns:xlink="http://www.w3.org/1999/xlink"
   xmlns:sodipodi="http://sodipodi.sourceforge.net/DTD/sodipodi-0.dtd"
   xmlns:inkscape="http://www.inkscape.org/namespaces/inkscape"
   width="64"
   height="64"
   viewBox="0 0 64 64"
   version="1.1"
   id="svg6374"
   inkscape:version="1.0.2 (e86c870879, 2021-01-15)"
   sodipodi:docname="folder-templates.svg">
  <defs
     id="defs6368">
    <linearGradient
       inkscape:collect="always"
       xlink:href="#linearGradient998"
       id="linearGradient4106"
       gradientUnits="userSpaceOnUse"
       x1="33.48571"
       y1="4.0123987"
       x2="33.594517"
       y2="23.910183" />
    <linearGradient
       inkscape:collect="always"
       id="linearGradient998">
      <stop
         style="stop-color:#d7799c;stop-opacity:1"
         offset="0"
         id="stop994" />
      <stop
         style="stop-color:#cc648a;stop-opacity:1"
         offset="1"
         id="stop996" />
    </linearGradient>
    <linearGradient
       inkscape:collect="always"
       xlink:href="#linearGradient1504"
       id="linearGradient1615"
       gradientUnits="userSpaceOnUse"
       gradientTransform="translate(-5.7070311,-71.2207)"
       x1="38.194393"
       y1="86.220306"
       x2="37.853539"
       y2="130.25267" />
    <linearGradient
       inkscape:collect="always"
       id="linearGradient1504">
      <stop
         style="stop-color:#ea9ab7;stop-opacity:1"
         offset="0"
         id="stop1500" />
      <stop
         style="stop-color:#b44c72;stop-opacity:1"
         offset="1"
         id="stop1502" />
    </linearGradient>
  </defs>
  <sodipodi:namedview
     id="base"
     pagecolor="#cecece"
     bordercolor="#666666"
     borderopacity="1.0"
     inkscape:pageopacity="0"
     inkscape:pageshadow="2"
     inkscape:zoom="12.287243"
     inkscape:cx="8.1856486"
     inkscape:cy="44.527495"
     inkscape:document-units="px"
     inkscape:current-layer="layer1"
     inkscape:document-rotation="0"
     showgrid="false"
     units="px"
     inkscape:window-width="2048"
     inkscape:window-height="1080"
     inkscape:window-x="0"
     inkscape:window-y="0"
     inkscape:window-maximized="1" />
  <metadata
     id="metadata6371">
    <rdf:RDF>
      <cc:Work
         rdf:about="">
        <dc:format>image/svg+xml</dc:format>
        <dc:type
           rdf:resource="http://purl.org/dc/dcmitype/StillImage" />
        <dc:title />
      </cc:Work>
    </rdf:RDF>
  </metadata>
  <g
     inkscape:label="Layer 1"
     inkscape:groupmode="layer"
     id="layer1">
    <path
       id="rect1006-9-7-43"
       style="isolation:isolate;fill:#cc648a;fill-opacity:1;stroke:none;stroke-width:0.611371;stroke-miterlimit:4;stroke-dasharray:none;stroke-opacity:1"
       d="M 7.0192245,4.5 C 5.3466235,4.5 4,5.85756 4,7.54373 v 4.9091 0.0489 15.95454 C 4,30.14244 5.3466235,31.5 7.0192245,31.5 H 56.980767 c 1.6726,0 3.019232,-1.35756 3.019232,-3.04373 V 12.45282 c 0,-1.68617 -1.346635,-3.04373 -3.019233,-3.04373 H 28.591304 L 24.208696,4.5 H 20.459026 7.1652205 Z" />
    <path
       id="rect1006-9-9-5-1"
       style="color:#000000;font-style:normal;font-variant:normal;font-weight:normal;font-stretch:normal;font-size:medium;line-height:normal;font-family:sans-serif;font-variant-ligatures:normal;font-variant-position:normal;font-variant-caps:normal;font-variant-numeric:normal;font-variant-alternates:normal;font-variant-east-asian:normal;font-feature-settings:normal;font-variation-settings:normal;text-indent:0;text-align:start;text-decoration:none;text-decoration-line:none;text-decoration-style:solid;text-decoration-color:#000000;letter-spacing:normal;word-spacing:normal;text-transform:none;writing-mode:lr-tb;direction:ltr;text-orientation:mixed;dominant-baseline:auto;baseline-shift:baseline;text-anchor:start;white-space:normal;shape-padding:0;shape-margin:0;inline-size:0;clip-rule:nonzero;display:inline;overflow:visible;visibility:visible;isolation:isolate;mix-blend-mode:normal;color-interpolation:sRGB;color-interpolation-filters:linearRGB;solid-color:#000000;solid-opacity:1;vector-effect:none;fill:url(#linearGradient4106);fill-opacity:1;fill-rule:nonzero;stroke:none;stroke-linecap:butt;stroke-linejoin:miter;stroke-miterlimit:4;stroke-dasharray:none;stroke-dashoffset:0;stroke-opacity:1;color-rendering:auto;image-rendering:auto;shape-rendering:auto;text-rendering:auto;enable-background:accumulate;stop-color:#000000"
       d="M 7.0195315,4.125 C 5.1440205,4.125 3.625,5.65714 3.625,7.54297 v 4.91016 0.0488 15.95507 c 0,1.88584 1.5190205,3.41797 3.3945315,3.41797 H 56.980468 c 1.87551,0 3.394531,-1.53213 3.394531,-3.41797 V 12.4531 c 0,-1.88584 -1.519019,-3.41992 -3.394531,-3.41992 H 28.759765 L 24.376953,4.125 H 20.458983 7.1660155 Z m 0,0.75 h 0.146484 13.2929675 3.582032 l 4.382813,4.90821 h 28.55664 c 1.469687,0 2.644531,1.1834 2.644531,2.66992 v 16.0039 c 0,1.48653 -1.174841,2.66797 -2.644531,2.66797 H 7.0195315 C 5.5498415,31.125 4.375,29.94356 4.375,28.45703 V 12.50196 12.45316 7.543 c 0,-1.48652 1.1748415,-2.66797 2.6445315,-2.66797 z" />
    <path
       id="rect880-1-9-6-9-4"
       style="opacity:0.125;isolation:isolate;fill:#4e182c;fill-opacity:1;stroke:none;stroke-width:0.609903;stroke-miterlimit:4;stroke-dasharray:none;stroke-opacity:1"
       d="M 32.320312,13.5 32.208984,13.625 27.9375,18.38867 H 7.0195315 C 5.1448565,18.38867 3.625,19.9152 3.625,21.79492 v 33.04883 c 0,1.87971 1.5198555,3.40625 3.3945315,3.40625 H 56.980468 c 1.874671,0 3.394531,-1.52653 3.394531,-3.40625 v -22 -11.04883 -4.88867 c 0,-1.87972 -1.51986,-3.40625 -3.394531,-3.40625 h -5.015625 -8.423828 z" />
    <path
       id="rect880-1-9-2-9"
       style="opacity:0.15;isolation:isolate;fill:#4c1a2c;fill-opacity:1;stroke:none;stroke-width:0.609903;stroke-miterlimit:4;stroke-dasharray:none;stroke-opacity:1"
       d="M 32.320312,16.125 32.208984,16.25 27.9375,21.01367 H 7.0195315 C 5.1448565,21.01367 3.625,22.5402 3.625,24.41992 v 33.04883 c 0,1.87971 1.5198555,3.40625 3.3945315,3.40625 H 56.980468 c 1.874671,0 3.394531,-1.52653 3.394531,-3.40625 v -22 -11.04883 -4.88867 c 0,-1.87972 -1.51986,-3.40625 -3.394531,-3.40625 h -5.015625 -8.423828 z" />
    <path
       id="rect880-1-28-2"
       style="isolation:isolate;fill:#d7799c;fill-opacity:1;stroke:none;stroke-width:0.609904;stroke-miterlimit:4;stroke-dasharray:none;stroke-opacity:1"
       d="m 32.486969,15 -4.382604,4.88889 H 7.0192025 C 5.3466025,19.88889 4,21.24086 4,22.92009 v 33.0487 C 4,57.64803 5.3466025,59 7.0192025,59 H 56.980778 C 58.653376,59 60,57.64803 60,55.96879 V 33.96927 22.92009 18.03121 C 60,16.35197 58.653377,15 56.980778,15 h -5.015551 -8.424296 z" />
    <path
       id="rect880-1-2-9-06"
       style="color:#000000;font-style:normal;font-variant:normal;font-weight:normal;font-stretch:normal;font-size:medium;line-height:normal;font-family:sans-serif;font-variant-ligatures:normal;font-variant-position:normal;font-variant-caps:normal;font-variant-numeric:normal;font-variant-alternates:normal;font-variant-east-asian:normal;font-feature-settings:normal;font-variation-settings:normal;text-indent:0;text-align:start;text-decoration:none;text-decoration-line:none;text-decoration-style:solid;text-decoration-color:#000000;letter-spacing:normal;word-spacing:normal;text-transform:none;writing-mode:lr-tb;direction:ltr;text-orientation:mixed;dominant-baseline:auto;baseline-shift:baseline;text-anchor:start;white-space:normal;shape-padding:0;shape-margin:0;inline-size:0;clip-rule:nonzero;display:inline;overflow:visible;visibility:visible;isolation:isolate;mix-blend-mode:normal;color-interpolation:sRGB;color-interpolation-filters:linearRGB;solid-color:#000000;solid-opacity:1;vector-effect:none;fill:url(#linearGradient1615);fill-opacity:1;fill-rule:nonzero;stroke:none;stroke-linecap:butt;stroke-linejoin:miter;stroke-miterlimit:4;stroke-dasharray:none;stroke-dashoffset:0;stroke-opacity:1;color-rendering:auto;image-rendering:auto;shape-rendering:auto;text-rendering:auto;enable-background:accumulate;stop-color:#000000"
       d="M 32.320312,14.625 32.208984,14.75 27.9375,19.51367 H 7.0195315 C 5.1448565,19.51367 3.625,21.04021 3.625,22.91992 v 33.04882 c 0,1.87971 1.5198555,3.40625 3.3945315,3.40625 H 56.980474 c 1.87467,0 3.394529,-1.52653 3.394529,-3.40625 V 33.96875 22.91992 18.03125 c 0,-1.87972 -1.519859,-3.40625 -3.39453,-3.40625 h -5.015629 -8.423828 z m 0.333984,0.75 h 10.886719 8.423828 5.015628 c 1.47052,0 2.644531,1.1775 2.644531,2.65625 v 4.88867 11.04883 21.99999 c 0,1.47875 -1.174011,2.65625 -2.644531,2.65625 H 7.0195315 C 5.5490085,58.62499 4.375,57.44749 4.375,55.96874 V 22.91992 c 0,-1.47876 1.1740095,-2.65625 2.6445315,-2.65625 H 28.271483 Z" />
    <path
       id="rect2609"
       style="opacity:0.3;fill:#fafafa;fill-opacity:1;stroke:none;stroke-width:1.00002;stroke-linecap:round;stroke-linejoin:round;stroke-miterlimit:4;stroke-dasharray:none;stroke-opacity:1"
       d="m 24.399999,28 c -0.41555,0 -0.75,0.33451 -0.75,0.75 V 32 H 40.35117 v -3.25 c 0,-0.41549 -0.33447,-0.75 -0.75,-0.75 z" />
    <path
       id="rect954-7-6-6-5-0-7"
       style="opacity:0.15;fill:#4c1a2c;fill-opacity:1;stroke-width:0.218077;stroke-linecap:round;stroke-linejoin:round;stroke-miterlimit:4;stroke-dasharray:none;stroke-dashoffset:2.1875"
       d="m 23.650075,27.5 c -1.108041,0 -2.000076,0.89201 -2.000076,2 v 22 c 0,1.10801 0.892024,2 2.000076,2 h 16.699849 c 1.108041,0 2.000076,-0.89199 2.000076,-2 v -22 c 0,-1.10799 -0.892035,-2 -2.000076,-2 z m 0.750031,2 h 15.19979 c 0.415515,0 0.750028,0.33451 0.750028,0.75 v 20.5 c 0,0.41551 -0.334513,0.75 -0.750028,0.75 h -15.19979 c -0.415526,0 -0.75003,-0.33449 -0.75003,-0.75 v -20.5 c 0,-0.41549 0.334504,-0.75 0.75003,-0.75 z" />
    <rect
       style="opacity:0.2;fill:#4c1a2c;fill-opacity:1;stroke:none;stroke-width:0;stroke-linecap:round;stroke-linejoin:round;stroke-miterlimit:4;stroke-dasharray:none;stroke-dashoffset:2.1875;stroke-opacity:1"
       id="rect3498-7-4-56-3-2-6-4-7-3"
       width="20.700001"
       height="1.25"
       x="21.65"
       y="33.25" />
    <path
       id="rect954-7-6-6-5-5"
       style="fill:#fafafa;fill-opacity:1;stroke-width:0.218077;stroke-linecap:round;stroke-linejoin:round;stroke-miterlimit:4;stroke-dasharray:none;stroke-dashoffset:2.1875"
       d="m 23.650075,26 c -1.108041,0 -2.000076,0.89201 -2.000076,2 v 22 c 0,1.10801 0.892024,2 2.000076,2 H 40.349924 C 41.457965,52 42.35,51.10801 42.35,50 V 28 c 0,-1.10799 -0.892035,-2 -2.000076,-2 z m 0.750031,2 h 15.19979 c 0.415515,0 0.750028,0.33451 0.750028,0.75 v 20.5 c 0,0.41551 -0.334513,0.75 -0.750028,0.75 h -15.19979 c -0.415526,0 -0.75003,-0.33449 -0.75003,-0.75 v -20.5 c 0,-0.41549 0.334504,-0.75 0.75003,-0.75 z" />
    <rect
       style="fill:#fafafa;fill-opacity:1;stroke:none;stroke-width:0;stroke-linecap:round;stroke-linejoin:round;stroke-miterlimit:4;stroke-dasharray:none;stroke-dashoffset:2.1875;stroke-opacity:1"
       id="rect3498-7-4-56-3-2-6-4-7"
       width="20.700001"
       height="1.25"
       x="21.65"
       y="32" />
  </g>
</svg>
