<?xml version="1.0" encoding="UTF-8" standalone="no"?>
<svg
   xmlns:dc="http://purl.org/dc/elements/1.1/"
   xmlns:cc="http://creativecommons.org/ns#"
   xmlns:rdf="http://www.w3.org/1999/02/22-rdf-syntax-ns#"
   xmlns:svg="http://www.w3.org/2000/svg"
   xmlns="http://www.w3.org/2000/svg"
   xmlns:sodipodi="http://sodipodi.sourceforge.net/DTD/sodipodi-0.dtd"
   xmlns:inkscape="http://www.inkscape.org/namespaces/inkscape"
   width="64"
   height="64"
   viewBox="0 0 64 64"
   version="1.1"
   id="svg6374"
   inkscape:version="1.0.2 (e86c870879, 2021-01-15)"
   sodipodi:docname="application-pdf.svg">
  <defs
     id="defs6368" />
  <sodipodi:namedview
     id="base"
     pagecolor="#cecece"
     bordercolor="#666666"
     borderopacity="1.0"
     inkscape:pageopacity="0"
     inkscape:pageshadow="2"
     inkscape:zoom="3.2975144"
     inkscape:cx="106.97213"
     inkscape:cy="32.951385"
     inkscape:document-units="px"
     inkscape:current-layer="layer1"
     inkscape:document-rotation="0"
     showgrid="false"
     units="px"
     inkscape:window-width="2048"
     inkscape:window-height="1080"
     inkscape:window-x="0"
     inkscape:window-y="0"
     inkscape:window-maximized="1" />
  <metadata
     id="metadata6371">
    <rdf:RDF>
      <cc:Work
         rdf:about="">
        <dc:format>image/svg+xml</dc:format>
        <dc:type
           rdf:resource="http://purl.org/dc/dcmitype/StillImage" />
        <dc:title />
      </cc:Work>
    </rdf:RDF>
  </metadata>
  <g
     inkscape:label="Layer 1"
     inkscape:groupmode="layer"
     id="layer1">
    <rect
       style="opacity:0.45;fill:#0c0c0c;fill-opacity:1;stroke-width:0.495;stroke-linecap:round;stroke-linejoin:round;stroke-miterlimit:4;stroke-dasharray:none;stroke-dashoffset:2.1875"
       id="rect954-6-3-2-2-6-9-7-1-0"
       width="44"
       height="56"
       x="10.000023"
       y="5.4999995"
       rx="3"
       ry="3" />
    <path
       id="rect954-60-6-7-3-1-9-5-0-6"
       style="color:#000000;font-style:normal;font-variant:normal;font-weight:normal;font-stretch:normal;font-size:medium;line-height:normal;font-family:sans-serif;font-variant-ligatures:normal;font-variant-position:normal;font-variant-caps:normal;font-variant-numeric:normal;font-variant-alternates:normal;font-variant-east-asian:normal;font-feature-settings:normal;font-variation-settings:normal;text-indent:0;text-align:start;text-decoration:none;text-decoration-line:none;text-decoration-style:solid;text-decoration-color:#000000;letter-spacing:normal;word-spacing:normal;text-transform:none;writing-mode:lr-tb;direction:ltr;text-orientation:mixed;dominant-baseline:auto;baseline-shift:baseline;text-anchor:start;white-space:normal;shape-padding:0;shape-margin:0;inline-size:0;clip-rule:nonzero;display:inline;overflow:visible;visibility:visible;opacity:0.8;isolation:auto;mix-blend-mode:normal;color-interpolation:sRGB;color-interpolation-filters:linearRGB;solid-color:#000000;solid-opacity:1;vector-effect:none;fill:#69696d;fill-opacity:1;fill-rule:nonzero;stroke:none;stroke-linecap:round;stroke-linejoin:round;stroke-miterlimit:4;stroke-dasharray:none;stroke-dashoffset:2.1875;stroke-opacity:1;color-rendering:auto;image-rendering:auto;shape-rendering:auto;text-rendering:auto;enable-background:accumulate;stop-color:#000000"
       d="M 13,3.5 C 11.0696,3.5 9.5,5.06965 9.5,7 v 50 c 0,1.93035 1.5696,3.5 3.5,3.5 h 38 c 1.9304,0 3.5,-1.56965 3.5,-3.5 V 7 C 54.5,5.06965 52.9304,3.5 51,3.5 Z m 0,1 h 38 c 1.3936,0 2.5,1.10635 2.5,2.5 v 50 c 0,1.39365 -1.1064,2.5 -2.5,2.5 H 13 c -1.3936,0 -2.5,-1.10635 -2.5,-2.5 V 7 c 0,-1.39365 1.1064,-2.5 2.5,-2.5 z" />
    <rect
       style="fill:#fcfcfa;fill-opacity:1;stroke-width:0.495;stroke-linecap:round;stroke-linejoin:round;stroke-miterlimit:4;stroke-dasharray:none;stroke-dashoffset:2.1875"
       id="rect954-7-0-7-3-1-8-4-0"
       width="44"
       height="56"
       x="10.000023"
       y="3.9999995"
       rx="3"
       ry="3" />
    <path
       id="rect947-36-36-9-4-1-5"
       style="color:#000000;font-style:normal;font-variant:normal;font-weight:normal;font-stretch:normal;font-size:medium;line-height:normal;font-family:sans-serif;font-variant-ligatures:normal;font-variant-position:normal;font-variant-caps:normal;font-variant-numeric:normal;font-variant-alternates:normal;font-variant-east-asian:normal;font-feature-settings:normal;font-variation-settings:normal;text-indent:0;text-align:start;text-decoration:none;text-decoration-line:none;text-decoration-style:solid;text-decoration-color:#000000;letter-spacing:normal;word-spacing:normal;text-transform:none;writing-mode:lr-tb;direction:ltr;text-orientation:mixed;dominant-baseline:auto;baseline-shift:baseline;text-anchor:start;white-space:normal;shape-padding:0;shape-margin:0;inline-size:0;clip-rule:nonzero;display:inline;overflow:visible;visibility:visible;opacity:0.25;isolation:auto;mix-blend-mode:normal;color-interpolation:sRGB;color-interpolation-filters:linearRGB;solid-color:#000000;solid-opacity:1;vector-effect:none;fill:#0c0c10;fill-opacity:1;fill-rule:nonzero;stroke:none;stroke-linecap:round;stroke-linejoin:round;stroke-miterlimit:4;stroke-dasharray:none;stroke-dashoffset:0;stroke-opacity:1;color-rendering:auto;image-rendering:auto;shape-rendering:auto;text-rendering:auto;enable-background:accumulate;stop-color:#000000"
       d="m 40.93555,30.75 a 0.50005,0.50005 0 0 0 -0.5,0.5 v 2.99609 3.24414 2.9961 4.65625 a 0.50005,0.50005 0 0 0 0.5,0.5 h 2.96484 a 0.50005,0.50005 0 0 0 0.5,-0.5 v -4.15625 h 4.91993 a 0.50005,0.50005 0 0 0 0.5,-0.5 v -2.9961 a 0.50005,0.50005 0 0 0 -0.5,-0.5 H 44.40039 V 34.74609 H 50 a 0.50005,0.50005 0 0 0 0.5,-0.5 V 31.25 A 0.50005,0.50005 0 0 0 50,30.75 h -6.09961 z m -14.5293,0.0996 a 0.50005,0.50005 0 0 0 -0.5,0.5 v 13.89454 a 0.50005,0.50005 0 0 0 0.5,0.5 h 2.96289 3.21094 0.0176 c 6.5e-4,0 0.006,2e-5 0.01,0 3.92711,-0.0159 7.01758,-3.431 7.01758,-7.44726 0,-3.94151 -2.99,-7.26172 -6.8125,-7.40039 a 0.50005,0.50005 0 0 0 -0.20707,-0.0469 h -0.0254 -3.21094 z M 14.25,30.8556 a 0.50005,0.50005 0 0 0 -0.5,0.5 v 2.99609 3.2461 2.99609 4.65625 a 0.50005,0.50005 0 0 0 0.5,0.5 h 2.96485 a 0.50005,0.50005 0 0 0 0.5,-0.5 v -4.15625 h 1.9707 a 0.50005,0.50005 0 0 0 0.20898,-0.0488 c 2.7523,-0.15405 5.15625,-2.24907 5.15625,-5.07226 0,-2.82535 -2.40723,-4.92308 -5.1621,-5.07422 a 0.50005,0.50005 0 0 0 -0.20313,-0.043 h -0.10156 -2.36914 z m 27.18555,0.89453 H 43.90039 49.5 v 1.99609 h -5.59961 a 0.50005,0.50005 0 0 0 -0.5,0.5 v 3.24414 a 0.50005,0.50005 0 0 0 0.5,0.5 h 4.91993 v 1.9961 h -4.91993 a 0.50005,0.50005 0 0 0 -0.5,0.5 v 4.15625 h -1.96484 v -4.15625 -2.9961 -3.24414 z m -14.5293,0.0995 h 2.46289 3.20508 a 0.50005,0.50005 0 0 0 0.006,0 0.50005,0.50005 0 0 0 0.0234,0.002 c 3.34812,0.0135 6.02149,2.9399 6.02149,6.44533 0,3.50539 -2.67353,6.43372 -6.02149,6.44726 a 0.50005,0.50005 0 0 0 -0.002,0 h -0.004 -0.0176 -3.21094 -2.46289 z M 14.75,31.85563 h 2.46485 2.36914 0.0293 a 0.50005,0.50005 0 0 0 0.0625,0.004 c 2.34624,0.0458 4.375,1.80121 4.375,4.11328 0,2.31206 -2.02882,4.06944 -4.375,4.11523 a 0.50005,0.50005 0 0 0 -0.0684,0.006 h -2.39258 a 0.50005,0.50005 0 0 0 -0.5,0.5 v 4.15625 h -1.96484 v -4.15625 -2.99609 -3.2461 z m 14.61914,1.99023 a 0.50005,0.50005 0 0 0 -0.5,0.5 v 7.90235 a 0.50005,0.50005 0 0 0 0.5,0.5 h 3.21094 a 0.50005,0.50005 0 0 0 0.20508,-0.0449 c 2.13738,-0.12145 3.87695,-1.99552 3.87695,-4.40625 0,-2.40926 -1.73777,-4.28083 -3.87305,-4.4043 a 0.50005,0.50005 0 0 0 -0.20898,-0.0469 z m -12.15429,0.006 a 0.50005,0.50005 0 0 0 -0.5,0.5 v 3.2461 a 0.50005,0.50005 0 0 0 0.5,0.5 h 2.38086 a 0.50005,0.50005 0 0 0 0.002,0 c 1.43167,-0.006 2.48828,-0.99525 2.48828,-2.125 0,-1.03432 -0.94126,-1.85812 -2.18946,-2.00977 a 0.50005,0.50005 0 0 0 -0.3125,-0.11133 z M 29.86914,34.846 h 2.67969 a 0.50005,0.50005 0 0 0 0.0312,0.002 c 1.65237,0 3.08203,1.44313 3.08203,3.44922 0,2.00607 -1.42999,3.45117 -3.08203,3.45117 h -2.71094 z m -12.15429,0.006 h 1.85547 0.0137 c 0.99317,0 1.50195,0.6355 1.50195,1.1211 0,0.48353 -0.50546,1.11971 -1.49024,1.125 h -1.88085 z" />
    <path
       id="rect947-36-36-9-4-1"
       style="color:#000000;font-style:normal;font-variant:normal;font-weight:normal;font-stretch:normal;font-size:medium;line-height:normal;font-family:sans-serif;font-variant-ligatures:normal;font-variant-position:normal;font-variant-caps:normal;font-variant-numeric:normal;font-variant-alternates:normal;font-variant-east-asian:normal;font-feature-settings:normal;font-variation-settings:normal;text-indent:0;text-align:start;text-decoration:none;text-decoration-line:none;text-decoration-style:solid;text-decoration-color:#000000;letter-spacing:normal;word-spacing:normal;text-transform:none;writing-mode:lr-tb;direction:ltr;text-orientation:mixed;dominant-baseline:auto;baseline-shift:baseline;text-anchor:start;white-space:normal;shape-padding:0;shape-margin:0;inline-size:0;clip-rule:nonzero;display:inline;overflow:visible;visibility:visible;opacity:0.85;isolation:auto;mix-blend-mode:normal;color-interpolation:sRGB;color-interpolation-filters:linearRGB;solid-color:#000000;solid-opacity:1;vector-effect:none;fill:#771832;fill-opacity:1;fill-rule:nonzero;stroke:none;stroke-linecap:round;stroke-linejoin:round;stroke-miterlimit:4;stroke-dasharray:none;stroke-dashoffset:0;stroke-opacity:1;color-rendering:auto;image-rendering:auto;shape-rendering:auto;text-rendering:auto;enable-background:accumulate;stop-color:#000000"
       d="m 40.93555,30.25 a 0.50005,0.50005 0 0 0 -0.5,0.5 v 2.99609 3.24414 2.9961 4.65625 a 0.50005,0.50005 0 0 0 0.5,0.5 h 2.96484 a 0.50005,0.50005 0 0 0 0.5,-0.5 v -4.15625 h 4.91993 a 0.50005,0.50005 0 0 0 0.5,-0.5 v -2.9961 a 0.50005,0.50005 0 0 0 -0.5,-0.5 H 44.40039 V 34.24609 H 50 a 0.50005,0.50005 0 0 0 0.5,-0.5 V 30.75 A 0.50005,0.50005 0 0 0 50,30.25 h -6.09961 z m -14.5293,0.0996 a 0.50005,0.50005 0 0 0 -0.5,0.5 v 13.89454 a 0.50005,0.50005 0 0 0 0.5,0.5 h 2.96289 3.21094 0.0176 c 6.5e-4,0 0.006,2e-5 0.01,0 3.92711,-0.0159 7.01758,-3.431 7.01758,-7.44726 0,-3.94151 -2.99,-7.26172 -6.8125,-7.40039 a 0.50005,0.50005 0 0 0 -0.20707,-0.0469 h -0.0254 -3.21094 z M 14.25,30.3556 a 0.50005,0.50005 0 0 0 -0.5,0.5 v 2.99609 3.2461 2.99609 4.65625 a 0.50005,0.50005 0 0 0 0.5,0.5 h 2.96485 a 0.50005,0.50005 0 0 0 0.5,-0.5 v -4.15625 h 1.9707 a 0.50005,0.50005 0 0 0 0.20898,-0.0488 c 2.7523,-0.15405 5.15625,-2.24907 5.15625,-5.07226 0,-2.82535 -2.40723,-4.92308 -5.1621,-5.07422 a 0.50005,0.50005 0 0 0 -0.20313,-0.043 h -0.10156 -2.36914 z m 27.18555,0.89453 H 43.90039 49.5 v 1.99609 h -5.59961 a 0.50005,0.50005 0 0 0 -0.5,0.5 v 3.24414 a 0.50005,0.50005 0 0 0 0.5,0.5 h 4.91993 v 1.9961 h -4.91993 a 0.50005,0.50005 0 0 0 -0.5,0.5 v 4.15625 h -1.96484 v -4.15625 -2.9961 -3.24414 z m -14.5293,0.0995 h 2.46289 3.20508 a 0.50005,0.50005 0 0 0 0.006,0 0.50005,0.50005 0 0 0 0.0234,0.002 c 3.34812,0.0135 6.02149,2.9399 6.02149,6.44532 0,3.50539 -2.67353,6.43373 -6.02149,6.44726 a 0.50005,0.50005 0 0 0 -0.002,0 h -0.004 -0.0176 -3.21094 -2.46289 z M 14.75,31.35563 h 2.46485 2.36914 0.0293 a 0.50005,0.50005 0 0 0 0.0625,0.004 c 2.34624,0.0458 4.375,1.80122 4.375,4.11328 0,2.31206 -2.02882,4.06944 -4.375,4.11523 a 0.50005,0.50005 0 0 0 -0.0684,0.006 h -2.39258 a 0.50005,0.50005 0 0 0 -0.5,0.5 v 4.15625 h -1.96484 v -4.15625 -2.99609 -3.2461 z m 14.61914,1.99023 a 0.50005,0.50005 0 0 0 -0.5,0.5 v 7.90235 a 0.50005,0.50005 0 0 0 0.5,0.5 h 3.21094 a 0.50005,0.50005 0 0 0 0.20508,-0.0449 c 2.13738,-0.12146 3.87695,-1.99552 3.87695,-4.40625 0,-2.40926 -1.73777,-4.28083 -3.87305,-4.4043 a 0.50005,0.50005 0 0 0 -0.20898,-0.0469 z m -12.15429,0.006 a 0.50005,0.50005 0 0 0 -0.5,0.5 v 3.2461 a 0.50005,0.50005 0 0 0 0.5,0.5 h 2.38086 a 0.50005,0.50005 0 0 0 0.002,0 c 1.43167,-0.006 2.48828,-0.99525 2.48828,-2.125 0,-1.03432 -0.94126,-1.85812 -2.18946,-2.00977 a 0.50005,0.50005 0 0 0 -0.3125,-0.11133 z M 29.86914,34.346 h 2.67969 a 0.50005,0.50005 0 0 0 0.0312,0.002 c 1.65237,0 3.08203,1.44313 3.08203,3.44922 0,2.00607 -1.42999,3.45117 -3.08203,3.45117 h -2.71094 z m -12.15429,0.006 h 1.85547 0.0137 c 0.99317,0 1.50195,0.6355 1.50195,1.1211 0,0.48353 -0.50546,1.11971 -1.49024,1.125 h -1.88085 z" />
    <path
       id="rect947-36-36-9-4"
       style="fill:#d53460;fill-opacity:1;stroke:none;stroke-width:4.37041;stroke-linecap:round;stroke-linejoin:round;stroke-miterlimit:4;stroke-dasharray:none"
       d="m 40.93465,30.75 v 2.99579 3.24544 2.99579 4.65657 h 2.96421 v -4.65657 h 5.42137 v -2.99579 h -5.42137 v -3.24544 h 6.10113 V 30.75 H 43.89886 Z M 26.405,30.85093 v 13.89309 h 2.96421 3.21075 v 0 c 0.006,0 0.0119,0 0.0178,0 0.003,0 0.004,2e-5 0.007,0 3.63753,-0.0147 6.51942,-3.18644 6.51942,-6.94727 0,-3.76085 -2.88189,-6.93072 -6.51942,-6.94534 v -4.9e-4 h -0.025 -3.21075 z m -9.19079,0.005 -2.96421,4.9e-4 v 2.9958 3.24545 2.99578 4.65653 h 2.96421 v -4.65653 h 2.47017 v -0.006 c 2.59235,-0.0506 4.86509,-2.01055 4.86509,-4.61364 0,-2.60309 -2.27274,-4.56255 -4.86509,-4.61315 v -0.005 h -0.1018 z m 12.155,2.99092 h 3.21075 v 9.9e-4 c 1.94392,0 3.58127,1.70026 3.58127,3.94905 0,2.24878 -1.63735,3.95099 -3.58127,3.95099 v 5e-4 h -3.21075 z m -12.155,0.005 h 2.36837 v 9.8e-4 c 1.21576,0 2.0022,0.81181 2.0022,1.62126 0,0.80683 -0.78162,1.61794 -1.99061,1.62321 h -2.37996 z" />
  </g>
</svg>
