<?xml version="1.0" encoding="UTF-8" standalone="no"?>
<svg
   xmlns:dc="http://purl.org/dc/elements/1.1/"
   xmlns:cc="http://creativecommons.org/ns#"
   xmlns:rdf="http://www.w3.org/1999/02/22-rdf-syntax-ns#"
   xmlns:svg="http://www.w3.org/2000/svg"
   xmlns="http://www.w3.org/2000/svg"
   xmlns:xlink="http://www.w3.org/1999/xlink"
   xmlns:sodipodi="http://sodipodi.sourceforge.net/DTD/sodipodi-0.dtd"
   xmlns:inkscape="http://www.inkscape.org/namespaces/inkscape"
   width="64"
   height="64"
   viewBox="0 0 64 64"
   version="1.1"
   id="svg6374"
   inkscape:version="1.0.2 (e86c870879, 2021-01-15)"
   sodipodi:docname="audio-x-flac.svg">
  <defs
     id="defs6368">
    <linearGradient
       inkscape:collect="always"
       xlink:href="#linearGradient940"
       id="linearGradient7162"
       gradientUnits="userSpaceOnUse"
       gradientTransform="translate(-302.70322,-103.41542)"
       x1="334.70322"
       y1="107.41542"
       x2="334.70322"
       y2="163.41542" />
    <linearGradient
       inkscape:collect="always"
       id="linearGradient940">
      <stop
         style="stop-color:#5da6b6;stop-opacity:1"
         offset="0"
         id="stop936" />
      <stop
         style="stop-color:#478e9f;stop-opacity:1"
         offset="1"
         id="stop938" />
    </linearGradient>
  </defs>
  <sodipodi:namedview
     id="base"
     pagecolor="#cecece"
     bordercolor="#666666"
     borderopacity="1.0"
     inkscape:pageopacity="0"
     inkscape:pageshadow="2"
     inkscape:zoom="5.4956309"
     inkscape:cx="30.590924"
     inkscape:cy="51.448844"
     inkscape:document-units="px"
     inkscape:current-layer="layer1"
     inkscape:document-rotation="0"
     showgrid="false"
     units="px"
     inkscape:window-width="2048"
     inkscape:window-height="1080"
     inkscape:window-x="0"
     inkscape:window-y="0"
     inkscape:window-maximized="1" />
  <metadata
     id="metadata6371">
    <rdf:RDF>
      <cc:Work
         rdf:about="">
        <dc:format>image/svg+xml</dc:format>
        <dc:type
           rdf:resource="http://purl.org/dc/dcmitype/StillImage" />
        <dc:title></dc:title>
      </cc:Work>
    </rdf:RDF>
  </metadata>
  <g
     inkscape:label="Layer 1"
     inkscape:groupmode="layer"
     id="layer1">
    <rect
       style="opacity:0.45;fill:#0c0c0c;fill-opacity:1;stroke-width:0.495;stroke-linecap:round;stroke-linejoin:round;stroke-miterlimit:4;stroke-dasharray:none;stroke-dashoffset:2.1875"
       id="rect954-6-3-2-2-6-4-06-5"
       width="44"
       height="56"
       x="10"
       y="5.499969"
       rx="3"
       ry="3" />
    <path
       id="rect954-60-6-7-3-1-91-8-0"
       style="color:#000000;font-style:normal;font-variant:normal;font-weight:normal;font-stretch:normal;font-size:medium;line-height:normal;font-family:sans-serif;font-variant-ligatures:normal;font-variant-position:normal;font-variant-caps:normal;font-variant-numeric:normal;font-variant-alternates:normal;font-variant-east-asian:normal;font-feature-settings:normal;font-variation-settings:normal;text-indent:0;text-align:start;text-decoration:none;text-decoration-line:none;text-decoration-style:solid;text-decoration-color:#000000;letter-spacing:normal;word-spacing:normal;text-transform:none;writing-mode:lr-tb;direction:ltr;text-orientation:mixed;dominant-baseline:auto;baseline-shift:baseline;text-anchor:start;white-space:normal;shape-padding:0;shape-margin:0;inline-size:0;clip-rule:nonzero;display:inline;overflow:visible;visibility:visible;isolation:auto;mix-blend-mode:normal;color-interpolation:sRGB;color-interpolation-filters:linearRGB;solid-color:#000000;solid-opacity:1;vector-effect:none;fill:#478e9f;fill-opacity:1;fill-rule:nonzero;stroke:none;stroke-linecap:round;stroke-linejoin:round;stroke-miterlimit:4;stroke-dasharray:none;stroke-dashoffset:2.1875;stroke-opacity:1;color-rendering:auto;image-rendering:auto;shape-rendering:auto;text-rendering:auto;enable-background:accumulate;stop-color:#000000"
       d="M 13,3.5 C 11.0696,3.5 9.5,5.06965 9.5,7 v 50 c 0,1.93035 1.5696,3.5 3.5,3.5 h 38 c 1.9304,0 3.5,-1.56965 3.5,-3.5 V 7 C 54.5,5.06965 52.9304,3.5 51,3.5 Z m 0,1 h 38 c 1.3936,0 2.5,1.10635 2.5,2.5 v 50 c 0,1.39365 -1.1064,2.5 -2.5,2.5 H 13 c -1.3936,0 -2.5,-1.10635 -2.5,-2.5 V 7 c 0,-1.39365 1.1064,-2.5 2.5,-2.5 z" />
    <rect
       style="fill:url(#linearGradient7162);fill-opacity:1;stroke-width:0.495;stroke-linecap:round;stroke-linejoin:round;stroke-miterlimit:4;stroke-dasharray:none;stroke-dashoffset:2.1875"
       id="rect954-7-0-7-3-0-4-4-9-3-8"
       width="44"
       height="56"
       x="10"
       y="3.9999995"
       rx="3"
       ry="3" />
    <path
       id="rect2877-4-9-6-9-5-9-4-3-3-7"
       style="display:inline;opacity:0.15;fill:#0c0c0c;fill-opacity:1;stroke:none;stroke-width:2.77297;stroke-linecap:round;stroke-linejoin:round;stroke-miterlimit:4;stroke-dasharray:none;stroke-dashoffset:2.1875;stroke-opacity:1"
       d="m 44.39587,22.750841 c -0.35411,-0.01235 -0.71356,0.111309 -0.99437,0.373288 l -7.557,7.050124 c -0.56168,0.52396 -0.59167,1.398127 -0.0679,1.960006 0.52372,0.561883 1.39752,0.592907 1.95915,0.06895 l 7.55704,-7.051107 c 0.56163,-0.523961 0.59167,-1.398127 0.0679,-1.960006 -0.26191,-0.280941 -0.61073,-0.428876 -0.96483,-0.441252 z M 29.02879,25.10581 v 10e-4 0.001 c -0.25672,-0.01297 -0.51858,0.07257 -0.7256,0.259035 l -6.42779,5.7904 h -4.36727 c -0.5585,0 -1.00813,0.449818 -1.00813,1.008565 v 8.068538 c 0,0.558747 0.44963,1.008566 1.00813,1.008566 h 4.3653 l 6.42976,5.792366 c 0.18005,0.162181 0.40073,0.24312 0.62418,0.254114 l 0.006,0.005 h 1.33597 c 0.27926,0 0.50407,-0.224915 0.50407,-0.504288 V 25.610173 c 0,-0.279373 -0.22481,-0.504283 -0.50407,-0.504283 z m 7.75983,9.707455 c -0.76795,0 -1.38618,0.618506 -1.38618,1.386781 0,0.768275 0.61823,1.38678 1.38618,1.38678 h 9.3252 c 0.76794,0 1.38618,-0.618505 1.38618,-1.38678 0,-0.768275 -0.61824,-1.386781 -1.38618,-1.386781 z m -0.0474,5.011322 c -0.35416,0.01241 -0.70297,0.16031 -0.96484,0.441247 -0.52372,0.561883 -0.49368,1.436044 0.068,1.96001 l 7.55705,7.050118 c 0.56163,0.523961 1.43542,0.493919 1.95915,-0.06797 0.52372,-0.561878 0.49368,-1.436045 -0.0679,-1.960005 l -7.55705,-7.051102 c -0.28081,-0.26198 -0.64021,-0.384675 -0.99431,-0.372299 z" />
    <path
       id="rect2877-4-9-6-9-5-9-4-3-3"
       style="display:inline;fill:#fcfcfa;fill-opacity:1;stroke:none;stroke-width:2.77297;stroke-linecap:round;stroke-linejoin:round;stroke-miterlimit:4;stroke-dasharray:none;stroke-dashoffset:2.1875;stroke-opacity:1"
       d="m 44.39587,20.750841 c -0.35411,-0.01235 -0.71356,0.111309 -0.99437,0.373288 l -7.557,7.050124 c -0.56168,0.52396 -0.59167,1.398127 -0.0679,1.960006 0.52372,0.561883 1.39752,0.592907 1.95915,0.06895 l 7.55704,-7.051107 c 0.56163,-0.523961 0.59167,-1.398127 0.0679,-1.960006 -0.26191,-0.280941 -0.61073,-0.428876 -0.96483,-0.441252 z M 29.02879,23.10581 v 10e-4 0.001 c -0.25672,-0.01297 -0.51858,0.07257 -0.7256,0.259035 l -6.42779,5.7904 h -4.36727 c -0.5585,0 -1.00813,0.449818 -1.00813,1.008565 v 8.068538 c 0,0.558747 0.44963,1.008566 1.00813,1.008566 h 4.3653 l 6.42976,5.792366 c 0.18005,0.162181 0.40073,0.24312 0.62418,0.254114 l 0.006,0.005 h 1.33597 c 0.27926,0 0.50407,-0.224915 0.50407,-0.504288 V 23.610173 c 0,-0.279373 -0.22481,-0.504283 -0.50407,-0.504283 z m 7.75983,9.707455 c -0.76795,0 -1.38618,0.618506 -1.38618,1.386781 0,0.768275 0.61823,1.38678 1.38618,1.38678 h 9.3252 c 0.76794,0 1.38618,-0.618505 1.38618,-1.38678 0,-0.768275 -0.61824,-1.386781 -1.38618,-1.386781 z m -0.0474,5.011322 c -0.35416,0.01241 -0.70297,0.16031 -0.96484,0.441247 -0.52372,0.561883 -0.49368,1.436044 0.068,1.96001 l 7.55705,7.050118 c 0.56163,0.523961 1.43542,0.493919 1.95915,-0.06797 0.52372,-0.561878 0.49368,-1.436045 -0.0679,-1.960005 l -7.55705,-7.051102 c -0.28081,-0.26198 -0.64021,-0.384675 -0.99431,-0.372299 z" />
  </g>
</svg>
