<?xml version="1.0" encoding="UTF-8" standalone="no"?>
<svg
   xmlns:dc="http://purl.org/dc/elements/1.1/"
   xmlns:cc="http://creativecommons.org/ns#"
   xmlns:rdf="http://www.w3.org/1999/02/22-rdf-syntax-ns#"
   xmlns:svg="http://www.w3.org/2000/svg"
   xmlns="http://www.w3.org/2000/svg"
   xmlns:sodipodi="http://sodipodi.sourceforge.net/DTD/sodipodi-0.dtd"
   xmlns:inkscape="http://www.inkscape.org/namespaces/inkscape"
   width="64"
   height="64"
   viewBox="0 0 64 64"
   version="1.1"
   id="svg6374"
   inkscape:version="1.0.2 (e86c870879, 2021-01-15)"
   sodipodi:docname="audio-x-flac.svg">
  <defs
     id="defs6368" />
  <sodipodi:namedview
     id="base"
     pagecolor="#cecece"
     bordercolor="#666666"
     borderopacity="1.0"
     inkscape:pageopacity="0"
     inkscape:pageshadow="2"
     inkscape:zoom="15.778259"
     inkscape:cx="29.68279"
     inkscape:cy="44.606545"
     inkscape:document-units="px"
     inkscape:current-layer="layer1"
     inkscape:document-rotation="0"
     showgrid="false"
     units="px"
     inkscape:window-width="2048"
     inkscape:window-height="1080"
     inkscape:window-x="0"
     inkscape:window-y="0"
     inkscape:window-maximized="1" />
  <metadata
     id="metadata6371">
    <rdf:RDF>
      <cc:Work
         rdf:about="">
        <dc:format>image/svg+xml</dc:format>
        <dc:type
           rdf:resource="http://purl.org/dc/dcmitype/StillImage" />
        <dc:title />
      </cc:Work>
    </rdf:RDF>
  </metadata>
  <g
     inkscape:label="Layer 1"
     inkscape:groupmode="layer"
     id="layer1">
    <rect
       style="opacity:0.45;fill:#0c0c0c;fill-opacity:1;stroke-width:0.495;stroke-linecap:round;stroke-linejoin:round;stroke-miterlimit:4;stroke-dasharray:none;stroke-dashoffset:2.1875"
       id="rect954-6-3-2-2-6-4-06-5-2-3-7-9"
       width="44"
       height="56"
       x="9.9999228"
       y="5.4999671"
       rx="3"
       ry="3" />
    <path
       id="rect954-60-6-7-3-1-91-8-0-2-2-0-2"
       style="color:#000000;font-style:normal;font-variant:normal;font-weight:normal;font-stretch:normal;font-size:medium;line-height:normal;font-family:sans-serif;font-variant-ligatures:normal;font-variant-position:normal;font-variant-caps:normal;font-variant-numeric:normal;font-variant-alternates:normal;font-variant-east-asian:normal;font-feature-settings:normal;font-variation-settings:normal;text-indent:0;text-align:start;text-decoration:none;text-decoration-line:none;text-decoration-style:solid;text-decoration-color:#000000;letter-spacing:normal;word-spacing:normal;text-transform:none;writing-mode:lr-tb;direction:ltr;text-orientation:mixed;dominant-baseline:auto;baseline-shift:baseline;text-anchor:start;white-space:normal;shape-padding:0;shape-margin:0;inline-size:0;clip-rule:nonzero;display:inline;overflow:visible;visibility:visible;opacity:0.8;isolation:auto;mix-blend-mode:normal;color-interpolation:sRGB;color-interpolation-filters:linearRGB;solid-color:#000000;solid-opacity:1;vector-effect:none;fill:#808084;fill-opacity:1;fill-rule:nonzero;stroke:none;stroke-linecap:round;stroke-linejoin:round;stroke-miterlimit:4;stroke-dasharray:none;stroke-dashoffset:2.1875;stroke-opacity:1;color-rendering:auto;image-rendering:auto;shape-rendering:auto;text-rendering:auto;enable-background:accumulate;stop-color:#000000"
       d="M 13,3.5 C 11.0696,3.5 9.5,5.06965 9.5,7 v 50 c 0,1.93035 1.5696,3.5 3.5,3.5 h 38 c 1.9304,0 3.5,-1.56965 3.5,-3.5 V 7 C 54.5,5.06965 52.9304,3.5 51,3.5 Z m 0,1 h 38 c 1.3936,0 2.5,1.10635 2.5,2.5 v 50 c 0,1.39365 -1.1064,2.5 -2.5,2.5 H 13 c -1.3936,0 -2.5,-1.10635 -2.5,-2.5 V 7 c 0,-1.39365 1.1064,-2.5 2.5,-2.5 z" />
    <rect
       style="fill:#575760;fill-opacity:1;stroke-width:0.495;stroke-linecap:round;stroke-linejoin:round;stroke-miterlimit:4;stroke-dasharray:none;stroke-dashoffset:2.1875"
       id="rect954-7-0-7-3-0-4-4-9-3-8-69-8-0-7"
       width="44"
       height="56"
       x="9.9999228"
       y="3.9999976"
       rx="3"
       ry="3" />
    <path
       id="rect2877-4-9-6-9-5-9-4-3-3-7-1-0-3-4"
       style="display:inline;opacity:0.2;fill:#0c0c0c;fill-opacity:1;stroke:none;stroke-width:2.77297;stroke-linecap:round;stroke-linejoin:round;stroke-miterlimit:4;stroke-dasharray:none;stroke-dashoffset:2.1875;stroke-opacity:1"
       d="m 44.39587,22.25083 c -0.35411,-0.0123 -0.71356,0.11131 -0.99437,0.37329 l -7.557,7.05012 c -0.56168,0.52396 -0.59167,1.39813 -0.0679,1.96001 0.52372,0.56188 1.39752,0.59291 1.95915,0.069 l 7.55704,-7.05111 c 0.56163,-0.52396 0.59167,-1.39813 0.0679,-1.96 -0.26191,-0.28095 -0.61073,-0.42888 -0.96483,-0.44126 z M 29.02879,24.6058 v 0.001 0.001 c -0.25672,-0.013 -0.51858,0.0726 -0.7256,0.25903 l -6.42779,5.7904 h -4.36727 c -0.5585,0 -1.00813,0.44982 -1.00813,1.00857 v 8.06854 c 0,0.55874 0.44963,1.00856 1.00813,1.00856 h 4.3653 l 6.42976,5.79237 c 0.18005,0.16218 0.40073,0.24312 0.62418,0.25411 l 0.006,0.005 h 1.33597 c 0.27926,0 0.50407,-0.22491 0.50407,-0.50428 V 25.11016 c 0,-0.27937 -0.22481,-0.50428 -0.50407,-0.50428 z m 7.75983,9.70745 c -0.76795,0 -1.38618,0.61851 -1.38618,1.38679 0,0.76827 0.61823,1.38678 1.38618,1.38678 h 9.3252 c 0.76794,0 1.38618,-0.61851 1.38618,-1.38678 0,-0.76828 -0.61824,-1.38679 -1.38618,-1.38679 z m -0.0474,5.01133 c -0.35416,0.0124 -0.70297,0.16031 -0.96484,0.44124 -0.52372,0.56189 -0.49368,1.43605 0.068,1.96001 l 7.55705,7.05012 c 0.56163,0.52396 1.43542,0.49392 1.95915,-0.068 0.52372,-0.56188 0.49368,-1.43604 -0.0679,-1.96 l -7.55705,-7.05111 c -0.28081,-0.26198 -0.64021,-0.38467 -0.99431,-0.37229 z" />
    <path
       id="rect2877-4-9-6-9-5-9-4-3-3-04-3-4-2"
       style="display:inline;fill:#eeeef1;fill-opacity:1;stroke:none;stroke-width:2.77297;stroke-linecap:round;stroke-linejoin:round;stroke-miterlimit:4;stroke-dasharray:none;stroke-dashoffset:2.1875;stroke-opacity:1"
       d="m 44.39587,20.75084 c -0.35411,-0.0123 -0.71356,0.11131 -0.99437,0.37329 l -7.557,7.05012 c -0.56168,0.52396 -0.59167,1.39813 -0.0679,1.96001 0.52372,0.56188 1.39752,0.59291 1.95915,0.069 l 7.55704,-7.05111 c 0.56163,-0.52396 0.59167,-1.39813 0.0679,-1.96 -0.26191,-0.28095 -0.61073,-0.42888 -0.96483,-0.44126 z m -15.36708,2.35497 v 10e-4 0.001 c -0.25672,-0.013 -0.51858,0.0726 -0.7256,0.25903 l -6.42779,5.7904 h -4.36727 c -0.5585,0 -1.00813,0.44982 -1.00813,1.00857 v 8.06854 c 0,0.55874 0.44963,1.00856 1.00813,1.00856 h 4.3653 l 6.42976,5.79237 c 0.18005,0.16218 0.40073,0.24312 0.62418,0.25411 l 0.006,0.005 h 1.33597 c 0.27926,0 0.50407,-0.22491 0.50407,-0.50428 V 23.61017 c 0,-0.27937 -0.22481,-0.50428 -0.50407,-0.50428 z m 7.75983,9.70745 c -0.76795,0 -1.38618,0.61851 -1.38618,1.38679 0,0.76827 0.61823,1.38678 1.38618,1.38678 h 9.3252 c 0.76794,0 1.38618,-0.61851 1.38618,-1.38678 0,-0.76828 -0.61824,-1.38679 -1.38618,-1.38679 z m -0.0474,5.01133 c -0.35416,0.0124 -0.70297,0.16031 -0.96484,0.44124 -0.52372,0.56189 -0.49368,1.43605 0.068,1.96001 l 7.55705,7.05012 c 0.56163,0.52396 1.43542,0.49392 1.95915,-0.068 0.52372,-0.56188 0.49368,-1.43604 -0.0679,-1.96 l -7.55705,-7.05111 c -0.28081,-0.26198 -0.64021,-0.38467 -0.99431,-0.37229 z" />
  </g>
</svg>
