<?xml version="1.0" encoding="UTF-8" standalone="no"?>
<svg
   xmlns:dc="http://purl.org/dc/elements/1.1/"
   xmlns:cc="http://creativecommons.org/ns#"
   xmlns:rdf="http://www.w3.org/1999/02/22-rdf-syntax-ns#"
   xmlns:svg="http://www.w3.org/2000/svg"
   xmlns="http://www.w3.org/2000/svg"
   xmlns:xlink="http://www.w3.org/1999/xlink"
   xmlns:sodipodi="http://sodipodi.sourceforge.net/DTD/sodipodi-0.dtd"
   xmlns:inkscape="http://www.inkscape.org/namespaces/inkscape"
   width="64"
   height="64"
   viewBox="0 0 64 64"
   version="1.1"
   id="svg6374"
   inkscape:version="1.0.2 (e86c870879, 2021-01-15)"
   sodipodi:docname="image-svg+xml.svg">
  <defs
     id="defs6368">
    <linearGradient
       inkscape:collect="always"
       xlink:href="#linearGradient3075"
       id="linearGradient2701"
       x1="732"
       y1="612.5"
       x2="732"
       y2="660.5"
       gradientUnits="userSpaceOnUse"
       gradientTransform="translate(-700,-598.99998)" />
    <linearGradient
       inkscape:collect="always"
       id="linearGradient3075">
      <stop
         style="stop-color:#323132;stop-opacity:0.30000001"
         offset="0"
         id="stop3071" />
      <stop
         style="stop-color:#323132;stop-opacity:0.38"
         offset="1"
         id="stop3073" />
    </linearGradient>
    <linearGradient
       inkscape:collect="always"
       xlink:href="#linearGradient9417"
       id="linearGradient2685"
       gradientUnits="userSpaceOnUse"
       gradientTransform="translate(-702.49991,-400.99998)"
       x1="708"
       y1="418"
       x2="756"
       y2="456" />
    <linearGradient
       inkscape:collect="always"
       id="linearGradient9417">
      <stop
         style="stop-color:#72bdd0;stop-opacity:1"
         offset="0"
         id="stop9413" />
      <stop
         style="stop-color:#43a7c1;stop-opacity:1"
         offset="1"
         id="stop9415" />
    </linearGradient>
    <linearGradient
       inkscape:collect="always"
       xlink:href="#linearGradient2707"
       id="linearGradient2687"
       gradientUnits="userSpaceOnUse"
       gradientTransform="translate(-1.0003796e-5,2.4999998)"
       x1="5.5"
       y1="14.5"
       x2="58.5"
       y2="55.5" />
    <linearGradient
       inkscape:collect="always"
       id="linearGradient2707">
      <stop
         style="stop-color:#fcfcfc;stop-opacity:1"
         offset="0"
         id="stop2703" />
      <stop
         style="stop-color:#f4f4f6;stop-opacity:1"
         offset="1"
         id="stop2705" />
    </linearGradient>
  </defs>
  <sodipodi:namedview
     id="base"
     pagecolor="#cecece"
     bordercolor="#666666"
     borderopacity="1.0"
     inkscape:pageopacity="0"
     inkscape:pageshadow="2"
     inkscape:zoom="7.1642971"
     inkscape:cx="25.943993"
     inkscape:cy="24.209777"
     inkscape:document-units="px"
     inkscape:current-layer="layer1"
     inkscape:document-rotation="0"
     showgrid="false"
     units="px"
     inkscape:window-width="1500"
     inkscape:window-height="919"
     inkscape:window-x="68"
     inkscape:window-y="56"
     inkscape:window-maximized="0" />
  <metadata
     id="metadata6371">
    <rdf:RDF>
      <cc:Work
         rdf:about="">
        <dc:format>image/svg+xml</dc:format>
        <dc:type
           rdf:resource="http://purl.org/dc/dcmitype/StillImage" />
        <dc:title />
      </cc:Work>
    </rdf:RDF>
  </metadata>
  <g
     inkscape:label="Layer 1"
     inkscape:groupmode="layer"
     id="layer1">
    <path
       id="rect9720-3-3-2-9-31-4-1-8-5-8-6-9-78"
       style="opacity:0.175;fill:#0c0c0c;fill-opacity:1;stroke:none;stroke-width:1.23443;stroke-linecap:round;stroke-linejoin:round;stroke-miterlimit:4;stroke-dasharray:none;stroke-dashoffset:0;stroke-opacity:1"
       d="m 7,16.5 c -2.216,0 -4,1.784 -4,4 v 38 c 0,2.216 1.784,4 4,4 h 50 c 2.216,0 4,-1.784 4,-4 v -38 c 0,-2.216 -1.784,-4 -4,-4 z m 1,3 h 48 c 1.108,0 2,0.892 2,2 v 36 c 0,1.108 -0.892,2 -2,2 H 8 c -1.108,0 -2,-0.892 -2,-2 v -36 c 0,-1.108 0.892,-2 2,-2 z" />
    <rect
       style="fill:url(#linearGradient2701);fill-opacity:1;stroke:none;stroke-width:1.23443;stroke-linecap:round;stroke-linejoin:round;stroke-miterlimit:4;stroke-dasharray:none;stroke-dashoffset:0;stroke-opacity:1"
       id="rect9720-3-3-2-9-31-4-1-1"
       width="60"
       height="48"
       x="2"
       y="13.5"
       rx="5"
       ry="5" />
    <rect
       style="fill:url(#linearGradient2685);fill-opacity:1;stroke:none;stroke-width:1.70814;stroke-linecap:square;stroke-miterlimit:4;stroke-dasharray:none;stroke-opacity:0.54902"
       id="rect2119-0-9-3-5-8-2-6-2"
       width="53"
       height="41"
       x="5.5"
       y="17"
       rx="2"
       ry="2" />
    <path
       id="rect9720-3-3-2-9-31-4-1-8-5-7-3-88-1-9"
       style="opacity:0.3;fill:#163d46;fill-opacity:1;stroke:none;stroke-width:1.23443;stroke-linecap:round;stroke-linejoin:round;stroke-miterlimit:4;stroke-dasharray:none;stroke-dashoffset:0;stroke-opacity:1"
       d="m 7.99999,17.5 c -1.108,0 -2,0.892 -2,2 V 56 c 0,1.108 0.892,2 2,2 h 48 c 1.108,0 2,-0.892 2,-2 V 19.5 c 0,-1.108 -0.892,-2 -2,-2 z m 1,2.5 h 46 c 0.554,0 1,0.446 1,1 v 34 c 0,0.554 -0.446,1 -1,1 h -46 c -0.554,0 -1,-0.446 -1,-1 V 21 c 0,-0.554 0.446,-1 1,-1 z" />
    <path
       id="path1604-2-7-8-7-8-6-2-3"
       style="opacity:0.3;fill:#19434d;fill-opacity:1;stroke:none;stroke-width:2.2322;stroke-linecap:square;stroke-opacity:1"
       d="m 40.48409,26.75009 a 2.5067,2.453676 35.037966 0 0 -1.7516,0.70651 2.5067,2.453676 35.037966 0 0 -0.5725,0.90429 c -1.7045,0.22913 -3.6231,0.92829 -5.6466,2.0774 -1.12,0.63545 -2.2262,1.38488 -3.295,2.21773 a 3.8993111,3.8168294 35.038038 0 0 -5.0532,0.30955 3.8993111,3.8168294 35.038038 0 0 -0.3114,5.01699 c -0.8386,1.06084 -1.5931,2.15897 -2.2333,3.27018 -1.0977,1.90533 -1.7913,3.719 -2.0571,5.34498 a 2.5067,2.453676 35.037966 0 0 -1.3521,0.67775 2.5067,2.453676 35.037966 0 0 0.036,3.49493 2.5067,2.453676 35.037966 0 0 2.3759,0.67192 c 0.037,0.0402 0.073,0.0809 0.1128,0.11968 l 0.2306,-0.22932 a 2.5067,2.453676 35.037966 0 0 9e-4,-5.1e-4 2.5067,2.453676 35.037966 0 0 0.8,-0.52675 2.5067,2.453676 35.037966 0 0 -0.036,-3.49489 2.5067,2.453676 35.037966 0 0 -1.0565,-0.63092 c 0.2539,-1.4286 0.8883,-3.09441 1.9086,-4.86545 0.5919,-1.02724 1.2903,-2.04953 2.0693,-3.04123 a 3.8993111,3.8168294 35.038038 0 0 5.0438,-0.31661 3.8993111,3.8168294 35.038038 0 0 0.3187,-5.00728 c 0.9987,-0.77311 2.0282,-1.46632 3.0627,-2.05381 1.81,-1.02795 3.5112,-1.66166 4.964,-1.90622 a 2.5067,2.453676 35.037966 0 0 0.7261,1.46255 2.5067,2.453676 35.037966 0 0 3.5205,0.035 2.5067,2.453676 35.037966 0 0 -0.036,-3.49491 2.5067,2.453676 35.037966 0 0 -1.7689,-0.74149 z" />
    <path
       id="path1604-2-7-8-7-10-9-1"
       style="fill:#fcfcfc;fill-opacity:1;stroke:none;stroke-width:2.2322;stroke-linecap:square;stroke-opacity:1"
       d="m 40.48409,25.50009 a 2.5067,2.453676 35.037966 0 0 -1.7516,0.70651 2.5067,2.453676 35.037966 0 0 -0.5725,0.90429 c -1.7045,0.22913 -3.6231,0.92829 -5.6466,2.07739 -1.12,0.63546 -2.2262,1.38489 -3.295,2.21774 a 3.8993111,3.8168294 35.038038 0 0 -5.0532,0.30955 3.8993111,3.8168294 35.038038 0 0 -0.3114,5.017 c -0.8386,1.06083 -1.5931,2.15895 -2.2333,3.27016 -1.0977,1.90534 -1.7913,3.71902 -2.0571,5.34499 a 2.5067,2.453676 35.037966 0 0 -1.3521,0.67776 2.5067,2.453676 35.037966 0 0 0.036,3.49492 2.5067,2.453676 35.037966 0 0 2.3759,0.67192 c 0.037,0.0401 0.073,0.0809 0.1128,0.11967 l 0.2306,-0.22931 a 2.5067,2.453676 35.037966 0 0 9e-4,-5.1e-4 2.5067,2.453676 35.037966 0 0 0.8,-0.52675 2.5067,2.453676 35.037966 0 0 -0.036,-3.49489 2.5067,2.453676 35.037966 0 0 -1.0565,-0.63093 c 0.2539,-1.42859 0.8883,-3.0944 1.9086,-4.86544 0.5919,-1.02724 1.2903,-2.04954 2.0693,-3.04122 a 3.8993111,3.8168294 35.038038 0 0 5.0438,-0.31663 3.8993111,3.8168294 35.038038 0 0 0.3187,-5.00726 c 0.9987,-0.77312 2.0282,-1.46633 3.0627,-2.05382 1.81,-1.02794 3.5112,-1.66167 4.964,-1.90622 a 2.5067,2.453676 35.037966 0 0 0.7261,1.46254 2.5067,2.453676 35.037966 0 0 3.5205,0.035 2.5067,2.453676 35.037966 0 0 -0.036,-3.4949 2.5067,2.453676 35.037966 0 0 -1.7689,-0.74149 z" />
    <path
       id="rect9720-3-3-2-9-31-4-1-8-5-8-6-9"
       style="fill:url(#linearGradient2687);fill-opacity:1;stroke:none;stroke-width:1.23443;stroke-linecap:round;stroke-linejoin:round;stroke-miterlimit:4;stroke-dasharray:none;stroke-dashoffset:0;stroke-opacity:1"
       d="m 6.99999,14.5 c -2.216,0 -4,1.784 -4,4 v 38 c 0,2.216 1.784,4 4,4 h 50 c 2.216,0 4,-1.784 4,-4 v -38 c 0,-2.216 -1.784,-4 -4,-4 z m 1,3 h 48 c 1.108,0 2,0.892 2,2 v 36 c 0,1.108 -0.892,2 -2,2 h -48 c -1.108,0 -2,-0.892 -2,-2 v -36 c 0,-1.108 0.892,-2 2,-2 z" />
  </g>
</svg>
