<?xml version="1.0" encoding="UTF-8" standalone="no"?>
<svg
   xmlns:dc="http://purl.org/dc/elements/1.1/"
   xmlns:cc="http://creativecommons.org/ns#"
   xmlns:rdf="http://www.w3.org/1999/02/22-rdf-syntax-ns#"
   xmlns:svg="http://www.w3.org/2000/svg"
   xmlns="http://www.w3.org/2000/svg"
   xmlns:sodipodi="http://sodipodi.sourceforge.net/DTD/sodipodi-0.dtd"
   xmlns:inkscape="http://www.inkscape.org/namespaces/inkscape"
   width="64"
   height="64"
   viewBox="0 0 64 64"
   version="1.1"
   id="svg6374"
   inkscape:version="1.0.2 (e86c870879, 2021-01-15)"
   sodipodi:docname="unknown.svg">
  <defs
     id="defs6368" />
  <sodipodi:namedview
     id="base"
     pagecolor="#cecece"
     bordercolor="#666666"
     borderopacity="1.0"
     inkscape:pageopacity="0"
     inkscape:pageshadow="2"
     inkscape:zoom="1.5340798"
     inkscape:cx="52.167958"
     inkscape:cy="72.435551"
     inkscape:document-units="px"
     inkscape:current-layer="layer1"
     inkscape:document-rotation="0"
     showgrid="false"
     units="px"
     inkscape:window-width="1024"
     inkscape:window-height="1080"
     inkscape:window-x="68"
     inkscape:window-y="56"
     inkscape:window-maximized="0" />
  <metadata
     id="metadata6371">
    <rdf:RDF>
      <cc:Work
         rdf:about="">
        <dc:format>image/svg+xml</dc:format>
        <dc:type
           rdf:resource="http://purl.org/dc/dcmitype/StillImage" />
        <dc:title></dc:title>
      </cc:Work>
    </rdf:RDF>
  </metadata>
  <g
     inkscape:label="Layer 1"
     inkscape:groupmode="layer"
     id="layer1">
    <rect
       style="opacity:0.45;fill:#0c0c0c;fill-opacity:1;stroke-width:0.495;stroke-linecap:round;stroke-linejoin:round;stroke-miterlimit:4;stroke-dasharray:none;stroke-dashoffset:2.1875"
       id="rect954-6-3-2-2"
       width="44"
       height="56"
       x="10.000001"
       y="5.499999"
       rx="3"
       ry="3" />
    <path
       id="rect954-60-6-7-3"
       style="color:#000000;font-style:normal;font-variant:normal;font-weight:normal;font-stretch:normal;font-size:medium;line-height:normal;font-family:sans-serif;font-variant-ligatures:normal;font-variant-position:normal;font-variant-caps:normal;font-variant-numeric:normal;font-variant-alternates:normal;font-variant-east-asian:normal;font-feature-settings:normal;font-variation-settings:normal;text-indent:0;text-align:start;text-decoration:none;text-decoration-line:none;text-decoration-style:solid;text-decoration-color:#000000;letter-spacing:normal;word-spacing:normal;text-transform:none;writing-mode:lr-tb;direction:ltr;text-orientation:mixed;dominant-baseline:auto;baseline-shift:baseline;text-anchor:start;white-space:normal;shape-padding:0;shape-margin:0;inline-size:0;clip-rule:nonzero;display:inline;overflow:visible;visibility:visible;opacity:0.8;isolation:auto;mix-blend-mode:normal;color-interpolation:sRGB;color-interpolation-filters:linearRGB;solid-color:#000000;solid-opacity:1;vector-effect:none;fill:#66666a;fill-opacity:1;fill-rule:nonzero;stroke:none;stroke-linecap:round;stroke-linejoin:round;stroke-miterlimit:4;stroke-dasharray:none;stroke-dashoffset:2.1875;stroke-opacity:1;color-rendering:auto;image-rendering:auto;shape-rendering:auto;text-rendering:auto;enable-background:accumulate;stop-color:#000000"
       d="M 13,3.5 C 11.0696,3.5 9.5,5.06965 9.5,7 v 50 c 0,1.93035 1.5696,3.5 3.5,3.5 h 38 c 1.9304,0 3.5,-1.56965 3.5,-3.5 V 7 C 54.5,5.06965 52.9304,3.5 51,3.5 Z m 0,1 h 38 c 1.3936,0 2.5,1.10635 2.5,2.5 v 50 c 0,1.39365 -1.1064,2.5 -2.5,2.5 H 13 c -1.3936,0 -2.5,-1.10635 -2.5,-2.5 V 7 c 0,-1.39365 1.1064,-2.5 2.5,-2.5 z" />
    <rect
       style="fill:#fcfcfa;fill-opacity:1;stroke-width:0.495;stroke-linecap:round;stroke-linejoin:round;stroke-miterlimit:4;stroke-dasharray:none;stroke-dashoffset:2.1875"
       id="rect954-7-0-7"
       width="44"
       height="56"
       x="10.000001"
       y="3.999999"
       rx="3"
       ry="3" />
    <path
       id="path988"
       style="color:#000000;font-style:normal;font-variant:normal;font-weight:normal;font-stretch:normal;font-size:medium;line-height:normal;font-family:sans-serif;font-variant-ligatures:normal;font-variant-position:normal;font-variant-caps:normal;font-variant-numeric:normal;font-variant-alternates:normal;font-variant-east-asian:normal;font-feature-settings:normal;font-variation-settings:normal;text-indent:0;text-align:start;text-decoration:none;text-decoration-line:none;text-decoration-style:solid;text-decoration-color:#000000;letter-spacing:normal;word-spacing:normal;text-transform:none;writing-mode:lr-tb;direction:ltr;text-orientation:mixed;dominant-baseline:auto;baseline-shift:baseline;text-anchor:start;white-space:normal;shape-padding:0;shape-margin:0;inline-size:0;clip-rule:nonzero;display:inline;overflow:visible;visibility:visible;isolation:auto;mix-blend-mode:normal;color-interpolation:sRGB;color-interpolation-filters:linearRGB;solid-color:#000000;solid-opacity:1;vector-effect:none;fill:#a6a6a9;fill-opacity:1;fill-rule:nonzero;stroke:none;stroke-width:0.749995;stroke-linecap:round;stroke-linejoin:round;stroke-miterlimit:4;stroke-dasharray:none;stroke-dashoffset:0;stroke-opacity:1;color-rendering:auto;image-rendering:auto;shape-rendering:auto;text-rendering:auto;enable-background:accumulate;stop-color:#000000"
       d="m 32.041857,13.2505 c -5.03691,0 -9.10489,3.22551 -10.01998,8.31883 A 0.37503575,0.3750368 0 0 0 22.301667,22 l 3.13719,0.76903 a 0.37503575,0.3750368 0 0 0 0.46044,-0.31005 c 0.5394,-3.67687 3.1597,-5.54834 6.14256,-5.54834 3.42587,0 6.08493,2.40197 6.08493,6.146 0,2.67357 -1.30068,4.55059 -3.73729,6.2368 -1.71753,1.16602 -3.05098,2.2972 -3.94774,3.88817 -0.89727,1.5919 -1.3406,3.6139 -1.3579,6.52245 a 0.37503575,0.3750368 0 0 0 0,0.003 v 0.98144 a 0.37503575,0.3750368 0 0 0 0.375,0.375 h 3.09569 a 0.37503575,0.3750368 0 0 0 0.375,-0.375 v -0.97657 c 0.0252,-1.96799 0.28805,-3.35304 0.8994,-4.50682 0.61119,-1.15345 1.5856,-2.10454 3.10692,-3.16845 l 10e-4,-10e-4 c 3.30767,-2.29624 5.04783,-5.0298 5.04783,-8.83006 0,-5.719 -4.09135,-9.95506 -9.94282,-9.95506 z m -0.99268,31.99994 c -1.6524,0 -2.99998,1.34758 -2.99998,3 0,1.65241 1.34758,2.99999 2.99998,2.99999 1.65241,0 2.99999,-1.34758 2.99999,-2.99999 0,-1.65242 -1.34758,-3 -2.99999,-3 z" />
    <path
       id="path988-3"
       style="color:#000000;font-style:normal;font-variant:normal;font-weight:normal;font-stretch:normal;font-size:medium;line-height:normal;font-family:sans-serif;font-variant-ligatures:normal;font-variant-position:normal;font-variant-caps:normal;font-variant-numeric:normal;font-variant-alternates:normal;font-variant-east-asian:normal;font-feature-settings:normal;font-variation-settings:normal;text-indent:0;text-align:start;text-decoration:none;text-decoration-line:none;text-decoration-style:solid;text-decoration-color:#000000;letter-spacing:normal;word-spacing:normal;text-transform:none;writing-mode:lr-tb;direction:ltr;text-orientation:mixed;dominant-baseline:auto;baseline-shift:baseline;text-anchor:start;white-space:normal;shape-padding:0;shape-margin:0;inline-size:0;clip-rule:nonzero;display:inline;overflow:visible;visibility:visible;opacity:0.85;isolation:auto;mix-blend-mode:normal;color-interpolation:sRGB;color-interpolation-filters:linearRGB;solid-color:#000000;solid-opacity:1;vector-effect:none;fill:#464649;fill-opacity:1;fill-rule:nonzero;stroke:none;stroke-width:0.749995;stroke-linecap:round;stroke-linejoin:round;stroke-miterlimit:4;stroke-dasharray:none;stroke-dashoffset:0;stroke-opacity:1;color-rendering:auto;image-rendering:auto;shape-rendering:auto;text-rendering:auto;enable-background:accumulate;stop-color:#000000"
       d="m 32.041857,13.2505 c -5.03691,0 -9.10494,3.22553 -10.02002,8.31885 a 0.37503575,0.3750368 0 0 0 0.24951,0.42187 c 1.2629,-4.46466 5.09874,-7.23975 9.76953,-7.23975 5.59888,0 9.58367,3.8794 9.91748,9.22413 0.0165,-0.25211 0.0264,-0.50798 0.0264,-0.77002 0,-5.719 -4.0914,-9.95508 -9.94287,-9.95508 z m 6.04541,10.55273 c -0.22439,2.2837 -1.49507,3.9659 -3.69776,5.49024 -1.71753,1.16602 -3.05099,2.29721 -3.94775,3.88818 -0.89728,1.5919 -1.34061,3.61391 -1.35791,6.52246 a 0.37503575,0.3750368 0 0 0 0,0.003 v 0.98144 a 0.37503575,0.3750368 0 0 0 0.01,0.085 c 0.058,-2.67377 0.49601,-4.58073 1.34717,-6.09082 0.89676,-1.59097 2.23022,-2.72216 3.94775,-3.88818 2.43662,-1.68622 3.73731,-3.56324 3.73731,-6.23682 0,-0.25819 -0.0139,-0.5093 -0.0386,-0.75439 z m -7.03809,21.44727 c -1.65241,0 -3,1.34758 -3,3 0,0.25889 0.0365,0.50911 0.0986,0.74902 0.33572,-1.28964 1.50812,-2.24805 2.90039,-2.24805 1.39352,0 2.56685,0.96009 2.90137,2.25147 0.0627,-0.24095 0.0996,-0.49231 0.0996,-0.75244 0,-1.65242 -1.34759,-3 -3,-3 z" />
    <path
       id="path988-7"
       style="color:#000000;font-style:normal;font-variant:normal;font-weight:normal;font-stretch:normal;font-size:medium;line-height:normal;font-family:sans-serif;font-variant-ligatures:normal;font-variant-position:normal;font-variant-caps:normal;font-variant-numeric:normal;font-variant-alternates:normal;font-variant-east-asian:normal;font-feature-settings:normal;font-variation-settings:normal;text-indent:0;text-align:start;text-decoration:none;text-decoration-line:none;text-decoration-style:solid;text-decoration-color:#000000;letter-spacing:normal;word-spacing:normal;text-transform:none;writing-mode:lr-tb;direction:ltr;text-orientation:mixed;dominant-baseline:auto;baseline-shift:baseline;text-anchor:start;white-space:normal;shape-padding:0;shape-margin:0;inline-size:0;clip-rule:nonzero;display:inline;overflow:visible;visibility:visible;opacity:0.85;isolation:auto;mix-blend-mode:normal;color-interpolation:sRGB;color-interpolation-filters:linearRGB;solid-color:#000000;solid-opacity:1;vector-effect:none;fill:#464649;fill-opacity:1;fill-rule:nonzero;stroke:none;stroke-width:0.944885;stroke-linecap:round;stroke-linejoin:round;stroke-miterlimit:4;stroke-dasharray:none;stroke-dashoffset:0;stroke-opacity:1;color-rendering:auto;image-rendering:auto;shape-rendering:auto;text-rendering:auto;enable-background:accumulate;stop-color:#000000"
       d="m 32.041857,12.7505 a 0.25002503,0.25002503 0 0 0 -0.0796,0.0147 c -5.10521,0.0359 -9.25746,3.33788 -10.18701,8.51171 -0.058,0.32245 0.14859,0.63975 0.46679,0.71778 l 3.1377,0.76758 c 0.3543,0.0869 0.71487,-0.15563 0.76758,-0.5166 0.52428,-3.57388 3.01625,-5.3335 5.89453,-5.3335 3.30902,0 5.83496,2.27082 5.83496,5.89649 0,2.59249 -1.23042,4.37024 -3.62988,6.03075 -1.72887,1.17392 -3.09943,2.33129 -4.02295,3.96973 -0.92444,1.6401 -1.3722,3.71027 -1.38965,6.64356 a 0.25002503,0.25002503 0 0 0 0,0.002 c -10e-6,0.002 -10e-6,0.002 0,0.003 v 0.98193 c 3e-5,0.34219 0.28134,0.62399 0.62354,0.62402 h 3.09667 c 0.3422,-3e-5 0.624,-0.28183 0.62403,-0.62402 v -0.97412 -0.004 c 0.0253,-1.94494 0.28504,-3.28266 0.87109,-4.38867 0.58634,-1.10655 1.52521,-2.029 3.03028,-3.08154 a 0.25002503,0.25002503 0 0 0 0.0239,-0.0186 l 0.002,-0.002 c 3.33198,-2.3221 5.12842,-5.14958 5.12842,-9.01514 0,-5.83823 -4.22026,-10.20556 -10.19238,-10.20556 z m 0,0.5 c 5.73081,0 9.69238,4.1058 9.69238,9.70556 0,3.72395 -1.67537,6.35882 -4.94043,8.62549 a 0.25002503,0.25002503 0 0 0 -0.002,0 l -0.0239,0.0205 c -1.52131,1.06733 -2.52763,2.04402 -3.15966,3.23681 -0.63624,1.20072 -0.9027,2.63235 -0.92823,4.6211 a 0.25002503,0.25002503 0 0 0 0,0.002 v 0.97802 c 0,0.072 -0.0535,0.12353 -0.12549,0.12354 h -3.09667 c -0.072,-10e-6 -0.12353,-0.0515 -0.12354,-0.12354 v -0.98193 a 0.25002503,0.25002503 0 0 0 0,-10e-4 c 0.0171,-2.88385 0.45509,-4.85815 1.3252,-6.40186 0.86959,-1.54277 2.16451,-2.64611 3.86962,-3.80371 a 0.25002503,0.25002503 0 0 0 0.002,0 c 2.47377,-1.71192 3.8462,-3.68772 3.8462,-6.44238 0,-3.8624 -2.79273,-6.39648 -6.33545,-6.39648 -3.08742,0 -5.83466,1.98137 -6.38916,5.76123 a 0.25002503,0.25002503 0 0 0 -0.002,0 c -0.0112,0.0769 -0.0778,0.12203 -0.15332,0.10351 l -3.13721,-0.76953 c -0.0665,-0.0163 -0.10441,-0.0747 -0.0923,-0.14209 0.89553,-4.98448 4.84375,-8.11474 9.77393,-8.11474 z m -0.99317,31.50049 c -1.78832,0 -3.25,1.46166 -3.25,3.25 0,1.78833 1.46168,3.25 3.25,3.25 1.78833,0 3.25,-1.46167 3.25,-3.25 0,-1.78834 -1.46167,-3.25 -3.25,-3.25 z m 0,0.5 c 1.51649,0 2.75,1.2335 2.75,2.75 0,1.51648 -1.23351,2.74951 -2.75,2.74951 -1.51648,0 -2.74951,-1.23303 -2.74951,-2.74951 0,-1.5165 1.23303,-2.75 2.74951,-2.75 z" />
  </g>
</svg>
