<?xml version="1.0" encoding="UTF-8" standalone="no"?>
<svg
   xmlns:dc="http://purl.org/dc/elements/1.1/"
   xmlns:cc="http://creativecommons.org/ns#"
   xmlns:rdf="http://www.w3.org/1999/02/22-rdf-syntax-ns#"
   xmlns:svg="http://www.w3.org/2000/svg"
   xmlns="http://www.w3.org/2000/svg"
   xmlns:xlink="http://www.w3.org/1999/xlink"
   xmlns:sodipodi="http://sodipodi.sourceforge.net/DTD/sodipodi-0.dtd"
   xmlns:inkscape="http://www.inkscape.org/namespaces/inkscape"
   width="64"
   height="64"
   viewBox="0 0 64 64"
   version="1.1"
   id="svg6374"
   inkscape:version="1.0.2 (e86c870879, 2021-01-15)"
   sodipodi:docname="nm-device-wired.svg">
  <defs
     id="defs6368">
    <linearGradient
       inkscape:collect="always"
       xlink:href="#linearGradient1734"
       id="linearGradient2471"
       x1="103"
       y1="603"
       x2="161"
       y2="661"
       gradientUnits="userSpaceOnUse"
       gradientTransform="translate(-100,-600)" />
    <linearGradient
       inkscape:collect="always"
       id="linearGradient1734">
      <stop
         style="stop-color:#723149;stop-opacity:0.8509804"
         offset="0"
         id="stop1730" />
      <stop
         style="stop-color:#4a3073;stop-opacity:0.8509804"
         offset="1"
         id="stop1732" />
    </linearGradient>
    <linearGradient
       inkscape:collect="always"
       xlink:href="#linearGradient1296"
       id="linearGradient2453"
       gradientUnits="userSpaceOnUse"
       gradientTransform="matrix(3.7795275,0,0,3.7795275,1.0000002,0.9999699)"
       x1="8.1944265"
       y1="1.0125455"
       x2="8.2493715"
       y2="15.385565" />
    <linearGradient
       inkscape:collect="always"
       id="linearGradient1296">
      <stop
         style="stop-color:#8662bc;stop-opacity:1"
         offset="0"
         id="stop1292" />
      <stop
         style="stop-color:#b45075;stop-opacity:1"
         offset="1"
         id="stop1294" />
    </linearGradient>
  </defs>
  <sodipodi:namedview
     id="base"
     pagecolor="#cecece"
     bordercolor="#666666"
     borderopacity="1.0"
     inkscape:pageopacity="0"
     inkscape:pageshadow="2"
     inkscape:zoom="5.5639287"
     inkscape:cx="8.3100654"
     inkscape:cy="29.73153"
     inkscape:document-units="px"
     inkscape:current-layer="layer1"
     inkscape:document-rotation="0"
     showgrid="false"
     units="px"
     inkscape:window-width="1500"
     inkscape:window-height="970"
     inkscape:window-x="68"
     inkscape:window-y="56"
     inkscape:window-maximized="0" />
  <metadata
     id="metadata6371">
    <rdf:RDF>
      <cc:Work
         rdf:about="">
        <dc:format>image/svg+xml</dc:format>
        <dc:type
           rdf:resource="http://purl.org/dc/dcmitype/StillImage" />
        <dc:title></dc:title>
      </cc:Work>
    </rdf:RDF>
  </metadata>
  <g
     inkscape:label="Layer 1"
     inkscape:groupmode="layer"
     id="layer1">
    <path
       id="rect831-360-6-7-9-7-5-9-2-5-4-7"
       style="color:#000000;font-style:normal;font-variant:normal;font-weight:normal;font-stretch:normal;font-size:medium;line-height:normal;font-family:sans-serif;font-variant-ligatures:normal;font-variant-position:normal;font-variant-caps:normal;font-variant-numeric:normal;font-variant-alternates:normal;font-variant-east-asian:normal;font-feature-settings:normal;font-variation-settings:normal;text-indent:0;text-align:start;text-decoration:none;text-decoration-line:none;text-decoration-style:solid;text-decoration-color:#000000;letter-spacing:normal;word-spacing:normal;text-transform:none;writing-mode:lr-tb;direction:ltr;text-orientation:mixed;dominant-baseline:auto;baseline-shift:baseline;text-anchor:start;white-space:normal;shape-padding:0;shape-margin:0;inline-size:0;clip-rule:nonzero;display:inline;overflow:visible;visibility:visible;opacity:0.15;isolation:auto;mix-blend-mode:normal;color-interpolation:sRGB;color-interpolation-filters:linearRGB;solid-color:#000000;solid-opacity:1;vector-effect:none;fill:#0c0c0c;fill-opacity:1;fill-rule:nonzero;stroke:none;stroke-width:0;stroke-linecap:round;stroke-linejoin:round;stroke-miterlimit:4;stroke-dasharray:none;stroke-dashoffset:2.1875;stroke-opacity:1;color-rendering:auto;image-rendering:auto;shape-rendering:auto;text-rendering:auto;enable-background:accumulate;stop-color:#000000"
       d="m 10.00346,4.9999699 c -3.5748098,0 -6.5034598,2.9212 -6.5034598,6.4965001 v 44.007 c 0,3.5753 2.92865,6.4965 6.5034598,6.4965 h 43.99308 c 3.5748,0 6.50345,-2.9212 6.50345,-6.4965 v -44.007 c 0,-3.5753001 -2.92865,-6.4965001 -6.50345,-6.4965001 z m 0,2.9983 h 43.99308 c 1.96481,0 3.50562,1.5332 3.50562,3.4982001 v 44.007 c 0,1.965 -1.54081,3.5002 -3.50562,3.5002 H 10.00346 c -1.9648098,0 -3.4978098,-1.5352 -3.4978098,-3.5002 v -44.007 c 0,-1.9650001 1.533,-3.4982001 3.4978098,-3.4982001 z" />
    <rect
       style="fill:url(#linearGradient2471);fill-opacity:1;stroke:none;stroke-width:4;stroke-linecap:round;stroke-linejoin:round;stroke-miterlimit:4;stroke-dasharray:none;stroke-opacity:1;paint-order:stroke fill markers"
       id="rect5846-5-7"
       width="58"
       height="58"
       x="3"
       y="3"
       rx="7"
       ry="7" />
    <rect
       style="fill:url(#linearGradient2453);fill-opacity:1;stroke-width:0;stroke-linecap:round;stroke-linejoin:round;stroke-dashoffset:2.1875"
       id="rect831-9-3-0-6-2-4-6"
       width="54"
       height="54"
       x="5.0000005"
       y="5.0001221"
       rx="5"
       ry="5" />
    <path
       id="rect831-360-6-7-7-6-7-1-9-9-7"
       style="color:#000000;font-style:normal;font-variant:normal;font-weight:normal;font-stretch:normal;font-size:medium;line-height:normal;font-family:sans-serif;font-variant-ligatures:normal;font-variant-position:normal;font-variant-caps:normal;font-variant-numeric:normal;font-variant-alternates:normal;font-variant-east-asian:normal;font-feature-settings:normal;font-variation-settings:normal;text-indent:0;text-align:start;text-decoration:none;text-decoration-line:none;text-decoration-style:solid;text-decoration-color:#000000;letter-spacing:normal;word-spacing:normal;text-transform:none;writing-mode:lr-tb;direction:ltr;text-orientation:mixed;dominant-baseline:auto;baseline-shift:baseline;text-anchor:start;white-space:normal;shape-padding:0;shape-margin:0;inline-size:0;clip-rule:nonzero;display:inline;overflow:visible;visibility:visible;opacity:0.15;isolation:auto;mix-blend-mode:normal;color-interpolation:sRGB;color-interpolation-filters:linearRGB;solid-color:#000000;solid-opacity:1;vector-effect:none;fill:#562537;fill-opacity:1;fill-rule:nonzero;stroke:none;stroke-width:0;stroke-linecap:round;stroke-linejoin:round;stroke-miterlimit:4;stroke-dasharray:none;stroke-dashoffset:2.1875;stroke-opacity:1;color-rendering:auto;image-rendering:auto;shape-rendering:auto;text-rendering:auto;enable-background:accumulate;stop-color:#000000"
       d="m 10.00346,3.4999699 c -3.5748098,0 -6.5034598,2.9212 -6.5034598,6.4965 V 54.00347 c 0,3.5753 2.92865,6.4965 6.5034598,6.4965 h 43.99308 c 3.5748,0 6.50345,-2.9212 6.50345,-6.4965 V 9.9964699 c 0,-3.5753 -2.92865,-6.4965 -6.50345,-6.4965 z m 0,2.9983 h 43.99308 c 1.96481,0 3.50562,1.5332 3.50562,3.4982 V 54.00347 c 0,1.965 -1.54081,3.5002 -3.50562,3.5002 H 10.00346 c -1.9648198,0 -3.4978098,-1.5352 -3.4978098,-3.5002 V 9.9964699 c 0,-1.965 1.53299,-3.4982 3.4978098,-3.4982 z" />
    <path
       id="rect1677-6-2-1-28-4"
       style="display:inline;opacity:0.35;fill:#562537;fill-opacity:1;stroke:none;stroke-width:0;stroke-linecap:round;stroke-linejoin:round;stroke-miterlimit:4;stroke-dasharray:none;stroke-dashoffset:2.1875;stroke-opacity:1"
       d="m 20.03539,22.95339 c -0.59365,-0.005 -1.18337,0.24618 -1.59655,0.73853 l -7.95459,9.47998 c -0.0103,0.0138 -0.0212,0.0291 -0.0322,0.043 -0.008,0.009 -0.0126,0.0187 -0.0201,0.0282 -0.0351,0.0452 -0.0687,0.0899 -0.0994,0.13697 -0.007,0.01 -0.0127,0.0209 -0.0175,0.0309 -0.0296,0.0469 -0.0569,0.0939 -0.0819,0.14234 -0.008,0.014 -0.0139,0.0289 -0.0215,0.043 -0.0234,0.0456 -0.0432,0.0903 -0.0618,0.13695 -0.008,0.0179 -0.014,0.0371 -0.0188,0.0551 -0.0158,0.0445 -0.0312,0.0891 -0.0443,0.13428 -0.007,0.0177 -0.008,0.0358 -0.0134,0.0537 -0.0131,0.0462 -0.0233,0.0916 -0.0322,0.13831 -0.007,0.0221 -0.008,0.0448 -0.0107,0.0672 -0.007,0.0406 -0.0134,0.0815 -0.0161,0.12219 0,0.0317 1.6e-4,0.0635 -0.007,0.0953 0,0.0337 -0.007,0.067 -0.007,0.10071 -6e-5,0.0338 -1.5e-4,0.0669 0.007,0.10071 0,0.0316 -1.7e-4,0.0639 0.007,0.0953 0,0.0406 0.0106,0.0804 0.0161,0.12086 0,0.0229 0.007,0.0458 0.0107,0.0685 0.008,0.0459 0.0205,0.0916 0.0322,0.13696 0.007,0.0184 0.008,0.0367 0.0134,0.0551 0.0131,0.0482 0.0305,0.0963 0.0483,0.14368 0.007,0.0143 0.0106,0.0287 0.0161,0.043 0.0179,0.0474 0.0404,0.0933 0.0631,0.13964 0.008,0.0143 0.0126,0.0289 0.0201,0.043 0.0261,0.0483 0.0528,0.0955 0.0819,0.14233 0.007,0.0101 0.014,0.0197 0.0188,0.0296 0.0302,0.047 0.0632,0.0931 0.098,0.1383 0.008,0.009 0.0139,0.019 0.0215,0.0282 0.0103,0.0138 0.0199,0.0293 0.0309,0.043 l 7.95458,9.47864 c 0.73453,0.8753 2.03044,0.98958 2.90577,0.25512 0.87532,-0.73447 0.98817,-2.03046 0.25378,-2.90576 l -6.84277,-8.15601 6.84277,-8.156 c 0.73446,-0.8753 0.62154,-2.1713 -0.25378,-2.90577 -0.38294,-0.32132 -0.84614,-0.48077 -1.30786,-0.48473 z m 23.92822,0 c -0.46172,0.004 -0.92485,0.16342 -1.30786,0.48474 -0.87532,0.73447 -0.98831,2.03047 -0.25378,2.90577 l 6.84277,8.156 -6.84277,8.15601 c -0.73446,0.8753 -0.62154,2.17129 0.25378,2.90576 0.87533,0.73445 2.17131,0.62018 2.90577,-0.25513 L 53.5161,35.8279 c 0.011,-0.0137 0.0219,-0.0292 0.0322,-0.043 0.008,-0.009 0.0126,-0.0188 0.0201,-0.0282 0.0348,-0.0452 0.0678,-0.0913 0.098,-0.13831 0.005,-0.01 0.0119,-0.0194 0.0188,-0.0296 0.0292,-0.0468 0.0558,-0.094 0.0819,-0.14233 0.008,-0.014 0.0126,-0.0287 0.0201,-0.043 0.0227,-0.0463 0.0452,-0.0922 0.0631,-0.13965 0.005,-0.0142 0.009,-0.0287 0.0161,-0.043 0.0179,-0.0474 0.0353,-0.0955 0.0483,-0.14368 0.005,-0.0183 0.007,-0.0366 0.0134,-0.0551 0.0117,-0.0454 0.0247,-0.0911 0.0322,-0.13696 0.003,-0.0227 0.0107,-0.0456 0.0107,-0.0685 0.006,-0.0404 0.0161,-0.0803 0.0161,-0.12085 0.007,-0.0315 0.007,-0.0637 0.007,-0.0953 0.007,-0.0338 0.007,-0.0669 0.007,-0.1007 0,-0.0338 -0.007,-0.067 -0.007,-0.10071 -0.007,-0.0318 -0.007,-0.0637 -0.007,-0.0953 -0.003,-0.0408 -0.009,-0.0816 -0.0161,-0.12219 -0.003,-0.0223 -0.004,-0.0451 -0.0107,-0.0672 -0.009,-0.0467 -0.0192,-0.0921 -0.0322,-0.1383 -0.006,-0.0179 -0.007,-0.036 -0.0134,-0.0537 -0.0131,-0.0452 -0.0285,-0.0898 -0.0443,-0.13427 -0.005,-0.0179 -0.0112,-0.0371 -0.0188,-0.0551 -0.0192,-0.0467 -0.0384,-0.0914 -0.0618,-0.13696 -0.008,-0.0141 -0.0139,-0.0289 -0.0215,-0.043 -0.025,-0.0485 -0.0523,-0.0954 -0.0819,-0.14234 -0.005,-0.01 -0.0106,-0.021 -0.0175,-0.0309 -0.0307,-0.047 -0.0643,-0.0918 -0.0994,-0.13696 -0.008,-0.009 -0.0126,-0.0188 -0.0201,-0.0282 -0.0117,-0.0139 -0.0219,-0.0292 -0.0322,-0.043 L 45.56262,23.69162 C 45.14943,23.19927 44.55837,22.94759 43.96471,22.95309 Z M 23.06335,32.4374 c -1.14263,0 -2.0625,0.91988 -2.0625,2.0625 0,1.14263 0.91987,2.0625 2.0625,2.0625 h 17.875 c 1.14262,0 2.0625,-0.91987 2.0625,-2.0625 0,-1.14262 -0.91988,-2.0625 -2.0625,-2.0625 z" />
    <path
       id="rect1677-6-2-1-97-3-8"
       style="color:#000000;font-style:normal;font-variant:normal;font-weight:normal;font-stretch:normal;font-size:medium;line-height:normal;font-family:sans-serif;font-variant-ligatures:normal;font-variant-position:normal;font-variant-caps:normal;font-variant-numeric:normal;font-variant-alternates:normal;font-variant-east-asian:normal;font-feature-settings:normal;font-variation-settings:normal;text-indent:0;text-align:start;text-decoration:none;text-decoration-line:none;text-decoration-style:solid;text-decoration-color:#000000;letter-spacing:normal;word-spacing:normal;text-transform:none;writing-mode:lr-tb;direction:ltr;text-orientation:mixed;dominant-baseline:auto;baseline-shift:baseline;text-anchor:start;white-space:normal;shape-padding:0;shape-margin:0;inline-size:0;clip-rule:nonzero;display:inline;overflow:visible;visibility:visible;isolation:auto;mix-blend-mode:normal;color-interpolation:sRGB;color-interpolation-filters:linearRGB;solid-color:#000000;solid-opacity:1;vector-effect:none;fill:#562537;fill-opacity:1;fill-rule:nonzero;stroke:none;stroke-width:1.00006;stroke-linecap:round;stroke-linejoin:round;stroke-miterlimit:4;stroke-dasharray:none;stroke-dashoffset:2.1875;stroke-opacity:1;color-rendering:auto;image-rendering:auto;shape-rendering:auto;text-rendering:auto;enable-background:accumulate;stop-color:#000000"
       d="m 20.0396,19.9535 c -0.73745,-0.006 -1.47244,0.31037 -1.98238,0.91811 l -7.9549,9.48187 a 0.50003863,0.50012375 0 0 0 -0.0176,0.0215 c -0.0151,0.0201 -0.0233,0.0311 -0.0234,0.0312 -0.0169,0.0219 -0.0395,0.0525 -0.0195,0.0274 a 0.50003863,0.50012375 0 0 0 -0.004,0.006 c -0.0354,0.0457 -0.0753,0.098 -0.1152398,0.15822 -0.001,0.002 -8.4e-4,0.002 -0.002,0.004 -0.002,0.003 -0.004,0.005 -0.006,0.008 -0.0232,0.0355 -0.0396,0.0668 -0.0488,0.0859 -0.0257,0.0426 -0.0524,0.0848 -0.0762,0.13088 -0.0131,0.0251 -0.0231,0.0474 -0.0176,0.0371 a 0.50003863,0.50012375 0 0 0 -0.004,0.008 c -0.0299,0.0582 -0.0558,0.11447 -0.0781,0.16995 -6.2e-4,10e-4 -10e-4,0.002 -0.002,0.004 -7.3e-4,0.002 -0.001,0.004 -0.002,0.006 -0.0105,0.0256 -0.0181,0.0485 -0.0254,0.0723 -0.0167,0.0471 -0.0368,0.10028 -0.0547,0.16213 l 0.0156,-0.041 c -0.0429,0.10996 -0.0429,0.14459 -0.0254,0.0879 a 0.50003863,0.50012375 0 0 0 -0.004,0.01 c -0.0178,0.063 -0.0301,0.12453 -0.041,0.18167 l 0.0137,-0.0547 c -0.0267,0.0855 -0.0272,0.11779 -0.0273,0.13088 -4.3e-4,0.002 -10e-4,0.007 -0.002,0.01 2e-5,7.1e-4 -0.002,0.0138 -0.002,0.0137 -0.007,0.0414 -0.0134,0.0892 -0.0176,0.15041 a 0.50003863,0.50012375 0 0 0 -0.002,0.0332 c 0,0.0334 -0.002,0.0272 0.006,-0.01 a 0.50003863,0.50012375 0 0 0 -0.0117,0.10548 c 0,-0.0326 -0.008,-3.5e-4 -0.008,0.0996 -7e-5,0.0336 -0.002,0.1042 0.0176,0.20121 0.002,0.0294 -0.002,0.0451 0.006,0.0879 0.001,0.007 4.2e-4,0.007 0.002,0.0137 0.004,0.0238 0.01,0.0826 0.01,0.082 l -0.004,-0.0684 c 0,0.12917 0.0204,0.17621 0.0156,0.14455 a 0.50003863,0.50012375 0 0 0 0,0.006 c 0.0138,0.0834 0.0333,0.14406 0.043,0.18167 a 0.50003863,0.50012375 0 0 0 0.0156,0.0508 c -0.0237,-0.0631 -0.019,-0.0479 0.002,0.0215 0,0 0,0.002 0,0.002 0.0193,0.0683 0.0424,0.12776 0.0606,0.17581 a 0.50003863,0.50012375 0 0 0 0.0176,0.041 c 0,0 -0.002,0.002 -0.002,0.002 0.0292,0.0775 0.0595,0.13761 0.082,0.18362 a 0.50003863,0.50012375 0 0 0 0.008,0.0137 c -0.0161,-0.0303 -0.0127,-0.0153 0.0195,0.0449 a 0.50003863,0.50012375 0 0 0 0.002,0.002 c 0.0289,0.0535 0.0611,0.10922 0.0977,0.16799 a 0.50003863,0.50012375 0 0 0 0.0117,0.0176 0.50003863,0.50012375 0 0 0 0.01,0.0195 c 0.0393,0.061 0.0812,0.11758 0.1230498,0.1719 a 0.50003863,0.50012375 0 0 0 0.0137,0.0176 c -0.022,-0.0261 -0.016,-0.0175 0.0176,0.0234 0.004,0.006 0.002,0.008 0.0273,0.0391 a 0.50003863,0.50012375 0 0 0 0.008,0.008 l 7.95294,9.47991 c 0.90688,1.08088 2.53023,1.22366 3.61125,0.31646 1.08095,-0.90717 1.22122,-2.52896 0.31444,-3.60991 l -6.57211,-7.83709 6.57211,-7.83514 c 0.90687,-1.08096 0.7665,-2.70275 -0.31444,-3.60991 -0.47262,-0.39664 -1.05102,-0.59868 -1.62497,-0.6036 a 0.50003863,0.50012375 0 0 0 -0.004,0 z m 23.91742,0 a 0.50003863,0.50012375 0 0 0 -0.0781,0.008 c -0.54738,0.022 -1.0942,0.21568 -1.54488,0.59384 -1.08094,0.90715 -1.2214,2.5309 -0.31445,3.61186 l 6.57212,7.83514 -6.57212,7.83514 c -0.90686,1.08096 -0.7665,2.70471 0.31445,3.61186 1.08102,0.9072 2.70442,0.76447 3.61124,-0.31645 l 7.95294,-9.47991 a 0.50003863,0.50012375 0 0 0 0.008,-0.01 c 0.0252,-0.0314 0.039,-0.0513 0.043,-0.0566 -10e-4,8e-4 0.021,-0.0276 0.01,-0.0137 a 0.50003863,0.50012375 0 0 0 0.006,-0.008 c 0.0419,-0.0544 0.0838,-0.11286 0.12306,-0.17386 a 0.50003863,0.50012375 0 0 0 0.0117,-0.0195 0.50003863,0.50012375 0 0 0 0.0156,-0.0313 c -0.0103,0.0207 -0.003,0.0118 -0.006,0.0156 0.0371,-0.0595 0.0689,-0.11477 0.0977,-0.16799 0.0339,-0.0625 0.0377,-0.0795 0.0215,-0.0488 a 0.50003863,0.50012375 0 0 0 0.008,-0.0137 c 0.0219,-0.0446 0.0516,-0.10344 0.0801,-0.17776 v -0.002 c 0.004,-0.0111 0.0135,-0.0319 0,-0.004 a 0.50003863,0.50012375 0 0 0 0.0176,-0.041 c 0.0182,-0.0484 0.0411,-0.10854 0.0606,-0.17776 0.0267,-0.0887 0.0262,-0.091 0.002,-0.0254 a 0.50003863,0.50012375 0 0 0 0.0156,-0.0488 c 0.01,-0.0374 0.0272,-0.096 0.041,-0.17972 a 0.50003863,0.50012375 0 0 0 0.002,-0.008 c -0.005,0.0328 0.0156,-0.0128 0.0156,-0.1426 l -0.004,0.0684 c -6e-5,5.1e-4 0.005,-0.0587 0.01,-0.082 l 0.002,-0.0176 c 0.008,-0.0405 0.004,-0.0558 0.006,-0.084 0.0197,-0.0965 0.0158,-0.16703 0.0156,-0.2012 v -0.002 c -2.5e-4,-0.0955 -0.006,-0.13155 -0.006,-0.0996 a 0.50003863,0.50012375 0 0 0 -0.0117,-0.10548 c 0.008,0.0379 0.006,0.0454 0.006,0.0117 a 0.50003863,0.50012375 0 0 0 -0.002,-0.0332 c -0.004,-0.062 -0.0126,-0.10914 -0.0195,-0.15042 5e-5,5.3e-4 10e-4,-0.0552 -0.0293,-0.15432 l 0.0137,0.0547 c -0.011,-0.0576 -0.0233,-0.11885 -0.041,-0.18167 a 0.50003863,0.50012375 0 0 0 -0.004,-0.01 c 0.0168,0.0547 0.0162,0.0198 -0.0254,-0.0879 -0.009,-0.03 -0.0182,-0.0579 -0.0273,-0.084 l -0.0117,-0.0371 c -0.008,-0.0257 -0.0161,-0.051 -0.0273,-0.0781 l -0.002,-0.004 c -0.0206,-0.0499 -0.0455,-0.10823 -0.0781,-0.1719 a 0.50003863,0.50012375 0 0 0 -0.004,-0.008 c 0.006,0.0103 -0.004,-0.01 -0.0176,-0.0352 l -0.004,-0.008 c -0.0316,-0.0606 -0.0656,-0.11783 -0.0996,-0.17189 -0.007,-0.0125 -0.0112,-0.0215 -0.0215,-0.0371 l -0.006,-0.008 c -0.0406,-0.0615 -0.0806,-0.11702 -0.11719,-0.16409 a 0.50003863,0.50012375 0 0 0 -0.0137,-0.0156 c 0.0384,0.0454 0.035,0.0405 -0.0117,-0.0176 a 0.50003863,0.50012375 0 0 0 -0.008,-0.01 c 0.0122,0.0146 0.008,0.009 -0.0137,-0.0195 a 0.50003863,0.50012375 0 0 0 -0.0176,-0.0234 l -7.95505,-9.4798 c -0.51018,-0.60803 -1.24632,-0.92494 -1.98433,-0.91811 a 0.50003863,0.50012375 0 0 0 -0.004,0 z m -23.92719,1.00015 a 0.50003863,0.50012375 0 0 0 0.004,0 c 0.34949,0.003 0.69893,0.1231 0.99217,0.3692 0.66966,0.562 0.75341,1.53159 0.1914,2.20149 l -6.84359,8.15746 a 0.50003863,0.50012375 0 0 0 0,0.64267 l 6.84359,8.15745 c 0.56196,0.66991 0.47826,1.6395 -0.1914,2.2015 -0.6696,0.56193 -1.64094,0.4766 -2.20308,-0.19339 l -7.94708,-9.4721 -0.002,-0.004 -0.004,-0.004 c 0.002,0.002 0.007,0.006 -0.0137,-0.0215 a 0.50003863,0.50012375 0 0 0 -0.0137,-0.0176 c 0.008,0.0102 -0.009,-0.0119 -0.0117,-0.0156 -0.0278,-0.0361 -0.053,-0.0725 -0.0742,-0.10548 l 0.0293,0.0527 c -0.0267,-0.0549 -0.038,-0.0656 -0.0449,-0.0742 l -0.002,-0.002 c -10e-4,-0.002 -0.01,-0.0175 -0.01,-0.0176 -0.0176,-0.0292 -0.0339,-0.0609 -0.0527,-0.0957 l -0.002,-0.002 c 0.009,0.0159 -0.002,-0.009 -0.01,-0.0254 l -0.008,-0.0137 c -0.0175,-0.0361 -0.0315,-0.0673 -0.0371,-0.082 a 0.50003863,0.50012375 0 0 0 -0.002,-0.002 c 0.008,0.0204 0.002,-0.0126 -0.0312,-0.082 l 0.0176,0.041 c -0.0162,-0.043 -0.0275,-0.0766 -0.0332,-0.0977 a 0.50003863,0.50012375 0 0 0 -0.004,-0.0137 c 0.007,0.0217 -0.009,-0.0289 -0.01,-0.0352 -0.0137,-0.0531 -0.0201,-0.0853 -0.0215,-0.0938 v 0.006 c -0.0117,-0.0771 -0.004,-0.0775 -0.004,0.006 a 0.50003863,0.50012375 0 0 0 -0.006,-0.0664 c -0.0112,-0.0822 -0.0117,-0.0993 -0.0117,-0.0527 a 0.50003863,0.50012375 0 0 0 -0.0117,-0.10744 c 0.009,0.0401 0.006,0.045 0.006,0.0117 a 0.50003863,0.50012375 0 0 0 -0.01,-0.0996 h 0.002 a 0.50003863,0.50012375 0 0 0 0,-0.002 c 0,0.0325 0.008,3.6e-4 0.008,-0.0996 l -0.0117,0.10548 c 0.0217,-0.10056 0.0176,-0.17119 0.0176,-0.2012 v 0.0332 c 7.2e-4,-0.0106 0.004,-0.0355 0.01,-0.0723 a 0.50003863,0.50012375 0 0 0 0.004,-0.0234 c 0.006,-0.0468 0.008,-0.035 -0.01,0.0215 a 0.50003863,0.50012375 0 0 0 0.0137,-0.0547 c 0.006,-0.0318 0.0125,-0.0579 0.0195,-0.084 0.0286,-0.0925 0.031,-0.0941 0.002,-0.0195 a 0.50003863,0.50012375 0 0 0 0.0137,-0.043 c 0.008,-0.0285 0.0202,-0.0635 0.0352,-0.10548 a 0.50003863,0.50012375 0 0 0 0.008,-0.0273 c 0,0 0,-0.002 0,-0.002 a 0.50003863,0.50012375 0 0 0 0.006,-0.01 c 0.0127,-0.032 0.0235,-0.0588 0.0371,-0.0859 l 0.004,-0.008 c 0.0126,-0.0242 0.022,-0.0429 0.0156,-0.0313 a 0.50003863,0.50012375 0 0 0 0.006,-0.01 c 0.0175,-0.0338 0.0372,-0.0685 0.0605,-0.10549 a 0.50003863,0.50012375 0 0 0 0.0117,-0.0215 0.50003863,0.50012375 0 0 0 0.002,-0.002 c 0.0176,-0.027 0.0401,-0.0606 0.0703,-0.0996 l 0.004,-0.004 c 0.0175,-0.0222 0.0355,-0.0464 0.008,-0.0137 a 0.50003863,0.50012375 0 0 0 0.01,-0.0117 c 0.0125,-0.0158 0.0164,-0.0217 0.0234,-0.0313 l 7.9549,-9.48186 c 0.31599,-0.3766 0.75778,-0.56391 1.207,-0.56063 z m 23.93891,0 c 0.44928,-0.004 0.89473,0.18381 1.21091,0.56063 l 7.95294,9.47796 0.002,0.004 c 0.007,0.0103 0.008,0.0157 0.0312,0.043 -0.0101,-0.011 -0.0193,-0.019 0.0215,0.0293 0.0251,0.0328 0.0467,0.0618 0.0625,0.0859 a 0.50003863,0.50012375 0 0 0 0.008,0.0137 0.50003863,0.50012375 0 0 0 0.006,0.0117 c 0.0236,0.0375 0.0433,0.0721 0.0605,0.10549 a 0.50003863,0.50012375 0 0 0 0.004,0.006 c -0.007,-0.012 -5.2e-4,0.004 0.0215,0.0449 0.0121,0.0243 0.0232,0.0513 0.0391,0.0899 a 0.50003863,0.50012375 0 0 0 0.002,0.004 0.50003863,0.50012375 0 0 0 0.01,0.0273 c 0.0149,0.0419 0.025,0.077 0.0332,0.10548 a 0.50003863,0.50012375 0 0 0 0.0156,0.043 c -0.0279,-0.0723 -0.0258,-0.0709 0.002,0.0195 l -0.004,-0.01 c 0.008,0.0296 0.0147,0.0599 0.0215,0.0957 a 0.50003863,0.50012375 0 0 0 0.0137,0.0527 c -0.017,-0.0549 -0.0133,-0.0647 -0.008,-0.0195 a 0.50003863,0.50012375 0 0 0 0.004,0.0234 c 0.006,0.0371 0.009,0.0623 0.01,0.0723 v -0.0332 c 0,0.0295 -0.004,0.0997 0.0176,0.2012 l -0.0117,-0.10744 c 0,0.1 0.006,0.13386 0.006,0.10158 a 0.50003863,0.50012375 0 0 0 0,0.002 c 9e-5,0.0338 -0.002,0.0279 0.004,-0.002 a 0.50003863,0.50012375 0 0 0 -0.01,0.10158 c 0,0.0337 -0.005,0.0283 0.004,-0.0117 a 0.50003863,0.50012375 0 0 0 -0.01,0.10548 c 0,-0.0467 -5.6e-4,-0.0273 -0.0117,0.0547 a 0.50003863,0.50012375 0 0 0 -0.006,0.0664 c 0,-0.084 0.008,-0.0841 -0.004,-0.006 v -0.006 c -10e-4,0.008 -0.01,0.0403 -0.0234,0.0938 l 0.0156,-0.0488 c -0.0379,0.10266 -0.0391,0.1361 -0.0234,0.084 a 0.50003863,0.50012375 0 0 0 -0.004,0.0137 c -0.006,0.021 -0.0169,0.0544 -0.0332,0.0977 l 0.0176,-0.041 c -0.0341,0.0706 -0.0399,0.10237 -0.0312,0.0801 a 0.50003863,0.50012375 0 0 0 -0.002,0.004 c -0.006,0.0146 -0.0197,0.046 -0.0371,0.082 -0.0313,0.0593 -0.0363,0.0736 -0.0176,0.0391 -0.0235,0.0435 -0.0451,0.0811 -0.0664,0.11526 -9.9e-4,10e-4 -0.0124,0.0193 -0.0156,0.0234 -0.0213,0.033 -0.0465,0.0675 -0.0742,0.10353 l 0.008,-0.008 c -0.0467,0.0581 -0.052,0.065 -0.0137,0.0195 a 0.50003863,0.50012375 0 0 0 -0.0176,0.0234 c -0.0166,0.0223 -0.0247,0.0333 -0.0215,0.0293 l -7.94904,9.4721 c -0.56206,0.66995 -1.53154,0.7553 -2.20112,0.19339 -0.66967,-0.56201 -0.75342,-1.5316 -0.19141,-2.2015 l 6.84165,-8.15746 a 0.50003863,0.50012375 0 0 0 0,-0.64267 l -6.8423,-8.15738 c -0.56206,-0.66989 -0.47828,-1.63948 0.1914,-2.20149 0.29334,-0.24614 0.64263,-0.36617 0.99216,-0.3692 z m -20.90577,8.48563 c -1.41095,0 -2.56244,1.1517 -2.56244,2.56288 0,1.41118 1.15149,2.56287 2.56244,2.56287 h 17.87459 c 1.41094,0 2.56244,-1.15169 2.56244,-2.56287 0,-1.41118 -1.15149,-2.56288 -2.56244,-2.56288 z m 0,1.00014 h 17.87459 c 0.87425,0 1.56247,0.68834 1.56247,1.56274 0,0.8744 -0.68821,1.56273 -1.56247,1.56273 H 23.06297 c -0.87426,0 -1.56247,-0.68833 -1.56247,-1.56273 0,-0.8744 0.68822,-1.56274 1.56247,-1.56274 z" />
    <path
       id="rect1677-6-2-1-1"
       style="display:inline;fill:#fbfcfd;fill-opacity:1;stroke:none;stroke-width:0;stroke-linecap:round;stroke-linejoin:round;stroke-miterlimit:4;stroke-dasharray:none;stroke-dashoffset:2.1875;stroke-opacity:1"
       d="m 20.03539,20.45388 c -0.59365,-0.005 -1.18337,0.24618 -1.59655,0.73853 l -7.95459,9.47998 c -0.0103,0.0138 -0.0212,0.0291 -0.0322,0.043 -0.008,0.009 -0.0126,0.0187 -0.0201,0.0282 -0.0351,0.0452 -0.0687,0.0899 -0.0994,0.13697 -0.007,0.01 -0.0127,0.0209 -0.0175,0.0309 -0.0296,0.0469 -0.0569,0.0939 -0.0819,0.14234 -0.008,0.014 -0.0139,0.0289 -0.0215,0.043 -0.0234,0.0456 -0.0432,0.0903 -0.0618,0.13695 -0.008,0.0179 -0.014,0.0371 -0.0188,0.0551 -0.0158,0.0445 -0.0312,0.0891 -0.0443,0.13428 -0.007,0.0177 -0.008,0.0358 -0.0134,0.0537 -0.0131,0.0462 -0.0233,0.0916 -0.0322,0.13831 -0.007,0.0221 -0.008,0.0448 -0.0107,0.0672 -0.007,0.0406 -0.0134,0.0815 -0.0161,0.12219 0,0.0317 1.6e-4,0.0635 -0.007,0.0953 0,0.0337 -0.007,0.067 -0.007,0.10071 -6e-5,0.0338 -1.5e-4,0.0669 0.007,0.10071 0,0.0316 -1.7e-4,0.0639 0.007,0.0953 0,0.0406 0.0106,0.0804 0.0161,0.12086 0,0.0229 0.007,0.0458 0.0107,0.0685 0.008,0.0459 0.0205,0.0916 0.0322,0.13696 0.007,0.0184 0.008,0.0367 0.0134,0.0551 0.0131,0.0482 0.0305,0.0963 0.0483,0.14368 0.007,0.0143 0.0106,0.0287 0.0161,0.043 0.0179,0.0474 0.0404,0.0933 0.0631,0.13964 0.008,0.0143 0.0126,0.0289 0.0201,0.043 0.0261,0.0483 0.0528,0.0955 0.0819,0.14233 0.007,0.0101 0.014,0.0197 0.0188,0.0296 0.0302,0.047 0.0632,0.0931 0.098,0.1383 0.008,0.009 0.0139,0.019 0.0215,0.0282 0.0103,0.0138 0.0199,0.0293 0.0309,0.043 l 7.95458,9.47864 c 0.73453,0.8753 2.03044,0.98958 2.90577,0.25512 0.87532,-0.73447 0.98817,-2.03046 0.25378,-2.90576 l -6.84277,-8.15601 6.84277,-8.156 c 0.73446,-0.8753 0.62154,-2.1713 -0.25378,-2.90577 -0.38294,-0.32132 -0.84614,-0.48077 -1.30786,-0.48473 z m 23.92822,0 c -0.46172,0.004 -0.92485,0.16342 -1.30786,0.48474 -0.87532,0.73447 -0.98831,2.03047 -0.25378,2.90577 l 6.84277,8.156 -6.84277,8.15601 c -0.73446,0.8753 -0.62154,2.17129 0.25378,2.90576 0.87533,0.73445 2.17131,0.62018 2.90577,-0.25513 l 7.95458,-9.47864 c 0.011,-0.0137 0.0219,-0.0292 0.0322,-0.043 0.008,-0.009 0.0126,-0.0188 0.0201,-0.0282 0.0348,-0.0452 0.0678,-0.0913 0.098,-0.13831 0.005,-0.01 0.0119,-0.0194 0.0188,-0.0296 0.0292,-0.0468 0.0558,-0.094 0.0819,-0.14233 0.008,-0.014 0.0126,-0.0287 0.0201,-0.043 0.0227,-0.0463 0.0452,-0.0922 0.0631,-0.13965 0.005,-0.0142 0.009,-0.0287 0.0161,-0.043 0.0179,-0.0474 0.0353,-0.0955 0.0483,-0.14368 0.005,-0.0183 0.007,-0.0366 0.0134,-0.0551 0.0117,-0.0454 0.0247,-0.0911 0.0322,-0.13696 0.003,-0.0227 0.0107,-0.0456 0.0107,-0.0685 0.006,-0.0404 0.0161,-0.0803 0.0161,-0.12085 0.007,-0.0315 0.007,-0.0637 0.007,-0.0953 0.007,-0.0338 0.007,-0.0669 0.007,-0.1007 0,-0.0338 -0.007,-0.067 -0.007,-0.10071 -0.007,-0.0318 -0.007,-0.0637 -0.007,-0.0953 -0.003,-0.0408 -0.009,-0.0816 -0.0161,-0.12219 -0.003,-0.0223 -0.004,-0.0451 -0.0107,-0.0672 -0.009,-0.0467 -0.0192,-0.0921 -0.0322,-0.1383 -0.006,-0.0179 -0.007,-0.036 -0.0134,-0.0537 -0.0131,-0.0452 -0.0285,-0.0898 -0.0443,-0.13427 -0.005,-0.0179 -0.0112,-0.0371 -0.0188,-0.0551 -0.0192,-0.0467 -0.0384,-0.0914 -0.0618,-0.13696 -0.008,-0.0141 -0.0139,-0.0289 -0.0215,-0.043 -0.025,-0.0485 -0.0523,-0.0954 -0.0819,-0.14234 -0.005,-0.01 -0.0106,-0.021 -0.0175,-0.0309 -0.0307,-0.047 -0.0643,-0.0918 -0.0994,-0.13696 -0.008,-0.009 -0.0126,-0.0188 -0.0201,-0.0282 -0.0117,-0.0139 -0.0219,-0.0292 -0.0322,-0.043 l -7.95458,-9.47997 c -0.41319,-0.49235 -1.00425,-0.74403 -1.59791,-0.73853 z m -20.90026,9.48401 c -1.14263,0 -2.0625,0.91988 -2.0625,2.0625 0,1.14263 0.91987,2.0625 2.0625,2.0625 h 17.875 c 1.14262,0 2.0625,-0.91987 2.0625,-2.0625 0,-1.14262 -0.91988,-2.0625 -2.0625,-2.0625 z" />
  </g>
</svg>
