<?xml version="1.0" encoding="UTF-8" standalone="no"?>
<svg
   xmlns:dc="http://purl.org/dc/elements/1.1/"
   xmlns:cc="http://creativecommons.org/ns#"
   xmlns:rdf="http://www.w3.org/1999/02/22-rdf-syntax-ns#"
   xmlns:svg="http://www.w3.org/2000/svg"
   xmlns="http://www.w3.org/2000/svg"
   xmlns:sodipodi="http://sodipodi.sourceforge.net/DTD/sodipodi-0.dtd"
   xmlns:inkscape="http://www.inkscape.org/namespaces/inkscape"
   width="64"
   height="64"
   viewBox="0 0 16.933333 16.933334"
   version="1.1"
   id="svg841"
   inkscape:version="1.0.2 (e86c870879, 2021-01-15)"
   sodipodi:docname="address-book-new-symbolic.svg">
  <defs
     id="defs835" />
  <sodipodi:namedview
     id="base"
     pagecolor="#c4c4c4"
     bordercolor="#666666"
     borderopacity="1.0"
     inkscape:pageopacity="0"
     inkscape:pageshadow="2"
     inkscape:zoom="6.3480612"
     inkscape:cx="14.526566"
     inkscape:cy="38.006819"
     inkscape:document-units="px"
     inkscape:current-layer="layer1"
     inkscape:document-rotation="0"
     showgrid="false"
     units="px"
     inkscape:window-width="2048"
     inkscape:window-height="1080"
     inkscape:window-x="0"
     inkscape:window-y="0"
     inkscape:window-maximized="1" />
  <metadata
     id="metadata838">
    <rdf:RDF>
      <cc:Work
         rdf:about="">
        <dc:format>image/svg+xml</dc:format>
        <dc:type
           rdf:resource="http://purl.org/dc/dcmitype/StillImage" />
        <dc:title />
      </cc:Work>
    </rdf:RDF>
  </metadata>
  <g
     inkscape:label="Layer 1"
     inkscape:groupmode="layer"
     id="layer1">
    <path
       id="rect1673-3-3-9-9-5"
       style="display:inline;fill:#808084;fill-opacity:1;stroke-width:0;stroke-dashoffset:2.1875"
       d="m 12.303125,8.995834 c -0.146579,0 -0.264583,0.118004 -0.264583,0.264583 v 2.778125 H 9.260417 c -0.146579,0 -0.264583,0.118004 -0.264583,0.264583 v 1.322917 c 0,0.146577 0.118004,0.264583 0.264583,0.264583 h 2.778125 v 2.778125 c 0,0.14658 0.118004,0.264584 0.264583,0.264584 h 1.322917 c 0.146579,0 0.264583,-0.118004 0.264583,-0.264584 v -2.778125 h 2.778125 c 0.14658,0 0.264584,-0.118006 0.264584,-0.264583 v -1.322917 c 0,-0.146579 -0.118004,-0.264583 -0.264584,-0.264583 H 13.890625 V 9.260417 c 0,-0.146579 -0.118004,-0.264583 -0.264583,-0.264583 z" />
    <path
       id="rect869-5-9-7-9-6-6-8-2-5-2-2-9-1-4-8-7"
       style="display:inline;fill:#808084;stroke-width:1.19063;stroke-linecap:round;stroke-linejoin:round;stroke-dashoffset:2.1875"
       d="M 2.3812501,0.52916667 C 1.9415125,0.52916667 1.5875,0.88317647 1.5875,1.3229167 V 15.610417 c 0,0.43974 0.3540125,0.79375 0.7937501,0.79375 h 0.396875 1.190625 1.5875 1.5875001 0.2645833 c 0.1465792,0 0.2645834,-0.118004 0.2645834,-0.264583 v -0.661459 c 0,-0.146579 -0.1180042,-0.264583 -0.2645834,-0.264583 H 7.1437502 5.5562501 4.3656251 c -0.2198687,0 -0.396875,-0.177006 -0.396875,-0.396875 V 2.1166667 c 0,-0.2198687 0.1770063,-0.396875 0.396875,-0.396875 h 4.1010418 4.7625001 c 0.513027,0 0.926042,0.4130146 0.926042,0.9260417 v 2.9104167 1.5875001 0.2645833 c 0,0.1465792 0.118004,0.2645834 0.264583,0.2645834 h 0.661458 c 0.14658,0 0.264584,-0.1180042 0.264584,-0.2645834 v -0.2645833 -1.5875001 -3.175 c 0,-1.0260569 -0.826029,-1.85208343 -1.852084,-1.85208343 H 8.4666669 3.9687501 2.7781251 Z" />
    <path
       id="path924-6-9-0-8-7"
       style="color:#000000;font-style:normal;font-variant:normal;font-weight:normal;font-stretch:normal;font-size:medium;line-height:normal;font-family:sans-serif;font-variant-ligatures:normal;font-variant-position:normal;font-variant-caps:normal;font-variant-numeric:normal;font-variant-alternates:normal;font-variant-east-asian:normal;font-feature-settings:normal;font-variation-settings:normal;text-indent:0;text-align:start;text-decoration:none;text-decoration-line:none;text-decoration-style:solid;text-decoration-color:#000000;letter-spacing:normal;word-spacing:normal;text-transform:none;writing-mode:lr-tb;direction:ltr;text-orientation:mixed;dominant-baseline:auto;baseline-shift:baseline;text-anchor:start;white-space:normal;shape-padding:0;shape-margin:0;inline-size:0;clip-rule:nonzero;display:inline;overflow:visible;visibility:visible;isolation:auto;mix-blend-mode:normal;color-interpolation:sRGB;color-interpolation-filters:linearRGB;solid-color:#000000;solid-opacity:1;vector-effect:none;fill:#808084;fill-opacity:1;fill-rule:nonzero;stroke:none;stroke-width:0.264576;stroke-linecap:round;stroke-linejoin:round;stroke-miterlimit:4;stroke-dasharray:none;stroke-dashoffset:2.1875;stroke-opacity:1;color-rendering:auto;image-rendering:auto;shape-rendering:auto;text-rendering:auto;enable-background:accumulate;stop-color:#000000;opacity:0.75"
       d="M 9.133338,4.4985703 C 8.919581,4.4946803 8.703495,4.5081703 8.486881,4.5399113 6.7538337,4.7937739 5.3890864,6.1585477 5.1352451,7.8916453 4.8814039,9.62474 5.7962008,11.323228 7.3836214,12.063484 A 0.4630364,0.46305439 0 0 0 7.9985396,11.841274 0.4630364,0.46305439 0 0 0 7.7758398,11.223742 C 6.5556079,10.654716 5.8563141,9.358731 6.0514443,8.0265219 6.2465745,6.694313 7.2875248,5.6507567 8.619675,5.4556185 c 1.332151,-0.1951434 2.6307,0.5052007 3.199713,1.725475 a 0.4630364,0.46305439 0 0 0 0.614944,0.2242767 0.4630364,0.46305439 0 0 0 0.224764,-0.6154658 C 12.011396,5.4008577 10.629609,4.5256398 9.133338,4.4985703 Z M 8.826897,6.2617696 c -1.1006401,0 -1.9708812,1.0018183 -1.9708812,2.2045163 0,1.2026741 0.8702146,2.2071011 1.9708812,2.2071011 0.567531,-3.7e-5 1.058863,-0.335653 1.424146,-0.793231 0.257731,0.337156 0.610474,0.609949 1.046957,0.661458 h 0.136922 c 0.11131,0 0.20103,-0.118004 0.20103,-0.264583 v -0.42323 c 0,-0.146577 -0.08972,-0.264584 -0.20103,-0.264584 H 11.298 C 11.013387,9.519847 10.798281,9.254874 10.798281,8.913805 V 8.4668045 7.9980977 a 0.13230825,0.13229532 0 0 0 0,-0.00831 c -1.59e-4,-0.0027 -0.0026,-0.00519 -0.0026,-0.00781 0,-0.00611 0.0026,-0.00831 0.0026,-0.013441 V 6.8512983 c 0,-0.2591118 -0.213677,-0.4728396 -0.47281,-0.4728396 -0.201216,0 -0.298133,0.1888067 -0.365337,0.367419 C 9.631786,6.4724282 9.253167,6.261669 8.826897,6.261669 Z m -0.01349,0.9430967 v 0 h 0.0026 c 0.0037,-2.38e-5 0.0066,-3.18e-5 0.0098,0 0,5.3e-6 0.004,5.3e-6 0.0053,0 0.542317,0.00106 1.018329,0.5369031 1.025234,1.247984 2.7e-5,0.0046 2.7e-5,0.00931 0,0.013944 0,0.7177827 -0.479716,1.2629727 -1.027297,1.2629727 -0.5476085,0 -1.0283299,-0.545219 -1.0283299,-1.2629727 C 7.8006876,7.7568801 8.2724133,7.2152516 8.813539,7.2048561 Z" />
  </g>
</svg>
