<?xml version="1.0" encoding="UTF-8" standalone="no"?>
<svg
   xmlns:dc="http://purl.org/dc/elements/1.1/"
   xmlns:cc="http://creativecommons.org/ns#"
   xmlns:rdf="http://www.w3.org/1999/02/22-rdf-syntax-ns#"
   xmlns:svg="http://www.w3.org/2000/svg"
   xmlns="http://www.w3.org/2000/svg"
   xmlns:sodipodi="http://sodipodi.sourceforge.net/DTD/sodipodi-0.dtd"
   xmlns:inkscape="http://www.inkscape.org/namespaces/inkscape"
   width="64"
   height="64"
   viewBox="0 0 64 64.000003"
   version="1.1"
   id="svg8"
   inkscape:version="1.0.2 (e86c870879, 2021-01-15)"
   sodipodi:docname="align-horizontal-left-to-anchor-symbolic.svg">
  <defs
     id="defs2" />
  <sodipodi:namedview
     id="base"
     pagecolor="#c3c3c3"
     bordercolor="#666666"
     borderopacity="1.0"
     inkscape:pageopacity="0"
     inkscape:pageshadow="2"
     inkscape:zoom="7.8914263"
     inkscape:cx="39.447493"
     inkscape:cy="51.616484"
     inkscape:document-units="px"
     inkscape:current-layer="layer1"
     inkscape:document-rotation="0"
     showgrid="false"
     units="px"
     inkscape:window-width="2048"
     inkscape:window-height="1080"
     inkscape:window-x="0"
     inkscape:window-y="0"
     inkscape:window-maximized="1" />
  <metadata
     id="metadata5">
    <rdf:RDF>
      <cc:Work
         rdf:about="">
        <dc:format>image/svg+xml</dc:format>
        <dc:type
           rdf:resource="http://purl.org/dc/dcmitype/StillImage" />
        <dc:title />
      </cc:Work>
    </rdf:RDF>
  </metadata>
  <g
     inkscape:label="Layer 1"
     inkscape:groupmode="layer"
     id="layer1">
    <rect
       style="opacity:0.5;fill:#808084;fill-opacity:1;stroke-width:0.5;stroke-linecap:round;stroke-linejoin:round;stroke-dashoffset:2.1875"
       id="rect1805-4-6-9"
       width="19"
       height="20"
       x="-21"
       y="0"
       rx="2"
       ry="2"
       transform="scale(-1,1)" />
    <rect
       style="opacity:0.25;fill:#808084;stroke-width:0;stroke-linecap:round;stroke-linejoin:round;stroke-dashoffset:2.1875;stroke-opacity:0.5;fill-opacity:1"
       id="rect835"
       width="38.25"
       height="20"
       x="23.75"
       y="36.000011"
       rx="2"
       ry="2" />
    <rect
       style="opacity:0.25;fill:#808084;stroke-width:0;stroke-linecap:round;stroke-linejoin:round;stroke-dashoffset:2.1875;stroke-opacity:0.5;fill-opacity:1"
       id="rect835-3"
       width="29.375"
       height="20"
       x="24.625"
       y="8.0000095"
       rx="2"
       ry="2" />
    <path
       id="rect2270-2-9-6-6-3"
       style="fill:#808084;fill-opacity:1;stroke:none;stroke-width:0;stroke-linecap:round;stroke-linejoin:round;stroke-miterlimit:4;stroke-dasharray:none;stroke-dashoffset:2.1875"
       d="m 2,18 c 0,1.108 0.892,2 2,2 h 16 v 43 c 0,0.554 0.446,1 1,1 h 6.75 c 0.554,0 1,-0.446 1,-1 V 56 H 60 c 1.108,0 2,-0.892 2,-2 V 38 c 0,-1.108 -0.892,-2 -2,-2 H 28.75 V 28 H 52 c 1.108,0 2,-0.892 2,-2 V 10 C 54,8.892 53.108,8 52,8 H 28.75 V 1 c 0,-0.554 -0.446,-1 -1,-1 H 21 4 C 2.892,0 2,0.892 2,2 Z m 3.5,-2.5 v -11 c 0,-0.554 0.446,-1 1,-1 H 20 v 13 H 6.5 c -0.554,0 -1,-0.446 -1,-1 z m 23.25,37 v -13 H 57.5 c 0.554,0 1,0.446 1,1 v 11 c 0,0.554 -0.446,1 -1,1 z m 0,-28 v -13 H 49.5 c 0.554,0 1,0.446 1,1 v 11 c 0,0.554 -0.446,1 -1,1 z" />
  </g>
</svg>
