<?xml version="1.0" encoding="UTF-8" standalone="no"?>
<svg
   xmlns:dc="http://purl.org/dc/elements/1.1/"
   xmlns:cc="http://creativecommons.org/ns#"
   xmlns:rdf="http://www.w3.org/1999/02/22-rdf-syntax-ns#"
   xmlns:svg="http://www.w3.org/2000/svg"
   xmlns="http://www.w3.org/2000/svg"
   xmlns:sodipodi="http://sodipodi.sourceforge.net/DTD/sodipodi-0.dtd"
   xmlns:inkscape="http://www.inkscape.org/namespaces/inkscape"
   width="64"
   height="64"
   viewBox="0 0 64 64"
   version="1.1"
   id="svg6374"
   inkscape:version="1.0.2 (e86c870879, 2021-01-15)"
   sodipodi:docname="document-print-preview.svg">
  <defs
     id="defs6368" />
  <sodipodi:namedview
     id="base"
     pagecolor="#cecece"
     bordercolor="#666666"
     borderopacity="1.0"
     inkscape:pageopacity="0"
     inkscape:pageshadow="2"
     inkscape:zoom="3.6471268"
     inkscape:cx="14.109623"
     inkscape:cy="56.265062"
     inkscape:document-units="px"
     inkscape:current-layer="layer1"
     inkscape:document-rotation="0"
     showgrid="false"
     units="px"
     inkscape:window-width="1500"
     inkscape:window-height="970"
     inkscape:window-x="68"
     inkscape:window-y="56"
     inkscape:window-maximized="0" />
  <metadata
     id="metadata6371">
    <rdf:RDF>
      <cc:Work
         rdf:about="">
        <dc:format>image/svg+xml</dc:format>
        <dc:type
           rdf:resource="http://purl.org/dc/dcmitype/StillImage" />
        <dc:title></dc:title>
      </cc:Work>
    </rdf:RDF>
  </metadata>
  <g
     inkscape:label="Layer 1"
     inkscape:groupmode="layer"
     id="layer1">
    <path
       id="rect2988-7"
       style="fill:#808084;fill-opacity:1;stroke-width:0;stroke-dashoffset:2.1875"
       d="M 11,0 C 7.122,0 4,3.1219996 4,6.9999993 V 57 c 0,3.878 3.122,7 7,7 h 6.999996 2.8828 7.1172 c 0.554,0 1,-0.446 1,-1 v -3.5 c 0,-0.554 -0.446,-1 -1,-1 h -7.1172 -2.8828 H 13 C 11.061,58.5 9.5,56.939 9.5,55 V 8.9999993 c 0,-1.939 1.561,-3.4999997 3.5,-3.4999997 h 37.999996 c 1.939,0 3.5,1.5609997 3.5,3.4999997 V 18 20.041016 28 c 0,0.554 0.446,1 1,1 h 3.5 c 0.554,0 1,-0.446 1,-1 V 20.041016 18 6.9999993 C 59.999996,3.1219996 56.877996,0 52.999996,0 Z" />
    <path
       id="path2165-5-1-3"
       style="color:#000000;font-style:normal;font-variant:normal;font-weight:normal;font-stretch:normal;font-size:medium;line-height:normal;font-family:sans-serif;font-variant-ligatures:normal;font-variant-position:normal;font-variant-caps:normal;font-variant-numeric:normal;font-variant-alternates:normal;font-variant-east-asian:normal;font-feature-settings:normal;font-variation-settings:normal;text-indent:0;text-align:start;text-decoration:none;text-decoration-line:none;text-decoration-style:solid;text-decoration-color:#000000;letter-spacing:normal;word-spacing:normal;text-transform:none;writing-mode:lr-tb;direction:ltr;text-orientation:mixed;dominant-baseline:auto;baseline-shift:baseline;text-anchor:start;white-space:normal;shape-padding:0;shape-margin:0;inline-size:0;clip-rule:nonzero;display:inline;overflow:visible;visibility:visible;isolation:auto;mix-blend-mode:normal;color-interpolation:sRGB;color-interpolation-filters:linearRGB;solid-color:#000000;solid-opacity:1;vector-effect:none;fill:#808084;fill-opacity:1;fill-rule:nonzero;stroke:none;stroke-width:0.749996;stroke-linecap:round;stroke-linejoin:round;stroke-miterlimit:4;stroke-dasharray:none;stroke-dashoffset:2.1875;stroke-opacity:1;color-rendering:auto;image-rendering:auto;shape-rendering:auto;text-rendering:auto;enable-background:accumulate;stop-color:#000000"
       d="m 19.974886,20.41095 c -6.714555,6.714522 -6.71448,17.680646 0,24.395176 5.92121,5.92125 15.147648,6.61762 21.850052,2.09543 l 10.632455,10.63244 c 1.285342,1.28543 3.35495,1.28543 4.640292,0 1.285418,-1.28535 1.285418,-3.35497 0,-4.64032 L 46.465306,42.261146 c 4.52217,-6.70245 3.8258,-15.928949 -2.095409,-21.850196 -6.714556,-6.7146 -17.680531,-6.7146 -24.395011,0 z m 3.71225,3.712275 c 4.708243,-4.708275 12.262192,-4.708275 16.970434,0 4.708245,4.708272 4.708245,12.262271 0,16.970551 -4.708242,4.70827 -12.262116,4.70835 -16.970434,0 -4.708169,-4.7082 -4.708244,-12.262279 0,-16.970551 z" />
  </g>
</svg>
