<?xml version="1.0" encoding="UTF-8" standalone="no"?>
<svg
   xmlns:dc="http://purl.org/dc/elements/1.1/"
   xmlns:cc="http://creativecommons.org/ns#"
   xmlns:rdf="http://www.w3.org/1999/02/22-rdf-syntax-ns#"
   xmlns:svg="http://www.w3.org/2000/svg"
   xmlns="http://www.w3.org/2000/svg"
   xmlns:sodipodi="http://sodipodi.sourceforge.net/DTD/sodipodi-0.dtd"
   xmlns:inkscape="http://www.inkscape.org/namespaces/inkscape"
   width="64"
   height="64"
   viewBox="0 0 64 64"
   version="1.1"
   id="svg6374"
   inkscape:version="1.0.2 (e86c870879, 2021-01-15)"
   sodipodi:docname="document-revert-symbolic-rtl.svg">
  <defs
     id="defs6368" />
  <sodipodi:namedview
     id="base"
     pagecolor="#cecece"
     bordercolor="#666666"
     borderopacity="1.0"
     inkscape:pageopacity="0"
     inkscape:pageshadow="2"
     inkscape:zoom="1.2622617"
     inkscape:cx="108.25178"
     inkscape:cy="80.048091"
     inkscape:document-units="px"
     inkscape:current-layer="layer1"
     inkscape:document-rotation="0"
     showgrid="false"
     units="px"
     inkscape:window-width="1500"
     inkscape:window-height="970"
     inkscape:window-x="68"
     inkscape:window-y="56"
     inkscape:window-maximized="0" />
  <metadata
     id="metadata6371">
    <rdf:RDF>
      <cc:Work
         rdf:about="">
        <dc:format>image/svg+xml</dc:format>
        <dc:type
           rdf:resource="http://purl.org/dc/dcmitype/StillImage" />
        <dc:title></dc:title>
      </cc:Work>
    </rdf:RDF>
  </metadata>
  <g
     inkscape:label="Layer 1"
     inkscape:groupmode="layer"
     id="layer1">
    <path
       id="rect2988-3-6-3"
       style="display:inline;fill:#808084;fill-opacity:1;stroke-width:0;stroke-dashoffset:2.1875"
       d="m 53,1.925e-6 c 3.878,0 7,3.122000075 7,7.000000375 V 57.000002 c 0,3.878 -3.122,6.999999 -7,6.999999 H 15 14.164062 11.75 5 c -0.554,0 -1,-0.445999 -1,-0.999999 v -3.5 -7.199219 -1.300781 -3.376953 C 4,36.077109 13.4539,26.625002 25,26.625002 h 1.513672 7.777344 l -5.966797,-7.111328 c -0.3562,-0.424391 -0.301453,-1.052214 0.123047,-1.408203 l 5.171875,-4.339844 c 0.2122,-0.178 0.475768,-0.252769 0.730468,-0.230469 0.254699,0.022 0.499634,0.141416 0.677735,0.353516 l 13.814453,16.458984 c 0.092,0.10738 0.159719,0.229385 0.199223,0.359375 0.016,0.054 0.0262,0.110316 0.0332,0.166016 v 0.02734 0.09961 c 1e-4,0.033 0,0.06561 0,0.09961 v 0.02734 c -0.01,0.056 -0.0162,0.110063 -0.0332,0.164063 -0.039,0.13 -0.106723,0.251965 -0.199223,0.359375 L 35.027344,48.109371 c -0.356201,0.42429 -0.983704,0.479137 -1.408203,0.123047 l -5.171875,-4.337891 c -0.4245,-0.35609 -0.479247,-0.985746 -0.123047,-1.410156 l 5.966797,-7.109372 h -7.777344 c -0.002,0 -0.0039,-0.002 -0.0059,-0.002 H 25 c -6.817199,0 -12.25,5.4328 -12.25,12.25 v 3.376999 0.652344 0.347656 0.300781 6.199219 H 14.164062 15 35 51 c 1.939,0 3.5,-1.560999 3.5,-3.5 V 8.9999993 c 0,-1.939 -1.561,-3.5 -3.5,-3.5 H 35 15 14.164062 5 c -0.554,0 -1,-0.446 -1,-1.0000003 V 0.99999893 C 4,0.44599893 4.446,-1.075e-6 5,-1.075e-6 H 14.164062 15 Z" />
  </g>
</svg>
