<?xml version="1.0" encoding="UTF-8" standalone="no"?>
<svg
   xmlns:dc="http://purl.org/dc/elements/1.1/"
   xmlns:cc="http://creativecommons.org/ns#"
   xmlns:rdf="http://www.w3.org/1999/02/22-rdf-syntax-ns#"
   xmlns:svg="http://www.w3.org/2000/svg"
   xmlns="http://www.w3.org/2000/svg"
   xmlns:sodipodi="http://sodipodi.sourceforge.net/DTD/sodipodi-0.dtd"
   xmlns:inkscape="http://www.inkscape.org/namespaces/inkscape"
   width="64"
   height="64"
   viewBox="0 0 64 64.000003"
   version="1.1"
   id="svg8"
   inkscape:version="1.0.2 (e86c870879, 2021-01-15)"
   sodipodi:docname="document-open-symbolic.svg">
  <defs
     id="defs2" />
  <sodipodi:namedview
     id="base"
     pagecolor="#c3c3c3"
     bordercolor="#666666"
     borderopacity="1.0"
     inkscape:pageopacity="0"
     inkscape:pageshadow="2"
     inkscape:zoom="4.5193029"
     inkscape:cx="-18.71961"
     inkscape:cy="56.741827"
     inkscape:document-units="px"
     inkscape:current-layer="layer1"
     inkscape:document-rotation="0"
     showgrid="false"
     units="px"
     inkscape:window-width="2048"
     inkscape:window-height="1080"
     inkscape:window-x="0"
     inkscape:window-y="0"
     inkscape:window-maximized="1" />
  <metadata
     id="metadata5">
    <rdf:RDF>
      <cc:Work
         rdf:about="">
        <dc:format>image/svg+xml</dc:format>
        <dc:type
           rdf:resource="http://purl.org/dc/dcmitype/StillImage" />
        <dc:title />
      </cc:Work>
    </rdf:RDF>
  </metadata>
  <g
     inkscape:label="Layer 1"
     inkscape:groupmode="layer"
     id="layer1">
    <path
       id="rect1002-2"
       style="fill:#808084;fill-opacity:1;stroke:none;stroke-width:0;stroke-dashoffset:2.1875"
       d="m 5,46.000004 c -0.554,0 -1,0.446 -1,1 v 5 2.5625 0.4375 c 0,3.878 3.122,7 7,7 h 42 c 3.878,0 7,-3.122 7,-7 v -0.4375 -2.5625 -5 c 0,-0.554 -0.446,-1 -1,-1 h -3.5 c -0.554,0 -1,0.446 -1,1 v 5 1 c 0,1.939 -1.561,3.5 -3.5,3.5 H 13 c -1.939,0 -3.4999997,-1.561 -3.4999997,-3.5 v -1 -5 c 0,-0.554 -0.446,-1 -1,-1 z" />
    <path
       id="rect1790-5-6"
       style="fill:#808084;fill-opacity:1;stroke-width:7.00003;stroke-dashoffset:2.1875"
       d="m 15.4425,16.557175 c 0,0.2556 0.0971,0.5112 0.29298,0.707 l 4.77357,4.7734 c 0.39175,0.3917 1.02234,0.3917 1.41409,0 l 5.701324,-5.7011 v 30.6635 c 0,0.554 0.44602,1 1.00003,1 h 6.75018 c 0.55402,0 1.00003,-0.446 1.00003,-1 v -30.6635 l 5.70133,5.7011 c 0.39175,0.3917 1.02235,0.3917 1.4141,0 l 4.77356,-4.7734 c 0.39175,-0.3917 0.39175,-1.0223 0,-1.414 L 37.480204,5.0671753 32.706634,0.293775 c -0.39175,-0.3917 -1.02235,-0.3917 -1.4141,0 L 26.52093,5.0671753 15.73548,15.850175 c -0.19587,0.1958 -0.29298,0.4514 -0.29298,0.707 z" />
  </g>
</svg>
