<?xml version="1.0" encoding="UTF-8" standalone="no"?>
<svg
   xmlns:dc="http://purl.org/dc/elements/1.1/"
   xmlns:cc="http://creativecommons.org/ns#"
   xmlns:rdf="http://www.w3.org/1999/02/22-rdf-syntax-ns#"
   xmlns:svg="http://www.w3.org/2000/svg"
   xmlns="http://www.w3.org/2000/svg"
   xmlns:sodipodi="http://sodipodi.sourceforge.net/DTD/sodipodi-0.dtd"
   xmlns:inkscape="http://www.inkscape.org/namespaces/inkscape"
   width="64"
   height="64"
   viewBox="0 0 16.933333 16.933334"
   version="1.1"
   id="svg841"
   inkscape:version="1.0.2 (e86c870879, 2021-01-15)"
   sodipodi:docname="draw-eraser-delete-objects-symbolic.svg">
  <defs
     id="defs835" />
  <sodipodi:namedview
     id="base"
     pagecolor="#c4c4c4"
     bordercolor="#666666"
     borderopacity="1.0"
     inkscape:pageopacity="0"
     inkscape:pageshadow="2"
     inkscape:zoom="0.46324194"
     inkscape:cx="486.25868"
     inkscape:cy="531.76552"
     inkscape:document-units="px"
     inkscape:current-layer="layer1"
     inkscape:document-rotation="0"
     showgrid="false"
     units="px"
     inkscape:window-width="2048"
     inkscape:window-height="1080"
     inkscape:window-x="0"
     inkscape:window-y="0"
     inkscape:window-maximized="1" />
  <metadata
     id="metadata838">
    <rdf:RDF>
      <cc:Work
         rdf:about="">
        <dc:format>image/svg+xml</dc:format>
        <dc:type
           rdf:resource="http://purl.org/dc/dcmitype/StillImage" />
        <dc:title />
      </cc:Work>
    </rdf:RDF>
  </metadata>
  <g
     inkscape:label="Layer 1"
     inkscape:groupmode="layer"
     id="layer1">
    <path
       id="path1297-9"
       style="fill:#cb2a58;fill-opacity:1;stroke-width:0;stroke-linecap:round;stroke-linejoin:round;stroke-dashoffset:2.1875"
       d="m 8.4284263,0.5291897 a 7.9375002,7.9375002 0 0 0 -7.89925963,7.9375 7.9375002,7.9375002 0 0 0 7.93750013,7.9374993 7.9375002,7.9375002 0 0 0 7.9375002,-7.9374993 7.9375002,7.9375002 0 0 0 -7.9375002,-7.9375 7.9375002,7.9375002 0 0 0 -0.038241,0 z m -3.1119549,3.400309 c 0.06763,-10e-7 0.1352486,0.02569 0.1870686,0.07751 l 2.9631268,2.963126 2.9631262,-2.963126 c 0.10363,-0.103647 0.270488,-0.103648 0.374138,0 l 1.122412,1.122412 c 0.10365,0.103648 0.10364,0.27049 0,0.374137 l -2.9631267,2.963127 2.9626097,2.9631263 c 0.10365,0.103646 0.10365,0.27049 0,0.374137 l -1.122412,1.122412 c -0.10365,0.103647 -0.270497,0.103648 -0.374137,0 L 8.4666668,9.9637507 5.5040567,12.92636 c -0.1036298,0.103647 -0.2704973,0.103647 -0.3741372,0 L 4.0075072,11.803953 c -0.10365,-0.103648 -0.1036399,-0.270491 0,-0.374137 L 6.9701173,8.4666897 4.0069905,5.5035627 c -0.10365,-0.103648 -0.10365,-0.27049 0,-0.374137 l 1.1224123,-1.122412 c 0.05182,-0.05182 0.1194387,-0.07751 0.1870686,-0.07751 z"
       class="error" />
  </g>
</svg>
