<?xml version="1.0" encoding="UTF-8" standalone="no"?>
<svg
   xmlns:dc="http://purl.org/dc/elements/1.1/"
   xmlns:cc="http://creativecommons.org/ns#"
   xmlns:rdf="http://www.w3.org/1999/02/22-rdf-syntax-ns#"
   xmlns:svg="http://www.w3.org/2000/svg"
   xmlns="http://www.w3.org/2000/svg"
   xmlns:sodipodi="http://sodipodi.sourceforge.net/DTD/sodipodi-0.dtd"
   xmlns:inkscape="http://www.inkscape.org/namespaces/inkscape"
   width="64"
   height="64"
   viewBox="0 0 16.933333 16.933334"
   version="1.1"
   id="svg841"
   inkscape:version="1.0.2 (e86c870879, 2021-01-15)"
   sodipodi:docname="edit-copy-symbolic.svg">
  <defs
     id="defs835" />
  <sodipodi:namedview
     id="base"
     pagecolor="#c4c4c4"
     bordercolor="#666666"
     borderopacity="1.0"
     inkscape:pageopacity="0"
     inkscape:pageshadow="2"
     inkscape:zoom="7.5843819"
     inkscape:cx="64.889223"
     inkscape:cy="25.609268"
     inkscape:document-units="px"
     inkscape:current-layer="layer1"
     inkscape:document-rotation="0"
     showgrid="false"
     units="px"
     inkscape:window-width="2048"
     inkscape:window-height="1080"
     inkscape:window-x="0"
     inkscape:window-y="0"
     inkscape:window-maximized="1" />
  <metadata
     id="metadata838">
    <rdf:RDF>
      <cc:Work
         rdf:about="">
        <dc:format>image/svg+xml</dc:format>
        <dc:type
           rdf:resource="http://purl.org/dc/dcmitype/StillImage" />
        <dc:title />
      </cc:Work>
    </rdf:RDF>
  </metadata>
  <g
     inkscape:label="Layer 1"
     inkscape:groupmode="layer"
     id="layer1">
    <path
       id="rect2009-3-4-4-7-1"
       style="display:inline;fill:#808084;fill-opacity:1;stroke-width:1.85208;stroke-dashoffset:2.1875"
       d="M 1.8520834,0 C 0.8260292,0 0,0.8260292 0,1.8520834 v 2.7052622 7.0181764 c 0,0.146579 0.1180042,0.264583 0.2645833,0.264583 h 0.6614584 c 0.1465792,0 0.2645833,-0.118004 0.2645833,-0.264583 v -8.6651053 -0.79375 c 0,-0.5130271 0.4130146,-0.9260417 0.9260417,-0.9260417 h 0.79375 3.7439575 4.9211468 c 0.146579,0 0.264583,-0.1180041 0.264583,-0.2645833 V 0.2645833 C 11.840104,0.1180042 11.7221,0 11.575521,0 H 6.6543742 2.9104167 Z" />
    <path
       id="rect2009-36-0-06-5-3-0-3"
       style="fill:#808084;fill-opacity:1;stroke-width:1.85208;stroke-dashoffset:2.1875"
       d="M 5.027083,3.175 C 4.001029,3.175 3.175,4.0010292 3.175,5.0270834 v 0.1322917 0.8046021 0.5183145 c 0,0.1465792 0.118004,0.2645834 0.264583,0.2645834 h 0.661459 c 0.146579,0 0.264583,-0.1180042 0.264583,-0.2645834 V 5.9639772 5.2916667 c 0,-0.5130271 0.413015,-0.9260417 0.926042,-0.9260417 H 5.94434 6.482292 c 0.146579,0 0.264583,-0.1180041 0.264583,-0.2645833 V 3.4395834 C 6.746875,3.2930041 6.628871,3.175 6.482292,3.175 H 5.94434 5.159375 Z m 3.50573,0 c -0.146579,0 -0.264584,0.1180041 -0.264584,0.2645834 v 0.6614583 c 0,0.1465792 0.118005,0.2645833 0.264584,0.2645833 h 3.042708 c 0.146579,0 0.264583,-0.1180041 0.264583,-0.2645833 V 3.4395834 C 11.840104,3.2930041 11.7221,3.175 11.575521,3.175 Z m 5.093229,0 c -0.146579,0 -0.264583,0.1180041 -0.264583,0.2645834 v 0.6614583 c 0,0.1465792 0.118004,0.2645833 0.264583,0.2645833 h 0.537952 0.652673 c 0.513027,0 0.926042,0.4130146 0.926042,0.9260417 v 0.6723105 0.5183145 c 0,0.1465792 0.118004,0.2645834 0.264583,0.2645834 h 0.661458 c 0.14658,0 0.264584,-0.1180042 0.264584,-0.2645834 V 5.9639772 5.1593751 5.0270834 C 16.933334,4.0010292 16.107305,3.175 15.08125,3.175 H 14.948959 14.163994 Z M 3.439583,8.2682293 C 3.293004,8.2682293 3.175,8.3862334 3.175,8.5328126 v 3.0427084 c 0,0.146579 0.118004,0.264583 0.264583,0.264583 h 0.661459 c 0.146579,0 0.264583,-0.118004 0.264583,-0.264583 V 8.5328126 c 0,-0.1465792 -0.118004,-0.2645833 -0.264583,-0.2645833 z m 12.567709,0 c -0.146579,0 -0.264583,0.1180041 -0.264583,0.2645833 v 3.0427084 c 0,0.146579 0.118004,0.264583 0.264583,0.264583 h 0.661458 c 0.14658,0 0.264584,-0.118004 0.264584,-0.264583 V 8.5328126 c 0,-0.1465792 -0.118004,-0.2645833 -0.264584,-0.2645833 z M 3.439583,13.361459 c -0.146579,0 -0.264583,0.118004 -0.264583,0.264583 v 0.518314 0.804603 0.132292 c 0,1.026054 0.826029,1.852083 1.852083,1.852083 H 5.159375 5.94434 6.482292 c 0.146579,0 0.264583,-0.118004 0.264583,-0.264583 v -0.661459 c 0,-0.146579 -0.118004,-0.264583 -0.264583,-0.264583 H 5.94434 5.291667 c -0.513027,0 -0.926042,-0.413014 -0.926042,-0.926042 v -0.672311 -0.518314 c 0,-0.146579 -0.118004,-0.264583 -0.264583,-0.264583 z m 12.567709,0 c -0.146579,0 -0.264583,0.118004 -0.264583,0.264583 v 0.518314 0.672311 c 0,0.513028 -0.413015,0.926042 -0.926042,0.926042 h -0.652673 -0.537952 c -0.146579,0 -0.264583,0.118004 -0.264583,0.264583 v 0.661459 c 0,0.146579 0.118004,0.264583 0.264583,0.264583 h 0.537952 0.784965 0.132291 c 1.026055,0 1.852084,-0.826029 1.852084,-1.852083 v -0.132292 -0.804603 -0.518314 c 0,-0.146579 -0.118004,-0.264583 -0.264584,-0.264583 z m -7.474479,2.38125 c -0.146579,0 -0.264584,0.118004 -0.264584,0.264583 v 0.661459 c 0,0.146579 0.118005,0.264583 0.264584,0.264583 h 3.042708 c 0.146579,0 0.264583,-0.118004 0.264583,-0.264583 v -0.661459 c 0,-0.146579 -0.118004,-0.264583 -0.264583,-0.264583 z" />
  </g>
</svg>
