<?xml version="1.0" encoding="UTF-8" standalone="no"?>
<svg
   xmlns:dc="http://purl.org/dc/elements/1.1/"
   xmlns:cc="http://creativecommons.org/ns#"
   xmlns:rdf="http://www.w3.org/1999/02/22-rdf-syntax-ns#"
   xmlns:svg="http://www.w3.org/2000/svg"
   xmlns="http://www.w3.org/2000/svg"
   xmlns:sodipodi="http://sodipodi.sourceforge.net/DTD/sodipodi-0.dtd"
   xmlns:inkscape="http://www.inkscape.org/namespaces/inkscape"
   width="64"
   height="64"
   viewBox="0 0 16.933333 16.933334"
   version="1.1"
   id="svg841"
   inkscape:version="1.0.2 (e86c870879, 2021-01-15)"
   sodipodi:docname="edit-select-same-object-type-symbolic.svg">
  <defs
     id="defs835" />
  <sodipodi:namedview
     id="base"
     pagecolor="#c4c4c4"
     bordercolor="#666666"
     borderopacity="1.0"
     inkscape:pageopacity="0"
     inkscape:pageshadow="2"
     inkscape:zoom="5.7391493"
     inkscape:cx="79.051862"
     inkscape:cy="32.816918"
     inkscape:document-units="px"
     inkscape:current-layer="layer1"
     inkscape:document-rotation="0"
     showgrid="false"
     units="px"
     inkscape:window-width="2048"
     inkscape:window-height="1080"
     inkscape:window-x="0"
     inkscape:window-y="0"
     inkscape:window-maximized="1" />
  <metadata
     id="metadata838">
    <rdf:RDF>
      <cc:Work
         rdf:about="">
        <dc:format>image/svg+xml</dc:format>
        <dc:type
           rdf:resource="http://purl.org/dc/dcmitype/StillImage" />
        <dc:title />
      </cc:Work>
    </rdf:RDF>
  </metadata>
  <g
     inkscape:label="Layer 1"
     inkscape:groupmode="layer"
     id="layer1">
    <path
       style="opacity:0.25;fill:#808080;fill-opacity:1;stroke:none;stroke-width:0.857854;stroke-linecap:round;stroke-linejoin:round;stroke-miterlimit:4;stroke-dasharray:none;stroke-dashoffset:2.1875;stroke-opacity:1"
       d="m 8.4643019,4.233333 h 5.31e-4 c 0.231923,1.88e-4 0.37632,0.149627 0.460489,0.264067 0.08421,0.11453 0.139065,0.233707 0.192771,0.366903 0.107441,0.266385 0.197941,0.58719 0.285291,0.910021 0.08731,0.322832 0.169908,0.64715 0.247556,0.892453 0.0388,0.122648 0.07641,0.224928 0.105952,0.289385 0.005,0.01146 0.008,0.0131 0.0134,0.0217 0.01,0.0026 0.012,0.0048 0.0248,0.0067 0.06781,0.0094 0.174028,0.01704 0.2976911,0.01757 0.247306,0.0013 0.567521,-0.01688 0.888405,-0.02997 0.320885,-0.01302 0.640609,-0.02328 0.916329,0.0011 0.137855,0.01217 0.265049,0.02977 0.395363,0.07803 0.130314,0.04826 0.309087,0.145476 0.380895,0.376206 0.07181,0.230725 -0.0184,0.418343 -0.09661,0.537432 -0.07821,0.119092 -0.171842,0.212429 -0.276504,0.306959 -0.209312,0.189069 -0.47163,0.375695 -0.738529,0.56224 -0.266909,0.186547 -0.537668,0.368983 -0.736989,0.521933 -0.09961,0.07647 -0.18147,0.146026 -0.231015,0.195337 -0.009,0.0093 -0.0101,0.01288 -0.0165,0.02119 5.3e-4,0.01029 -7.9e-4,0.01344 0.002,0.02635 0.0123,0.0703 0.0414,0.177186 0.07911,0.300239 0.07531,0.246102 0.18971,0.559078 0.300792,0.87385 0.111082,0.314769 0.219124,0.629594 0.28218,0.911055 0.0315,0.140732 0.05281,0.27109 0.04911,0.415478 -0.004,0.144386 -0.0349,0.351904 -0.222754,0.494544 -0.18786,0.142639 -0.388362,0.112244 -0.520956,0.07131 -0.132595,-0.04093 -0.243887,-0.105582 -0.362289,-0.180351 -0.2367951,-0.149537 -0.4893321,-0.353147 -0.7416391,-0.560689 -0.252307,-0.207539 -0.502554,-0.418185 -0.703396,-0.568957 -0.100411,-0.07539 -0.1889,-0.13552 -0.249097,-0.1695 -0.0108,-0.0061 -0.0137,-0.006 -0.0227,-0.0098 -0.009,0.0038 -0.0124,0.0036 -0.0233,0.0098 -0.06021,0.03401 -0.150266,0.09304 -0.250657,0.168465 -0.200781,0.15085 -0.450128,0.363389 -0.702355,0.571027 -0.252237,0.207631 -0.5054055,0.412096 -0.7421605,0.561721 -0.118373,0.07482 -0.230225,0.137302 -0.362799,0.178284 -0.132584,0.04098 -0.332016,0.0728 -0.519926,-0.06976 -0.1879,-0.142571 -0.220084,-0.35016 -0.223784,-0.494543 -0.004,-0.144386 0.0182,-0.276286 0.0496,-0.417029 0.06301,-0.281485 0.170698,-0.595212 0.28167,-0.910023 0.110972,-0.314815 0.225595,-0.628751 0.300783,-0.874882 0.0376,-0.123066 0.06571,-0.229931 0.07801,-0.300239 0.002,-0.01249 0.001,-0.01529 0.002,-0.02532 -0.006,-0.0078 -0.007,-0.01085 -0.0155,-0.01963 C 6.2899604,9.504699 6.2072054,9.434578 6.1075154,9.358137 5.9081434,9.205266 5.6385344,9.021097 5.3715664,8.834653 5.1045974,8.648207 4.8408584,8.460887 4.6314764,8.271898 4.5267954,8.177408 4.4353154,8.08452 4.3570464,7.965458 4.2787364,7.846395 4.1876384,7.65826 4.2593364,7.427507 c 0.07171,-0.230757 0.250607,-0.325313 0.380901,-0.373621 0.130294,-0.04831 0.256987,-0.06736 0.394842,-0.07958 0.27571,-0.0245 0.594924,-0.01402 0.915809,-0.0011 0.320884,0.01299 0.641619,0.0292 0.888936,0.0279 0.123653,-7.94e-4 0.230384,-0.006 0.2982025,-0.0155 0.012,-0.0016 0.0139,-0.0041 0.0233,-0.0067 0.005,-0.0086 0.008,-0.01003 0.0134,-0.0217 0.0296,-0.06447 0.06771,-0.168272 0.106461,-0.290938 0.07761,-0.245327 0.160837,-0.570103 0.248077,-0.892969 0.08721,-0.322863 0.176899,-0.642046 0.28425,-0.908471 0.05371,-0.133212 0.108572,-0.253378 0.192771,-0.367937 0.08411,-0.114472 0.227015,-0.263274 0.45894,-0.263549 z"
       id="path2313-9-3-0" />
    <path
       id="path2125-6-7-8-1-9"
       style="color:#000000;font-style:normal;font-variant:normal;font-weight:normal;font-stretch:normal;font-size:medium;line-height:normal;font-family:sans-serif;font-variant-ligatures:normal;font-variant-position:normal;font-variant-caps:normal;font-variant-numeric:normal;font-variant-alternates:normal;font-variant-east-asian:normal;font-feature-settings:normal;font-variation-settings:normal;text-indent:0;text-align:start;text-decoration:none;text-decoration-line:none;text-decoration-style:solid;text-decoration-color:#000000;letter-spacing:normal;word-spacing:normal;text-transform:none;writing-mode:lr-tb;direction:ltr;text-orientation:mixed;dominant-baseline:auto;baseline-shift:baseline;text-anchor:start;white-space:normal;shape-padding:0;shape-margin:0;inline-size:0;clip-rule:nonzero;display:inline;overflow:visible;visibility:visible;isolation:auto;mix-blend-mode:normal;color-interpolation:sRGB;color-interpolation-filters:linearRGB;solid-color:#000000;solid-opacity:1;vector-effect:none;fill:#808080;fill-opacity:1;fill-rule:nonzero;stroke:none;stroke-width:0.942715;stroke-linecap:round;stroke-linejoin:round;stroke-miterlimit:4;stroke-dasharray:none;stroke-dashoffset:2.1875;stroke-opacity:1;color-rendering:auto;image-rendering:auto;shape-rendering:auto;text-rendering:auto;enable-background:accumulate;stop-color:#000000"
       d="m 8.4654579,4.233395 c -0.23221,4.5e-5 -0.375058,0.148839 -0.459251,0.2634 -0.08419,0.114559 -0.138937,0.234822 -0.192605,0.368035 -0.107339,0.266426 -0.197023,0.585372 -0.284251,0.908236 -0.08723,0.322864 -0.170454,0.647957 -0.248007,0.893285 -0.03878,0.122665 -0.0771,0.226252 -0.106657,0.29072 -0.0053,0.01167 -0.0081,0.01307 -0.01347,0.02164 -0.0093,0.0026 -0.01127,0.005 -0.0233,0.0067 -0.067809,0.0095 -0.1745875,0.01478 -0.2982285,0.01546 -0.247284,0.0013 -0.56762,-0.01486 -0.888472,-0.02784 -0.320855,-0.01299 -0.640235,-0.02341 -0.915915,0.0011 -0.13784,0.01222 -0.26425,0.03107 -0.394532,0.07938 -0.130282,0.04831 -0.309351,0.142952 -0.381069,0.373707 -0.07172,0.230754 0.01959,0.419075 0.09786,0.538137 0.07826,0.119062 0.169736,0.211688 0.274409,0.30618 0.209354,0.188988 0.472938,0.376434 0.739879,0.562881 0.266939,0.186444 0.536381,0.37083 0.735734,0.523702 0.09968,0.07644 0.182407,0.146584 0.231955,0.195875 0.0088,0.0088 0.0093,0.01182 0.01554,0.01958 -5.3e-4,0.01002 5.3e-4,0.01278 -0.0016,0.02526 -0.01232,0.07031 -0.04007,0.17693 -0.07766,0.299996 -0.07519,0.246131 -0.18986,0.560431 -0.300819,0.875247 -0.11096,0.314812 -0.218709,0.628294 -0.28166,0.909779 -0.03147,0.140743 -0.05342,0.27262 -0.04971,0.417005 0.0037,0.144385 0.03579,0.352269 0.223673,0.494839 0.187886,0.142569 0.387264,0.110563 0.519829,0.06958 0.132562,-0.04098 0.244588,-0.103533 0.362948,-0.178348 0.236723,-0.149626 0.4897415,-0.354212 0.7419475,-0.561846 0.252203,-0.207637 0.501319,-0.419763 0.702079,-0.570611 0.10038,-0.07543 0.190934,-0.134551 0.251113,-0.168556 0.01087,-0.0062 0.01374,-0.006 0.02277,-0.0098 0.009,0.0038 0.01198,0.0037 0.02277,0.0098 0.0602,0.03398 0.148638,0.0942 0.249043,0.169586 0.200811,0.150773 0.451357,0.36101 0.703635,0.56855 0.252275,0.207541 0.504654,0.41128 0.7414281,0.560816 0.118387,0.07477 0.229853,0.139481 0.362432,0.180409 0.132577,0.04093 0.333027,0.07151 0.520864,-0.07113 0.187838,-0.14264 0.218971,-0.350451 0.222634,-0.494838 0.0037,-0.144388 -0.01765,-0.274727 -0.04918,-0.415459 -0.06305,-0.281461 -0.17111,-0.596041 -0.282181,-0.910812 -0.111065,-0.314772 -0.22554,-0.628111 -0.300815,-0.874214 -0.03764,-0.123053 -0.06635,-0.22969 -0.0787,-0.299996 -0.0024,-0.01291 -0.0011,-0.01599 -0.0016,-0.02628 0.0064,-0.0083 0.0072,-0.01182 0.01657,-0.02114 0.04954,-0.04931 0.131271,-0.118882 0.230922,-0.195356 0.199299,-0.152949 0.469894,-0.335612 0.736771,-0.52216 0.266873,-0.186545 0.529033,-0.373295 0.738321,-0.562363 0.104643,-0.09453 0.19826,-0.187603 0.276484,-0.306694 0.07822,-0.119091 0.168616,-0.306896 0.09682,-0.537623 -0.0718,-0.230728 -0.250771,-0.328025 -0.381069,-0.376285 -0.130301,-0.04826 -0.257206,-0.06567 -0.395051,-0.07783 -0.275688,-0.02433 -0.595583,-0.01411 -0.916431,-0.0011 -0.32085,0.01309 -0.64119,0.03115 -0.888473,0.02989 -0.1236421,-5.27e-4 -0.2293761,-0.0081 -0.2971951,-0.01752 -0.01283,-0.0019 -0.01514,-0.0041 -0.02484,-0.0067 -0.0053,-0.0086 -0.0082,-0.01018 -0.01347,-0.02164 C 9.7280969,6.891569 9.6903569,6.789507 9.6515359,6.666858 9.5738959,6.421555 9.4913869,6.096918 9.4040489,5.774086 9.3167089,5.451256 9.2261909,5.130692 9.1187649,4.864306 9.0650549,4.73111 9.0103899,4.61183 8.9261569,4.497299 8.8419269,4.382771 8.6975629,4.233343 8.4653529,4.233385 Z m 0,1.147408 c 0.06248,0.183223 0.126701,0.375011 0.191052,0.61288 0.08535,0.315492 0.170321,0.645343 0.259397,0.926789 0.04454,0.140724 0.08861,0.269416 0.142385,0.386594 0.05377,0.117178 0.100022,0.229579 0.248524,0.342262 0.148502,0.112683 0.262961,0.121997 0.386246,0.139175 0.123287,0.01718 0.255263,0.02248 0.3971221,0.0232 0.28372,0.0013 0.610123,-0.01607 0.923679,-0.02887 0.235473,-0.0096 0.428877,-0.0074 0.614579,-0.0021 -0.147237,0.118402 -0.301646,0.241914 -0.497564,0.378862 -0.260812,0.182303 -0.535545,0.367288 -0.764211,0.542775 -0.114334,0.08774 -0.216466,0.173241 -0.306512,0.262882 -0.09004,0.08964 -0.1778621,0.169158 -0.2345461,0.351541 -0.05669,0.182384 -0.03178,0.300017 -0.0093,0.427831 0.02245,0.127814 0.05984,0.259324 0.103035,0.400508 0.08637,0.282367 0.2026291,0.601135 0.3111711,0.90875 0.08164,0.231363 0.138477,0.426557 0.191055,0.612879 -0.153277,-0.109719 -0.312369,-0.227018 -0.4975651,-0.379376 -0.246543,-0.202823 -0.500157,-0.418754 -0.730556,-0.591744 -0.115201,-0.0865 -0.225048,-0.16245 -0.334472,-0.224225 -0.109425,-0.06177 -0.208927,-0.124773 -0.392461,-0.124738 -0.183536,3.4e-5 -0.282024,0.06292 -0.391425,0.124738 -0.109404,0.06181 -0.218782,0.137687 -0.333955,0.224225 -0.230341,0.173076 -0.482532,0.388829 -0.7290045,0.591744 -0.185696,0.152881 -0.345597,0.271035 -0.499118,0.380923 0.05252,-0.186524 0.108837,-0.382633 0.190536,-0.614426 0.108438,-0.307658 0.226971,-0.626351 0.313243,-0.90875 0.04313,-0.1412 0.078031,-0.272686 0.1004435,-0.400508 0.02242,-0.127824 0.0495,-0.245983 -0.0072,-0.428346 C 7.0532859,9.133917 6.9650514,9.055376 6.8749734,8.965767 6.7848934,8.876167 6.6807534,8.791101 6.5663894,8.703399 6.3376624,8.528002 6.0635684,8.342832 5.8026974,8.160623 5.6068384,8.023826 5.4528914,7.901613 5.3056494,7.783311 c 0.185715,-0.0054 0.379587,-0.0096 0.615095,0 0.313562,0.01267 0.639965,0.03144 0.923682,0.02989 0.141859,-7.92e-4 0.2722875,-0.0065 0.3955685,-0.02373 0.123279,-0.01721 0.238302,-0.0285 0.386765,-0.141233 0.148462,-0.112741 0.193755,-0.223519 0.247487,-0.340718 0.05373,-0.117197 0.09945,-0.245852 0.143936,-0.386592 0.08898,-0.28148 0.173119,-0.610234 0.258362,-0.925762 0.0642,-0.237636 0.126621,-0.431275 0.188981,-0.614423 z" />
    <path
       id="path846-9-0"
       style="display:inline;fill:#808084;fill-opacity:1;stroke-width:0;stroke-linecap:round;stroke-linejoin:round;stroke-dashoffset:2.1875"
       d="M 3.2116978,1.4984057e-5 A 1.0583334,1.0583334 0 0 0 2.1693718,1.0583484 1.0583334,1.0583334 0 0 0 3.2277048,2.1166817 1.0583334,1.0583334 0 0 0 4.2860378,1.0583484 1.0583334,1.0583334 0 0 0 3.2277048,1.4984057e-5 a 1.0583334,1.0583334 0 0 0 -0.01614,0 z m 3.492791,0 A 1.0583334,1.0583334 0 0 0 5.6621888,1.0583484 1.0583334,1.0583334 0 0 0 6.7205228,2.1166817 1.0583334,1.0583334 0 0 0 7.7788558,1.0583484 1.0583334,1.0583334 0 0 0 6.7205228,1.4984057e-5 a 1.0583334,1.0583334 0 0 0 -0.01614,0 z m 3.4923152,0 A 1.0583334,1.0583334 0 0 0 9.1544778,1.0583484 1.0583334,1.0583334 0 0 0 10.212811,2.1166817 1.0583334,1.0583334 0 0 0 11.271144,1.0583484 1.0583334,1.0583334 0 0 0 10.212811,1.4984057e-5 a 1.0583334,1.0583334 0 0 0 -0.01614,0 z m 3.492288,0 A 1.0583334,1.0583334 0 0 0 12.647295,1.0583484 1.0583334,1.0583334 0 0 0 13.705629,2.1166817 1.0583334,1.0583334 0 0 0 14.763962,1.0583484 1.0583334,1.0583334 0 0 0 13.705629,1.4984057e-5 a 1.0583334,1.0583334 0 0 0 -0.01614,0 z M 1.0583328,2.1693917 A 1.0583334,1.0583334 0 0 0 -2.4653795e-7,3.2277251 1.0583334,1.0583334 0 0 0 1.0583328,4.2860585 1.0583334,1.0583334 0 0 0 2.1166668,3.2277251 1.0583334,1.0583334 0 0 0 1.0583328,2.1693917 Z m 14.8166672,0 A 1.0583334,1.0583334 0 0 0 14.816667,3.2277251 1.0583334,1.0583334 0 0 0 15.875,4.2860585 1.0583334,1.0583334 0 0 0 16.933334,3.2277251 1.0583334,1.0583334 0 0 0 15.875,2.1693917 Z M 1.0423258,5.6622019 A 1.0583334,1.0583334 0 0 0 -2.4653795e-7,6.7205353 1.0583334,1.0583334 0 0 0 1.0583328,7.7788686 1.0583334,1.0583334 0 0 0 2.1166668,6.7205353 1.0583334,1.0583334 0 0 0 1.0583328,5.6622019 a 1.0583334,1.0583334 0 0 0 -0.01614,0 z m 14.8166672,0 A 1.0583334,1.0583334 0 0 0 14.816667,6.7205353 1.0583334,1.0583334 0 0 0 15.875,7.7788686 1.0583334,1.0583334 0 0 0 16.933334,6.7205353 1.0583334,1.0583334 0 0 0 15.875,5.6622019 a 1.0583334,1.0583334 0 0 0 -0.01614,0 z M 1.0423258,9.1544953 A 1.0583334,1.0583334 0 0 0 -2.4653795e-7,10.212828 1.0583334,1.0583334 0 0 0 1.0583328,11.271162 a 1.0583334,1.0583334 0 0 0 1.058334,-1.058334 1.0583334,1.0583334 0 0 0 -1.058334,-1.0583327 1.0583334,1.0583334 0 0 0 -0.01614,0 z m 14.8166672,0 A 1.0583334,1.0583334 0 0 0 14.816667,10.212828 1.0583334,1.0583334 0 0 0 15.875,11.271162 1.0583334,1.0583334 0 0 0 16.933334,10.212828 1.0583334,1.0583334 0 0 0 15.875,9.1544953 a 1.0583334,1.0583334 0 0 0 -0.01614,0 z M 1.0423258,12.647305 A 1.0583334,1.0583334 0 0 0 -2.4653795e-7,13.705638 1.0583334,1.0583334 0 0 0 1.0583328,14.763972 a 1.0583334,1.0583334 0 0 0 1.058334,-1.058334 1.0583334,1.0583334 0 0 0 -1.058334,-1.058333 1.0583334,1.0583334 0 0 0 -0.01614,0 z m 14.8166672,0 a 1.0583334,1.0583334 0 0 0 -1.042326,1.058333 1.0583334,1.0583334 0 0 0 1.058333,1.058334 1.0583334,1.0583334 0 0 0 1.058334,-1.058334 1.0583334,1.0583334 0 0 0 -1.058334,-1.058333 1.0583334,1.0583334 0 0 0 -0.01614,0 z M 3.2116978,14.816682 a 1.0583334,1.0583334 0 0 0 -1.042326,1.058333 1.0583334,1.0583334 0 0 0 1.058333,1.058334 1.0583334,1.0583334 0 0 0 1.058333,-1.058334 1.0583334,1.0583334 0 0 0 -1.058333,-1.058333 1.0583334,1.0583334 0 0 0 -0.01614,0 z m 3.492791,0 a 1.0583334,1.0583334 0 0 0 -1.0423,1.058333 1.0583334,1.0583334 0 0 0 1.058334,1.058334 1.0583334,1.0583334 0 0 0 1.058333,-1.058334 1.0583334,1.0583334 0 0 0 -1.058333,-1.058333 1.0583334,1.0583334 0 0 0 -0.01614,0 z m 3.4923152,0 a 1.0583334,1.0583334 0 0 0 -1.0423262,1.058333 1.0583334,1.0583334 0 0 0 1.0583332,1.058334 1.0583334,1.0583334 0 0 0 1.058333,-1.058334 1.0583334,1.0583334 0 0 0 -1.058333,-1.058333 1.0583334,1.0583334 0 0 0 -0.01614,0 z m 3.492288,0 a 1.0583334,1.0583334 0 0 0 -1.041797,1.058333 1.0583334,1.0583334 0 0 0 1.058334,1.058334 1.0583334,1.0583334 0 0 0 1.058333,-1.058334 1.0583334,1.0583334 0 0 0 -1.058333,-1.058333 1.0583334,1.0583334 0 0 0 -0.01614,0 z" />
  </g>
</svg>
