<?xml version="1.0" encoding="UTF-8" standalone="no"?>
<svg
   xmlns:dc="http://purl.org/dc/elements/1.1/"
   xmlns:cc="http://creativecommons.org/ns#"
   xmlns:rdf="http://www.w3.org/1999/02/22-rdf-syntax-ns#"
   xmlns:svg="http://www.w3.org/2000/svg"
   xmlns="http://www.w3.org/2000/svg"
   xmlns:sodipodi="http://sodipodi.sourceforge.net/DTD/sodipodi-0.dtd"
   xmlns:inkscape="http://www.inkscape.org/namespaces/inkscape"
   width="64"
   height="64"
   viewBox="0 0 64 64.000003"
   version="1.1"
   id="svg8"
   inkscape:version="1.0.2 (e86c870879, 2021-01-15)"
   sodipodi:docname="edit-redo-symbolic.svg">
  <defs
     id="defs2" />
  <sodipodi:namedview
     id="base"
     pagecolor="#c3c3c3"
     bordercolor="#666666"
     borderopacity="1.0"
     inkscape:pageopacity="0"
     inkscape:pageshadow="2"
     inkscape:zoom="4.6759116"
     inkscape:cx="-15.866474"
     inkscape:cy="45.91276"
     inkscape:document-units="px"
     inkscape:current-layer="layer1"
     inkscape:document-rotation="0"
     showgrid="false"
     units="px"
     inkscape:window-width="2048"
     inkscape:window-height="1080"
     inkscape:window-x="0"
     inkscape:window-y="0"
     inkscape:window-maximized="1" />
  <metadata
     id="metadata5">
    <rdf:RDF>
      <cc:Work
         rdf:about="">
        <dc:format>image/svg+xml</dc:format>
        <dc:type
           rdf:resource="http://purl.org/dc/dcmitype/StillImage" />
        <dc:title />
      </cc:Work>
    </rdf:RDF>
  </metadata>
  <g
     inkscape:label="Layer 1"
     inkscape:groupmode="layer"
     id="layer1">
    <path
       id="rect860-6-3-3-3-7-0-3-5-7-36"
       style="fill:#808084;fill-opacity:1;stroke:none;stroke-width:1.70312;stroke-linecap:round;stroke-linejoin:round"
       d="m 46.2791,3.0098355 c 0.2547,0.022 0.5016,0.1432 0.6797,0.3554 L 60.7713,19.824236 c 0.092,0.1074 0.1617,0.2294 0.2012,0.3594 0.016,0.054 0.026,0.1083 0.033,0.1641 v 0.027 0.1 0.1 0.027 c -0.01,0.056 -0.016,0.112 -0.033,0.166 -0.039,0.13 -0.1086,0.252 -0.2012,0.3594 l -13.8125,16.4589 c -0.3562,0.4244 -0.9837,0.4792 -1.4082,0.1231 l -5.1719,-4.3399 c -0.4245,-0.3561 -0.4791,-0.9838 -0.123,-1.4082 l 5.9668,-7.1113 H 29.8748 27.6033 25.5018 c -6.8173,0 -12.25,5.4326 -12.25,12.25 0,6.8174 5.4327,12.25 12.25,12.25 h 4.373 v 0 h 5.9375 c 0.554,0 1,0.446 1,1 v 6.75 c 0,0.554 -0.446,1 -1,1 H 25.3494 c -0.012,0 -0.022,-0.01 -0.033,-0.01 C 13.8552,57.988636 4.5,48.577836 4.5,37.093636 c 0,-11.5464 9.4559,-21 21.002,-21 h 2.1015 2.2715 16.3477 L 40.2559,8.9823355 c -0.3561,-0.4243 -0.3015,-1.0521 0.123,-1.4082 l 5.1719,-4.3399 c 0.2123,-0.178 0.4739,-0.2527 0.7285,-0.2304 z" />
  </g>
</svg>
