<?xml version="1.0" encoding="UTF-8" standalone="no"?>
<svg
   xmlns:dc="http://purl.org/dc/elements/1.1/"
   xmlns:cc="http://creativecommons.org/ns#"
   xmlns:rdf="http://www.w3.org/1999/02/22-rdf-syntax-ns#"
   xmlns:svg="http://www.w3.org/2000/svg"
   xmlns="http://www.w3.org/2000/svg"
   xmlns:sodipodi="http://sodipodi.sourceforge.net/DTD/sodipodi-0.dtd"
   xmlns:inkscape="http://www.inkscape.org/namespaces/inkscape"
   width="64"
   height="64"
   viewBox="0 0 64 64"
   version="1.1"
   id="svg6374"
   inkscape:version="1.0.2 (e86c870879, 2021-01-15)"
   sodipodi:docname="filter-videos-disabled-symbolic.svg">
  <defs
     id="defs6368" />
  <sodipodi:namedview
     id="base"
     pagecolor="#cecece"
     bordercolor="#666666"
     borderopacity="1.0"
     inkscape:pageopacity="0"
     inkscape:pageshadow="2"
     inkscape:zoom="6.7119807"
     inkscape:cx="8.5087727"
     inkscape:cy="38.000063"
     inkscape:document-units="px"
     inkscape:current-layer="layer1"
     inkscape:document-rotation="0"
     showgrid="false"
     units="px"
     inkscape:window-width="1500"
     inkscape:window-height="970"
     inkscape:window-x="68"
     inkscape:window-y="56"
     inkscape:window-maximized="0" />
  <metadata
     id="metadata6371">
    <rdf:RDF>
      <cc:Work
         rdf:about="">
        <dc:format>image/svg+xml</dc:format>
        <dc:type
           rdf:resource="http://purl.org/dc/dcmitype/StillImage" />
        <dc:title></dc:title>
      </cc:Work>
    </rdf:RDF>
  </metadata>
  <g
     inkscape:label="Layer 1"
     inkscape:groupmode="layer"
     id="layer1">
    <path
       id="rect1735-3-6-3-5"
       style="display:inline;opacity:0.5;fill:#808084;fill-opacity:1;stroke-width:0;stroke-dashoffset:2.1875"
       d="m 12.591117,4.001225 v 0.002 c -0.068,0 -0.1333,0.008 -0.2005,0.0109 -0.088,0.003 -0.1753,0.006 -0.2625,0.0128 -0.1081,0.008 -0.2147,0.0217 -0.3208,0.0365 -0.068,0.01 -0.1365,0.0188 -0.2042,0.031 -0.1323,0.0233 -0.2614,0.0532 -0.3902,0.0857 -0.037,0.009 -0.075,0.0189 -0.1111,0.0291 -0.1468,0.0402 -0.2904,0.087 -0.4321,0.13853 -0.02,0.007 -0.042,0.0141 -0.062,0.0218 -0.1534,0.0579 -0.3037,0.12261 -0.4502,0.19323 -0.01,0.005 -0.021,0.01 -0.031,0.0146 -1.6416005,0.80298 -2.8244005,2.38039 -3.0789005,4.26541 -0.01,0.0341 -0.01,0.068 -0.015,0.10208 -0.012,0.10346 -0.018,0.20837 -0.023,0.31351 -0.01,0.0932 -0.013,0.18589 -0.015,0.2789 -3e-4,0.0221 0,0.0435 0,0.0656 v 44.7977 0.0675 c 0,0.0941 0.01,0.18827 0.015,0.28254 0.01,0.1026 0.012,0.20524 0.023,0.30623 0,0.0378 0.011,0.0753 0.017,0.11302 0.1803,1.32087 0.817,2.48854 1.7482,3.34671 0.1346,0.12402 0.2746,0.24136 0.4211,0.3518 0.1445,0.10908 0.2933,0.21135 0.4484,0.30623 0.1524,0.0932 0.3086,0.18025 0.4703005,0.25884 0.1524,0.074 0.3089,0.14212 0.4686,0.20234 0.02,0.007 0.039,0.0146 0.06,0.0218 0.1388,0.0505 0.2791,0.0971 0.4229,0.13671 0.046,0.0128 0.092,0.0231 0.1386,0.0346 0.1217,0.0302 0.2434,0.0581 0.3682,0.0802 0.074,0.0133 0.1482,0.0224 0.2224,0.0329 0.094,0.0128 0.1873,0.0246 0.2825,0.0328 0.1079,0.01 0.2161,0.015 0.3245,0.0182 0.054,0.002 0.1074,0.007 0.1622,0.007 0.023,0 0.046,-0.004 0.069,-0.004 0.1131,-9.4e-4 0.2259,-0.008 0.3391,-0.0164 0.072,-0.006 0.1454,-0.008 0.2169,-0.0164 0.085,-0.01 0.1701,-0.0246 0.2553,-0.0383 0.1169,-0.0184 0.2338,-0.0366 0.3481,-0.062 0,-4.2e-4 -2e-4,-0.002 0.01,-0.002 0.01,-9.4e-4 0.013,-0.006 0.018,-0.007 0.5553,-0.1258 1.0767,-0.33416 1.5549,-0.61065 l 0.031,-0.0182 38.4217,-22.18193 c 0,-9.3e-4 0.011,-0.003 0.011,-0.004 0.744,-0.36423 1.4094,-0.90249 1.9432,-1.58768 0.027,-0.0347 0.056,-0.0686 0.082,-0.1039 0.071,-0.0954 0.1369,-0.19613 0.2024,-0.29712 0.036,-0.0563 0.075,-0.11207 0.1094,-0.16953 0.016,-0.0265 0.035,-0.0497 0.051,-0.0765 0.033,-0.0567 0.057,-0.11587 0.088,-0.17316 0.049,-0.0918 0.098,-0.18286 0.1421,-0.27707 0.031,-0.0668 0.057,-0.13486 0.086,-0.20234 0.04,-0.0966 0.08,-0.19311 0.1149,-0.29165 0.031,-0.086 0.058,-0.17214 0.084,-0.25885 0.026,-0.0864 0.051,-0.17304 0.073,-0.26066 0.021,-0.0848 0.037,-0.16994 0.055,-0.25519 0.019,-0.0947 0.039,-0.18876 0.053,-0.28436 0.013,-0.0912 0.021,-0.18214 0.029,-0.27342 0.01,-0.0807 0.015,-0.1613 0.02,-0.24244 0.01,-0.095 0.01,-0.18952 0.01,-0.28437 0,-0.0959 2e-4,-0.1919 -0.01,-0.288 0,-0.0799 -0.012,-0.15925 -0.02,-0.23879 -0.01,-0.0936 -0.018,-0.18726 -0.031,-0.28071 -0.013,-0.0922 -0.031,-0.18389 -0.05,-0.27524 -0.017,-0.0873 -0.035,-0.17381 -0.056,-0.26067 -0.022,-0.0859 -0.046,-0.17045 -0.071,-0.2552 -0.027,-0.091 -0.055,-0.18143 -0.088,-0.2716 -0.032,-0.0886 -0.066,-0.1755 -0.102,-0.26249 -0.033,-0.0781 -0.064,-0.15603 -0.1004,-0.23332 -0.042,-0.0907 -0.09,-0.17944 -0.1366,-0.26796 -0.031,-0.057 -0.057,-0.11496 -0.09,-0.17134 -0.013,-0.0234 -0.03,-0.0442 -0.044,-0.0675 -0.042,-0.07 -0.088,-0.13768 -0.1331,-0.20597 -0.061,-0.092 -0.1211,-0.18428 -0.1859,-0.2716 -0.024,-0.0324 -0.051,-0.0628 -0.077,-0.0948 -0.094,-0.12078 -0.1899,-0.23872 -0.2918,-0.34998 -0.4634,-0.50634 -1.006,-0.91324 -1.5986,-1.21218 l -38.525,-22.23841 c -0.4831,-0.27932 -1.0097,-0.49073 -1.5713,-0.61613 0,-6.9e-4 -0.01,-9.3e-4 -0.01,-0.002 -0.1286,-0.0285 -0.26,-0.0497 -0.3919,-0.0692 -0.062,-0.009 -0.1238,-0.0201 -0.1859,-0.0274 -0.089,-0.0102 -0.1796,-0.0159 -0.2699,-0.0218 -0.1016,-0.007 -0.203,-0.0133 -0.3044,-0.0146 -0.024,-3e-4 -0.049,-0.004 -0.073,-0.004 z" />
  </g>
</svg>
