<?xml version="1.0" encoding="UTF-8" standalone="no"?>
<svg
   xmlns:dc="http://purl.org/dc/elements/1.1/"
   xmlns:cc="http://creativecommons.org/ns#"
   xmlns:rdf="http://www.w3.org/1999/02/22-rdf-syntax-ns#"
   xmlns:svg="http://www.w3.org/2000/svg"
   xmlns="http://www.w3.org/2000/svg"
   xmlns:sodipodi="http://sodipodi.sourceforge.net/DTD/sodipodi-0.dtd"
   xmlns:inkscape="http://www.inkscape.org/namespaces/inkscape"
   width="64"
   height="64"
   viewBox="0 0 64 64.000003"
   version="1.1"
   id="svg8"
   inkscape:version="1.0.2 (e86c870879, 2021-01-15)"
   sodipodi:docname="format-text-direction-rtl-symbolic.svg">
  <defs
     id="defs2" />
  <sodipodi:namedview
     id="base"
     pagecolor="#c3c3c3"
     bordercolor="#666666"
     borderopacity="1.0"
     inkscape:pageopacity="0"
     inkscape:pageshadow="2"
     inkscape:zoom="3.8105338"
     inkscape:cx="-53.194441"
     inkscape:cy="46.25584"
     inkscape:document-units="px"
     inkscape:current-layer="layer1"
     inkscape:document-rotation="0"
     showgrid="false"
     units="px"
     inkscape:window-width="2048"
     inkscape:window-height="1080"
     inkscape:window-x="0"
     inkscape:window-y="0"
     inkscape:window-maximized="1" />
  <metadata
     id="metadata5">
    <rdf:RDF>
      <cc:Work
         rdf:about="">
        <dc:format>image/svg+xml</dc:format>
        <dc:type
           rdf:resource="http://purl.org/dc/dcmitype/StillImage" />
        <dc:title />
      </cc:Work>
    </rdf:RDF>
  </metadata>
  <g
     inkscape:label="Layer 1"
     inkscape:groupmode="layer"
     id="layer1">
    <rect
       style="fill:#808084;fill-opacity:1;stroke-width:0;stroke-dashoffset:2.1875"
       id="rect839-6-9-0-1-2-2"
       width="50"
       height="6"
       x="10.000147"
       y="7"
       ry="1"
       rx="1" />
    <rect
       style="fill:#808084;fill-opacity:1;stroke-width:0;stroke-dashoffset:2.1875"
       id="rect843-5-6-2-7-7-2"
       width="30"
       height="6"
       x="30.000147"
       y="25.722"
       ry="1"
       rx="1" />
    <path
       id="rect1790-5-2-2-3"
       style="fill:#808084;fill-opacity:1;stroke-width:7.00016;stroke-dashoffset:2.1875"
       d="m 59.999998,45.44144 c 0,-0.554035 -0.445998,-1.000061 -0.999987,-1.000061 H 14.961545 l 7.07607,-7.076597 c 0.3917,-0.391823 0.3917,-1.022323 0,-1.414146 l -4.77337,-4.77177 c -0.39169,-0.391824 -1.02235,-0.391824 -1.41404,0 l -10.78306,10.783849 -4.77337,4.77177 c -0.3917,0.391824 -0.3917,1.024277 0,1.416101 l 4.77337,4.771766 10.78306,10.78385 c 0.39169,0.39173 1.02235,0.39173 1.41404,0 l 4.77337,-4.77177 c 0.3917,-0.39172 0.3917,-1.02427 0,-1.4161 l -7.07607,-7.07659 h 44.038466 c 0.553989,0 0.999987,-0.44603 0.999987,-1.00006 z" />
  </g>
</svg>
