<?xml version="1.0" encoding="UTF-8" standalone="no"?>
<svg
   xmlns:dc="http://purl.org/dc/elements/1.1/"
   xmlns:cc="http://creativecommons.org/ns#"
   xmlns:rdf="http://www.w3.org/1999/02/22-rdf-syntax-ns#"
   xmlns:svg="http://www.w3.org/2000/svg"
   xmlns="http://www.w3.org/2000/svg"
   xmlns:sodipodi="http://sodipodi.sourceforge.net/DTD/sodipodi-0.dtd"
   xmlns:inkscape="http://www.inkscape.org/namespaces/inkscape"
   width="64"
   height="64"
   viewBox="0 0 16.933333 16.933334"
   version="1.1"
   id="svg841"
   inkscape:version="1.0.2 (e86c870879, 2021-01-15)"
   sodipodi:docname="go-bottom-symbolic.svg">
  <defs
     id="defs835" />
  <sodipodi:namedview
     id="base"
     pagecolor="#c4c4c4"
     bordercolor="#666666"
     borderopacity="1.0"
     inkscape:pageopacity="0"
     inkscape:pageshadow="2"
     inkscape:zoom="2.8903394"
     inkscape:cx="46.372831"
     inkscape:cy="36.927888"
     inkscape:document-units="px"
     inkscape:current-layer="layer1"
     inkscape:document-rotation="0"
     showgrid="false"
     units="px"
     inkscape:window-width="2048"
     inkscape:window-height="1080"
     inkscape:window-x="0"
     inkscape:window-y="0"
     inkscape:window-maximized="1" />
  <metadata
     id="metadata838">
    <rdf:RDF>
      <cc:Work
         rdf:about="">
        <dc:format>image/svg+xml</dc:format>
        <dc:type
           rdf:resource="http://purl.org/dc/dcmitype/StillImage" />
        <dc:title></dc:title>
      </cc:Work>
    </rdf:RDF>
  </metadata>
  <g
     inkscape:label="Layer 1"
     inkscape:groupmode="layer"
     id="layer1">
    <path
       id="rect972-7-5-9-6"
       style="display:inline;fill:#808084;fill-opacity:1;stroke-width:0;stroke-dashoffset:2.1875"
       d="m 14.816667,3.8372549 c 0,-0.23672 -0.09043,-0.473369 -0.271817,-0.654757 -0.362771,-0.362775 -0.947233,-0.362775 -1.31,0 l -4.7464798,4.74711 -4.746998,-4.74711 c -0.36277,-0.362775 -0.946716,-0.362775 -1.309478,0 -0.362771,0.362776 -0.362771,0.94674 0,1.309513 l 5.401736,5.401863 c 0.36277,0.3627761 0.946711,0.3627761 1.309481,0 L 14.54485,4.4920109 c 0.181382,-0.181388 0.271817,-0.418036 0.271817,-0.654756 z m 0,9.2595991 c 0,-0.513038 -0.413015,-0.926063 -0.926042,-0.926063 H 3.0427082 c -0.513027,-2e-6 -0.926042,0.413025 -0.926042,0.926063 0,0.513038 0.413015,0.926063 0.926042,0.926063 H 13.890625 c 0.513027,0 0.926042,-0.413025 0.926042,-0.926063 z" />
  </g>
</svg>
