<?xml version="1.0" encoding="UTF-8" standalone="no"?>
<svg
   xmlns:dc="http://purl.org/dc/elements/1.1/"
   xmlns:cc="http://creativecommons.org/ns#"
   xmlns:rdf="http://www.w3.org/1999/02/22-rdf-syntax-ns#"
   xmlns:svg="http://www.w3.org/2000/svg"
   xmlns="http://www.w3.org/2000/svg"
   xmlns:sodipodi="http://sodipodi.sourceforge.net/DTD/sodipodi-0.dtd"
   xmlns:inkscape="http://www.inkscape.org/namespaces/inkscape"
   width="64"
   height="64"
   viewBox="0 0 64 64.000003"
   version="1.1"
   id="svg8"
   inkscape:version="1.0.2 (e86c870879, 2021-01-15)"
   sodipodi:docname="keyboard-shift-filled-symbolic.svg">
  <defs
     id="defs2" />
  <sodipodi:namedview
     id="base"
     pagecolor="#c3c3c3"
     bordercolor="#666666"
     borderopacity="1.0"
     inkscape:pageopacity="0"
     inkscape:pageshadow="2"
     inkscape:zoom="3.1258308"
     inkscape:cx="7.7357401"
     inkscape:cy="44.938502"
     inkscape:document-units="px"
     inkscape:current-layer="layer1"
     inkscape:document-rotation="0"
     showgrid="false"
     units="px"
     inkscape:window-width="2048"
     inkscape:window-height="1080"
     inkscape:window-x="0"
     inkscape:window-y="0"
     inkscape:window-maximized="1" />
  <metadata
     id="metadata5">
    <rdf:RDF>
      <cc:Work
         rdf:about="">
        <dc:format>image/svg+xml</dc:format>
        <dc:type
           rdf:resource="http://purl.org/dc/dcmitype/StillImage" />
        <dc:title />
      </cc:Work>
    </rdf:RDF>
  </metadata>
  <g
     inkscape:label="Layer 1"
     inkscape:groupmode="layer"
     id="layer1">
    <path
       id="rect980-0-3-3-1"
       style="fill:#808084;fill-opacity:1;stroke-width:4.49999;stroke-linecap:round;stroke-linejoin:round;stroke-dashoffset:2.1875"
       d="M 31.999995,5.2702682e-4 C 30.647865,-0.01957297 29.313915,0.53679703 28.476555,1.596227 L 2.771475,34.119668 c -0.0194,-0.0112 -0.0178,0.01 -0.0195,0.0117 -0.12882,0.16568 -0.23888,0.34207 -0.33594,0.52539 -0.0247,0.0471 -0.059,0.0906 -0.082,0.13671 -0.0547,0.11357 -0.0864,0.23775 -0.12695,0.35743 -0.0406,0.11717 -0.0948,0.23022 -0.12305,0.34961 -0.0177,0.0985 -0.0177,0.20383 -0.0371,0.30468 -0.0177,0.13764 -0.0469,0.27423 -0.0469,0.41211 v 0.0488 c 0,0.11325 0.0174,0.22018 0.0351,0.33203 0.0176,0.12062 0.0184,0.23922 0.0449,0.35938 0.0282,0.13787 0.0789,0.26523 0.12305,0.39843 0.0335,0.0968 0.063,0.19478 0.10352,0.28907 0.0653,0.14273 0.14415,0.27684 0.22656,0.41015 0.0476,0.0776 0.0878,0.15408 0.14258,0.22852 0.12706,0.17474 0.27067,0.33727 0.42773,0.49023 0.0229,0.0189 0.0354,0.045 0.0566,0.0625 0.55183,0.51617 1.26739,0.88607 2.07617,1.05664 0.0388,0.008 0.0743,0.0293 0.11133,0.0293 0.10411,0.014 0.21286,0.0164 0.32227,0.0332 0.17295,0.0203 0.34854,0.0436 0.52148,0.0449 h 0.0274 13.78125 v 17 c 0,1.662 1.338,3 3,3 h 18 c 1.662,0 3,-1.338 3,-3 v -17 h 13.7832 0.0273 c 0.17294,-8.7e-4 0.34677,-0.0245 0.51953,-0.0449 0.10943,-0.0169 0.2178,-0.0188 0.32227,-0.0332 0.0371,1.3e-4 0.0726,-0.0217 0.11133,-0.0293 0.80877,-0.17057 1.52434,-0.54047 2.07617,-1.05664 0.0212,-0.0177 0.0336,-0.0436 0.0566,-0.0625 0.15706,-0.15293 0.30298,-0.31549 0.42969,-0.49023 0.0547,-0.0744 0.0949,-0.15096 0.14258,-0.22852 0.0829,-0.13331 0.1618,-0.2674 0.22656,-0.41015 0.0406,-0.0943 0.068,-0.19234 0.10156,-0.28907 0.0441,-0.13319 0.0968,-0.26052 0.125,-0.39843 0.0265,-0.12016 0.0307,-0.23883 0.043,-0.35938 0.0194,-0.11212 0.0352,-0.21872 0.0352,-0.33203 v -0.0488 c 0,-0.13789 -0.0272,-0.27463 -0.0449,-0.41211 -0.0194,-0.10087 -0.0194,-0.20611 -0.0371,-0.30468 -0.0282,-0.11937 -0.0824,-0.23248 -0.12304,-0.34961 -0.0406,-0.11968 -0.0723,-0.24381 -0.12696,-0.35743 -0.0229,-0.0459 -0.0573,-0.0896 -0.082,-0.13671 -0.0971,-0.18333 -0.20746,-0.35973 -0.33593,-0.52539 0,-9e-4 -1.4e-4,-0.0222 -0.0195,-0.0117 L 35.525465,1.596227 c -0.83736,-1.05942997 -2.17326,-1.61581997 -3.52539,-1.59569997318 z" />
  </g>
</svg>
