<?xml version="1.0" encoding="UTF-8" standalone="no"?>
<svg
   xmlns:dc="http://purl.org/dc/elements/1.1/"
   xmlns:cc="http://creativecommons.org/ns#"
   xmlns:rdf="http://www.w3.org/1999/02/22-rdf-syntax-ns#"
   xmlns:svg="http://www.w3.org/2000/svg"
   xmlns="http://www.w3.org/2000/svg"
   xmlns:sodipodi="http://sodipodi.sourceforge.net/DTD/sodipodi-0.dtd"
   xmlns:inkscape="http://www.inkscape.org/namespaces/inkscape"
   width="64"
   height="64"
   viewBox="0 0 16.933333 16.933334"
   version="1.1"
   id="svg841"
   inkscape:version="1.0.2 (e86c870879, 2021-01-15)"
   sodipodi:docname="mail-mark-important-symbolic.svg">
  <defs
     id="defs835" />
  <sodipodi:namedview
     id="base"
     pagecolor="#c4c4c4"
     bordercolor="#666666"
     borderopacity="1.0"
     inkscape:pageopacity="0"
     inkscape:pageshadow="2"
     inkscape:zoom="2.5543032"
     inkscape:cx="34.860458"
     inkscape:cy="82.819912"
     inkscape:document-units="px"
     inkscape:current-layer="layer1"
     inkscape:document-rotation="0"
     showgrid="false"
     units="px"
     inkscape:window-width="2048"
     inkscape:window-height="1080"
     inkscape:window-x="0"
     inkscape:window-y="0"
     inkscape:window-maximized="1" />
  <metadata
     id="metadata838">
    <rdf:RDF>
      <cc:Work
         rdf:about="">
        <dc:format>image/svg+xml</dc:format>
        <dc:type
           rdf:resource="http://purl.org/dc/dcmitype/StillImage" />
        <dc:title />
      </cc:Work>
    </rdf:RDF>
  </metadata>
  <g
     inkscape:label="Layer 1"
     inkscape:groupmode="layer"
     id="layer1">
    <rect
       style="display:inline;fill:#bc5b34;fill-opacity:1;stroke-width:1.19063;stroke-linecap:round;stroke-linejoin:round;stroke-dashoffset:2.1875;opacity:0.375"
       id="rect848"
       width="12.170834"
       height="12.170834"
       x="2.3812499"
       y="2.3812499"
       rx="1.3229167"
       ry="1.3229167"
       class="warning" />
    <path
       id="rect848-6-3-6"
       style="fill:#808084;stroke-width:1.19063;stroke-linecap:round;stroke-linejoin:round;stroke-dashoffset:2.1875"
       d="m 3.7041668,2.3812497 c -0.7328958,0 -1.3229167,0.590021 -1.3229167,1.322917 v 9.5250003 c 0,0.732896 0.5900209,1.322917 1.3229167,1.322917 h 9.5250002 c 0.732895,0 1.322916,-0.590021 1.322916,-1.322917 V 3.7041667 c 0,-0.732896 -0.590021,-1.322917 -1.322916,-1.322917 z m 0.5291667,1.190625 H 12.7 c 0.366448,0 0.661458,0.29501 0.661458,0.661458 V 12.7 c 0,0.366448 -0.29501,0.661459 -0.661458,0.661459 H 4.2333335 C 3.8668856,13.361459 3.5718751,13.066448 3.5718751,12.7 V 4.2333327 c 0,-0.366448 0.2950105,-0.661458 0.6614584,-0.661458 z" />
  </g>
</svg>
