<?xml version="1.0" encoding="UTF-8" standalone="no"?>
<svg
   xmlns:dc="http://purl.org/dc/elements/1.1/"
   xmlns:cc="http://creativecommons.org/ns#"
   xmlns:rdf="http://www.w3.org/1999/02/22-rdf-syntax-ns#"
   xmlns:svg="http://www.w3.org/2000/svg"
   xmlns="http://www.w3.org/2000/svg"
   xmlns:sodipodi="http://sodipodi.sourceforge.net/DTD/sodipodi-0.dtd"
   xmlns:inkscape="http://www.inkscape.org/namespaces/inkscape"
   width="64"
   height="64"
   viewBox="0 0 64 64.000003"
   version="1.1"
   id="svg8"
   inkscape:version="1.0.2 (e86c870879, 2021-01-15)"
   sodipodi:docname="object-rotate-left-symbolic.svg">
  <defs
     id="defs2" />
  <sodipodi:namedview
     id="base"
     pagecolor="#c3c3c3"
     bordercolor="#666666"
     borderopacity="1.0"
     inkscape:pageopacity="0"
     inkscape:pageshadow="2"
     inkscape:zoom="4.6759116"
     inkscape:cx="-15.866474"
     inkscape:cy="43.139236"
     inkscape:document-units="px"
     inkscape:current-layer="layer1"
     inkscape:document-rotation="0"
     showgrid="false"
     units="px"
     inkscape:window-width="2048"
     inkscape:window-height="1080"
     inkscape:window-x="0"
     inkscape:window-y="0"
     inkscape:window-maximized="1" />
  <metadata
     id="metadata5">
    <rdf:RDF>
      <cc:Work
         rdf:about="">
        <dc:format>image/svg+xml</dc:format>
        <dc:type
           rdf:resource="http://purl.org/dc/dcmitype/StillImage" />
        <dc:title />
      </cc:Work>
    </rdf:RDF>
  </metadata>
  <g
     inkscape:label="Layer 1"
     inkscape:groupmode="layer"
     id="layer1">
    <path
       id="rect1049-73-9-2-3-7-6"
       style="fill:#808084;fill-opacity:1;stroke:none;stroke-width:7.23626;stroke-linecap:square;stroke-linejoin:miter;stroke-miterlimit:4;stroke-dasharray:none;stroke-opacity:1"
       d="m 17.7264,3.0036606 c -0.2547,0.022 -0.5016,0.1413 -0.6796,0.3536 L 3.2343,19.816061 c -0.092,0.1074 -0.1598,0.2292 -0.1993,0.3592 -0.016,0.054 -0.028,0.1104 -0.035,0.1661 v 0.027 0.1 0.1 0.027 c 0.01,0.056 0.018,0.112 0.035,0.1661 0.039,0.13 0.1068,0.2519 0.1993,0.3593 l 13.8125,16.4588 c 0.3561,0.4244 0.9837,0.4792 1.4082,0.1231 l 5.1718,-4.3398 c 0.4245,-0.3561 0.4793,-0.9838 0.1231,-1.4082 l -5.9668,-7.1112 h 11.3926 2.3164 c 10.6833,0 19.25,8.5646 19.25,19.2478 v 4.3769 8.6288 c 0,0.554 0.446,1 1,1 h 6.75 c 0.554,0 1,-0.446 1,-1 v -9.9998 -3.0059 c 0,-15.4121 -12.5878,-27.9977 -28,-27.9977 H 29.1757 17.7831 l 5.9668,-7.1094004 c 0.3562,-0.4244 0.3014,-1.054 -0.1231,-1.41 l -5.1718,-4.3379 c -0.2122,-0.178 -0.4739,-0.2548 -0.7286,-0.2325 z" />
  </g>
</svg>
