<?xml version="1.0" encoding="UTF-8" standalone="no"?>
<svg
   xmlns:dc="http://purl.org/dc/elements/1.1/"
   xmlns:cc="http://creativecommons.org/ns#"
   xmlns:rdf="http://www.w3.org/1999/02/22-rdf-syntax-ns#"
   xmlns:svg="http://www.w3.org/2000/svg"
   xmlns="http://www.w3.org/2000/svg"
   xmlns:sodipodi="http://sodipodi.sourceforge.net/DTD/sodipodi-0.dtd"
   xmlns:inkscape="http://www.inkscape.org/namespaces/inkscape"
   width="64"
   height="64"
   viewBox="0 0 16.933333 16.933334"
   version="1.1"
   id="svg841"
   inkscape:version="1.0.2 (e86c870879, 2021-01-15)"
   sodipodi:docname="selection-symbolic.svg">
  <defs
     id="defs835" />
  <sodipodi:namedview
     id="base"
     pagecolor="#c4c4c4"
     bordercolor="#666666"
     borderopacity="1.0"
     inkscape:pageopacity="0"
     inkscape:pageshadow="2"
     inkscape:zoom="4.9556253"
     inkscape:cx="21.480664"
     inkscape:cy="46.630311"
     inkscape:document-units="px"
     inkscape:current-layer="layer1"
     inkscape:document-rotation="0"
     showgrid="false"
     units="px"
     inkscape:window-width="2048"
     inkscape:window-height="1080"
     inkscape:window-x="0"
     inkscape:window-y="0"
     inkscape:window-maximized="1" />
  <metadata
     id="metadata838">
    <rdf:RDF>
      <cc:Work
         rdf:about="">
        <dc:format>image/svg+xml</dc:format>
        <dc:type
           rdf:resource="http://purl.org/dc/dcmitype/StillImage" />
        <dc:title />
      </cc:Work>
    </rdf:RDF>
  </metadata>
  <g
     inkscape:label="Layer 1"
     inkscape:groupmode="layer"
     id="layer1">
    <path
       id="path846-9-0"
       style="display:inline;fill:#808084;fill-opacity:1;stroke-width:0;stroke-linecap:round;stroke-linejoin:round;stroke-dashoffset:2.1875"
       d="M 3.2116899,1.4806145e-5 A 1.0583334,1.0583334 0 0 0 2.1693769,1.0583482 1.0583334,1.0583334 0 0 0 3.2277099,2.1166815 1.0583334,1.0583334 0 0 0 4.2860429,1.0583482 1.0583334,1.0583334 0 0 0 3.2277099,1.4806145e-5 a 1.0583334,1.0583334 0 0 0 -0.01602,0 z m 3.492811,0 A 1.0583334,1.0583334 0 0 0 5.6621869,1.0583482 1.0583334,1.0583334 0 0 0 6.7205199,2.1166815 1.0583334,1.0583334 0 0 0 7.7788539,1.0583482 1.0583334,1.0583334 0 0 0 6.7205199,1.4806145e-5 a 1.0583334,1.0583334 0 0 0 -0.01602,0 z m 3.4922931,0 A 1.0583334,1.0583334 0 0 0 9.1544799,1.0583482 1.0583334,1.0583334 0 0 0 10.212813,2.1166815 1.0583334,1.0583334 0 0 0 11.271147,1.0583482 1.0583334,1.0583334 0 0 0 10.212813,1.4806145e-5 a 1.0583334,1.0583334 0 0 0 -0.01602,0 z m 3.492293,0 A 1.0583334,1.0583334 0 0 0 12.64729,1.0583482 1.0583334,1.0583334 0 0 0 13.705624,2.1166815 1.0583334,1.0583334 0 0 0 14.763957,1.0583482 1.0583334,1.0583334 0 0 0 13.705624,1.4806145e-5 a 1.0583334,1.0583334 0 0 0 -0.01602,0 z M 1.0583329,2.1693915 A 1.0583334,1.0583334 0 0 0 -1.4652756e-7,3.2277249 1.0583334,1.0583334 0 0 0 1.0583329,4.2860583 1.0583334,1.0583334 0 0 0 2.1166669,3.2277249 1.0583334,1.0583334 0 0 0 1.0583329,2.1693915 Z m 14.8166671,0 A 1.0583334,1.0583334 0 0 0 14.816667,3.2277249 1.0583334,1.0583334 0 0 0 15.875,4.2860583 1.0583334,1.0583334 0 0 0 16.933334,3.2277249 1.0583334,1.0583334 0 0 0 15.875,2.1693915 Z M 1.0423139,5.6622017 A 1.0583334,1.0583334 0 0 0 -1.4652756e-7,6.7205351 1.0583334,1.0583334 0 0 0 1.0583329,7.7788684 1.0583334,1.0583334 0 0 0 2.1166669,6.7205351 1.0583334,1.0583334 0 0 0 1.0583329,5.6622017 a 1.0583334,1.0583334 0 0 0 -0.01602,0 z m 14.8166671,0 A 1.0583334,1.0583334 0 0 0 14.816667,6.7205351 1.0583334,1.0583334 0 0 0 15.875,7.7788684 1.0583334,1.0583334 0 0 0 16.933334,6.7205351 1.0583334,1.0583334 0 0 0 15.875,5.6622017 a 1.0583334,1.0583334 0 0 0 -0.01602,0 z M 1.0423139,9.1544949 A 1.0583334,1.0583334 0 0 0 -1.4652756e-7,10.212828 1.0583334,1.0583334 0 0 0 1.0583329,11.271162 a 1.0583334,1.0583334 0 0 0 1.058334,-1.058334 1.0583334,1.0583334 0 0 0 -1.058334,-1.0583331 1.0583334,1.0583334 0 0 0 -0.01602,0 z m 14.8166671,0 A 1.0583334,1.0583334 0 0 0 14.816667,10.212828 1.0583334,1.0583334 0 0 0 15.875,11.271162 1.0583334,1.0583334 0 0 0 16.933334,10.212828 1.0583334,1.0583334 0 0 0 15.875,9.1544949 a 1.0583334,1.0583334 0 0 0 -0.01602,0 z M 1.0423139,12.647305 A 1.0583334,1.0583334 0 0 0 -1.4652756e-7,13.705638 1.0583334,1.0583334 0 0 0 1.0583329,14.763972 a 1.0583334,1.0583334 0 0 0 1.058334,-1.058334 1.0583334,1.0583334 0 0 0 -1.058334,-1.058333 1.0583334,1.0583334 0 0 0 -0.01602,0 z m 14.8166671,0 a 1.0583334,1.0583334 0 0 0 -1.042314,1.058333 1.0583334,1.0583334 0 0 0 1.058333,1.058334 1.0583334,1.0583334 0 0 0 1.058334,-1.058334 1.0583334,1.0583334 0 0 0 -1.058334,-1.058333 1.0583334,1.0583334 0 0 0 -0.01602,0 z M 3.2116899,14.816682 a 1.0583334,1.0583334 0 0 0 -1.042313,1.058333 1.0583334,1.0583334 0 0 0 1.058333,1.058334 1.0583334,1.0583334 0 0 0 1.058333,-1.058334 1.0583334,1.0583334 0 0 0 -1.058333,-1.058333 1.0583334,1.0583334 0 0 0 -0.01602,0 z m 3.492811,0 a 1.0583334,1.0583334 0 0 0 -1.042314,1.058333 1.0583334,1.0583334 0 0 0 1.058333,1.058334 1.0583334,1.0583334 0 0 0 1.058334,-1.058334 1.0583334,1.0583334 0 0 0 -1.058334,-1.058333 1.0583334,1.0583334 0 0 0 -0.01602,0 z m 3.4922931,0 a 1.0583334,1.0583334 0 0 0 -1.0423141,1.058333 1.0583334,1.0583334 0 0 0 1.0583331,1.058334 1.0583334,1.0583334 0 0 0 1.058334,-1.058334 1.0583334,1.0583334 0 0 0 -1.058334,-1.058333 1.0583334,1.0583334 0 0 0 -0.01602,0 z m 3.492293,0 a 1.0583334,1.0583334 0 0 0 -1.041797,1.058333 1.0583334,1.0583334 0 0 0 1.058334,1.058334 1.0583334,1.0583334 0 0 0 1.058333,-1.058334 1.0583334,1.0583334 0 0 0 -1.058333,-1.058333 1.0583334,1.0583334 0 0 0 -0.01602,0 z" />
  </g>
</svg>
