<?xml version="1.0" encoding="UTF-8" standalone="no"?>
<svg
   xmlns:dc="http://purl.org/dc/elements/1.1/"
   xmlns:cc="http://creativecommons.org/ns#"
   xmlns:rdf="http://www.w3.org/1999/02/22-rdf-syntax-ns#"
   xmlns:svg="http://www.w3.org/2000/svg"
   xmlns="http://www.w3.org/2000/svg"
   xmlns:sodipodi="http://sodipodi.sourceforge.net/DTD/sodipodi-0.dtd"
   xmlns:inkscape="http://www.inkscape.org/namespaces/inkscape"
   width="64"
   height="64"
   viewBox="0 0 16.933333 16.933334"
   version="1.1"
   id="svg841"
   inkscape:version="1.0.2 (e86c870879, 2021-01-15)"
   sodipodi:docname="swatches-symbolic.svg">
  <defs
     id="defs835" />
  <sodipodi:namedview
     id="base"
     pagecolor="#c4c4c4"
     bordercolor="#666666"
     borderopacity="1.0"
     inkscape:pageopacity="0"
     inkscape:pageshadow="2"
     inkscape:zoom="3.8251992"
     inkscape:cx="45.356095"
     inkscape:cy="56.697376"
     inkscape:document-units="px"
     inkscape:current-layer="layer1"
     inkscape:document-rotation="0"
     showgrid="false"
     units="px"
     inkscape:window-width="2048"
     inkscape:window-height="1080"
     inkscape:window-x="0"
     inkscape:window-y="0"
     inkscape:window-maximized="1" />
  <metadata
     id="metadata838">
    <rdf:RDF>
      <cc:Work
         rdf:about="">
        <dc:format>image/svg+xml</dc:format>
        <dc:type
           rdf:resource="http://purl.org/dc/dcmitype/StillImage" />
        <dc:title />
      </cc:Work>
    </rdf:RDF>
  </metadata>
  <g
     inkscape:label="Layer 1"
     inkscape:groupmode="layer"
     id="layer1">
    <rect
       style="display:inline;opacity:0.9;fill:#808084;fill-opacity:1;stroke-width:0;stroke-linecap:round;stroke-linejoin:round;stroke-dashoffset:2.1875"
       id="rect2685-1-1"
       width="7.4083333"
       height="7.4083333"
       x="1.1997346e-06"
       y="0"
       rx="0.92604166"
       ry="0.92604166" />
    <rect
       style="display:inline;opacity:0.45;fill:#808084;fill-opacity:1;stroke-width:0;stroke-linecap:round;stroke-linejoin:round;stroke-dashoffset:2.1875"
       id="rect2685-3-70"
       width="7.4083333"
       height="7.4083333"
       x="9.5249977"
       y="0"
       rx="0.92604166"
       ry="0.92604166" />
    <rect
       style="opacity:0.45;fill:#808084;fill-opacity:1;stroke:none;stroke-width:0;stroke-linecap:round;stroke-linejoin:round;stroke-dashoffset:2.1875"
       id="rect1068-9-1"
       width="3.7041667"
       height="3.7041667"
       x="1.8520833"
       y="11.377084"
       rx="0.26458335"
       ry="0.26458335" />
    <rect
       style="opacity:0.9;fill:#808084;fill-opacity:1;stroke:none;stroke-width:0;stroke-linecap:round;stroke-linejoin:round;stroke-dashoffset:2.1875"
       id="rect1068-5-2-2"
       width="3.7041667"
       height="3.7041667"
       x="11.377084"
       y="11.377084"
       rx="0.26458335"
       ry="0.26458335" />
    <path
       id="rect2685-1-1-9-1"
       style="display:inline;opacity:1;fill:#808084;fill-opacity:1;stroke-width:0;stroke-linecap:round;stroke-linejoin:round;stroke-dashoffset:2.1875"
       d="M 0.926041,9.5250001 C 0.413014,9.5250001 0,9.9380138 0,10.451041 v 5.556251 c 0,0.513027 0.413014,0.926041 0.926041,0.926041 h 5.556251 c 0.513027,0 0.926041,-0.413014 0.926041,-0.926041 v -5.556251 c 0,-0.5130272 -0.413014,-0.9260409 -0.926041,-0.9260409 z M 1.3890621,10.451041 H 6.019271 c 0.256513,0 0.463021,0.206508 0.463021,0.463021 v 4.630209 c 0,0.256513 -0.206508,0.463021 -0.463021,0.463021 H 1.389062 c -0.256513,0 -0.463021,-0.206508 -0.463021,-0.463021 v -4.630209 c 0,-0.256513 0.206508,-0.463021 0.4630211,-0.463021 z" />
    <path
       id="rect2685-1-1-9-1-9"
       style="display:inline;opacity:1;fill:#808084;fill-opacity:1;stroke-width:0;stroke-linecap:round;stroke-linejoin:round;stroke-dashoffset:2.1875"
       d="m 10.451041,9.5250001 c -0.5130269,0 -0.9260409,0.4130133 -0.9260409,0.9260409 v 5.556251 c 0,0.513027 0.413014,0.926041 0.9260409,0.926041 h 5.556251 c 0.513027,0 0.926041,-0.413014 0.926041,-0.926041 v -5.556251 c 0,-0.5130276 -0.413014,-0.9260409 -0.926041,-0.9260409 z m 0.463022,0.9260409 h 4.630208 c 0.256513,0 0.463021,0.206508 0.463021,0.463021 v 4.630209 c 0,0.256513 -0.206508,0.463021 -0.463021,0.463021 h -4.630209 c -0.256513,0 -0.463021,-0.206508 -0.463021,-0.463021 v -4.630209 c 0,-0.256513 0.206508,-0.463021 0.463022,-0.463021 z" />
  </g>
</svg>
