<?xml version="1.0" encoding="UTF-8" standalone="no"?>
<svg
   xmlns:dc="http://purl.org/dc/elements/1.1/"
   xmlns:cc="http://creativecommons.org/ns#"
   xmlns:rdf="http://www.w3.org/1999/02/22-rdf-syntax-ns#"
   xmlns:svg="http://www.w3.org/2000/svg"
   xmlns="http://www.w3.org/2000/svg"
   xmlns:sodipodi="http://sodipodi.sourceforge.net/DTD/sodipodi-0.dtd"
   xmlns:inkscape="http://www.inkscape.org/namespaces/inkscape"
   width="64"
   height="64"
   viewBox="0 0 16.933333 16.933334"
   version="1.1"
   id="svg841"
   inkscape:version="1.0.2 (e86c870879, 2021-01-15)"
   sodipodi:docname="system-run-symbolic.svg">
  <defs
     id="defs835" />
  <sodipodi:namedview
     id="base"
     pagecolor="#c4c4c4"
     bordercolor="#666666"
     borderopacity="1.0"
     inkscape:pageopacity="0"
     inkscape:pageshadow="2"
     inkscape:zoom="2.8903394"
     inkscape:cx="46.372831"
     inkscape:cy="36.927888"
     inkscape:document-units="px"
     inkscape:current-layer="layer1"
     inkscape:document-rotation="0"
     showgrid="false"
     units="px"
     inkscape:window-width="2048"
     inkscape:window-height="1080"
     inkscape:window-x="0"
     inkscape:window-y="0"
     inkscape:window-maximized="1" />
  <metadata
     id="metadata838">
    <rdf:RDF>
      <cc:Work
         rdf:about="">
        <dc:format>image/svg+xml</dc:format>
        <dc:type
           rdf:resource="http://purl.org/dc/dcmitype/StillImage" />
        <dc:title></dc:title>
      </cc:Work>
    </rdf:RDF>
  </metadata>
  <g
     inkscape:label="Layer 1"
     inkscape:groupmode="layer"
     id="layer1">
    <path
       id="rect1649-7-15-4"
       style="display:inline;fill:#808084;fill-opacity:1;stroke-width:0.264583;stroke-linecap:round;stroke-linejoin:round;stroke-dashoffset:2.1875;stroke-opacity:0.74902"
       d="M 1.7660434,13.326679 A 1.6933334,1.6933334 0 0 1 1.1343507,12.700014 1.6933334,1.6933334 0 0 1 1.7542695,10.387053 1.6933334,1.6933334 0 0 1 3.6756472,10.545221 L 6.7958521,8.7437517 A 1.6933334,1.6933334 0 0 1 6.7733625,8.4664419 1.6933334,1.6933334 0 0 1 6.7963813,8.1897671 L 3.6757531,6.3880604 A 1.6933334,1.6933334 0 0 1 1.7541107,6.5465987 1.6933334,1.6933334 0 0 1 1.1342713,4.2333201 1.6933334,1.6933334 0 0 1 3.4475499,3.6134807 1.6933334,1.6933334 0 0 1 4.2710656,5.3569527 L 7.3916938,7.1586329 A 1.6933334,1.6933334 0 0 1 7.8709071,6.8815612 V 3.2782007 A 1.6933334,1.6933334 0 0 1 6.7732567,1.6933201 1.6933334,1.6933334 0 0 1 8.4663519,-1.3250003e-5 1.6933334,1.6933334 0 0 1 10.159711,1.693082 1.6933334,1.6933334 0 0 1 9.0618494,3.2783859 v 3.6033606 a 1.6933334,1.6933334 0 0 1 0.479769,0.2769923 L 12.662511,5.3570585 a 1.6933334,1.6933334 0 0 1 0.823542,-1.7436836 1.6933334,1.6933334 0 0 1 2.312935,0.6199452 1.6933334,1.6933334 0 0 1 -0.619919,2.3129347 1.6933334,1.6933334 0 0 1 -1.921378,-0.1581679 l -3.120469,1.8019448 a 1.6933334,1.6933334 0 0 1 0.02275,0.27686 1.6933334,1.6933334 0 0 1 -0.02302,0.2766748 l 3.120628,1.8017075 a 1.6933334,1.6933334 0 0 1 1.921643,-0.158565 1.6933334,1.6933334 0 0 1 0.619839,2.313278 1.6933334,1.6933334 0 0 1 -2.313278,0.61984 1.6933334,1.6933334 0 0 1 -0.823516,-1.743446 L 9.5416404,9.7746747 a 1.6933334,1.6933334 0 0 1 -0.479663,0.2768073 l 1.85e-4,3.603625 A 1.6933334,1.6933334 0 0 1 10.159812,15.240014 1.6933334,1.6933334 0 0 1 8.4667174,16.933347 1.6933334,1.6933334 0 0 1 6.7733575,15.240252 1.6933334,1.6933334 0 0 1 7.8712196,13.654948 L 7.8710659,10.051323 A 1.6933334,1.6933334 0 0 1 7.3921965,9.7748597 L 4.2710391,11.576963 a 1.6933334,1.6933334 0 0 1 -0.8237273,1.74297 1.6933334,1.6933334 0 0 1 -1.6812419,0.0071 z" />
  </g>
</svg>
