<?xml version="1.0" encoding="UTF-8" standalone="no"?>
<svg
   xmlns:dc="http://purl.org/dc/elements/1.1/"
   xmlns:cc="http://creativecommons.org/ns#"
   xmlns:rdf="http://www.w3.org/1999/02/22-rdf-syntax-ns#"
   xmlns:svg="http://www.w3.org/2000/svg"
   xmlns="http://www.w3.org/2000/svg"
   xmlns:sodipodi="http://sodipodi.sourceforge.net/DTD/sodipodi-0.dtd"
   xmlns:inkscape="http://www.inkscape.org/namespaces/inkscape"
   width="64"
   height="64"
   viewBox="0 0 64 64.000003"
   version="1.1"
   id="svg1461"
   inkscape:version="1.0.2 (e86c870879, 2021-01-15)"
   sodipodi:docname="tool-pointer-symbolic.svg">
  <defs
     id="defs1455" />
  <sodipodi:namedview
     id="base"
     pagecolor="#c4c4c4"
     bordercolor="#666666"
     borderopacity="1.0"
     inkscape:pageopacity="0"
     inkscape:pageshadow="2"
     inkscape:zoom="4.2550345"
     inkscape:cx="79.113938"
     inkscape:cy="80.506687"
     inkscape:document-units="px"
     inkscape:current-layer="layer1"
     inkscape:document-rotation="0"
     showgrid="false"
     units="px"
     inkscape:window-width="2048"
     inkscape:window-height="1080"
     inkscape:window-x="0"
     inkscape:window-y="0"
     inkscape:window-maximized="1" />
  <metadata
     id="metadata1458">
    <rdf:RDF>
      <cc:Work
         rdf:about="">
        <dc:format>image/svg+xml</dc:format>
        <dc:type
           rdf:resource="http://purl.org/dc/dcmitype/StillImage" />
        <dc:title />
      </cc:Work>
    </rdf:RDF>
  </metadata>
  <g
     inkscape:label="Layer 1"
     inkscape:groupmode="layer"
     id="layer1">
    <path
       id="rect852-7-3"
       style="fill:#808084;stroke-width:2.99997;stroke-linecap:round;stroke-linejoin:round;stroke-dashoffset:2.1875;fill-opacity:1"
       d="M 9.6982239,5.7798874 A 1.6014762,1.4046068 49.999743 0 0 9.2795821,7.1739679 L 17.356673,41.873522 a 1.6014762,1.4046068 49.999743 0 0 2.476315,1.058152 l 9.272126,-7.767437 19.293669,22.993144 c 0.356104,0.424387 0.984446,0.479357 1.408832,0.123259 l 4.596266,-3.856704 c 0.424386,-0.356097 0.479362,-0.984433 0.123257,-1.40882 L 35.23723,30.026452 44.50786,22.260285 A 1.6014762,1.4046068 49.999743 0 0 43.898536,19.638093 L 11.14358,5.6124385 A 1.6014762,1.4046068 49.999743 0 0 9.6982239,5.7798874 Z" />
  </g>
</svg>
