<?xml version="1.0" encoding="UTF-8" standalone="no"?>
<svg
   xmlns:dc="http://purl.org/dc/elements/1.1/"
   xmlns:cc="http://creativecommons.org/ns#"
   xmlns:rdf="http://www.w3.org/1999/02/22-rdf-syntax-ns#"
   xmlns:svg="http://www.w3.org/2000/svg"
   xmlns="http://www.w3.org/2000/svg"
   xmlns:sodipodi="http://sodipodi.sourceforge.net/DTD/sodipodi-0.dtd"
   xmlns:inkscape="http://www.inkscape.org/namespaces/inkscape"
   width="64"
   height="64"
   viewBox="0 0 64 64.000003"
   version="1.1"
   id="svg1461"
   inkscape:version="1.0.2 (e86c870879, 2021-01-15)"
   sodipodi:docname="xml-element-symbolic.svg">
  <defs
     id="defs1455" />
  <sodipodi:namedview
     id="base"
     pagecolor="#c4c4c4"
     bordercolor="#666666"
     borderopacity="1.0"
     inkscape:pageopacity="0"
     inkscape:pageshadow="2"
     inkscape:zoom="4.636981"
     inkscape:cx="33.496514"
     inkscape:cy="15.345337"
     inkscape:document-units="px"
     inkscape:current-layer="layer1"
     inkscape:document-rotation="0"
     showgrid="false"
     units="px"
     inkscape:window-width="2048"
     inkscape:window-height="1080"
     inkscape:window-x="0"
     inkscape:window-y="0"
     inkscape:window-maximized="1" />
  <metadata
     id="metadata1458">
    <rdf:RDF>
      <cc:Work
         rdf:about="">
        <dc:format>image/svg+xml</dc:format>
        <dc:type
           rdf:resource="http://purl.org/dc/dcmitype/StillImage" />
        <dc:title />
      </cc:Work>
    </rdf:RDF>
  </metadata>
  <g
     inkscape:label="Layer 1"
     inkscape:groupmode="layer"
     id="layer1">
    <path
       id="rect2657"
       style="fill:#808084;stroke:none;stroke-width:0;stroke-linecap:round;stroke-linejoin:round;stroke-dashoffset:2.1875;fill-opacity:1"
       d="m 8,1.0000004 c -3.878,0 -7,3.122 -7,7 V 56 c 0,3.878 3.122,7 7,7 h 48 c 3.878,0 7,-3.122 7,-7 V 8.0000004 c 0,-3.878 -3.122,-7 -7,-7 z m 0,3.5 h 48 c 1.939,0 3.5,1.561 3.5,3.5 V 56 c 0,1.939 -1.561,3.5 -3.5,3.5 H 8 C 6.061001,59.5 4.5,57.939 4.5,56 V 8.0000004 c 0,-1.939 1.561001,-3.5 3.5,-3.5 z" />
    <path
       id="rect4316-5-6"
       style="fill:#808084;stroke-width:3.75;stroke-linecap:round;stroke-linejoin:round;stroke-dashoffset:2.1875;fill-opacity:1"
       d="m 18.66665,12 v 7.5 8.75 7.5 V 52 h 7.5 19.1667 v -7.5 h -19.1667 v -8.75 h 16.6667 v -7.5 H 26.16665 V 19.5 h 19.1667 V 12 h -19.1667 z" />
  </g>
</svg>
