<?xml version="1.0" encoding="UTF-8" standalone="no"?>
<svg
   xmlns:dc="http://purl.org/dc/elements/1.1/"
   xmlns:cc="http://creativecommons.org/ns#"
   xmlns:rdf="http://www.w3.org/1999/02/22-rdf-syntax-ns#"
   xmlns:svg="http://www.w3.org/2000/svg"
   xmlns="http://www.w3.org/2000/svg"
   xmlns:xlink="http://www.w3.org/1999/xlink"
   xmlns:sodipodi="http://sodipodi.sourceforge.net/DTD/sodipodi-0.dtd"
   xmlns:inkscape="http://www.inkscape.org/namespaces/inkscape"
   width="64"
   height="64"
   viewBox="0 0 16.933333 16.933334"
   version="1.1"
   id="svg841"
   inkscape:version="1.0.2 (e86c870879, 2021-01-15)"
   sodipodi:docname="application-x-firmware.svg">
  <defs
     id="defs835">
    <linearGradient
       inkscape:collect="always"
       xlink:href="#linearGradient870-8"
       id="linearGradient955-4"
       x1="8.4666672"
       y1="0.52916712"
       x2="8.4666672"
       y2="16.404167"
       gradientUnits="userSpaceOnUse"
       gradientTransform="translate(0.2645833,0.2645833)" />
    <linearGradient
       inkscape:collect="always"
       id="linearGradient870-8">
      <stop
         style="stop-color:#50b473;stop-opacity:1"
         offset="0"
         id="stop866-1" />
      <stop
         style="stop-color:#48a76d;stop-opacity:1"
         offset="1"
         id="stop868-0" />
    </linearGradient>
  </defs>
  <sodipodi:namedview
     id="base"
     pagecolor="#c4c4c4"
     bordercolor="#666666"
     borderopacity="1.0"
     inkscape:pageopacity="0"
     inkscape:pageshadow="2"
     inkscape:zoom="8.2807758"
     inkscape:cx="31.263709"
     inkscape:cy="37.908186"
     inkscape:document-units="px"
     inkscape:current-layer="layer1"
     inkscape:document-rotation="0"
     showgrid="false"
     units="px"
     inkscape:window-width="2048"
     inkscape:window-height="1080"
     inkscape:window-x="0"
     inkscape:window-y="0"
     inkscape:window-maximized="1" />
  <metadata
     id="metadata838">
    <rdf:RDF>
      <cc:Work
         rdf:about="">
        <dc:format>image/svg+xml</dc:format>
        <dc:type
           rdf:resource="http://purl.org/dc/dcmitype/StillImage" />
        <dc:title />
      </cc:Work>
    </rdf:RDF>
  </metadata>
  <g
     inkscape:label="Layer 1"
     inkscape:groupmode="layer"
     id="layer1">
    <path
       id="rect947-7-3-5-3"
       style="color:#000000;font-style:normal;font-variant:normal;font-weight:normal;font-stretch:normal;font-size:medium;line-height:normal;font-family:sans-serif;font-variant-ligatures:normal;font-variant-position:normal;font-variant-caps:normal;font-variant-numeric:normal;font-variant-alternates:normal;font-variant-east-asian:normal;font-feature-settings:normal;font-variation-settings:normal;text-indent:0;text-align:start;text-decoration:none;text-decoration-line:none;text-decoration-style:solid;text-decoration-color:#000000;letter-spacing:normal;word-spacing:normal;text-transform:none;writing-mode:lr-tb;direction:ltr;text-orientation:mixed;dominant-baseline:auto;baseline-shift:baseline;text-anchor:start;white-space:normal;shape-padding:0;shape-margin:0;inline-size:0;clip-rule:nonzero;display:inline;overflow:visible;visibility:visible;opacity:0.15;isolation:auto;mix-blend-mode:normal;color-interpolation:sRGB;color-interpolation-filters:linearRGB;solid-color:#000000;solid-opacity:1;vector-effect:none;fill:#0c0c0c;fill-opacity:1;fill-rule:nonzero;stroke:none;stroke-width:0.999937;stroke-linecap:round;stroke-linejoin:round;stroke-miterlimit:4;stroke-dasharray:none;stroke-dashoffset:2.1875;stroke-opacity:1;color-rendering:auto;image-rendering:auto;shape-rendering:auto;text-rendering:auto;enable-background:accumulate;stop-color:#000000"
       d="m 2.1175928,0.6614584 c -0.9458326,0 -1.7207178,0.7748746 -1.7207178,1.7207151 V 15.080843 c 0,0.945841 0.7748852,1.7202 1.7207178,1.7202 H 14.815741 c 0.945833,0 1.720718,-0.774359 1.720718,-1.7202 V 2.3821735 c 0,-0.9458405 -0.774885,-1.7207151 -1.720718,-1.7207151 z m 0,0.7952475 H 14.815741 c 0.519853,0 0.925989,0.4056089 0.925989,0.9254676 V 15.080843 c 0,0.519856 -0.406136,0.925469 -0.925989,0.925469 H 2.1175928 c -0.5198534,0 -0.9259888,-0.405613 -0.9259888,-0.925469 V 2.3821735 c 0,-0.5198587 0.4061354,-0.9254676 0.9259888,-0.9254676 z" />
    <path
       id="rect947-7-3-0"
       style="color:#000000;font-style:normal;font-variant:normal;font-weight:normal;font-stretch:normal;font-size:medium;line-height:normal;font-family:sans-serif;font-variant-ligatures:normal;font-variant-position:normal;font-variant-caps:normal;font-variant-numeric:normal;font-variant-alternates:normal;font-variant-east-asian:normal;font-feature-settings:normal;font-variation-settings:normal;text-indent:0;text-align:start;text-decoration:none;text-decoration-line:none;text-decoration-style:solid;text-decoration-color:#000000;letter-spacing:normal;word-spacing:normal;text-transform:none;writing-mode:lr-tb;direction:ltr;text-orientation:mixed;dominant-baseline:auto;baseline-shift:baseline;text-anchor:start;white-space:normal;shape-padding:0;shape-margin:0;inline-size:0;clip-rule:nonzero;display:inline;overflow:visible;visibility:visible;opacity:0.85;isolation:auto;mix-blend-mode:normal;color-interpolation:sRGB;color-interpolation-filters:linearRGB;solid-color:#000000;solid-opacity:1;vector-effect:none;fill:#317248;fill-opacity:1;fill-rule:nonzero;stroke:none;stroke-width:0.999937;stroke-linecap:round;stroke-linejoin:round;stroke-miterlimit:4;stroke-dasharray:none;stroke-dashoffset:2.1875;stroke-opacity:1;color-rendering:auto;image-rendering:auto;shape-rendering:auto;text-rendering:auto;enable-background:accumulate;stop-color:#000000"
       d="m 2.1175928,0.396875 c -0.9458326,0 -1.7207178,0.7748747 -1.7207178,1.7207151 V 14.816263 c 0,0.945838 0.7748852,1.720197 1.7207178,1.720197 H 14.815741 c 0.945833,0 1.720718,-0.774359 1.720718,-1.720197 V 2.1175901 c 0,-0.9458404 -0.774885,-1.7207151 -1.720718,-1.7207151 z m 0,0.7952502 H 14.815741 c 0.519853,0 0.925989,0.4056063 0.925989,0.9254649 V 14.816263 c 0,0.519857 -0.406136,0.925465 -0.925989,0.925465 H 2.1175928 c -0.5198534,0 -0.9259888,-0.405608 -0.9259888,-0.925465 V 2.1175901 c 0,-0.5198586 0.4061354,-0.9254649 0.9259888,-0.9254649 z" />
    <rect
       style="fill:url(#linearGradient955-4);fill-opacity:1;stroke-width:1.32292;stroke-linecap:round;stroke-linejoin:round;stroke-dashoffset:2.1875"
       id="rect947-4"
       width="15.345834"
       height="15.345834"
       x="0.79376608"
       y="0.79374987"
       rx="1.3229167"
       ry="1.3229167" />
    <path
       id="rect947-7-3-6-5-4"
       style="color:#000000;font-style:normal;font-variant:normal;font-weight:normal;font-stretch:normal;font-size:medium;line-height:normal;font-family:sans-serif;font-variant-ligatures:normal;font-variant-position:normal;font-variant-caps:normal;font-variant-numeric:normal;font-variant-alternates:normal;font-variant-east-asian:normal;font-feature-settings:normal;font-variation-settings:normal;text-indent:0;text-align:start;text-decoration:none;text-decoration-line:none;text-decoration-style:solid;text-decoration-color:#000000;letter-spacing:normal;word-spacing:normal;text-transform:none;writing-mode:lr-tb;direction:ltr;text-orientation:mixed;dominant-baseline:auto;baseline-shift:baseline;text-anchor:start;white-space:normal;shape-padding:0;shape-margin:0;inline-size:0;clip-rule:nonzero;display:inline;overflow:visible;visibility:visible;opacity:0.15;isolation:auto;mix-blend-mode:normal;color-interpolation:sRGB;color-interpolation-filters:linearRGB;solid-color:#000000;solid-opacity:1;vector-effect:none;fill:#255636;fill-opacity:1;fill-rule:nonzero;stroke:none;stroke-width:0.999937;stroke-linecap:round;stroke-linejoin:round;stroke-miterlimit:4;stroke-dasharray:none;stroke-dashoffset:2.1875;stroke-opacity:1;color-rendering:auto;image-rendering:auto;shape-rendering:auto;text-rendering:auto;enable-background:accumulate;stop-color:#000000"
       d="m 2.1175928,0.396875 c -0.9458326,0 -1.7207178,0.7748747 -1.7207178,1.7207151 V 14.816263 c 0,0.945838 0.7748852,1.720197 1.7207178,1.720197 H 14.815741 c 0.945833,0 1.720718,-0.774359 1.720718,-1.720197 V 2.1175901 c 0,-0.9458404 -0.774885,-1.7207151 -1.720718,-1.7207151 z m 0,0.7952502 H 14.815741 c 0.519853,0 0.925989,0.4056063 0.925989,0.9254649 V 14.816263 c 0,0.519857 -0.406136,0.925465 -0.925989,0.925465 H 2.1175928 c -0.5198534,0 -0.9259888,-0.405608 -0.9259888,-0.925465 V 2.1175901 c 0,-0.5198586 0.4061354,-0.9254649 0.9259888,-0.9254649 z" />
    <rect
       style="opacity:0.35;fill:#255636;fill-opacity:1;stroke-width:1.32292;stroke-linecap:round;stroke-linejoin:round;stroke-dashoffset:2.1875"
       id="rect986-1-2-6-0-1-7-4"
       width="1.5875002"
       height="0.92604166"
       x="12.435432"
       y="7.2760415"
       rx="0.13229167"
       ry="0.13229167" />
    <rect
       style="fill:#eeeef2;fill-opacity:1;stroke-width:1.32292;stroke-linecap:round;stroke-linejoin:round;stroke-dashoffset:2.1875"
       id="rect986-1-2-6-0-1-4"
       width="1.5875002"
       height="0.92604166"
       x="12.435432"
       y="7.0114579"
       rx="0.13229167"
       ry="0.13229167" />
    <rect
       style="opacity:0.35;fill:#255636;fill-opacity:1;stroke-width:1.32292;stroke-linecap:round;stroke-linejoin:round;stroke-dashoffset:2.1875"
       id="rect986-0-3-2-2-2-9-7"
       width="1.5875002"
       height="0.92604166"
       x="12.435432"
       y="9.260417"
       rx="0.13229167"
       ry="0.13229167" />
    <rect
       style="fill:#eeeef2;fill-opacity:1;stroke-width:1.32292;stroke-linecap:round;stroke-linejoin:round;stroke-dashoffset:2.1875"
       id="rect986-0-3-2-2-2-6"
       width="1.5875002"
       height="0.92604166"
       x="12.435432"
       y="8.9958344"
       rx="0.13229167"
       ry="0.13229167" />
    <rect
       style="opacity:0.35;fill:#255636;fill-opacity:1;stroke-width:1.32292;stroke-linecap:round;stroke-linejoin:round;stroke-dashoffset:2.1875"
       id="rect986-1-2-6-0-3-7-2-3"
       width="1.5875002"
       height="0.92604166"
       x="12.435432"
       y="11.244788"
       rx="0.13229167"
       ry="0.13229167" />
    <rect
       style="fill:#eeeef2;fill-opacity:1;stroke-width:1.32292;stroke-linecap:round;stroke-linejoin:round;stroke-dashoffset:2.1875"
       id="rect986-1-2-6-0-3-7-1"
       width="1.5875002"
       height="0.92604166"
       x="12.435432"
       y="10.980205"
       rx="0.13229167"
       ry="0.13229167" />
    <rect
       style="opacity:0.35;fill:#255636;fill-opacity:1;stroke-width:1.32292;stroke-linecap:round;stroke-linejoin:round;stroke-dashoffset:2.1875"
       id="rect986-0-3-2-7-0-0-7"
       width="1.5875002"
       height="0.92604166"
       x="2.9104331"
       y="5.2916665"
       rx="0.13229167"
       ry="0.13229167" />
    <rect
       style="fill:#eeeef2;fill-opacity:1;stroke-width:1.32292;stroke-linecap:round;stroke-linejoin:round;stroke-dashoffset:2.1875"
       id="rect986-0-3-2-7-0-5"
       width="1.5875002"
       height="0.92604166"
       x="2.9104331"
       y="5.0270829"
       rx="0.13229167"
       ry="0.13229167" />
    <rect
       style="opacity:0.35;fill:#255636;fill-opacity:1;stroke-width:1.32292;stroke-linecap:round;stroke-linejoin:round;stroke-dashoffset:2.1875"
       id="rect986-1-2-6-0-5-9-2-9"
       width="1.5875002"
       height="0.92604166"
       x="2.9104331"
       y="7.2760415"
       rx="0.13229167"
       ry="0.13229167" />
    <rect
       style="fill:#eeeef2;fill-opacity:1;stroke-width:1.32292;stroke-linecap:round;stroke-linejoin:round;stroke-dashoffset:2.1875"
       id="rect986-1-2-6-0-5-9-6"
       width="1.5875002"
       height="0.92604166"
       x="2.9104331"
       y="7.0114579"
       rx="0.13229167"
       ry="0.13229167" />
    <rect
       style="opacity:0.35;fill:#255636;fill-opacity:1;stroke-width:1.32292;stroke-linecap:round;stroke-linejoin:round;stroke-dashoffset:2.1875"
       id="rect986-0-3-2-2-9-3-3-2"
       width="1.5875002"
       height="0.92604166"
       x="2.9104331"
       y="9.260417"
       rx="0.13229167"
       ry="0.13229167" />
    <rect
       style="fill:#eeeef2;fill-opacity:1;stroke-width:1.32292;stroke-linecap:round;stroke-linejoin:round;stroke-dashoffset:2.1875"
       id="rect986-0-3-2-2-9-3-1"
       width="1.5875002"
       height="0.92604166"
       x="2.9104331"
       y="8.9958344"
       rx="0.13229167"
       ry="0.13229167" />
    <rect
       style="opacity:0.35;fill:#255636;fill-opacity:1;stroke-width:1.32292;stroke-linecap:round;stroke-linejoin:round;stroke-dashoffset:2.1875"
       id="rect986-1-2-6-0-3-2-6-7-7"
       width="1.5875002"
       height="0.92604166"
       x="2.9104331"
       y="11.244788"
       rx="0.13229167"
       ry="0.13229167" />
    <rect
       style="fill:#eeeef2;fill-opacity:1;stroke-width:1.32292;stroke-linecap:round;stroke-linejoin:round;stroke-dashoffset:2.1875"
       id="rect986-1-2-6-0-3-2-6-8"
       width="1.5875002"
       height="0.92604166"
       x="2.9104331"
       y="10.980205"
       rx="0.13229167"
       ry="0.13229167" />
    <rect
       style="opacity:0.35;fill:#255636;fill-opacity:1;stroke-width:1.32292;stroke-linecap:round;stroke-linejoin:round;stroke-dashoffset:2.1875"
       id="rect986-0-3-2-29-8-5"
       width="1.5875002"
       height="0.92604166"
       x="12.435432"
       y="5.2916665"
       rx="0.13229167"
       ry="0.13229167" />
    <rect
       style="fill:#eeeef2;fill-opacity:1;stroke-width:1.32292;stroke-linecap:round;stroke-linejoin:round;stroke-dashoffset:2.1875"
       id="rect986-0-3-2-29-7"
       width="1.5875002"
       height="0.92604166"
       x="12.435432"
       y="5.0270829"
       rx="0.13229167"
       ry="0.13229167" />
    <rect
       style="fill:#464146;fill-opacity:1;stroke:none;stroke-width:0.79375;stroke-linecap:round;stroke-linejoin:round;stroke-miterlimit:4;stroke-dasharray:none;stroke-dashoffset:2.1875;stroke-opacity:1"
       id="rect1063-4"
       width="8.4666672"
       height="11.1125"
       x="4.2333498"
       y="2.9104161"
       rx="0.79375011"
       ry="0.79375011" />
    <path
       id="rect1063-8-3-1-1"
       style="opacity:0.175;fill:#0c0c0c;fill-opacity:1;stroke:none;stroke-width:0.79375;stroke-linecap:round;stroke-linejoin:round;stroke-miterlimit:4;stroke-dasharray:none;stroke-dashoffset:2.1875;stroke-opacity:1"
       d="m 5.0270835,2.9104167 c -0.4397376,0 -0.7937501,0.3540125 -0.7937501,0.7937501 v 9.5250002 c 0,0.439735 0.3540125,0.793751 0.7937501,0.793751 H 11.90625 c 0.439738,0 0.79375,-0.354016 0.79375,-0.793751 V 3.7041668 c 0,-0.4397376 -0.354012,-0.7937501 -0.79375,-0.7937501 z m 0,0.2645834 H 11.90625 c 0.293159,0 0.529167,0.2360083 0.529167,0.5291667 v 9.5250002 c 0,0.293159 -0.236008,0.529168 -0.529167,0.529168 H 5.0270835 c -0.2931584,0 -0.5291667,-0.236009 -0.5291667,-0.529168 V 3.7041668 c 0,-0.2931584 0.2360083,-0.5291667 0.5291667,-0.5291667 z" />
    <path
       id="rect1353-9-1-8"
       style="opacity:0.375;fill:#eeeef2;fill-opacity:1;stroke:none;stroke-width:0.529167;stroke-linecap:round;stroke-linejoin:round;stroke-miterlimit:4;stroke-dasharray:none;stroke-dashoffset:2.1875;stroke-opacity:1"
       d="m 5.0270835,3.1750001 c -0.2931584,0 -0.5291667,0.2360083 -0.5291667,0.5291667 v 9.5250002 c 0,0.293159 0.2360083,0.529168 0.5291667,0.529168 H 11.90625 c 0.293159,0 0.529167,-0.236009 0.529167,-0.529168 V 3.7041668 c 0,-0.2931584 -0.236008,-0.5291667 -0.529167,-0.5291667 z m 0,0.2645833 H 11.90625 c 0.146579,0 0.264584,0.1180042 0.264584,0.2645834 v 9.5250002 c 0,0.146581 -0.118005,0.264584 -0.264584,0.264584 H 5.0270835 c -0.1465792,0 -0.2645834,-0.118003 -0.2645834,-0.264584 V 3.7041668 c 0,-0.1465792 0.1180042,-0.2645834 0.2645834,-0.2645834 z" />
  </g>
</svg>
