<?xml version="1.0" encoding="UTF-8" standalone="no"?>
<svg
   xmlns:dc="http://purl.org/dc/elements/1.1/"
   xmlns:cc="http://creativecommons.org/ns#"
   xmlns:rdf="http://www.w3.org/1999/02/22-rdf-syntax-ns#"
   xmlns:svg="http://www.w3.org/2000/svg"
   xmlns="http://www.w3.org/2000/svg"
   xmlns:xlink="http://www.w3.org/1999/xlink"
   xmlns:sodipodi="http://sodipodi.sourceforge.net/DTD/sodipodi-0.dtd"
   xmlns:inkscape="http://www.inkscape.org/namespaces/inkscape"
   width="64"
   height="64"
   viewBox="0 0 64 64"
   version="1.1"
   id="svg6374"
   inkscape:version="1.0.2 (e86c870879, 2021-01-15)"
   sodipodi:docname="text-x-go.svg">
  <defs
     id="defs6368">
    <linearGradient
       inkscape:collect="always"
       xlink:href="#linearGradient997"
       id="linearGradient2519"
       gradientUnits="userSpaceOnUse"
       gradientTransform="translate(-302.70322,-103.41542)"
       x1="334.70322"
       y1="107.41542"
       x2="334.70322"
       y2="163.41542" />
    <linearGradient
       inkscape:collect="always"
       id="linearGradient997">
      <stop
         style="stop-color:#58b7b7;stop-opacity:1;"
         offset="0"
         id="stop993" />
      <stop
         style="stop-color:#4aabab;stop-opacity:1"
         offset="1"
         id="stop995" />
    </linearGradient>
  </defs>
  <sodipodi:namedview
     id="base"
     pagecolor="#cecece"
     bordercolor="#666666"
     borderopacity="1.0"
     inkscape:pageopacity="0"
     inkscape:pageshadow="2"
     inkscape:zoom="1.5340798"
     inkscape:cx="32.673374"
     inkscape:cy="72.435551"
     inkscape:document-units="px"
     inkscape:current-layer="layer1"
     inkscape:document-rotation="0"
     showgrid="false"
     units="px"
     inkscape:window-width="1024"
     inkscape:window-height="1080"
     inkscape:window-x="68"
     inkscape:window-y="56"
     inkscape:window-maximized="0" />
  <metadata
     id="metadata6371">
    <rdf:RDF>
      <cc:Work
         rdf:about="">
        <dc:format>image/svg+xml</dc:format>
        <dc:type
           rdf:resource="http://purl.org/dc/dcmitype/StillImage" />
        <dc:title></dc:title>
      </cc:Work>
    </rdf:RDF>
  </metadata>
  <g
     inkscape:label="Layer 1"
     inkscape:groupmode="layer"
     id="layer1">
    <rect
       style="opacity:0.45;fill:#0c0c0c;fill-opacity:1;stroke-width:0.495;stroke-linecap:round;stroke-linejoin:round;stroke-miterlimit:4;stroke-dasharray:none;stroke-dashoffset:2.1875"
       id="rect954-6-3-2-2-6-4-06"
       width="44"
       height="56"
       x="10.000001"
       y="5.4999695"
       rx="3"
       ry="3" />
    <path
       id="rect954-60-6-7-3-1-91-8"
       style="color:#000000;font-style:normal;font-variant:normal;font-weight:normal;font-stretch:normal;font-size:medium;line-height:normal;font-family:sans-serif;font-variant-ligatures:normal;font-variant-position:normal;font-variant-caps:normal;font-variant-numeric:normal;font-variant-alternates:normal;font-variant-east-asian:normal;font-feature-settings:normal;font-variation-settings:normal;text-indent:0;text-align:start;text-decoration:none;text-decoration-line:none;text-decoration-style:solid;text-decoration-color:#000000;letter-spacing:normal;word-spacing:normal;text-transform:none;writing-mode:lr-tb;direction:ltr;text-orientation:mixed;dominant-baseline:auto;baseline-shift:baseline;text-anchor:start;white-space:normal;shape-padding:0;shape-margin:0;inline-size:0;clip-rule:nonzero;display:inline;overflow:visible;visibility:visible;isolation:auto;mix-blend-mode:normal;color-interpolation:sRGB;color-interpolation-filters:linearRGB;solid-color:#000000;solid-opacity:1;vector-effect:none;fill:#489292;fill-opacity:1;fill-rule:nonzero;stroke:none;stroke-linecap:round;stroke-linejoin:round;stroke-miterlimit:4;stroke-dasharray:none;stroke-dashoffset:2.1875;stroke-opacity:1;color-rendering:auto;image-rendering:auto;shape-rendering:auto;text-rendering:auto;enable-background:accumulate;stop-color:#000000"
       d="M 13,3.5 C 11.0696,3.5 9.5,5.06965 9.5,7 v 50 c 0,1.93035 1.5696,3.5 3.5,3.5 h 38 c 1.9304,0 3.5,-1.56965 3.5,-3.5 V 7 C 54.5,5.06965 52.9304,3.5 51,3.5 Z m 0,1 h 38 c 1.3936,0 2.5,1.10635 2.5,2.5 v 50 c 0,1.39365 -1.1064,2.5 -2.5,2.5 H 13 c -1.3936,0 -2.5,-1.10635 -2.5,-2.5 V 7 c 0,-1.39365 1.1064,-2.5 2.5,-2.5 z" />
    <rect
       style="fill:url(#linearGradient2519);fill-opacity:1;stroke-width:0.495;stroke-linecap:round;stroke-linejoin:round;stroke-miterlimit:4;stroke-dasharray:none;stroke-dashoffset:2.1875"
       id="rect954-7-0-7-3-0-4-4-9-3"
       width="44"
       height="56"
       x="10.000001"
       y="4"
       rx="3"
       ry="3" />
    <path
       id="Shape-8-4-8-1"
       style="opacity:0.25;fill:#0c0c0c;fill-opacity:1;fill-rule:nonzero;stroke:none;stroke-width:0.166837"
       d="m 25.50792,27.75194 c -0.47059,0.0105 -0.94804,0.0624 -1.4305,0.15105 -2.36102,0.43786 -4.29098,1.66798 -5.74864,3.60715 -1.35502,1.7932 -2.01195,3.83688 -1.74506,6.10967 0.22584,1.91829 1.08818,3.46102 2.60743,4.62869 1.64244,1.25107 3.51065,1.64745 5.52264,1.37637 2.44313,-0.33361 4.37304,-1.56371 5.85123,-3.54459 0.33574,-0.44946 0.62296,-0.92201 0.86335,-1.41548 0.34579,1.27051 1.04057,2.36252 2.05187,3.25034 1.43713,1.25107 3.1414,1.79316 5.00966,1.83486 0.5338,-0.0626 1.08815,-0.0834 1.64248,-0.18769 1.90934,-0.39617 3.57189,-1.27216 4.92691,-2.66919 1.90934,-1.96001 2.71012,-4.25326 2.36111,-7.06816 -0.26689,-2.0017 -1.27298,-3.52423 -2.89489,-4.6502 -1.78616,-1.23021 -3.75664,-1.4384 -5.85074,-1.06308 -2.44313,0.43788 -4.24991,1.48032 -5.74863,3.48203 -0.64205,0.85344 -1.12118,1.75622 -1.41792,2.71074 h -6.60957 c -0.30796,0 -0.45183,0.20824 -0.51344,0.33335 -0.28743,0.54214 -0.77986,1.62641 -1.04675,2.2728 -0.14371,0.35447 -0.0411,0.62563 0.39004,0.62563 h 3.96244 c -0.2053,0.29192 -0.36981,0.54241 -0.55458,0.77177 -0.92388,1.06341 -2.09406,1.56356 -3.49012,1.3759 -1.62191,-0.22936 -2.75098,-1.60571 -2.77149,-3.2738 -0.0204,-1.68894 0.69791,-3.04407 2.09398,-3.96152 1.17023,-0.7715 2.42269,-0.9592 3.71612,-0.31281 0.43114,0.20851 0.657,0.43783 0.96496,0.7923 0.26691,0.31276 0.28728,0.29212 0.59525,0.20871 1.27289,-0.33362 2.15556,-0.58382 3.44898,-0.91744 0.24633,-0.0626 0.32884,-0.16669 0.20567,-0.35435 -0.51328,-1.20937 -1.2938,-2.21018 -2.38192,-2.93998 -1.24722,-0.86011 -2.59808,-1.20434 -4.00987,-1.17307 z m 14.34329,4.01577 c 1.66927,-0.0555 3.13967,1.06386 3.46302,2.87008 0.0411,0.20851 0.0415,0.41713 0.062,0.68819 -0.10266,1.7932 -0.98553,3.12763 -2.60744,3.98253 -1.08812,0.56298 -2.21722,0.62556 -3.34639,0.12513 -1.47821,-0.66723 -2.25834,-2.31459 -1.88879,-3.94098 0.45167,-1.96001 1.68336,-3.18981 3.59272,-3.62768 0.2438,-0.0574 0.48646,-0.0894 0.72493,-0.0973 z M 16.5,31.84451 v 0.10607 l 9.7e-4,-0.002 c 0.0269,-0.041 0.0246,-0.0802 -9.7e-4,-0.10362 z" />
    <path
       id="Shape-8-4-8"
       style="fill:#f3f4f2;fill-opacity:1;fill-rule:nonzero;stroke:none;stroke-width:0.166837"
       d="m 25.50792,26.75194 c -0.47059,0.0105 -0.94804,0.0624 -1.4305,0.15105 -2.36102,0.43786 -4.29098,1.66798 -5.74864,3.60715 -1.35502,1.7932 -2.01195,3.83688 -1.74506,6.10967 0.22584,1.91829 1.08818,3.46102 2.60743,4.62869 1.64244,1.25107 3.51065,1.64745 5.52264,1.37637 2.44313,-0.33361 4.37304,-1.56371 5.85123,-3.54459 0.33574,-0.44946 0.62296,-0.92201 0.86335,-1.41548 0.34579,1.27051 1.04057,2.36252 2.05187,3.25034 1.43713,1.25107 3.1414,1.79316 5.00966,1.83486 0.5338,-0.0626 1.08815,-0.0834 1.64248,-0.18769 1.90934,-0.39617 3.57189,-1.27216 4.92691,-2.66919 1.90934,-1.96001 2.71012,-4.25326 2.36111,-7.06816 -0.26689,-2.0017 -1.27298,-3.52423 -2.89489,-4.6502 -1.78616,-1.23021 -3.75664,-1.4384 -5.85074,-1.06308 -2.44313,0.43788 -4.24991,1.48032 -5.74863,3.48203 -0.64205,0.85344 -1.12118,1.75622 -1.41792,2.71074 h -6.60957 c -0.30796,0 -0.45183,0.20824 -0.51344,0.33335 -0.28743,0.54214 -0.77986,1.62641 -1.04675,2.2728 -0.14371,0.35447 -0.0411,0.62563 0.39004,0.62563 h 3.96244 c -0.2053,0.29192 -0.36981,0.54241 -0.55458,0.77177 -0.92388,1.06341 -2.09406,1.56356 -3.49012,1.3759 -1.62191,-0.22936 -2.75098,-1.60571 -2.77149,-3.2738 -0.0204,-1.68894 0.69791,-3.04407 2.09398,-3.96152 1.17023,-0.7715 2.42269,-0.9592 3.71612,-0.31281 0.43114,0.20851 0.657,0.43783 0.96496,0.7923 0.26691,0.31276 0.28728,0.29212 0.59525,0.20871 1.27289,-0.33362 2.15556,-0.58382 3.44898,-0.91744 0.24633,-0.0626 0.32884,-0.16669 0.20567,-0.35435 -0.51328,-1.20937 -1.2938,-2.21018 -2.38192,-2.93998 -1.24722,-0.86011 -2.59808,-1.20434 -4.00987,-1.17307 z m 14.34329,4.01577 c 1.66927,-0.0555 3.13967,1.06386 3.46302,2.87008 0.0411,0.20851 0.0415,0.41713 0.062,0.68819 -0.10266,1.7932 -0.98553,3.12763 -2.60744,3.98253 -1.08812,0.56298 -2.21722,0.62556 -3.34639,0.12513 -1.47821,-0.66723 -2.25834,-2.31459 -1.88879,-3.94098 0.45167,-1.96001 1.68336,-3.18981 3.59272,-3.62768 0.2438,-0.0574 0.48646,-0.0894 0.72493,-0.0973 z M 16.5,30.84451 v 0.10607 l 9.7e-4,-0.002 c 0.0269,-0.041 0.0246,-0.0802 -9.7e-4,-0.10362 z" />
  </g>
</svg>
