<?xml version="1.0" encoding="UTF-8" standalone="no"?>
<svg
   xmlns:dc="http://purl.org/dc/elements/1.1/"
   xmlns:cc="http://creativecommons.org/ns#"
   xmlns:rdf="http://www.w3.org/1999/02/22-rdf-syntax-ns#"
   xmlns:svg="http://www.w3.org/2000/svg"
   xmlns="http://www.w3.org/2000/svg"
   xmlns:sodipodi="http://sodipodi.sourceforge.net/DTD/sodipodi-0.dtd"
   xmlns:inkscape="http://www.inkscape.org/namespaces/inkscape"
   width="64"
   height="64"
   viewBox="0 0 64 64"
   version="1.1"
   id="svg6374"
   inkscape:version="1.0.2 (e86c870879, 2021-01-15)"
   sodipodi:docname="text-html.svg">
  <defs
     id="defs6368" />
  <sodipodi:namedview
     id="base"
     pagecolor="#cecece"
     bordercolor="#666666"
     borderopacity="1.0"
     inkscape:pageopacity="0"
     inkscape:pageshadow="2"
     inkscape:zoom="3.2975144"
     inkscape:cx="0.78419257"
     inkscape:cy="32.951385"
     inkscape:document-units="px"
     inkscape:current-layer="layer1"
     inkscape:document-rotation="0"
     showgrid="false"
     units="px"
     inkscape:window-width="2048"
     inkscape:window-height="1080"
     inkscape:window-x="0"
     inkscape:window-y="0"
     inkscape:window-maximized="1" />
  <metadata
     id="metadata6371">
    <rdf:RDF>
      <cc:Work
         rdf:about="">
        <dc:format>image/svg+xml</dc:format>
        <dc:type
           rdf:resource="http://purl.org/dc/dcmitype/StillImage" />
        <dc:title></dc:title>
      </cc:Work>
    </rdf:RDF>
  </metadata>
  <g
     inkscape:label="Layer 1"
     inkscape:groupmode="layer"
     id="layer1">
    <rect
       style="opacity:0.45;fill:#0c0c0c;fill-opacity:1;stroke-width:0.495;stroke-linecap:round;stroke-linejoin:round;stroke-miterlimit:4;stroke-dasharray:none;stroke-dashoffset:2.1875"
       id="rect954-6-9-9-9"
       width="44"
       height="56"
       x="9.9999695"
       y="5.5"
       rx="3"
       ry="3" />
    <path
       id="rect954-60-2-4-6"
       style="color:#000000;font-style:normal;font-variant:normal;font-weight:normal;font-stretch:normal;font-size:medium;line-height:normal;font-family:sans-serif;font-variant-ligatures:normal;font-variant-position:normal;font-variant-caps:normal;font-variant-numeric:normal;font-variant-alternates:normal;font-variant-east-asian:normal;font-feature-settings:normal;font-variation-settings:normal;text-indent:0;text-align:start;text-decoration:none;text-decoration-line:none;text-decoration-style:solid;text-decoration-color:#000000;letter-spacing:normal;word-spacing:normal;text-transform:none;writing-mode:lr-tb;direction:ltr;text-orientation:mixed;dominant-baseline:auto;baseline-shift:baseline;text-anchor:start;white-space:normal;shape-padding:0;shape-margin:0;inline-size:0;clip-rule:nonzero;display:inline;overflow:visible;visibility:visible;opacity:0.8;isolation:auto;mix-blend-mode:normal;color-interpolation:sRGB;color-interpolation-filters:linearRGB;solid-color:#000000;solid-opacity:1;vector-effect:none;fill:#8eb8e6;fill-opacity:1;fill-rule:nonzero;stroke:none;stroke-linecap:round;stroke-linejoin:round;stroke-miterlimit:4;stroke-dasharray:none;stroke-dashoffset:2.1875;stroke-opacity:1;color-rendering:auto;image-rendering:auto;shape-rendering:auto;text-rendering:auto;enable-background:accumulate;stop-color:#000000"
       d="M 13,3.5 C 11.06965,3.5 9.5,5.06965 9.5,7 v 50 c 0,1.93035 1.56965,3.5 3.5,3.5 h 37.99999 c 1.93036,0 3.5,-1.56965 3.5,-3.5 V 7 c 0,-1.93035 -1.56964,-3.5 -3.5,-3.5 z m 0,1 h 37.99999 c 1.39366,0 2.5,1.10635 2.5,2.5 v 50 c 0,1.39365 -1.10634,2.5 -2.5,2.5 H 13 c -1.39365,0 -2.5,-1.10635 -2.5,-2.5 V 7 c 0,-1.39365 1.10635,-2.5 2.5,-2.5 z" />
    <rect
       style="fill:#545454;fill-opacity:1;stroke-width:0.495;stroke-linecap:round;stroke-linejoin:round;stroke-miterlimit:4;stroke-dasharray:none;stroke-dashoffset:2.1875"
       id="rect954-0-8-3"
       width="44"
       height="56"
       x="9.9999695"
       y="3.9999998"
       rx="3"
       ry="3" />
    <path
       style="opacity:0.375;fill:#141414;fill-opacity:1;stroke:none;stroke-width:0.242367;stroke-linecap:round;stroke-linejoin:round"
       d="m 39.0925,29.16045 c -0.49624,-0.0188 -0.97694,0.26005 -1.20066,0.747 -0.2983,0.64926 -0.0233,1.41563 0.61636,1.71839 l 8.20653,3.88361 -8.20653,3.88411 c -0.63971,0.30276 -0.91466,1.06913 -0.61636,1.71839 0.2983,0.64928 1.05338,0.92833 1.69308,0.62558 L 50.266,36.68241 c 0.0409,-0.0194 0.0803,-0.0411 0.1182,-0.0641 0.11726,-0.0712 0.2179,-0.16016 0.30388,-0.26034 0.0409,-0.0479 0.0787,-0.0992 0.11293,-0.15396 0.0119,-0.019 0.0231,-0.0382 0.034,-0.0578 0.0165,-0.0296 0.033,-0.0595 0.0474,-0.0908 0.0102,-0.0221 0.018,-0.0446 0.0268,-0.067 0.007,-0.0175 0.015,-0.0342 0.0211,-0.052 0.0227,-0.0654 0.0383,-0.13168 0.0503,-0.19816 0.002,-0.0135 0.006,-0.0267 0.008,-0.0403 0.009,-0.0629 0.0109,-0.12577 0.011,-0.18846 -8e-5,-0.0624 -0.002,-0.12483 -0.011,-0.18747 -0.002,-0.0154 -0.006,-0.0303 -0.009,-0.0457 -0.0118,-0.0645 -0.0268,-0.12882 -0.0488,-0.19233 -0.007,-0.0194 -0.0154,-0.0377 -0.023,-0.0568 -0.008,-0.0211 -0.0158,-0.0423 -0.0254,-0.0631 -0.0131,-0.0285 -0.0283,-0.0555 -0.0431,-0.0826 -0.0133,-0.0243 -0.0272,-0.0479 -0.0421,-0.0714 -0.032,-0.0507 -0.067,-0.0985 -0.1048,-0.14328 -0.0869,-0.10234 -0.18889,-0.1932 -0.30819,-0.26567 -0.0379,-0.023 -0.0773,-0.0447 -0.11819,-0.0641 L 39.58542,29.28192 c -0.15992,-0.0757 -0.32748,-0.11513 -0.4929,-0.12142 z"
       id="path3391-8" />
    <path
       style="fill:#8eb8e6;fill-opacity:1;stroke:none;stroke-width:0.242367;stroke-linecap:round;stroke-linejoin:round"
       d="m 39.0925,28.16045 c -0.49624,-0.0188 -0.97694,0.26005 -1.20066,0.747 -0.2983,0.64926 -0.0233,1.41563 0.61636,1.71839 l 8.20653,3.88361 -8.20653,3.88411 c -0.63971,0.30276 -0.91466,1.06913 -0.61636,1.71839 0.2983,0.64928 1.05338,0.92833 1.69308,0.62558 L 50.266,35.68241 c 0.0409,-0.0194 0.0803,-0.0411 0.1182,-0.0641 0.11726,-0.0712 0.2179,-0.16016 0.30388,-0.26034 0.0409,-0.0479 0.0787,-0.0992 0.11293,-0.15396 0.0119,-0.019 0.0231,-0.0382 0.034,-0.0578 0.0165,-0.0296 0.033,-0.0595 0.0474,-0.0908 0.0102,-0.0221 0.018,-0.0446 0.0268,-0.067 0.007,-0.0175 0.015,-0.0342 0.0211,-0.052 0.0227,-0.0654 0.0383,-0.13168 0.0503,-0.19816 0.002,-0.0135 0.006,-0.0267 0.008,-0.0403 0.009,-0.0629 0.0109,-0.12577 0.011,-0.18846 -8e-5,-0.0624 -0.002,-0.12483 -0.011,-0.18747 -0.002,-0.0154 -0.006,-0.0303 -0.009,-0.0457 -0.0118,-0.0645 -0.0268,-0.12882 -0.0488,-0.19233 -0.007,-0.0194 -0.0154,-0.0377 -0.023,-0.0568 -0.008,-0.0211 -0.0158,-0.0423 -0.0254,-0.0631 -0.0131,-0.0285 -0.0283,-0.0555 -0.0431,-0.0826 -0.0133,-0.0243 -0.0272,-0.0479 -0.0421,-0.0714 -0.032,-0.0507 -0.067,-0.0985 -0.1048,-0.14328 -0.0869,-0.10234 -0.18889,-0.1932 -0.30819,-0.26567 -0.0379,-0.023 -0.0773,-0.0447 -0.11819,-0.0641 L 39.58542,28.28192 c -0.15992,-0.0757 -0.32748,-0.11513 -0.4929,-0.12142 z"
       id="path3391" />
    <path
       style="opacity:0.375;fill:#141414;fill-opacity:1;stroke:none;stroke-width:0.242367;stroke-linecap:round;stroke-linejoin:round"
       d="m 24.90709,29.16045 c -0.16542,0.006 -0.33298,0.0457 -0.4929,0.12142 l -10.68061,5.05512 c -0.0409,0.0194 -0.0803,0.0411 -0.1182,0.0641 -0.11929,0.0725 -0.22128,0.16333 -0.30818,0.26567 -0.0378,0.0447 -0.0727,0.0926 -0.1048,0.14328 -0.0149,0.0235 -0.0288,0.0471 -0.0421,0.0714 -0.0148,0.0271 -0.03,0.054 -0.0431,0.0826 -0.01,0.0209 -0.017,0.0421 -0.0254,0.0631 -0.008,0.0191 -0.0163,0.0374 -0.023,0.0568 -0.022,0.0635 -0.037,0.12782 -0.0488,0.19233 -0.003,0.0153 -0.006,0.0302 -0.009,0.0457 -0.009,0.0626 -0.0109,0.12508 -0.011,0.18747 8e-5,0.0627 0.002,0.12552 0.011,0.18846 0.002,0.0136 0.005,0.0268 0.008,0.0403 0.0119,0.0665 0.0275,0.13273 0.0502,0.19816 0.006,0.0178 0.0142,0.0345 0.0211,0.052 0.009,0.0224 0.0166,0.0449 0.0268,0.067 0.0144,0.0314 0.0309,0.0612 0.0474,0.0908 0.0109,0.0196 0.022,0.0388 0.034,0.0578 0.0343,0.0548 0.072,0.10606 0.11294,0.15396 0.086,0.10018 0.18661,0.18911 0.30387,0.26034 0.0379,0.023 0.0773,0.0447 0.1182,0.0641 l 10.68108,5.05512 c 0.63971,0.30275 1.39479,0.0237 1.69309,-0.62558 0.2983,-0.64926 0.0233,-1.41563 -0.61636,-1.71839 l -8.20654,-3.88411 8.20654,-3.88361 c 0.6397,-0.30276 0.91466,-1.06913 0.61636,-1.71839 -0.22373,-0.48695 -0.70442,-0.76584 -1.20066,-0.747 z"
       id="path3389-8" />
    <path
       style="fill:#8eb8e6;fill-opacity:1;stroke:none;stroke-width:0.242367;stroke-linecap:round;stroke-linejoin:round"
       d="m 24.90709,28.16045 c -0.16542,0.006 -0.33298,0.0457 -0.4929,0.12142 l -10.68061,5.05512 c -0.0409,0.0194 -0.0803,0.0411 -0.1182,0.0641 -0.11929,0.0725 -0.22128,0.16333 -0.30818,0.26567 -0.0378,0.0447 -0.0727,0.0926 -0.1048,0.14328 -0.0149,0.0235 -0.0288,0.0471 -0.0421,0.0714 -0.0148,0.0271 -0.03,0.054 -0.0431,0.0826 -0.01,0.0209 -0.017,0.0421 -0.0254,0.0631 -0.008,0.0191 -0.0163,0.0374 -0.023,0.0568 -0.022,0.0635 -0.037,0.12782 -0.0488,0.19233 -0.003,0.0153 -0.006,0.0302 -0.009,0.0457 -0.009,0.0626 -0.0109,0.12508 -0.011,0.18747 8e-5,0.0627 0.002,0.12552 0.011,0.18846 0.002,0.0136 0.005,0.0268 0.008,0.0403 0.0119,0.0665 0.0275,0.13273 0.0502,0.19816 0.006,0.0178 0.0142,0.0345 0.0211,0.052 0.009,0.0224 0.0166,0.0449 0.0268,0.067 0.0144,0.0314 0.0309,0.0612 0.0474,0.0908 0.0109,0.0196 0.022,0.0388 0.034,0.0578 0.0343,0.0548 0.072,0.10606 0.11294,0.15396 0.086,0.10018 0.18661,0.18911 0.30387,0.26034 0.0379,0.023 0.0773,0.0447 0.1182,0.0641 l 10.68108,5.05512 c 0.63971,0.30275 1.39479,0.0237 1.69309,-0.62558 0.2983,-0.64926 0.0233,-1.41563 -0.61636,-1.71839 l -8.20654,-3.88411 8.20654,-3.88361 c 0.6397,-0.30276 0.91466,-1.06913 0.61636,-1.71839 -0.22373,-0.48695 -0.70442,-0.76584 -1.20066,-0.747 z"
       id="path3389" />
    <path
       style="opacity:0.375;fill:#141414;fill-opacity:1;stroke:none;stroke-width:0.242367;stroke-linecap:round;stroke-linejoin:round"
       d="m 36.20521,23.75154 c -0.47689,0.0242 -0.91458,0.33195 -1.08867,0.81742 l -7.54181,21.03109 c -0.23213,0.6473 0.0944,1.35798 0.73216,1.59357 0.63776,0.2356 1.33797,-0.0958 1.5701,-0.74311 l 7.54229,-21.0311 c 0.23212,-0.64729 -0.0944,-1.35797 -0.73218,-1.59356 -0.15943,-0.0589 -0.32292,-0.0824 -0.48189,-0.0743 z"
       id="rect133-5-6-8-9" />
    <path
       style="fill:#8eb8e6;fill-opacity:1;stroke:none;stroke-width:0.242367;stroke-linecap:round;stroke-linejoin:round"
       d="m 35.70521,22.75154 c -0.47689,0.0242 -0.91458,0.33195 -1.08867,0.81742 l -7.54181,21.03109 c -0.23213,0.6473 0.0944,1.35798 0.73216,1.59357 0.63776,0.2356 1.33797,-0.0958 1.5701,-0.74311 l 7.54229,-21.0311 c 0.23212,-0.64729 -0.0944,-1.35797 -0.73218,-1.59356 -0.15943,-0.0589 -0.32292,-0.0824 -0.48189,-0.0743 z"
       id="rect133-5-6-8" />
  </g>
</svg>
