<?xml version="1.0" encoding="UTF-8" standalone="no"?>
<svg
   xmlns:dc="http://purl.org/dc/elements/1.1/"
   xmlns:cc="http://creativecommons.org/ns#"
   xmlns:rdf="http://www.w3.org/1999/02/22-rdf-syntax-ns#"
   xmlns:svg="http://www.w3.org/2000/svg"
   xmlns="http://www.w3.org/2000/svg"
   xmlns:xlink="http://www.w3.org/1999/xlink"
   xmlns:sodipodi="http://sodipodi.sourceforge.net/DTD/sodipodi-0.dtd"
   xmlns:inkscape="http://www.inkscape.org/namespaces/inkscape"
   width="64"
   height="64"
   viewBox="0 0 16.933333 16.933334"
   version="1.1"
   id="svg841"
   inkscape:version="1.0.2 (e86c870879, 2021-01-15)"
   sodipodi:docname="nm-device-wired.svg">
  <defs
     id="defs835">
    <linearGradient
       inkscape:collect="always"
       xlink:href="#linearGradient1734"
       id="linearGradient1010"
       gradientUnits="userSpaceOnUse"
       gradientTransform="matrix(0.99993151,0,0,1.0000685,25.147194,-21.678779)"
       x1="-24.221928"
       y1="22.73558"
       x2="-9.1406765"
       y2="37.551231" />
    <linearGradient
       inkscape:collect="always"
       id="linearGradient1734">
      <stop
         style="stop-color:#723149;stop-opacity:0.8509804"
         offset="0"
         id="stop1730" />
      <stop
         style="stop-color:#4a3073;stop-opacity:0.8509804"
         offset="1"
         id="stop1732" />
    </linearGradient>
    <linearGradient
       inkscape:collect="always"
       xlink:href="#linearGradient1296"
       id="linearGradient839"
       x1="8.1944265"
       y1="1.0125455"
       x2="8.2493715"
       y2="15.385565"
       gradientUnits="userSpaceOnUse"
       gradientTransform="translate(0.26458328,0.26458328)" />
    <linearGradient
       inkscape:collect="always"
       id="linearGradient1296">
      <stop
         style="stop-color:#8662bc;stop-opacity:1"
         offset="0"
         id="stop1292" />
      <stop
         style="stop-color:#b45075;stop-opacity:1"
         offset="1"
         id="stop1294" />
    </linearGradient>
  </defs>
  <sodipodi:namedview
     id="base"
     pagecolor="#c4c4c4"
     bordercolor="#666666"
     borderopacity="1.0"
     inkscape:pageopacity="0"
     inkscape:pageshadow="2"
     inkscape:zoom="4.0098513"
     inkscape:cx="12.472798"
     inkscape:cy="66.995717"
     inkscape:document-units="px"
     inkscape:current-layer="layer1"
     inkscape:document-rotation="0"
     showgrid="false"
     units="px"
     inkscape:window-width="2048"
     inkscape:window-height="1080"
     inkscape:window-x="0"
     inkscape:window-y="0"
     inkscape:window-maximized="1" />
  <metadata
     id="metadata838">
    <rdf:RDF>
      <cc:Work
         rdf:about="">
        <dc:format>image/svg+xml</dc:format>
        <dc:type
           rdf:resource="http://purl.org/dc/dcmitype/StillImage" />
        <dc:title />
      </cc:Work>
    </rdf:RDF>
  </metadata>
  <g
     inkscape:label="Layer 1"
     inkscape:groupmode="layer"
     id="layer1">
    <path
       id="rect831-360-6-7-9"
       style="color:#000000;font-style:normal;font-variant:normal;font-weight:normal;font-stretch:normal;font-size:medium;line-height:normal;font-family:sans-serif;font-variant-ligatures:normal;font-variant-position:normal;font-variant-caps:normal;font-variant-numeric:normal;font-variant-alternates:normal;font-variant-east-asian:normal;font-feature-settings:normal;font-variation-settings:normal;text-indent:0;text-align:start;text-decoration:none;text-decoration-line:none;text-decoration-style:solid;text-decoration-color:#000000;letter-spacing:normal;word-spacing:normal;text-transform:none;writing-mode:lr-tb;direction:ltr;text-orientation:mixed;dominant-baseline:auto;baseline-shift:baseline;text-anchor:start;white-space:normal;shape-padding:0;shape-margin:0;inline-size:0;clip-rule:nonzero;display:inline;overflow:visible;visibility:visible;opacity:0.15;isolation:auto;mix-blend-mode:normal;color-interpolation:sRGB;color-interpolation-filters:linearRGB;solid-color:#000000;solid-opacity:1;vector-effect:none;fill:#0c0c0c;fill-opacity:1;fill-rule:nonzero;stroke:none;stroke-width:0;stroke-linecap:round;stroke-linejoin:round;stroke-miterlimit:4;stroke-dasharray:none;stroke-dashoffset:2.1875;stroke-opacity:1;color-rendering:auto;image-rendering:auto;shape-rendering:auto;text-rendering:auto;enable-background:accumulate;stop-color:#000000"
       d="m 2.6467488,1.3229167 c -0.9458351,0 -1.72070712,0.7729114 -1.72070712,1.7188763 v 11.643498 c 0,0.945965 0.77487202,1.718876 1.72070712,1.718876 H 14.286585 c 0.945835,0 1.720707,-0.772911 1.720707,-1.718876 V 3.041793 c 0,-0.9459649 -0.774872,-1.7188763 -1.720707,-1.7188763 z m 0,0.793287 H 14.286585 c 0.519856,0 0.927528,0.4056618 0.927528,0.9255893 v 11.643498 c 0,0.519927 -0.407672,0.926105 -0.927528,0.926105 H 2.6467488 c -0.519856,0 -0.9254622,-0.406178 -0.9254622,-0.926105 V 3.041793 c 0,-0.5199275 0.4056062,-0.9255893 0.9254622,-0.9255893 z" />
    <path
       id="rect831-360-6"
       style="color:#000000;font-style:normal;font-variant:normal;font-weight:normal;font-stretch:normal;font-size:medium;line-height:normal;font-family:sans-serif;font-variant-ligatures:normal;font-variant-position:normal;font-variant-caps:normal;font-variant-numeric:normal;font-variant-alternates:normal;font-variant-east-asian:normal;font-feature-settings:normal;font-variation-settings:normal;text-indent:0;text-align:start;text-decoration:none;text-decoration-line:none;text-decoration-style:solid;text-decoration-color:#000000;letter-spacing:normal;word-spacing:normal;text-transform:none;writing-mode:lr-tb;direction:ltr;text-orientation:mixed;dominant-baseline:auto;baseline-shift:baseline;text-anchor:start;white-space:normal;shape-padding:0;shape-margin:0;inline-size:0;clip-rule:nonzero;display:inline;overflow:visible;visibility:visible;isolation:auto;mix-blend-mode:normal;color-interpolation:sRGB;color-interpolation-filters:linearRGB;solid-color:#000000;solid-opacity:1;vector-effect:none;fill:url(#linearGradient1010);fill-opacity:1;fill-rule:nonzero;stroke:none;stroke-width:0;stroke-linecap:round;stroke-linejoin:round;stroke-miterlimit:4;stroke-dasharray:none;stroke-dashoffset:2.1875;stroke-opacity:1;color-rendering:auto;image-rendering:auto;shape-rendering:auto;text-rendering:auto;enable-background:accumulate;stop-color:#000000"
       d="m 2.6467488,0.92604168 c -0.9458351,0 -1.72070712,0.77291142 -1.72070712,1.71887622 V 14.288416 c 0,0.945965 0.77487202,1.718876 1.72070712,1.718876 H 14.286585 c 0.945835,0 1.720707,-0.772911 1.720707,-1.718876 V 2.6449179 c 0,-0.9459648 -0.774872,-1.71887622 -1.720707,-1.71887622 z m 0,0.79328702 H 14.286585 c 0.519856,0 0.927528,0.4056618 0.927528,0.9255892 V 14.288416 c 0,0.519927 -0.407672,0.926105 -0.927528,0.926105 H 2.6467488 c -0.519856,0 -0.9254622,-0.406178 -0.9254622,-0.926105 V 2.6449179 c 0,-0.5199274 0.4056062,-0.9255892 0.9254622,-0.9255892 z" />
    <rect
       style="fill:url(#linearGradient839);fill-opacity:1;stroke-width:0;stroke-linecap:round;stroke-linejoin:round;stroke-dashoffset:2.1875"
       id="rect831"
       width="14.2875"
       height="14.2875"
       x="1.322917"
       y="1.3229166"
       rx="1.3229167"
       ry="1.3229167" />
    <path
       id="rect831-360-6-7"
       style="color:#000000;font-style:normal;font-variant:normal;font-weight:normal;font-stretch:normal;font-size:medium;line-height:normal;font-family:sans-serif;font-variant-ligatures:normal;font-variant-position:normal;font-variant-caps:normal;font-variant-numeric:normal;font-variant-alternates:normal;font-variant-east-asian:normal;font-feature-settings:normal;font-variation-settings:normal;text-indent:0;text-align:start;text-decoration:none;text-decoration-line:none;text-decoration-style:solid;text-decoration-color:#000000;letter-spacing:normal;word-spacing:normal;text-transform:none;writing-mode:lr-tb;direction:ltr;text-orientation:mixed;dominant-baseline:auto;baseline-shift:baseline;text-anchor:start;white-space:normal;shape-padding:0;shape-margin:0;inline-size:0;clip-rule:nonzero;display:inline;overflow:visible;visibility:visible;opacity:0.15;isolation:auto;mix-blend-mode:normal;color-interpolation:sRGB;color-interpolation-filters:linearRGB;solid-color:#000000;solid-opacity:1;vector-effect:none;fill:#562537;fill-opacity:1;fill-rule:nonzero;stroke:none;stroke-width:0;stroke-linecap:round;stroke-linejoin:round;stroke-miterlimit:4;stroke-dasharray:none;stroke-dashoffset:2.1875;stroke-opacity:1;color-rendering:auto;image-rendering:auto;shape-rendering:auto;text-rendering:auto;enable-background:accumulate;stop-color:#000000"
       d="m 2.6467488,0.92604168 c -0.9458351,0 -1.72070712,0.77291142 -1.72070712,1.71887622 V 14.288416 c 0,0.945965 0.77487202,1.718876 1.72070712,1.718876 H 14.286585 c 0.945835,0 1.720707,-0.772911 1.720707,-1.718876 V 2.6449179 c 0,-0.9459648 -0.774872,-1.71887622 -1.720707,-1.71887622 z m 0,0.79328702 H 14.286585 c 0.519856,0 0.927528,0.4056618 0.927528,0.9255892 V 14.288416 c 0,0.519927 -0.407672,0.926105 -0.927528,0.926105 H 2.6467488 c -0.519856,0 -0.9254622,-0.406178 -0.9254622,-0.926105 V 2.6449179 c 0,-0.5199274 0.4056062,-0.9255892 0.9254622,-0.9255892 z" />
    <path
       id="rect1677-6-2-1-28"
       style="display:inline;opacity:0.35;fill:#562537;fill-opacity:1;stroke:none;stroke-width:0;stroke-linecap:round;stroke-linejoin:round;stroke-miterlimit:4;stroke-dasharray:none;stroke-dashoffset:2.1875;stroke-opacity:1"
       d="M 5.3008059,6.0730846 C 5.1437345,6.0717617 4.9877062,6.1382197 4.8783836,6.2684873 L 2.7737316,8.776732 c -0.00273,0.0037 -0.00562,0.0077 -0.00853,0.01138 -0.00201,0.0024 -0.00333,0.0049 -0.00533,0.0075 -0.00928,0.01196 -0.018177,0.02379 -0.026289,0.03624 -0.00183,0.0026 -0.00334,0.0055 -0.00462,0.0082 -0.00782,0.01241 -0.015049,0.02484 -0.021672,0.03766 -0.00201,0.0037 -0.00368,0.0076 -0.00568,0.01138 -0.00619,0.01206 -0.011433,0.02389 -0.016343,0.03623 -0.00201,0.0047 -0.0037,0.0098 -0.00497,0.01458 -0.00418,0.01177 -0.00827,0.02358 -0.011724,0.03553 -0.00183,0.0047 -0.00209,0.0095 -0.00355,0.01421 -0.00346,0.01222 -0.00616,0.02424 -0.00853,0.03659 -0.00183,0.0058 -0.00212,0.01185 -0.00284,0.01778 -0.00183,0.01074 -0.00353,0.02156 -0.00426,0.03233 0,0.0084 4.26e-5,0.0168 -0.00177,0.02521 0,0.0089 -0.00177,0.01773 -0.00177,0.02665 -1.8e-5,0.0089 -4.23e-5,0.0177 0.00177,0.02665 0,0.0084 -4.26e-5,0.01691 0.00177,0.02521 0,0.01074 0.00281,0.02127 0.00426,0.03198 0,0.0061 0.00193,0.01212 0.00284,0.01812 0.00201,0.01214 0.00543,0.02424 0.00853,0.03624 0.00183,0.0049 0.00209,0.0097 0.00355,0.01458 0.00346,0.01275 0.00806,0.02548 0.01279,0.03801 0.00183,0.0038 0.00281,0.0076 0.00426,0.01138 0.00473,0.01254 0.010694,0.02469 0.016698,0.03695 0.00201,0.0038 0.00333,0.0076 0.00533,0.01138 0.00691,0.01278 0.013959,0.02527 0.021672,0.03766 0.00183,0.0027 0.0037,0.0052 0.00497,0.0078 0.008,0.01243 0.016732,0.02463 0.025934,0.03659 0.00201,0.0024 0.00368,0.005 0.00568,0.0075 0.00273,0.0037 0.00526,0.0078 0.00817,0.01138 l 2.104652,2.50789 c 0.194343,0.23159 0.5372198,0.261826 0.7688159,0.0675 0.2315967,-0.194328 0.2614538,-0.537225 0.067147,-0.768815 L 3.9042147,9.128183 5.7146987,6.9702417 C 5.9090235,6.7386519 5.8791481,6.3957519 5.6475514,6.2014234 5.5462327,6.1164075 5.4236779,6.0742197 5.3015132,6.0731719 Z m 6.3310091,0 c -0.122165,0.00106 -0.244701,0.043238 -0.346038,0.1282541 -0.231597,0.1943285 -0.26149,0.5372286 -0.06715,0.7688184 l 1.810483,2.1579419 -1.810483,2.157944 c -0.194325,0.23159 -0.16445,0.574487 0.06715,0.768816 0.231596,0.194323 0.574491,0.164089 0.768816,-0.0675 l 2.104652,-2.507891 c 0.0029,-0.0036 0.0058,-0.0077 0.0085,-0.01138 0.002,-0.0024 0.0033,-0.005 0.0053,-0.0075 0.0092,-0.01196 0.01793,-0.02416 0.02593,-0.03659 0.0013,-0.0026 0.0032,-0.0051 0.005,-0.0078 0.0077,-0.01238 0.01476,-0.02487 0.02167,-0.03766 0.002,-0.0037 0.0033,-0.0076 0.0053,-0.01138 0.006,-0.01225 0.01197,-0.0244 0.0167,-0.03695 0.0015,-0.0038 0.0024,-0.0076 0.0043,-0.01138 0.0047,-0.01254 0.0093,-0.02527 0.01279,-0.03802 0.0015,-0.0048 0.0017,-0.0097 0.0036,-0.01458 0.0031,-0.01201 0.0065,-0.0241 0.0085,-0.03624 9e-4,-0.006 0.0028,-0.01206 0.0028,-0.01812 0.0015,-0.01069 0.0043,-0.02125 0.0043,-0.03198 0.0018,-0.0083 0.0018,-0.01685 0.0018,-0.02521 0.0018,-0.0089 0.0018,-0.0177 0.0018,-0.02664 0,-0.0089 -0.0018,-0.01773 -0.0018,-0.02665 -0.0018,-0.0084 -0.0018,-0.01685 -0.0018,-0.02522 -7.14e-4,-0.01079 -0.0024,-0.02159 -0.0043,-0.03233 -7.14e-4,-0.0059 -0.001,-0.01193 -0.0028,-0.01778 -0.0024,-0.01236 -0.0051,-0.02437 -0.0085,-0.03659 -0.0015,-0.0047 -0.0017,-0.0095 -0.0036,-0.01421 -0.0035,-0.01196 -0.0075,-0.02376 -0.01172,-0.03553 -0.0013,-0.0047 -0.003,-0.0098 -0.005,-0.01458 -0.0051,-0.01236 -0.01016,-0.02418 -0.01634,-0.03624 -0.002,-0.0037 -0.0037,-0.0076 -0.0057,-0.01138 -0.0066,-0.01283 -0.01385,-0.02524 -0.02167,-0.03766 -0.0013,-0.0026 -0.0028,-0.0056 -0.0046,-0.0082 -0.0081,-0.01244 -0.01701,-0.02429 -0.02629,-0.03624 -0.002,-0.0024 -0.0033,-0.005 -0.0053,-0.0075 -0.0031,-0.0037 -0.0058,-0.0077 -0.0085,-0.01138 L 12.054945,6.2684079 C 11.945622,6.1381403 11.789238,6.07155 11.632167,6.0730052 Z M 6.1019521,8.582396 c -0.3023195,0 -0.5457031,0.243385 -0.5457031,0.545703 0,0.302321 0.2433836,0.545703 0.5457031,0.545703 h 4.7294269 c 0.30232,0 0.545703,-0.243382 0.545703,-0.545703 0,-0.302318 -0.243383,-0.545703 -0.545703,-0.545703 z" />
    <path
       id="rect1677-6-2-1-97-3"
       style="color:#000000;font-style:normal;font-variant:normal;font-weight:normal;font-stretch:normal;font-size:medium;line-height:normal;font-family:sans-serif;font-variant-ligatures:normal;font-variant-position:normal;font-variant-caps:normal;font-variant-numeric:normal;font-variant-alternates:normal;font-variant-east-asian:normal;font-feature-settings:normal;font-variation-settings:normal;text-indent:0;text-align:start;text-decoration:none;text-decoration-line:none;text-decoration-style:solid;text-decoration-color:#000000;letter-spacing:normal;word-spacing:normal;text-transform:none;writing-mode:lr-tb;direction:ltr;text-orientation:mixed;dominant-baseline:auto;baseline-shift:baseline;text-anchor:start;white-space:normal;shape-padding:0;shape-margin:0;inline-size:0;clip-rule:nonzero;display:inline;overflow:visible;visibility:visible;opacity:0.75;isolation:auto;mix-blend-mode:normal;color-interpolation:sRGB;color-interpolation-filters:linearRGB;solid-color:#000000;solid-opacity:1;vector-effect:none;fill:#562537;fill-opacity:1;fill-rule:nonzero;stroke:none;stroke-width:0.264599;stroke-linecap:round;stroke-linejoin:round;stroke-miterlimit:4;stroke-dasharray:none;stroke-dashoffset:2.1875;stroke-opacity:1;color-rendering:auto;image-rendering:auto;shape-rendering:auto;text-rendering:auto;enable-background:accumulate;stop-color:#000000"
       d="M 5.301919,5.2793637 C 5.1068026,5.2777762 4.912337,5.3614824 4.7774151,5.5222803 L 2.6726819,8.031025 a 0.13230189,0.13232441 0 0 0 -0.00465,0.0057 c -0.00398,0.0053 -0.00617,0.0082 -0.0062,0.0083 -0.00447,0.0058 -0.010462,0.01389 -0.00517,0.0072 a 0.13230189,0.13232441 0 0 0 -0.00103,0.0016 c -0.00937,0.01209 -0.019915,0.02593 -0.030489,0.04186 -2.91e-4,5.29e-4 -2.236e-4,5.29e-4 -5.291e-4,0.0011 -5.292e-4,7.94e-4 -0.00103,0.0013 -0.00156,0.0021 -0.00613,0.0094 -0.01048,0.01767 -0.01292,0.02273 -0.00679,0.01127 -0.013856,0.02244 -0.020153,0.03463 -0.00347,0.0066 -0.00611,0.01254 -0.00465,0.0098 a 0.13230189,0.13232441 0 0 0 -0.00103,0.0021 c -0.0079,0.0154 -0.014761,0.03029 -0.020672,0.04497 -1.653e-4,2.65e-4 -3.439e-4,5.29e-4 -5.291e-4,0.0011 -1.929e-4,5.3e-4 -3.175e-4,0.0011 -5.292e-4,0.0016 -0.00278,0.0068 -0.00478,0.01283 -0.00672,0.01913 -0.00442,0.01246 -0.00974,0.02653 -0.01447,0.0429 l 0.00414,-0.01085 c -0.01134,0.02909 -0.011351,0.03826 -0.00672,0.02326 a 0.13230189,0.13232441 0 0 0 -0.00103,0.0026 c -0.00471,0.01667 -0.00796,0.03295 -0.010853,0.04807 l 0.00362,-0.01447 c -0.00706,0.02262 -0.00719,0.03116 -0.00723,0.03463 -1.135e-4,5.29e-4 -3.969e-4,0.0019 -5.292e-4,0.0026 4.3e-6,1.88e-4 -5.291e-4,0.0037 -5.291e-4,0.0036 -0.00183,0.01095 -0.00356,0.0236 -0.00465,0.0398 a 0.13230189,0.13232441 0 0 0 -5.292e-4,0.0088 c 0,0.0088 -5.556e-4,0.0072 0.00156,-0.0026 a 0.13230189,0.13232441 0 0 0 -0.0031,0.02791 c 0,-0.0086 -0.00206,-9.3e-5 -0.00206,0.02635 -1.8e-5,0.0089 -5.556e-4,0.02757 0.00465,0.05324 3.969e-4,0.0078 -6.35e-4,0.01193 0.00156,0.02326 3.44e-4,0.0019 1.106e-4,0.0019 5.292e-4,0.0036 0.00119,0.0063 0.00259,0.02185 0.00259,0.0217 l -0.00103,-0.0181 c 0,0.03418 0.0054,0.04662 0.00413,0.03825 a 0.13230189,0.13232441 0 0 0 0,0.0016 c 0.00365,0.02207 0.00881,0.03812 0.011369,0.04807 a 0.13230189,0.13232441 0 0 0 0.00414,0.01344 c -0.00626,-0.0167 -0.00502,-0.01267 5.292e-4,0.0057 0,0 0,5.29e-4 0,5.29e-4 0.00511,0.01807 0.011224,0.0338 0.01602,0.04652 a 0.13230189,0.13232441 0 0 0 0.00465,0.01085 c 0,0 -5.292e-4,5.29e-4 -5.292e-4,5.29e-4 0.00773,0.0205 0.015745,0.03641 0.021704,0.04858 a 0.13230189,0.13232441 0 0 0 0.00206,0.0036 c -0.00426,-0.008 -0.00337,-0.004 0.00517,0.01188 a 0.13230189,0.13232441 0 0 0 5.292e-4,5.29e-4 c 0.00766,0.01416 0.016161,0.0289 0.025839,0.04445 a 0.13230189,0.13232441 0 0 0 0.0031,0.0047 0.13230189,0.13232441 0 0 0 0.00259,0.0052 c 0.010388,0.01614 0.021497,0.03111 0.032555,0.04548 a 0.13230189,0.13232441 0 0 0 0.00362,0.0047 c -0.00583,-0.0069 -0.00424,-0.0046 0.00465,0.0062 0.00106,0.0016 6.086e-4,0.0021 0.00723,0.01035 a 0.13230189,0.13232441 0 0 0 0.00206,0.0021 l 2.1042165,2.508226 c 0.2399453,0.285983 0.6694575,0.32376 0.9554755,0.08373 0.2860027,-0.240022 0.323115,-0.669121 0.083197,-0.955122 L 4.0771966,8.467625 5.8160688,6.3945772 C 6.0560107,6.1085732 6.0188722,5.6794745 5.7328716,5.4394551 5.6078242,5.3345108 5.4547895,5.2810544 5.3029335,5.2797526 a 0.13230189,0.13232441 0 0 0 -0.00103,0 z m 6.328152,0 a 0.13230189,0.13232441 0 0 0 -0.02067,0.00212 c -0.144827,0.00582 -0.289507,0.057065 -0.408751,0.1571202 -0.285998,0.2400168 -0.323163,0.669634 -0.0832,0.955638 l 1.738872,2.0730471 -1.738872,2.073048 c -0.239942,0.286004 -0.202803,0.715621 0.0832,0.955637 0.286021,0.240031 0.715545,0.202267 0.955475,-0.08373 l 2.104216,-2.508226 a 0.13230189,0.13232441 0 0 0 0.0021,-0.0026 c 0.0067,-0.0083 0.01032,-0.01357 0.01138,-0.01497 -2.65e-4,2.11e-4 0.0056,-0.0073 0.0026,-0.0036 a 0.13230189,0.13232441 0 0 0 0.0016,-0.0021 c 0.01109,-0.01439 0.02217,-0.02986 0.03256,-0.046 a 0.13230189,0.13232441 0 0 0 0.0031,-0.0052 0.13230189,0.13232441 0 0 0 0.0041,-0.0083 c -0.0027,0.0055 -7.93e-4,0.0031 -0.0016,0.0041 0.0098,-0.01574 0.01823,-0.03037 0.02585,-0.04445 0.009,-0.01654 0.01,-0.02103 0.0057,-0.01291 a 0.13230189,0.13232441 0 0 0 0.0021,-0.0036 c 0.0058,-0.0118 0.01365,-0.02737 0.02119,-0.04703 v -5.29e-4 c 0.0011,-0.0029 0.0036,-0.0084 0,-0.0011 a 0.13230189,0.13232441 0 0 0 0.0047,-0.01085 c 0.0048,-0.01281 0.01087,-0.02872 0.01603,-0.04703 0.0071,-0.02347 0.0069,-0.02408 5.3e-4,-0.0067 a 0.13230189,0.13232441 0 0 0 0.0041,-0.01291 c 0.0026,-0.0099 0.0072,-0.0254 0.01085,-0.04755 a 0.13230189,0.13232441 0 0 0 5.29e-4,-0.0021 c -0.0013,0.0087 0.0041,-0.0034 0.0041,-0.03773 l -0.0011,0.0181 c -1.8e-5,1.35e-4 0.0013,-0.01553 0.0026,-0.0217 l 5.29e-4,-0.0047 c 0.0021,-0.01071 0.0011,-0.01476 0.0016,-0.02223 0.0052,-0.02553 0.0042,-0.04419 0.0041,-0.05323 V 8.46657 c -6.6e-5,-0.02527 -0.0016,-0.03481 -0.0016,-0.02635 a 0.13230189,0.13232441 0 0 0 -0.0031,-0.02791 c 0.0021,0.01003 0.0016,0.01201 0.0016,0.0031 a 0.13230189,0.13232441 0 0 0 -5.29e-4,-0.0088 c -0.0011,-0.0164 -0.0033,-0.02888 -0.0052,-0.0398 1.6e-5,1.4e-4 2.65e-4,-0.0146 -0.0078,-0.04083 l 0.0036,0.01447 C 14.40366,8.32521 14.40036,8.309 14.39571,8.29238 a 0.13230189,0.13232441 0 0 0 -0.0011,-0.0026 c 0.0044,0.01447 0.0043,0.0052 -0.0067,-0.02326 -0.0024,-0.0079 -0.0048,-0.01532 -0.0072,-0.02222 l -0.0031,-0.0098 c -0.0021,-0.0068 -0.0043,-0.01349 -0.0072,-0.02066 l -5.29e-4,-0.0011 c -0.0054,-0.0132 -0.01204,-0.02864 -0.02066,-0.04548 a 0.13230189,0.13232441 0 0 0 -0.0011,-0.0021 c 0.0016,0.0027 -0.0011,-0.0026 -0.0047,-0.0093 l -0.0011,-0.0021 c -0.0084,-0.01603 -0.01736,-0.03118 -0.02635,-0.04548 -0.0019,-0.0033 -0.003,-0.0057 -0.0057,-0.0098 l -0.0016,-0.0021 c -0.01074,-0.01627 -0.02133,-0.03096 -0.03101,-0.04342 a 0.13230189,0.13232441 0 0 0 -0.0036,-0.0041 c 0.01016,0.01201 0.0093,0.01071 -0.0031,-0.0047 a 0.13230189,0.13232441 0 0 0 -0.0021,-0.0026 c 0.0032,0.0039 0.0021,0.0024 -0.0036,-0.0052 a 0.13230189,0.13232441 0 0 0 -0.0047,-0.0062 L 12.156217,5.5219125 C 12.021233,5.3610379 11.826462,5.2771888 11.631197,5.2789959 a 0.13230189,0.13232441 0 0 0 -10e-4,0 z m -6.3307359,0.264623 a 0.13230189,0.13232441 0 0 0 0.00103,0 c 0.092468,7.938e-4 0.184925,0.03257 0.2625103,0.097684 0.1771825,0.1486958 0.1993408,0.4052332 0.050641,0.5824775 L 3.8028179,8.382476 a 0.13230189,0.13232441 0 0 0 0,0.17004 l 1.8107009,2.158326 c 0.1486869,0.177247 0.1265389,0.433784 -0.050641,0.58248 -0.1771634,0.148677 -0.4341648,0.1261 -0.5828969,-0.05117 l -2.102666,-2.50616 -5.292e-4,-0.0011 -0.00103,-0.0011 c 6.086e-4,5.29e-4 0.00193,0.0016 -0.00362,-0.0057 a 0.13230189,0.13232441 0 0 0 -0.00362,-0.0047 c 0.00222,0.0027 -0.00243,-0.0031 -0.0031,-0.0041 -0.00735,-0.0096 -0.014018,-0.01918 -0.019637,-0.02791 l 0.00775,0.01394 c -0.00706,-0.01453 -0.010054,-0.01736 -0.011885,-0.01963 l -5.291e-4,-5.29e-4 c -3.705e-4,-5.29e-4 -0.00257,-0.0046 -0.00259,-0.0047 -0.00466,-0.0077 -0.00897,-0.01611 -0.013951,-0.02532 l -5.292e-4,-5.3e-4 c 0.0023,0.0042 -4.233e-4,-0.0024 -0.00259,-0.0067 l -0.00206,-0.0036 c -0.00462,-0.0096 -0.00835,-0.01781 -0.00982,-0.0217 a 0.13230189,0.13232441 0 0 0 -5.291e-4,-5.29e-4 c 0.00206,0.0054 6.085e-4,-0.0033 -0.00827,-0.0217 l 0.00465,0.01085 c -0.0043,-0.01138 -0.00728,-0.02027 -0.00878,-0.02585 a 0.13230189,0.13232441 0 0 0 -0.00103,-0.0036 c 0.00172,0.0057 -0.00246,-0.0076 -0.00259,-0.0093 -0.00362,-0.01405 -0.00532,-0.02257 -0.00568,-0.02482 v 0.0016 c -0.00309,-0.0204 -0.00103,-0.0205 -0.00103,0.0016 a 0.13230189,0.13232441 0 0 0 -0.00156,-0.01757 c -0.00295,-0.02175 -0.0031,-0.02627 -0.0031,-0.01394 a 0.13230189,0.13232441 0 0 0 -0.0031,-0.02843 c 0.00233,0.01061 0.00156,0.01191 0.00156,0.0031 a 0.13230189,0.13232441 0 0 0 -0.00259,-0.02635 h 5.291e-4 a 0.13230189,0.13232441 0 0 0 0,-5.29e-4 c 0,0.0086 0.00206,9.5e-5 0.00206,-0.02635 l -0.0031,0.02791 c 0.00574,-0.02661 0.00465,-0.04529 0.00465,-0.05323 v 0.0088 c 1.899e-4,-0.0028 9.26e-4,-0.0094 0.00259,-0.01913 a 0.13230189,0.13232441 0 0 0 0.00103,-0.0062 c 0.00151,-0.01238 0.00209,-0.0093 -0.00259,0.0057 a 0.13230189,0.13232441 0 0 0 0.00362,-0.01447 c 0.00161,-0.0084 0.00331,-0.01532 0.00517,-0.02223 0.00756,-0.02447 0.0082,-0.0249 5.292e-4,-0.0052 a 0.13230189,0.13232441 0 0 0 0.00362,-0.01138 c 0.00217,-0.0075 0.00536,-0.0168 0.0093,-0.02791 a 0.13230189,0.13232441 0 0 0 0.00206,-0.0072 c 0,0 0,-5.29e-4 0,-5.29e-4 a 0.13230189,0.13232441 0 0 0 0.00156,-0.0026 c 0.00336,-0.0085 0.00622,-0.01556 0.00982,-0.02273 l 0.00103,-0.0021 c 0.00333,-0.0064 0.00581,-0.01135 0.00413,-0.0083 a 0.13230189,0.13232441 0 0 0 0.00156,-0.0026 c 0.00462,-0.0089 0.00985,-0.01812 0.01602,-0.02791 a 0.13230189,0.13232441 0 0 0 0.0031,-0.0057 0.13230189,0.13232441 0 0 0 5.292e-4,-5.29e-4 c 0.00466,-0.0071 0.010618,-0.01603 0.018603,-0.02635 l 0.00103,-0.0011 c 0.00462,-0.0059 0.00938,-0.01228 0.00206,-0.0036 a 0.13230189,0.13232441 0 0 0 0.00259,-0.0031 c 0.00331,-0.0042 0.00434,-0.0057 0.0062,-0.0083 L 4.97996,5.6920766 C 5.063568,5.5924346 5.180457,5.5428755 5.2993129,5.5437433 Z m 6.3338369,0 c 0.11887,-0.00106 0.23673,0.048633 0.320386,0.1483334 l 2.104216,2.5077099 5.29e-4,0.0011 c 0.0019,0.0027 0.0021,0.0042 0.0083,0.01138 -0.0027,-0.0029 -0.0051,-0.005 0.0057,0.0078 0.0066,0.0087 0.01236,0.01635 0.01654,0.02273 a 0.13230189,0.13232441 0 0 0 0.0021,0.0036 0.13230189,0.13232441 0 0 0 0.0016,0.0031 c 0.0062,0.0099 0.01146,0.01908 0.01601,0.02791 a 0.13230189,0.13232441 0 0 0 0.0011,0.0016 c -0.0019,-0.0032 -1.37e-4,0.0011 0.0057,0.01188 0.0032,0.0064 0.0061,0.01357 0.01034,0.02379 a 0.13230189,0.13232441 0 0 0 5.29e-4,0.0011 0.13230189,0.13232441 0 0 0 0.0026,0.0072 c 0.0039,0.01109 0.0066,0.02037 0.0088,0.02791 a 0.13230189,0.13232441 0 0 0 0.0041,0.01138 c -0.0074,-0.01913 -0.0068,-0.01876 5.29e-4,0.0052 l -0.0011,-0.0026 c 0.0021,0.0078 0.0039,0.01585 0.0057,0.02532 a 0.13230189,0.13232441 0 0 0 0.0036,0.01394 c -0.0045,-0.01453 -0.0035,-0.01712 -0.0021,-0.0052 a 0.13230189,0.13232441 0 0 0 0.0011,0.0062 c 0.0016,0.0098 0.0024,0.01648 0.0026,0.01913 V 8.4157 c 0,0.0078 -0.0011,0.02638 0.0047,0.05323 l -0.0031,-0.02843 c 0,0.02646 0.0016,0.03542 0.0016,0.02688 a 0.13230189,0.13232441 0 0 0 0,5.29e-4 c 2.6e-5,0.0089 -5.29e-4,0.0074 0.0011,-5.29e-4 a 0.13230189,0.13232441 0 0 0 -0.0026,0.02688 c 0,0.0089 -0.0013,0.0075 0.0011,-0.0031 a 0.13230189,0.13232441 0 0 0 -0.0026,0.02791 c 0,-0.01236 -1.48e-4,-0.0072 -0.0031,0.01447 a 0.13230189,0.13232441 0 0 0 -0.0016,0.01757 c 0,-0.02222 0.0021,-0.02225 -0.0011,-0.0016 v -0.0016 c -2.64e-4,0.0021 -0.0026,0.01066 -0.0062,0.02482 l 0.0041,-0.01291 c -0.01003,0.02716 -0.01035,0.03601 -0.0062,0.02222 a 0.13230189,0.13232441 0 0 0 -0.0011,0.0036 c -0.0016,0.0056 -0.0045,0.01439 -0.0088,0.02585 l 0.0047,-0.01085 c -0.009,0.01868 -0.01056,0.02708 -0.0083,0.02119 a 0.13230189,0.13232441 0 0 0 -5.3e-4,0.0011 c -0.0016,0.0039 -0.0052,0.01217 -0.0098,0.0217 -0.0083,0.01569 -0.0096,0.01947 -0.0047,0.01034 -0.0062,0.01151 -0.01193,0.02146 -0.01757,0.0305 -2.64e-4,2.65e-4 -0.0033,0.0051 -0.0041,0.0062 -0.0056,0.0087 -0.0123,0.01786 -0.01963,0.02739 l 0.0021,-0.0021 c -0.01236,0.01537 -0.01376,0.0172 -0.0036,0.0052 a 0.13230189,0.13232441 0 0 0 -0.0047,0.0062 c -0.0044,0.0059 -0.0065,0.0088 -0.0057,0.0078 l -2.103182,2.50616 c -0.14871,0.177257 -0.405219,0.19984 -0.58238,0.05117 -0.177183,-0.148699 -0.199341,-0.405236 -0.05064,-0.582481 l 1.810184,-2.158328 a 0.13230189,0.13232441 0 0 0 0,-0.170039 L 11.32002,6.2240797 c -0.148712,-0.1772418 -0.126543,-0.4337791 0.05064,-0.5824776 0.07761,-0.065125 0.170029,-0.096883 0.262511,-0.097684 z M 6.1018524,7.789143 c -0.3733131,0 -0.6779795,0.304721 -0.6779795,0.678095 0,0.373375 0.3046672,0.678093 0.6779795,0.678093 h 4.7293196 c 0.373312,0 0.677979,-0.304718 0.677979,-0.678093 0,-0.373374 -0.304667,-0.678095 -0.677979,-0.678095 z m 0,0.26462 h 4.7293196 c 0.231312,0 0.413402,0.182124 0.413402,0.413475 0,0.231352 -0.182089,0.413473 -0.413402,0.413473 H 6.1018524 c -0.2313141,0 -0.4134022,-0.182121 -0.4134022,-0.413473 0,-0.231351 0.1820891,-0.413475 0.4134022,-0.413475 z" />
    <path
       id="rect1677-6-2-1"
       style="display:inline;fill:#fbfcfd;fill-opacity:1;stroke:none;stroke-width:0;stroke-linecap:round;stroke-linejoin:round;stroke-miterlimit:4;stroke-dasharray:none;stroke-dashoffset:2.1875;stroke-opacity:1"
       d="M 5.3008059,5.4117559 C 5.1437345,5.410433 4.9877062,5.476891 4.8783836,5.6071586 L 2.7737316,8.115403 c -0.00273,0.0037 -0.00562,0.0077 -0.00853,0.01138 -0.00201,0.0024 -0.00333,0.0049 -0.00533,0.0075 -0.00928,0.01196 -0.018177,0.02379 -0.026289,0.03624 -0.00183,0.0026 -0.00334,0.0055 -0.00462,0.0082 -0.00782,0.01241 -0.015049,0.02484 -0.021672,0.03766 -0.00201,0.0037 -0.00368,0.0076 -0.00568,0.01138 -0.00619,0.01206 -0.011433,0.02389 -0.016343,0.03623 -0.00201,0.0047 -0.0037,0.0098 -0.00497,0.01458 -0.00418,0.01177 -0.00827,0.02358 -0.011724,0.03553 -0.00183,0.0047 -0.00209,0.0095 -0.00355,0.01421 -0.00346,0.01222 -0.00616,0.02424 -0.00853,0.03659 -0.00183,0.0058 -0.00212,0.01185 -0.00284,0.01778 -0.00183,0.01074 -0.00353,0.02156 -0.00426,0.03233 0,0.0084 4.26e-5,0.0168 -0.00177,0.02521 0,0.0089 -0.00177,0.01773 -0.00177,0.02665 -1.8e-5,0.0089 -4.23e-5,0.0177 0.00177,0.02665 0,0.0084 -4.26e-5,0.01691 0.00177,0.02521 0,0.01074 0.00281,0.02127 0.00426,0.03198 0,0.0061 0.00193,0.01212 0.00284,0.01812 0.00201,0.01215 0.00543,0.02424 0.00853,0.03624 0.00183,0.0049 0.00209,0.0097 0.00355,0.01458 0.00346,0.01275 0.00806,0.02548 0.01279,0.03802 0.00183,0.0038 0.00281,0.0076 0.00426,0.01138 0.00473,0.01254 0.010694,0.02468 0.016698,0.03695 0.00201,0.0038 0.00333,0.0076 0.00533,0.01138 0.00691,0.01278 0.013959,0.02527 0.021672,0.03766 0.00183,0.0027 0.0037,0.0052 0.00497,0.0078 0.008,0.01243 0.016732,0.02463 0.025934,0.03659 0.00201,0.0024 0.00368,0.005 0.00568,0.0075 0.00273,0.0037 0.00526,0.0078 0.00817,0.01138 l 2.104652,2.50789 c 0.194343,0.23159 0.5372198,0.261827 0.7688159,0.0675 0.2315967,-0.194329 0.2614538,-0.537226 0.067147,-0.768816 L 3.9042147,8.466855 5.7146987,6.308913 C 5.9090235,6.0773232 5.8791481,5.7344232 5.6475514,5.5400947 5.5462327,5.4550788 5.4236779,5.4128909 5.3015132,5.4118432 Z m 6.3310091,0 c -0.122165,0.00106 -0.244701,0.043238 -0.346038,0.1282541 -0.231597,0.1943285 -0.26149,0.5372285 -0.06715,0.7688183 L 13.02911,8.46677 11.218627,10.624714 c -0.194325,0.23159 -0.16445,0.574488 0.06715,0.768816 0.231596,0.194323 0.574491,0.164089 0.768816,-0.0675 l 2.104652,-2.50789 c 0.0029,-0.0036 0.0058,-0.0077 0.0085,-0.01138 0.002,-0.0024 0.0033,-0.005 0.0053,-0.0075 0.0092,-0.01196 0.01793,-0.02416 0.02593,-0.03659 0.0013,-0.0026 0.0032,-0.0051 0.005,-0.0078 0.0077,-0.01238 0.01476,-0.02487 0.02167,-0.03766 0.002,-0.0037 0.0033,-0.0076 0.0053,-0.01138 0.006,-0.01225 0.01197,-0.0244 0.0167,-0.03695 0.0015,-0.0038 0.0024,-0.0076 0.0043,-0.01138 0.0047,-0.01254 0.0093,-0.02527 0.01279,-0.03801 0.0015,-0.0048 0.0017,-0.0097 0.0036,-0.01458 0.0031,-0.01201 0.0065,-0.0241 0.0085,-0.03624 9e-4,-0.006 0.0028,-0.01206 0.0028,-0.01812 0.0015,-0.01069 0.0043,-0.02125 0.0043,-0.03197 0.0018,-0.0083 0.0018,-0.01685 0.0018,-0.02521 0.0018,-0.0089 0.0018,-0.0177 0.0018,-0.02664 0,-0.0089 -0.0018,-0.01773 -0.0018,-0.02665 -0.0018,-0.0084 -0.0018,-0.01685 -0.0018,-0.02521 -7.14e-4,-0.0108 -0.0024,-0.02159 -0.0043,-0.03233 -7.14e-4,-0.0059 -0.001,-0.01193 -0.0028,-0.01778 -0.0024,-0.01236 -0.0051,-0.02437 -0.0085,-0.03659 -0.0015,-0.0047 -0.0017,-0.0095 -0.0036,-0.01421 -0.0035,-0.01196 -0.0075,-0.02376 -0.01172,-0.03553 -0.0013,-0.0047 -0.003,-0.0098 -0.005,-0.01458 -0.0051,-0.01236 -0.01016,-0.02418 -0.01634,-0.03624 -0.002,-0.0037 -0.0037,-0.0076 -0.0057,-0.01138 -0.0066,-0.01283 -0.01385,-0.02524 -0.02167,-0.03766 -0.0013,-0.0026 -0.0028,-0.0056 -0.0046,-0.0082 -0.0081,-0.01243 -0.01701,-0.02429 -0.02629,-0.03624 -0.002,-0.0024 -0.0033,-0.005 -0.0053,-0.0075 -0.0031,-0.0037 -0.0058,-0.0077 -0.0085,-0.01138 L 12.054945,5.6070792 C 11.945622,5.4768116 11.789238,5.4102213 11.632167,5.4116765 Z M 6.1019521,7.921067 c -0.3023195,0 -0.5457031,0.243385 -0.5457031,0.545703 0,0.302321 0.2433836,0.545703 0.5457031,0.545703 h 4.7294269 c 0.30232,0 0.545703,-0.243382 0.545703,-0.545703 0,-0.302318 -0.243383,-0.545703 -0.545703,-0.545703 z" />
  </g>
</svg>
