<?xml version="1.0" encoding="UTF-8" standalone="no"?>
<svg
   xmlns:dc="http://purl.org/dc/elements/1.1/"
   xmlns:cc="http://creativecommons.org/ns#"
   xmlns:rdf="http://www.w3.org/1999/02/22-rdf-syntax-ns#"
   xmlns:svg="http://www.w3.org/2000/svg"
   xmlns="http://www.w3.org/2000/svg"
   xmlns:xlink="http://www.w3.org/1999/xlink"
   xmlns:sodipodi="http://sodipodi.sourceforge.net/DTD/sodipodi-0.dtd"
   xmlns:inkscape="http://www.inkscape.org/namespaces/inkscape"
   width="64"
   height="64"
   viewBox="0 0 16.933333 16.933334"
   version="1.1"
   id="svg841"
   inkscape:version="1.0.2 (e86c870879, 2021-01-15)"
   sodipodi:docname="bluetooth-paired.svg">
  <defs
     id="defs835">
    <linearGradient
       inkscape:collect="always"
       id="linearGradient956">
      <stop
         style="stop-color:#6e96cd;stop-opacity:1;"
         offset="0"
         id="stop952" />
      <stop
         style="stop-color:#5780b7;stop-opacity:1"
         offset="1"
         id="stop954" />
    </linearGradient>
    <linearGradient
       inkscape:collect="always"
       xlink:href="#linearGradient956"
       id="linearGradient865"
       gradientUnits="userSpaceOnUse"
       gradientTransform="translate(-3.1640625e-7,-0.13229133)"
       x1="8.4666672"
       y1="0.52916712"
       x2="8.4666662"
       y2="16.404167" />
  </defs>
  <sodipodi:namedview
     id="base"
     pagecolor="#c4c4c4"
     bordercolor="#666666"
     borderopacity="1.0"
     inkscape:pageopacity="0"
     inkscape:pageshadow="2"
     inkscape:zoom="2.5639145"
     inkscape:cx="-61.544485"
     inkscape:cy="102.60895"
     inkscape:document-units="px"
     inkscape:current-layer="layer1"
     inkscape:document-rotation="0"
     showgrid="false"
     units="px"
     inkscape:window-width="2048"
     inkscape:window-height="1080"
     inkscape:window-x="0"
     inkscape:window-y="0"
     inkscape:window-maximized="1" />
  <metadata
     id="metadata838">
    <rdf:RDF>
      <cc:Work
         rdf:about="">
        <dc:format>image/svg+xml</dc:format>
        <dc:type
           rdf:resource="http://purl.org/dc/dcmitype/StillImage" />
        <dc:title />
      </cc:Work>
    </rdf:RDF>
  </metadata>
  <g
     inkscape:label="Layer 1"
     inkscape:groupmode="layer"
     id="layer1">
    <path
       id="path866-9-1"
       style="color:#000000;font-style:normal;font-variant:normal;font-weight:normal;font-stretch:normal;font-size:medium;line-height:normal;font-family:sans-serif;font-variant-ligatures:normal;font-variant-position:normal;font-variant-caps:normal;font-variant-numeric:normal;font-variant-alternates:normal;font-variant-east-asian:normal;font-feature-settings:normal;font-variation-settings:normal;text-indent:0;text-align:start;text-decoration:none;text-decoration-line:none;text-decoration-style:solid;text-decoration-color:#000000;letter-spacing:normal;word-spacing:normal;text-transform:none;writing-mode:lr-tb;direction:ltr;text-orientation:mixed;dominant-baseline:auto;baseline-shift:baseline;text-anchor:start;white-space:normal;shape-padding:0;shape-margin:0;inline-size:0;clip-rule:nonzero;display:inline;overflow:visible;visibility:visible;opacity:0.15;isolation:auto;mix-blend-mode:normal;color-interpolation:sRGB;color-interpolation-filters:linearRGB;solid-color:#000000;solid-opacity:1;vector-effect:none;fill:#0c0c0c;fill-opacity:1;fill-rule:nonzero;stroke:none;stroke-width:1.00006;stroke-linecap:round;stroke-linejoin:round;stroke-miterlimit:4;stroke-dasharray:none;stroke-dashoffset:2.1875;stroke-opacity:1;color-rendering:auto;image-rendering:auto;shape-rendering:auto;text-rendering:auto;enable-background:accumulate;stop-color:#000000"
       d="m 8.4664073,0.39687567 c -3.7710825,0 -6.7466156,3.71792203 -6.7466156,8.20311803 0,4.4851933 2.9755331,8.2010493 6.7466156,8.2010493 3.7710827,0 6.7471347,-3.715856 6.7471347,-8.2010493 0,-4.485196 -2.976052,-8.20311803 -6.7471347,-8.20311803 z m 0,0.79478403 c 3.2437417,0 5.9538107,3.272134 5.9538107,7.408334 0,4.1361973 -2.710069,7.4083313 -5.9538107,7.4083313 -3.2437415,0 -5.9538076,-3.272134 -5.9538076,-7.4083313 0,-4.1362 2.7100661,-7.408334 5.9538076,-7.408334 z" />
    <path
       id="path866-9-1-2-7"
       style="color:#000000;font-style:normal;font-variant:normal;font-weight:normal;font-stretch:normal;font-size:medium;line-height:normal;font-family:sans-serif;font-variant-ligatures:normal;font-variant-position:normal;font-variant-caps:normal;font-variant-numeric:normal;font-variant-alternates:normal;font-variant-east-asian:normal;font-feature-settings:normal;font-variation-settings:normal;text-indent:0;text-align:start;text-decoration:none;text-decoration-line:none;text-decoration-style:solid;text-decoration-color:#000000;letter-spacing:normal;word-spacing:normal;text-transform:none;writing-mode:lr-tb;direction:ltr;text-orientation:mixed;dominant-baseline:auto;baseline-shift:baseline;text-anchor:start;white-space:normal;shape-padding:0;shape-margin:0;inline-size:0;clip-rule:nonzero;display:inline;overflow:visible;visibility:visible;opacity:0.85;isolation:auto;mix-blend-mode:normal;color-interpolation:sRGB;color-interpolation-filters:linearRGB;solid-color:#000000;solid-opacity:1;vector-effect:none;fill:#314d72;fill-opacity:1;fill-rule:nonzero;stroke:none;stroke-width:1.00006;stroke-linecap:round;stroke-linejoin:round;stroke-miterlimit:4;stroke-dasharray:none;stroke-dashoffset:2.1875;stroke-opacity:1;color-rendering:auto;image-rendering:auto;shape-rendering:auto;text-rendering:auto;enable-background:accumulate;stop-color:#000000"
       d="m 8.4664073,0.13229167 c -3.7710825,0 -6.7466156,3.71792303 -6.7466156,8.20311903 0,4.4851953 2.9755331,8.2010493 6.7466156,8.2010493 3.7710827,0 6.7471347,-3.715854 6.7471347,-8.2010493 0,-4.485196 -2.976052,-8.20311903 -6.7471347,-8.20311903 z m 0,0.794785 c 3.2437417,0 5.9538107,3.27213403 5.9538107,7.40833403 0,4.1361993 -2.710069,7.4083333 -5.9538107,7.4083333 -3.2437415,0 -5.9538076,-3.272134 -5.9538076,-7.4083333 0,-4.1362 2.7100661,-7.40833403 5.9538076,-7.40833403 z" />
    <ellipse
       style="fill:url(#linearGradient865);fill-opacity:1;stroke-width:0.268372;stroke-linecap:round;stroke-linejoin:round;stroke-dashoffset:2.1875;stroke-opacity:0.74902"
       id="path866"
       cx="8.4666672"
       cy="8.3343763"
       rx="6.3500004"
       ry="7.8052087" />
    <path
       id="path866-9-1-2"
       style="color:#000000;font-style:normal;font-variant:normal;font-weight:normal;font-stretch:normal;font-size:medium;line-height:normal;font-family:sans-serif;font-variant-ligatures:normal;font-variant-position:normal;font-variant-caps:normal;font-variant-numeric:normal;font-variant-alternates:normal;font-variant-east-asian:normal;font-feature-settings:normal;font-variation-settings:normal;text-indent:0;text-align:start;text-decoration:none;text-decoration-line:none;text-decoration-style:solid;text-decoration-color:#000000;letter-spacing:normal;word-spacing:normal;text-transform:none;writing-mode:lr-tb;direction:ltr;text-orientation:mixed;dominant-baseline:auto;baseline-shift:baseline;text-anchor:start;white-space:normal;shape-padding:0;shape-margin:0;inline-size:0;clip-rule:nonzero;display:inline;overflow:visible;visibility:visible;opacity:0.15;isolation:auto;mix-blend-mode:normal;color-interpolation:sRGB;color-interpolation-filters:linearRGB;solid-color:#000000;solid-opacity:1;vector-effect:none;fill:#1f3047;fill-opacity:1;fill-rule:nonzero;stroke:none;stroke-width:1.00006;stroke-linecap:round;stroke-linejoin:round;stroke-miterlimit:4;stroke-dasharray:none;stroke-dashoffset:2.1875;stroke-opacity:1;color-rendering:auto;image-rendering:auto;shape-rendering:auto;text-rendering:auto;enable-background:accumulate;stop-color:#000000"
       d="m 8.4664073,0.13229167 c -3.7710825,0 -6.7466156,3.71792303 -6.7466156,8.20311903 0,4.4851953 2.9755331,8.2010493 6.7466156,8.2010493 3.7710827,0 6.7471347,-3.715854 6.7471347,-8.2010493 0,-4.485196 -2.976052,-8.20311903 -6.7471347,-8.20311903 z m 0,0.794785 c 3.2437417,0 5.9538107,3.27213403 5.9538107,7.40833403 0,4.1361993 -2.710069,7.4083333 -5.9538107,7.4083333 -3.2437415,0 -5.9538076,-3.272134 -5.9538076,-7.4083333 0,-4.1362 2.7100661,-7.40833403 5.9538076,-7.40833403 z" />
    <path
       id="path976-6-8-2-6-7-5-5-9-7"
       style="display:inline;opacity:0.35;fill:#1f3047;fill-opacity:1;stroke-width:0;stroke-linejoin:round"
       d="m 8.0057363,3.5535297 a 0.31231566,0.31217953 0 0 0 -0.010716,1.7e-4 0.31231566,0.31217953 0 0 0 -0.3020165,0.312142 v 0.390583 3.681749 l -1.425411,-1.376008 a 0.31231566,0.31217953 0 0 0 -0.4414759,0.0077 l -0.1951963,0.201998 a 0.31231566,0.31217953 0 0 0 0.00759,0.441293 l 1.8353943,1.77188 -1.8150576,1.4689773 a 0.31231566,0.31217953 0 0 0 -0.042579,0.443526 l 0.1805305,0.215109 a 0.31231566,0.31217953 0 0 0 0.4357079,0.04185 L 7.692882,9.9725017 v 3.2850503 a 0.31231566,0.31217953 0 0 0 0,0.01151 0.31231566,0.31217953 0 0 0 0,0.01344 v 0.482346 0.361841 a 0.31231566,0.31217953 0 0 0 0.5086695,0.242337 l 0.2812763,-0.227406 0.172108,-0.139407 0.192543,-0.155871 2.2064242,-1.7858 0.220586,-0.178633 a 0.31231566,0.31217953 0 0 0 0.02032,-0.466998 L 11.090791,11.217954 9.0483241,9.2466177 8.8393301,9.0450207 a 0.31231566,0.31217953 0 0 0 0.0081,-0.0065 l 2.2064209,-1.785795 0.220605,-0.178226 a 0.31231566,0.31217953 0 0 0 0.02032,-0.467304 L 11.090881,6.4101167 9.0484141,4.4387757 8.5032511,3.9123317 8.2219541,3.6411357 a 0.31231566,0.31217953 0 0 0 -0.2128576,-0.08769 0.31231566,0.31217953 0 0 0 -0.00323,0 z m 0.5928408,1.710307 1.5840949,1.528826 -1.5840949,1.281909 z m 0,4.8073813 1.5840949,1.52923 -1.5840949,1.281912 z" />
    <path
       id="path976-6-8-2-6-7-5-5-0-3-3"
       style="color:#000000;font-style:normal;font-variant:normal;font-weight:normal;font-stretch:normal;font-size:medium;line-height:normal;font-family:sans-serif;font-variant-ligatures:normal;font-variant-position:normal;font-variant-caps:normal;font-variant-numeric:normal;font-variant-alternates:normal;font-variant-east-asian:normal;font-feature-settings:normal;font-variation-settings:normal;text-indent:0;text-align:start;text-decoration:none;text-decoration-line:none;text-decoration-style:solid;text-decoration-color:#000000;letter-spacing:normal;word-spacing:normal;text-transform:none;writing-mode:lr-tb;direction:ltr;text-orientation:mixed;dominant-baseline:auto;baseline-shift:baseline;text-anchor:start;white-space:normal;shape-padding:0;shape-margin:0;inline-size:0;clip-rule:nonzero;display:inline;overflow:visible;visibility:visible;opacity:0.75;isolation:auto;mix-blend-mode:normal;color-interpolation:sRGB;color-interpolation-filters:linearRGB;solid-color:#000000;solid-opacity:1;vector-effect:none;fill:#1f3047;fill-opacity:1;fill-rule:nonzero;stroke:none;stroke-width:1.00024;stroke-linecap:round;stroke-linejoin:round;stroke-miterlimit:4;stroke-dasharray:none;stroke-dashoffset:0;stroke-opacity:1;color-rendering:auto;image-rendering:auto;shape-rendering:auto;text-rendering:auto;enable-background:accumulate;stop-color:#000000"
       d="m 7.9909725,2.7597017 a 0.13232518,0.1323477 0 0 0 -0.033081,0.0078 l 0.03153,-0.0041 c -0.2361401,0.01034 -0.4280477,0.202975 -0.4279471,0.439901 v 0.390803 3.371943 L 6.3598136,5.8054667 c -0.1755193,-0.169347 -0.459494,-0.163479 -0.6289993,0.01188 l -0.1953657,0.201086 c -0.1694418,0.175438 -0.1655604,0.459605 0.00979,0.629105 l 1.7288401,1.668656 -1.6993818,1.375556 C 5.3825803,9.8472077 5.3551774,10.133244 5.5142259,10.322405 l 0.1814142,0.215043 c 0.1550062,0.184528 0.4318741,0.212111 0.6191779,0.06048 L 7.5614448,9.5878447 V 12.59897 c -6.62e-5,0.0048 -9e-5,0.0087 0,0.01344 -3.97e-5,0.0045 -9.79e-5,0.009 0,0.01344 v 0.478679 0.363405 c 5.291e-4,0.364649 0.4389623,0.575029 0.7225458,0.345826 a 0.13232518,0.1323477 0 0 0 0,-0.0016 l 0.28168,-0.226934 0.17366,-0.138538 0.191232,-0.156112 2.2074374,-1.785999 0.220691,-0.179892 c 0.205597,-0.166646 0.219816,-0.480389 0.02946,-0.664255 L 11.182966,10.4635 9.1398826,8.4898527 l -0.101817,-0.0977 2.0999354,-1.697601 0.220691,-0.177826 c 0.205912,-0.166659 0.220136,-0.482426 0.02946,-0.666324 L 11.182967,5.6529337 9.1398831,3.6818727 8.5946141,3.1540867 8.3134521,2.8826987 c -0.08141,-0.07866 -0.1896826,-0.12151 -0.3028713,-0.123031 -0.00106,-5e-6 -0.00265,0 -0.0036,0 -5.292e-4,0 -0.00132,-3e-6 -0.00212,0 -0.0045,1.3e-5 -0.0095,-1.48e-4 -0.01397,0 z m 0.00781,0.263636 c 0.00212,-6.8e-5 0.0041,-2e-6 0.00619,0 a 0.13232518,0.1323477 0 0 0 0.00212,0 h 0.00159 c 0.045231,0.0011 0.088911,0.01921 0.1214597,0.05066 l 0.2811619,0.271907 0.544753,0.525201 2.0435989,1.973646 0.203118,0.1954 a 0.13232518,0.1323477 0 0 0 0.0021,0.0016 c 0.07948,0.07666 0.07395,0.198292 -0.01188,0.267769 l -0.22071,0.17989 -2.2074369,1.78548 c -0.0016,0.0013 -0.0041,0.0029 -0.0057,0.0041 a 0.13232518,0.1323477 0 0 0 -0.01188,0.201086 l 0.208806,0.201602 2.0435999,1.9710613 0.203118,0.197466 c 0.07934,0.07664 0.07381,0.199856 -0.01188,0.269322 l -0.218626,0.177827 -2.2074369,1.788065 -0.193299,0.154045 -0.172109,0.140605 -0.2811621,0.226933 c -0.124632,0.100723 -0.2928302,0.02108 -0.2930525,-0.139064 v -0.363402 -0.480229 a 0.13232518,0.1323477 0 0 0 0,-0.0041 c -5.55e-5,-0.0026 -5.55e-5,-0.0052 0,-0.0078 a 0.13232518,0.1323477 0 0 0 0,-0.0057 c -3.97e-5,-0.0021 -3.97e-5,-0.004 0,-0.0062 a 0.13232518,0.1323477 0 0 0 0,-0.0016 V 9.3122587 A 0.13232518,0.1323477 0 0 0 7.610118,9.2088727 L 6.1490015,10.391095 c -0.077449,0.0627 -0.1876213,0.05251 -0.2517008,-0.02379 L 5.717437,10.152785 C 5.651558,10.074435 5.661097,9.9607957 5.740694,9.8963877 l 1.8167058,-1.46912 a 0.13232518,0.1323477 0 0 0 0.00781,-0.19902 l -1.8342743,-1.77206 c -0.07258,-0.07015 -0.0758,-0.181734 -0.00571,-0.254331 l 0.1953634,-0.201086 c 0.070141,-0.07257 0.1832001,-0.07577 0.2558362,-0.0057 l 1.4239055,1.377106 a 0.13232518,0.1323477 0 0 0 0.224827,-0.09563 v -3.682623 -0.3908 c -4.23e-5,-0.09849 0.07511,-0.176641 0.1736593,-0.179893 z m 0.5938476,1.44534 a 0.13232518,0.1323477 0 0 0 -0.126627,0.133368 v 2.811592 a 0.13232518,0.1323477 0 0 0 0.216559,0.103386 l 1.5841229,-1.283541 a 0.13232518,0.1323477 0 0 0 0.0083,-0.197469 L 8.6903031,4.5064147 a 0.13232518,0.1323477 0 0 0 -0.08166,-0.03722 0.13232518,0.1323477 0 0 0 -0.01603,-5.29e-4 z m 0.13903,0.446114 1.251797,1.207034 -1.251797,1.012151 z m -0.141097,4.363418 a 0.13232518,0.1323477 0 0 0 -0.01344,0.0011 0.13232518,0.1323477 0 0 0 -0.111122,0.130781 v 2.8136573 a 0.13232518,0.1323477 0 0 0 0.216559,0.101319 l 1.5841259,-1.281472 a 0.13232518,0.1323477 0 0 0 0.0083,-0.197469 L 8.6902741,9.3164897 a 0.13232518,0.1323477 0 0 0 -0.09975,-0.03825 z m 0.141097,0.444561 1.251797,1.2096193 -1.251797,1.011635 z" />
    <path
       id="path976-6-8-2-6-7-5-5-6"
       style="display:inline;fill:#90f2dd;fill-opacity:1;stroke-width:0;stroke-linejoin:round"
       d="m 8.0057363,2.8920567 a 0.31231566,0.31217953 0 0 0 -0.010716,1.7e-4 0.31231566,0.31217953 0 0 0 -0.3020165,0.312142 v 0.390583 3.681749 l -1.425411,-1.376008 a 0.31231566,0.31217953 0 0 0 -0.4414759,0.0077 l -0.195196,0.201998 a 0.31231566,0.31217953 0 0 0 0.00759,0.441293 l 1.8353943,1.771878 -1.8150576,1.46898 a 0.31231566,0.31217953 0 0 0 -0.042579,0.4435263 l 0.1805305,0.215109 a 0.31231566,0.31217953 0 0 0 0.4357079,0.04185 L 7.6928823,9.3110287 V 12.59608 a 0.31231566,0.31217953 0 0 0 0,0.01151 0.31231566,0.31217953 0 0 0 0,0.01344 v 0.482346 0.361839 a 0.31231566,0.31217953 0 0 0 0.5086695,0.24234 l 0.2812763,-0.227407 0.172108,-0.139406 0.192543,-0.155872 2.2064239,-1.7858 0.220586,-0.178633 a 0.31231566,0.31217953 0 0 0 0.02032,-0.467 L 11.090791,10.556481 9.0483271,8.5851447 8.8393301,8.3835477 a 0.31231566,0.31217953 0 0 0 0.0081,-0.0065 l 2.2064209,-1.785795 0.220605,-0.178226 a 0.31231566,0.31217953 0 0 0 0.02037,-0.467303 L 11.090881,5.7486447 9.0484171,3.7773027 8.5032511,3.2508587 8.2219541,2.9796637 a 0.31231566,0.31217953 0 0 0 -0.2128576,-0.08769 0.31231566,0.31217953 0 0 0 -0.00323,0 z m 0.5928408,1.710307 1.5840949,1.528826 -1.5840949,1.281909 z m 0,4.807381 1.5840949,1.5292313 -1.5840949,1.281909 z" />
  </g>
</svg>
