<?xml version="1.0" encoding="UTF-8" standalone="no"?>
<svg
   xmlns:dc="http://purl.org/dc/elements/1.1/"
   xmlns:cc="http://creativecommons.org/ns#"
   xmlns:rdf="http://www.w3.org/1999/02/22-rdf-syntax-ns#"
   xmlns:svg="http://www.w3.org/2000/svg"
   xmlns="http://www.w3.org/2000/svg"
   xmlns:xlink="http://www.w3.org/1999/xlink"
   xmlns:sodipodi="http://sodipodi.sourceforge.net/DTD/sodipodi-0.dtd"
   xmlns:inkscape="http://www.inkscape.org/namespaces/inkscape"
   width="64"
   height="64"
   viewBox="0 0 16.933333 16.933334"
   version="1.1"
   id="svg841"
   inkscape:version="1.0.2 (e86c870879, 2021-01-15)"
   sodipodi:docname="bluetooth-disabled.svg">
  <defs
     id="defs835">
    <linearGradient
       inkscape:collect="always"
       xlink:href="#linearGradient956"
       id="linearGradient958"
       x1="8.4666672"
       y1="0.52916712"
       x2="8.4666662"
       y2="16.404167"
       gradientUnits="userSpaceOnUse"
       gradientTransform="translate(-2.6406251e-8,-0.13229173)" />
    <linearGradient
       inkscape:collect="always"
       id="linearGradient956">
      <stop
         style="stop-color:#6e96cd;stop-opacity:1;"
         offset="0"
         id="stop952" />
      <stop
         style="stop-color:#5780b7;stop-opacity:1"
         offset="1"
         id="stop954" />
    </linearGradient>
    <linearGradient
       inkscape:collect="always"
       xlink:href="#linearGradient979-8"
       id="linearGradient2147"
       gradientUnits="userSpaceOnUse"
       gradientTransform="matrix(0.62500001,0,0,0.62499985,7.5406251,-9.260417)"
       x1="8.3343754"
       y1="37.041672"
       x2="8.598959"
       y2="29.104166" />
    <linearGradient
       inkscape:collect="always"
       id="linearGradient979-8">
      <stop
         style="stop-color:#f9f9f7;stop-opacity:0"
         offset="0"
         id="stop975-7" />
      <stop
         style="stop-color:#f9f9f7;stop-opacity:0.1"
         offset="1"
         id="stop977-9" />
    </linearGradient>
  </defs>
  <sodipodi:namedview
     id="base"
     pagecolor="#c4c4c4"
     bordercolor="#666666"
     borderopacity="1.0"
     inkscape:pageopacity="0"
     inkscape:pageshadow="2"
     inkscape:zoom="4.6403002"
     inkscape:cx="7.3395796"
     inkscape:cy="70.956164"
     inkscape:document-units="px"
     inkscape:current-layer="layer1"
     inkscape:document-rotation="0"
     showgrid="false"
     units="px"
     inkscape:window-width="2048"
     inkscape:window-height="1080"
     inkscape:window-x="0"
     inkscape:window-y="0"
     inkscape:window-maximized="1" />
  <metadata
     id="metadata838">
    <rdf:RDF>
      <cc:Work
         rdf:about="">
        <dc:format>image/svg+xml</dc:format>
        <dc:type
           rdf:resource="http://purl.org/dc/dcmitype/StillImage" />
        <dc:title />
      </cc:Work>
    </rdf:RDF>
  </metadata>
  <g
     inkscape:label="Layer 1"
     inkscape:groupmode="layer"
     id="layer1">
    <path
       id="path866-9-1"
       style="color:#000000;font-style:normal;font-variant:normal;font-weight:normal;font-stretch:normal;font-size:medium;line-height:normal;font-family:sans-serif;font-variant-ligatures:normal;font-variant-position:normal;font-variant-caps:normal;font-variant-numeric:normal;font-variant-alternates:normal;font-variant-east-asian:normal;font-feature-settings:normal;font-variation-settings:normal;text-indent:0;text-align:start;text-decoration:none;text-decoration-line:none;text-decoration-style:solid;text-decoration-color:#000000;letter-spacing:normal;word-spacing:normal;text-transform:none;writing-mode:lr-tb;direction:ltr;text-orientation:mixed;dominant-baseline:auto;baseline-shift:baseline;text-anchor:start;white-space:normal;shape-padding:0;shape-margin:0;inline-size:0;clip-rule:nonzero;display:inline;overflow:visible;visibility:visible;opacity:0.15;isolation:auto;mix-blend-mode:normal;color-interpolation:sRGB;color-interpolation-filters:linearRGB;solid-color:#000000;solid-opacity:1;vector-effect:none;fill:#0c0c0c;fill-opacity:1;fill-rule:nonzero;stroke:none;stroke-width:1.00006;stroke-linecap:round;stroke-linejoin:round;stroke-miterlimit:4;stroke-dasharray:none;stroke-dashoffset:2.1875;stroke-opacity:1;color-rendering:auto;image-rendering:auto;shape-rendering:auto;text-rendering:auto;enable-background:accumulate;stop-color:#000000"
       d="m 8.4664076,0.39687497 c -3.7710825,0 -6.7466159,3.71792253 -6.7466159,8.20311803 0,4.485193 2.9755334,8.201049 6.7466159,8.201049 3.7710824,0 6.7471344,-3.715856 6.7471344,-8.201049 0,-4.4851955 -2.976052,-8.20311803 -6.7471344,-8.20311803 z m 0,0.79478463 c 3.2437414,0 5.9538104,3.2721339 5.9538104,7.4083334 0,4.136197 -2.710069,7.408331 -5.9538104,7.408331 -3.2437415,0 -5.9538078,-3.272134 -5.9538078,-7.408331 0,-4.1361995 2.7100663,-7.4083334 5.9538078,-7.4083334 z" />
    <path
       id="path866-9-1-2-7"
       style="color:#000000;font-style:normal;font-variant:normal;font-weight:normal;font-stretch:normal;font-size:medium;line-height:normal;font-family:sans-serif;font-variant-ligatures:normal;font-variant-position:normal;font-variant-caps:normal;font-variant-numeric:normal;font-variant-alternates:normal;font-variant-east-asian:normal;font-feature-settings:normal;font-variation-settings:normal;text-indent:0;text-align:start;text-decoration:none;text-decoration-line:none;text-decoration-style:solid;text-decoration-color:#000000;letter-spacing:normal;word-spacing:normal;text-transform:none;writing-mode:lr-tb;direction:ltr;text-orientation:mixed;dominant-baseline:auto;baseline-shift:baseline;text-anchor:start;white-space:normal;shape-padding:0;shape-margin:0;inline-size:0;clip-rule:nonzero;display:inline;overflow:visible;visibility:visible;opacity:0.85;isolation:auto;mix-blend-mode:normal;color-interpolation:sRGB;color-interpolation-filters:linearRGB;solid-color:#000000;solid-opacity:1;vector-effect:none;fill:#314d72;fill-opacity:1;fill-rule:nonzero;stroke:none;stroke-width:1.00006;stroke-linecap:round;stroke-linejoin:round;stroke-miterlimit:4;stroke-dasharray:none;stroke-dashoffset:2.1875;stroke-opacity:1;color-rendering:auto;image-rendering:auto;shape-rendering:auto;text-rendering:auto;enable-background:accumulate;stop-color:#000000"
       d="m 8.4664076,0.13229167 c -3.7710825,0 -6.7466159,3.71792243 -6.7466159,8.20311833 0,4.485195 2.9755334,8.201049 6.7466159,8.201049 3.7710824,0 6.7471344,-3.715854 6.7471344,-8.201049 0,-4.4851959 -2.976052,-8.20311833 -6.7471344,-8.20311833 z m 0,0.7947845 c 3.2437414,0 5.9538104,3.27213393 5.9538104,7.40833383 0,4.136199 -2.710069,7.408333 -5.9538104,7.408333 -3.2437415,0 -5.9538078,-3.272134 -5.9538078,-7.408333 0,-4.1361999 2.7100663,-7.40833383 5.9538078,-7.40833383 z" />
    <ellipse
       style="fill:url(#linearGradient958);fill-opacity:1;stroke-width:0.268372;stroke-linecap:round;stroke-linejoin:round;stroke-dashoffset:2.1875;stroke-opacity:0.74902"
       id="path866"
       cx="8.4666662"
       cy="8.3343754"
       rx="6.3500009"
       ry="7.8052087" />
    <path
       id="path976-6-8-2-6-7-5-5-9"
       style="display:inline;opacity:0.35;fill:#1f3047;fill-opacity:1;stroke-width:0;stroke-linejoin:round"
       d="M 8.0057362,3.5534389 A 0.31231566,0.31217953 0 0 0 7.9950206,3.5536109 0.31231566,0.31217953 0 0 0 7.693004,3.8657531 V 4.2563363 7.938085 L 6.267593,6.5620769 a 0.31231566,0.31217953 0 0 0 -0.4414758,0.0077 L 5.6309209,6.7717751 a 0.31231566,0.31217953 0 0 0 0.00759,0.4412933 L 7.4739044,8.984949 5.6588468,10.453923 a 0.31231566,0.31217953 0 0 0 -0.042579,0.443529 l 0.1805305,0.215109 a 0.31231566,0.31217953 0 0 0 0.4357079,0.04185 L 7.692885,9.972413 v 3.285051 a 0.31231566,0.31217953 0 0 0 0,0.01151 0.31231566,0.31217953 0 0 0 0,0.01344 v 0.482346 0.361839 a 0.31231566,0.31217953 0 0 0 0.5086694,0.24234 l 0.2812759,-0.227407 0.1721088,-0.139406 0.1925426,-0.155874 2.2064243,-1.7858 0.220585,-0.178631 a 0.31231566,0.31217953 0 0 0 0.02032,-0.467 L 11.090794,11.217865 9.0483269,9.246529 8.8393325,9.044932 a 0.31231566,0.31217953 0 0 0 0.00815,-0.0065 l 2.2064215,-1.7857951 0.220607,-0.178226 a 0.31231566,0.31217953 0 0 0 0.02032,-0.4673045 L 11.090884,6.4100315 9.0484169,4.4386898 8.5032535,3.9122457 8.2219564,3.6410478 a 0.31231566,0.31217953 0 0 0 -0.2128573,-0.087686 0.31231566,0.31217953 0 0 0 -0.00323,0 z M 8.5985775,5.263748 10.182672,6.792574 8.5985775,8.074483 Z m 0,4.807381 1.5840945,1.529231 -1.5840945,1.281909 z" />
    <path
       id="path976-6-8-2-6-7-5-5-0-3"
       style="color:#000000;font-style:normal;font-variant:normal;font-weight:normal;font-stretch:normal;font-size:medium;line-height:normal;font-family:sans-serif;font-variant-ligatures:normal;font-variant-position:normal;font-variant-caps:normal;font-variant-numeric:normal;font-variant-alternates:normal;font-variant-east-asian:normal;font-feature-settings:normal;font-variation-settings:normal;text-indent:0;text-align:start;text-decoration:none;text-decoration-line:none;text-decoration-style:solid;text-decoration-color:#000000;letter-spacing:normal;word-spacing:normal;text-transform:none;writing-mode:lr-tb;direction:ltr;text-orientation:mixed;dominant-baseline:auto;baseline-shift:baseline;text-anchor:start;white-space:normal;shape-padding:0;shape-margin:0;inline-size:0;clip-rule:nonzero;display:inline;overflow:visible;visibility:visible;opacity:0.75;isolation:auto;mix-blend-mode:normal;color-interpolation:sRGB;color-interpolation-filters:linearRGB;solid-color:#000000;solid-opacity:1;vector-effect:none;fill:#1f3047;fill-opacity:1;fill-rule:nonzero;stroke:none;stroke-width:1.00024;stroke-linecap:round;stroke-linejoin:round;stroke-miterlimit:4;stroke-dasharray:none;stroke-dashoffset:0;stroke-opacity:1;color-rendering:auto;image-rendering:auto;shape-rendering:auto;text-rendering:auto;enable-background:accumulate;stop-color:#000000"
       d="m 7.9909725,2.7596122 a 0.13232518,0.1323477 0 0 0 -0.033081,0.00781 l 0.03153,-0.0041 C 7.7532814,2.7736615 7.5613738,2.9662914 7.5614744,3.2032179 V 3.5940207 6.9659634 L 6.3598136,5.8053712 C 6.1842943,5.6360247 5.9003196,5.6418931 5.7308143,5.817251 L 5.5354486,6.018337 C 5.3660068,6.1937743 5.3698882,6.4779421 5.5452386,6.6474421 L 7.274079,8.316098 5.5746973,9.691653 c -0.1921166,0.155459 -0.2195195,0.441495 -0.060471,0.630656 l 0.1814142,0.215043 c 0.1550061,0.184528 0.4318741,0.212111 0.6191779,0.06048 L 7.5614452,9.587748 v 3.011125 c -6.62e-5,0.0048 -9e-5,0.0087 0,0.01344 -3.97e-5,0.0045 -9.79e-5,0.009 0,0.01344 v 0.478678 0.363406 c 5.291e-4,0.364648 0.4389622,0.575029 0.7225453,0.345826 a 0.13232518,0.1323477 0 0 0 0,-0.0016 l 0.2816807,-0.22693 0.1736593,-0.138541 0.1912329,-0.156112 2.2074376,-1.785999 0.220691,-0.179892 c 0.205598,-0.166643 0.219816,-0.480389 0.02946,-0.664255 L 11.182968,10.463404 9.1398842,8.489758 9.0380673,8.392058 11.138002,6.6944568 11.358693,6.5166303 c 0.205912,-0.1666584 0.220136,-0.4824254 0.02946,-0.666324 L 11.182967,5.6528548 9.1398833,3.6817936 8.5946141,3.154008 8.313452,2.8826196 C 8.2320423,2.803959 8.1237695,2.7611097 8.0105808,2.7595884 c -0.00106,-5.3e-6 -0.00265,0 -0.0036,0 -5.291e-4,0 -0.00132,-2.7e-6 -0.00212,0 -0.0045,1.32e-5 -0.0095,-1.482e-4 -0.01397,0 z m 0.00781,0.2636361 c 0.00212,-6.88e-5 0.0041,-2.6e-6 0.00619,0 a 0.13232518,0.1323477 0 0 0 0.00212,0 h 0.00159 c 0.04523,0.00106 0.088911,0.019209 0.1214596,0.05066 l 0.2811622,0.271907 0.5447533,0.5252006 2.0435994,1.9736462 0.203118,0.1954 a 0.13232518,0.1323477 0 0 0 0.0021,0.00159 c 0.07948,0.076658 0.07395,0.198292 -0.01188,0.267769 L 10.972292,6.4893086 8.764855,8.274788 c -0.00159,0.0013 -0.0041,0.0029 -0.00569,0.0041 a 0.13232518,0.1323477 0 0 0 -0.01188,0.201086 l 0.2088065,0.201602 2.0435995,1.971062 0.203118,0.197466 c 0.07934,0.07664 0.07381,0.199856 -0.01188,0.269322 l -0.218623,0.177827 -2.2074368,1.788064 -0.1932993,0.154046 -0.1721088,0.140605 -0.2811621,0.226933 c -0.124632,0.100732 -0.2928303,0.02109 -0.2930525,-0.139054 v -0.363403 -0.480229 a 0.13232518,0.1323477 0 0 0 0,-0.0041 c -5.56e-5,-0.0026 -5.56e-5,-0.0052 0,-0.0078 a 0.13232518,0.1323477 0 0 0 0,-0.0057 c -3.97e-5,-0.0021 -3.97e-5,-0.004 0,-0.0062 a 0.13232518,0.1323477 0 0 0 0,-0.0016 V 9.312193 A 0.13232518,0.1323477 0 0 0 7.6101286,9.208807 l -1.4611165,1.182222 c -0.077449,0.0627 -0.1876214,0.05251 -0.2517008,-0.02379 L 5.7174475,10.152724 c -0.065879,-0.07835 -0.05634,-0.191989 0.023257,-0.256397 l 1.816706,-1.46912 a 0.13232518,0.1323477 0 0 0 0.00781,-0.19902 L 5.7309413,6.4561272 c -0.07258,-0.070152 -0.0758,-0.1817344 -0.00572,-0.2543308 l 0.195363,-0.2010859 c 0.070141,-0.07257 0.1832002,-0.075771 0.2558363,-0.00569 L 7.6003261,7.372127 a 0.13232518,0.1323477 0 0 0 0.224827,-0.09563 V 3.5938752 3.203075 c -4.23e-5,-0.098491 0.07511,-0.1766411 0.1736593,-0.1798928 z m 0.593852,1.4453394 A 0.13232518,0.1323477 0 0 0 8.4659975,4.6019562 V 7.413548 A 0.13232518,0.1323477 0 0 0 8.6825563,7.516934 L 10.26668,6.233393 a 0.13232518,0.1323477 0 0 0 0.0083,-0.1974691 L 8.6903059,4.5063252 A 0.13232518,0.1323477 0 0 0 8.6086476,4.4691037 0.13232518,0.1323477 0 0 0 8.5926138,4.4685745 Z M 8.7316603,4.9147017 9.983457,6.1217362 8.7316603,7.1338865 Z M 8.5905633,9.27812 A 0.13232518,0.1323477 0 0 0 8.5771223,9.27922 0.13232518,0.1323477 0 0 0 8.4659999,9.41 v 2.813659 a 0.13232518,0.1323477 0 0 0 0.2165588,0.10132 L 10.26668,11.043504 a 0.13232518,0.1323477 0 0 0 0.0083,-0.19747 L 8.6902768,9.316397 a 0.13232518,0.1323477 0 0 0 -0.09975,-0.03825 z m 0.141097,0.444561 1.2517967,1.20962 -1.2517967,1.011634 z" />
    <path
       id="path976-6-8-2-6-7-5-5"
       style="display:inline;fill:#e9e8e7;fill-opacity:1;stroke-width:0;stroke-linejoin:round"
       d="M 8.0057362,2.8919673 A 0.31231566,0.31217953 0 0 0 7.9950206,2.8921367 0.31231566,0.31217953 0 0 0 7.693004,3.2042789 V 3.5948621 7.276611 L 6.267593,5.9006027 a 0.31231566,0.31217953 0 0 0 -0.4414758,0.0077 L 5.6309209,6.1103009 a 0.31231566,0.31217953 0 0 0 0.00759,0.4412932 L 7.4739017,8.323472 5.6588441,9.792452 a 0.31231566,0.31217953 0 0 0 -0.042579,0.443526 l 0.1805305,0.215109 a 0.31231566,0.31217953 0 0 0 0.4357079,0.04185 L 7.692885,9.310939 v 3.285051 a 0.31231566,0.31217953 0 0 0 0,0.01151 0.31231566,0.31217953 0 0 0 0,0.01344 v 0.482346 0.361839 a 0.31231566,0.31217953 0 0 0 0.5086694,0.24234 l 0.2812759,-0.227407 0.1721088,-0.139406 0.1925426,-0.155872 2.2064243,-1.785799 0.220585,-0.178634 a 0.31231566,0.31217953 0 0 0 0.02032,-0.467 L 11.090794,10.556391 9.0483295,8.585055 8.8393325,8.383458 a 0.31231566,0.31217953 0 0 0 0.00815,-0.0065 L 11.053903,6.5911546 11.274507,6.4129287 a 0.31231566,0.31217953 0 0 0 0.02032,-0.4673045 L 11.090884,5.7485546 9.0484195,3.7772129 8.5032535,3.2507688 8.2219564,2.9795735 a 0.31231566,0.31217953 0 0 0 -0.2128573,-0.087688 0.31231566,0.31217953 0 0 0 -0.00323,0 z M 8.5985775,4.6022737 10.182672,6.1310998 8.5985775,7.413009 Z m 0,4.8073813 1.5840945,1.529231 -1.5840945,1.281909 z" />
    <path
       id="path866-9-1-2"
       style="color:#000000;font-style:normal;font-variant:normal;font-weight:normal;font-stretch:normal;font-size:medium;line-height:normal;font-family:sans-serif;font-variant-ligatures:normal;font-variant-position:normal;font-variant-caps:normal;font-variant-numeric:normal;font-variant-alternates:normal;font-variant-east-asian:normal;font-feature-settings:normal;font-variation-settings:normal;text-indent:0;text-align:start;text-decoration:none;text-decoration-line:none;text-decoration-style:solid;text-decoration-color:#000000;letter-spacing:normal;word-spacing:normal;text-transform:none;writing-mode:lr-tb;direction:ltr;text-orientation:mixed;dominant-baseline:auto;baseline-shift:baseline;text-anchor:start;white-space:normal;shape-padding:0;shape-margin:0;inline-size:0;clip-rule:nonzero;display:inline;overflow:visible;visibility:visible;opacity:0.15;isolation:auto;mix-blend-mode:normal;color-interpolation:sRGB;color-interpolation-filters:linearRGB;solid-color:#000000;solid-opacity:1;vector-effect:none;fill:#1f3047;fill-opacity:1;fill-rule:nonzero;stroke:none;stroke-width:1.00006;stroke-linecap:round;stroke-linejoin:round;stroke-miterlimit:4;stroke-dasharray:none;stroke-dashoffset:2.1875;stroke-opacity:1;color-rendering:auto;image-rendering:auto;shape-rendering:auto;text-rendering:auto;enable-background:accumulate;stop-color:#000000"
       d="m 8.4664076,0.13229167 c -3.7710825,0 -6.7466159,3.71792243 -6.7466159,8.20311833 0,4.485195 2.9755334,8.201049 6.7466159,8.201049 3.7710824,0 6.7471344,-3.715854 6.7471344,-8.201049 0,-4.4851959 -2.976052,-8.20311833 -6.7471344,-8.20311833 z m 0,0.7947845 c 3.2437414,0 5.9538104,3.27213393 5.9538104,7.40833383 0,4.136199 -2.710069,7.408333 -5.9538104,7.408333 -3.2437415,0 -5.9538078,-3.272134 -5.9538078,-7.408333 0,-4.1361999 2.7100663,-7.40833383 5.9538078,-7.40833383 z" />
    <path
       id="path1181-0-2-9-62-2-2-7-7-2-7-3-5-6-3"
       style="color:#000000;font-style:normal;font-variant:normal;font-weight:normal;font-stretch:normal;font-size:medium;line-height:normal;font-family:sans-serif;font-variant-ligatures:normal;font-variant-position:normal;font-variant-caps:normal;font-variant-numeric:normal;font-variant-alternates:normal;font-variant-east-asian:normal;font-feature-settings:normal;font-variation-settings:normal;text-indent:0;text-align:start;text-decoration:none;text-decoration-line:none;text-decoration-style:solid;text-decoration-color:#000000;letter-spacing:normal;word-spacing:normal;text-transform:none;writing-mode:lr-tb;direction:ltr;text-orientation:mixed;dominant-baseline:auto;baseline-shift:baseline;text-anchor:start;white-space:normal;shape-padding:0;shape-margin:0;inline-size:0;clip-rule:nonzero;display:inline;overflow:visible;visibility:visible;opacity:0.25;isolation:auto;mix-blend-mode:normal;color-interpolation:sRGB;color-interpolation-filters:linearRGB;solid-color:#000000;solid-opacity:1;vector-effect:none;fill:#0c0c0c;fill-opacity:1;fill-rule:nonzero;stroke:none;stroke-width:0;stroke-linecap:round;stroke-linejoin:round;stroke-miterlimit:4;stroke-dasharray:none;stroke-dashoffset:2.1875;stroke-opacity:1;color-rendering:auto;image-rendering:auto;shape-rendering:auto;text-rendering:auto;enable-background:accumulate;stop-color:#000000"
       d="m 12.832292,8.8635391 c -2.189123,0 -3.9687502,1.7798759 -3.9687502,3.9689249 0,2.18902 1.7796272,3.968578 3.9687502,3.968578 2.18912,0 3.96875,-1.779558 3.96875,-3.968578 0,-2.189049 -1.77963,-3.9689249 -3.96875,-3.9689249 z m 0,0.4957948 c 1.920986,0 3.473262,1.5522071 3.473262,3.4731301 0,1.920923 -1.552276,3.472783 -3.473262,3.472783 -1.920989,0 -3.4732623,-1.55186 -3.4732623,-3.472783 0,-1.920923 1.5522733,-3.4731301 3.4732623,-3.4731301 z" />
    <path
       id="path1181-0-6-2-9-0-9-5-5-9-9-3-6-1-7"
       style="color:#000000;font-style:normal;font-variant:normal;font-weight:normal;font-stretch:normal;font-size:medium;line-height:normal;font-family:sans-serif;font-variant-ligatures:normal;font-variant-position:normal;font-variant-caps:normal;font-variant-numeric:normal;font-variant-alternates:normal;font-variant-east-asian:normal;font-feature-settings:normal;font-variation-settings:normal;text-indent:0;text-align:start;text-decoration:none;text-decoration-line:none;text-decoration-style:solid;text-decoration-color:#000000;letter-spacing:normal;word-spacing:normal;text-transform:none;writing-mode:lr-tb;direction:ltr;text-orientation:mixed;dominant-baseline:auto;baseline-shift:baseline;text-anchor:start;white-space:normal;shape-padding:0;shape-margin:0;inline-size:0;clip-rule:nonzero;display:inline;overflow:visible;visibility:visible;opacity:0.95;isolation:auto;mix-blend-mode:normal;color-interpolation:sRGB;color-interpolation-filters:linearRGB;solid-color:#000000;solid-opacity:1;vector-effect:none;fill:#4f4840;fill-opacity:1;fill-rule:nonzero;stroke:none;stroke-width:0.625036;stroke-linecap:round;stroke-linejoin:round;stroke-miterlimit:4;stroke-dasharray:none;stroke-dashoffset:2.1875;stroke-opacity:1;color-rendering:auto;image-rendering:auto;shape-rendering:auto;text-rendering:auto;enable-background:accumulate;stop-color:#000000"
       d="m 12.832292,8.5989584 c -2.189123,0 -3.9687502,1.7798786 -3.9687502,3.9688956 0,2.189049 1.7796272,3.96861 3.9687502,3.96861 2.18912,0 3.96875,-1.779561 3.96875,-3.96861 0,-2.189017 -1.77963,-3.9688956 -3.96875,-3.9688956 z m 0,0.4957945 c 1.920986,0 3.473262,1.5522051 3.473262,3.4731011 0,1.920949 -1.552276,3.472813 -3.473262,3.472813 -1.920989,0 -3.4732623,-1.551864 -3.4732623,-3.472813 0,-1.920896 1.5522733,-3.4731011 3.4732623,-3.4731011 z" />
    <ellipse
       style="fill:#adadae;fill-opacity:1;stroke:#771832;stroke-width:0;stroke-linecap:round;stroke-linejoin:round;stroke-miterlimit:4;stroke-dasharray:none;stroke-dashoffset:2.1875;stroke-opacity:1"
       id="path1181-0-1-2-1-3-3-39-2-8-2-0-4"
       cx="12.832275"
       cy="12.567758"
       rx="3.7207029"
       ry="3.7207017" />
    <ellipse
       style="display:inline;fill:url(#linearGradient2147);fill-opacity:1;stroke:#771832;stroke-width:0;stroke-linecap:round;stroke-linejoin:round;stroke-miterlimit:4;stroke-dasharray:none;stroke-dashoffset:2.1875;stroke-opacity:1"
       id="path1181-6-2-7-3-2-5-5-0-0-6-9-6-5"
       cx="12.832275"
       cy="12.567758"
       rx="3.7207029"
       ry="3.7207017" />
    <path
       id="path1181-0-2-9-3-2-7-7-6-6-8-2-0-1-3-2"
       style="color:#000000;font-style:normal;font-variant:normal;font-weight:normal;font-stretch:normal;font-size:medium;line-height:normal;font-family:sans-serif;font-variant-ligatures:normal;font-variant-position:normal;font-variant-caps:normal;font-variant-numeric:normal;font-variant-alternates:normal;font-variant-east-asian:normal;font-feature-settings:normal;font-variation-settings:normal;text-indent:0;text-align:start;text-decoration:none;text-decoration-line:none;text-decoration-style:solid;text-decoration-color:#000000;letter-spacing:normal;word-spacing:normal;text-transform:none;writing-mode:lr-tb;direction:ltr;text-orientation:mixed;dominant-baseline:auto;baseline-shift:baseline;text-anchor:start;white-space:normal;shape-padding:0;shape-margin:0;inline-size:0;clip-rule:nonzero;display:inline;overflow:visible;visibility:visible;opacity:0.15;isolation:auto;mix-blend-mode:normal;color-interpolation:sRGB;color-interpolation-filters:linearRGB;solid-color:#000000;solid-opacity:1;vector-effect:none;fill:#38332e;fill-opacity:1;fill-rule:nonzero;stroke:none;stroke-width:0;stroke-linecap:round;stroke-linejoin:round;stroke-miterlimit:4;stroke-dasharray:none;stroke-dashoffset:2.1875;stroke-opacity:1;color-rendering:auto;image-rendering:auto;shape-rendering:auto;text-rendering:auto;enable-background:accumulate;stop-color:#000000"
       d="m 12.832292,8.5989584 c -2.189123,0 -3.9687502,1.7798786 -3.9687502,3.9688956 0,2.189049 1.7796272,3.96861 3.9687502,3.96861 2.18912,0 3.96875,-1.779561 3.96875,-3.96861 0,-2.189017 -1.77963,-3.9688956 -3.96875,-3.9688956 z m 0,0.4957945 c 1.920986,0 3.473262,1.5522051 3.473262,3.4731011 0,1.920949 -1.552276,3.472813 -3.473262,3.472813 -1.920989,0 -3.4732623,-1.551864 -3.4732623,-3.472813 0,-1.920896 1.5522733,-3.4731011 3.4732623,-3.4731011 z" />
    <path
       id="rect2388-9-6-0-6-9-7-50-5-7-8-7-6-4-6"
       style="color:#000000;font-style:normal;font-variant:normal;font-weight:normal;font-stretch:normal;font-size:medium;line-height:normal;font-family:sans-serif;font-variant-ligatures:normal;font-variant-position:normal;font-variant-caps:normal;font-variant-numeric:normal;font-variant-alternates:normal;font-variant-east-asian:normal;font-feature-settings:normal;font-variation-settings:normal;text-indent:0;text-align:start;text-decoration:none;text-decoration-line:none;text-decoration-style:solid;text-decoration-color:#000000;letter-spacing:normal;word-spacing:normal;text-transform:none;writing-mode:lr-tb;direction:ltr;text-orientation:mixed;dominant-baseline:auto;baseline-shift:baseline;text-anchor:start;white-space:normal;shape-padding:0;shape-margin:0;inline-size:0;clip-rule:nonzero;display:inline;overflow:visible;visibility:visible;opacity:0.25;isolation:auto;mix-blend-mode:normal;color-interpolation:sRGB;color-interpolation-filters:linearRGB;solid-color:#000000;solid-opacity:1;vector-effect:none;fill:#333333;fill-opacity:1;fill-rule:nonzero;stroke:none;stroke-width:0.264721;stroke-linecap:round;stroke-linejoin:round;stroke-miterlimit:4;stroke-dasharray:none;stroke-dashoffset:2.1875;stroke-opacity:1;color-rendering:auto;image-rendering:auto;shape-rendering:auto;text-rendering:auto;enable-background:accumulate;stop-color:#000000"
       d="m 11.545388,10.774662 c -0.101915,0 -0.203796,0.03885 -0.280763,0.115811 l -0.374351,0.374316 c -0.153948,0.153932 -0.15394,0.407554 0,0.561478 l 1.006197,1.006107 -1.006197,1.00611 c -0.15395,0.153934 -0.153937,0.407554 0,0.561478 l 0.374351,0.374316 c 0.15394,0.153924 0.407575,0.153937 0.561525,0 l 1.006198,-1.006107 1.006199,1.006107 c 0.153943,0.153929 0.40758,0.153935 0.561526,0 l 0.374351,-0.374316 c 0.153932,-0.153914 0.153942,-0.407551 0,-0.561478 l -1.006198,-1.00611 1.006198,-1.006107 c 0.153929,-0.153914 0.153953,-0.407541 0,-0.561478 l -0.374351,-0.374316 c -0.153951,-0.153935 -0.407594,-0.153919 -0.561526,0 l -1.006199,1.006109 -1.006198,-1.006109 c -0.07697,-0.07697 -0.17885,-0.115814 -0.280762,-0.115811 z" />
    <path
       id="rect2388-9-6-1-96-6-5-8-0-1-7"
       style="fill:#191714;fill-opacity:1;stroke-width:0.309618;stroke-linecap:round;stroke-linejoin:round;stroke-dashoffset:2.1875"
       d="m 14.305579,10.720134 c -0.103648,-0.103648 -0.270544,-0.10363 -0.374176,2e-6 l -1.099145,1.099127 -1.099146,-1.099129 c -0.103648,-0.103645 -0.270528,-0.103648 -0.374176,0 l -0.374179,0.374171 c -0.103645,0.103645 -0.103645,0.270526 0,0.374168 l 1.099148,1.09913 -1.099146,1.099127 c -0.10365,0.10365 -0.103653,0.270528 -5e-6,0.374173 l 0.374179,0.374172 c 0.103648,0.103645 0.270531,0.103642 0.374179,-3e-6 l 1.099146,-1.099127 1.099145,1.099127 c 0.10365,0.103648 0.270534,0.103648 0.374179,5e-6 l 0.374179,-0.374174 c 0.103645,-0.103645 0.103645,-0.270523 -5e-6,-0.374173 l -1.099146,-1.099127 1.099146,-1.099127 c 0.103632,-0.103629 0.103648,-0.270526 0,-0.374174 z" />
  </g>
</svg>
