<?xml version="1.0" encoding="UTF-8" standalone="no"?>
<svg
   xmlns:dc="http://purl.org/dc/elements/1.1/"
   xmlns:cc="http://creativecommons.org/ns#"
   xmlns:rdf="http://www.w3.org/1999/02/22-rdf-syntax-ns#"
   xmlns:svg="http://www.w3.org/2000/svg"
   xmlns="http://www.w3.org/2000/svg"
   xmlns:xlink="http://www.w3.org/1999/xlink"
   xmlns:sodipodi="http://sodipodi.sourceforge.net/DTD/sodipodi-0.dtd"
   xmlns:inkscape="http://www.inkscape.org/namespaces/inkscape"
   width="64"
   height="64"
   viewBox="0 0 16.933333 16.933334"
   version="1.1"
   id="svg841"
   inkscape:version="1.0.2 (e86c870879, 2021-01-15)"
   sodipodi:docname="network-transmit.svg">
  <defs
     id="defs835">
    <linearGradient
       inkscape:collect="always"
       xlink:href="#linearGradient1139-3"
       id="linearGradient1762"
       gradientUnits="userSpaceOnUse"
       gradientTransform="translate(0.26458328,0.26458328)"
       x1="8.1944265"
       y1="1.0125455"
       x2="8.2493715"
       y2="15.385565" />
    <linearGradient
       inkscape:collect="always"
       id="linearGradient1139-3">
      <stop
         style="stop-color:#faf9fb;stop-opacity:1"
         offset="0"
         id="stop1135-6" />
      <stop
         style="stop-color:#d8d7d9;stop-opacity:1"
         offset="1"
         id="stop1137-7" />
    </linearGradient>
  </defs>
  <sodipodi:namedview
     id="base"
     pagecolor="#c4c4c4"
     bordercolor="#666666"
     borderopacity="1.0"
     inkscape:pageopacity="0"
     inkscape:pageshadow="2"
     inkscape:zoom="4.6280654"
     inkscape:cx="7.5245157"
     inkscape:cy="46.680114"
     inkscape:document-units="px"
     inkscape:current-layer="layer1"
     inkscape:document-rotation="0"
     showgrid="false"
     units="px"
     inkscape:window-width="2048"
     inkscape:window-height="1080"
     inkscape:window-x="0"
     inkscape:window-y="0"
     inkscape:window-maximized="1" />
  <metadata
     id="metadata838">
    <rdf:RDF>
      <cc:Work
         rdf:about="">
        <dc:format>image/svg+xml</dc:format>
        <dc:type
           rdf:resource="http://purl.org/dc/dcmitype/StillImage" />
        <dc:title></dc:title>
      </cc:Work>
    </rdf:RDF>
  </metadata>
  <g
     inkscape:label="Layer 1"
     inkscape:groupmode="layer"
     id="layer1">
    <path
       id="rect831-360-6-7-9-7-5-7"
       style="color:#000000;font-style:normal;font-variant:normal;font-weight:normal;font-stretch:normal;font-size:medium;line-height:normal;font-family:sans-serif;font-variant-ligatures:normal;font-variant-position:normal;font-variant-caps:normal;font-variant-numeric:normal;font-variant-alternates:normal;font-variant-east-asian:normal;font-feature-settings:normal;font-variation-settings:normal;text-indent:0;text-align:start;text-decoration:none;text-decoration-line:none;text-decoration-style:solid;text-decoration-color:#000000;letter-spacing:normal;word-spacing:normal;text-transform:none;writing-mode:lr-tb;direction:ltr;text-orientation:mixed;dominant-baseline:auto;baseline-shift:baseline;text-anchor:start;white-space:normal;shape-padding:0;shape-margin:0;inline-size:0;clip-rule:nonzero;display:inline;overflow:visible;visibility:visible;opacity:0.15;isolation:auto;mix-blend-mode:normal;color-interpolation:sRGB;color-interpolation-filters:linearRGB;solid-color:#000000;solid-opacity:1;vector-effect:none;fill:#0c0c0c;fill-opacity:1;fill-rule:nonzero;stroke:none;stroke-width:0;stroke-linecap:round;stroke-linejoin:round;stroke-miterlimit:4;stroke-dasharray:none;stroke-dashoffset:2.1875;stroke-opacity:1;color-rendering:auto;image-rendering:auto;shape-rendering:auto;text-rendering:auto;enable-background:accumulate;stop-color:#000000"
       d="m 2.6467489,1.3229167 c -0.9458352,0 -1.72070722,0.7729114 -1.72070722,1.7188763 v 11.643498 c 0,0.945965 0.77487202,1.718876 1.72070722,1.718876 H 14.286585 c 0.945835,0 1.720707,-0.772911 1.720707,-1.718876 V 3.041793 c 0,-0.9459649 -0.774872,-1.7188763 -1.720707,-1.7188763 z m 0,0.793287 H 14.286585 c 0.519856,0 0.927529,0.4056618 0.927529,0.9255893 v 11.643498 c 0,0.519927 -0.407673,0.926105 -0.927529,0.926105 H 2.6467489 c -0.519856,0 -0.9254623,-0.406178 -0.9254623,-0.926105 V 3.041793 c 0,-0.5199275 0.4056063,-0.9255893 0.9254623,-0.9255893 z" />
    <path
       id="rect831-360-6-5-0-5"
       style="color:#000000;font-style:normal;font-variant:normal;font-weight:normal;font-stretch:normal;font-size:medium;line-height:normal;font-family:sans-serif;font-variant-ligatures:normal;font-variant-position:normal;font-variant-caps:normal;font-variant-numeric:normal;font-variant-alternates:normal;font-variant-east-asian:normal;font-feature-settings:normal;font-variation-settings:normal;text-indent:0;text-align:start;text-decoration:none;text-decoration-line:none;text-decoration-style:solid;text-decoration-color:#000000;letter-spacing:normal;word-spacing:normal;text-transform:none;writing-mode:lr-tb;direction:ltr;text-orientation:mixed;dominant-baseline:auto;baseline-shift:baseline;text-anchor:start;white-space:normal;shape-padding:0;shape-margin:0;inline-size:0;clip-rule:nonzero;display:inline;overflow:visible;visibility:visible;isolation:auto;mix-blend-mode:normal;color-interpolation:sRGB;color-interpolation-filters:linearRGB;solid-color:#000000;solid-opacity:1;vector-effect:none;fill:#525054;fill-opacity:1;fill-rule:nonzero;stroke:none;stroke-width:0;stroke-linecap:round;stroke-linejoin:round;stroke-miterlimit:4;stroke-dasharray:none;stroke-dashoffset:2.1875;stroke-opacity:1;color-rendering:auto;image-rendering:auto;shape-rendering:auto;text-rendering:auto;enable-background:accumulate;stop-color:#000000"
       d="m 2.6467489,0.92604168 c -0.9458352,0 -1.72070722,0.77291142 -1.72070722,1.71887622 V 14.288416 c 0,0.945965 0.77487202,1.718876 1.72070722,1.718876 H 14.286585 c 0.945835,0 1.720707,-0.772911 1.720707,-1.718876 V 2.6449179 c 0,-0.9459648 -0.774872,-1.71887622 -1.720707,-1.71887622 z m 0,0.79328702 H 14.286585 c 0.519856,0 0.927529,0.4056618 0.927529,0.9255892 V 14.288416 c 0,0.519927 -0.407673,0.926105 -0.927529,0.926105 H 2.6467489 c -0.519856,0 -0.9254623,-0.406178 -0.9254623,-0.926105 V 2.6449179 c 0,-0.5199274 0.4056063,-0.9255892 0.9254623,-0.9255892 z" />
    <rect
       style="fill:url(#linearGradient1762);fill-opacity:1;stroke-width:0;stroke-linecap:round;stroke-linejoin:round;stroke-dashoffset:2.1875"
       id="rect831-9-3-3"
       width="14.2875"
       height="14.2875"
       x="1.3229151"
       y="1.3229165"
       rx="1.3229167"
       ry="1.3229167" />
    <path
       id="rect831-360-6-7-7-6-5"
       style="color:#000000;font-style:normal;font-variant:normal;font-weight:normal;font-stretch:normal;font-size:medium;line-height:normal;font-family:sans-serif;font-variant-ligatures:normal;font-variant-position:normal;font-variant-caps:normal;font-variant-numeric:normal;font-variant-alternates:normal;font-variant-east-asian:normal;font-feature-settings:normal;font-variation-settings:normal;text-indent:0;text-align:start;text-decoration:none;text-decoration-line:none;text-decoration-style:solid;text-decoration-color:#000000;letter-spacing:normal;word-spacing:normal;text-transform:none;writing-mode:lr-tb;direction:ltr;text-orientation:mixed;dominant-baseline:auto;baseline-shift:baseline;text-anchor:start;white-space:normal;shape-padding:0;shape-margin:0;inline-size:0;clip-rule:nonzero;display:inline;overflow:visible;visibility:visible;opacity:0.15;isolation:auto;mix-blend-mode:normal;color-interpolation:sRGB;color-interpolation-filters:linearRGB;solid-color:#000000;solid-opacity:1;vector-effect:none;fill:#333234;fill-opacity:1;fill-rule:nonzero;stroke:none;stroke-width:0;stroke-linecap:round;stroke-linejoin:round;stroke-miterlimit:4;stroke-dasharray:none;stroke-dashoffset:2.1875;stroke-opacity:1;color-rendering:auto;image-rendering:auto;shape-rendering:auto;text-rendering:auto;enable-background:accumulate;stop-color:#000000"
       d="m 2.6467489,0.92604168 c -0.9458353,0 -1.72070722,0.77291142 -1.72070722,1.71887622 V 14.288416 c 0,0.945965 0.77487192,1.718876 1.72070722,1.718876 H 14.286585 c 0.945835,0 1.720707,-0.772911 1.720707,-1.718876 V 2.6449179 c 0,-0.9459648 -0.774872,-1.71887622 -1.720707,-1.71887622 z m 0,0.79328702 H 14.286585 c 0.519856,0 0.927529,0.4056618 0.927529,0.9255892 V 14.288416 c 0,0.519927 -0.407673,0.926105 -0.927529,0.926105 H 2.6467489 c -0.5198588,0 -0.9254624,-0.406178 -0.9254624,-0.926105 V 2.6449179 c 0,-0.5199274 0.4056036,-0.9255892 0.9254624,-0.9255892 z" />
    <path
       id="rect3612-4-1-6-0-67-7-5-6-6-92-6"
       style="display:inline;opacity:0.25;fill:#333234;fill-opacity:1;stroke:none;stroke-width:0;stroke-linecap:round;stroke-linejoin:round;stroke-miterlimit:4;stroke-dasharray:none;stroke-dashoffset:2.1875;stroke-opacity:1"
       d="m 11.549257,11.266109 c 0.04638,-0.0041 0.09124,-0.02606 0.123633,-0.06466 v -2.65e-4 l 2.573868,-3.064963 v -2.64e-4 c 0.0049,-0.0059 0.0069,-0.01342 0.0111,-0.01955 0,0 0,-2.64e-4 0,-2.64e-4 0.0064,-0.0098 0.012,-0.01921 0.01637,-0.02985 0,0 0,-2.65e-4 0,-2.65e-4 0.0045,-0.01087 0.0075,-0.02138 0.0096,-0.03268 0,0 0,-2.65e-4 0,-2.65e-4 0.0024,-0.0114 0.0035,-0.022489 0.0036,-0.034107 0,-0.011615 -0.0018,-0.022701 -0.0036,-0.034105 0,0 0,-2.646e-4 0,-2.646e-4 -0.0022,-0.011298 -0.0053,-0.021855 -0.0096,-0.032684 0,0 0,-2.645e-4 0,-2.645e-4 -0.0044,-0.01053 -0.01,-0.020108 -0.01637,-0.029845 0,0 0,-2.646e-4 0,-2.646e-4 -0.004,-0.00632 -0.006,-0.013414 -0.0111,-0.019526 0,0 0,-2.646e-4 0,-2.646e-4 L 11.67289,4.8367925 v -2.646e-4 c -0.03239,-0.038597 -0.07727,-0.060172 -0.123633,-0.064302 -0.04636,-0.00413 -0.09424,0.00918 -0.132855,0.041566 l -0.557759,0.4678972 c 0,0 0,2.645e-4 0,2.645e-4 -0.01924,0.01614 -0.03436,0.035208 -0.04513,0.056134 0,0 0,2.646e-4 0,2.646e-4 -0.01073,0.020902 -0.0171,0.043765 -0.01919,0.066789 0,0 0,2.646e-4 0,2.646e-4 -0.002,0.023045 0,0.046453 0.0071,0.068924 0,0 0,2.646e-4 0,2.646e-4 0.0069,0.022463 0.01872,0.043648 0.03481,0.062884 v 2.645e-4 l 0.730758,0.870421 H 8.1028439 c -0.100769,0 -0.1818937,0.081135 -0.1818937,0.1819011 v 0.6366536 c 0,0.1007745 0.081125,0.1819011 0.1818937,0.1819011 H 12.407194 L 12.919479,8.0189843 12.407194,8.629346 H 8.4666314 v 1.000456 h 3.1003776 l -0.730776,0.870426 c 0,0 0,2.65e-4 0,2.65e-4 -0.01619,0.01921 -0.02783,0.04077 -0.03481,0.06324 0,0 0,2.64e-4 0,2.64e-4 -0.0069,0.02246 -0.0091,0.04589 -0.0071,0.06892 0,0 0,2.65e-4 0,2.65e-4 0.002,0.02302 0.0085,0.04551 0.01917,0.06643 0,0 0,2.64e-4 0,2.64e-4 0.01073,0.02093 0.02592,0.03998 0.04513,0.05613 0,0 0,2.64e-4 0,2.64e-4 l 0.557758,0.467897 c 0.03862,0.03238 0.08649,0.04606 0.132856,0.04193 z" />
    <path
       id="rect3612-4-1-6-0-67-7-5-6-6-2"
       style="display:inline;fill:#db5278;fill-opacity:1;stroke:none;stroke-width:0;stroke-linecap:round;stroke-linejoin:round;stroke-miterlimit:4;stroke-dasharray:none;stroke-dashoffset:2.1875;stroke-opacity:1"
       d="m 11.549257,10.604651 c 0.04638,-0.0041 0.09124,-0.02606 0.123633,-0.06466 v -2.64e-4 l 2.573868,-3.0649619 v -2.646e-4 c 0.0049,-0.00593 0.0069,-0.013414 0.0111,-0.019553 0,0 0,-2.646e-4 0,-2.646e-4 0.0064,-0.00976 0.012,-0.019209 0.01637,-0.029845 0,0 0,-2.646e-4 0,-2.646e-4 0.0045,-0.010874 0.0075,-0.021378 0.0096,-0.032684 0,0 0,-2.646e-4 0,-2.646e-4 0.0024,-0.011404 0.0035,-0.02249 0.0036,-0.034107 0,-0.011615 -0.0018,-0.022701 -0.0036,-0.034105 0,0 0,-2.646e-4 0,-2.646e-4 -0.0022,-0.011298 -0.0053,-0.021855 -0.0096,-0.032684 0,0 0,-2.646e-4 0,-2.646e-4 -0.0044,-0.01053 -0.01,-0.020108 -0.01637,-0.029845 0,0 0,-2.646e-4 0,-2.646e-4 -0.004,-0.00632 -0.006,-0.013414 -0.0111,-0.019526 0,0 0,-2.646e-4 0,-2.646e-4 L 11.67289,4.1753341 v -2.646e-4 c -0.03239,-0.038597 -0.07727,-0.060172 -0.123633,-0.064302 -0.04636,-0.00413 -0.09424,0.00918 -0.132855,0.041566 L 10.858643,4.620231 c 0,0 0,2.646e-4 0,2.646e-4 -0.01924,0.01614 -0.03436,0.035208 -0.04513,0.056134 0,0 0,2.646e-4 0,2.646e-4 -0.01073,0.020902 -0.0171,0.043765 -0.01919,0.066789 0,0 0,2.645e-4 0,2.645e-4 -0.002,0.023045 0,0.046453 0.0071,0.068924 0,0 0,2.646e-4 0,2.646e-4 0.0069,0.022463 0.01872,0.043648 0.03481,0.062883 v 2.646e-4 l 0.730758,0.870421 H 8.1028439 c -0.100769,0 -0.1818937,0.081134 -0.1818937,0.181901 v 0.6366537 c 0,0.1007745 0.081125,0.181901 0.1818937,0.181901 h 4.3043501 l 0.512285,0.6103647 -0.512285,0.610362 H 8.4666314 V 8.968343 H 11.567009 L 10.836233,9.83877 c 0,0 0,2.64e-4 0,2.64e-4 -0.01619,0.01921 -0.02783,0.04077 -0.03481,0.06324 0,0 0,2.64e-4 0,2.64e-4 -0.0069,0.02246 -0.0091,0.04589 -0.0071,0.06892 0,0 0,2.65e-4 0,2.65e-4 0.002,0.02302 0.0085,0.04551 0.01917,0.06643 0,0 0,2.65e-4 0,2.65e-4 0.01073,0.02093 0.02592,0.03998 0.04513,0.05613 0,0 0,2.65e-4 0,2.65e-4 l 0.557758,0.467897 c 0.03862,0.03238 0.08649,0.04606 0.132856,0.04193 z" />
    <path
       id="rect3612-4-1-6-0-67-7-5-6-6-2-7-9"
       style="color:#000000;font-style:normal;font-variant:normal;font-weight:normal;font-stretch:normal;font-size:medium;line-height:normal;font-family:sans-serif;font-variant-ligatures:normal;font-variant-position:normal;font-variant-caps:normal;font-variant-numeric:normal;font-variant-alternates:normal;font-variant-east-asian:normal;font-feature-settings:normal;font-variation-settings:normal;text-indent:0;text-align:start;text-decoration:none;text-decoration-line:none;text-decoration-style:solid;text-decoration-color:#000000;letter-spacing:normal;word-spacing:normal;text-transform:none;writing-mode:lr-tb;direction:ltr;text-orientation:mixed;dominant-baseline:auto;baseline-shift:baseline;text-anchor:start;white-space:normal;shape-padding:0;shape-margin:0;inline-size:0;clip-rule:nonzero;display:inline;overflow:visible;visibility:visible;isolation:auto;mix-blend-mode:normal;color-interpolation:sRGB;color-interpolation-filters:linearRGB;solid-color:#000000;solid-opacity:1;vector-effect:none;fill:#8f1e3d;fill-opacity:1;fill-rule:nonzero;stroke:none;stroke-width:0.26458;stroke-linecap:round;stroke-linejoin:round;stroke-miterlimit:4;stroke-dasharray:none;stroke-dashoffset:2.1875;stroke-opacity:1;color-rendering:auto;image-rendering:auto;shape-rendering:auto;text-rendering:auto;enable-background:accumulate;stop-color:#000000"
       d="m 11.560933,3.9789551 c -0.07939,-0.00706 -0.163251,0.016827 -0.229443,0.072342 a 0.1323049,0.13230133 0 0 0 -5.29e-4,0 L 10.773372,4.518956 a 0.1323049,0.13230133 0 0 0 -0.03204,0.040309 c -0.016,0.018627 -0.03439,0.035311 -0.04548,0.05684 a 0.1323049,0.13230133 0 0 0 0,5.291e-4 0.1323049,0.13230133 0 0 0 -0.01447,0.049094 c -0.007,0.02204 -0.01707,0.043632 -0.01912,0.066143 a 0.1323049,0.13230133 0 0 0 0,5.291e-4 c -0.0033,0.038383 4.7e-5,0.079629 0.01292,0.120404 0.0074,0.023971 0.02243,0.043598 0.03514,0.064593 a 0.1323049,0.13230133 0 0 0 0.02429,0.043926 l 0.548287,0.6531716 H 8.1027325 c -0.1717789,0 -0.3141927,0.1424199 -0.3141927,0.3141848 v 0.6366378 c 0,0.1717648 0.1424207,0.3141821 0.3141927,0.3141821 h 4.2426355 l 0.401009,0.477997 -0.401009,0.4779936 H 8.4665346 A 0.1323049,0.13230133 0 0 0 8.3342429,7.9677765 V 8.968206 a 0.1323049,0.13230133 0 0 0 0.1322917,0.132289 h 2.8163664 l -0.548287,0.653171 a 0.1323049,0.13230133 0 0 0 -0.02429,0.04547 c -0.01253,0.02111 -0.02849,0.04102 -0.03566,0.06408 a 0.1323049,0.13230133 0 0 0 0,5.29e-4 c -0.01221,0.03969 -0.01579,0.08037 -0.0124,0.119372 0.0021,0.02371 0.01236,0.04535 0.01964,0.06769 a 0.1323049,0.13230133 0 0 0 0.01292,0.04599 0.1323049,0.13230133 0 0 0 0,5.29e-4 c 1.7e-4,2.65e-4 3.44e-4,7.94e-4 5.29e-4,0.0011 a 0.1323049,0.13230133 0 0 0 5.29e-4,5.3e-4 c 0.0109,0.02125 0.02893,0.03759 0.04444,0.05581 a 0.1323049,0.13230133 0 0 0 5.29e-4,0.0011 0.1323049,0.13230133 0 0 0 0.03256,0.04031 l 0.557588,0.468175 a 0.1323049,0.13230133 0 0 0 5.3e-4,0 c 0.06539,0.05482 0.148267,0.07904 0.227893,0.07235 5.02e-4,-4.2e-5 0.001,4.5e-5 0.0016,0 0.0801,-0.0071 0.157719,-0.04587 0.212906,-0.111617 a 0.1323049,0.13230133 0 0 0 0.03101,-0.08475 v 0.04754 l 2.542998,-3.0276409 a 0.1323049,0.13230133 0 0 0 5.29e-4,-0.00106 0.1323049,0.13230133 0 0 0 0.01757,-0.027906 0.1323049,0.13230133 0 0 0 10e-4,-0.00159 0.1323049,0.13230133 0 0 0 0.0016,-0.00265 0.1323049,0.13230133 0 0 0 0.0098,-0.0186 c 0.0059,-0.010001 0.01181,-0.018653 0.01757,-0.032557 0,0 5.3e-4,-5.292e-4 5.3e-4,-5.292e-4 a 0.1323049,0.13230133 0 0 0 0.0072,-0.025823 c 0.0033,-0.011007 0.0079,-0.022701 0.0098,-0.032554 a 0.1323049,0.13230133 0 0 0 5.29e-4,-0.00413 0.1323049,0.13230133 0 0 0 5.29e-4,-0.00159 c 6.09e-4,-0.00333 5.56e-4,-0.00648 10e-4,-0.00982 a 0.1323049,0.13230133 0 0 0 5.29e-4,-0.00929 v -5.291e-4 c 0.0012,-0.010769 0.0035,-0.021881 0.0036,-0.032036 a 0.1323049,0.13230133 0 0 0 0,-0.00212 c 0,-0.022119 -0.0028,-0.036338 -0.0047,-0.047543 -9.9e-5,-5.292e-4 9.3e-5,-0.00212 0,-0.00265 a 0.1323049,0.13230133 0 0 0 -0.0016,-0.00931 c -0.0023,-0.011933 -0.0066,-0.023336 -0.01033,-0.035137 a 0.1323049,0.13230133 0 0 0 -0.0052,-0.0186 0.1323049,0.13230133 0 0 0 -0.001,-0.0031 0.1323049,0.13230133 0 0 0 -5.29e-4,-0.00159 c -0.0061,-0.014684 -0.01273,-0.0245 -0.01912,-0.035142 a 0.1323049,0.13230133 0 0 0 -0.0078,-0.014975 c 4.23e-4,7.938e-4 -0.0014,-0.00212 -0.001,-0.00159 7.41e-4,0.00106 -0.0026,-0.00368 -0.0021,-0.0031 a 0.1323049,0.13230133 0 0 0 -0.01757,-0.0279 0.1323049,0.13230133 0 0 0 -10e-4,-0.00159 L 11.804947,4.1270133 v 0.048059 a 0.1323049,0.13230133 0 0 0 -0.03101,-0.085262 c -0.05546,-0.06608 -0.133498,-0.104029 -0.212902,-0.1111013 z m -0.0016,6.7575429 -0.04651,-0.0047 a 0.1323049,0.13230133 0 0 0 0.04651,0.0047 z m -0.8847,-0.872791 a 0.1323049,0.13230133 0 0 0 -0.0057,0.03876 z m 5.29e-4,-5.0109284 -0.0062,-0.039275 a 0.1323049,0.13230133 0 0 0 0.0057,0.038759 c 0,0 5.29e-4,5.291e-4 5.29e-4,5.291e-4 z m 0.862,-0.6102826 c 0.01308,0.00106 0.02436,0.00635 0.03359,0.017039 0,0 5.29e-4,5.292e-4 5.29e-4,5.292e-4 a 0.1323049,0.13230133 0 0 0 0,5.292e-4 l 2.542997,3.0281563 v -0.048056 a 0.1323049,0.13230133 0 0 0 0.02274,0.073896 0.1323049,0.13230133 0 0 0 0.001,0.00106 0.1323049,0.13230133 0 0 0 0.0026,0.00466 c -0.0057,-0.00688 -0.0047,-0.00524 0.0047,0.00931 3.43e-4,5.292e-4 1.48e-4,5.292e-4 5.29e-4,0.00106 0,0 0,5.291e-4 0,5.291e-4 a 0.1323049,0.13230133 0 0 0 10e-4,0.00159 c 0.0037,0.00566 0.0046,0.00709 0.0047,0.00722 1.1e-5,2.11e-5 5.29e-4,0.00106 5.03e-4,0.00106 9.79e-4,0.00265 0.001,0.00434 0.0016,0.00722 5.82e-4,0.00437 0.0015,0.0091 0.0016,0.00826 2e-6,-1.005e-4 0,0.00132 0,0.00106 -1.28e-4,0.00291 -5.82e-4,0.00556 -0.001,0.00775 a 0.1323049,0.13230133 0 0 0 0,0.00159 0.1323049,0.13230133 0 0 0 -5.29e-4,0.00106 c -6.09e-4,0.00296 -0.0011,0.0045 -0.0016,0.00569 a 0.1323049,0.13230133 0 0 0 -5.03e-4,0.00106 c 3.7e-4,-0.00106 -8.7e-5,7.938e-4 -0.0047,0.00775 a 0.1323049,0.13230133 0 0 0 -0.0093,0.018097 0.1323049,0.13230133 0 0 0 -0.02325,0.073893 V 7.4269708 L 11.57137,10.455128 c -0.0096,0.01143 -0.02144,0.01696 -0.03411,0.0181 -0.01247,0.0011 -0.02437,-0.0021 -0.03566,-0.01138 h -5.29e-4 l -0.510046,-0.428387 v 0.0615 a 0.1323049,0.13230133 0 0 0 -0.04761,-0.101299 c -0.0059,-0.005 -0.0094,-0.0099 -0.01188,-0.01447 0,0 0,-5.29e-4 0,-5.29e-4 -0.0032,-0.0064 -0.0052,-0.01238 -0.0057,-0.0181 a 0.1323049,0.13230133 0 0 0 0,-5.3e-4 c -6.09e-4,-0.0071 4.5e-4,-0.01336 0.0021,-0.0186 a 0.1323049,0.13230133 0 0 0 0,-5.29e-4 c 0.0018,-0.0053 0.0047,-0.01106 0.0093,-0.01654 a 0.1323049,0.13230133 0 0 0 0.03101,-0.08526 v 0.04806 l 0.70019,-0.833522 a 0.1323049,0.13230133 0 0 0 -0.1018,-0.217548 H 8.5988408 V 8.10024 h 3.8080372 a 0.1323049,0.13230133 0 0 0 0.101286,-0.04703 l 0.51263,-0.6102799 a 0.1323049,0.13230133 0 0 0 0,-0.1700107 l -0.51263,-0.6102796 a 0.1323049,0.13230133 0 0 0 -0.101286,-0.04754 H 8.102747 c -0.029766,0 -0.049609,-0.019844 -0.049609,-0.049607 V 5.9288549 c 0,-0.029763 0.019852,-0.049607 0.049609,-0.049607 h 3.463872 A 0.1323049,0.13230133 0 0 0 11.667905,5.6622105 L 10.968206,4.8286909 v 0.047543 a 0.1323049,0.13230133 0 0 0 -0.03049,-0.084746 c -0.0058,-0.00699 -0.0085,-0.012727 -0.0098,-0.017039 a 0.1323049,0.13230133 0 0 0 -5.29e-4,-0.00106 c -0.0013,-0.00415 -0.0022,-0.00987 -0.0016,-0.017568 6.08e-4,-0.0068 0.0026,-0.01315 0.0052,-0.018098 0.0027,-0.00521 0.0063,-0.010398 0.0124,-0.015504 a 0.1323049,0.13230133 0 0 0 0.04754,-0.096115 v 0.056327 L 11.501482,4.254045 c 0.01104,-0.00926 0.02232,-0.012568 0.03566,-0.011377 z" />
    <path
       id="rect3612-4-1-6-0-67-7-5-3-5-1"
       style="display:inline;opacity:0.25;fill:#333234;fill-opacity:1;stroke:none;stroke-width:0;stroke-linecap:round;stroke-linejoin:round;stroke-miterlimit:4;stroke-dasharray:none;stroke-dashoffset:2.1875;stroke-opacity:1"
       d="m 5.3840802,6.9902151 c -0.046383,0.00413 -0.091238,0.026062 -0.1236329,0.064659 v 2.646e-4 L 2.6865792,10.120104 v 2.64e-4 c -0.00491,0.0059 -0.00691,0.01344 -0.011097,0.01953 0,0 0,2.64e-4 0,2.64e-4 -0.00637,0.0097 -0.012004,0.01921 -0.01637,0.02984 0,0 0,2.65e-4 0,2.65e-4 -0.00455,0.01087 -0.00746,0.02138 -0.00964,0.03268 0,0 0,2.64e-4 0,2.64e-4 -0.00235,0.0114 -0.00346,0.02249 -0.00364,0.03411 0,0.01162 0.00183,0.0227 0.00364,0.03411 0,0 0,2.65e-4 0,2.65e-4 0.00217,0.01127 0.00528,0.02185 0.00964,0.03268 0,0 0,2.64e-4 0,2.64e-4 0.00437,0.01053 0.010004,0.02011 0.01637,0.02984 0,0 0,2.65e-4 0,2.65e-4 0.004,0.0063 0.006,0.01341 0.011097,0.01955 0,0 0,2.64e-4 0,2.64e-4 l 2.5738681,3.064963 v 2.64e-4 c 0.032395,0.0386 0.07725,0.06017 0.1236329,0.0643 0.046365,0.0041 0.094239,-0.0092 0.1328552,-0.04157 l 0.5577587,-0.467897 c 0,0 0,-2.65e-4 0,-2.65e-4 0.019243,-0.01614 0.03436,-0.03521 0.045128,-0.05613 0,0 0,-2.64e-4 0,-2.64e-4 0.010732,-0.0209 0.017097,-0.04376 0.01919,-0.06679 0,0 0,-2.64e-4 0,-2.64e-4 0.00201,-0.02305 0,-0.04645 -0.00709,-0.06892 0,0 0,-2.65e-4 0,-2.65e-4 -0.00691,-0.02246 -0.018717,-0.04365 -0.034814,-0.06288 v -2.59e-4 L 5.3663465,11.848161 H 8.830493 c 0.100769,0 0.1818937,-0.08113 0.1818937,-0.181901 v -0.636654 c 0,-0.100774 -0.081125,-0.181901 -0.1818937,-0.181901 H 4.5261433 L 4.0138579,10.237341 4.5261433,9.626979 H 8.4667055 V 8.626523 H 5.3663282 L 6.0971043,7.7560966 c 0,0 0,-2.646e-4 0,-2.646e-4 0.01619,-0.019209 0.02783,-0.040767 0.034814,-0.063243 0,0 0,-2.646e-4 0,-2.646e-4 0.00691,-0.022463 0.00909,-0.045892 0.00709,-0.068927 0,0 0,-2.645e-4 0,-2.645e-4 -0.00201,-0.023019 -0.00855,-0.045506 -0.019172,-0.066432 0,0 0,-2.646e-4 0,-2.646e-4 -0.010732,-0.020929 -0.025921,-0.039979 -0.045128,-0.056134 0,0 0,-2.646e-4 0,-2.646e-4 L 5.516954,7.0321383 C 5.4783378,6.9997639 5.4304635,6.9860823 5.3840802,6.9902151 Z" />
    <path
       id="rect3612-4-1-6-0-67-7-5-3-27"
       style="display:inline;fill:#c3c3c6;fill-opacity:1;stroke:none;stroke-width:0;stroke-linecap:round;stroke-linejoin:round;stroke-miterlimit:4;stroke-dasharray:none;stroke-dashoffset:2.1875;stroke-opacity:1"
       d="m 5.3840802,6.328688 c -0.046383,0.00413 -0.091238,0.026061 -0.1236329,0.064659 v 2.646e-4 L 2.6865792,9.458577 v 2.64e-4 c -0.00491,0.0059 -0.00691,0.01344 -0.011097,0.01953 0,0 0,2.65e-4 0,2.65e-4 -0.00637,0.0097 -0.012004,0.01921 -0.01637,0.02984 0,0 0,2.65e-4 0,2.65e-4 -0.00455,0.01087 -0.00746,0.02138 -0.00964,0.03268 0,0 0,2.64e-4 0,2.64e-4 -0.00235,0.0114 -0.00346,0.02249 -0.00364,0.03411 0,0.01161 0.00183,0.0227 0.00364,0.03411 0,0 0,2.65e-4 0,2.65e-4 0.00217,0.01127 0.00528,0.02185 0.00964,0.03268 0,0 0,2.64e-4 0,2.64e-4 0.00437,0.01053 0.010004,0.02011 0.01637,0.02984 0,0 0,2.65e-4 0,2.65e-4 0.004,0.0063 0.006,0.01341 0.011097,0.01955 0,0 0,2.65e-4 0,2.65e-4 l 2.5738681,3.064963 v 2.64e-4 c 0.032395,0.0386 0.07725,0.06017 0.1236329,0.0643 0.046365,0.0041 0.094239,-0.0092 0.1328552,-0.04157 l 0.5577587,-0.467897 c 0,0 0,-2.65e-4 0,-2.65e-4 0.019243,-0.01614 0.03436,-0.03521 0.045128,-0.05613 0,0 0,-2.64e-4 0,-2.64e-4 0.010732,-0.0209 0.017097,-0.04377 0.01919,-0.06679 0,0 0,-2.64e-4 0,-2.64e-4 0.00201,-0.02305 0,-0.04645 -0.00709,-0.06892 0,0 0,-2.65e-4 0,-2.65e-4 -0.00691,-0.02246 -0.018717,-0.04365 -0.034814,-0.06288 v -2.64e-4 L 5.3663465,11.186634 H 8.830493 c 0.100769,0 0.1818937,-0.08114 0.1818937,-0.181901 v -0.636654 c 0,-0.100774 -0.081125,-0.181901 -0.1818937,-0.181901 H 4.5261433 L 4.0138579,9.575813 4.5261433,8.965451 H 8.4667055 V 7.9649957 H 5.3663282 L 6.0971043,7.0945694 c 0,0 0,-2.646e-4 0,-2.646e-4 0.01619,-0.019209 0.02783,-0.040767 0.034814,-0.063243 0,0 0,-2.646e-4 0,-2.646e-4 0.00691,-0.022463 0.00909,-0.045892 0.00709,-0.068927 0,0 0,-2.646e-4 0,-2.646e-4 -0.00201,-0.023019 -0.00855,-0.045506 -0.019172,-0.066432 0,0 0,-2.646e-4 0,-2.646e-4 C 6.1091043,6.87398 6.0939153,6.85493 6.0747083,6.838775 c 0,0 0,-2.645e-4 0,-2.645e-4 L 5.516954,6.3706112 C 5.4783378,6.3382368 5.4304635,6.3245552 5.3840802,6.328688 Z" />
    <path
       id="rect3612-4-1-6-0-67-7-5-3-0-3-0"
       style="color:#000000;font-style:normal;font-variant:normal;font-weight:normal;font-stretch:normal;font-size:medium;line-height:normal;font-family:sans-serif;font-variant-ligatures:normal;font-variant-position:normal;font-variant-caps:normal;font-variant-numeric:normal;font-variant-alternates:normal;font-variant-east-asian:normal;font-feature-settings:normal;font-variation-settings:normal;text-indent:0;text-align:start;text-decoration:none;text-decoration-line:none;text-decoration-style:solid;text-decoration-color:#000000;letter-spacing:normal;word-spacing:normal;text-transform:none;writing-mode:lr-tb;direction:ltr;text-orientation:mixed;dominant-baseline:auto;baseline-shift:baseline;text-anchor:start;white-space:normal;shape-padding:0;shape-margin:0;inline-size:0;clip-rule:nonzero;display:inline;overflow:visible;visibility:visible;isolation:auto;mix-blend-mode:normal;color-interpolation:sRGB;color-interpolation-filters:linearRGB;solid-color:#000000;solid-opacity:1;vector-effect:none;fill:#555558;fill-opacity:1;fill-rule:nonzero;stroke:none;stroke-width:0.264577;stroke-linecap:round;stroke-linejoin:round;stroke-miterlimit:4;stroke-dasharray:none;stroke-dashoffset:2.1875;stroke-opacity:1;color-rendering:auto;image-rendering:auto;shape-rendering:auto;text-rendering:auto;enable-background:accumulate;stop-color:#000000"
       d="M 5.3723142,6.196608 C 5.2922162,6.203728 5.2145945,6.242473 5.1594071,6.3082225 a 0.1323049,0.13229881 0 0 0 -0.031006,0.084749 V 6.3454285 L 2.5854041,9.373013 a 0.1323049,0.13229881 0 0 0 -5.292e-4,0.0011 0.1323049,0.13229881 0 0 0 -0.018087,0.02894 0.1323049,0.13229881 0 0 0 -0.00206,0.0031 v 5.3e-4 c -2.627e-4,5.29e-4 -7.673e-4,0.0011 -0.00103,0.0016 a 0.1323049,0.13229881 0 0 0 -0.00878,0.01654 c -0.00597,0.01005 -0.011824,0.01868 -0.017571,0.03255 0,0 -5.291e-4,5.29e-4 -5.291e-4,5.29e-4 a 0.1323049,0.13229881 0 0 0 -0.00723,0.02585 c -0.00334,0.01101 -0.00792,0.0227 -0.00982,0.03255 l -5.292e-4,0.0041 c -9.68e-5,5.29e-4 9.37e-5,0.0011 0,0.0016 a 0.1323049,0.13229881 0 0 0 -0.00206,0.01913 v 5.29e-4 c -0.00122,0.01077 -0.00346,0.02188 -0.00362,0.03204 a 0.1323049,0.13229881 0 0 0 0,0.0021 c 0,0.02212 0.00281,0.03634 0.00465,0.04754 a 0.1323049,0.13229881 0 0 0 5.291e-4,0.0047 c 8.87e-5,5.3e-4 -8.09e-5,0.0021 0,0.0026 a 0.1323049,0.13229881 0 0 0 0.00103,0.0047 c 0.00228,0.01188 0.00657,0.02334 0.010335,0.03514 a 0.1323049,0.13229881 0 0 0 0.00517,0.01913 c 3.44e-4,7.93e-4 6.88e-4,0.0019 0.00103,0.0026 a 0.1323049,0.13229881 0 0 0 5.292e-4,0.0016 c 0.00608,0.01466 0.012732,0.0245 0.019121,0.03514 a 0.1323049,0.13229881 0 0 0 0.00775,0.01498 c 2.646e-4,5.29e-4 7.673e-4,0.0011 0.00103,0.0016 -7.408e-4,-0.0011 0.00257,0.0037 0.00206,0.0031 a 0.1323049,0.13229881 0 0 0 0.017571,0.02791 0.1323049,0.13229881 0 0 0 5.292e-4,5.3e-4 c 0,0 0,5.29e-4 0,5.29e-4 a 0.1323049,0.13229881 0 0 0 5.291e-4,5.29e-4 l 2.5429974,3.028098 v -0.04806 a 0.1323049,0.13229881 0 0 0 0.031006,0.08526 c 0.055448,0.06606 0.1334903,0.104032 0.2129071,0.111099 0.079394,0.0071 0.163768,-0.01683 0.2299599,-0.07234 l 0.5575888,-0.467651 a 0.1323049,0.13229881 0 0 0 0.032039,-0.0403 c 0.016002,-0.01863 0.034395,-0.03531 0.045475,-0.05685 a 0.1323049,0.13229881 0 0 0 0,-5.29e-4 0.1323049,0.13229881 0 0 0 0.01447,-0.04909 c 0.00696,-0.02204 0.017074,-0.04363 0.019121,-0.06614 a 0.1323049,0.13229881 0 0 0 0,-5.29e-4 c 0.00335,-0.03838 -4.71e-5,-0.07963 -0.01292,-0.120401 -0.0073,-0.02352 -0.02223,-0.04237 -0.034623,-0.06304 a 0.1323049,0.13229881 0 0 0 -0.024805,-0.04496 0.1323049,0.13229881 0 0 0 0,-5.29e-4 L 5.6503505,11.318936 h 3.1801677 c 0.1717791,0 0.3141927,-0.142417 0.3141927,-0.314179 v -0.636625 c 0,-0.171762 -0.1424207,-0.314177 -0.3141927,-0.314177 H 4.5878831 L 4.1868739,9.57597 4.5878831,9.097987 h 3.878833 A 0.1323049,0.13229881 0 0 0 8.5990078,8.9657 V 7.9652894 A 0.1323049,0.13229881 0 0 0 8.4667161,7.8330057 H 5.6503505 L 6.1986376,7.1798446 a 0.1323049,0.13229881 0 0 0 0.024289,-0.044439 c 0.012779,-0.021378 0.028386,-0.041714 0.035657,-0.065109 a 0.1323049,0.13229881 0 0 0 0,-5.292e-4 c 0.012211,-0.03969 0.015788,-0.080373 0.012401,-0.1193668 -0.00206,-0.023654 -0.012396,-0.044897 -0.019637,-0.067178 a 0.1323049,0.13229881 0 0 0 -0.013435,-0.048572 c -0.011031,-0.021511 -0.02972,-0.037925 -0.045475,-0.056327 a 0.1323049,0.13229881 0 0 0 -5.291e-4,-0.00106 0.1323049,0.13229881 0 0 0 -0.032039,-0.039788 L 5.6022786,6.2693102 C 5.5364728,6.2141419 5.452425,6.1898267 5.3723187,6.1969652 Z m 0.8862507,0.8727757 a 0.1323049,0.13229881 0 0 0 0.00568,-0.038759 z m -5.291e-4,5.0108323 0.0062,0.03979 a 0.1323049,0.13229881 0 0 0 -0.00567,-0.03927 c 0,0 -5.291e-4,-5.29e-4 -5.291e-4,-5.29e-4 z M 5.3960727,6.4601436 c 0.01266,-0.00106 0.024747,0.00238 0.036174,0.01188 l 0.5100465,0.427863 v -0.061492 a 0.1323049,0.13229881 0 0 0 0.047542,0.1012799 c 0.00617,0.00519 0.00992,0.010239 0.012401,0.014975 0,0 0,5.292e-4 0,5.292e-4 0.00306,0.00616 0.00468,0.012012 0.00517,0.017568 a 0.1323049,0.13229881 0 0 0 0,5.292e-4 c 6.085e-4,0.00706 -4.498e-4,0.013361 -0.00206,0.0186 a 0.1323049,0.13229881 0 0 0 0,5.292e-4 c -0.00177,0.00529 -0.00469,0.01106 -0.0093,0.016536 a 0.1323049,0.13229881 0 0 0 -0.031006,0.085262 V 7.046148 L 5.2653323,7.8796517 A 0.1323049,0.13229881 0 0 0 5.366618,8.097197 H 8.3343956 V 8.833035 H 4.5263592 A 0.1323049,0.13229881 0 0 0 4.4250733,8.880055 L 3.9124431,9.490332 a 0.1323049,0.13229881 0 0 0 0,0.170008 l 0.5126302,0.610785 a 0.1323049,0.13229881 0 0 0 0.1012859,0.04702 h 4.3041301 c 0.029766,0 0.049609,0.01984 0.049609,0.04961 v 0.636624 c 0,0.02977 -0.019852,0.04961 -0.049609,0.04961 H 5.366618 A 0.1323049,0.13229881 0 0 0 5.2653323,11.27154 l 0.6996988,0.833501 v -0.04806 a 0.1323049,0.13229881 0 0 0 0.030489,0.08475 c 0.00585,0.007 0.00849,0.0127 0.00982,0.01704 a 0.1323049,0.13229881 0 0 0 5.292e-4,0.0011 c 0.00132,0.0042 0.00222,0.0099 0.00156,0.01757 -6.085e-4,0.0068 -0.00262,0.01315 -0.00517,0.0181 a 0.1323049,0.13229881 0 0 0 0,5.29e-4 0.1323049,0.13229881 0 0 0 -5.292e-4,5.29e-4 c -0.00266,0.005 -0.00604,0.0096 -0.011885,0.01447 a 0.1323049,0.13229881 0 0 0 -0.047542,0.09612 v -0.05638 l -0.5100466,0.428376 c -0.011041,0.0093 -0.022836,0.01257 -0.036174,0.01138 -0.013107,-0.0011 -0.024344,-0.0063 -0.03359,-0.01704 0,0 -5.292e-4,-5.29e-4 -5.292e-4,-5.29e-4 a 0.1323049,0.13229881 0 0 0 0,-5.29e-4 L 2.8189815,9.644301 v 0.04806 a 0.1323049,0.13229881 0 0 0 -0.022738,-0.0739 0.1323049,0.13229881 0 0 0 -0.00103,-0.0011 0.1323049,0.13229881 0 0 0 -0.00156,-0.0031 c 0.00693,0.0086 0.00678,0.0088 -0.00568,-0.01085 a 0.1323049,0.13229881 0 0 0 -5.291e-4,-0.0011 0.1323049,0.13229881 0 0 0 -0.00103,-0.0021 c -0.0037,-0.0057 -0.00457,-0.0071 -0.00465,-0.0072 0,0 0,-5.3e-4 0,-5.3e-4 0,0 -5.291e-4,-5.29e-4 -5.291e-4,-5.29e-4 -9.79e-4,-0.0026 -9.79e-4,-0.0043 -0.00156,-0.0072 -5.821e-4,-0.0044 -0.00153,-0.0091 -0.00156,-0.0083 -1.9e-6,1.01e-4 0,-0.0013 0,-0.0011 1.299e-4,-0.0028 5.821e-4,-0.0051 0.00103,-0.0072 a 0.1323049,0.13229881 0 0 0 5.292e-4,-0.0021 c 9.261e-4,-0.0048 9.525e-4,-0.0053 0.00156,-0.0067 a 0.1323049,0.13229881 0 0 0 5.291e-4,-0.0011 c -3.439e-4,7.94e-4 2.109e-4,-0.0011 0.00465,-0.0078 a 0.1323049,0.13229881 0 0 0 0.0093,-0.01707 0.1323049,0.13229881 0 0 0 0.023254,-0.0739 v 0.04651 L 5.3619602,6.4785586 a 0.1323049,0.13229881 0 0 0 0,-5.292e-4 l 5.292e-4,-5.292e-4 c 0.0095,-0.011033 0.021151,-0.016457 0.03359,-0.017568 z" />
  </g>
</svg>
