<?xml version="1.0" encoding="UTF-8" standalone="no"?>
<svg
   xmlns:dc="http://purl.org/dc/elements/1.1/"
   xmlns:cc="http://creativecommons.org/ns#"
   xmlns:rdf="http://www.w3.org/1999/02/22-rdf-syntax-ns#"
   xmlns:svg="http://www.w3.org/2000/svg"
   xmlns="http://www.w3.org/2000/svg"
   xmlns:sodipodi="http://sodipodi.sourceforge.net/DTD/sodipodi-0.dtd"
   xmlns:inkscape="http://www.inkscape.org/namespaces/inkscape"
   width="64"
   height="64"
   viewBox="0 0 16.933333 16.933334"
   version="1.1"
   id="svg841"
   inkscape:version="1.0.2 (e86c870879, 2021-01-15)"
   sodipodi:docname="security-high.svg">
  <defs
     id="defs835" />
  <sodipodi:namedview
     id="base"
     pagecolor="#c4c4c4"
     bordercolor="#666666"
     borderopacity="1.0"
     inkscape:pageopacity="0"
     inkscape:pageshadow="2"
     inkscape:zoom="3.9677066"
     inkscape:cx="-26.141423"
     inkscape:cy="20.620332"
     inkscape:document-units="px"
     inkscape:current-layer="layer1"
     inkscape:document-rotation="0"
     showgrid="false"
     units="px"
     inkscape:window-width="2048"
     inkscape:window-height="1080"
     inkscape:window-x="0"
     inkscape:window-y="0"
     inkscape:window-maximized="1" />
  <metadata
     id="metadata838">
    <rdf:RDF>
      <cc:Work
         rdf:about="">
        <dc:format>image/svg+xml</dc:format>
        <dc:type
           rdf:resource="http://purl.org/dc/dcmitype/StillImage" />
        <dc:title />
      </cc:Work>
    </rdf:RDF>
  </metadata>
  <g
     inkscape:label="Layer 1"
     inkscape:groupmode="layer"
     id="layer1">
    <path
       id="path1026-5-92-3"
       style="color:#000000;font-style:normal;font-variant:normal;font-weight:normal;font-stretch:normal;font-size:medium;line-height:normal;font-family:sans-serif;font-variant-ligatures:normal;font-variant-position:normal;font-variant-caps:normal;font-variant-numeric:normal;font-variant-alternates:normal;font-variant-east-asian:normal;font-feature-settings:normal;font-variation-settings:normal;text-indent:0;text-align:start;text-decoration:none;text-decoration-line:none;text-decoration-style:solid;text-decoration-color:#000000;letter-spacing:normal;word-spacing:normal;text-transform:none;writing-mode:lr-tb;direction:ltr;text-orientation:mixed;dominant-baseline:auto;baseline-shift:baseline;text-anchor:start;white-space:normal;shape-padding:0;shape-margin:0;inline-size:0;clip-rule:nonzero;display:inline;overflow:visible;visibility:visible;opacity:0.15;isolation:auto;mix-blend-mode:normal;color-interpolation:sRGB;color-interpolation-filters:linearRGB;solid-color:#000000;solid-opacity:1;vector-effect:none;fill:#0c0c0c;fill-opacity:1;fill-rule:nonzero;stroke:none;stroke-width:0.999948;stroke-linecap:round;stroke-linejoin:round;stroke-miterlimit:4;stroke-dasharray:none;stroke-dashoffset:2.1875;stroke-opacity:1;color-rendering:auto;image-rendering:auto;shape-rendering:auto;text-rendering:auto;enable-background:accumulate;stop-color:#000000"
       d="m 8.4664288,1.3229167 c -4.1597264,0 -7.54038712,3.3810393 -7.54038712,7.5406286 0,4.1595857 3.38066072,7.5406247 7.54038712,7.5406247 4.1597262,0 7.5408632,-3.381039 7.5408632,-7.5406247 0,-4.1595893 -3.381137,-7.5406286 -7.5408632,-7.5406286 z m 0,0.7931812 c 3.7307572,0 6.7461082,3.016803 6.7461082,6.7474474 0,3.7306407 -3.015351,6.7453797 -6.7461082,6.7453797 -3.7307839,0 -6.7456317,-3.014739 -6.7456317,-6.7453797 0,-3.7306444 3.0148478,-6.7474474 6.7456317,-6.7474474 z" />
    <path
       id="path1026-5-2-0-2"
       style="color:#000000;font-style:normal;font-variant:normal;font-weight:normal;font-stretch:normal;font-size:medium;line-height:normal;font-family:sans-serif;font-variant-ligatures:normal;font-variant-position:normal;font-variant-caps:normal;font-variant-numeric:normal;font-variant-alternates:normal;font-variant-east-asian:normal;font-feature-settings:normal;font-variation-settings:normal;text-indent:0;text-align:start;text-decoration:none;text-decoration-line:none;text-decoration-style:solid;text-decoration-color:#000000;letter-spacing:normal;word-spacing:normal;text-transform:none;writing-mode:lr-tb;direction:ltr;text-orientation:mixed;dominant-baseline:auto;baseline-shift:baseline;text-anchor:start;white-space:normal;shape-padding:0;shape-margin:0;inline-size:0;clip-rule:nonzero;display:inline;overflow:visible;visibility:visible;opacity:0.85;isolation:auto;mix-blend-mode:normal;color-interpolation:sRGB;color-interpolation-filters:linearRGB;solid-color:#000000;solid-opacity:1;vector-effect:none;fill:#446b38;fill-opacity:1;fill-rule:nonzero;stroke:none;stroke-width:0.999948;stroke-linecap:round;stroke-linejoin:round;stroke-miterlimit:4;stroke-dasharray:none;stroke-dashoffset:2.1875;stroke-opacity:1;color-rendering:auto;image-rendering:auto;shape-rendering:auto;text-rendering:auto;enable-background:accumulate;stop-color:#000000"
       d="m 8.4664288,0.92604168 c -4.1597264,0 -7.54038712,3.38103932 -7.54038712,7.54062862 0,4.1595857 3.38066072,7.5406247 7.54038712,7.5406247 4.1597262,0 7.5408632,-3.381039 7.5408632,-7.5406247 0,-4.1595893 -3.381137,-7.54062862 -7.5408632,-7.54062862 z m 0,0.79318122 c 3.7307572,0 6.7461082,3.016803 6.7461082,6.7474474 0,3.7306397 -3.015351,6.7453797 -6.7461082,6.7453797 -3.7307839,0 -6.7456317,-3.01474 -6.7456317,-6.7453797 0,-3.7306444 3.0148478,-6.7474474 6.7456317,-6.7474474 z" />
    <path
       id="path901-2-0"
       style="fill:#69a555;fill-opacity:1;stroke-width:0;stroke-linecap:round;stroke-linejoin:round;stroke-dashoffset:2.1875"
       d="M 8.4594438,1.3229167 A 7.1437502,7.1437502 0 0 0 1.3229167,8.4666673 7.1437502,7.1437502 0 0 0 8.4666669,15.61042 V 1.3229167 a 7.1437502,7.1437502 0 0 0 -0.00714,0 z" />
    <path
       id="path901-6-3-6"
       style="fill:#83b672;fill-opacity:1;stroke-width:0;stroke-linecap:round;stroke-linejoin:round;stroke-dashoffset:2.1875"
       d="M 8.4739165,1.3229167 A 7.1437502,7.1437502 0 0 1 15.610417,8.4666673 7.1437502,7.1437502 0 0 1 8.4666669,15.61042 V 1.3229167 a 7.1437502,7.1437502 0 0 1 0.00714,0 z" />
    <path
       id="rect16-6-1-5-5-2-7-1"
       style="display:inline;opacity:0.35;fill:#33502a;fill-opacity:1;stroke:none;stroke-width:0;stroke-miterlimit:4;stroke-dasharray:none"
       d="m 12.037907,5.0272374 c -0.3175,-0.00561 -0.632275,0.1420204 -0.828913,0.4228413 L 7.3982794,10.891579 5.6721112,8.8340943 C 5.3195274,8.4139203 4.6974126,8.359059 4.2772278,8.7116213 3.8570695,9.0641893 3.8021949,9.6863093 4.1547786,10.106478 l 2.5460591,3.033369 c 0.1483254,0.176768 0.3444081,0.2858 0.5530585,0.330023 0.015875,0.0038 0.031697,0.0062 0.047678,0.0091 0.03646,0.0059 0.072734,0.01114 0.1095905,0.01291 0.050535,0.0035 0.1006475,0.0019 0.1508125,-0.0024 0.2815431,-0.02434 0.5503069,-0.164471 0.725805,-0.415105 L 12.830731,6.5859434 C 13.145347,6.1366656 13.037688,5.522475 12.588373,5.2078696 12.419886,5.0898865 12.228407,5.0307204 12.037907,5.0273761 Z" />
    <path
       id="path901-6-2-2-5-0"
       style="color:#000000;font-style:normal;font-variant:normal;font-weight:normal;font-stretch:normal;font-size:medium;line-height:normal;font-family:sans-serif;font-variant-ligatures:normal;font-variant-position:normal;font-variant-caps:normal;font-variant-numeric:normal;font-variant-alternates:normal;font-variant-east-asian:normal;font-feature-settings:normal;font-variation-settings:normal;text-indent:0;text-align:start;text-decoration:none;text-decoration-line:none;text-decoration-style:solid;text-decoration-color:#000000;letter-spacing:normal;word-spacing:normal;text-transform:none;writing-mode:lr-tb;direction:ltr;text-orientation:mixed;dominant-baseline:auto;baseline-shift:baseline;text-anchor:start;white-space:normal;shape-padding:0;shape-margin:0;inline-size:0;clip-rule:nonzero;display:inline;overflow:visible;visibility:visible;opacity:0.15;isolation:auto;mix-blend-mode:normal;color-interpolation:sRGB;color-interpolation-filters:linearRGB;solid-color:#000000;solid-opacity:1;vector-effect:none;fill:#33502a;fill-opacity:1;fill-rule:nonzero;stroke:none;stroke-width:0.264583;stroke-linecap:round;stroke-linejoin:round;stroke-miterlimit:4;stroke-dasharray:none;stroke-dashoffset:2.1875;stroke-opacity:1;color-rendering:auto;image-rendering:auto;shape-rendering:auto;text-rendering:auto;enable-background:accumulate;stop-color:#000000"
       d="M 8.4589146,0.92604168 C 4.3020193,0.93025168 0.92604168,4.309761 0.92604168,8.4666673 c 0,4.1515527 3.36740512,7.5266237 7.51583372,7.5401077 0.0082,2.7e-5 0.016404,5.29e-4 0.024871,5.29e-4 0.00794,0 0.015875,-5.03e-4 0.023813,-5.29e-4 C 12.638988,15.993295 16.006367,12.61822 16.006367,8.4666673 16.006393,4.309761 12.630416,0.93025118 8.4734937,0.92604168 h -0.00714 -0.00714 z M 8.0697919,1.7595827 V 15.173751 C 4.5280264,14.96487 1.7197917,12.06159 1.7197917,8.4666673 c 0,-3.5945291 2.8078642,-6.4980876 6.3500002,-6.7070846 z m 0.79375,0 c 3.5421621,0.208997 6.3500271,3.1125555 6.3500001,6.7070846 0,3.5949227 -2.808208,6.4982027 -6.3500001,6.7070837 z" />
    <path
       id="rect16-6-1-5-5-1-7-5-5"
       style="color:#000000;font-style:normal;font-variant:normal;font-weight:normal;font-stretch:normal;font-size:medium;line-height:normal;font-family:sans-serif;font-variant-ligatures:normal;font-variant-position:normal;font-variant-caps:normal;font-variant-numeric:normal;font-variant-alternates:normal;font-variant-east-asian:normal;font-feature-settings:normal;font-variation-settings:normal;text-indent:0;text-align:start;text-decoration:none;text-decoration-line:none;text-decoration-style:solid;text-decoration-color:#000000;letter-spacing:normal;word-spacing:normal;text-transform:none;writing-mode:lr-tb;direction:ltr;text-orientation:mixed;dominant-baseline:auto;baseline-shift:baseline;text-anchor:start;white-space:normal;shape-padding:0;shape-margin:0;inline-size:0;clip-rule:nonzero;display:inline;overflow:visible;visibility:visible;opacity:0.75;isolation:auto;mix-blend-mode:normal;color-interpolation:sRGB;color-interpolation-filters:linearRGB;solid-color:#000000;solid-opacity:1;vector-effect:none;fill:#33502a;fill-opacity:1;fill-rule:nonzero;stroke:none;stroke-width:1.00002;stroke-linecap:round;stroke-linejoin:round;stroke-miterlimit:4;stroke-dasharray:none;stroke-dashoffset:0;stroke-opacity:1;color-rendering:auto;image-rendering:auto;shape-rendering:auto;text-rendering:auto;enable-background:accumulate;stop-color:#000000"
       d="m 12.041823,4.1012111 c -0.360098,-0.0063 -0.717391,0.1627399 -0.939615,0.4800283 L 7.3887544,9.8796423 5.7731291,7.9559102 C 5.3748783,7.4814252 4.6657685,7.4192322 4.1910795,7.8174302 3.7164963,8.2155723 3.6542663,8.9229883 4.0525701,9.3975483 l 2.5469851,3.0326057 c 0.1680368,0.200205 0.3915569,0.325255 0.6269037,0.375135 0.020902,0.0048 0.038603,0.0075 0.05117,0.0098 a 0.13232325,0.13229243 0 0 0 0.0037,0 c 0.037915,0.0061 0.077787,0.01333 0.1230048,0.0155 0.05879,0.0039 0.1159669,5.29e-4 0.1700477,-0.0041 0.3177911,-0.02748 0.6236494,-0.1866 0.8222986,-0.470212 L 12.940189,5.8683765 C 13.295445,5.3610998 13.172731,4.6610972 12.665208,4.3058224 12.495372,4.1869213 12.301353,4.1379178 12.108074,4.122387 a 0.13232325,0.13229243 0 0 0 -0.06615,-0.021193 z m -0.0058,0.2655914 c 0.164703,0.00291 0.329565,0.05316 0.476515,0.1560486 0.391239,0.2738729 0.484901,0.8018516 0.210872,1.193096 L 8.179885,12.203832 c -0.1524,0.217607 -0.3836194,0.3379 -0.628994,0.359117 -0.045667,0.0039 -0.089165,0.0049 -0.1307571,0.0021 a 0.13232325,0.13229243 0 0 0 -0.00265,0 c -0.028496,-0.0013 -0.06059,-0.0062 -0.09562,-0.01188 l 0.00265,0.0021 c -0.018521,-0.0033 -0.030083,-0.0057 -0.038761,-0.0078 a 0.13232325,0.13229243 0 0 0 -0.00397,-0.0021 C 7.0998293,12.506821 6.9318454,12.413452 6.803205,12.260158 L 4.2556907,9.2275513 C 3.9487476,8.8618493 3.9952614,8.3253646 4.3611272,8.0184376 4.7269137,7.7115786 5.2630124,7.7601325 5.5700085,8.1259137 l 1.7267502,2.0565293 a 0.13232325,0.13229243 0 0 0 0.2093119,-0.0098 L 11.317235,4.7316473 C 11.488341,4.487344 11.761126,4.361995 12.036161,4.3668448 Z" />
    <path
       id="rect16-6-1-5-5-9-5"
       style="display:inline;fill:#fdfbfc;fill-opacity:1;stroke:none;stroke-width:0;stroke-miterlimit:4;stroke-dasharray:none"
       d="m 12.037907,4.2334763 c -0.3175,-0.00561 -0.632275,0.1420204 -0.828913,0.4228412 L 7.3982794,10.097818 5.6721112,8.0403332 C 5.3195274,7.6201592 4.6974126,7.5652981 4.2772278,7.9178602 3.8570695,8.2704281 3.8021949,8.8925483 4.1547786,9.3127173 l 2.5460591,3.0333707 c 0.1483254,0.176768 0.3444081,0.285801 0.5530585,0.330023 0.015875,0.0038 0.031697,0.0062 0.047678,0.0091 0.03646,0.0059 0.072734,0.01114 0.1095905,0.01291 0.050535,0.0035 0.1006475,0.0019 0.1508125,-0.0024 0.2815431,-0.02434 0.5503069,-0.16447 0.725805,-0.415105 L 12.830731,5.7921942 C 13.145347,5.3429166 13.037688,4.7287263 12.588373,4.4141232 12.419886,4.2961402 12.228407,4.2369717 12.037907,4.2336271 Z" />
  </g>
</svg>
