<?xml version="1.0" encoding="UTF-8" standalone="no"?>
<svg
   xmlns:dc="http://purl.org/dc/elements/1.1/"
   xmlns:cc="http://creativecommons.org/ns#"
   xmlns:rdf="http://www.w3.org/1999/02/22-rdf-syntax-ns#"
   xmlns:svg="http://www.w3.org/2000/svg"
   xmlns="http://www.w3.org/2000/svg"
   xmlns:xlink="http://www.w3.org/1999/xlink"
   xmlns:sodipodi="http://sodipodi.sourceforge.net/DTD/sodipodi-0.dtd"
   xmlns:inkscape="http://www.inkscape.org/namespaces/inkscape"
   width="64"
   height="64"
   viewBox="0 0 16.933333 16.933334"
   version="1.1"
   id="svg841"
   inkscape:version="1.0.2 (e86c870879, 2021-01-15)"
   sodipodi:docname="task-past-due.svg">
  <defs
     id="defs835">
    <linearGradient
       inkscape:collect="always"
       xlink:href="#linearGradient3013"
       id="linearGradient2995"
       gradientUnits="userSpaceOnUse"
       x1="3.4395835"
       y1="2.1166675"
       x2="13.493752"
       y2="16.404167" />
    <linearGradient
       inkscape:collect="always"
       id="linearGradient3013">
      <stop
         style="stop-color:#da4e75;stop-opacity:1"
         offset="0"
         id="stop3009" />
      <stop
         style="stop-color:#d53460;stop-opacity:1"
         offset="1"
         id="stop3011" />
    </linearGradient>
    <linearGradient
       inkscape:collect="always"
       xlink:href="#linearGradient3680-7"
       id="linearGradient2997"
       gradientUnits="userSpaceOnUse"
       gradientTransform="translate(-0.16224778,-23.078188)"
       x1="6.9795055"
       y1="23.404812"
       x2="10.278595"
       y2="26.579811" />
    <linearGradient
       inkscape:collect="always"
       id="linearGradient3680-7">
      <stop
         style="stop-color:#fcfcfc;stop-opacity:0.55000001"
         offset="0"
         id="stop3678-2" />
      <stop
         style="stop-color:#fcfcfc;stop-opacity:0"
         offset="1"
         id="stop3676-7" />
    </linearGradient>
  </defs>
  <sodipodi:namedview
     id="base"
     pagecolor="#c4c4c4"
     bordercolor="#666666"
     borderopacity="1.0"
     inkscape:pageopacity="0"
     inkscape:pageshadow="2"
     inkscape:zoom="2.8903394"
     inkscape:cx="46.372831"
     inkscape:cy="36.927888"
     inkscape:document-units="px"
     inkscape:current-layer="layer1"
     inkscape:document-rotation="0"
     showgrid="false"
     units="px"
     inkscape:window-width="2048"
     inkscape:window-height="1080"
     inkscape:window-x="0"
     inkscape:window-y="0"
     inkscape:window-maximized="1" />
  <metadata
     id="metadata838">
    <rdf:RDF>
      <cc:Work
         rdf:about="">
        <dc:format>image/svg+xml</dc:format>
        <dc:type
           rdf:resource="http://purl.org/dc/dcmitype/StillImage" />
        <dc:title />
      </cc:Work>
    </rdf:RDF>
  </metadata>
  <g
     inkscape:label="Layer 1"
     inkscape:groupmode="layer"
     id="layer1">
    <rect
       style="opacity:0.25;fill:#0c0c0c;fill-opacity:1;stroke-width:1.19063;stroke-linecap:round;stroke-linejoin:round;stroke-dashoffset:2.1875"
       id="rect848-6-3-2-3-2-6-4-6-3"
       width="13.229167"
       height="14.2875"
       x="1.8520834"
       y="2.3812506"
       rx="0.79375005"
       ry="0.79375005" />
    <path
       id="rect848-6-3-2-3-2-63-2-4-1-8"
       style="color:#000000;font-style:normal;font-variant:normal;font-weight:normal;font-stretch:normal;font-size:medium;line-height:normal;font-family:sans-serif;font-variant-ligatures:normal;font-variant-position:normal;font-variant-caps:normal;font-variant-numeric:normal;font-variant-alternates:normal;font-variant-east-asian:normal;font-feature-settings:normal;font-variation-settings:normal;text-indent:0;text-align:start;text-decoration:none;text-decoration-line:none;text-decoration-style:solid;text-decoration-color:#000000;letter-spacing:normal;word-spacing:normal;text-transform:none;writing-mode:lr-tb;direction:ltr;text-orientation:mixed;dominant-baseline:auto;baseline-shift:baseline;text-anchor:start;white-space:normal;shape-padding:0;shape-margin:0;inline-size:0;clip-rule:nonzero;display:inline;overflow:visible;visibility:visible;isolation:auto;mix-blend-mode:normal;color-interpolation:sRGB;color-interpolation-filters:linearRGB;solid-color:#000000;solid-opacity:1;vector-effect:none;fill:#771832;fill-opacity:1;fill-rule:nonzero;stroke:none;stroke-width:1.00002;stroke-linecap:round;stroke-linejoin:round;stroke-miterlimit:4;stroke-dasharray:none;stroke-dashoffset:2.1875;stroke-opacity:1;color-rendering:auto;image-rendering:auto;shape-rendering:auto;text-rendering:auto;enable-background:accumulate;stop-color:#000000"
       d="M 2.6458731,1.5875008 C 2.0641099,1.5875008 1.5875,2.0625444 1.5875,2.6442837 V 15.345319 c 0,0.581739 0.4766099,1.058852 1.0583731,1.058852 H 14.286945 c 0.58176,0 1.058889,-0.477113 1.058889,-1.058852 V 2.6442837 c 0,-0.5817393 -0.477129,-1.0567829 -1.058889,-1.0567829 z m 0,0.5276163 H 14.286945 c 0.297746,0 0.529185,0.231431 0.529185,0.5291666 V 15.345319 c 0,0.297735 -0.231439,0.529685 -0.529185,0.529685 H 2.6458731 c -0.2977462,0 -0.5291852,-0.23195 -0.5291852,-0.529685 V 2.6442837 c 0,-0.2977356 0.231439,-0.5291666 0.5291852,-0.5291666 z" />
    <rect
       style="fill:url(#linearGradient2995);fill-opacity:1;stroke-width:1.19063;stroke-linecap:round;stroke-linejoin:round;stroke-dashoffset:2.1875"
       id="rect848-6-3-2-3-2-3-15-6"
       width="13.229167"
       height="14.2875"
       x="1.8520834"
       y="1.852084"
       rx="0.79375005"
       ry="0.79375005" />
    <ellipse
       style="opacity:0.3;fill:#65162b;fill-opacity:1;stroke:none;stroke-width:0;stroke-linecap:round;stroke-linejoin:round;stroke-dashoffset:2.1875"
       id="path1414-4-6-62-5-1-4-9-4"
       cx="8.4666662"
       cy="2.3771489"
       rx="1.6495433"
       ry="1.6495448" />
    <ellipse
       style="fill:#fcb503;fill-opacity:1;stroke:none;stroke-width:0;stroke-linecap:round;stroke-linejoin:round;stroke-dashoffset:2.1875"
       id="path1414-4-6-3-5-5-6-8"
       cx="8.4666662"
       cy="1.9141363"
       rx="1.6495433"
       ry="1.6495448" />
    <ellipse
       style="opacity:0.451;fill:url(#linearGradient2997);fill-opacity:1;stroke:none;stroke-width:0;stroke-linecap:round;stroke-linejoin:round;stroke-dashoffset:2.1875"
       id="path1414-4-6-13-6-4-0-2-8"
       cx="8.4667959"
       cy="1.9141282"
       rx="1.6495433"
       ry="1.6495448" />
    <path
       id="path1414-4-6-629-1-3-0-1-5-5-4-1-8"
       style="opacity:0.65;fill:#0c0c0c;fill-opacity:1;stroke:none;stroke-width:0;stroke-linecap:round;stroke-linejoin:round;stroke-dashoffset:2.1875"
       d="M 8.4666325,0.26458408 A 1.6495433,1.6495449 0 0 0 6.817122,1.9140946 1.6495433,1.6495449 0 0 0 8.4666325,3.563605 1.6495433,1.6495449 0 0 0 10.116143,1.9140946 1.6495433,1.6495449 0 0 0 8.4666325,0.26458408 Z m 0,0.2645834 A 1.3849602,1.3849615 0 0 1 9.85156,1.9140946 1.3849602,1.3849615 0 0 1 8.4666325,3.2990217 1.3849602,1.3849615 0 0 1 7.0817054,1.9140946 1.3849602,1.3849615 0 0 1 8.4666325,0.52916748 Z" />
    <path
       id="rect3810-5-3"
       style="opacity:0.25;fill:#65162b;fill-opacity:1;stroke:none;stroke-width:0.529167;stroke-linecap:round;stroke-linejoin:round;stroke-miterlimit:4;stroke-dasharray:none;stroke-opacity:1"
       d="m 11.385164,6.9537268 c -0.103648,-0.103645 -0.270531,-0.103645 -0.374176,0 l -2.5443343,2.544334 -2.544334,-2.544334 c -0.1036452,-0.103645 -0.2705285,-0.103645 -0.3741764,0 l -0.7107158,0.710716 c -0.1036479,0.103648 -0.1036479,0.270531 0,0.374179 l 2.5443339,2.5443322 -2.5447017,2.544701 c -0.1036452,0.103646 -0.1036452,0.270529 0,0.374177 l 0.7110836,0.711083 c 0.1036479,0.103646 0.2705312,0.103646 0.3741764,0 l 2.5447017,-2.544701 2.5443316,2.544334 c 0.103648,0.103647 0.270531,0.103647 0.374179,0 l 0.710716,-0.710716 c 0.103645,-0.103648 0.103645,-0.270531 0,-0.374177 L 9.551914,10.583321 12.096248,8.0389868 c 0.103645,-0.103645 0.103645,-0.270528 0,-0.374176 z" />
    <path
       id="rect3810-5-9-6"
       style="color:#000000;font-style:normal;font-variant:normal;font-weight:normal;font-stretch:normal;font-size:medium;line-height:normal;font-family:sans-serif;font-variant-ligatures:normal;font-variant-position:normal;font-variant-caps:normal;font-variant-numeric:normal;font-variant-alternates:normal;font-variant-east-asian:normal;font-feature-settings:normal;font-variation-settings:normal;text-indent:0;text-align:start;text-decoration:none;text-decoration-line:none;text-decoration-style:solid;text-decoration-color:#000000;letter-spacing:normal;word-spacing:normal;text-transform:none;writing-mode:lr-tb;direction:ltr;text-orientation:mixed;dominant-baseline:auto;baseline-shift:baseline;text-anchor:start;white-space:normal;shape-padding:0;shape-margin:0;inline-size:0;clip-rule:nonzero;display:inline;overflow:visible;visibility:visible;opacity:0.75;isolation:auto;mix-blend-mode:normal;color-interpolation:sRGB;color-interpolation-filters:linearRGB;solid-color:#000000;solid-opacity:1;vector-effect:none;fill:#65162b;fill-opacity:1;fill-rule:nonzero;stroke:none;stroke-width:0.264681;stroke-linecap:round;stroke-linejoin:round;stroke-miterlimit:4;stroke-dasharray:none;stroke-dashoffset:0;stroke-opacity:1;color-rendering:auto;image-rendering:auto;shape-rendering:auto;text-rendering:auto;enable-background:accumulate;stop-color:#000000"
       d="m 11.199083,5.6192218 c -0.119121,0 -0.238245,0.044897 -0.327756,0.1344083 L 8.4664102,8.1585018 6.0614905,5.7536301 C 5.9719794,5.6641189 5.8532635,5.6197377 5.7342539,5.6197404 5.6152443,5.6197377 5.4960125,5.6641216 5.4064986,5.7536301 L 4.6956743,6.4649598 c -0.1790224,0.1790224 -0.179025,0.475962 0,0.654981 l 2.4049144,2.404872 -2.405433,2.4053912 c -0.179025,0.179022 -0.1790224,0.475959 0,0.654981 l 0.7113429,0.71133 c 0.179025,0.17902 0.4759696,0.179022 0.6549919,0 l 2.4054357,-2.405391 2.4049168,2.404875 c 0.179028,0.179022 0.47597,0.179022 0.654995,0 l 0.711343,-0.710814 c 0.179019,-0.179022 0.179022,-0.475959 0,-0.654981 L 9.832748,9.5248128 12.238181,7.1199408 c 0.179022,-0.179019 0.179019,-0.475956 0,-0.654981 L 11.526838,5.7536301 C 11.437324,5.6641216 11.318206,5.6192218 11.199083,5.6192218 Z M 5.7342539,6.0131414 c 0.016298,0 0.032351,0.00701 0.046527,0.021193 l 2.5455298,2.5454854 a 0.19853413,0.19853042 0 0 0 0.2807124,0 L 11.152556,6.0343345 c 0.02835,-0.028345 0.06522,-0.028347 0.09357,0 l 0.711343,0.7113297 c 0.02835,0.02835 0.02835,0.065222 0,0.09357 L 9.411937,9.3847168 a 0.19853413,0.19853042 0 0 0 0,0.280707 l 2.545532,2.5454842 c 0.02835,0.02834 0.02835,0.06522 0,0.09357 l -0.711343,0.710813 c -0.02835,0.02835 -0.06522,0.02835 -0.09357,0 L 8.607539,10.469805 a 0.19853413,0.19853042 0 0 0 -0.2807097,0 l -2.5460484,2.546 c -0.02835,0.02835 -0.06522,0.02835 -0.09357,0 L 4.9758681,12.304476 c -0.02835,-0.02835 -0.028348,-0.06522 0,-0.09357 L 7.5219165,9.6649058 a 0.19853413,0.19853042 0 0 0 0,-0.280707 L 4.976384,6.8392341 c -0.02835,-0.028353 -0.028355,-0.065214 0,-0.09357 L 5.687211,6.0343345 c 0.014182,-0.014155 0.030737,-0.021193 0.047043,-0.021193 z" />
    <path
       id="rect3810-5"
       style="fill:#fbfcfd;fill-opacity:1;stroke:none;stroke-width:0.529167;stroke-linecap:round;stroke-linejoin:round;stroke-miterlimit:4;stroke-dasharray:none;stroke-opacity:1"
       d="m 11.385164,5.8953939 c -0.103648,-0.1036453 -0.270531,-0.1036453 -0.374176,0 L 8.4666537,8.4397278 5.9223197,5.8953939 c -0.1036452,-0.1036453 -0.2705285,-0.1036453 -0.3741764,0 L 4.8374275,6.6061097 c -0.1036479,0.1036479 -0.1036479,0.2705311 0,0.3741791 l 2.5443339,2.544331 -2.5447017,2.5447022 c -0.1036452,0.103645 -0.1036452,0.270528 0,0.374176 l 0.7110836,0.711084 c 0.1036479,0.103645 0.2705312,0.103645 0.3741764,0 l 2.5447017,-2.544702 2.5443316,2.544334 c 0.103648,0.103648 0.270531,0.103648 0.374179,0 l 0.710716,-0.710716 c 0.103645,-0.103648 0.103645,-0.270531 0,-0.374176 L 9.551914,9.5249878 12.096248,6.9806538 c 0.103645,-0.103645 0.103645,-0.2705285 0,-0.3741763 z" />
  </g>
</svg>
