<?xml version="1.0" encoding="UTF-8" standalone="no"?>
<svg
   xmlns:dc="http://purl.org/dc/elements/1.1/"
   xmlns:cc="http://creativecommons.org/ns#"
   xmlns:rdf="http://www.w3.org/1999/02/22-rdf-syntax-ns#"
   xmlns:svg="http://www.w3.org/2000/svg"
   xmlns="http://www.w3.org/2000/svg"
   xmlns:xlink="http://www.w3.org/1999/xlink"
   xmlns:sodipodi="http://sodipodi.sourceforge.net/DTD/sodipodi-0.dtd"
   xmlns:inkscape="http://www.inkscape.org/namespaces/inkscape"
   width="64"
   height="64"
   viewBox="0 0 64 64"
   version="1.1"
   id="svg6374"
   inkscape:version="1.0.2 (e86c870879, 2021-01-15)"
   sodipodi:docname="system-users.svg">
  <defs
     id="defs6368">
    <linearGradient
       inkscape:collect="always"
       xlink:href="#linearGradient1906"
       id="linearGradient1668-0-5"
       x1="834.2868"
       y1="644.63501"
       x2="833.90509"
       y2="664.95117"
       gradientUnits="userSpaceOnUse"
       gradientTransform="matrix(0.75014865,0,0,0.75,-603.3391,-451.38694)" />
    <linearGradient
       inkscape:collect="always"
       id="linearGradient1906">
      <stop
         style="stop-color:#a0a0a2;stop-opacity:1"
         offset="0"
         id="stop1904" />
      <stop
         style="stop-color:#afafb1;stop-opacity:1"
         offset="1"
         id="stop1902" />
    </linearGradient>
    <linearGradient
       inkscape:collect="always"
       xlink:href="#linearGradient1906"
       id="linearGradient1660-8-6"
       x1="834.18811"
       y1="611.01599"
       x2="834.2868"
       y2="637.14502"
       gradientUnits="userSpaceOnUse"
       gradientTransform="matrix(0.74999914,0,0,0.75,-603.21438,-452.13693)" />
    <linearGradient
       inkscape:collect="always"
       xlink:href="#linearGradient2658"
       id="linearGradient1139"
       gradientUnits="userSpaceOnUse"
       gradientTransform="matrix(0.75,0,0,0.75,-676.49999,-446.87502)"
       x1="932"
       y1="638.61914"
       x2="932.03491"
       y2="659.04791" />
    <linearGradient
       inkscape:collect="always"
       id="linearGradient2658">
      <stop
         style="stop-color:#fdfcfb;stop-opacity:0.55000001"
         offset="0"
         id="stop2654" />
      <stop
         style="stop-color:#fcfcfc;stop-opacity:0"
         offset="1"
         id="stop2656" />
    </linearGradient>
    <linearGradient
       inkscape:collect="always"
       xlink:href="#linearGradient2658"
       id="linearGradient1141"
       gradientUnits="userSpaceOnUse"
       gradientTransform="matrix(0.75,0,0,0.75,-676.50044,-447.62502)"
       x1="931.8418"
       y1="605"
       x2="932.00555"
       y2="630.89825" />
    <linearGradient
       inkscape:collect="always"
       xlink:href="#linearGradient1186"
       id="linearGradient1668-2"
       x1="834.2868"
       y1="644.63501"
       x2="833.90509"
       y2="664.95117"
       gradientUnits="userSpaceOnUse"
       gradientTransform="matrix(0.90017838,0,0,0.9,-713.70692,-542.21432)" />
    <linearGradient
       inkscape:collect="always"
       id="linearGradient1186">
      <stop
         style="stop-color:#fafafa;stop-opacity:1"
         offset="0"
         id="stop1182" />
      <stop
         style="stop-color:#f5f5f5;stop-opacity:1"
         offset="1"
         id="stop1184" />
    </linearGradient>
    <linearGradient
       inkscape:collect="always"
       xlink:href="#linearGradient1186"
       id="linearGradient1660-3"
       x1="834.18811"
       y1="611.01599"
       x2="834.2868"
       y2="637.14502"
       gradientUnits="userSpaceOnUse"
       gradientTransform="matrix(0.89999897,0,0,0.9,-713.55726,-543.11431)" />
    <linearGradient
       inkscape:collect="always"
       xlink:href="#linearGradient2658"
       id="linearGradient1872-5"
       x1="932"
       y1="638.61914"
       x2="932.03491"
       y2="659.04791"
       gradientUnits="userSpaceOnUse"
       gradientTransform="matrix(0.9,0,0,0.9,-801.5,-536.80002)" />
    <linearGradient
       inkscape:collect="always"
       xlink:href="#linearGradient2658"
       id="linearGradient1880-3"
       x1="931.8418"
       y1="605"
       x2="932.00555"
       y2="630.89825"
       gradientUnits="userSpaceOnUse"
       gradientTransform="matrix(0.9,0,0,0.9,-801.5005,-537.70002)" />
  </defs>
  <sodipodi:namedview
     id="base"
     pagecolor="#cecece"
     bordercolor="#666666"
     borderopacity="1.0"
     inkscape:pageopacity="0"
     inkscape:pageshadow="2"
     inkscape:zoom="4.1602594"
     inkscape:cx="6.6871522"
     inkscape:cy="60.871211"
     inkscape:document-units="px"
     inkscape:current-layer="layer1"
     inkscape:document-rotation="0"
     showgrid="false"
     units="px"
     inkscape:window-width="1500"
     inkscape:window-height="970"
     inkscape:window-x="68"
     inkscape:window-y="56"
     inkscape:window-maximized="0" />
  <metadata
     id="metadata6371">
    <rdf:RDF>
      <cc:Work
         rdf:about="">
        <dc:format>image/svg+xml</dc:format>
        <dc:type
           rdf:resource="http://purl.org/dc/dcmitype/StillImage" />
        <dc:title></dc:title>
      </cc:Work>
    </rdf:RDF>
  </metadata>
  <g
     inkscape:label="Layer 1"
     inkscape:groupmode="layer"
     id="layer1">
    <path
       id="path1652-5-6-6-36-7"
       style="color:#000000;font-style:normal;font-variant:normal;font-weight:normal;font-stretch:normal;font-size:medium;line-height:normal;font-family:sans-serif;font-variant-ligatures:normal;font-variant-position:normal;font-variant-caps:normal;font-variant-numeric:normal;font-variant-alternates:normal;font-variant-east-asian:normal;font-feature-settings:normal;font-variation-settings:normal;text-indent:0;text-align:start;text-decoration:none;text-decoration-line:none;text-decoration-style:solid;text-decoration-color:#000000;letter-spacing:normal;word-spacing:normal;text-transform:none;writing-mode:lr-tb;direction:ltr;text-orientation:mixed;dominant-baseline:auto;baseline-shift:baseline;text-anchor:start;white-space:normal;shape-padding:0;shape-margin:0;inline-size:0;clip-rule:nonzero;display:inline;overflow:visible;visibility:visible;opacity:0.1;isolation:auto;mix-blend-mode:normal;color-interpolation:sRGB;color-interpolation-filters:linearRGB;solid-color:#000000;solid-opacity:1;vector-effect:none;fill:#0c0c0c;fill-opacity:1;fill-rule:nonzero;stroke:none;stroke-width:0.750083;stroke-linecap:round;stroke-linejoin:round;stroke-miterlimit:4;stroke-dasharray:none;stroke-dashoffset:0;stroke-opacity:1;color-rendering:auto;image-rendering:auto;shape-rendering:auto;text-rendering:auto;enable-background:accumulate;stop-color:#000000"
       d="m 22.50001,32.08923 c -3.46504,0 -6.93052,0.59527 -10.10075,1.8003 C 6.04681,36.30409 1.50009,41.09916 1.5,46.86813 c 7.5e-4,1.50857 1.24703,2.75614 2.75595,2.75685 h 18.24406 18.24111 c 1.50975,4.9e-4 2.75801,-1.24745 2.75888,-2.75685 -7e-5,-5.76879 -4.54529,-10.56402 -10.89779,-12.9786 -3.17032,-1.20506 -6.63711,-1.8003 -10.1022,-1.8003 z m 0,2.25001 c 3.20611,0 6.41196,0.55521 9.30223,1.65382 5.76806,2.19244 9.44645,6.29768 9.44729,10.87361 -1.7e-4,0.29374 -0.21339,0.50839 -0.50695,0.50829 a 1.1253478,1.1251192 0 0 0 -10e-4,0 H 22.50047 4.25788 4.25688 C 3.9646,47.37421 3.7522,47.16061 3.7514,46.86813 v -10e-4 c 7.6e-4,-4.57574 3.68065,-8.68115 9.44876,-10.87361 2.89036,-1.09864 6.09472,-1.65381 9.30078,-1.65381 z" />
    <path
       style="color:#000000;font-style:normal;font-variant:normal;font-weight:normal;font-stretch:normal;font-size:medium;line-height:normal;font-family:sans-serif;font-variant-ligatures:normal;font-variant-position:normal;font-variant-caps:normal;font-variant-numeric:normal;font-variant-alternates:normal;font-variant-east-asian:normal;font-feature-settings:normal;font-variation-settings:normal;text-indent:0;text-align:start;text-decoration:none;text-decoration-line:none;text-decoration-style:solid;text-decoration-color:#000000;letter-spacing:normal;word-spacing:normal;text-transform:none;writing-mode:lr-tb;direction:ltr;text-orientation:mixed;dominant-baseline:auto;baseline-shift:baseline;text-anchor:start;white-space:normal;shape-padding:0;shape-margin:0;inline-size:0;clip-rule:nonzero;display:inline;overflow:visible;visibility:visible;isolation:auto;mix-blend-mode:normal;color-interpolation:sRGB;color-interpolation-filters:linearRGB;solid-color:#000000;solid-opacity:1;vector-effect:none;fill:url(#linearGradient1668-0-5);fill-opacity:1;fill-rule:nonzero;stroke:none;stroke-width:0.617322;stroke-linecap:round;stroke-linejoin:round;stroke-miterlimit:4;stroke-dasharray:none;stroke-dashoffset:0;stroke-opacity:1;color-rendering:auto;image-rendering:auto;shape-rendering:auto;text-rendering:auto;enable-background:accumulate;stop-color:#000000"
       d="m 22.5,32.0893 c -3.33551,0 -6.67056,0.57565 -9.70082,1.72748 C 6.73866,36.12039 2.62507,40.57065 2.625,45.74326 a 1.632856,1.6327288 0 0 0 1.63208,1.63179 H 22.5 40.74161 A 1.632856,1.6327288 0 0 0 42.375,45.74326 C 42.37494,40.57065 38.26259,36.12039 32.20206,33.81678 29.1718,32.66495 25.83557,32.0893 22.5,32.0893 Z"
       id="path1652-63-5" />
    <path
       id="path1652-5-10-4"
       style="color:#000000;font-style:normal;font-variant:normal;font-weight:normal;font-stretch:normal;font-size:medium;line-height:normal;font-family:sans-serif;font-variant-ligatures:normal;font-variant-position:normal;font-variant-caps:normal;font-variant-numeric:normal;font-variant-alternates:normal;font-variant-east-asian:normal;font-feature-settings:normal;font-variation-settings:normal;text-indent:0;text-align:start;text-decoration:none;text-decoration-line:none;text-decoration-style:solid;text-decoration-color:#000000;letter-spacing:normal;word-spacing:normal;text-transform:none;writing-mode:lr-tb;direction:ltr;text-orientation:mixed;dominant-baseline:auto;baseline-shift:baseline;text-anchor:start;white-space:normal;shape-padding:0;shape-margin:0;inline-size:0;clip-rule:nonzero;display:inline;overflow:visible;visibility:visible;opacity:0.95;isolation:auto;mix-blend-mode:normal;color-interpolation:sRGB;color-interpolation-filters:linearRGB;solid-color:#000000;solid-opacity:1;vector-effect:none;fill:#4c4c4d;fill-opacity:1;fill-rule:nonzero;stroke:none;stroke-width:0.750083;stroke-linecap:round;stroke-linejoin:round;stroke-miterlimit:4;stroke-dasharray:none;stroke-dashoffset:0;stroke-opacity:1;color-rendering:auto;image-rendering:auto;shape-rendering:auto;text-rendering:auto;enable-background:accumulate;stop-color:#000000"
       d="m 22.50001,30.96423 c -3.46504,0 -6.93052,0.59527 -10.10075,1.8003 C 6.04681,35.17909 1.50009,39.97416 1.5,45.74313 c 7.5e-4,1.50857 1.24703,2.75614 2.75595,2.75685 h 18.24406 18.24111 c 1.50975,4.9e-4 2.75801,-1.24745 2.75888,-2.75685 -7e-5,-5.76879 -4.54529,-10.56402 -10.89779,-12.9786 -3.17032,-1.20506 -6.63711,-1.8003 -10.1022,-1.8003 z m 0,2.25001 c 3.20611,0 6.41196,0.55521 9.30223,1.65382 5.76806,2.19244 9.44645,6.29768 9.44729,10.87361 -1.7e-4,0.29374 -0.21339,0.50839 -0.50695,0.50829 a 1.1253478,1.1251192 0 0 0 -10e-4,0 H 22.50047 4.25788 4.25688 C 3.9646,46.24921 3.7522,46.03561 3.7514,45.74313 v -10e-4 c 7.6e-4,-4.57574 3.68065,-8.68115 9.44876,-10.87361 2.89036,-1.09864 6.09472,-1.65381 9.30078,-1.65381 z" />
    <path
       id="path1305-3-0-7-7-0-2-20-2"
       style="color:#000000;font-style:normal;font-variant:normal;font-weight:normal;font-stretch:normal;font-size:medium;line-height:normal;font-family:sans-serif;font-variant-ligatures:normal;font-variant-position:normal;font-variant-caps:normal;font-variant-numeric:normal;font-variant-alternates:normal;font-variant-east-asian:normal;font-feature-settings:normal;font-variation-settings:normal;text-indent:0;text-align:start;text-decoration:none;text-decoration-line:none;text-decoration-style:solid;text-decoration-color:#000000;letter-spacing:normal;word-spacing:normal;text-transform:none;writing-mode:lr-tb;direction:ltr;text-orientation:mixed;dominant-baseline:auto;baseline-shift:baseline;text-anchor:start;white-space:normal;shape-padding:0;shape-margin:0;inline-size:0;clip-rule:nonzero;display:inline;overflow:visible;visibility:visible;opacity:0.1;isolation:auto;mix-blend-mode:normal;color-interpolation:sRGB;color-interpolation-filters:linearRGB;solid-color:#000000;solid-opacity:1;vector-effect:none;fill:#0c0c0c;fill-opacity:1;fill-rule:nonzero;stroke:none;stroke-width:0.75;stroke-linecap:round;stroke-linejoin:round;stroke-miterlimit:4;stroke-dasharray:none;stroke-dashoffset:0;stroke-opacity:1;color-rendering:auto;image-rendering:auto;shape-rendering:auto;text-rendering:auto;enable-background:accumulate;stop-color:#000000"
       d="m 22.4117,6.12508 a 1.1251125,1.1251125 0 0 0 -0.18164,0.0205 c -5.89949,0.14641 -10.65397,4.97886 -10.65381,10.90283 0,6.0195 4.90384,10.92332 10.92334,10.92334 6.0195,0 10.92334,-4.90384 10.92334,-10.92334 -1e-5,-6.0195 -4.90385,-10.92335 -10.92334,-10.92335 -0.0246,-8e-5 -0.0501,-8e-5 -0.0747,0 -0.001,10e-6 -0.003,0 -0.005,0 a 1.1251125,1.1251125 0 0 0 -0.005,0 c -0.001,2e-5 -0.003,0 -0.005,0 z m 0.022,2.25 c 0.0204,-7e-5 0.0411,-8e-5 0.0615,0 a 1.1251125,1.1251125 0 0 0 0.005,0 c 4.8035,0 8.67334,3.86983 8.67335,8.67333 0,4.80351 -3.86984,8.67335 -8.67335,8.67335 -4.8035,-10e-6 -8.67334,-3.86984 -8.67334,-8.67335 -1.3e-4,-4.77772 3.82984,-8.63724 8.60743,-8.67333 z" />
    <path
       style="color:#000000;font-style:normal;font-variant:normal;font-weight:normal;font-stretch:normal;font-size:medium;line-height:normal;font-family:sans-serif;font-variant-ligatures:normal;font-variant-position:normal;font-variant-caps:normal;font-variant-numeric:normal;font-variant-alternates:normal;font-variant-east-asian:normal;font-feature-settings:normal;font-variation-settings:normal;text-indent:0;text-align:start;text-decoration:none;text-decoration-line:none;text-decoration-style:solid;text-decoration-color:#000000;letter-spacing:normal;word-spacing:normal;text-transform:none;writing-mode:lr-tb;direction:ltr;text-orientation:mixed;dominant-baseline:auto;baseline-shift:baseline;text-anchor:start;white-space:normal;shape-padding:0;shape-margin:0;inline-size:0;clip-rule:nonzero;display:inline;overflow:visible;visibility:visible;isolation:auto;mix-blend-mode:normal;color-interpolation:sRGB;color-interpolation-filters:linearRGB;solid-color:#000000;solid-opacity:1;vector-effect:none;fill:url(#linearGradient1660-8-6);fill-opacity:1;fill-rule:nonzero;stroke:none;stroke-width:0.61726;stroke-linecap:round;stroke-linejoin:round;stroke-miterlimit:4;stroke-dasharray:none;stroke-dashoffset:0;stroke-opacity:1;color-rendering:auto;image-rendering:auto;shape-rendering:auto;text-rendering:auto;enable-background:accumulate;stop-color:#000000"
       d="M 22.42599,6.12504 A 9.7983758,9.798387 0 0 0 12.70163,15.92343 9.7983758,9.798387 0 0 0 22.5,25.72182 9.7983758,9.798387 0 0 0 32.29837,15.92343 9.7983758,9.798387 0 0 0 22.5,6.12504 a 9.7983758,9.798387 0 0 0 -0.074,0 z"
       id="path1305-3-0-7-15-4" />
    <path
       id="path1305-3-0-7-7-6-5"
       style="color:#000000;font-style:normal;font-variant:normal;font-weight:normal;font-stretch:normal;font-size:medium;line-height:normal;font-family:sans-serif;font-variant-ligatures:normal;font-variant-position:normal;font-variant-caps:normal;font-variant-numeric:normal;font-variant-alternates:normal;font-variant-east-asian:normal;font-feature-settings:normal;font-variation-settings:normal;text-indent:0;text-align:start;text-decoration:none;text-decoration-line:none;text-decoration-style:solid;text-decoration-color:#000000;letter-spacing:normal;word-spacing:normal;text-transform:none;writing-mode:lr-tb;direction:ltr;text-orientation:mixed;dominant-baseline:auto;baseline-shift:baseline;text-anchor:start;white-space:normal;shape-padding:0;shape-margin:0;inline-size:0;clip-rule:nonzero;display:inline;overflow:visible;visibility:visible;opacity:0.95;isolation:auto;mix-blend-mode:normal;color-interpolation:sRGB;color-interpolation-filters:linearRGB;solid-color:#000000;solid-opacity:1;vector-effect:none;fill:#4c4c4d;fill-opacity:1;fill-rule:nonzero;stroke:none;stroke-width:0.75;stroke-linecap:round;stroke-linejoin:round;stroke-miterlimit:4;stroke-dasharray:none;stroke-dashoffset:0;stroke-opacity:1;color-rendering:auto;image-rendering:auto;shape-rendering:auto;text-rendering:auto;enable-background:accumulate;stop-color:#000000"
       d="m 22.4117,5.00008 a 1.1251125,1.1251125 0 0 0 -0.18164,0.0205 c -5.89949,0.14641 -10.65397,4.97886 -10.65381,10.90283 0,6.0195 4.90384,10.92332 10.92334,10.92334 6.0195,0 10.92334,-4.90384 10.92334,-10.92334 -1e-5,-6.0195 -4.90385,-10.92335 -10.92334,-10.92335 -0.0246,-8e-5 -0.0501,-8e-5 -0.0747,0 -0.001,10e-6 -0.003,0 -0.005,0 a 1.1251125,1.1251125 0 0 0 -0.005,0 c -0.001,2e-5 -0.003,0 -0.005,0 z m 0.022,2.24999 c 0.0204,-6e-5 0.0411,-7e-5 0.0615,0 a 1.1251125,1.1251125 0 0 0 0.005,0 c 4.8035,0 8.67334,3.86984 8.67335,8.67334 0,4.80351 -3.86984,8.67335 -8.67335,8.67335 -4.8035,-10e-6 -8.67334,-3.86984 -8.67334,-8.67335 -1.3e-4,-4.77772 3.82984,-8.63724 8.60743,-8.67333 z" />
    <path
       id="path1652-5-6-5-7"
       style="color:#000000;font-style:normal;font-variant:normal;font-weight:normal;font-stretch:normal;font-size:medium;line-height:normal;font-family:sans-serif;font-variant-ligatures:normal;font-variant-position:normal;font-variant-caps:normal;font-variant-numeric:normal;font-variant-alternates:normal;font-variant-east-asian:normal;font-feature-settings:normal;font-variation-settings:normal;text-indent:0;text-align:start;text-decoration:none;text-decoration-line:none;text-decoration-style:solid;text-decoration-color:#000000;letter-spacing:normal;word-spacing:normal;text-transform:none;writing-mode:lr-tb;direction:ltr;text-orientation:mixed;dominant-baseline:auto;baseline-shift:baseline;text-anchor:start;white-space:normal;shape-padding:0;shape-margin:0;inline-size:0;clip-rule:nonzero;display:inline;overflow:visible;visibility:visible;opacity:0.25;isolation:auto;mix-blend-mode:normal;color-interpolation:sRGB;color-interpolation-filters:linearRGB;solid-color:#000000;solid-opacity:1;vector-effect:none;fill:#4c4c4d;fill-opacity:1;fill-rule:nonzero;stroke:none;stroke-width:0.750083;stroke-linecap:round;stroke-linejoin:round;stroke-miterlimit:4;stroke-dasharray:none;stroke-dashoffset:0;stroke-opacity:1;color-rendering:auto;image-rendering:auto;shape-rendering:auto;text-rendering:auto;enable-background:accumulate;stop-color:#000000"
       d="m 22.50001,30.96423 c -3.46504,0 -6.93052,0.59527 -10.10075,1.8003 C 6.04681,35.17909 1.50009,39.97416 1.5,45.74313 c 7.5e-4,1.50857 1.24703,2.75614 2.75595,2.75685 h 18.24406 18.24111 c 1.50975,4.9e-4 2.75801,-1.24745 2.75888,-2.75685 -7e-5,-5.76879 -4.54529,-10.56402 -10.89779,-12.9786 -3.17032,-1.20506 -6.63711,-1.8003 -10.1022,-1.8003 z m 0,2.25001 c 3.20611,0 6.41196,0.55521 9.30223,1.65382 5.76806,2.19244 9.44645,6.29768 9.44729,10.87361 -1.7e-4,0.29374 -0.21339,0.50839 -0.50695,0.50829 a 1.1253478,1.1251192 0 0 0 -10e-4,0 H 22.50047 4.25788 4.25688 C 3.9646,46.24921 3.7522,46.03561 3.7514,45.74313 v -10e-4 c 7.6e-4,-4.57574 3.68065,-8.68115 9.44876,-10.87361 2.89036,-1.09864 6.09472,-1.65381 9.30078,-1.65381 z" />
    <path
       id="path1652-5-9-9-4-4"
       style="color:#000000;font-style:normal;font-variant:normal;font-weight:normal;font-stretch:normal;font-size:medium;line-height:normal;font-family:sans-serif;font-variant-ligatures:normal;font-variant-position:normal;font-variant-caps:normal;font-variant-numeric:normal;font-variant-alternates:normal;font-variant-east-asian:normal;font-feature-settings:normal;font-variation-settings:normal;text-indent:0;text-align:start;text-decoration:none;text-decoration-line:none;text-decoration-style:solid;text-decoration-color:#000000;letter-spacing:normal;word-spacing:normal;text-transform:none;writing-mode:lr-tb;direction:ltr;text-orientation:mixed;dominant-baseline:auto;baseline-shift:baseline;text-anchor:start;white-space:normal;shape-padding:0;shape-margin:0;inline-size:0;clip-rule:nonzero;display:inline;overflow:visible;visibility:visible;opacity:0.75;isolation:auto;mix-blend-mode:normal;color-interpolation:sRGB;color-interpolation-filters:linearRGB;solid-color:#000000;solid-opacity:1;vector-effect:none;fill:url(#linearGradient1139);fill-opacity:1;fill-rule:nonzero;stroke:none;stroke-width:0.750083;stroke-linecap:round;stroke-linejoin:round;stroke-miterlimit:4;stroke-dasharray:none;stroke-dashoffset:0;stroke-opacity:1;color-rendering:auto;image-rendering:auto;shape-rendering:auto;text-rendering:auto;enable-background:accumulate;stop-color:#000000"
       d="m 22.5,32.08933 c -3.33551,0 -6.66993,0.57522 -9.70019,1.72706 C 6.73929,36.11998 2.62507,40.57054 2.625,45.74314 a 1.632856,1.6327288 0 0 0 1.63184,1.63184 H 22.5 40.7417 A 1.632856,1.6327288 0 0 0 42.375,45.74314 C 42.37494,40.57054 38.26219,36.11999 32.20166,33.81639 29.17141,32.66455 25.83557,32.08933 22.5,32.08933 Z m 0,1.125 h 0.001 c 3.20563,1.8e-4 6.4105,0.55537 9.30029,1.65381 5.7681,2.19244 9.44742,6.29762 9.44825,10.87354 -1.5e-4,0.29375 -0.21329,0.5084 -0.50684,0.5083 H 22.501 4.25783 4.25683 C 3.96454,46.24923 3.75225,46.03562 3.75145,45.74314 v -10e-4 c 7.5e-4,-4.57574 3.6816,-8.68108 9.44971,-10.87353 2.88992,-1.09848 6.09326,-1.65364 9.29883,-1.65381 z M 5.32764,37.1826 c -0.26549,0.26426 -0.51892,0.53527 -0.76026,0.81298 0.24137,-0.27771 0.49621,-0.54872 0.76172,-0.81298 0,0 -0.002,0 -0.002,0 z" />
    <path
       id="path1305-3-0-7-7-0-7-4"
       style="color:#000000;font-style:normal;font-variant:normal;font-weight:normal;font-stretch:normal;font-size:medium;line-height:normal;font-family:sans-serif;font-variant-ligatures:normal;font-variant-position:normal;font-variant-caps:normal;font-variant-numeric:normal;font-variant-alternates:normal;font-variant-east-asian:normal;font-feature-settings:normal;font-variation-settings:normal;text-indent:0;text-align:start;text-decoration:none;text-decoration-line:none;text-decoration-style:solid;text-decoration-color:#000000;letter-spacing:normal;word-spacing:normal;text-transform:none;writing-mode:lr-tb;direction:ltr;text-orientation:mixed;dominant-baseline:auto;baseline-shift:baseline;text-anchor:start;white-space:normal;shape-padding:0;shape-margin:0;inline-size:0;clip-rule:nonzero;display:inline;overflow:visible;visibility:visible;opacity:0.25;isolation:auto;mix-blend-mode:normal;color-interpolation:sRGB;color-interpolation-filters:linearRGB;solid-color:#000000;solid-opacity:1;vector-effect:none;fill:#4c4c4d;fill-opacity:1;fill-rule:nonzero;stroke:none;stroke-width:0.75;stroke-linecap:round;stroke-linejoin:round;stroke-miterlimit:4;stroke-dasharray:none;stroke-dashoffset:0;stroke-opacity:1;color-rendering:auto;image-rendering:auto;shape-rendering:auto;text-rendering:auto;enable-background:accumulate;stop-color:#000000"
       d="m 22.4117,5.00008 a 1.1251125,1.1251125 0 0 0 -0.18164,0.0205 c -5.89949,0.14641 -10.65397,4.97886 -10.65381,10.90283 0,6.0195 4.90384,10.92332 10.92334,10.92334 6.0195,0 10.92334,-4.90384 10.92334,-10.92334 -1e-5,-6.0195 -4.90385,-10.92335 -10.92334,-10.92335 -0.0246,-8e-5 -0.0501,-8e-5 -0.0747,0 -0.001,10e-6 -0.003,0 -0.005,0 a 1.1251125,1.1251125 0 0 0 -0.005,0 c -0.001,2e-5 -0.003,0 -0.005,0 z m 0.022,2.24999 c 0.0204,-6e-5 0.0411,-7e-5 0.0615,0 a 1.1251125,1.1251125 0 0 0 0.005,0 c 4.8035,0 8.67334,3.86984 8.67335,8.67334 0,4.80351 -3.86984,8.67335 -8.67335,8.67335 -4.8035,-10e-6 -8.67334,-3.86984 -8.67334,-8.67335 -1.3e-4,-4.77772 3.82984,-8.63724 8.60743,-8.67333 z" />
    <path
       id="path1305-3-0-7-7-2-3-6-3"
       style="color:#000000;font-style:normal;font-variant:normal;font-weight:normal;font-stretch:normal;font-size:medium;line-height:normal;font-family:sans-serif;font-variant-ligatures:normal;font-variant-position:normal;font-variant-caps:normal;font-variant-numeric:normal;font-variant-alternates:normal;font-variant-east-asian:normal;font-feature-settings:normal;font-variation-settings:normal;text-indent:0;text-align:start;text-decoration:none;text-decoration-line:none;text-decoration-style:solid;text-decoration-color:#000000;letter-spacing:normal;word-spacing:normal;text-transform:none;writing-mode:lr-tb;direction:ltr;text-orientation:mixed;dominant-baseline:auto;baseline-shift:baseline;text-anchor:start;white-space:normal;shape-padding:0;shape-margin:0;inline-size:0;clip-rule:nonzero;display:inline;overflow:visible;visibility:visible;opacity:0.75;isolation:auto;mix-blend-mode:normal;color-interpolation:sRGB;color-interpolation-filters:linearRGB;solid-color:#000000;solid-opacity:1;vector-effect:none;fill:url(#linearGradient1141);fill-opacity:1;fill-rule:nonzero;stroke:none;stroke-width:0.75;stroke-linecap:round;stroke-linejoin:round;stroke-miterlimit:4;stroke-dasharray:none;stroke-dashoffset:0;stroke-opacity:1;color-rendering:auto;image-rendering:auto;shape-rendering:auto;text-rendering:auto;enable-background:accumulate;stop-color:#000000"
       d="m 22.38094,6.12498 a 9.7983758,9.798387 0 0 0 -9.67969,9.79834 9.7983758,9.798387 0 0 0 9.79834,9.79834 9.7983758,9.798387 0 0 0 9.79833,-9.79834 9.7983758,9.798387 0 0 0 -9.79833,-9.79834 9.7983758,9.798387 0 0 0 -0.0747,0 9.7983758,9.798387 0 0 0 -0.0439,0 z m 0.0527,1.125 c 0.0204,-7e-5 0.0411,-8e-5 0.0615,0 a 1.1251125,1.1251125 0 0 0 0.005,0 c 4.8035,0 8.67333,3.86983 8.67333,8.67334 0,4.80351 -3.86982,8.67334 -8.67333,8.67334 -4.80351,-10e-6 -8.67334,-3.86983 -8.67334,-8.67334 -1.4e-4,-4.77772 3.82984,-8.63725 8.60742,-8.67334 z" />
    <path
       id="path1652-5-6-6-9"
       style="color:#000000;font-style:normal;font-variant:normal;font-weight:normal;font-stretch:normal;font-size:medium;line-height:normal;font-family:sans-serif;font-variant-ligatures:normal;font-variant-position:normal;font-variant-caps:normal;font-variant-numeric:normal;font-variant-alternates:normal;font-variant-east-asian:normal;font-feature-settings:normal;font-variation-settings:normal;text-indent:0;text-align:start;text-decoration:none;text-decoration-line:none;text-decoration-style:solid;text-decoration-color:#000000;letter-spacing:normal;word-spacing:normal;text-transform:none;writing-mode:lr-tb;direction:ltr;text-orientation:mixed;dominant-baseline:auto;baseline-shift:baseline;text-anchor:start;white-space:normal;shape-padding:0;shape-margin:0;inline-size:0;clip-rule:nonzero;display:inline;overflow:visible;visibility:visible;opacity:0.1;isolation:auto;mix-blend-mode:normal;color-interpolation:sRGB;color-interpolation-filters:linearRGB;solid-color:#000000;solid-opacity:1;vector-effect:none;fill:#0c0c0c;fill-opacity:1;fill-rule:nonzero;stroke:none;stroke-width:0.900099;stroke-linecap:round;stroke-linejoin:round;stroke-miterlimit:4;stroke-dasharray:none;stroke-dashoffset:0;stroke-opacity:1;color-rendering:auto;image-rendering:auto;shape-rendering:auto;text-rendering:auto;enable-background:accumulate;stop-color:#000000"
       d="m 37.30001,37.95708 c -4.15805,0 -8.31662,0.71433 -12.1209,2.16036 -7.62294,2.89748 -13.079,8.65156 -13.07911,15.57432 9e-4,1.81029 1.49644,3.30737 3.30714,3.30822 h 21.89287 21.88933 c 1.8117,6e-4 3.30962,-1.49693 3.31066,-3.30822 -8e-5,-6.92255 -5.45434,-12.67682 -13.07735,-15.57432 -3.80438,-1.44607 -7.96453,-2.16036 -12.12264,-2.16036 z m 0,2.70002 c 3.84734,0 7.69436,0.66625 11.16268,1.98458 6.92168,2.63093 11.33574,7.55722 11.33674,13.04833 -2e-4,0.35249 -0.25607,0.61007 -0.60833,0.60995 a 1.3504174,1.3501431 0 0 0 -0.002,0 h -21.88934 -21.8911 -0.002 c -0.35074,-9e-4 -0.60562,-0.25722 -0.60657,-0.6082 v -0.002 c 9e-4,-5.49089 4.41677,-10.41738 11.3385,-13.04832 3.46843,-1.31838 7.31366,-1.98459 11.16094,-1.98459 z" />
    <path
       id="path1652-5-1"
       style="color:#000000;font-style:normal;font-variant:normal;font-weight:normal;font-stretch:normal;font-size:medium;line-height:normal;font-family:sans-serif;font-variant-ligatures:normal;font-variant-position:normal;font-variant-caps:normal;font-variant-numeric:normal;font-variant-alternates:normal;font-variant-east-asian:normal;font-feature-settings:normal;font-variation-settings:normal;text-indent:0;text-align:start;text-decoration:none;text-decoration-line:none;text-decoration-style:solid;text-decoration-color:#000000;letter-spacing:normal;word-spacing:normal;text-transform:none;writing-mode:lr-tb;direction:ltr;text-orientation:mixed;dominant-baseline:auto;baseline-shift:baseline;text-anchor:start;white-space:normal;shape-padding:0;shape-margin:0;inline-size:0;clip-rule:nonzero;display:inline;overflow:visible;visibility:visible;opacity:0.95;isolation:auto;mix-blend-mode:normal;color-interpolation:sRGB;color-interpolation-filters:linearRGB;solid-color:#000000;solid-opacity:1;vector-effect:none;fill:#323234;fill-opacity:1;fill-rule:nonzero;stroke:none;stroke-width:0.900099;stroke-linecap:round;stroke-linejoin:round;stroke-miterlimit:4;stroke-dasharray:none;stroke-dashoffset:0;stroke-opacity:1;color-rendering:auto;image-rendering:auto;shape-rendering:auto;text-rendering:auto;enable-background:accumulate;stop-color:#000000"
       d="m 37.30001,36.60708 c -4.15805,0 -8.31662,0.71433 -12.1209,2.16036 -7.62294,2.89748 -13.079,8.65156 -13.07911,15.57432 9e-4,1.81029 1.49644,3.30737 3.30714,3.30822 h 21.89287 21.88933 c 1.8117,6e-4 3.30962,-1.49693 3.31066,-3.30822 -8e-5,-6.92255 -5.45434,-12.67682 -13.07735,-15.57432 -3.80438,-1.44607 -7.96453,-2.16036 -12.12264,-2.16036 z m 0,2.70002 c 3.84734,0 7.69436,0.66625 11.16268,1.98458 6.92168,2.63093 11.33574,7.55722 11.33674,13.04833 -2e-4,0.35249 -0.25607,0.61007 -0.60833,0.60995 a 1.3504174,1.3501431 0 0 0 -0.002,0 h -21.88934 -21.8911 -0.002 c -0.35074,-9e-4 -0.60562,-0.25722 -0.60657,-0.6082 v -0.002 c 9e-4,-5.49089 4.41677,-10.41738 11.3385,-13.04832 3.46843,-1.31838 7.31366,-1.98458 11.16094,-1.98458 z" />
    <path
       style="color:#000000;font-style:normal;font-variant:normal;font-weight:normal;font-stretch:normal;font-size:medium;line-height:normal;font-family:sans-serif;font-variant-ligatures:normal;font-variant-position:normal;font-variant-caps:normal;font-variant-numeric:normal;font-variant-alternates:normal;font-variant-east-asian:normal;font-feature-settings:normal;font-variation-settings:normal;text-indent:0;text-align:start;text-decoration:none;text-decoration-line:none;text-decoration-style:solid;text-decoration-color:#000000;letter-spacing:normal;word-spacing:normal;text-transform:none;writing-mode:lr-tb;direction:ltr;text-orientation:mixed;dominant-baseline:auto;baseline-shift:baseline;text-anchor:start;white-space:normal;shape-padding:0;shape-margin:0;inline-size:0;clip-rule:nonzero;display:inline;overflow:visible;visibility:visible;isolation:auto;mix-blend-mode:normal;color-interpolation:sRGB;color-interpolation-filters:linearRGB;solid-color:#000000;solid-opacity:1;vector-effect:none;fill:url(#linearGradient1668-2);fill-opacity:1;fill-rule:nonzero;stroke:none;stroke-width:0.740786;stroke-linecap:round;stroke-linejoin:round;stroke-miterlimit:4;stroke-dasharray:none;stroke-dashoffset:0;stroke-opacity:1;color-rendering:auto;image-rendering:auto;shape-rendering:auto;text-rendering:auto;enable-background:accumulate;stop-color:#000000"
       d="m 37.3,37.95717 c -4.00261,0 -8.00467,0.69078 -11.64099,2.07297 C 18.38639,42.79447 13.45008,48.13479 13.45,54.34192 a 1.9594272,1.9592746 0 0 0 1.9585,1.95814 H 37.3 59.18993 A 1.9594272,1.9592746 0 0 0 61.15,54.34192 C 61.14993,48.13479 56.2151,42.79447 48.94247,40.03014 45.30617,38.64795 41.30269,37.95717 37.3,37.95717 Z"
       id="path1652-2" />
    <path
       id="path1305-3-0-7-7-0-2-7-3"
       style="color:#000000;font-style:normal;font-variant:normal;font-weight:normal;font-stretch:normal;font-size:medium;line-height:normal;font-family:sans-serif;font-variant-ligatures:normal;font-variant-position:normal;font-variant-caps:normal;font-variant-numeric:normal;font-variant-alternates:normal;font-variant-east-asian:normal;font-feature-settings:normal;font-variation-settings:normal;text-indent:0;text-align:start;text-decoration:none;text-decoration-line:none;text-decoration-style:solid;text-decoration-color:#000000;letter-spacing:normal;word-spacing:normal;text-transform:none;writing-mode:lr-tb;direction:ltr;text-orientation:mixed;dominant-baseline:auto;baseline-shift:baseline;text-anchor:start;white-space:normal;shape-padding:0;shape-margin:0;inline-size:0;clip-rule:nonzero;display:inline;overflow:visible;visibility:visible;opacity:0.1;isolation:auto;mix-blend-mode:normal;color-interpolation:sRGB;color-interpolation-filters:linearRGB;solid-color:#000000;solid-opacity:1;vector-effect:none;fill:#0c0c0c;fill-opacity:1;fill-rule:nonzero;stroke:none;stroke-width:0.9;stroke-linecap:round;stroke-linejoin:round;stroke-miterlimit:4;stroke-dasharray:none;stroke-dashoffset:0;stroke-opacity:1;color-rendering:auto;image-rendering:auto;shape-rendering:auto;text-rendering:auto;enable-background:accumulate;stop-color:#000000"
       d="M 37.19404,6.8001 A 1.350135,1.350135 0 0 0 36.97607,6.8247 C 29.89669,7.0004 24.1913,12.79934 24.1915,19.90809 c 0,7.2234 5.88461,13.108 13.108,13.10801 7.22341,0 13.10802,-5.88461 13.10802,-13.10801 C 50.40751,12.6847 44.5229,6.80008 37.29951,6.80008 c -0.0295,-9e-5 -0.0601,-9e-5 -0.0896,0 -0.002,10e-6 -0.004,0 -0.005,0 a 1.350135,1.350135 0 0 0 -0.005,0 c -0.002,2e-5 -0.004,0 -0.005,0 z m 0.0264,2.7 c 0.0245,-8e-5 0.0493,-9e-5 0.0738,0 a 1.350135,1.350135 0 0 0 0.005,0 c 5.76421,0 10.40801,4.6438 10.40802,10.408 0,5.76422 -4.64381,10.40802 -10.40802,10.40802 -5.7642,-1e-5 -10.408,-4.6438 -10.408,-10.40802 -1.6e-4,-5.73326 4.5958,-10.36469 10.3289,-10.408 z" />
    <path
       id="path1305-3-0-7-7-09"
       style="color:#000000;font-style:normal;font-variant:normal;font-weight:normal;font-stretch:normal;font-size:medium;line-height:normal;font-family:sans-serif;font-variant-ligatures:normal;font-variant-position:normal;font-variant-caps:normal;font-variant-numeric:normal;font-variant-alternates:normal;font-variant-east-asian:normal;font-feature-settings:normal;font-variation-settings:normal;text-indent:0;text-align:start;text-decoration:none;text-decoration-line:none;text-decoration-style:solid;text-decoration-color:#000000;letter-spacing:normal;word-spacing:normal;text-transform:none;writing-mode:lr-tb;direction:ltr;text-orientation:mixed;dominant-baseline:auto;baseline-shift:baseline;text-anchor:start;white-space:normal;shape-padding:0;shape-margin:0;inline-size:0;clip-rule:nonzero;display:inline;overflow:visible;visibility:visible;opacity:0.95;isolation:auto;mix-blend-mode:normal;color-interpolation:sRGB;color-interpolation-filters:linearRGB;solid-color:#000000;solid-opacity:1;vector-effect:none;fill:#323234;fill-opacity:1;fill-rule:nonzero;stroke:none;stroke-width:0.9;stroke-linecap:round;stroke-linejoin:round;stroke-miterlimit:4;stroke-dasharray:none;stroke-dashoffset:0;stroke-opacity:1;color-rendering:auto;image-rendering:auto;shape-rendering:auto;text-rendering:auto;enable-background:accumulate;stop-color:#000000"
       d="M 37.19404,5.4501 A 1.350135,1.350135 0 0 0 36.97607,5.4747 C 29.89669,5.6504 24.1913,11.44934 24.1915,18.55809 c 0,7.2234 5.88461,13.108 13.108,13.10801 7.22341,0 13.10802,-5.88461 13.10802,-13.10801 C 50.40751,11.3347 44.5229,5.45008 37.29951,5.45008 c -0.0295,-9e-5 -0.0601,-9e-5 -0.0896,0 -0.002,1e-5 -0.004,0 -0.005,0 a 1.350135,1.350135 0 0 0 -0.005,0 c -0.002,2e-5 -0.004,0 -0.005,0 z m 0.0264,2.7 c 0.0245,-8e-5 0.0493,-9e-5 0.0738,0 a 1.350135,1.350135 0 0 0 0.005,0 c 5.76421,0 10.40801,4.6438 10.40802,10.408 0,5.76422 -4.64381,10.40802 -10.40802,10.40802 -5.7642,-10e-6 -10.408,-4.6438 -10.408,-10.40802 -1.6e-4,-5.73326 4.5958,-10.36469 10.3289,-10.408 z" />
    <path
       style="color:#000000;font-style:normal;font-variant:normal;font-weight:normal;font-stretch:normal;font-size:medium;line-height:normal;font-family:sans-serif;font-variant-ligatures:normal;font-variant-position:normal;font-variant-caps:normal;font-variant-numeric:normal;font-variant-alternates:normal;font-variant-east-asian:normal;font-feature-settings:normal;font-variation-settings:normal;text-indent:0;text-align:start;text-decoration:none;text-decoration-line:none;text-decoration-style:solid;text-decoration-color:#000000;letter-spacing:normal;word-spacing:normal;text-transform:none;writing-mode:lr-tb;direction:ltr;text-orientation:mixed;dominant-baseline:auto;baseline-shift:baseline;text-anchor:start;white-space:normal;shape-padding:0;shape-margin:0;inline-size:0;clip-rule:nonzero;display:inline;overflow:visible;visibility:visible;isolation:auto;mix-blend-mode:normal;color-interpolation:sRGB;color-interpolation-filters:linearRGB;solid-color:#000000;solid-opacity:1;vector-effect:none;fill:url(#linearGradient1660-3);fill-opacity:1;fill-rule:nonzero;stroke:none;stroke-width:0.740713;stroke-linecap:round;stroke-linejoin:round;stroke-miterlimit:4;stroke-dasharray:none;stroke-dashoffset:0;stroke-opacity:1;color-rendering:auto;image-rendering:auto;shape-rendering:auto;text-rendering:auto;enable-background:accumulate;stop-color:#000000"
       d="M 37.21119,6.80006 A 11.758051,11.758064 0 0 0 25.54195,18.55812 11.758051,11.758064 0 0 0 37.3,30.31619 11.758051,11.758064 0 0 0 49.05805,18.55812 11.758051,11.758064 0 0 0 37.3,6.80006 a 11.758051,11.758064 0 0 0 -0.0888,0 z"
       id="path1305-3-0-7-3" />
    <path
       id="path1652-5-6-60"
       style="color:#000000;font-style:normal;font-variant:normal;font-weight:normal;font-stretch:normal;font-size:medium;line-height:normal;font-family:sans-serif;font-variant-ligatures:normal;font-variant-position:normal;font-variant-caps:normal;font-variant-numeric:normal;font-variant-alternates:normal;font-variant-east-asian:normal;font-feature-settings:normal;font-variation-settings:normal;text-indent:0;text-align:start;text-decoration:none;text-decoration-line:none;text-decoration-style:solid;text-decoration-color:#000000;letter-spacing:normal;word-spacing:normal;text-transform:none;writing-mode:lr-tb;direction:ltr;text-orientation:mixed;dominant-baseline:auto;baseline-shift:baseline;text-anchor:start;white-space:normal;shape-padding:0;shape-margin:0;inline-size:0;clip-rule:nonzero;display:inline;overflow:visible;visibility:visible;opacity:0.25;isolation:auto;mix-blend-mode:normal;color-interpolation:sRGB;color-interpolation-filters:linearRGB;solid-color:#000000;solid-opacity:1;vector-effect:none;fill:#323234;fill-opacity:1;fill-rule:nonzero;stroke:none;stroke-width:0.900099;stroke-linecap:round;stroke-linejoin:round;stroke-miterlimit:4;stroke-dasharray:none;stroke-dashoffset:0;stroke-opacity:1;color-rendering:auto;image-rendering:auto;shape-rendering:auto;text-rendering:auto;enable-background:accumulate;stop-color:#000000"
       d="m 37.30001,36.60708 c -4.15805,0 -8.31662,0.71433 -12.1209,2.16036 -7.62294,2.89748 -13.079,8.65156 -13.07911,15.57432 9e-4,1.81029 1.49644,3.30737 3.30714,3.30822 h 21.89287 21.88933 c 1.8117,6e-4 3.30962,-1.49693 3.31066,-3.30822 -8e-5,-6.92255 -5.45434,-12.67682 -13.07735,-15.57432 -3.80438,-1.44607 -7.96453,-2.16036 -12.12264,-2.16036 z m 0,2.70002 c 3.84734,0 7.69436,0.66625 11.16268,1.98458 6.92168,2.63093 11.33574,7.55722 11.33674,13.04833 -2e-4,0.35249 -0.25607,0.61007 -0.60833,0.60995 a 1.3504174,1.3501431 0 0 0 -0.002,0 h -21.88934 -21.8911 -0.002 c -0.35074,-9e-4 -0.60562,-0.25722 -0.60657,-0.6082 v -0.002 c 9e-4,-5.49089 4.41677,-10.41738 11.3385,-13.04832 3.46843,-1.31838 7.31366,-1.98458 11.16094,-1.98458 z" />
    <path
       id="path1652-5-9-9-6"
       style="color:#000000;font-style:normal;font-variant:normal;font-weight:normal;font-stretch:normal;font-size:medium;line-height:normal;font-family:sans-serif;font-variant-ligatures:normal;font-variant-position:normal;font-variant-caps:normal;font-variant-numeric:normal;font-variant-alternates:normal;font-variant-east-asian:normal;font-feature-settings:normal;font-variation-settings:normal;text-indent:0;text-align:start;text-decoration:none;text-decoration-line:none;text-decoration-style:solid;text-decoration-color:#000000;letter-spacing:normal;word-spacing:normal;text-transform:none;writing-mode:lr-tb;direction:ltr;text-orientation:mixed;dominant-baseline:auto;baseline-shift:baseline;text-anchor:start;white-space:normal;shape-padding:0;shape-margin:0;inline-size:0;clip-rule:nonzero;display:inline;overflow:visible;visibility:visible;opacity:0.75;isolation:auto;mix-blend-mode:normal;color-interpolation:sRGB;color-interpolation-filters:linearRGB;solid-color:#000000;solid-opacity:1;vector-effect:none;fill:url(#linearGradient1872-5);fill-opacity:1;fill-rule:nonzero;stroke:none;stroke-width:0.900099;stroke-linecap:round;stroke-linejoin:round;stroke-miterlimit:4;stroke-dasharray:none;stroke-dashoffset:0;stroke-opacity:1;color-rendering:auto;image-rendering:auto;shape-rendering:auto;text-rendering:auto;enable-background:accumulate;stop-color:#000000"
       d="m 37.3,37.95721 c -4.00261,0 -8.00392,0.69026 -11.64023,2.07246 C 18.38715,42.79399 13.45008,48.13465 13.45,54.34178 a 1.9594272,1.9592746 0 0 0 1.9582,1.9582 H 37.3 59.19004 A 1.9594272,1.9592746 0 0 0 61.15,54.34178 C 61.14993,48.13465 56.21462,42.794 48.942,40.02967 45.30569,38.64747 41.30269,37.95721 37.3,37.95721 Z m 0,1.35 h 0.002 c 3.84675,2.1e-4 7.6926,0.66644 11.16035,1.98457 6.92172,2.63093 11.3369,7.55714 11.33789,13.04825 -1.8e-4,0.35249 -0.25594,0.61007 -0.6082,0.60995 H 37.302 15.4102 15.4082 c -0.35074,-9e-4 -0.60549,-0.25723 -0.60645,-0.6082 v -0.002 c 9e-4,-5.49089 4.41793,-10.4173 11.33965,-13.04825 3.46791,-1.31817 7.31191,-1.98436 11.1586,-1.98457 z m -20.60683,4.76192 c -0.31859,0.31711 -0.6227,0.64233 -0.91231,0.97558 0.28963,-0.33325 0.59545,-0.65847 0.91406,-0.97558 0,0 -0.002,0 -0.002,0 z" />
    <path
       id="path1305-3-0-7-7-0-26"
       style="color:#000000;font-style:normal;font-variant:normal;font-weight:normal;font-stretch:normal;font-size:medium;line-height:normal;font-family:sans-serif;font-variant-ligatures:normal;font-variant-position:normal;font-variant-caps:normal;font-variant-numeric:normal;font-variant-alternates:normal;font-variant-east-asian:normal;font-feature-settings:normal;font-variation-settings:normal;text-indent:0;text-align:start;text-decoration:none;text-decoration-line:none;text-decoration-style:solid;text-decoration-color:#000000;letter-spacing:normal;word-spacing:normal;text-transform:none;writing-mode:lr-tb;direction:ltr;text-orientation:mixed;dominant-baseline:auto;baseline-shift:baseline;text-anchor:start;white-space:normal;shape-padding:0;shape-margin:0;inline-size:0;clip-rule:nonzero;display:inline;overflow:visible;visibility:visible;opacity:0.25;isolation:auto;mix-blend-mode:normal;color-interpolation:sRGB;color-interpolation-filters:linearRGB;solid-color:#000000;solid-opacity:1;vector-effect:none;fill:#323234;fill-opacity:1;fill-rule:nonzero;stroke:none;stroke-width:0.9;stroke-linecap:round;stroke-linejoin:round;stroke-miterlimit:4;stroke-dasharray:none;stroke-dashoffset:0;stroke-opacity:1;color-rendering:auto;image-rendering:auto;shape-rendering:auto;text-rendering:auto;enable-background:accumulate;stop-color:#000000"
       d="M 37.19404,5.4501 A 1.350135,1.350135 0 0 0 36.97607,5.4747 C 29.89669,5.6504 24.1913,11.44934 24.1915,18.55809 c 0,7.2234 5.88461,13.108 13.108,13.10801 7.22341,0 13.10802,-5.88461 13.10802,-13.10801 C 50.40751,11.3347 44.5229,5.45008 37.29951,5.45008 c -0.0295,-9e-5 -0.0601,-9e-5 -0.0896,0 -0.002,1e-5 -0.004,0 -0.005,0 a 1.350135,1.350135 0 0 0 -0.005,0 c -0.002,2e-5 -0.004,0 -0.005,0 z m 0.0264,2.7 c 0.0245,-8e-5 0.0493,-9e-5 0.0738,0 a 1.350135,1.350135 0 0 0 0.005,0 c 5.76421,0 10.40801,4.6438 10.40802,10.408 0,5.76422 -4.64381,10.40802 -10.40802,10.40802 -5.7642,-10e-6 -10.408,-4.6438 -10.408,-10.40802 -1.6e-4,-5.73326 4.5958,-10.36469 10.3289,-10.408 z" />
    <path
       id="path1305-3-0-7-7-2-3-1"
       style="color:#000000;font-style:normal;font-variant:normal;font-weight:normal;font-stretch:normal;font-size:medium;line-height:normal;font-family:sans-serif;font-variant-ligatures:normal;font-variant-position:normal;font-variant-caps:normal;font-variant-numeric:normal;font-variant-alternates:normal;font-variant-east-asian:normal;font-feature-settings:normal;font-variation-settings:normal;text-indent:0;text-align:start;text-decoration:none;text-decoration-line:none;text-decoration-style:solid;text-decoration-color:#000000;letter-spacing:normal;word-spacing:normal;text-transform:none;writing-mode:lr-tb;direction:ltr;text-orientation:mixed;dominant-baseline:auto;baseline-shift:baseline;text-anchor:start;white-space:normal;shape-padding:0;shape-margin:0;inline-size:0;clip-rule:nonzero;display:inline;overflow:visible;visibility:visible;opacity:0.75;isolation:auto;mix-blend-mode:normal;color-interpolation:sRGB;color-interpolation-filters:linearRGB;solid-color:#000000;solid-opacity:1;vector-effect:none;fill:url(#linearGradient1880-3);fill-opacity:1;fill-rule:nonzero;stroke:none;stroke-width:0.9;stroke-linecap:round;stroke-linejoin:round;stroke-miterlimit:4;stroke-dasharray:none;stroke-dashoffset:0;stroke-opacity:1;color-rendering:auto;image-rendering:auto;shape-rendering:auto;text-rendering:auto;enable-background:accumulate;stop-color:#000000"
       d="M 37.15712,6.79998 A 11.758051,11.758064 0 0 0 25.5415,18.55799 11.758051,11.758064 0 0 0 37.2995,30.316 11.758051,11.758064 0 0 0 49.05751,18.55799 11.758051,11.758064 0 0 0 37.2995,6.79998 a 11.758051,11.758064 0 0 0 -0.0896,0 11.758051,11.758064 0 0 0 -0.0528,0 z m 0.0633,1.35 c 0.0245,-8e-5 0.0493,-9e-5 0.0738,0 a 1.350135,1.350135 0 0 0 0.005,0 c 5.76421,0 10.408,4.6438 10.40801,10.40801 0,5.76421 -4.64379,10.40801 -10.40801,10.40801 -5.7642,-10e-6 -10.408,-4.6438 -10.408,-10.40801 -1.6e-4,-5.73326 4.5958,-10.3647 10.3289,-10.40801 z" />
  </g>
</svg>
