<?xml version="1.0" encoding="UTF-8" standalone="no"?>
<svg
   xmlns:dc="http://purl.org/dc/elements/1.1/"
   xmlns:cc="http://creativecommons.org/ns#"
   xmlns:rdf="http://www.w3.org/1999/02/22-rdf-syntax-ns#"
   xmlns:svg="http://www.w3.org/2000/svg"
   xmlns="http://www.w3.org/2000/svg"
   xmlns:sodipodi="http://sodipodi.sourceforge.net/DTD/sodipodi-0.dtd"
   xmlns:inkscape="http://www.inkscape.org/namespaces/inkscape"
   width="64"
   height="64"
   viewBox="0 0 64 64.000003"
   version="1.1"
   id="svg8"
   inkscape:version="1.0.2 (e86c870879, 2021-01-15)"
   sodipodi:docname="audio-headphones-symbolic.svg">
  <defs
     id="defs2" />
  <sodipodi:namedview
     id="base"
     pagecolor="#c3c3c3"
     bordercolor="#666666"
     borderopacity="1.0"
     inkscape:pageopacity="0"
     inkscape:pageshadow="2"
     inkscape:zoom="5.5853998"
     inkscape:cx="23.462137"
     inkscape:cy="59.947144"
     inkscape:document-units="px"
     inkscape:current-layer="layer1"
     inkscape:document-rotation="0"
     showgrid="false"
     units="px"
     inkscape:window-width="2048"
     inkscape:window-height="1080"
     inkscape:window-x="0"
     inkscape:window-y="0"
     inkscape:window-maximized="1" />
  <metadata
     id="metadata5">
    <rdf:RDF>
      <cc:Work
         rdf:about="">
        <dc:format>image/svg+xml</dc:format>
        <dc:type
           rdf:resource="http://purl.org/dc/dcmitype/StillImage" />
        <dc:title />
      </cc:Work>
    </rdf:RDF>
  </metadata>
  <g
     inkscape:label="Layer 1"
     inkscape:groupmode="layer"
     id="layer1">
    <path
       id="path1479-1-7"
       style="color:#000000;font-style:normal;font-variant:normal;font-weight:normal;font-stretch:normal;font-size:medium;line-height:normal;font-family:sans-serif;font-variant-ligatures:normal;font-variant-position:normal;font-variant-caps:normal;font-variant-numeric:normal;font-variant-alternates:normal;font-variant-east-asian:normal;font-feature-settings:normal;font-variation-settings:normal;text-indent:0;text-align:start;text-decoration:none;text-decoration-line:none;text-decoration-style:solid;text-decoration-color:#000000;letter-spacing:normal;word-spacing:normal;text-transform:none;writing-mode:lr-tb;direction:ltr;text-orientation:mixed;dominant-baseline:auto;baseline-shift:baseline;text-anchor:start;white-space:normal;shape-padding:0;shape-margin:0;inline-size:0;clip-rule:nonzero;display:inline;overflow:visible;visibility:visible;isolation:auto;mix-blend-mode:normal;color-interpolation:sRGB;color-interpolation-filters:linearRGB;solid-color:#000000;solid-opacity:1;vector-effect:none;fill:#808084;fill-opacity:1;fill-rule:nonzero;stroke:none;stroke-width:0.930952;stroke-linecap:butt;stroke-linejoin:miter;stroke-miterlimit:4;stroke-dasharray:none;stroke-dashoffset:2.1875;stroke-opacity:1;color-rendering:auto;image-rendering:auto;shape-rendering:auto;text-rendering:auto;enable-background:accumulate;stop-color:#000000"
       d="M 32 4.5820312 C 17.668886 4.5820312 6 18.045972 6 34.582031 C 6 36.286025 6.1292255 37.95465 6.3671875 39.582031 L 6.3808594 39.582031 C 6.3831268 39.598582 6.377997 39.618532 6.3808594 39.634766 L 6.8945312 42.546875 L 8.4941406 51.615234 L 9.0078125 54.527344 C 9.1248455 55.191129 9.8057564 55.938893 10.537109 56.205078 L 14.916016 57.800781 C 14.966316 57.819151 15.004774 57.813332 15.052734 57.826172 A 14.000073 6.000001 80.000076 0 0 18.5625 59.380859 A 14.000073 6.000001 80.000076 0 0 22.039062 44.550781 A 14.000073 6.000001 80.000076 0 0 13.699219 31.804688 A 14.000073 6.000001 80.000076 0 0 10.931641 34.466797 C 10.891429 34.495007 10.854963 34.503099 10.814453 34.537109 L 10.767578 34.576172 C 10.770323 21.015274 20.246669 10.082031 32 10.082031 C 43.752282 10.082031 53.227848 21.013185 53.232422 34.572266 L 53.191406 34.537109 C 53.150896 34.503089 53.11436 34.495007 53.074219 34.466797 A 6.000001 14.000073 9.999924 0 0 50.306641 31.804688 A 6.000001 14.000073 9.999924 0 0 41.966797 44.550781 A 6.000001 14.000073 9.999924 0 0 45.443359 59.380859 A 6.000001 14.000073 9.999924 0 0 48.953125 57.826172 C 49.001085 57.813332 49.039533 57.819141 49.089844 57.800781 L 53.46875 56.205078 C 54.200106 55.938893 54.881021 55.191129 54.998047 54.527344 L 55.511719 51.615234 L 57.111328 42.546875 L 57.625 39.634766 C 57.627863 39.618532 57.622732 39.598582 57.625 39.582031 L 57.632812 39.582031 C 57.870773 37.95465 58 36.286025 58 34.582031 C 58 18.045972 46.3312 4.5820313 32 4.5820312 z " />
  </g>
</svg>
