<?xml version="1.0" encoding="UTF-8" standalone="no"?>
<svg
   xmlns:dc="http://purl.org/dc/elements/1.1/"
   xmlns:cc="http://creativecommons.org/ns#"
   xmlns:rdf="http://www.w3.org/1999/02/22-rdf-syntax-ns#"
   xmlns:svg="http://www.w3.org/2000/svg"
   xmlns="http://www.w3.org/2000/svg"
   xmlns:sodipodi="http://sodipodi.sourceforge.net/DTD/sodipodi-0.dtd"
   xmlns:inkscape="http://www.inkscape.org/namespaces/inkscape"
   width="64"
   height="64"
   viewBox="0 0 16.933333 16.933334"
   version="1.1"
   id="svg841"
   inkscape:version="1.0.2 (e86c870879, 2021-01-15)"
   sodipodi:docname="input-gaming-symbolic.svg">
  <defs
     id="defs835" />
  <sodipodi:namedview
     id="base"
     pagecolor="#c4c4c4"
     bordercolor="#666666"
     borderopacity="1.0"
     inkscape:pageopacity="0"
     inkscape:pageshadow="2"
     inkscape:zoom="4.7096715"
     inkscape:cx="33.720541"
     inkscape:cy="39.731542"
     inkscape:document-units="px"
     inkscape:current-layer="layer1"
     inkscape:document-rotation="0"
     showgrid="false"
     units="px"
     inkscape:window-width="2048"
     inkscape:window-height="1080"
     inkscape:window-x="0"
     inkscape:window-y="0"
     inkscape:window-maximized="1" />
  <metadata
     id="metadata838">
    <rdf:RDF>
      <cc:Work
         rdf:about="">
        <dc:format>image/svg+xml</dc:format>
        <dc:type
           rdf:resource="http://purl.org/dc/dcmitype/StillImage" />
        <dc:title></dc:title>
      </cc:Work>
    </rdf:RDF>
  </metadata>
  <g
     inkscape:label="Layer 1"
     inkscape:groupmode="layer"
     id="layer1">
    <path
       id="path1029-0-0-8-9-3"
       style="fill:#808084;fill-opacity:1;stroke-width:1.32285;stroke-linecap:round;stroke-linejoin:round;stroke-dashoffset:2.1875"
       d="m 7.5013512,0.26458306 c -0.586255,0 -1.058333,0.47201631 -1.058333,1.05833334 v 1.5875 h -5.3e-4 v 2.2117514 l 5.3e-4,5.291e-4 c -5.3e-5,0.165534 0.06316,0.3304956 0.190169,0.4573366 l 1.37511,1.3735595 c 0.126962,0.1267767 0.292677,0.1901569 0.45837,0.1901569 0.165692,-3e-6 0.331407,-0.063378 0.45837,-0.1901693 L 10.300147,5.5805378 c 0.127027,-0.1268521 0.190731,-0.2923061 0.190686,-0.4578533 v -5.292e-4 -2.2117389 -1.5875 c 0,-0.58631703 -0.472078,-1.05833334 -1.0583328,-1.05833334 z M 2.9104172,6.4425006 v 5.291e-4 h -1.5875 c -0.58631695,0 -1.05833395,0.4720786 -1.05833395,1.0583334 v 1.9311485 c 0,0.5862534 0.472017,1.0583334 1.05833395,1.0583334 h 1.5875 2.211751 5.29e-4 c 0.165547,4.5e-5 0.331001,-0.06366 0.457854,-0.190686 l 1.37303,-1.3751224 c 0.126791,-0.1269619 0.190166,-0.2926782 0.190169,-0.45837 0,-0.165693 -0.06338,-0.3314081 -0.190169,-0.45837 l -1.37356,-1.37511 C 5.4531802,6.5061728 5.2882192,6.4429644 5.1226852,6.4430173 l -5.29e-4,-5.292e-4 z m 8.9002318,0 c -0.165547,-4.5e-5 -0.331001,0.063659 -0.457853,0.190686 l -1.3730428,1.37511 c -0.126791,0.1269619 -0.190167,0.2926781 -0.190169,0.45837 0,0.1656929 0.06338,0.3314081 0.190169,0.45837 l 1.3735588,1.3751104 c 0.126841,0.127013 0.291803,0.190222 0.457337,0.190169 l 5.29e-4,5.29e-4 h 2.211739 v -5.29e-4 h 1.5875 c 0.586317,0 1.058333,-0.47208 1.058333,-1.0583335 V 7.5008339 c 0,-0.586255 -0.472016,-1.0583333 -1.058333,-1.0583333 h -1.5875 -2.211751 z M 8.4666672,9.7895833 c -0.165693,0 -0.331408,0.06338 -0.45837,0.1901692 l -1.37511,1.3735595 c -0.127014,0.126841 -0.190222,0.291802 -0.190169,0.457336 l -5.3e-4,5.29e-4 v 2.211739 h 5.3e-4 v 1.5875 c 0,0.586317 0.472078,1.058334 1.058333,1.058334 h 1.931149 c 0.5862538,0 1.0583328,-0.472017 1.0583328,-1.058334 v -1.5875 -2.211751 -5.29e-4 c 4.5e-5,-0.165547 -0.06366,-0.331001 -0.190686,-0.457853 L 8.9250372,9.9797525 C 8.7980742,9.8529616 8.6323592,9.7895862 8.4666672,9.7895833 Z" />
  </g>
</svg>
