<?xml version="1.0" encoding="UTF-8" standalone="no"?>
<svg
   xmlns:dc="http://purl.org/dc/elements/1.1/"
   xmlns:cc="http://creativecommons.org/ns#"
   xmlns:rdf="http://www.w3.org/1999/02/22-rdf-syntax-ns#"
   xmlns:svg="http://www.w3.org/2000/svg"
   xmlns="http://www.w3.org/2000/svg"
   xmlns:sodipodi="http://sodipodi.sourceforge.net/DTD/sodipodi-0.dtd"
   xmlns:inkscape="http://www.inkscape.org/namespaces/inkscape"
   width="64"
   height="64"
   viewBox="0 0 64 64.000003"
   version="1.1"
   id="svg8"
   inkscape:version="1.0.2 (e86c870879, 2021-01-15)"
   sodipodi:docname="media-tape-symbolic.svg">
  <defs
     id="defs2" />
  <sodipodi:namedview
     id="base"
     pagecolor="#c3c3c3"
     bordercolor="#666666"
     borderopacity="1.0"
     inkscape:pageopacity="0"
     inkscape:pageshadow="2"
     inkscape:zoom="3.1840573"
     inkscape:cx="60.56843"
     inkscape:cy="31.479175"
     inkscape:document-units="px"
     inkscape:current-layer="layer1"
     inkscape:document-rotation="0"
     showgrid="false"
     units="px"
     inkscape:window-width="2048"
     inkscape:window-height="1080"
     inkscape:window-x="0"
     inkscape:window-y="0"
     inkscape:window-maximized="1" />
  <metadata
     id="metadata5">
    <rdf:RDF>
      <cc:Work
         rdf:about="">
        <dc:format>image/svg+xml</dc:format>
        <dc:type
           rdf:resource="http://purl.org/dc/dcmitype/StillImage" />
        <dc:title />
      </cc:Work>
    </rdf:RDF>
  </metadata>
  <g
     inkscape:label="Layer 1"
     inkscape:groupmode="layer"
     id="layer1">
    <path
       id="rect2600-0-2-7-3-9-3"
       style="fill:#808084;fill-opacity:1;stroke-width:5.5;stroke-linecap:round;stroke-linejoin:round;stroke-dashoffset:2.1875"
       d="m 7,11 c -2.77,0 -5,2.23 -5,5 v 32 c 0,2.77 2.23,5 5,5 h 50 c 2.77,0 5,-2.23 5,-5 V 16 c 0,-2.77 -2.23,-5 -5,-5 z m 2,4.5 h 46 c 1.385,0 2.5,1.115 2.5,2.5 v 28 c 0,1.385 -1.115,2.5 -2.5,2.5 H 9 C 7.615,48.5 6.5,47.385 6.5,46 V 18 C 6.5,16.615 7.615,15.5 9,15.5 Z M 20,24 c -4.3976,0 -8,3.6025 -8,8 0,4.267 3.39438,7.775469 7.61328,7.980469 0.046,0 0.09,0.01367 0.13672,0.01367 h 0.13281 c 0.039,6e-4 0.078,0.0098 0.11719,0.0098 0.039,0 0.078,-0.0098 0.11719,-0.0098 h 23.76562 c 0.039,6e-4 0.078,0.0098 0.11719,0.0098 0.039,0 0.078,-0.0098 0.11719,-0.0098 H 44.25 c 0.047,0 0.091,-0.0097 0.13672,-0.01367 C 48.60552,39.775469 52,36.267 52,32 c 0,-4.3975 -3.6025,-8 -8,-8 -4.3976,0 -8,3.6025 -8,8 0,1.662 0.51693,3.210841 1.39453,4.494141 H 26.60742 C 27.48502,35.210841 28,33.662 28,32 28,27.6025 24.3975,24 20,24 Z m 0,3.5 c 2.506,0 4.5,1.994 4.5,4.5 0,2.4852 -1.96265,4.461541 -4.43945,4.494141 H 19.94141 C 17.46381,36.462141 15.5,34.4858 15.5,32 c 0,-2.506 1.994,-4.5 4.5,-4.5 z m 24,0 c 2.506,0 4.5,1.994 4.5,4.5 0,2.4852 -1.96265,4.461541 -4.43945,4.494141 H 43.94141 C 41.46381,36.462141 39.5,34.4858 39.5,32 c 0,-2.506 1.994,-4.5 4.5,-4.5 z" />
  </g>
</svg>
