<?xml version="1.0" encoding="UTF-8" standalone="no"?>
<svg
   xmlns:dc="http://purl.org/dc/elements/1.1/"
   xmlns:cc="http://creativecommons.org/ns#"
   xmlns:rdf="http://www.w3.org/1999/02/22-rdf-syntax-ns#"
   xmlns:svg="http://www.w3.org/2000/svg"
   xmlns="http://www.w3.org/2000/svg"
   xmlns:sodipodi="http://sodipodi.sourceforge.net/DTD/sodipodi-0.dtd"
   xmlns:inkscape="http://www.inkscape.org/namespaces/inkscape"
   width="64"
   height="64"
   viewBox="0 0 64 64.000003"
   version="1.1"
   id="svg8"
   inkscape:version="1.0.2 (e86c870879, 2021-01-15)"
   sodipodi:docname="printer-printing-symbolic.svg">
  <defs
     id="defs2" />
  <sodipodi:namedview
     id="base"
     pagecolor="#c3c3c3"
     bordercolor="#666666"
     borderopacity="1.0"
     inkscape:pageopacity="0"
     inkscape:pageshadow="2"
     inkscape:zoom="3.7039729"
     inkscape:cx="42.780694"
     inkscape:cy="63.225474"
     inkscape:document-units="px"
     inkscape:current-layer="layer1"
     inkscape:document-rotation="0"
     showgrid="false"
     units="px"
     inkscape:window-width="2048"
     inkscape:window-height="1080"
     inkscape:window-x="0"
     inkscape:window-y="0"
     inkscape:window-maximized="1" />
  <metadata
     id="metadata5">
    <rdf:RDF>
      <cc:Work
         rdf:about="">
        <dc:format>image/svg+xml</dc:format>
        <dc:type
           rdf:resource="http://purl.org/dc/dcmitype/StillImage" />
        <dc:title />
      </cc:Work>
    </rdf:RDF>
  </metadata>
  <g
     inkscape:label="Layer 1"
     inkscape:groupmode="layer"
     id="layer1">
    <rect
       style="fill:#63893e;fill-opacity:1;stroke-width:0.5;stroke-linecap:round;stroke-linejoin:round;stroke-dashoffset:2.1875;opacity:0.6"
       id="rect850-8"
       width="33"
       height="55"
       x="15.5"
       y="4.5"
       rx="2.5"
       ry="2.5"
       class="success" />
    <path
       id="rect2705-6-3-9-1"
       style="fill:#808084;fill-opacity:1;stroke-width:0;stroke-dashoffset:2.1875"
       d="m 16,0 c -2.77,0 -5,2.23 -5,5 v 19 h 4.5 V 7 c 0,-1.385 1.115,-2.5 2.5,-2.5 h 28 c 1.385,0 2.5,1.115 2.5,2.5 V 24 H 53 V 5 C 53,2.23 50.77,0 48,0 Z m -5,40 v 19 c 0,2.77 2.23,5 5,5 h 32 c 2.77,0 5,-2.23 5,-5 V 40 h -4.5 v 17 c 0,1.385 -1.115,2.5 -2.5,2.5 H 18 c -1.385,0 -2.5,-1.115 -2.5,-2.5 V 40 Z" />
    <path
       id="rect866-3-2-6"
       style="fill:#808084;fill-opacity:1;stroke-width:0.5;stroke-linecap:round;stroke-linejoin:round;stroke-dashoffset:2.1875"
       d="m 3,20.5 c -1.662,0 -3,1.338 -3,3 v 14 10.5 c 0,0.831 0.669,1.5 1.5,1.5 h 61 c 0.831,0 1.5,-0.669 1.5,-1.5 v -10.5 -14 c 0,-1.662 -1.338,-3 -3,-3 z m 7.1895,7.92383 a 4,4 0 0 1 0.061,0 4,4 0 0 1 4,4 4,4 0 0 1 -4,4 4,4 0 0 1 -4,-4 4,4 0 0 1 3.9395,-4 z" />
  </g>
</svg>
