<?xml version="1.0" encoding="UTF-8" standalone="no"?>
<svg
   xmlns:dc="http://purl.org/dc/elements/1.1/"
   xmlns:cc="http://creativecommons.org/ns#"
   xmlns:rdf="http://www.w3.org/1999/02/22-rdf-syntax-ns#"
   xmlns:svg="http://www.w3.org/2000/svg"
   xmlns="http://www.w3.org/2000/svg"
   xmlns:sodipodi="http://sodipodi.sourceforge.net/DTD/sodipodi-0.dtd"
   xmlns:inkscape="http://www.inkscape.org/namespaces/inkscape"
   width="64"
   height="64"
   viewBox="0 0 16.933333 16.933334"
   version="1.1"
   id="svg841"
   inkscape:version="1.0.2 (e86c870879, 2021-01-15)"
   sodipodi:docname="thunderbolt-symbolic.svg">
  <defs
     id="defs835" />
  <sodipodi:namedview
     id="base"
     pagecolor="#c4c4c4"
     bordercolor="#666666"
     borderopacity="1.0"
     inkscape:pageopacity="0"
     inkscape:pageshadow="2"
     inkscape:zoom="2.3195176"
     inkscape:cx="-55.435343"
     inkscape:cy="54.451095"
     inkscape:document-units="px"
     inkscape:current-layer="layer1"
     inkscape:document-rotation="0"
     showgrid="false"
     units="px"
     inkscape:window-width="2048"
     inkscape:window-height="1080"
     inkscape:window-x="0"
     inkscape:window-y="0"
     inkscape:window-maximized="1" />
  <metadata
     id="metadata838">
    <rdf:RDF>
      <cc:Work
         rdf:about="">
        <dc:format>image/svg+xml</dc:format>
        <dc:type
           rdf:resource="http://purl.org/dc/dcmitype/StillImage" />
        <dc:title />
      </cc:Work>
    </rdf:RDF>
  </metadata>
  <g
     inkscape:label="Layer 1"
     inkscape:groupmode="layer"
     id="layer1">
    <path
       id="path1508-8-5-2"
       style="color:#000000;font-style:normal;font-variant:normal;font-weight:normal;font-stretch:normal;font-size:medium;line-height:normal;font-family:sans-serif;font-variant-ligatures:normal;font-variant-position:normal;font-variant-caps:normal;font-variant-numeric:normal;font-variant-alternates:normal;font-variant-east-asian:normal;font-feature-settings:normal;font-variation-settings:normal;text-indent:0;text-align:start;text-decoration:none;text-decoration-line:none;text-decoration-style:solid;text-decoration-color:#000000;letter-spacing:normal;word-spacing:normal;text-transform:none;writing-mode:lr-tb;direction:ltr;text-orientation:mixed;dominant-baseline:auto;baseline-shift:baseline;text-anchor:start;white-space:normal;shape-padding:0;shape-margin:0;inline-size:0;clip-rule:nonzero;display:inline;overflow:visible;visibility:visible;isolation:auto;mix-blend-mode:normal;color-interpolation:sRGB;color-interpolation-filters:linearRGB;solid-color:#000000;solid-opacity:1;vector-effect:none;fill:#808084;fill-opacity:1;fill-rule:nonzero;stroke:none;stroke-width:0.204156;stroke-linecap:round;stroke-linejoin:round;stroke-miterlimit:4;stroke-dasharray:none;stroke-dashoffset:0;stroke-opacity:1;color-rendering:auto;image-rendering:auto;shape-rendering:auto;text-rendering:auto;enable-background:accumulate;stop-color:#000000"
       d="m 10.487667,4.5300315e-4 a 0.10208875,0.10208875 0 0 0 -0.006,1.33e-4 0.10208875,0.10208875 0 0 0 -0.0949,0.0809699969 l -0.0844,0.398875 -0.27367,1.286214 a 6.8052359,6.8052359 0 0 0 -10e-4,-2.58e-4 L 9.3240367,5.0760912 h 3.0603703 c 0.30489,-3.29e-4 0.50648,0.349028 0.35368,0.61287 L 9.1933867,11.827238 10.202067,12.11712 c 0.27695,0.07912 0.38563,0.433896 0.20057,0.654609 a 0.2041775,0.2041775 0 0 1 0,5.35e-4 l -2.0326603,2.42224 a 6.8052359,6.8052359 0 0 0 10e-4,0 l -0.97572,1.162478 -0.26224,0.311949 a 0.10208875,0.10208875 0 0 0 0.0127,0.143675 c 0.0551,0.04661 0.11908,0.08179 0.1878,0.101442 0.18139,0.05185 0.39498,-7.2e-4 0.531,-0.163212 l 1.33898,-1.595509 A 6.8052359,6.8052359 0 0 0 15.272137,8.3900842 6.8052359,6.8052359 0 0 0 10.618787,1.934281 l 0.28244,-1.326225 c 0.0591,-0.277288 -0.12563,-0.546068 -0.39236,-0.604897 A 0.10208875,0.10208875 0 0 0 10.488167,5.900315e-5 Z M 6.5034167,1.874156 a 6.8052359,6.8052359 0 0 0 -4.84222,6.5158762 6.8052359,6.8052359 0 0 0 4.37463,6.3562538 l -0.47238,-3.36208 c -0.0398,-0.284882 0.23976,-0.52861 0.51637,-0.449648 a 0.2041775,0.2041775 0 0 1 0,5.35e-4 l 1.09973,0.315541 0.51094,-2.4028268 h -0.0387 -0.23167 -0.40034 -2.47115 c -0.27681,-10e-6 -0.47813,-0.287268 -0.38373,-0.547478 a 0.2041775,0.2041775 0 0 1 0,-5.45e-4 z" />
  </g>
</svg>
