<?xml version="1.0" encoding="UTF-8" standalone="no"?>
<svg
   xmlns:dc="http://purl.org/dc/elements/1.1/"
   xmlns:cc="http://creativecommons.org/ns#"
   xmlns:rdf="http://www.w3.org/1999/02/22-rdf-syntax-ns#"
   xmlns:svg="http://www.w3.org/2000/svg"
   xmlns="http://www.w3.org/2000/svg"
   xmlns:sodipodi="http://sodipodi.sourceforge.net/DTD/sodipodi-0.dtd"
   xmlns:inkscape="http://www.inkscape.org/namespaces/inkscape"
   width="64"
   height="64"
   viewBox="0 0 16.933333 16.933334"
   version="1.1"
   id="svg841"
   inkscape:version="1.0.2 (e86c870879, 2021-01-15)"
   sodipodi:docname="camera-photo-symbolic.svg">
  <defs
     id="defs835" />
  <sodipodi:namedview
     id="base"
     pagecolor="#c4c4c4"
     bordercolor="#666666"
     borderopacity="1.0"
     inkscape:pageopacity="0"
     inkscape:pageshadow="2"
     inkscape:zoom="4.2928084"
     inkscape:cx="-20.933911"
     inkscape:cy="82.758346"
     inkscape:document-units="px"
     inkscape:current-layer="layer1"
     inkscape:document-rotation="0"
     showgrid="false"
     units="px"
     inkscape:window-width="2048"
     inkscape:window-height="1080"
     inkscape:window-x="0"
     inkscape:window-y="0"
     inkscape:window-maximized="1" />
  <metadata
     id="metadata838">
    <rdf:RDF>
      <cc:Work
         rdf:about="">
        <dc:format>image/svg+xml</dc:format>
        <dc:type
           rdf:resource="http://purl.org/dc/dcmitype/StillImage" />
        <dc:title></dc:title>
      </cc:Work>
    </rdf:RDF>
  </metadata>
  <g
     inkscape:label="Layer 1"
     inkscape:groupmode="layer"
     id="layer1">
    <path
       id="rect970-5-9-3-0-1"
       style="opacity:0.1;fill:#808084;fill-opacity:1;stroke:none;stroke-width:1.32292;stroke-linecap:round;stroke-linejoin:round;stroke-dashoffset:2.1875"
       d="M 1.852084,3.0096279 C 0.82603,3.0096279 0,3.8356569 0,4.8617189 v 8.9958281 c 0,1.026052 0.82603,1.852081 1.852084,1.852081 H 15.08125 c 1.026055,0 1.852085,-0.826029 1.852085,-1.852081 V 4.8617189 c 0,-1.026062 -0.82603,-1.852091 -1.852085,-1.852091 z m 8.202083,2.116669 A 4.2333337,4.2333337 0 0 1 14.2875,9.3596282 4.2333337,4.2333337 0 0 1 10.054167,13.592969 4.2333337,4.2333337 0 0 1 5.820834,9.3596282 4.2333337,4.2333337 0 0 1 10.054167,5.1262969 Z" />
    <path
       id="rect914-5-2-3-6-9-2"
       style="display:inline;opacity:0.85;fill:#808084;fill-opacity:1;stroke:none;stroke-width:0;stroke-linecap:round;stroke-linejoin:round;stroke-miterlimit:4;stroke-dasharray:none;stroke-dashoffset:2.1875;stroke-opacity:0.5"
       d="m 6.762935,1.2236979 c -0.293158,0 -0.665321,0.236 -0.834575,0.529161 l -1.01338,1.754929 c -0.169254,0.293161 -0.0694,0.529169 0.223758,0.529169 h 4.534613 0.757054 4.534614 c 0.293159,0 0.393013,-0.236008 0.223759,-0.529169 L 14.175396,1.7528589 C 14.006144,1.4596979 13.633981,1.2236979 13.340821,1.2236979 H 12.054602 8.049154 Z" />
    <circle
       style="display:inline;fill:#808084;fill-opacity:1;stroke-width:0;stroke-linecap:round;stroke-linejoin:round;stroke-dashoffset:2.1875;stroke-opacity:0.5"
       id="path1324-9-7-2-3-9"
       cx="3.7041657"
       cy="6.9122353"
       r="1.0583334" />
    <path
       id="path1258-5-8-9-6-3"
       style="opacity:0.85;fill:#808084;fill-opacity:1;stroke:none;stroke-width:1.32292;stroke-linecap:round;stroke-linejoin:round;stroke-dashoffset:2.1875"
       d="M 10.054167,5.1263019 A 4.2333337,4.2333337 0 0 0 5.820834,9.3596322 4.2333337,4.2333337 0 0 0 10.054167,13.592972 4.2333337,4.2333337 0 0 0 14.287501,9.3596322 4.2333337,4.2333337 0 0 0 10.054167,5.1263019 Z m -0.02479,2.3812493 a 1.8520834,1.8520834 0 0 1 0.02479,0 1.8520834,1.8520834 0 0 1 1.852083,1.852081 1.8520834,1.8520834 0 0 1 -1.852083,1.8520898 1.8520834,1.8520834 0 0 1 -1.852084,-1.8520898 1.8520834,1.8520834 0 0 1 1.827279,-1.852081 z" />
    <path
       id="rect935-6-1-7-1"
       style="fill:#808084;fill-opacity:1;stroke:none;stroke-width:1.32292;stroke-linecap:round;stroke-linejoin:round;stroke-dashoffset:2.1875"
       d="M 1.852084,3.0096349 C 0.82603,3.0096349 0,3.8356649 0,4.8617189 v 8.9958331 c 0,1.026055 0.82603,1.852084 1.852084,1.852084 h 13.229167 c 1.026054,0 1.852084,-0.826029 1.852084,-1.852084 V 4.8617189 c 0,-1.026054 -0.82603,-1.852084 -1.852084,-1.852084 z m 0.661458,1.322917 h 11.906251 c 0.659606,0 1.190625,0.413015 1.190625,0.926042 v 8.2020831 c 0,0.513028 -0.531019,0.926042 -1.190625,0.926042 H 2.513542 c -0.659606,0 -1.190625,-0.413014 -1.190625,-0.926042 V 5.2585939 c 0,-0.513027 0.531019,-0.926042 1.190625,-0.926042 z" />
  </g>
</svg>
