<?xml version="1.0" encoding="UTF-8" standalone="no"?>
<svg
   xmlns:dc="http://purl.org/dc/elements/1.1/"
   xmlns:cc="http://creativecommons.org/ns#"
   xmlns:rdf="http://www.w3.org/1999/02/22-rdf-syntax-ns#"
   xmlns:svg="http://www.w3.org/2000/svg"
   xmlns="http://www.w3.org/2000/svg"
   xmlns:sodipodi="http://sodipodi.sourceforge.net/DTD/sodipodi-0.dtd"
   xmlns:inkscape="http://www.inkscape.org/namespaces/inkscape"
   width="64"
   height="64"
   viewBox="0 0 16.933333 16.933334"
   version="1.1"
   id="svg841"
   inkscape:version="1.0.2 (e86c870879, 2021-01-15)"
   sodipodi:docname="input-touchpad-symbolic.svg">
  <defs
     id="defs835" />
  <sodipodi:namedview
     id="base"
     pagecolor="#c4c4c4"
     bordercolor="#666666"
     borderopacity="1.0"
     inkscape:pageopacity="0"
     inkscape:pageshadow="2"
     inkscape:zoom="3.5451024"
     inkscape:cx="68.811251"
     inkscape:cy="38.515083"
     inkscape:document-units="px"
     inkscape:current-layer="layer1"
     inkscape:document-rotation="0"
     showgrid="false"
     units="px"
     inkscape:window-width="2048"
     inkscape:window-height="1080"
     inkscape:window-x="0"
     inkscape:window-y="0"
     inkscape:window-maximized="1" />
  <metadata
     id="metadata838">
    <rdf:RDF>
      <cc:Work
         rdf:about="">
        <dc:format>image/svg+xml</dc:format>
        <dc:type
           rdf:resource="http://purl.org/dc/dcmitype/StillImage" />
        <dc:title></dc:title>
      </cc:Work>
    </rdf:RDF>
  </metadata>
  <g
     inkscape:label="Layer 1"
     inkscape:groupmode="layer"
     id="layer1">
    <rect
       style="display:inline;opacity:0.375;fill:#808084;fill-opacity:1;stroke:none;stroke-width:1.32292;stroke-linecap:round;stroke-linejoin:round;stroke-dashoffset:2.1875"
       id="rect857-7-2-7-9"
       width="14.552083"
       height="10.31875"
       x="1.1906252"
       y="3.3072915"
       rx="0.66145837"
       ry="0.66145837" />
    <path
       id="rect2703-7-0-3"
       style="display:inline;fill:#808084;fill-opacity:1;stroke-width:0;stroke-dashoffset:2.1875"
       d="m 16.933334,3.4395833 c 0,-0.7328958 -0.590021,-1.3229167 -1.322917,-1.3229167 H 1.3229163 C 0.59002045,2.1166666 -3.5000001e-7,2.7066875 -3.5000001e-7,3.4395833 V 13.49375 c 0,0.732896 0.59002080000001,1.322917 1.32291665000001,1.322917 H 15.610417 c 0.732896,0 1.322917,-0.590021 1.322917,-1.322917 z M 15.742709,3.96875 v 8.995834 c 0,0.366448 -0.295011,0.661458 -0.661459,0.661458 H 1.852083 c -0.3664479,0 -0.6614584,-0.29501 -0.6614584,-0.661458 V 3.96875 c 0,-0.3664479 0.2950105,-0.6614583 0.6614584,-0.6614583 H 15.08125 c 0.366448,0 0.661459,0.2950104 0.661459,0.6614583 z" />
  </g>
</svg>
