<?xml version="1.0" encoding="UTF-8" standalone="no"?>
<svg
   xmlns:dc="http://purl.org/dc/elements/1.1/"
   xmlns:cc="http://creativecommons.org/ns#"
   xmlns:rdf="http://www.w3.org/1999/02/22-rdf-syntax-ns#"
   xmlns:svg="http://www.w3.org/2000/svg"
   xmlns="http://www.w3.org/2000/svg"
   xmlns:sodipodi="http://sodipodi.sourceforge.net/DTD/sodipodi-0.dtd"
   xmlns:inkscape="http://www.inkscape.org/namespaces/inkscape"
   width="64"
   height="64"
   viewBox="0 0 16.933333 16.933334"
   version="1.1"
   id="svg841"
   inkscape:version="1.0.2 (e86c870879, 2021-01-15)"
   sodipodi:docname="media-removable-symbolic.svg">
  <defs
     id="defs835" />
  <sodipodi:namedview
     id="base"
     pagecolor="#c4c4c4"
     bordercolor="#666666"
     borderopacity="1.0"
     inkscape:pageopacity="0"
     inkscape:pageshadow="2"
     inkscape:zoom="3.4878456"
     inkscape:cx="-36.255502"
     inkscape:cy="80.721868"
     inkscape:document-units="px"
     inkscape:current-layer="layer1"
     inkscape:document-rotation="0"
     showgrid="false"
     units="px"
     inkscape:window-width="2048"
     inkscape:window-height="1080"
     inkscape:window-x="0"
     inkscape:window-y="0"
     inkscape:window-maximized="1" />
  <metadata
     id="metadata838">
    <rdf:RDF>
      <cc:Work
         rdf:about="">
        <dc:format>image/svg+xml</dc:format>
        <dc:type
           rdf:resource="http://purl.org/dc/dcmitype/StillImage" />
        <dc:title></dc:title>
      </cc:Work>
    </rdf:RDF>
  </metadata>
  <g
     inkscape:label="Layer 1"
     inkscape:groupmode="layer"
     id="layer1">
    <path
       id="rect848-61-2-6-1-7-2-7-2-7-3-5-7"
       style="fill:#808084;stroke-width:1.32292;stroke-linecap:round;stroke-linejoin:round;stroke-dashoffset:2.1875"
       d="M 3.7041664,1.75e-6 C 1.6520574,1.75e-6 -5.0000001e-7,1.6520617 -5.0000001e-7,3.7041717 v 9.5250003 c 0,2.05211 1.65205790000001,3.70416 3.70416690000001,3.70416 h 9.5250016 c 2.052108,0 3.704166,-1.65205 3.704166,-3.70416 V 3.7041717 c 0,-2.05211 -1.652058,-3.70416995 -3.704166,-3.70416995 z M 8.452714,3.0427117 a 0.88175129,0.51849042 1.1714568e-6 0 1 0.781865,0.25993 l 4.405415,4.49223 a 0.88175129,0.51849042 1.1714568e-6 0 1 -0.764294,0.77773 l -8.8201335,-0.003 a 0.88175129,0.51849042 1.1714568e-6 0 1 -0.762745,-0.77773 l 4.4142009,-4.48965 a 0.88175129,0.51849042 1.1714568e-6 0 1 0.7425906,-0.2589 0.88175129,0.51849042 1.1714568e-6 0 1 0.0031,-5.2e-4 z M 3.5718744,11.046352 h 9.7895846 c 0.219863,0 0.396875,0.17702 0.396875,0.39688 v 1.52135 c 0,0.21987 -0.177012,0.39688 -0.396875,0.39688 H 3.5718744 c -0.2198629,0 -0.396875,-0.17701 -0.396875,-0.39688 v -1.52135 c 0,-0.21986 0.177012,-0.39688 0.396875,-0.39688 z" />
  </g>
</svg>
