<?xml version="1.0" encoding="UTF-8" standalone="no"?>
<svg
   xmlns:dc="http://purl.org/dc/elements/1.1/"
   xmlns:cc="http://creativecommons.org/ns#"
   xmlns:rdf="http://www.w3.org/1999/02/22-rdf-syntax-ns#"
   xmlns:svg="http://www.w3.org/2000/svg"
   xmlns="http://www.w3.org/2000/svg"
   xmlns:xlink="http://www.w3.org/1999/xlink"
   xmlns:sodipodi="http://sodipodi.sourceforge.net/DTD/sodipodi-0.dtd"
   xmlns:inkscape="http://www.inkscape.org/namespaces/inkscape"
   width="64"
   height="64"
   viewBox="0 0 64 64"
   version="1.1"
   id="svg6374"
   inkscape:version="1.0.2 (e86c870879, 2021-01-15)"
   sodipodi:docname="printer-printing.svg">
  <defs
     id="defs6368">
    <linearGradient
       inkscape:collect="always"
       xlink:href="#linearGradient1617"
       id="linearGradient1140"
       gradientUnits="userSpaceOnUse"
       gradientTransform="translate(3.014675,-45.12508)"
       x1="4.742949"
       y1="73.311638"
       x2="8.3865204"
       y2="77.706078" />
    <linearGradient
       inkscape:collect="always"
       id="linearGradient1617">
      <stop
         style="stop-color:#f9f9f7;stop-opacity:0.2"
         offset="0"
         id="stop1615" />
      <stop
         style="stop-color:#f9f9f7;stop-opacity:0"
         offset="1"
         id="stop1613" />
    </linearGradient>
    <linearGradient
       inkscape:collect="always"
       xlink:href="#linearGradient1472"
       id="linearGradient2796"
       x1="32.403374"
       y1="40.094997"
       x2="32.333378"
       y2="48.247993"
       gradientUnits="userSpaceOnUse"
       gradientTransform="translate(0,0.5)" />
    <linearGradient
       inkscape:collect="always"
       id="linearGradient1472">
      <stop
         style="stop-color:#f8f8fc;stop-opacity:1;"
         offset="0"
         id="stop1468" />
      <stop
         style="stop-color:#f8f8fc;stop-opacity:0;"
         offset="1"
         id="stop1470" />
    </linearGradient>
    <linearGradient
       inkscape:collect="always"
       xlink:href="#linearGradient1472"
       id="linearGradient1138"
       gradientUnits="userSpaceOnUse"
       gradientTransform="translate(1.5,-58)"
       x1="1.5"
       y1="94.640625"
       x2="31.5"
       y2="94.640625" />
    <linearGradient
       inkscape:collect="always"
       xlink:href="#linearGradient1315"
       id="linearGradient2697"
       x1="-51.086292"
       y1="22.220631"
       x2="-51.239521"
       y2="47.565178"
       gradientUnits="userSpaceOnUse"
       gradientTransform="translate(81.689453,1.71094)" />
    <linearGradient
       inkscape:collect="always"
       id="linearGradient1315">
      <stop
         style="stop-color:#dadade;stop-opacity:1"
         offset="0"
         id="stop1311" />
      <stop
         style="stop-color:#b8b8bd;stop-opacity:1"
         offset="1"
         id="stop1313" />
    </linearGradient>
  </defs>
  <sodipodi:namedview
     id="base"
     pagecolor="#cecece"
     bordercolor="#666666"
     borderopacity="1.0"
     inkscape:pageopacity="0"
     inkscape:pageshadow="2"
     inkscape:zoom="6.5069742"
     inkscape:cx="30.128435"
     inkscape:cy="34.546031"
     inkscape:document-units="px"
     inkscape:current-layer="layer1"
     inkscape:document-rotation="0"
     showgrid="false"
     units="px"
     inkscape:window-width="1500"
     inkscape:window-height="970"
     inkscape:window-x="68"
     inkscape:window-y="56"
     inkscape:window-maximized="0" />
  <metadata
     id="metadata6371">
    <rdf:RDF>
      <cc:Work
         rdf:about="">
        <dc:format>image/svg+xml</dc:format>
        <dc:type
           rdf:resource="http://purl.org/dc/dcmitype/StillImage" />
        <dc:title></dc:title>
      </cc:Work>
    </rdf:RDF>
  </metadata>
  <g
     inkscape:label="Layer 1"
     inkscape:groupmode="layer"
     id="layer1">
    <path
       id="rect866-3-2-3-5-5-6-87"
       style="color:#000000;font-style:normal;font-variant:normal;font-weight:normal;font-stretch:normal;font-size:medium;line-height:normal;font-family:sans-serif;font-variant-ligatures:normal;font-variant-position:normal;font-variant-caps:normal;font-variant-numeric:normal;font-variant-alternates:normal;font-variant-east-asian:normal;font-feature-settings:normal;font-variation-settings:normal;text-indent:0;text-align:start;text-decoration:none;text-decoration-line:none;text-decoration-style:solid;text-decoration-color:#000000;letter-spacing:normal;word-spacing:normal;text-transform:none;writing-mode:lr-tb;direction:ltr;text-orientation:mixed;dominant-baseline:auto;baseline-shift:baseline;text-anchor:start;white-space:normal;shape-padding:0;shape-margin:0;inline-size:0;clip-rule:nonzero;display:inline;overflow:visible;visibility:visible;opacity:0.15;isolation:auto;mix-blend-mode:normal;color-interpolation:sRGB;color-interpolation-filters:linearRGB;solid-color:#000000;solid-opacity:1;vector-effect:none;fill:#0c0c0c;fill-opacity:1;fill-rule:nonzero;stroke:none;stroke-linecap:round;stroke-linejoin:round;stroke-miterlimit:4;stroke-dasharray:none;stroke-dashoffset:2.1875;stroke-opacity:1;color-rendering:auto;image-rendering:auto;shape-rendering:auto;text-rendering:auto;enable-background:accumulate;stop-color:#000000"
       d="M 5.71875,23 C 3.407508,23 1.500001,24.9075 1.5,27.21875 v 12.6875 9.51562 c 0,1.55814 1.301226,2.85938 2.859375,2.85938 h 55.28125 c 1.558147,0 2.859377,-1.30123 2.859377,-2.85938 v -9.51562 -12.6875 c 0,-2.31125 -1.90751,-4.21876 -4.218752,-4.21875 z m 0,3 h 52.5625 C 58.982384,26 59.5,26.51761 59.5,27.21875 v 12.6875 9.375 h -55 v -9.375 -12.6875 C 4.5,26.51761 5.017617,25.99999 5.71875,26 Z" />
    <path
       id="rect954-7-0-7-3-0-0-0-6-3-0-78-2-9-1-9-5"
       style="color:#000000;font-style:normal;font-variant:normal;font-weight:normal;font-stretch:normal;font-size:medium;line-height:normal;font-family:sans-serif;font-variant-ligatures:normal;font-variant-position:normal;font-variant-caps:normal;font-variant-numeric:normal;font-variant-alternates:normal;font-variant-east-asian:normal;font-feature-settings:normal;font-variation-settings:normal;text-indent:0;text-align:start;text-decoration:none;text-decoration-line:none;text-decoration-style:solid;text-decoration-color:#000000;letter-spacing:normal;word-spacing:normal;text-transform:none;writing-mode:lr-tb;direction:ltr;text-orientation:mixed;dominant-baseline:auto;baseline-shift:baseline;text-anchor:start;white-space:normal;shape-padding:0;shape-margin:0;inline-size:0;clip-rule:nonzero;display:inline;overflow:visible;visibility:visible;opacity:0.15;isolation:auto;mix-blend-mode:normal;color-interpolation:sRGB;color-interpolation-filters:linearRGB;solid-color:#000000;solid-opacity:1;vector-effect:none;fill:#0c0c0c;fill-opacity:1;fill-rule:nonzero;stroke:none;stroke-width:0.999991;stroke-linecap:round;stroke-linejoin:round;stroke-miterlimit:4;stroke-dasharray:none;stroke-dashoffset:2.1875;stroke-opacity:1;color-rendering:auto;image-rendering:auto;shape-rendering:auto;text-rendering:auto;enable-background:accumulate;stop-color:#000000"
       d="M 9,45.5 7.609375,58.777344 c -0.258371,2.467012 1.56035,4.5 4.027344,4.5 H 32 52.363281 c 2.466994,0 4.285713,-2.032988 4.027344,-4.5 L 55,45.5 h -3 l 1.390625,13.277344 c 0.0898,0.856937 -0.484899,1.5 -1.341797,1.5 H 32 11.951172 c -0.856897,0 -1.431557,-0.643063 -1.341797,-1.5 L 12,45.5 Z" />
    <path
       id="rect954-7-0-7-3-0-0-0-6-3-0-78-1"
       style="color:#000000;font-style:normal;font-variant:normal;font-weight:normal;font-stretch:normal;font-size:medium;line-height:normal;font-family:sans-serif;font-variant-ligatures:normal;font-variant-position:normal;font-variant-caps:normal;font-variant-numeric:normal;font-variant-alternates:normal;font-variant-east-asian:normal;font-feature-settings:normal;font-variation-settings:normal;text-indent:0;text-align:start;text-decoration:none;text-decoration-line:none;text-decoration-style:solid;text-decoration-color:#000000;letter-spacing:normal;word-spacing:normal;text-transform:none;writing-mode:lr-tb;direction:ltr;text-orientation:mixed;dominant-baseline:auto;baseline-shift:baseline;text-anchor:start;white-space:normal;shape-padding:0;shape-margin:0;inline-size:0;clip-rule:nonzero;display:inline;overflow:visible;visibility:visible;isolation:auto;mix-blend-mode:normal;color-interpolation:sRGB;color-interpolation-filters:linearRGB;solid-color:#000000;solid-opacity:1;vector-effect:none;fill:#414143;fill-opacity:1;fill-rule:nonzero;stroke:none;stroke-linecap:round;stroke-linejoin:round;stroke-miterlimit:4;stroke-dasharray:none;stroke-dashoffset:2.1875;stroke-opacity:1;color-rendering:auto;image-rendering:auto;shape-rendering:auto;text-rendering:auto;enable-background:accumulate;stop-color:#000000"
       d="M 13,1 C 10.53295,1 8.5,3.03295 8.5,5.5 V 31 h 3 V 5.5 C 11.5,4.64306 12.14305,4 13,4 h 38 c 0.856901,0 1.5,0.64306 1.5,1.5 V 31 h 3 V 5.5 C 55.5,3.03295 53.466999,1 51,1 Z" />
    <path
       id="rect954-7-0-7-9-6-9"
       style="fill:#fbfaf9;fill-opacity:1;stroke-width:0.495;stroke-linecap:round;stroke-linejoin:round;stroke-miterlimit:4;stroke-dasharray:none;stroke-dashoffset:2.1875"
       d="m 13,2.5 c -1.662,0 -3,1.338 -3,3 V 31 H 54 V 5.5 c 0,-1.662 -1.338,-3 -3,-3 z" />
    <path
       id="rect866-3-2-3-5-5-6-3"
       style="color:#000000;font-style:normal;font-variant:normal;font-weight:normal;font-stretch:normal;font-size:medium;line-height:normal;font-family:sans-serif;font-variant-ligatures:normal;font-variant-position:normal;font-variant-caps:normal;font-variant-numeric:normal;font-variant-alternates:normal;font-variant-east-asian:normal;font-feature-settings:normal;font-variation-settings:normal;text-indent:0;text-align:start;text-decoration:none;text-decoration-line:none;text-decoration-style:solid;text-decoration-color:#000000;letter-spacing:normal;word-spacing:normal;text-transform:none;writing-mode:lr-tb;direction:ltr;text-orientation:mixed;dominant-baseline:auto;baseline-shift:baseline;text-anchor:start;white-space:normal;shape-padding:0;shape-margin:0;inline-size:0;clip-rule:nonzero;display:inline;overflow:visible;visibility:visible;opacity:0.075;isolation:auto;mix-blend-mode:normal;color-interpolation:sRGB;color-interpolation-filters:linearRGB;solid-color:#000000;solid-opacity:1;vector-effect:none;fill:#0c0c0c;fill-opacity:1;fill-rule:nonzero;stroke:none;stroke-linecap:round;stroke-linejoin:round;stroke-miterlimit:4;stroke-dasharray:none;stroke-dashoffset:2.1875;stroke-opacity:1;color-rendering:auto;image-rendering:auto;shape-rendering:auto;text-rendering:auto;enable-background:accumulate;stop-color:#000000"
       d="M 5.71875,20.75 C 3.407508,20.75 1.500001,22.6575 1.5,24.96875 v 12.6875 9.51562 c 0,1.55814 1.301226,2.85938 2.859375,2.85938 h 55.281249 c 1.55815,0 2.85938,-1.30123 2.85938,-2.85938 v -9.51562 -12.6875 c 0,-2.31125 -1.90751,-4.21876 -4.21875,-4.21875 z m 0,3 h 52.562504 c 0.70113,0 1.21875,0.51761 1.21875,1.21875 v 12.6875 9.375 H 4.5 v -9.375 -12.6875 C 4.5,24.26761 5.017617,23.74999 5.71875,23.75 Z" />
    <path
       id="rect866-3-2-3-5-36"
       style="color:#000000;font-style:normal;font-variant:normal;font-weight:normal;font-stretch:normal;font-size:medium;line-height:normal;font-family:sans-serif;font-variant-ligatures:normal;font-variant-position:normal;font-variant-caps:normal;font-variant-numeric:normal;font-variant-alternates:normal;font-variant-east-asian:normal;font-feature-settings:normal;font-variation-settings:normal;text-indent:0;text-align:start;text-decoration:none;text-decoration-line:none;text-decoration-style:solid;text-decoration-color:#000000;letter-spacing:normal;word-spacing:normal;text-transform:none;writing-mode:lr-tb;direction:ltr;text-orientation:mixed;dominant-baseline:auto;baseline-shift:baseline;text-anchor:start;white-space:normal;shape-padding:0;shape-margin:0;inline-size:0;clip-rule:nonzero;display:inline;overflow:visible;visibility:visible;opacity:0.85;isolation:auto;mix-blend-mode:normal;color-interpolation:sRGB;color-interpolation-filters:linearRGB;solid-color:#000000;solid-opacity:1;vector-effect:none;fill:#555564;fill-opacity:1;fill-rule:nonzero;stroke:none;stroke-linecap:round;stroke-linejoin:round;stroke-miterlimit:4;stroke-dasharray:none;stroke-dashoffset:2.1875;stroke-opacity:1;color-rendering:auto;image-rendering:auto;shape-rendering:auto;text-rendering:auto;enable-background:accumulate;stop-color:#000000"
       d="M 5.71875,22 C 3.407508,22 1.500001,23.9075 1.5,26.21875 v 12.6875 9.51562 c 0,1.55814 1.301226,2.85938 2.859375,2.85938 h 55.28125 C 61.198772,51.28125 62.5,49.98002 62.5,48.42187 V 38.90625 26.21875 C 62.5,23.9075 60.592494,21.99999 58.28125,22 Z m 0,3 h 52.5625 C 58.982384,25 59.5,25.51761 59.5,26.21875 v 12.6875 9.375 h -55 v -9.375 -12.6875 C 4.5,25.51761 5.017617,24.99999 5.71875,25 Z" />
    <path
       id="path2688"
       style="fill:url(#linearGradient2697);fill-opacity:1;stroke:none;stroke-width:1.25;stroke-linecap:round;stroke-linejoin:round"
       d="M 5.71875,23.5 C 4.212562,23.5 3,24.71256 3,26.21875 v 12.6875 9.515626 c 0,0.75309 0.606281,1.359375 1.359375,1.359374 h 55.28125 C 60.393719,49.78125 61,49.174966 61,48.421876 V 38.90625 26.21875 C 61,24.71256 59.787438,23.500001 58.28125,23.5 Z" />
    <path
       id="path1583-9-2-9-2"
       style="color:#000000;font-style:normal;font-variant:normal;font-weight:normal;font-stretch:normal;font-size:medium;line-height:normal;font-family:sans-serif;font-variant-ligatures:normal;font-variant-position:normal;font-variant-caps:normal;font-variant-numeric:normal;font-variant-alternates:normal;font-variant-east-asian:normal;font-feature-settings:normal;font-variation-settings:normal;text-indent:0;text-align:start;text-decoration:none;text-decoration-line:none;text-decoration-style:solid;text-decoration-color:#000000;letter-spacing:normal;word-spacing:normal;text-transform:none;writing-mode:lr-tb;direction:ltr;text-orientation:mixed;dominant-baseline:auto;baseline-shift:baseline;text-anchor:start;white-space:normal;shape-padding:0;shape-margin:0;inline-size:0;clip-rule:nonzero;display:inline;overflow:visible;visibility:visible;opacity:0.45;isolation:auto;mix-blend-mode:normal;color-interpolation:sRGB;color-interpolation-filters:linearRGB;solid-color:#000000;solid-opacity:1;vector-effect:none;fill:#f8f8fc;fill-opacity:1;fill-rule:nonzero;stroke:none;stroke-width:1.10811;stroke-linecap:round;stroke-linejoin:round;stroke-miterlimit:4;stroke-dasharray:none;stroke-dashoffset:0;stroke-opacity:1;color-rendering:auto;image-rendering:auto;shape-rendering:auto;text-rendering:auto;enable-background:accumulate;stop-color:#000000"
       d="M 11.125,26.5 C 8.307666,26.5 6,28.807666 6,31.625 c 0,2.817335 2.307666,5.125002 5.125,5.125002 2.817335,0 5.125,-2.307667 5.125,-5.125002 0,-2.817334 -2.307665,-5.125 -5.125,-5.125 z m 0,2.216216 c 1.619602,0 2.908784,1.289182 2.908784,2.908784 0,1.619602 -1.289182,2.908784 -2.908784,2.908784 -1.619602,0 -2.908784,-1.289182 -2.908784,-2.908784 0,-1.619602 1.289182,-2.908784 2.908784,-2.908784 z" />
    <path
       id="rect866-3-2-3-5-5-6"
       style="color:#000000;font-style:normal;font-variant:normal;font-weight:normal;font-stretch:normal;font-size:medium;line-height:normal;font-family:sans-serif;font-variant-ligatures:normal;font-variant-position:normal;font-variant-caps:normal;font-variant-numeric:normal;font-variant-alternates:normal;font-variant-east-asian:normal;font-feature-settings:normal;font-variation-settings:normal;text-indent:0;text-align:start;text-decoration:none;text-decoration-line:none;text-decoration-style:solid;text-decoration-color:#000000;letter-spacing:normal;word-spacing:normal;text-transform:none;writing-mode:lr-tb;direction:ltr;text-orientation:mixed;dominant-baseline:auto;baseline-shift:baseline;text-anchor:start;white-space:normal;shape-padding:0;shape-margin:0;inline-size:0;clip-rule:nonzero;display:inline;overflow:visible;visibility:visible;opacity:0.15;isolation:auto;mix-blend-mode:normal;color-interpolation:sRGB;color-interpolation-filters:linearRGB;solid-color:#000000;solid-opacity:1;vector-effect:none;fill:#383842;fill-opacity:1;fill-rule:nonzero;stroke:none;stroke-linecap:round;stroke-linejoin:round;stroke-miterlimit:4;stroke-dasharray:none;stroke-dashoffset:2.1875;stroke-opacity:1;color-rendering:auto;image-rendering:auto;shape-rendering:auto;text-rendering:auto;enable-background:accumulate;stop-color:#000000"
       d="M 5.71875,22 C 3.407508,22 1.500001,23.9075 1.5,26.21875 v 12.6875 9.51562 c 0,1.55814 1.301226,2.85938 2.859375,2.85938 h 55.28125 C 61.198772,51.28125 62.5,49.98002 62.5,48.42187 V 38.90625 26.21875 C 62.5,23.9075 60.592494,21.99999 58.28125,22 Z m 0,3 h 52.5625 C 58.982384,25 59.5,25.51761 59.5,26.21875 v 12.6875 9.375 h -55 v -9.375 -12.6875 C 4.5,25.51761 5.017617,24.99999 5.71875,25 Z" />
    <path
       id="rect866-3-2-3-5-2-9-2"
       style="color:#000000;font-style:normal;font-variant:normal;font-weight:normal;font-stretch:normal;font-size:medium;line-height:normal;font-family:sans-serif;font-variant-ligatures:normal;font-variant-position:normal;font-variant-caps:normal;font-variant-numeric:normal;font-variant-alternates:normal;font-variant-east-asian:normal;font-feature-settings:normal;font-variation-settings:normal;text-indent:0;text-align:start;text-decoration:none;text-decoration-line:none;text-decoration-style:solid;text-decoration-color:#000000;letter-spacing:normal;word-spacing:normal;text-transform:none;writing-mode:lr-tb;direction:ltr;text-orientation:mixed;dominant-baseline:auto;baseline-shift:baseline;text-anchor:start;white-space:normal;shape-padding:0;shape-margin:0;inline-size:0;clip-rule:nonzero;display:inline;overflow:visible;visibility:visible;opacity:0.75;isolation:auto;mix-blend-mode:normal;color-interpolation:sRGB;color-interpolation-filters:linearRGB;solid-color:#000000;solid-opacity:1;vector-effect:none;fill:url(#linearGradient1138);fill-opacity:1;fill-rule:nonzero;stroke:none;stroke-linecap:round;stroke-linejoin:round;stroke-miterlimit:4;stroke-dasharray:none;stroke-dashoffset:2.1875;stroke-opacity:1;color-rendering:auto;image-rendering:auto;shape-rendering:auto;text-rendering:auto;enable-background:accumulate;stop-color:#000000"
       d="M 5.71875,23.5 C 4.212562,23.5 3,24.71256 3,26.21875 v 12.6875 9.51562 c 0,0.75308 0.606281,1.35936 1.359375,1.35938 h 55.28125 C 60.393719,49.78125 61,49.17496 61,48.42187 V 38.90625 26.21875 C 61,24.71256 59.787438,23.5 58.28125,23.5 Z m 0,1.5 h 52.5625 C 58.982384,25 59.5,25.51761 59.5,26.21875 v 12.6875 9.375 h -55 v -9.375 -12.6875 C 4.5,25.51761 5.017617,24.99999 5.71875,25 Z" />
    <path
       id="rect2656-0-5-9"
       style="fill:#414143;fill-opacity:1;stroke:none;stroke-width:1.25;stroke-linecap:round;stroke-linejoin:round"
       d="m 8.5,41.281 c -0.831,0 -1.5,0.669 -1.5,1.5 v 8.499999 H 56.999998 V 42.781 c 0,-0.831 -0.669,-1.5 -1.5,-1.5 z" />
    <path
       id="rect2656-0-5-4"
       style="color:#000000;font-style:normal;font-variant:normal;font-weight:normal;font-stretch:normal;font-size:medium;line-height:normal;font-family:sans-serif;font-variant-ligatures:normal;font-variant-position:normal;font-variant-caps:normal;font-variant-numeric:normal;font-variant-alternates:normal;font-variant-east-asian:normal;font-feature-settings:normal;font-variation-settings:normal;text-indent:0;text-align:start;text-decoration:none;text-decoration-line:none;text-decoration-style:solid;text-decoration-color:#000000;letter-spacing:normal;word-spacing:normal;text-transform:none;writing-mode:lr-tb;direction:ltr;text-orientation:mixed;dominant-baseline:auto;baseline-shift:baseline;text-anchor:start;white-space:normal;shape-padding:0;shape-margin:0;inline-size:0;clip-rule:nonzero;display:inline;overflow:visible;visibility:visible;opacity:0.55;isolation:auto;mix-blend-mode:normal;color-interpolation:sRGB;color-interpolation-filters:linearRGB;solid-color:#000000;solid-opacity:1;vector-effect:none;fill:url(#linearGradient2796);fill-opacity:1;fill-rule:nonzero;stroke:none;stroke-linecap:round;stroke-linejoin:round;stroke-miterlimit:4;stroke-dasharray:none;stroke-dashoffset:0;stroke-opacity:1;color-rendering:auto;image-rendering:auto;shape-rendering:auto;text-rendering:auto;enable-background:accumulate;stop-color:#000000"
       d="m 8.500001,40.781 c -1.09935,0 -2,0.900648 -2,2 v 8.500001 a 0.50005,0.50005 0 0 0 0.5,0.5 h 49.999998 a 0.50005,0.50005 0 0 0 0.5,-0.5 V 42.781 c 0,-1.099352 -0.90065,-2 -2,-2 z m 0,1 h 46.999998 c 0.56265,0 1,0.437351 1,1 v 8.000001 H 7.500001 V 42.781 c 0,-0.562649 0.43735,-1 1,-1 z" />
    <path
       id="rect954-7-0-7-3-0-0-0-6-3-0-78-2-9-1-9"
       style="color:#000000;font-style:normal;font-variant:normal;font-weight:normal;font-stretch:normal;font-size:medium;line-height:normal;font-family:sans-serif;font-variant-ligatures:normal;font-variant-position:normal;font-variant-caps:normal;font-variant-numeric:normal;font-variant-alternates:normal;font-variant-east-asian:normal;font-feature-settings:normal;font-variation-settings:normal;text-indent:0;text-align:start;text-decoration:none;text-decoration-line:none;text-decoration-style:solid;text-decoration-color:#000000;letter-spacing:normal;word-spacing:normal;text-transform:none;writing-mode:lr-tb;direction:ltr;text-orientation:mixed;dominant-baseline:auto;baseline-shift:baseline;text-anchor:start;white-space:normal;shape-padding:0;shape-margin:0;inline-size:0;clip-rule:nonzero;display:inline;overflow:visible;visibility:visible;isolation:auto;mix-blend-mode:normal;color-interpolation:sRGB;color-interpolation-filters:linearRGB;solid-color:#000000;solid-opacity:1;vector-effect:none;fill:#414143;fill-opacity:1;fill-rule:nonzero;stroke:none;stroke-width:0.999991;stroke-linecap:round;stroke-linejoin:round;stroke-miterlimit:4;stroke-dasharray:none;stroke-dashoffset:2.1875;stroke-opacity:1;color-rendering:auto;image-rendering:auto;shape-rendering:auto;text-rendering:auto;enable-background:accumulate;stop-color:#000000"
       d="M 9,44.5 7.609375,57.777344 c -0.258372,2.467012 1.56035,4.5 4.027344,4.5 H 32 52.363281 c 2.466994,0 4.285713,-2.032988 4.027344,-4.5 L 55,44.5 h -3 l 1.390625,13.277344 c 0.0898,0.856937 -0.484899,1.5 -1.341797,1.5 H 32 11.951172 c -0.856897,0 -1.431557,-0.643063 -1.341797,-1.5 L 12,44.5 Z" />
    <path
       id="rect954-7-0-7-9-6-3-2-3-3"
       style="fill:#fbfaf9;fill-opacity:1;stroke-width:0.494995;stroke-linecap:round;stroke-linejoin:round;stroke-miterlimit:4;stroke-dasharray:none;stroke-dashoffset:2.1875"
       d="M 10.578125,44.5 8.955078,57.777344 c -0.20307,1.661974 0.970817,3 2.632813,3 h 20.410156 20.412109 c 1.661996,0 2.835883,-1.338036 2.632813,-3 L 53.419922,44.5 Z" />
    <path
       id="path1583-9-2-6"
       style="color:#000000;font-style:normal;font-variant:normal;font-weight:normal;font-stretch:normal;font-size:medium;line-height:normal;font-family:sans-serif;font-variant-ligatures:normal;font-variant-position:normal;font-variant-caps:normal;font-variant-numeric:normal;font-variant-alternates:normal;font-variant-east-asian:normal;font-feature-settings:normal;font-variation-settings:normal;text-indent:0;text-align:start;text-decoration:none;text-decoration-line:none;text-decoration-style:solid;text-decoration-color:#000000;letter-spacing:normal;word-spacing:normal;text-transform:none;writing-mode:lr-tb;direction:ltr;text-orientation:mixed;dominant-baseline:auto;baseline-shift:baseline;text-anchor:start;white-space:normal;shape-padding:0;shape-margin:0;inline-size:0;clip-rule:nonzero;display:inline;overflow:visible;visibility:visible;opacity:0.75;isolation:auto;mix-blend-mode:normal;color-interpolation:sRGB;color-interpolation-filters:linearRGB;solid-color:#000000;solid-opacity:1;vector-effect:none;fill:#28800f;fill-opacity:1;fill-rule:nonzero;stroke:none;stroke-linecap:round;stroke-linejoin:round;stroke-miterlimit:4;stroke-dasharray:none;stroke-dashoffset:0;stroke-opacity:1;color-rendering:auto;image-rendering:auto;shape-rendering:auto;text-rendering:auto;enable-background:accumulate;stop-color:#000000"
       d="m 11.125,27.00018 c -2.542472,0 -4.625,2.08253 -4.625,4.625 0,2.54247 2.082528,4.625 4.625,4.625 2.542473,0 4.625,-2.08253 4.625,-4.625 0,-2.54247 -2.082527,-4.625 -4.625,-4.625 z m 0,2 c 1.461592,0 2.625,1.16341 2.625,2.625 0,1.46159 -1.163408,2.625 -2.625,2.625 -1.461592,0 -2.625,-1.16341 -2.625,-2.625 0,-1.46159 1.163408,-2.625 2.625,-2.625 z" />
    <circle
       style="fill:#46f217;fill-opacity:1;stroke:none;stroke-width:2.50029;stroke-linecap:round;stroke-linejoin:round;stroke-miterlimit:4;stroke-dasharray:none;stroke-opacity:1"
       id="path1583-1"
       cx="11.124998"
       cy="31.625183"
       r="3.625" />
    <path
       id="path1583-9-2-0-8"
       style="color:#000000;font-style:normal;font-variant:normal;font-weight:normal;font-stretch:normal;font-size:medium;line-height:normal;font-family:sans-serif;font-variant-ligatures:normal;font-variant-position:normal;font-variant-caps:normal;font-variant-numeric:normal;font-variant-alternates:normal;font-variant-east-asian:normal;font-feature-settings:normal;font-variation-settings:normal;text-indent:0;text-align:start;text-decoration:none;text-decoration-line:none;text-decoration-style:solid;text-decoration-color:#000000;letter-spacing:normal;word-spacing:normal;text-transform:none;writing-mode:lr-tb;direction:ltr;text-orientation:mixed;dominant-baseline:auto;baseline-shift:baseline;text-anchor:start;white-space:normal;shape-padding:0;shape-margin:0;inline-size:0;clip-rule:nonzero;display:inline;overflow:visible;visibility:visible;opacity:0.15;isolation:auto;mix-blend-mode:normal;color-interpolation:sRGB;color-interpolation-filters:linearRGB;solid-color:#000000;solid-opacity:1;vector-effect:none;fill:#0c0c0c;fill-opacity:1;fill-rule:nonzero;stroke:none;stroke-linecap:round;stroke-linejoin:round;stroke-miterlimit:4;stroke-dasharray:none;stroke-dashoffset:0;stroke-opacity:1;color-rendering:auto;image-rendering:auto;shape-rendering:auto;text-rendering:auto;enable-background:accumulate;stop-color:#000000"
       d="m 11.125,27.00018 c -2.542472,0 -4.625,2.08253 -4.625,4.625 0,2.54247 2.082528,4.625 4.625,4.625 2.542473,0 4.625,-2.08253 4.625,-4.625 0,-2.54247 -2.082527,-4.625 -4.625,-4.625 z m 0,2 c 1.461592,0 2.625,1.16341 2.625,2.625 0,1.46159 -1.163408,2.625 -2.625,2.625 -1.461592,0 -2.625,-1.16341 -2.625,-2.625 0,-1.46159 1.163408,-2.625 2.625,-2.625 z" />
    <circle
       style="fill:url(#linearGradient1140);fill-opacity:1;stroke:none;stroke-width:2.50029;stroke-linecap:round;stroke-linejoin:round;stroke-miterlimit:4;stroke-dasharray:none;stroke-opacity:1"
       id="path1583-0-7"
       cx="11.124998"
       cy="31.625183"
       r="3.625" />
    <rect
       style="fill:#5a5a5c;fill-opacity:1;stroke:none;stroke-width:0;stroke-linecap:round;stroke-linejoin:round;stroke-miterlimit:4;stroke-dasharray:none;stroke-dashoffset:2.1875;stroke-opacity:1"
       id="rect3498-5-5-5-7-9-0-7-7"
       width="30"
       height="2"
       x="17"
       y="55.749996"
       rx="1"
       ry="0.99998438" />
    <rect
       style="fill:#5a5a5c;fill-opacity:1;stroke:none;stroke-width:0;stroke-linecap:round;stroke-linejoin:round;stroke-miterlimit:4;stroke-dasharray:none;stroke-dashoffset:2.1875;stroke-opacity:1"
       id="rect3498-5-5-5-7-9-0-7-7-6"
       width="29"
       height="2"
       x="17.5"
       y="51.25"
       rx="1"
       ry="0.99998438" />
    <rect
       style="fill:#5a5a5c;fill-opacity:1;stroke:none;stroke-width:0;stroke-linecap:round;stroke-linejoin:round;stroke-miterlimit:4;stroke-dasharray:none;stroke-dashoffset:2.1875;stroke-opacity:1"
       id="rect3498-5-5-5-7-9-0-7-7-92"
       width="28"
       height="2"
       x="18"
       y="47"
       rx="1"
       ry="0.99998438" />
  </g>
</svg>
