<?xml version="1.0" encoding="UTF-8" standalone="no"?>
<svg
   xmlns:dc="http://purl.org/dc/elements/1.1/"
   xmlns:cc="http://creativecommons.org/ns#"
   xmlns:rdf="http://www.w3.org/1999/02/22-rdf-syntax-ns#"
   xmlns:svg="http://www.w3.org/2000/svg"
   xmlns="http://www.w3.org/2000/svg"
   xmlns:sodipodi="http://sodipodi.sourceforge.net/DTD/sodipodi-0.dtd"
   xmlns:inkscape="http://www.inkscape.org/namespaces/inkscape"
   width="64"
   height="64"
   viewBox="0 0 16.933333 16.933334"
   version="1.1"
   id="svg841"
   inkscape:version="1.0.2 (e86c870879, 2021-01-15)"
   sodipodi:docname="mail-archive-symbolic.svg">
  <defs
     id="defs835" />
  <sodipodi:namedview
     id="base"
     pagecolor="#c4c4c4"
     bordercolor="#666666"
     borderopacity="1.0"
     inkscape:pageopacity="0"
     inkscape:pageshadow="2"
     inkscape:zoom="5.3836893"
     inkscape:cx="50.359802"
     inkscape:cy="54.217317"
     inkscape:document-units="px"
     inkscape:current-layer="layer1"
     inkscape:document-rotation="0"
     showgrid="false"
     units="px"
     inkscape:window-width="2048"
     inkscape:window-height="1080"
     inkscape:window-x="0"
     inkscape:window-y="0"
     inkscape:window-maximized="1" />
  <metadata
     id="metadata838">
    <rdf:RDF>
      <cc:Work
         rdf:about="">
        <dc:format>image/svg+xml</dc:format>
        <dc:type
           rdf:resource="http://purl.org/dc/dcmitype/StillImage" />
        <dc:title></dc:title>
      </cc:Work>
    </rdf:RDF>
  </metadata>
  <g
     inkscape:label="Layer 1"
     inkscape:groupmode="layer"
     id="layer1">
    <path
       id="rect2847-9-0-4-2-4-4-84"
       style="opacity:0.9;fill:#808084;fill-opacity:1;stroke-width:1.19063;stroke-linecap:round;stroke-linejoin:round;stroke-dashoffset:2.1875"
       d="M 4.233333,7.40832 C 3.647017,7.40832 3.175,7.88034 3.175,8.46666 v 7.40833 c 0,0.58632 0.472017,1.05833 1.058333,1.05833 h 11.641668 c 0.586317,0 1.058334,-0.47201 1.058334,-1.05833 V 8.46666 c 0,-0.58632 -0.472017,-1.05834 -1.058334,-1.05834 z m 0.661459,1.19063 h 10.318751 c 0.04201,0 0.0823,0.006 0.121439,0.0155 L 10.054167,12.09021 4.773352,8.61445 c 0.03914,-0.009 0.07943,-0.0155 0.12144,-0.0155 z M 4.367175,9.11261 6.29729,10.77298 h -0.0036 l 3.391008,2.91765 c 0.011,0.009 0.02351,0.0163 0.03514,0.0248 0.01163,0.009 0.02287,0.0173 0.03514,0.0248 0.01845,0.0113 0.03748,0.0209 0.05684,0.03 0.01145,0.005 0.0229,0.011 0.03462,0.0155 0.02063,0.008 0.04169,0.0141 0.06304,0.0196 0.01282,0.003 0.02524,0.007 0.03824,0.009 0.01954,0.003 0.03919,0.006 0.05891,0.008 0.016,0.002 0.03145,0.003 0.04754,0.003 0.01609,-10e-6 0.03206,-0.002 0.04806,-0.003 0.01972,-0.002 0.03937,-0.003 0.05891,-0.008 0.013,-0.003 0.02542,-0.006 0.03824,-0.009 0.02127,-0.006 0.04241,-0.0118 0.06304,-0.0196 0.01172,-0.004 0.02317,-0.0101 0.03462,-0.0155 0.01945,-0.009 0.03797,-0.0186 0.05633,-0.03 0.01218,-0.008 0.02393,-0.0164 0.03566,-0.0248 0.01163,-0.008 0.02405,-0.0152 0.03514,-0.0248 l 3.391008,-2.91765 h -0.0036 l 1.929598,-1.66037 c 1.54e-4,0.005 0.0016,0.0102 0.0016,0.0155 v 6.08542 c 0,0.29316 -0.236009,0.52916 -0.529167,0.52916 H 4.894803 c -0.293159,0 -0.529167,-0.236 -0.529167,-0.52916 V 9.12811 c 0,-0.005 0.0014,-0.0102 0.0016,-0.0155 z" />
    <path
       id="rect2847-9-0-4-2-4-4-8-3-0"
       style="opacity:0.8;fill:#808084;fill-opacity:1;stroke-width:1.19063;stroke-linecap:round;stroke-linejoin:round;stroke-dashoffset:2.1875"
       d="M 1.058333,0 C 0.472017,0 0,0.47202 0,1.05834 v 7.40833 c 0,0.58632 0.472017,1.05834 1.058333,1.05834 h 0.79375 c 0.14658,0 0.264584,-0.11801 0.264584,-0.26459 V 8.59896 c 0,-0.14658 -0.118004,-0.26458 -0.264584,-0.26458 H 1.719792 c -0.293159,0 -0.529167,-0.236 -0.529167,-0.52917 V 1.7198 c 0,-0.005 0.0013,-0.0102 0.0015,-0.0155 L 3.12224,3.36467 h -0.0036 l 3.391008,2.91765 c 0.011,0.009 0.02351,0.0163 0.03514,0.0248 0.01163,0.009 0.02287,0.0173 0.03514,0.0248 0.01845,0.0113 0.03748,0.0209 0.05684,0.03 0.01145,0.005 0.0229,0.011 0.03462,0.0155 0.02063,0.008 0.0417,0.0141 0.06305,0.0196 0.01282,0.003 0.02524,0.007 0.03824,0.009 0.01954,0.003 0.03919,0.006 0.05891,0.008 0.016,0.002 0.03145,0.003 0.04754,0.003 0.01609,-10e-6 0.03206,-0.002 0.04806,-0.003 0.01972,-0.002 0.03937,-0.003 0.05891,-0.008 0.013,-0.003 0.02542,-0.006 0.03824,-0.009 0.02127,-0.006 0.04242,-0.0118 0.06305,-0.0196 0.01172,-0.004 0.02317,-0.0101 0.03462,-0.0155 0.01945,-0.009 0.03797,-0.0186 0.05633,-0.03 0.01218,-0.008 0.02393,-0.0164 0.03566,-0.0248 0.01163,-0.008 0.02405,-0.0152 0.03514,-0.0248 l 3.391007,-2.91765 h -0.0036 L 12.566143,1.7043 c 1.54e-4,0.005 0.0016,0.0102 0.0016,0.0155 v 2.24896 1.05833 0.79375 c 0,0.14658 0.118004,0.26458 0.264583,0.26458 h 0.661447 c 0.14658,0 0.264584,-0.118 0.264584,-0.26458 V 5.02709 3.96876 1.05834 C 13.758357,0.47202 13.28634,1e-5 12.700023,1e-5 Z m 0.661459,1.19063 h 10.31875 c 0.04201,0 0.0823,0.006 0.121439,0.0155 L 6.879167,4.68189 1.598352,1.20613 c 0.03914,-0.009 0.07943,-0.0155 0.12144,-0.0155 z" />
  </g>
</svg>
