<?xml version="1.0" encoding="UTF-8" standalone="no"?>
<svg
   xmlns:dc="http://purl.org/dc/elements/1.1/"
   xmlns:cc="http://creativecommons.org/ns#"
   xmlns:rdf="http://www.w3.org/1999/02/22-rdf-syntax-ns#"
   xmlns:svg="http://www.w3.org/2000/svg"
   xmlns="http://www.w3.org/2000/svg"
   xmlns:xlink="http://www.w3.org/1999/xlink"
   xmlns:sodipodi="http://sodipodi.sourceforge.net/DTD/sodipodi-0.dtd"
   xmlns:inkscape="http://www.inkscape.org/namespaces/inkscape"
   width="64"
   height="64"
   viewBox="0 0 16.933333 16.933334"
   version="1.1"
   id="svg841"
   inkscape:version="1.0.2 (e86c870879, 2021-01-15)"
   sodipodi:docname="drive-multidisk.svg">
  <defs
     id="defs835">
    <linearGradient
       inkscape:collect="always"
       xlink:href="#linearGradient2705"
       id="linearGradient2630"
       gradientUnits="userSpaceOnUse"
       gradientTransform="translate(17.810692,-26.529904)"
       x1="-14.900275"
       y1="27.455952"
       x2="-3.7877758"
       y2="42.272617" />
    <linearGradient
       inkscape:collect="always"
       id="linearGradient2705">
      <stop
         style="stop-color:#68cab5;stop-opacity:1"
         offset="0"
         id="stop2701" />
      <stop
         style="stop-color:#55c3ac;stop-opacity:1"
         offset="1"
         id="stop2703" />
    </linearGradient>
  </defs>
  <sodipodi:namedview
     id="base"
     pagecolor="#c4c4c4"
     bordercolor="#666666"
     borderopacity="1.0"
     inkscape:pageopacity="0"
     inkscape:pageshadow="2"
     inkscape:zoom="8.4208011"
     inkscape:cx="-1.9052181"
     inkscape:cy="41.801317"
     inkscape:document-units="px"
     inkscape:current-layer="layer1"
     inkscape:document-rotation="0"
     showgrid="false"
     units="px"
     inkscape:window-width="2048"
     inkscape:window-height="1080"
     inkscape:window-x="0"
     inkscape:window-y="0"
     inkscape:window-maximized="1" />
  <metadata
     id="metadata838">
    <rdf:RDF>
      <cc:Work
         rdf:about="">
        <dc:format>image/svg+xml</dc:format>
        <dc:type
           rdf:resource="http://purl.org/dc/dcmitype/StillImage" />
        <dc:title />
      </cc:Work>
    </rdf:RDF>
  </metadata>
  <g
     inkscape:label="Layer 1"
     inkscape:groupmode="layer"
     id="layer1">
    <path
       id="rect3559-1-9-6-2-7-3-7-6-7"
       style="color:#000000;font-style:normal;font-variant:normal;font-weight:normal;font-stretch:normal;font-size:medium;line-height:normal;font-family:sans-serif;font-variant-ligatures:normal;font-variant-position:normal;font-variant-caps:normal;font-variant-numeric:normal;font-variant-alternates:normal;font-variant-east-asian:normal;font-feature-settings:normal;font-variation-settings:normal;text-indent:0;text-align:start;text-decoration:none;text-decoration-line:none;text-decoration-style:solid;text-decoration-color:#000000;letter-spacing:normal;word-spacing:normal;text-transform:none;writing-mode:lr-tb;direction:ltr;text-orientation:mixed;dominant-baseline:auto;baseline-shift:baseline;text-anchor:start;white-space:normal;shape-padding:0;shape-margin:0;inline-size:0;clip-rule:nonzero;display:inline;overflow:visible;visibility:visible;opacity:0.15;isolation:auto;mix-blend-mode:normal;color-interpolation:sRGB;color-interpolation-filters:linearRGB;solid-color:#000000;solid-opacity:1;vector-effect:none;fill:#0c0c0c;fill-opacity:1;fill-rule:nonzero;stroke:none;stroke-width:1.00001;stroke-linecap:round;stroke-linejoin:round;stroke-miterlimit:4;stroke-dasharray:none;stroke-dashoffset:2.1875;stroke-opacity:1;paint-order:normal;color-rendering:auto;image-rendering:auto;shape-rendering:auto;text-rendering:auto;enable-background:accumulate;stop-color:#000000"
       d="m 3.7051324,0.52917464 c -0.9458616,0 -1.7207574,0.77496986 -1.7207574,1.72092936 v 12.69978 c 0,0.94596 0.7748958,1.718869 1.7207574,1.718869 H 13.23027 c 0.945862,0 1.718689,-0.772909 1.718689,-1.718869 V 2.250104 c 0,-0.9459595 -0.772827,-1.72092936 -1.718689,-1.72092936 z m 0,0.79327896 H 13.23027 c 0.51987,0 0.925486,0.4077309 0.925486,0.9276504 v 12.69978 c 0,0.51993 -0.405616,0.9261 -0.925486,0.9261 H 3.7051324 c -0.5198719,0 -0.9254887,-0.40617 -0.9254887,-0.9261 V 2.250104 c 0,-0.5199195 0.4056168,-0.9276504 0.9254887,-0.9276504 z" />
    <path
       id="rect3559-1-9-6-3-7-1-3"
       style="color:#000000;font-style:normal;font-variant:normal;font-weight:normal;font-stretch:normal;font-size:medium;line-height:normal;font-family:sans-serif;font-variant-ligatures:normal;font-variant-position:normal;font-variant-caps:normal;font-variant-numeric:normal;font-variant-alternates:normal;font-variant-east-asian:normal;font-feature-settings:normal;font-variation-settings:normal;text-indent:0;text-align:start;text-decoration:none;text-decoration-line:none;text-decoration-style:solid;text-decoration-color:#000000;letter-spacing:normal;word-spacing:normal;text-transform:none;writing-mode:lr-tb;direction:ltr;text-orientation:mixed;dominant-baseline:auto;baseline-shift:baseline;text-anchor:start;white-space:normal;shape-padding:0;shape-margin:0;inline-size:0;clip-rule:nonzero;display:inline;overflow:visible;visibility:visible;opacity:0.85;isolation:auto;mix-blend-mode:normal;color-interpolation:sRGB;color-interpolation-filters:linearRGB;solid-color:#000000;solid-opacity:1;vector-effect:none;fill:#2a7968;fill-opacity:1;fill-rule:nonzero;stroke:none;stroke-width:1.00001;stroke-linecap:round;stroke-linejoin:round;stroke-miterlimit:4;stroke-dasharray:none;stroke-dashoffset:2.1875;stroke-opacity:1;paint-order:normal;color-rendering:auto;image-rendering:auto;shape-rendering:auto;text-rendering:auto;enable-background:accumulate;stop-color:#000000"
       d="m 3.7051324,0.26458334 c -0.9458616,0 -1.7207574,0.77498046 -1.7207574,1.72093996 V 14.685304 c 0,0.945959 0.7748958,1.718868 1.7207574,1.718868 H 13.23027 c 0.945862,0 1.718689,-0.772909 1.718689,-1.718868 V 1.9855233 c 0,-0.9459595 -0.772827,-1.72093996 -1.718689,-1.72093996 z m 0,0.79328956 H 13.23027 c 0.51987,0 0.925486,0.4077203 0.925486,0.9276504 V 14.685304 c 0,0.519919 -0.405616,0.9261 -0.925486,0.9261 H 3.7051324 c -0.5198719,0 -0.9254887,-0.406181 -0.9254887,-0.9261 V 1.9855233 c 0,-0.5199301 0.4056168,-0.9276504 0.9254887,-0.9276504 z" />
    <rect
       style="fill:url(#linearGradient2630);fill-opacity:1;stroke:none;stroke-width:0.79375;stroke-linecap:round;stroke-linejoin:round;stroke-miterlimit:4;stroke-dasharray:none;stroke-dashoffset:2.1875;stroke-opacity:1;paint-order:normal"
       id="rect3559-1-8-5-8-6"
       width="12.170834"
       height="15.345834"
       x="2.3812501"
       y="0.66146654"
       rx="1.3229167"
       ry="1.3229167" />
    <path
       id="rect3559-1-9-6-2-0-8-7-5"
       style="color:#000000;font-style:normal;font-variant:normal;font-weight:normal;font-stretch:normal;font-size:medium;line-height:normal;font-family:sans-serif;font-variant-ligatures:normal;font-variant-position:normal;font-variant-caps:normal;font-variant-numeric:normal;font-variant-alternates:normal;font-variant-east-asian:normal;font-feature-settings:normal;font-variation-settings:normal;text-indent:0;text-align:start;text-decoration:none;text-decoration-line:none;text-decoration-style:solid;text-decoration-color:#000000;letter-spacing:normal;word-spacing:normal;text-transform:none;writing-mode:lr-tb;direction:ltr;text-orientation:mixed;dominant-baseline:auto;baseline-shift:baseline;text-anchor:start;white-space:normal;shape-padding:0;shape-margin:0;inline-size:0;clip-rule:nonzero;display:inline;overflow:visible;visibility:visible;opacity:0.15;isolation:auto;mix-blend-mode:normal;color-interpolation:sRGB;color-interpolation-filters:linearRGB;solid-color:#000000;solid-opacity:1;vector-effect:none;fill:#205b4e;fill-opacity:1;fill-rule:nonzero;stroke:none;stroke-width:1.00001;stroke-linecap:round;stroke-linejoin:round;stroke-miterlimit:4;stroke-dasharray:none;stroke-dashoffset:2.1875;stroke-opacity:1;paint-order:normal;color-rendering:auto;image-rendering:auto;shape-rendering:auto;text-rendering:auto;enable-background:accumulate;stop-color:#000000"
       d="m 3.7051324,0.26458334 c -0.9458616,0 -1.7207574,0.77498046 -1.7207574,1.72093996 V 14.685304 c 0,0.945959 0.7748958,1.718868 1.7207574,1.718868 H 13.23027 c 0.945862,0 1.718689,-0.772909 1.718689,-1.718868 V 1.9855233 c 0,-0.9459595 -0.772827,-1.72093996 -1.718689,-1.72093996 z m 0,0.79328956 H 13.23027 c 0.51987,0 0.925486,0.4077203 0.925486,0.9276504 V 14.685304 c 0,0.519919 -0.405616,0.9261 -0.925486,0.9261 H 3.7051324 c -0.5198719,0 -0.9254887,-0.406181 -0.9254887,-0.9261 V 1.9855233 c 0,-0.5199301 0.4056168,-0.9276504 0.9254887,-0.9276504 z" />
    <path
       id="rect3192-81-8-8-5-9-6"
       style="color:#000000;font-style:normal;font-variant:normal;font-weight:normal;font-stretch:normal;font-size:medium;line-height:normal;font-family:sans-serif;font-variant-ligatures:normal;font-variant-position:normal;font-variant-caps:normal;font-variant-numeric:normal;font-variant-alternates:normal;font-variant-east-asian:normal;font-feature-settings:normal;font-variation-settings:normal;text-indent:0;text-align:start;text-decoration:none;text-decoration-line:none;text-decoration-style:solid;text-decoration-color:#000000;letter-spacing:normal;word-spacing:normal;text-transform:none;writing-mode:lr-tb;direction:ltr;text-orientation:mixed;dominant-baseline:auto;baseline-shift:baseline;text-anchor:start;white-space:normal;shape-padding:0;shape-margin:0;inline-size:0;clip-rule:nonzero;display:inline;overflow:visible;visibility:visible;opacity:0.25;isolation:auto;mix-blend-mode:normal;color-interpolation:sRGB;color-interpolation-filters:linearRGB;solid-color:#000000;solid-opacity:1;vector-effect:none;fill:#fcfcfc;fill-opacity:1;fill-rule:nonzero;stroke:none;stroke-width:1.07707;stroke-linecap:round;stroke-linejoin:round;stroke-miterlimit:4;stroke-dasharray:none;stroke-dashoffset:2.1875;stroke-opacity:1;color-rendering:auto;image-rendering:auto;shape-rendering:auto;text-rendering:auto;enable-background:accumulate;stop-color:#000000"
       d="m 4.4725617,11.244794 c -0.4223729,0 -0.768395,0.297868 -0.768395,0.662088 v 1.588302 c 0,0.36422 0.3460221,0.66003 0.768395,0.66003 h 7.9782273 c 0.422373,0 0.767795,-0.29581 0.767795,-0.66003 v -1.588302 c 0,-0.36422 -0.345422,-0.662088 -0.767795,-0.662088 z m 0,0.265668 h 7.9782273 c 0.25767,0 0.459716,0.174242 0.459719,0.39642 v 1.588302 c 0,0.2222 -0.202049,0.396428 -0.459719,0.396428 H 4.4725617 c -0.2576698,0 -0.4603168,-0.174228 -0.4603168,-0.396428 v -1.588302 c 0,-0.222178 0.202647,-0.39642 0.4603168,-0.39642 z" />
    <rect
       style="fill:#676167;fill-opacity:1;stroke:none;stroke-width:0.997379;stroke-linecap:round;stroke-linejoin:round;stroke-miterlimit:4;stroke-dasharray:none;stroke-dashoffset:2.1875;stroke-opacity:1"
       id="rect3192-1-9-3"
       width="9.2075014"
       height="2.6458335"
       x="3.8576298"
       y="11.3771"
       rx="0.61383337"
       ry="0.5291667" />
    <path
       id="rect3192-81-6-6-9-8-1"
       style="opacity:0.45;fill:#0c0c0c;fill-opacity:1;stroke:none;stroke-width:0.997379;stroke-linecap:round;stroke-linejoin:round;stroke-miterlimit:4;stroke-dasharray:none;stroke-dashoffset:2.1875;stroke-opacity:1"
       d="m 4.4714583,11.377083 c -0.3400636,0 -0.6138333,0.236011 -0.6138333,0.52917 v 0.529161 c 0,-0.29315 0.2737697,-0.529161 0.6138333,-0.529161 h 7.9798367 c 0.340063,0 0.613833,0.236011 0.613833,0.529161 v -0.529161 c 0,-0.293159 -0.27377,-0.52917 -0.613833,-0.52917 z" />
    <circle
       style="opacity:0.5;fill:#0c0c0c;fill-opacity:1;stroke:none;stroke-width:0;stroke-linecap:round;stroke-linejoin:round;stroke-miterlimit:4;stroke-dasharray:none;stroke-dashoffset:2.1875;stroke-opacity:1"
       id="path3053-0-4-6"
       cx="5.2255211"
       cy="12.898438"
       r="0.59531248" />
    <circle
       style="fill:#edcd03;fill-opacity:1;stroke:none;stroke-width:0;stroke-linecap:round;stroke-linejoin:round;stroke-miterlimit:4;stroke-dasharray:none;stroke-dashoffset:2.1875;stroke-opacity:1"
       id="path3053-0-2"
       cx="5.2255211"
       cy="12.766153"
       r="0.59531248" />
    <path
       id="path3053-4-4-7-1"
       style="color:#000000;font-style:normal;font-variant:normal;font-weight:normal;font-stretch:normal;font-size:medium;line-height:normal;font-family:sans-serif;font-variant-ligatures:normal;font-variant-position:normal;font-variant-caps:normal;font-variant-numeric:normal;font-variant-alternates:normal;font-variant-east-asian:normal;font-feature-settings:normal;font-variation-settings:normal;text-indent:0;text-align:start;text-decoration:none;text-decoration-line:none;text-decoration-style:solid;text-decoration-color:#000000;letter-spacing:normal;word-spacing:normal;text-transform:none;writing-mode:lr-tb;direction:ltr;text-orientation:mixed;dominant-baseline:auto;baseline-shift:baseline;text-anchor:start;white-space:normal;shape-padding:0;shape-margin:0;inline-size:0;clip-rule:nonzero;display:inline;overflow:visible;visibility:visible;opacity:0.45;isolation:auto;mix-blend-mode:normal;color-interpolation:sRGB;color-interpolation-filters:linearRGB;solid-color:#000000;solid-opacity:1;vector-effect:none;fill:#0c0c0c;fill-opacity:1;fill-rule:nonzero;stroke:none;stroke-width:1.0004;stroke-linecap:round;stroke-linejoin:round;stroke-miterlimit:4;stroke-dasharray:none;stroke-dashoffset:2.1875;stroke-opacity:1;color-rendering:auto;image-rendering:auto;shape-rendering:auto;text-rendering:auto;enable-background:accumulate;stop-color:#000000"
       d="m 5.2268147,12.104682 c -0.3646699,0 -0.6627495,0.296011 -0.6627495,0.660681 0,0.36467 0.2980796,0.662241 0.6627495,0.662241 0.3646725,0 0.6601672,-0.297571 0.6601672,-0.662241 0,-0.36467 -0.2954947,-0.660681 -0.6601672,-0.660681 z m 0,0.13131 c 0.2931504,0 0.529373,0.236212 0.529373,0.529371 0,0.293139 -0.2362226,0.529359 -0.529373,0.52937 -0.2931478,0 -0.5293731,-0.236231 -0.5293731,-0.52937 0,-0.293159 0.2362253,-0.529371 0.5293731,-0.529371 z" />
    <path
       id="rect3192-81-8-8-5-9-6-7"
       style="color:#000000;font-style:normal;font-variant:normal;font-weight:normal;font-stretch:normal;font-size:medium;line-height:normal;font-family:sans-serif;font-variant-ligatures:normal;font-variant-position:normal;font-variant-caps:normal;font-variant-numeric:normal;font-variant-alternates:normal;font-variant-east-asian:normal;font-feature-settings:normal;font-variation-settings:normal;text-indent:0;text-align:start;text-decoration:none;text-decoration-line:none;text-decoration-style:solid;text-decoration-color:#000000;letter-spacing:normal;word-spacing:normal;text-transform:none;writing-mode:lr-tb;direction:ltr;text-orientation:mixed;dominant-baseline:auto;baseline-shift:baseline;text-anchor:start;white-space:normal;shape-padding:0;shape-margin:0;inline-size:0;clip-rule:nonzero;display:inline;overflow:visible;visibility:visible;opacity:0.25;isolation:auto;mix-blend-mode:normal;color-interpolation:sRGB;color-interpolation-filters:linearRGB;solid-color:#000000;solid-opacity:1;vector-effect:none;fill:#fcfcfc;fill-opacity:1;fill-rule:nonzero;stroke:none;stroke-width:1.07707;stroke-linecap:round;stroke-linejoin:round;stroke-miterlimit:4;stroke-dasharray:none;stroke-dashoffset:2.1875;stroke-opacity:1;color-rendering:auto;image-rendering:auto;shape-rendering:auto;text-rendering:auto;enable-background:accumulate;stop-color:#000000"
       d="m 4.4725617,2.6458333 c -0.4223729,0 -0.768395,0.2978706 -0.768395,0.6620908 v 1.588299 c 0,0.3642202 0.3460221,0.6600296 0.768395,0.6600296 h 7.9782273 c 0.422373,0 0.767795,-0.2958094 0.767795,-0.6600296 v -1.588299 c 0,-0.3642202 -0.345422,-0.6620908 -0.767795,-0.6620908 z m 0,0.2656708 h 7.9782273 c 0.25767,0 0.459716,0.1742387 0.459719,0.39642 v 1.588299 c 0,0.2221998 -0.202049,0.3964305 -0.459719,0.3964305 H 4.4725617 c -0.2576698,0 -0.4603168,-0.1742307 -0.4603168,-0.3964305 v -1.588299 c 0,-0.2221813 0.202647,-0.39642 0.4603168,-0.39642 z" />
    <rect
       style="fill:#676167;fill-opacity:1;stroke:none;stroke-width:0.997379;stroke-linecap:round;stroke-linejoin:round;stroke-miterlimit:4;stroke-dasharray:none;stroke-dashoffset:2.1875;stroke-opacity:1"
       id="rect3192-1-9-3-8"
       width="9.2075014"
       height="2.6458335"
       x="3.8576298"
       y="2.7781172"
       rx="0.61383337"
       ry="0.5291667" />
    <path
       id="rect3192-81-6-6-9-8-1-5"
       style="opacity:0.45;fill:#0c0c0c;fill-opacity:1;stroke:none;stroke-width:0.997379;stroke-linecap:round;stroke-linejoin:round;stroke-miterlimit:4;stroke-dasharray:none;stroke-dashoffset:2.1875;stroke-opacity:1"
       d="m 4.4714583,2.7781224 c -0.3400636,0 -0.6138333,0.236011 -0.6138333,0.5291719 v 0.5291588 c 0,-0.2931504 0.2737697,-0.5291588 0.6138333,-0.5291588 h 7.9798367 c 0.340063,0 0.613833,0.2360084 0.613833,0.5291588 V 3.3072943 c 0,-0.2931609 -0.27377,-0.5291719 -0.613833,-0.5291719 z" />
    <circle
       style="opacity:0.5;fill:#0c0c0c;fill-opacity:1;stroke:none;stroke-width:0;stroke-linecap:round;stroke-linejoin:round;stroke-miterlimit:4;stroke-dasharray:none;stroke-dashoffset:2.1875;stroke-opacity:1"
       id="path3053-0-4-6-7"
       cx="5.2255211"
       cy="4.2994633"
       r="0.59531248" />
    <circle
       style="fill:#edcd03;fill-opacity:1;stroke:none;stroke-width:0;stroke-linecap:round;stroke-linejoin:round;stroke-miterlimit:4;stroke-dasharray:none;stroke-dashoffset:2.1875;stroke-opacity:1"
       id="path3053-0-2-4"
       cx="5.2255211"
       cy="4.1671953"
       r="0.59531248" />
    <path
       id="path3053-4-4-7-1-1"
       style="color:#000000;font-style:normal;font-variant:normal;font-weight:normal;font-stretch:normal;font-size:medium;line-height:normal;font-family:sans-serif;font-variant-ligatures:normal;font-variant-position:normal;font-variant-caps:normal;font-variant-numeric:normal;font-variant-alternates:normal;font-variant-east-asian:normal;font-feature-settings:normal;font-variation-settings:normal;text-indent:0;text-align:start;text-decoration:none;text-decoration-line:none;text-decoration-style:solid;text-decoration-color:#000000;letter-spacing:normal;word-spacing:normal;text-transform:none;writing-mode:lr-tb;direction:ltr;text-orientation:mixed;dominant-baseline:auto;baseline-shift:baseline;text-anchor:start;white-space:normal;shape-padding:0;shape-margin:0;inline-size:0;clip-rule:nonzero;display:inline;overflow:visible;visibility:visible;opacity:0.45;isolation:auto;mix-blend-mode:normal;color-interpolation:sRGB;color-interpolation-filters:linearRGB;solid-color:#000000;solid-opacity:1;vector-effect:none;fill:#0c0c0c;fill-opacity:1;fill-rule:nonzero;stroke:none;stroke-width:1.0004;stroke-linecap:round;stroke-linejoin:round;stroke-miterlimit:4;stroke-dasharray:none;stroke-dashoffset:2.1875;stroke-opacity:1;color-rendering:auto;image-rendering:auto;shape-rendering:auto;text-rendering:auto;enable-background:accumulate;stop-color:#000000"
       d="m 5.2268147,3.5057345 c -0.3646699,0 -0.6627495,0.2960079 -0.6627495,0.6606778 0,0.36467 0.2980796,0.6622415 0.6627495,0.6622415 0.3646725,0 0.6601672,-0.2975715 0.6601672,-0.6622415 0,-0.3646699 -0.2954947,-0.6606778 -0.6601672,-0.6606778 z m 0,0.1313101 c 0.2931504,0 0.529373,0.2362094 0.529373,0.5293677 0,0.2931398 -0.2362226,0.5293599 -0.529373,0.5293704 -0.2931478,0 -0.5293731,-0.2362306 -0.5293731,-0.5293704 0,-0.2931583 0.2362253,-0.5293677 0.5293731,-0.5293677 z" />
    <path
       id="rect3192-81-8-8-5-9-6-8"
       style="color:#000000;font-style:normal;font-variant:normal;font-weight:normal;font-stretch:normal;font-size:medium;line-height:normal;font-family:sans-serif;font-variant-ligatures:normal;font-variant-position:normal;font-variant-caps:normal;font-variant-numeric:normal;font-variant-alternates:normal;font-variant-east-asian:normal;font-feature-settings:normal;font-variation-settings:normal;text-indent:0;text-align:start;text-decoration:none;text-decoration-line:none;text-decoration-style:solid;text-decoration-color:#000000;letter-spacing:normal;word-spacing:normal;text-transform:none;writing-mode:lr-tb;direction:ltr;text-orientation:mixed;dominant-baseline:auto;baseline-shift:baseline;text-anchor:start;white-space:normal;shape-padding:0;shape-margin:0;inline-size:0;clip-rule:nonzero;display:inline;overflow:visible;visibility:visible;opacity:0.25;isolation:auto;mix-blend-mode:normal;color-interpolation:sRGB;color-interpolation-filters:linearRGB;solid-color:#000000;solid-opacity:1;vector-effect:none;fill:#fcfcfc;fill-opacity:1;fill-rule:nonzero;stroke:none;stroke-width:1.07707;stroke-linecap:round;stroke-linejoin:round;stroke-miterlimit:4;stroke-dasharray:none;stroke-dashoffset:2.1875;stroke-opacity:1;color-rendering:auto;image-rendering:auto;shape-rendering:auto;text-rendering:auto;enable-background:accumulate;stop-color:#000000"
       d="m 4.4725617,6.9453123 c -0.4223729,0 -0.768395,0.297871 -0.768395,0.662091 v 1.588299 c 0,0.36422 0.3460221,0.660032 0.768395,0.660032 h 7.9782273 c 0.422373,0 0.767795,-0.295812 0.767795,-0.660032 v -1.588299 c 0,-0.36422 -0.345422,-0.662091 -0.767795,-0.662091 z m 0,0.265671 h 7.9782273 c 0.25767,0 0.459716,0.174239 0.459719,0.39642 v 1.588299 c 0,0.2222 -0.202049,0.396431 -0.459719,0.396431 H 4.4725617 c -0.2576698,0 -0.4603168,-0.174231 -0.4603168,-0.396431 v -1.588299 c 0,-0.222181 0.202647,-0.39642 0.4603168,-0.39642 z" />
    <rect
       style="fill:#676167;fill-opacity:1;stroke:none;stroke-width:0.997379;stroke-linecap:round;stroke-linejoin:round;stroke-miterlimit:4;stroke-dasharray:none;stroke-dashoffset:2.1875;stroke-opacity:1"
       id="rect3192-1-9-3-5"
       width="9.2075014"
       height="2.6458335"
       x="3.8576298"
       y="7.0776119"
       rx="0.61383337"
       ry="0.5291667" />
    <path
       id="rect3192-81-6-6-9-8-1-9"
       style="opacity:0.45;fill:#0c0c0c;fill-opacity:1;stroke:none;stroke-width:0.997379;stroke-linecap:round;stroke-linejoin:round;stroke-miterlimit:4;stroke-dasharray:none;stroke-dashoffset:2.1875;stroke-opacity:1"
       d="m 4.4714583,7.0776043 c -0.3400636,0 -0.6138333,0.236008 -0.6138333,0.529169 v 0.529159 c 0,-0.293148 0.2737697,-0.529159 0.6138333,-0.529159 h 7.9798367 c 0.340063,0 0.613833,0.236011 0.613833,0.529159 v -0.529159 c 0,-0.293161 -0.27377,-0.529169 -0.613833,-0.529169 z" />
    <circle
       style="opacity:0.5;fill:#0c0c0c;fill-opacity:1;stroke:none;stroke-width:0;stroke-linecap:round;stroke-linejoin:round;stroke-miterlimit:4;stroke-dasharray:none;stroke-dashoffset:2.1875;stroke-opacity:1"
       id="path3053-0-4-6-75"
       cx="5.2255211"
       cy="8.5989504"
       r="0.59531248" />
    <circle
       style="fill:#edcd03;fill-opacity:1;stroke:none;stroke-width:0;stroke-linecap:round;stroke-linejoin:round;stroke-miterlimit:4;stroke-dasharray:none;stroke-dashoffset:2.1875;stroke-opacity:1"
       id="path3053-0-2-3"
       cx="5.2255211"
       cy="8.4666672"
       r="0.59531248" />
    <path
       id="path3053-4-4-7-1-8"
       style="color:#000000;font-style:normal;font-variant:normal;font-weight:normal;font-stretch:normal;font-size:medium;line-height:normal;font-family:sans-serif;font-variant-ligatures:normal;font-variant-position:normal;font-variant-caps:normal;font-variant-numeric:normal;font-variant-alternates:normal;font-variant-east-asian:normal;font-feature-settings:normal;font-variation-settings:normal;text-indent:0;text-align:start;text-decoration:none;text-decoration-line:none;text-decoration-style:solid;text-decoration-color:#000000;letter-spacing:normal;word-spacing:normal;text-transform:none;writing-mode:lr-tb;direction:ltr;text-orientation:mixed;dominant-baseline:auto;baseline-shift:baseline;text-anchor:start;white-space:normal;shape-padding:0;shape-margin:0;inline-size:0;clip-rule:nonzero;display:inline;overflow:visible;visibility:visible;opacity:0.45;isolation:auto;mix-blend-mode:normal;color-interpolation:sRGB;color-interpolation-filters:linearRGB;solid-color:#000000;solid-opacity:1;vector-effect:none;fill:#0c0c0c;fill-opacity:1;fill-rule:nonzero;stroke:none;stroke-width:1.0004;stroke-linecap:round;stroke-linejoin:round;stroke-miterlimit:4;stroke-dasharray:none;stroke-dashoffset:2.1875;stroke-opacity:1;color-rendering:auto;image-rendering:auto;shape-rendering:auto;text-rendering:auto;enable-background:accumulate;stop-color:#000000"
       d="m 5.2268147,7.8052033 c -0.3646699,0 -0.6627495,0.29601 -0.6627495,0.66068 0,0.36467 0.2980796,0.662239 0.6627495,0.662239 0.3646725,0 0.6601672,-0.297569 0.6601672,-0.662239 0,-0.36467 -0.2954947,-0.66068 -0.6601672,-0.66068 z m 0,0.13131 c 0.2931504,0 0.529373,0.236209 0.529373,0.52937 0,0.29314 -0.2362226,0.52936 -0.529373,0.529371 -0.2931478,0 -0.5293731,-0.236231 -0.5293731,-0.529371 0,-0.293161 0.2362253,-0.52937 0.5293731,-0.52937 z" />
  </g>
</svg>
