<?xml version="1.0" encoding="UTF-8" standalone="no"?>
<svg
   xmlns:dc="http://purl.org/dc/elements/1.1/"
   xmlns:cc="http://creativecommons.org/ns#"
   xmlns:rdf="http://www.w3.org/1999/02/22-rdf-syntax-ns#"
   xmlns:svg="http://www.w3.org/2000/svg"
   xmlns="http://www.w3.org/2000/svg"
   xmlns:xlink="http://www.w3.org/1999/xlink"
   xmlns:sodipodi="http://sodipodi.sourceforge.net/DTD/sodipodi-0.dtd"
   xmlns:inkscape="http://www.inkscape.org/namespaces/inkscape"
   width="64"
   height="64"
   viewBox="0 0 16.933333 16.933334"
   version="1.1"
   id="svg841"
   inkscape:version="1.0.2 (e86c870879, 2021-01-15)"
   sodipodi:docname="input-keyboard.svg">
  <defs
     id="defs835">
    <linearGradient
       inkscape:collect="always"
       xlink:href="#linearGradient1489-8"
       id="linearGradient994"
       gradientUnits="userSpaceOnUse"
       x1="8.4666672"
       y1="2.6458337"
       x2="8.4666672"
       y2="14.816668" />
    <linearGradient
       inkscape:collect="always"
       id="linearGradient1489-8">
      <stop
         style="stop-color:#72b8bd;stop-opacity:1"
         offset="0"
         id="stop1485-4" />
      <stop
         style="stop-color:#4a9095;stop-opacity:1"
         offset="1"
         id="stop1487-3" />
    </linearGradient>
  </defs>
  <sodipodi:namedview
     id="base"
     pagecolor="#c4c4c4"
     bordercolor="#666666"
     borderopacity="1.0"
     inkscape:pageopacity="0"
     inkscape:pageshadow="2"
     inkscape:zoom="6.3372121"
     inkscape:cx="-12.393532"
     inkscape:cy="39.323413"
     inkscape:document-units="px"
     inkscape:current-layer="layer1"
     inkscape:document-rotation="0"
     showgrid="false"
     units="px"
     inkscape:window-width="2048"
     inkscape:window-height="1080"
     inkscape:window-x="0"
     inkscape:window-y="0"
     inkscape:window-maximized="1" />
  <metadata
     id="metadata838">
    <rdf:RDF>
      <cc:Work
         rdf:about="">
        <dc:format>image/svg+xml</dc:format>
        <dc:type
           rdf:resource="http://purl.org/dc/dcmitype/StillImage" />
        <dc:title />
      </cc:Work>
    </rdf:RDF>
  </metadata>
  <g
     inkscape:label="Layer 1"
     inkscape:groupmode="layer"
     id="layer1">
    <path
       id="rect1250-0-6-3-7"
       style="color:#000000;font-style:normal;font-variant:normal;font-weight:normal;font-stretch:normal;font-size:medium;line-height:normal;font-family:sans-serif;font-variant-ligatures:normal;font-variant-position:normal;font-variant-caps:normal;font-variant-numeric:normal;font-variant-alternates:normal;font-variant-east-asian:normal;font-feature-settings:normal;font-variation-settings:normal;text-indent:0;text-align:start;text-decoration:none;text-decoration-line:none;text-decoration-style:solid;text-decoration-color:#000000;letter-spacing:normal;word-spacing:normal;text-transform:none;writing-mode:lr-tb;direction:ltr;text-orientation:mixed;dominant-baseline:auto;baseline-shift:baseline;text-anchor:start;white-space:normal;shape-padding:0;shape-margin:0;inline-size:0;clip-rule:nonzero;display:inline;overflow:visible;visibility:visible;opacity:0.15;isolation:auto;mix-blend-mode:normal;color-interpolation:sRGB;color-interpolation-filters:linearRGB;solid-color:#000000;solid-opacity:1;vector-effect:none;fill:#0c0c10;fill-opacity:1;fill-rule:nonzero;stroke:none;stroke-width:1.00002;stroke-linecap:round;stroke-linejoin:round;stroke-miterlimit:4;stroke-dasharray:none;stroke-dashoffset:2.1875;stroke-opacity:1;color-rendering:auto;image-rendering:auto;shape-rendering:auto;text-rendering:auto;enable-background:accumulate;stop-color:#000000"
       d="m 1.5875457,2.513542 c -0.79934403,0 -1.45525403,0.657437 -1.45525403,1.456758 v 10.052617 c 0,0.799322 0.65591,1.455207 1.45525403,1.455207 H 15.345789 c 0.799346,0 1.455254,-0.655885 1.455254,-1.455207 V 3.9703 c 0,-0.799321 -0.655908,-1.456758 -1.455254,-1.456758 z m 0,0.794783 H 15.345789 c 0.373325,0 0.661996,0.288662 0.661996,0.661975 v 10.052617 c 0,0.373313 -0.288671,0.662492 -0.661996,0.662492 H 1.5875457 c -0.373325,0 -0.66199503,-0.289179 -0.66199503,-0.662492 V 3.9703 c 0,-0.373313 0.28867003,-0.661975 0.66199503,-0.661975 z" />
    <path
       id="rect1250-0-6-3-2-5"
       style="color:#000000;font-style:normal;font-variant:normal;font-weight:normal;font-stretch:normal;font-size:medium;line-height:normal;font-family:sans-serif;font-variant-ligatures:normal;font-variant-position:normal;font-variant-caps:normal;font-variant-numeric:normal;font-variant-alternates:normal;font-variant-east-asian:normal;font-feature-settings:normal;font-variation-settings:normal;text-indent:0;text-align:start;text-decoration:none;text-decoration-line:none;text-decoration-style:solid;text-decoration-color:#000000;letter-spacing:normal;word-spacing:normal;text-transform:none;writing-mode:lr-tb;direction:ltr;text-orientation:mixed;dominant-baseline:auto;baseline-shift:baseline;text-anchor:start;white-space:normal;shape-padding:0;shape-margin:0;inline-size:0;clip-rule:nonzero;display:inline;overflow:visible;visibility:visible;opacity:0.85;isolation:auto;mix-blend-mode:normal;color-interpolation:sRGB;color-interpolation-filters:linearRGB;solid-color:#000000;solid-opacity:1;vector-effect:none;fill:#36696d;fill-opacity:1;fill-rule:nonzero;stroke:none;stroke-width:1.00002;stroke-linecap:round;stroke-linejoin:round;stroke-miterlimit:4;stroke-dasharray:none;stroke-dashoffset:2.1875;stroke-opacity:1;color-rendering:auto;image-rendering:auto;shape-rendering:auto;text-rendering:auto;enable-background:accumulate;stop-color:#000000"
       d="m 1.5875457,1.984375 c -0.79934503,0 -1.45525403,0.657437 -1.45525403,1.456758 V 13.49375 c 0,0.799322 0.655909,1.455208 1.45525403,1.455208 H 15.345789 c 0.799346,0 1.455254,-0.655886 1.455254,-1.455208 V 3.441133 c 0,-0.799321 -0.655908,-1.456758 -1.455254,-1.456758 z m 0,0.794783 H 15.345789 c 0.373325,0 0.661996,0.288662 0.661996,0.661975 V 13.49375 c 0,0.373313 -0.288671,0.662492 -0.661996,0.662492 H 1.5875457 c -0.373325,0 -0.66199603,-0.289179 -0.66199603,-0.662492 V 3.441133 c 0,-0.373313 0.28867103,-0.661975 0.66199603,-0.661975 z" />
    <rect
       style="fill:url(#linearGradient994);fill-opacity:1;stroke-width:0;stroke-linecap:round;stroke-linejoin:round;stroke-dashoffset:2.1875"
       id="rect1250-3"
       width="15.875"
       height="12.170834"
       x="0.52916783"
       y="2.3812487"
       rx="1.0583334"
       ry="1.0583334" />
    <rect
       style="opacity:0.35;fill:#294f52;fill-opacity:1;stroke:none;stroke-width:1.85208;stroke-miterlimit:4;stroke-dasharray:none;stroke-dashoffset:2.1875;stroke-opacity:1"
       id="rect2471-6-6-8-1-6-1-9-7-6-6-4-5"
       width="2.2489583"
       height="2.2489583"
       x="2.9765613"
       y="4.2333317"
       rx="0.5291667"
       ry="0.5291667" />
    <path
       id="rect1250-0-6-3-0-6"
       style="color:#000000;font-style:normal;font-variant:normal;font-weight:normal;font-stretch:normal;font-size:medium;line-height:normal;font-family:sans-serif;font-variant-ligatures:normal;font-variant-position:normal;font-variant-caps:normal;font-variant-numeric:normal;font-variant-alternates:normal;font-variant-east-asian:normal;font-feature-settings:normal;font-variation-settings:normal;text-indent:0;text-align:start;text-decoration:none;text-decoration-line:none;text-decoration-style:solid;text-decoration-color:#000000;letter-spacing:normal;word-spacing:normal;text-transform:none;writing-mode:lr-tb;direction:ltr;text-orientation:mixed;dominant-baseline:auto;baseline-shift:baseline;text-anchor:start;white-space:normal;shape-padding:0;shape-margin:0;inline-size:0;clip-rule:nonzero;display:inline;overflow:visible;visibility:visible;opacity:0.15;isolation:auto;mix-blend-mode:normal;color-interpolation:sRGB;color-interpolation-filters:linearRGB;solid-color:#000000;solid-opacity:1;vector-effect:none;fill:#294f52;fill-opacity:1;fill-rule:nonzero;stroke:none;stroke-width:1.00002;stroke-linecap:round;stroke-linejoin:round;stroke-miterlimit:4;stroke-dasharray:none;stroke-dashoffset:2.1875;stroke-opacity:1;color-rendering:auto;image-rendering:auto;shape-rendering:auto;text-rendering:auto;enable-background:accumulate;stop-color:#000000"
       d="m 1.5875467,1.984375 c -0.79934503,0 -1.45525403,0.657437 -1.45525403,1.456758 V 13.49375 c 0,0.799322 0.655909,1.455208 1.45525403,1.455208 H 15.345789 c 0.799346,0 1.455254,-0.655886 1.455254,-1.455208 V 3.441133 c 0,-0.799321 -0.655908,-1.456758 -1.455254,-1.456758 z m 0,0.794783 H 15.345789 c 0.373325,0 0.661996,0.288662 0.661996,0.661975 V 13.49375 c 0,0.373313 -0.288671,0.662492 -0.661996,0.662492 H 1.5875467 c -0.373325,0 -0.66199603,-0.289179 -0.66199603,-0.662492 V 3.441133 c 0,-0.373313 0.28867103,-0.661975 0.66199603,-0.661975 z" />
    <rect
       style="opacity:0.35;fill:#294f52;fill-opacity:1;stroke:none;stroke-width:1.85208;stroke-miterlimit:4;stroke-dasharray:none;stroke-dashoffset:2.1875;stroke-opacity:1"
       id="rect2471-6-6-8-1-6-1-2-9-1-5-3-2"
       width="2.2489583"
       height="2.2489583"
       x="7.3421884"
       y="4.2333317"
       rx="0.5291667"
       ry="0.5291667" />
    <rect
       style="opacity:0.35;fill:#294f52;fill-opacity:1;stroke:none;stroke-width:1.85208;stroke-miterlimit:4;stroke-dasharray:none;stroke-dashoffset:2.1875;stroke-opacity:1"
       id="rect2471-6-6-8-1-6-1-2-3-2-5-6-0-1"
       width="2.2489583"
       height="2.2489583"
       x="11.707812"
       y="4.2333317"
       rx="0.5291667"
       ry="0.5291667" />
    <rect
       style="opacity:0.35;fill:#294f52;fill-opacity:1;stroke:none;stroke-width:1.85208;stroke-miterlimit:4;stroke-dasharray:none;stroke-dashoffset:2.1875;stroke-opacity:1"
       id="rect2471-6-7-2-7-2-1-9-3-9-7-7"
       width="12.7"
       height="1.8520833"
       x="2.1166656"
       y="11.840105"
       rx="0.39687499"
       ry="0.39687499" />
    <rect
       style="opacity:0.35;fill:#294f52;fill-opacity:1;stroke:none;stroke-width:1.85208;stroke-miterlimit:4;stroke-dasharray:none;stroke-dashoffset:2.1875;stroke-opacity:1"
       id="rect2471-6-6-8-1-6-1-9-7-6-6-3-8-3"
       width="2.2489583"
       height="2.2489583"
       x="2.9765632"
       y="8.0697918"
       rx="0.5291667"
       ry="0.5291667" />
    <path
       id="rect2471-6-6-8-1-6-1-2-3-2-5-6-09-1-0-65-6-3-1"
       style="color:#000000;font-style:normal;font-variant:normal;font-weight:normal;font-stretch:normal;font-size:medium;line-height:normal;font-family:sans-serif;font-variant-ligatures:normal;font-variant-position:normal;font-variant-caps:normal;font-variant-numeric:normal;font-variant-alternates:normal;font-variant-east-asian:normal;font-feature-settings:normal;font-variation-settings:normal;text-indent:0;text-align:start;text-decoration:none;text-decoration-line:none;text-decoration-style:solid;text-decoration-color:#000000;letter-spacing:normal;word-spacing:normal;text-transform:none;writing-mode:lr-tb;direction:ltr;text-orientation:mixed;dominant-baseline:auto;baseline-shift:baseline;text-anchor:start;white-space:normal;shape-padding:0;shape-margin:0;inline-size:0;clip-rule:nonzero;display:inline;overflow:visible;visibility:visible;opacity:0.75;isolation:auto;mix-blend-mode:normal;color-interpolation:sRGB;color-interpolation-filters:linearRGB;solid-color:#000000;solid-opacity:1;vector-effect:none;fill:#294f52;fill-opacity:1;fill-rule:nonzero;stroke:none;stroke-width:1;stroke-linecap:round;stroke-linejoin:round;stroke-miterlimit:4;stroke-dasharray:none;stroke-dashoffset:2.1875;stroke-opacity:1;color-rendering:auto;image-rendering:auto;shape-rendering:auto;text-rendering:auto;enable-background:accumulate;stop-color:#000000"
       d="m 3.2406287,7.5406251 c -0.217581,0 -0.396357,0.178777 -0.396358,0.396358 v 0.8593794 0.595829 c 0,0.36416 0.297816,0.6619755 0.661975,0.6619755 h 1.189591 c 0.364159,0 0.661975,-0.2978155 0.661975,-0.6619755 V 8.7963625 7.9369831 c 0,-0.217581 -0.178777,-0.396358 -0.396358,-0.396358 z m 0,0.26355 h 1.720825 c 0.07558,0 0.130742,0.05723 0.130742,0.132808 v 0.8593794 0.595829 c 0,0.222157 -0.174202,0.396359 -0.396359,0.396359 h -1.189591 c -0.222157,0 -0.398426,-0.174202 -0.398426,-0.396359 V 8.7963625 7.9369831 c 0,-0.07558 0.05723,-0.132808 0.132809,-0.132808 z" />
    <path
       id="rect2471-6-6-8-1-6-1-2-3-2-5-6-09-1-2-6"
       style="fill:#fdfbfc;fill-opacity:1;stroke:none;stroke-width:1.85208;stroke-miterlimit:4;stroke-dasharray:none;stroke-dashoffset:2.1875;stroke-opacity:1"
       d="m 3.2411457,7.6729167 c -0.14658,0 -0.264583,0.1180042 -0.264583,0.2645833 v 0.8598955 0.595313 c 0,0.293158 0.236008,0.529167 0.529167,0.529167 h 1.190625 c 0.293158,0 0.529166,-0.236009 0.529166,-0.529167 V 8.7973955 7.9375 c 0,-0.1465791 -0.118003,-0.2645833 -0.264583,-0.2645833 z" />
    <path
       id="rect2471-6-7-2-7-2-1-9-3-9-6-3-9-0"
       style="color:#000000;font-style:normal;font-variant:normal;font-weight:normal;font-stretch:normal;font-size:medium;line-height:normal;font-family:sans-serif;font-variant-ligatures:normal;font-variant-position:normal;font-variant-caps:normal;font-variant-numeric:normal;font-variant-alternates:normal;font-variant-east-asian:normal;font-feature-settings:normal;font-variation-settings:normal;text-indent:0;text-align:start;text-decoration:none;text-decoration-line:none;text-decoration-style:solid;text-decoration-color:#000000;letter-spacing:normal;word-spacing:normal;text-transform:none;writing-mode:lr-tb;direction:ltr;text-orientation:mixed;dominant-baseline:auto;baseline-shift:baseline;text-anchor:start;white-space:normal;shape-padding:0;shape-margin:0;inline-size:0;clip-rule:nonzero;display:inline;overflow:visible;visibility:visible;opacity:0.75;isolation:auto;mix-blend-mode:normal;color-interpolation:sRGB;color-interpolation-filters:linearRGB;solid-color:#000000;solid-opacity:1;vector-effect:none;fill:#294f52;fill-opacity:1;fill-rule:nonzero;stroke:none;stroke-width:0.999879;stroke-linecap:round;stroke-linejoin:round;stroke-miterlimit:4;stroke-dasharray:none;stroke-dashoffset:2.1875;stroke-opacity:1;color-rendering:auto;image-rendering:auto;shape-rendering:auto;text-rendering:auto;enable-background:accumulate;stop-color:#000000"
       d="m 2.5135427,11.310939 c -0.29087,0 -0.529167,0.238756 -0.529167,0.529553 v 1.058076 c 0,0.290799 0.238297,0.529038 0.529167,0.529038 H 14.419795 c 0.290871,0 0.529166,-0.238239 0.529166,-0.529038 v -1.058076 c 0,-0.290798 -0.238295,-0.529553 -0.529166,-0.529553 z m 0,0.263486 H 14.419795 c 0.148868,0 0.263549,0.117238 0.263549,0.266068 v 1.058076 c 0,0.14883 -0.114681,0.263485 -0.263549,0.263485 H 2.5135427 c -0.148867,0 -0.265617,-0.114656 -0.265617,-0.263485 v -1.058076 c 0,-0.14883 0.11675,-0.266068 0.265617,-0.266068 z" />
    <rect
       style="fill:#fdfbfc;fill-opacity:1;stroke:none;stroke-width:1.85208;stroke-miterlimit:4;stroke-dasharray:none;stroke-dashoffset:2.1875;stroke-opacity:1"
       id="rect2471-6-7-2-7-2-1-9-3-9-6"
       width="12.7"
       height="1.8520833"
       x="2.1166675"
       y="11.443228"
       rx="0.39687499"
       ry="0.39687499" />
    <rect
       style="opacity:0.35;fill:#294f52;fill-opacity:1;stroke:none;stroke-width:1.85208;stroke-miterlimit:4;stroke-dasharray:none;stroke-dashoffset:2.1875;stroke-opacity:1"
       id="rect2471-6-6-8-1-6-1-2-9-1-5-7-6-0"
       width="2.2489583"
       height="2.2489583"
       x="7.3421884"
       y="8.0697918"
       rx="0.5291667"
       ry="0.5291667" />
    <path
       id="rect2471-6-6-8-1-6-1-2-3-2-5-6-09-1-0-65-6-3-2"
       style="color:#000000;font-style:normal;font-variant:normal;font-weight:normal;font-stretch:normal;font-size:medium;line-height:normal;font-family:sans-serif;font-variant-ligatures:normal;font-variant-position:normal;font-variant-caps:normal;font-variant-numeric:normal;font-variant-alternates:normal;font-variant-east-asian:normal;font-feature-settings:normal;font-variation-settings:normal;text-indent:0;text-align:start;text-decoration:none;text-decoration-line:none;text-decoration-style:solid;text-decoration-color:#000000;letter-spacing:normal;word-spacing:normal;text-transform:none;writing-mode:lr-tb;direction:ltr;text-orientation:mixed;dominant-baseline:auto;baseline-shift:baseline;text-anchor:start;white-space:normal;shape-padding:0;shape-margin:0;inline-size:0;clip-rule:nonzero;display:inline;overflow:visible;visibility:visible;opacity:0.75;isolation:auto;mix-blend-mode:normal;color-interpolation:sRGB;color-interpolation-filters:linearRGB;solid-color:#000000;solid-opacity:1;vector-effect:none;fill:#294f52;fill-opacity:1;fill-rule:nonzero;stroke:none;stroke-width:1;stroke-linecap:round;stroke-linejoin:round;stroke-miterlimit:4;stroke-dasharray:none;stroke-dashoffset:2.1875;stroke-opacity:1;color-rendering:auto;image-rendering:auto;shape-rendering:auto;text-rendering:auto;enable-background:accumulate;stop-color:#000000"
       d="m 7.6062537,7.5406251 c -0.217581,0 -0.396357,0.178777 -0.396358,0.396358 v 0.8593794 0.595829 c 0,0.36416 0.297816,0.6619755 0.661975,0.6619755 h 1.189591 c 0.364159,0 0.661976,-0.2978155 0.661976,-0.6619755 V 8.7963625 7.9369831 c 0,-0.217581 -0.178777,-0.396358 -0.396359,-0.396358 z m 0,0.26355 h 1.720825 c 0.07558,0 0.130743,0.05723 0.130743,0.132808 v 0.8593794 0.595829 c 0,0.222157 -0.174203,0.396359 -0.39636,0.396359 h -1.189591 c -0.222157,0 -0.398426,-0.174202 -0.398426,-0.396359 V 8.7963625 7.9369831 c 0,-0.07558 0.05723,-0.132808 0.132809,-0.132808 z" />
    <path
       id="rect2471-6-6-8-1-6-1-2-3-2-5-6-09-1-8"
       style="fill:#fdfbfc;fill-opacity:1;stroke:none;stroke-width:1.85208;stroke-miterlimit:4;stroke-dasharray:none;stroke-dashoffset:2.1875;stroke-opacity:1"
       d="m 7.6067707,7.6729167 c -0.146579,0 -0.264583,0.1180042 -0.264583,0.2645833 v 0.8598955 0.595313 c 0,0.293158 0.236008,0.529167 0.529167,0.529167 h 1.190625 c 0.293158,0 0.529167,-0.236009 0.529167,-0.529167 V 8.7973955 7.9375 c 0,-0.1465791 -0.118003,-0.2645833 -0.264584,-0.2645833 z" />
    <rect
       style="opacity:0.35;fill:#294f52;fill-opacity:1;stroke:none;stroke-width:1.85208;stroke-miterlimit:4;stroke-dasharray:none;stroke-dashoffset:2.1875;stroke-opacity:1"
       id="rect2471-6-6-8-1-6-1-2-3-2-5-6-4-8-2"
       width="2.2489583"
       height="2.2489583"
       x="11.707812"
       y="8.0697918"
       rx="0.5291667"
       ry="0.5291667" />
    <path
       id="rect2471-6-6-8-1-6-1-2-3-2-5-6-09-1-0-65-6-3-9"
       style="color:#000000;font-style:normal;font-variant:normal;font-weight:normal;font-stretch:normal;font-size:medium;line-height:normal;font-family:sans-serif;font-variant-ligatures:normal;font-variant-position:normal;font-variant-caps:normal;font-variant-numeric:normal;font-variant-alternates:normal;font-variant-east-asian:normal;font-feature-settings:normal;font-variation-settings:normal;text-indent:0;text-align:start;text-decoration:none;text-decoration-line:none;text-decoration-style:solid;text-decoration-color:#000000;letter-spacing:normal;word-spacing:normal;text-transform:none;writing-mode:lr-tb;direction:ltr;text-orientation:mixed;dominant-baseline:auto;baseline-shift:baseline;text-anchor:start;white-space:normal;shape-padding:0;shape-margin:0;inline-size:0;clip-rule:nonzero;display:inline;overflow:visible;visibility:visible;opacity:0.75;isolation:auto;mix-blend-mode:normal;color-interpolation:sRGB;color-interpolation-filters:linearRGB;solid-color:#000000;solid-opacity:1;vector-effect:none;fill:#294f52;fill-opacity:1;fill-rule:nonzero;stroke:none;stroke-width:1;stroke-linecap:round;stroke-linejoin:round;stroke-miterlimit:4;stroke-dasharray:none;stroke-dashoffset:2.1875;stroke-opacity:1;color-rendering:auto;image-rendering:auto;shape-rendering:auto;text-rendering:auto;enable-background:accumulate;stop-color:#000000"
       d="m 11.97188,7.5406252 c -0.217581,0 -0.396357,0.178777 -0.396358,0.396358 v 0.8593793 0.595829 c 0,0.36416 0.297816,0.6619755 0.661975,0.6619755 h 1.189591 c 0.364159,0 0.661975,-0.2978155 0.661975,-0.6619755 V 8.7963625 7.9369832 c 0,-0.217581 -0.178777,-0.396358 -0.396358,-0.396358 z m 0,0.26355 h 1.720825 c 0.07558,0 0.130742,0.05723 0.130742,0.132808 v 0.8593793 0.595829 c 0,0.222157 -0.174202,0.396359 -0.396359,0.396359 h -1.189591 c -0.222157,0 -0.398426,-0.174202 -0.398426,-0.396359 V 8.7963625 7.9369832 c 0,-0.07558 0.05723,-0.132808 0.132809,-0.132808 z" />
    <path
       id="rect2471-6-6-8-1-6-1-2-3-2-5-6-09-1-0-9"
       style="fill:#fdfbfc;fill-opacity:1;stroke:none;stroke-width:1.85208;stroke-miterlimit:4;stroke-dasharray:none;stroke-dashoffset:2.1875;stroke-opacity:1"
       d="m 11.972398,7.6729168 c -0.14658,0 -0.264584,0.1180041 -0.264584,0.2645833 v 0.8598954 0.595313 c 0,0.293158 0.236009,0.529167 0.529167,0.529167 h 1.190625 c 0.293158,0 0.529167,-0.236009 0.529167,-0.529167 V 8.7973955 7.9375 c 0,-0.1465791 -0.118004,-0.2645833 -0.264584,-0.2645833 z" />
    <path
       id="rect2471-6-6-8-1-6-1-2-3-2-5-6-09-1-0-65-6-3"
       style="color:#000000;font-style:normal;font-variant:normal;font-weight:normal;font-stretch:normal;font-size:medium;line-height:normal;font-family:sans-serif;font-variant-ligatures:normal;font-variant-position:normal;font-variant-caps:normal;font-variant-numeric:normal;font-variant-alternates:normal;font-variant-east-asian:normal;font-feature-settings:normal;font-variation-settings:normal;text-indent:0;text-align:start;text-decoration:none;text-decoration-line:none;text-decoration-style:solid;text-decoration-color:#000000;letter-spacing:normal;word-spacing:normal;text-transform:none;writing-mode:lr-tb;direction:ltr;text-orientation:mixed;dominant-baseline:auto;baseline-shift:baseline;text-anchor:start;white-space:normal;shape-padding:0;shape-margin:0;inline-size:0;clip-rule:nonzero;display:inline;overflow:visible;visibility:visible;opacity:0.75;isolation:auto;mix-blend-mode:normal;color-interpolation:sRGB;color-interpolation-filters:linearRGB;solid-color:#000000;solid-opacity:1;vector-effect:none;fill:#294f52;fill-opacity:1;fill-rule:nonzero;stroke:none;stroke-width:1;stroke-linecap:round;stroke-linejoin:round;stroke-miterlimit:4;stroke-dasharray:none;stroke-dashoffset:2.1875;stroke-opacity:1;color-rendering:auto;image-rendering:auto;shape-rendering:auto;text-rendering:auto;enable-background:accumulate;stop-color:#000000"
       d="m 11.97188,3.7041667 c -0.217581,0 -0.396357,0.178777 -0.396358,0.396358 v 0.859379 0.595829 c 0,0.36416 0.297816,0.661975 0.661975,0.661975 h 1.189591 c 0.364159,0 0.661975,-0.297815 0.661975,-0.661975 v -0.595829 -0.859379 c 0,-0.217581 -0.178777,-0.396358 -0.396358,-0.396358 z m 0,0.26355 h 1.720825 c 0.07558,0 0.130742,0.05723 0.130742,0.132808 v 0.859379 0.595829 c 0,0.222157 -0.174202,0.396359 -0.396359,0.396359 h -1.189591 c -0.222157,0 -0.398426,-0.174202 -0.398426,-0.396359 v -0.595829 -0.859379 c 0,-0.07558 0.05723,-0.132808 0.132809,-0.132808 z" />
    <path
       id="rect2471-6-6-8-1-6-1-2-3-2-5-6-09-1-0"
       style="fill:#fdfbfc;fill-opacity:1;stroke:none;stroke-width:1.85208;stroke-miterlimit:4;stroke-dasharray:none;stroke-dashoffset:2.1875;stroke-opacity:1"
       d="m 11.972398,3.8364585 c -0.14658,0 -0.264584,0.1180041 -0.264584,0.2645833 v 0.8598958 0.5953126 c 0,0.2931584 0.236009,0.5291667 0.529167,0.5291667 h 1.190625 c 0.293158,0 0.529167,-0.2360083 0.529167,-0.5291667 V 4.9609376 4.1010417 c 0,-0.1465791 -0.118004,-0.2645833 -0.264584,-0.2645833 z" />
    <path
       id="rect2471-6-6-8-1-6-1-2-3-2-5-6-09-1-0-65-6-3-4"
       style="color:#000000;font-style:normal;font-variant:normal;font-weight:normal;font-stretch:normal;font-size:medium;line-height:normal;font-family:sans-serif;font-variant-ligatures:normal;font-variant-position:normal;font-variant-caps:normal;font-variant-numeric:normal;font-variant-alternates:normal;font-variant-east-asian:normal;font-feature-settings:normal;font-variation-settings:normal;text-indent:0;text-align:start;text-decoration:none;text-decoration-line:none;text-decoration-style:solid;text-decoration-color:#000000;letter-spacing:normal;word-spacing:normal;text-transform:none;writing-mode:lr-tb;direction:ltr;text-orientation:mixed;dominant-baseline:auto;baseline-shift:baseline;text-anchor:start;white-space:normal;shape-padding:0;shape-margin:0;inline-size:0;clip-rule:nonzero;display:inline;overflow:visible;visibility:visible;opacity:0.75;isolation:auto;mix-blend-mode:normal;color-interpolation:sRGB;color-interpolation-filters:linearRGB;solid-color:#000000;solid-opacity:1;vector-effect:none;fill:#294f52;fill-opacity:1;fill-rule:nonzero;stroke:none;stroke-width:1;stroke-linecap:round;stroke-linejoin:round;stroke-miterlimit:4;stroke-dasharray:none;stroke-dashoffset:2.1875;stroke-opacity:1;color-rendering:auto;image-rendering:auto;shape-rendering:auto;text-rendering:auto;enable-background:accumulate;stop-color:#000000"
       d="m 7.6062537,3.7041667 c -0.217581,0 -0.396357,0.178777 -0.396358,0.396358 v 0.859379 0.595829 c 0,0.36416 0.297816,0.661975 0.661975,0.661975 h 1.189591 c 0.364159,0 0.661976,-0.297815 0.661976,-0.661975 v -0.595829 -0.859379 c 0,-0.217581 -0.178777,-0.396358 -0.396359,-0.396358 z m 0,0.26355 h 1.720825 c 0.07558,0 0.130743,0.05723 0.130743,0.132808 v 0.859379 0.595829 c 0,0.222157 -0.174203,0.396359 -0.39636,0.396359 h -1.189591 c -0.222157,0 -0.398426,-0.174202 -0.398426,-0.396359 v -0.595829 -0.859379 c 0,-0.07558 0.05723,-0.132808 0.132809,-0.132808 z" />
    <path
       id="rect2471-6-6-8-1-6-1-2-3-2-5-6-09-1-0-7"
       style="fill:#fdfbfc;fill-opacity:1;stroke:none;stroke-width:1.85208;stroke-miterlimit:4;stroke-dasharray:none;stroke-dashoffset:2.1875;stroke-opacity:1"
       d="m 7.6067717,3.8364585 c -0.14658,0 -0.264584,0.1180041 -0.264584,0.2645833 v 0.8598958 0.5953126 c 0,0.2931584 0.236009,0.5291667 0.529167,0.5291667 h 1.190625 c 0.293158,0 0.529168,-0.2360083 0.529168,-0.5291667 V 4.9609376 4.1010417 c 0,-0.1465791 -0.118004,-0.2645833 -0.264585,-0.2645833 z" />
    <path
       id="rect2471-6-6-8-1-6-1-2-3-2-5-6-09-1-0-65-6-3-8"
       style="color:#000000;font-style:normal;font-variant:normal;font-weight:normal;font-stretch:normal;font-size:medium;line-height:normal;font-family:sans-serif;font-variant-ligatures:normal;font-variant-position:normal;font-variant-caps:normal;font-variant-numeric:normal;font-variant-alternates:normal;font-variant-east-asian:normal;font-feature-settings:normal;font-variation-settings:normal;text-indent:0;text-align:start;text-decoration:none;text-decoration-line:none;text-decoration-style:solid;text-decoration-color:#000000;letter-spacing:normal;word-spacing:normal;text-transform:none;writing-mode:lr-tb;direction:ltr;text-orientation:mixed;dominant-baseline:auto;baseline-shift:baseline;text-anchor:start;white-space:normal;shape-padding:0;shape-margin:0;inline-size:0;clip-rule:nonzero;display:inline;overflow:visible;visibility:visible;opacity:0.75;isolation:auto;mix-blend-mode:normal;color-interpolation:sRGB;color-interpolation-filters:linearRGB;solid-color:#000000;solid-opacity:1;vector-effect:none;fill:#294f52;fill-opacity:1;fill-rule:nonzero;stroke:none;stroke-width:1;stroke-linecap:round;stroke-linejoin:round;stroke-miterlimit:4;stroke-dasharray:none;stroke-dashoffset:2.1875;stroke-opacity:1;color-rendering:auto;image-rendering:auto;shape-rendering:auto;text-rendering:auto;enable-background:accumulate;stop-color:#000000"
       d="m 3.2406287,3.7041667 c -0.217581,0 -0.396357,0.178777 -0.396358,0.396358 v 0.859379 0.595829 c 0,0.36416 0.297816,0.661975 0.661975,0.661975 h 1.189591 c 0.364159,0 0.661975,-0.297815 0.661975,-0.661975 v -0.595829 -0.859379 c 0,-0.217581 -0.178777,-0.396358 -0.396358,-0.396358 z m 0,0.26355 h 1.720825 c 0.07558,0 0.130742,0.05723 0.130742,0.132808 v 0.859379 0.595829 c 0,0.222157 -0.174202,0.396359 -0.396359,0.396359 h -1.189591 c -0.222157,0 -0.398426,-0.174202 -0.398426,-0.396359 v -0.595829 -0.859379 c 0,-0.07558 0.05723,-0.132808 0.132809,-0.132808 z" />
    <path
       id="rect2471-6-6-8-1-6-1-2-3-2-5-6-09-1-0-71"
       style="fill:#fdfbfc;fill-opacity:1;stroke:none;stroke-width:1.85208;stroke-miterlimit:4;stroke-dasharray:none;stroke-dashoffset:2.1875;stroke-opacity:1"
       d="m 3.2411467,3.8364586 c -0.14658,0 -0.264584,0.118004 -0.264584,0.2645832 v 0.8598959 0.5953125 c 0,0.2931585 0.236009,0.5291667 0.529167,0.5291667 h 1.190625 c 0.293158,0 0.529167,-0.2360082 0.529167,-0.5291667 V 4.9609377 4.1010417 c 0,-0.1465791 -0.118004,-0.2645833 -0.264584,-0.2645833 z" />
  </g>
</svg>
