<?xml version="1.0" encoding="UTF-8" standalone="no"?>
<svg
   xmlns:dc="http://purl.org/dc/elements/1.1/"
   xmlns:cc="http://creativecommons.org/ns#"
   xmlns:rdf="http://www.w3.org/1999/02/22-rdf-syntax-ns#"
   xmlns:svg="http://www.w3.org/2000/svg"
   xmlns="http://www.w3.org/2000/svg"
   xmlns:xlink="http://www.w3.org/1999/xlink"
   xmlns:sodipodi="http://sodipodi.sourceforge.net/DTD/sodipodi-0.dtd"
   xmlns:inkscape="http://www.inkscape.org/namespaces/inkscape"
   width="64"
   height="64"
   viewBox="0 0 64 64"
   version="1.1"
   id="svg6374"
   inkscape:version="1.0.2 (e86c870879, 2021-01-15)"
   sodipodi:docname="playlist.svg">
  <defs
     id="defs6368">
    <linearGradient
       inkscape:collect="always"
       xlink:href="#linearGradient3476-9"
       id="linearGradient1922-3"
       gradientUnits="userSpaceOnUse"
       gradientTransform="matrix(1.1818182,0,0,1.2380952,-5.818225,-13.8095)"
       x1="32"
       y1="16"
       x2="32"
       y2="58" />
    <linearGradient
       inkscape:collect="always"
       id="linearGradient3476-9">
      <stop
         style="stop-color:#bc6296;stop-opacity:1"
         offset="0"
         id="stop3472-3" />
      <stop
         style="stop-color:#b4508a;stop-opacity:1"
         offset="1"
         id="stop3474-7" />
    </linearGradient>
  </defs>
  <sodipodi:namedview
     id="base"
     pagecolor="#cecece"
     bordercolor="#666666"
     borderopacity="1.0"
     inkscape:pageopacity="0"
     inkscape:pageshadow="2"
     inkscape:zoom="4.0902725"
     inkscape:cx="26.692978"
     inkscape:cy="51.078534"
     inkscape:document-units="px"
     inkscape:current-layer="layer1"
     inkscape:document-rotation="0"
     showgrid="false"
     units="px"
     inkscape:window-width="1500"
     inkscape:window-height="970"
     inkscape:window-x="68"
     inkscape:window-y="56"
     inkscape:window-maximized="0" />
  <metadata
     id="metadata6371">
    <rdf:RDF>
      <cc:Work
         rdf:about="">
        <dc:format>image/svg+xml</dc:format>
        <dc:type
           rdf:resource="http://purl.org/dc/dcmitype/StillImage" />
        <dc:title />
      </cc:Work>
    </rdf:RDF>
  </metadata>
  <g
     inkscape:label="Layer 1"
     inkscape:groupmode="layer"
     id="layer1">
    <path
       id="rect1208-1-9-7-7-98-3-2-7-52-0-0-2"
       style="color:#000000;font-style:normal;font-variant:normal;font-weight:normal;font-stretch:normal;font-size:medium;line-height:normal;font-family:sans-serif;font-variant-ligatures:normal;font-variant-position:normal;font-variant-caps:normal;font-variant-numeric:normal;font-variant-alternates:normal;font-variant-east-asian:normal;font-feature-settings:normal;font-variation-settings:normal;text-indent:0;text-align:start;text-decoration:none;text-decoration-line:none;text-decoration-style:solid;text-decoration-color:#000000;letter-spacing:normal;word-spacing:normal;text-transform:none;writing-mode:lr-tb;direction:ltr;text-orientation:mixed;dominant-baseline:auto;baseline-shift:baseline;text-anchor:start;white-space:normal;shape-padding:0;shape-margin:0;inline-size:0;clip-rule:nonzero;display:inline;overflow:visible;visibility:visible;opacity:0.35;isolation:auto;mix-blend-mode:normal;color-interpolation:sRGB;color-interpolation-filters:linearRGB;solid-color:#000000;solid-opacity:1;vector-effect:none;fill:#5d2845;fill-opacity:1;fill-rule:nonzero;stroke:none;stroke-linecap:round;stroke-linejoin:round;stroke-miterlimit:4;stroke-dasharray:none;stroke-dashoffset:2.1875;stroke-opacity:1;color-rendering:auto;image-rendering:auto;shape-rendering:auto;text-rendering:auto;enable-background:accumulate;stop-color:#000000"
       d="M 9.54492,6 C 6.45622,6 4,8.6325 4,11.7149 V 56.2852 C 4,59.3675 6.45622,62 9.54492,62 h 44.91015 c 3.0887,0 5.54492,-2.6325 5.54492,-5.7148 V 11.7149 C 59.99999,8.6325 57.54377,6 54.45507,6 Z m 0,4 h 44.91015 c 0.83967,0 1.54492,0.6818 1.54492,1.7149 V 56.2852 C 55.99999,57.3183 55.29473,58 54.45507,58 H 9.54492 C 8.70526,58 8,57.3183 8,56.2852 V 11.7149 C 8,10.6818 8.70526,10 9.54492,10 Z" />
    <path
       id="rect1208-1-9-7-7-98-3-2-7-52-0-0"
       style="color:#000000;font-style:normal;font-variant:normal;font-weight:normal;font-stretch:normal;font-size:medium;line-height:normal;font-family:sans-serif;font-variant-ligatures:normal;font-variant-position:normal;font-variant-caps:normal;font-variant-numeric:normal;font-variant-alternates:normal;font-variant-east-asian:normal;font-feature-settings:normal;font-variation-settings:normal;text-indent:0;text-align:start;text-decoration:none;text-decoration-line:none;text-decoration-style:solid;text-decoration-color:#000000;letter-spacing:normal;word-spacing:normal;text-transform:none;writing-mode:lr-tb;direction:ltr;text-orientation:mixed;dominant-baseline:auto;baseline-shift:baseline;text-anchor:start;white-space:normal;shape-padding:0;shape-margin:0;inline-size:0;clip-rule:nonzero;display:inline;overflow:visible;visibility:visible;isolation:auto;mix-blend-mode:normal;color-interpolation:sRGB;color-interpolation-filters:linearRGB;solid-color:#000000;solid-opacity:1;vector-effect:none;fill:#6b2e50;fill-opacity:1;fill-rule:nonzero;stroke:none;stroke-linecap:round;stroke-linejoin:round;stroke-miterlimit:4;stroke-dasharray:none;stroke-dashoffset:2.1875;stroke-opacity:1;color-rendering:auto;image-rendering:auto;shape-rendering:auto;text-rendering:auto;enable-background:accumulate;stop-color:#000000"
       d="M 9.54492,4 C 6.45622,4 4,6.6325 4,9.7149 V 54.2852 C 4,57.3675 6.45622,60 9.54492,60 H 54.45508 C 57.54378,60 60,57.3675 60,54.2852 V 9.7149 C 60,6.6325 57.54378,4 54.45508,4 Z m 0,4 H 54.45508 C 55.29474,8 56,8.6818 56,9.7149 V 54.2852 C 56,55.3183 55.29474,56 54.45508,56 H 9.54492 C 8.70526,56 8,55.3183 8,54.2852 V 9.7149 C 8,8.6818 8.70526,8 9.54492,8 Z" />
    <rect
       style="fill:url(#linearGradient1922-3);fill-opacity:1;stroke-width:0;stroke-linecap:round;stroke-linejoin:round;stroke-dashoffset:2.1875"
       id="rect1208-1-9-7-7-98-3-2-7-52-0-5"
       width="52"
       height="52"
       x="6"
       y="6"
       rx="3.5454545"
       ry="3.7142856" />
    <path
       id="rect1323-3-5-2-5-4-8-9-3"
       style="display:inline;opacity:0.25;fill:#562541;fill-opacity:1;stroke:none;stroke-width:1.20999;stroke-linecap:round;stroke-linejoin:round;stroke-miterlimit:4;stroke-dasharray:none;stroke-dashoffset:2.1875;stroke-opacity:1"
       d="m 24.5258,20.2376 v 0 c -0.0343,0 -0.0674,0 -0.10175,0 -0.0443,0 -0.0884,0 -0.1328,0.012 -0.055,0 -0.10908,0.012 -0.16283,0.021 -0.0343,0 -0.0696,0.012 -0.104,0.016 -0.0669,0.012 -0.13215,0.028 -0.19743,0.046 -0.0189,0 -0.0372,0.012 -0.0555,0.015 -0.0743,0.021 -0.14765,0.047 -0.21943,0.074 -0.0106,0 -0.0213,0.012 -0.0313,0.012 -0.0778,0.031 -0.15438,0.066 -0.22864,0.1027 -0.006,0 -0.009,0 -0.0148,0.012 -0.832,0.4261 -1.4312,1.2631 -1.56023,2.2634 -0.008,0.019 -0.008,0.036 -0.008,0.054 -0.006,0.054 -0.0106,0.1102 -0.0106,0.1656 -0.008,0.05 -0.009,0.099 -0.009,0.1487 -1.2e-4,0.012 0,0.022 0,0.033 v 23.771 0.035 c 0,0.05 0.009,0.1003 0.009,0.15 0.006,0.054 0.006,0.1102 0.0106,0.1633 0,0.02 0.008,0.04 0.008,0.059 0.0915,0.7008 0.41385,1.3207 0.8858,1.7761 0.0682,0.066 0.13944,0.1275 0.21364,0.1862 0.0733,0.058 0.14883,0.1126 0.22747,0.1632 0.0772,0.049 0.15598,0.095 0.23793,0.1365 0.0772,0.04 0.15692,0.076 0.23787,0.1077 0.0106,0 0.0213,0.012 0.0313,0.012 0.0703,0.027 0.14198,0.052 0.21475,0.073 0.023,0.012 0.0467,0.012 0.0704,0.018 0.0616,0.016 0.12264,0.031 0.1859,0.042 0.0372,0.012 0.0754,0.012 0.11322,0.019 0.0473,0.012 0.0948,0.012 0.1432,0.017 0.0544,0 0.10908,0.012 0.16403,0.012 0.0272,0 0.0544,0 0.0819,0 0.0118,0 0.0242,0 0.036,0 0.0573,-4e-4 0.11369,0 0.17094,-0.012 0.0366,0 0.0747,0 0.11085,-0.012 0.0431,0 0.0862,-0.014 0.12932,-0.021 0.0592,-0.012 0.11771,-0.019 0.17554,-0.032 0,0 -2.3e-4,0 0.006,0 0.006,-5e-4 0.0106,0 0.0106,0 0.2814,-0.067 0.54529,-0.1774 0.78766,-0.3242 l 0.0148,-0.012 19.47203,-11.77 c 0,-6e-4 0.007,-6e-4 0.007,0 0.37706,-0.1933 0.71345,-0.4792 0.98396,-0.8428 0.0136,-0.019 0.0284,-0.037 0.0414,-0.056 0.0361,-0.051 0.0696,-0.104 0.10282,-0.1571 0.0183,-0.03 0.0378,-0.061 0.0555,-0.09 0.008,-0.014 0.0183,-0.026 0.0266,-0.04 0.0165,-0.03 0.0284,-0.062 0.0437,-0.092 0.0248,-0.048 0.049,-0.098 0.0716,-0.1475 0.0154,-0.036 0.0289,-0.072 0.0437,-0.1077 0.0201,-0.051 0.0414,-0.1028 0.0591,-0.1547 0.0154,-0.046 0.0295,-0.09 0.0425,-0.1367 0.0124,-0.046 0.0266,-0.093 0.0366,-0.139 0.0106,-0.045 0.0189,-0.09 0.0278,-0.1355 0.009,-0.05 0.0195,-0.099 0.0266,-0.1499 0.006,-0.048 0.008,-0.097 0.0148,-0.145 0.006,-0.043 0.006,-0.087 0.0106,-0.1294 0.006,-0.051 0.006,-0.1002 0.006,-0.1511 0,-0.051 3.6e-4,-0.1015 -0.006,-0.1524 0,-0.042 -0.006,-0.084 -0.0106,-0.1269 -0.006,-0.05 -0.008,-0.099 -0.0148,-0.1487 -0.007,-0.048 -0.016,-0.098 -0.0254,-0.1464 -0.008,-0.046 -0.0171,-0.092 -0.0278,-0.1378 -0.0106,-0.046 -0.0242,-0.09 -0.0366,-0.1354 -0.0136,-0.048 -0.0272,-0.097 -0.0437,-0.1439 -0.016,-0.047 -0.0343,-0.094 -0.052,-0.1401 -0.0165,-0.042 -0.0325,-0.082 -0.0508,-0.1239 -0.0213,-0.048 -0.0455,-0.095 -0.0693,-0.1427 -0.0154,-0.03 -0.0284,-0.061 -0.0449,-0.09 -0.006,-0.012 -0.0148,-0.022 -0.0219,-0.035 -0.0213,-0.037 -0.0437,-0.074 -0.0669,-0.1101 -0.0307,-0.05 -0.0604,-0.098 -0.0935,-0.1439 -0.0124,-0.017 -0.026,-0.032 -0.039,-0.049 -0.0473,-0.064 -0.0963,-0.1272 -0.14781,-0.1862 -0.23486,-0.2687 -0.5104,-0.4846 -0.81072,-0.6432 L 25.95174,20.6405 c -0.24485,-0.1482 -0.51104,-0.2599 -0.79569,-0.3264 0,-6e-4 -0.007,-6e-4 -0.007,0 -0.0652,-0.015 -0.13179,-0.027 -0.1986,-0.037 -0.0313,0 -0.0622,-0.012 -0.0935,-0.015 -0.0449,-0.012 -0.092,-0.012 -0.13741,-0.012 -0.0514,0 -0.10223,-0.012 -0.15361,-0.012 -0.0124,0 -0.0254,0 -0.0366,0 z" />
    <path
       id="rect1323-3-5-4-7-6-7-7-3-5"
       style="color:#000000;font-style:normal;font-variant:normal;font-weight:normal;font-stretch:normal;font-size:medium;line-height:normal;font-family:sans-serif;font-variant-ligatures:normal;font-variant-position:normal;font-variant-caps:normal;font-variant-numeric:normal;font-variant-alternates:normal;font-variant-east-asian:normal;font-feature-settings:normal;font-variation-settings:normal;text-indent:0;text-align:start;text-decoration:none;text-decoration-line:none;text-decoration-style:solid;text-decoration-color:#000000;letter-spacing:normal;word-spacing:normal;text-transform:none;writing-mode:lr-tb;direction:ltr;text-orientation:mixed;dominant-baseline:auto;baseline-shift:baseline;text-anchor:start;white-space:normal;shape-padding:0;shape-margin:0;inline-size:0;clip-rule:nonzero;display:inline;overflow:visible;visibility:visible;opacity:0.75;isolation:auto;mix-blend-mode:normal;color-interpolation:sRGB;color-interpolation-filters:linearRGB;solid-color:#000000;solid-opacity:1;vector-effect:none;fill:#562541;fill-opacity:1;fill-rule:nonzero;stroke:none;stroke-width:1.20956;stroke-linecap:round;stroke-linejoin:round;stroke-miterlimit:4;stroke-dasharray:none;stroke-dashoffset:2.1875;stroke-opacity:1;color-rendering:auto;image-rendering:auto;shape-rendering:auto;text-rendering:auto;enable-background:accumulate;stop-color:#000000"
       d="m 23.92298,16.8342 a 0.88639513,0.92862044 0 0 0 -0.0854,0.012 c -5.5e-4,10e-5 -0.007,-2e-4 -0.007,0 -5.7e-4,3e-4 -0.0334,0 -0.0276,0 h 0.007 c -0.041,0 -0.0989,0 -0.16619,0.012 -0.10861,0.012 -0.18428,0.02 -0.22849,0.027 -0.013,0 -0.0644,0.012 -0.15235,0.025 -0.0932,0.017 -0.17469,0.041 -0.24233,0.058 v 0 c 0.008,0 -0.0314,0.012 -0.0739,0.022 -0.10081,0.028 -0.19761,0.062 -0.28851,0.097 -0.0176,0 -0.0455,0.014 -0.10152,0.041 -0.002,0 -0.002,9e-4 -0.005,0 -0.0612,0.026 -0.12171,0.052 -0.18004,0.079 -0.0815,0.035 -0.10767,0.051 -0.0462,0.022 -0.004,0 -0.006,0 -0.009,0 a 0.88639513,0.92862044 0 0 0 -0.0184,0.012 c -1.05594,0.5406 -1.80032,1.6032 -2.00342,2.8556 -0.0261,0.1263 -0.0623,0.2857 -0.0623,0.2974 l 0.005,-0.104 c -0.007,0.068 -0.0162,0.1578 -0.0162,0.2684 l 0.0138,-0.1596 c -0.0234,0.1397 -0.023,0.2447 -0.023,0.3096 -6e-5,0.015 0,0.03 0,0.033 v 23.7693 0.034 c 0,0.1725 0.009,0.2224 0.009,0.1499 a 0.88639513,0.92862044 0 0 0 0.007,0.1065 c -0.001,-0.015 -0.002,0.031 0.007,0.1426 l -0.002,-0.084 c 0,0.2876 0.007,0.3073 0.007,0.058 a 0.88639513,0.92862044 0 0 0 0.009,0.1258 c 0.11983,0.9182 0.54447,1.7363 1.16327,2.3334 0.0916,0.089 0.18414,0.169 0.27929,0.2442 0.0919,0.073 0.19175,0.1459 0.30005,0.2152 0.0994,0.063 0.2045,0.1238 0.3139,0.179 0.0993,0.051 0.2025,0.1003 0.3116,0.1426 a 0.88639513,0.92862044 0 0 0 0.0323,0.012 c -0.0454,-0.016 -0.0418,-0.016 0.0162,0 0.0851,0.032 0.17634,0.063 0.27466,0.092 a 0.88639513,0.92862044 0 0 0 0.0162,0 c 0.0266,0.012 0.0552,0.016 0.0877,0.024 h -0.0118 c 0.074,0.02 0.15474,0.038 0.24465,0.056 h -0.0118 c 0.0738,0.015 0.12425,0.02 0.15234,0.025 a 0.88639513,0.92862044 0 0 0 0.0162,0 c 0.0462,0.012 0.10553,0.012 0.17773,0.02 0.0792,0.012 0.1461,0.012 0.2008,0.015 0.001,0 0.0441,0 0.12233,0 0.12999,0 0.14098,0 0.0346,0 a 0.88639513,0.92862044 0 0 0 0.007,0 c 0.0964,-9e-4 0.16988,0 0.21928,-0.012 a 0.88639513,0.92862044 0 0 0 0.002,0 c 0.0352,0 0.0826,-0.012 0.14079,-0.012 a 0.88639513,0.92862044 0 0 0 0.009,0 c 0.0878,-0.012 0.14583,-0.022 0.1731,-0.027 0.0324,0 0.0867,-0.017 0.13388,-0.027 0.0272,0 0.059,-0.016 0.0855,-0.022 -0.0243,0 -0.0402,0.014 -0.0554,0.017 0.0234,0 0.0358,-0.012 0.0623,-0.012 a 0.88639513,0.92862044 0 0 0 0.0208,0 0.88639513,0.92862044 0 0 0 0.005,0 0.88639513,0.92862044 0 0 0 0.0716,-0.022 c 0.006,0 0.009,0 0.0162,0 0.006,0 0.0162,-0.012 0.0254,-0.015 0.002,0 0.005,0 0.007,0 0.007,0 0.0106,0 0.0184,-0.012 a 0.88639513,0.92862044 0 0 0 0.0118,-0.012 0.88639513,0.92862044 0 0 0 0.0646,-0.031 0.88639513,0.92862044 0 0 0 0.002,0 c 0.28338,-0.088 0.56594,-0.1831 0.81475,-0.3336 a 0.88639513,0.92862044 0 0 0 0.0323,-0.022 l 19.40642,-11.73 h 0.005 l 0.0416,-0.025 a 0.88639513,0.92862044 0 0 0 0.0277,-0.02 c 0.007,0 0.03,-0.015 0.03,-0.015 h -0.002 a 0.88639513,0.92862044 0 0 0 0.19389,-0.1862 c 0.36427,-0.2395 0.72616,-0.4894 0.99709,-0.8535 a 0.88639513,0.92862044 0 0 0 0.002,0 c -4.3e-4,6e-4 0.0206,-0.027 0.0508,-0.071 0.0556,-0.078 0.0999,-0.147 0.13617,-0.2055 a 0.88639513,0.92862044 0 0 0 0.002,0 c 0.0118,-0.019 0.0333,-0.054 0.0623,-0.104 h 0.002 c -0.0311,0.053 -0.0266,0.056 0.03,-0.041 a 0.88639513,0.92862044 0 0 0 0.009,-0.02 c 0.056,-0.1015 0.0691,-0.1402 0.0577,-0.1189 h 0.002 c 0.0275,-0.054 0.0591,-0.1151 0.09,-0.1837 a 0.88639513,0.92862044 0 0 0 0.005,-0.015 c 0.0279,-0.064 0.0441,-0.104 0.0508,-0.1213 a 0.88639513,0.92862044 0 0 0 0.007,-0.017 c 0.0155,-0.04 0.0424,-0.1028 0.0739,-0.1959 0.0191,-0.057 0.0395,-0.1164 0.0577,-0.1814 a 0.88639513,0.92862044 0 0 0 0.002,-0.012 c 0.006,-0.024 0.0249,-0.084 0.0438,-0.1668 l 0.002,-0.012 c 0.0162,-0.069 0.0276,-0.1263 0.0346,-0.162 a 0.88639513,0.92862044 0 0 0 0,-0.012 c 0.007,-0.041 0.022,-0.1064 0.0346,-0.1958 a 0.88639513,0.92862044 0 0 0 0.002,-0.017 c 0.0118,-0.094 0.0145,-0.1382 0.0138,-0.1329 h -0.002 c 0.0173,-0.1248 0.0165,-0.1665 0.0138,-0.1476 v -0.012 c 0.0132,-0.1188 0.0118,-0.2097 0.0118,-0.2586 0,-0.038 -6.4e-4,-0.1264 -0.009,-0.225 -0.005,-0.068 -0.009,-0.1451 -0.0118,-0.1619 a 0.88639513,0.92862044 0 0 0 -0.002,-0.012 c -5.4e-4,0 -0.002,-0.057 -0.0162,-0.1596 a 0.88639513,0.92862044 0 0 0 0,-0.012 c -0.009,-0.066 -0.022,-0.1253 -0.0323,-0.179 l -0.002,-0.015 c -0.009,-0.053 -0.0203,-0.1077 -0.0346,-0.1692 -0.0201,-0.085 -0.0379,-0.1441 -0.0462,-0.1741 a 0.88639513,0.92862044 0 0 0 -0.002,0 c -0.0136,-0.048 -0.0313,-0.1139 -0.0577,-0.191 v 0 c -0.0248,-0.073 -0.0482,-0.1313 -0.0647,-0.1741 a 0.88639513,0.92862044 0 0 0 -0.005,-0.012 c -0.0145,-0.036 -0.0351,-0.088 -0.0647,-0.1547 h -0.002 c -0.035,-0.079 -0.0651,-0.1392 -0.0877,-0.1838 10e-4,0 -0.0227,-0.041 -0.0346,-0.066 -0.0777,-0.1643 -0.10601,-0.1899 -0.0554,-0.1015 -0.0305,-0.053 -0.0606,-0.104 -0.09,-0.15 l 0.002,0.012 c -0.0264,-0.042 -0.0631,-0.1077 -0.12233,-0.191 a 0.88639513,0.92862044 0 0 0 -0.005,0 c -0.0398,-0.056 -0.0467,-0.063 -0.0438,-0.058 l -0.009,-0.012 c -0.0551,-0.074 -0.11369,-0.1531 -0.18464,-0.2345 a 0.88639513,0.92862044 0 0 0 -0.002,0 c -0.3083,-0.3527 -0.66963,-0.638 -1.06402,-0.8463 l 0.0438,0.024 L 25.8039,17.3796 v 0 c -0.27723,-0.1666 -0.58813,-0.2839 -0.90939,-0.3736 0.007,0 0.008,0.012 0.0162,0.012 l -0.0531,-0.022 -0.0485,-0.029 c -6e-5,0 -0.0229,0 -0.0346,-0.012 -0.006,0 -0.0106,-0.012 -0.0162,-0.012 h 0.002 0.002 -0.0138 c -0.0134,0 -0.0239,0 -0.0369,-0.012 -0.009,0 -0.0165,0 -0.0254,0 -0.002,-5e-4 -0.005,0 -0.007,0 -0.008,0 -0.004,7e-4 -0.009,0 -0.0616,-0.012 -0.12309,-0.027 -0.17772,-0.036 h -0.002 c -0.008,0 -0.0537,-0.012 -0.10849,-0.017 h -0.0254 c -0.0828,-0.012 -0.14766,-0.012 -0.15926,-0.012 a 0.88639513,0.92862044 0 0 0 -0.007,0 c -0.0509,0 -0.11747,-0.012 -0.19618,-0.012 a 0.88639513,0.92862044 0 0 0 -0.0184,0 0.88639513,0.92862044 0 0 0 -0.0531,0 z m 0.86553,0.1089 c 0.006,0 0.0139,0 0.0184,0 v 0 c -0.006,0 -0.0119,-0.012 -0.0184,-0.012 z m -0.83091,1.7482 c 0.007,4e-4 -0.016,0 0.0184,0 h -0.0208 c 0.0241,7e-4 0.0612,0 0.1131,0.012 h -0.009 c 0.0775,0 0.11168,0.012 0.0923,0.012 a 0.88639513,0.92862044 0 0 0 0.0254,0 c -0.0201,0 -0.004,0 0.0508,0.012 a 0.88639513,0.92862044 0 0 0 0.002,0 c 0.0544,0.012 0.0994,0.018 0.13618,0.027 h -0.005 l -0.009,-0.012 h 0.0162 a 0.88639513,0.92862044 0 0 0 0.005,0.012 c 0.19351,0.046 0.37373,0.1213 0.54471,0.2249 l 19.52413,11.8 a 0.88639513,0.92862044 0 0 0 0.0439,0.025 c 0.20619,0.1089 0.39484,0.2555 0.55624,0.4401 0.0288,0.033 0.0616,0.077 0.0993,0.1281 a 0.88639513,0.92862044 0 0 0 0.009,0.012 c 0.0394,0.052 0.0478,0.062 0.0254,0.031 0.007,0.012 0.0259,0.04 0.06,0.094 a 0.88639513,0.92862044 0 0 0 0.002,0 c 0.017,0.026 0.0318,0.052 0.0438,0.073 0.0648,0.1127 0.0542,0.1077 -0.0118,-0.031 a 0.88639513,0.92862044 0 0 0 0.0276,0.056 c -0.0137,-0.025 -0.006,-0.012 0.0277,0.058 0.0246,0.048 0.0416,0.083 0.0485,0.099 a 0.88639513,0.92862044 0 0 0 0.002,0 c 0.006,0.014 0.0164,0.041 0.0346,0.087 0.0161,0.042 0.0286,0.077 0.0346,0.094 a 0.88639513,0.92862044 0 0 0 0.002,0 c 0.005,0.015 0.0145,0.044 0.0277,0.092 0.015,0.054 0.0242,0.087 0.0254,0.092 0.006,0.025 0.009,0.054 0.0162,0.089 a 0.88639513,0.92862044 0 0 0 0.005,0.015 c 0.008,0.04 0.0124,0.073 0.0162,0.099 1.5e-4,0 10e-4,0.037 0.0118,0.1238 0.002,0.024 0.005,0.047 0.005,0.012 a 0.88639513,0.92862044 0 0 0 0.007,0.1188 c -0.004,-0.031 -0.002,-0.021 -0.002,0.033 0,0.051 -4.2e-4,0.062 0.002,0.038 a 0.88639513,0.92862044 0 0 0 -0.002,0.012 c -0.0124,0.1139 -0.0131,0.1467 -0.007,0.1015 -0.0137,0.1015 -0.0158,0.1549 -0.0162,0.1573 -0.002,0.016 -0.007,0.037 -0.0162,0.087 -0.009,0.046 -0.0154,0.079 -0.0184,0.092 a 0.88639513,0.92862044 0 0 0 -0.005,0.019 c 10e-4,-0.012 -0.007,0.024 -0.0254,0.089 -0.007,0.025 -0.015,0.052 -0.0254,0.082 -0.005,0.012 -0.0196,0.05 -0.0438,0.1114 -0.0154,0.037 -0.0277,0.069 -0.03,0.076 -0.0126,0.027 -0.0271,0.057 -0.0462,0.094 a 0.88639513,0.92862044 0 0 0 -0.002,0 c -0.04,0.079 -0.0413,0.084 -0.0254,0.056 0.002,0 -0.005,0.012 -0.002,0.012 -0.006,0.012 0.0163,-0.032 -0.0118,0.015 a 0.88639513,0.92862044 0 0 0 -0.005,0 c -0.005,0.012 -0.0192,0.032 -0.0439,0.073 -0.0289,0.047 -0.0508,0.082 -0.0669,0.104 a 0.88639513,0.92862044 0 0 0 -0.009,0.012 c 0.0126,-0.019 0.005,-0.012 -0.0231,0.029 -0.18972,0.2544 -0.42043,0.4479 -0.67395,0.5778 a 0.88639513,0.92862044 0 0 0 -0.0577,0.033 h -0.002 l -0.0254,0.017 -19.44566,11.7541 a 0.88639513,0.92862044 0 0 0 -0.0184,0.012 c -0.16682,0.1003 -0.34505,0.175 -0.53547,0.2201 a 0.88639513,0.92862044 0 0 0 -0.0118,0 c -0.0194,0 -0.0609,0.014 -0.12464,0.025 -0.0526,0.012 -0.0715,0.012 -0.0761,0.012 -0.0142,0 -0.0427,0 -0.0808,0.012 -0.063,0 -0.10448,0 -0.12233,0 -0.0665,7e-4 -0.11287,0 -0.0277,0 0.0232,0 0.009,0 -0.0438,0 -0.0548,0 -0.0983,0 -0.12694,-0.012 -0.0209,0 -0.0544,0 -0.0923,-0.012 h -0.0162 c -0.0294,0 -0.0571,-0.012 -0.0577,-0.012 a 0.88639513,0.92862044 0 0 0 -0.0118,0 c -0.0366,0 -0.0778,-0.016 -0.12696,-0.028 a 0.88639513,0.92862044 0 0 0 -0.0118,0 c -0.0106,0 -0.0242,0 -0.0369,-0.012 h -0.007 c -0.004,-9e-4 -0.006,0 -0.009,0 -0.0409,-0.012 -0.0837,-0.027 -0.13157,-0.046 a 0.88639513,0.92862044 0 0 0 -0.007,0 c 0.0118,0 -0.0155,0 -0.0138,0 h -0.002 c -0.052,-0.021 -0.10742,-0.045 -0.16156,-0.073 -0.0545,-0.027 -0.10897,-0.057 -0.16387,-0.092 -0.0489,-0.031 -0.1001,-0.068 -0.15464,-0.1114 -0.0533,-0.042 -0.10294,-0.086 -0.14772,-0.1282 -0.32503,-0.3136 -0.54392,-0.7351 -0.60703,-1.2186 l 0.007,0.1258 c 0,-0.2891 -0.007,-0.3056 -0.007,-0.058 a 0.88639513,0.92862044 0 0 0 -0.005,-0.087 c 3.8e-4,0 0.002,-0.057 -0.0118,-0.1814 l 0.005,0.104 c 0,-0.1726 -0.009,-0.2225 -0.009,-0.1499 v -0.033 -23.7694 c 0,-0.019 -10e-6,-0.025 0,-0.026 a 0.88639513,0.92862044 0 0 0 0,-0.012 c 0,-0.034 0.002,-0.031 -0.005,0.012 a 0.88639513,0.92862044 0 0 0 0.0143,-0.1593 c 0,-7e-4 0.002,-0.022 0.005,-0.048 a 0.88639513,0.92862044 0 0 0 0.007,-0.048 c 0.089,-0.6902 0.49965,-1.2599 1.07095,-1.5524 a 0.88639513,0.92862044 0 0 0 0.009,0 c 0.0525,-0.026 0.10541,-0.05 0.15694,-0.071 a 0.88639513,0.92862044 0 0 0 0.0231,-0.012 c 0.0526,-0.02 0.10211,-0.037 0.15004,-0.051 a 0.88639513,0.92862044 0 0 0 0.0231,-0.012 c -0.0385,0.012 -0.0346,0.012 0.0138,0 0.0585,-0.016 0.10365,-0.025 0.13618,-0.031 a 0.88639513,0.92862044 0 0 0 0.0162,0 c -0.0205,0 -0.001,0 0.0554,-0.012 a 0.88639513,0.92862044 0 0 0 0.002,0 c 0.0632,-0.012 0.0932,-0.015 0.0947,-0.015 a 0.88639513,0.92862044 0 0 0 0.0138,0 c 0.0136,0 0.0411,0 0.0854,0 a 0.88639513,0.92862044 0 0 0 0.007,0 c 0.096,0 0.11878,0 0.0715,0 a 0.88639513,0.92862044 0 0 0 0.0208,0 0.88639513,0.92862044 0 0 0 0.002,0 z m -0.18233,28.3081 a 0.88639513,0.92862044 0 0 0 -0.009,0.019 c 10e-5,-4e-4 0.002,-0.012 0.002,-0.012 -10e-6,1e-4 0.006,-0.012 0.007,-0.012 z" />
    <path
       id="rect1323-3-5-4-7-6-7-6"
       style="display:inline;fill:#fbfdfc;fill-opacity:1;stroke:none;stroke-width:1.20999;stroke-linecap:round;stroke-linejoin:round;stroke-miterlimit:4;stroke-dasharray:none;stroke-dashoffset:2.1875;stroke-opacity:1"
       d="m 23.93489,17.7614 v 0 c -0.0343,0 -0.0674,0 -0.10175,0 -0.0443,0 -0.0884,0 -0.1328,0.012 -0.055,0 -0.10908,0.012 -0.16283,0.021 -0.0343,0 -0.0696,0.012 -0.104,0.016 -0.0669,0.012 -0.13215,0.028 -0.19743,0.046 -0.0189,0 -0.0372,0.012 -0.0555,0.015 -0.0743,0.021 -0.14765,0.047 -0.21943,0.074 -0.0106,0 -0.0213,0.012 -0.0313,0.012 -0.0778,0.031 -0.15438,0.066 -0.22864,0.1028 -0.006,0 -0.009,0 -0.0148,0.012 -0.832,0.4261 -1.4312,1.2631 -1.56023,2.2634 -0.008,0.019 -0.008,0.036 -0.008,0.055 -0.006,0.054 -0.0106,0.1102 -0.0106,0.1656 -0.008,0.05 -0.009,0.099 -0.009,0.1487 -1.1e-4,0.012 0,0.022 0,0.034 v 23.771 0.035 c 0,0.051 0.009,0.1003 0.009,0.1499 0.006,0.054 0.006,0.1102 0.0106,0.1633 0,0.02 0.008,0.04 0.008,0.059 0.0915,0.7008 0.41385,1.3207 0.88581,1.7761 0.0682,0.066 0.13943,0.1275 0.21363,0.1862 0.0733,0.058 0.14883,0.1127 0.22747,0.1632 0.0772,0.05 0.15599,0.095 0.23793,0.1367 0.0772,0.04 0.15692,0.075 0.23787,0.1077 0.0106,0 0.0213,0.012 0.0313,0.012 0.0703,0.027 0.14197,0.052 0.21474,0.073 0.0231,0.012 0.0467,0.012 0.0704,0.019 0.0616,0.016 0.12264,0.031 0.1859,0.042 0.0372,0.012 0.0754,0.012 0.11322,0.019 0.0473,0.012 0.0948,0.012 0.1432,0.017 0.0544,0 0.10908,0.012 0.16404,0.012 0.0272,0 0.0544,0 0.0819,0 0.0118,0 0.0242,0 0.036,0 0.0573,-5e-4 0.11369,0 0.17094,-0.012 0.0366,0 0.0747,0 0.11085,-0.012 0.0431,0 0.0862,-0.014 0.12932,-0.021 0.0592,-0.012 0.11771,-0.019 0.17555,-0.032 0,0 -2.4e-4,0 0.006,0 0.006,-6e-4 0.0106,0 0.0106,0 0.2814,-0.067 0.54529,-0.1774 0.78766,-0.3241 l 0.0148,-0.012 19.47203,-11.7699 c 0,-7e-4 0.007,-7e-4 0.007,0 0.37706,-0.1932 0.71345,-0.4791 0.98396,-0.8427 0.0136,-0.019 0.0284,-0.037 0.0414,-0.056 0.036,-0.051 0.0696,-0.104 0.10282,-0.1571 0.0183,-0.03 0.0378,-0.061 0.0555,-0.09 0.008,-0.014 0.0183,-0.026 0.0266,-0.04 0.0165,-0.03 0.0284,-0.062 0.0437,-0.092 0.0248,-0.048 0.049,-0.098 0.0716,-0.1475 0.0154,-0.036 0.029,-0.072 0.0437,-0.1077 0.0201,-0.052 0.0414,-0.1027 0.0591,-0.1547 0.0154,-0.046 0.0295,-0.09 0.0425,-0.1367 0.0124,-0.046 0.0266,-0.093 0.0366,-0.1391 0.0106,-0.044 0.0189,-0.09 0.0278,-0.1354 0.009,-0.049 0.0195,-0.099 0.0266,-0.1499 0.006,-0.048 0.008,-0.097 0.0148,-0.145 0.006,-0.043 0.006,-0.087 0.0106,-0.1294 0.006,-0.051 0.006,-0.1003 0.006,-0.1512 0,-0.051 3.6e-4,-0.1015 -0.006,-0.1523 0,-0.042 -0.006,-0.084 -0.0106,-0.127 -0.006,-0.05 -0.008,-0.099 -0.0148,-0.1487 -0.007,-0.048 -0.016,-0.098 -0.0254,-0.1463 -0.008,-0.046 -0.0171,-0.092 -0.0278,-0.1378 -0.0106,-0.046 -0.0242,-0.09 -0.0366,-0.1353 -0.0136,-0.048 -0.0272,-0.097 -0.0437,-0.1439 -0.016,-0.047 -0.0343,-0.094 -0.052,-0.1403 -0.0165,-0.042 -0.0325,-0.082 -0.0508,-0.1238 -0.0213,-0.048 -0.0455,-0.095 -0.0693,-0.1426 -0.0154,-0.03 -0.0284,-0.061 -0.0449,-0.09 -0.006,-0.012 -0.0148,-0.022 -0.0219,-0.035 -0.0213,-0.037 -0.0437,-0.074 -0.0669,-0.1102 -0.0307,-0.05 -0.0604,-0.098 -0.0935,-0.144 -0.0124,-0.017 -0.026,-0.032 -0.039,-0.05 -0.0473,-0.064 -0.0963,-0.127 -0.14781,-0.1861 -0.23486,-0.2686 -0.5104,-0.4846 -0.81071,-0.6433 L 25.36084,18.1669 c -0.24485,-0.1482 -0.51104,-0.26 -0.79569,-0.3265 0,-6e-4 -0.007,-6e-4 -0.007,0 -0.0652,-0.015 -0.1318,-0.027 -0.19861,-0.037 -0.0313,0 -0.0622,-0.012 -0.0935,-0.015 -0.0449,-0.012 -0.0919,-0.012 -0.13741,-0.012 -0.0514,0 -0.10223,-0.012 -0.15361,-0.012 -0.0124,0 -0.0254,0 -0.0366,0 z" />
  </g>
</svg>
