<?xml version="1.0" encoding="UTF-8" standalone="no"?>
<svg
   xmlns:dc="http://purl.org/dc/elements/1.1/"
   xmlns:cc="http://creativecommons.org/ns#"
   xmlns:rdf="http://www.w3.org/1999/02/22-rdf-syntax-ns#"
   xmlns:svg="http://www.w3.org/2000/svg"
   xmlns="http://www.w3.org/2000/svg"
   xmlns:xlink="http://www.w3.org/1999/xlink"
   xmlns:sodipodi="http://sodipodi.sourceforge.net/DTD/sodipodi-0.dtd"
   xmlns:inkscape="http://www.inkscape.org/namespaces/inkscape"
   width="64"
   height="64"
   viewBox="0 0 64 64"
   version="1.1"
   id="svg6374"
   inkscape:version="1.0.2 (e86c870879, 2021-01-15)"
   sodipodi:docname="application-x-java.svg">
  <defs
     id="defs6368">
    <linearGradient
       inkscape:collect="always"
       xlink:href="#linearGradient2194"
       id="linearGradient2176"
       x1="334.70322"
       y1="107.41542"
       x2="334.70322"
       y2="163.41542"
       gradientUnits="userSpaceOnUse"
       gradientTransform="translate(-302.70322,-103.41541)" />
    <linearGradient
       inkscape:collect="always"
       id="linearGradient2194">
      <stop
         style="stop-color:#fc7303;stop-opacity:1"
         offset="0"
         id="stop2190" />
      <stop
         style="stop-color:#ea6a01;stop-opacity:1"
         offset="1"
         id="stop2192" />
    </linearGradient>
  </defs>
  <sodipodi:namedview
     id="base"
     pagecolor="#cecece"
     bordercolor="#666666"
     borderopacity="1.0"
     inkscape:pageopacity="0"
     inkscape:pageshadow="2"
     inkscape:zoom="1.5340798"
     inkscape:cx="32.673374"
     inkscape:cy="72.435551"
     inkscape:document-units="px"
     inkscape:current-layer="layer1"
     inkscape:document-rotation="0"
     showgrid="false"
     units="px"
     inkscape:window-width="1024"
     inkscape:window-height="1080"
     inkscape:window-x="68"
     inkscape:window-y="56"
     inkscape:window-maximized="0" />
  <metadata
     id="metadata6371">
    <rdf:RDF>
      <cc:Work
         rdf:about="">
        <dc:format>image/svg+xml</dc:format>
        <dc:type
           rdf:resource="http://purl.org/dc/dcmitype/StillImage" />
        <dc:title></dc:title>
      </cc:Work>
    </rdf:RDF>
  </metadata>
  <g
     inkscape:label="Layer 1"
     inkscape:groupmode="layer"
     id="layer1">
    <rect
       style="opacity:0.45;fill:#0c0c0c;fill-opacity:1;stroke-width:0.495;stroke-linecap:round;stroke-linejoin:round;stroke-miterlimit:4;stroke-dasharray:none;stroke-dashoffset:2.1875"
       id="rect954-6-3-2-2-6-4-52"
       width="44"
       height="56"
       x="10"
       y="5.5000057"
       rx="3"
       ry="3" />
    <path
       id="rect954-60-6-7-3-1-91-5"
       style="color:#000000;font-style:normal;font-variant:normal;font-weight:normal;font-stretch:normal;font-size:medium;line-height:normal;font-family:sans-serif;font-variant-ligatures:normal;font-variant-position:normal;font-variant-caps:normal;font-variant-numeric:normal;font-variant-alternates:normal;font-variant-east-asian:normal;font-feature-settings:normal;font-variation-settings:normal;text-indent:0;text-align:start;text-decoration:none;text-decoration-line:none;text-decoration-style:solid;text-decoration-color:#000000;letter-spacing:normal;word-spacing:normal;text-transform:none;writing-mode:lr-tb;direction:ltr;text-orientation:mixed;dominant-baseline:auto;baseline-shift:baseline;text-anchor:start;white-space:normal;shape-padding:0;shape-margin:0;inline-size:0;clip-rule:nonzero;display:inline;overflow:visible;visibility:visible;isolation:auto;mix-blend-mode:normal;color-interpolation:sRGB;color-interpolation-filters:linearRGB;solid-color:#000000;solid-opacity:1;vector-effect:none;fill:#ea6a01;fill-opacity:1;fill-rule:nonzero;stroke:none;stroke-linecap:round;stroke-linejoin:round;stroke-miterlimit:4;stroke-dasharray:none;stroke-dashoffset:2.1875;stroke-opacity:1;color-rendering:auto;image-rendering:auto;shape-rendering:auto;text-rendering:auto;enable-background:accumulate;stop-color:#000000"
       d="M 13,3.5 C 11.0696,3.5 9.5,5.06965 9.5,7 v 49.999998 c 0,1.93035 1.5696,3.5 3.5,3.5 h 38 c 1.9304,0 3.5,-1.56965 3.5,-3.5 V 7 C 54.5,5.06965 52.9304,3.5 51,3.5 Z m 0,1 h 38 c 1.3936,0 2.5,1.10635 2.5,2.5 v 49.999998 c 0,1.39365 -1.1064,2.5 -2.5,2.5 H 13 c -1.3936,0 -2.5,-1.10635 -2.5,-2.5 V 7 c 0,-1.39365 1.1064,-2.5 2.5,-2.5 z" />
    <rect
       style="fill:url(#linearGradient2176);fill-opacity:1;stroke-width:0.495;stroke-linecap:round;stroke-linejoin:round;stroke-miterlimit:4;stroke-dasharray:none;stroke-dashoffset:2.1875"
       id="rect954-7-0-7-3-0-4"
       width="44"
       height="56"
       x="10"
       y="4.0000057"
       rx="3"
       ry="3" />
    <path
       id="rect1065-6-5"
       style="opacity:0.25;fill:#8f3900;fill-opacity:1;stroke:none;stroke-width:0.452632;stroke-linejoin:round"
       d="m 35.1475,19.749998 c 1.31878,5.24205 -4.64874,6.82492 -6.80295,10.08979 -1.46765,2.22416 0.71998,4.61398 3.70098,7.32867 -1.16263,-2.65187 -5.10493,-4.97312 0.002,-9.04387 6.36849,-5.07466 3.1,-8.37459 3.1,-8.37459 z m 3.94097,6.48466 c 0,0 -10.76913,2.7145 -5.62568,8.69637 1.51734,1.76324 -0.39853,3.35032 -0.39853,3.35032 0,0 3.85265,-2.00761 2.08324,-4.52145 -1.65256,-2.34431 -2.91966,-3.50918 3.94097,-7.52524 z m 2.06783,10.6887 c -0.42446,-0.0205 -0.88169,0.0431 -1.3527,0.21015 -0.331,0.11862 -0.50454,0.39265 -0.50454,0.39265 0,0 0.20831,-0.0849 0.67513,-0.18298 1.90465,-0.40075 4.63344,2.57386 -1.26835,5.66929 -0.0273,0.0736 -0.11903,0.15636 -0.11903,0.15628 6.89687,-1.83 5.54064,-6.10179 2.56949,-6.24539 z m -13.05077,0.29898 c -0.72485,0.0145 -2.51584,0.16518 -4.60647,1.1852 -3.22882,1.57642 7.98669,2.29345 13.79241,0.75228 0.60359,-0.41599 1.43798,-0.77655 1.43798,-0.77655 0,0 -2.37582,0.42804 -4.74188,0.62949 -2.89509,0.24484 -6.00329,0.29272 -7.56242,0.082 -3.69259,-0.49771 2.02446,-1.86856 2.02446,-1.86856 0,0 -0.0347,-0.002 -0.10073,-0.004 -0.0578,-10e-4 -0.1398,-0.002 -0.24335,0 z m -0.98645,3.6056 c -5.3283,1.78498 2.96456,3.80929 10.40996,1.61182 -0.7914,-0.28164 -1.29485,-0.79693 -1.29485,-0.79693 -3.63876,0.70722 -5.74151,0.68496 -8.40431,0.40769 -2.05911,-0.21497 -0.7108,-1.22258 -0.7108,-1.22258 z m 0.75273,3.47602 c -4.83679,1.36411 2.94168,4.1825 9.09968,1.51864 -1.00861,-0.39588 -1.73049,-0.85323 -1.73049,-0.85323 -2.74698,0.52476 -4.02112,0.56609 -6.51383,0.27907 -2.05758,-0.23876 -0.85536,-0.94448 -0.85536,-0.94448 z m -3.35931,2.30441 c -2.17216,0.0676 -6.42028,2.03965 -2.53575,2.67521 12.55545,2.05514 22.88732,-0.92555 19.6306,-2.40827 0,0 0.88958,0.74002 -0.9797,1.31236 -3.55448,1.08684 -14.79416,1.41492 -17.91649,0.0432 -1.12239,-0.49284 0.98214,-1.17711 1.64424,-1.32062 0.69049,-0.15113 1.08523,-0.12279 1.08523,-0.12279 -0.19503,-0.13868 -0.52588,-0.1916 -0.92813,-0.17909 z M 43.6,48.491978 c 0,0 -0.39635,1.02541 -4.68212,1.83994 -4.83518,0.91841 -10.79848,0.81137 -14.33551,0.22277 8e-5,-9e-5 0.72423,0.60448 4.44744,0.84547 5.66498,0.36601 14.36416,-0.20265 14.57019,-2.90818 z" />
    <path
       id="rect1065-6"
       style="fill:#fcfcfc;fill-opacity:1;stroke:none;stroke-width:0.452632;stroke-linejoin:round"
       d="m 35.1475,18.749998 c 1.31878,5.24205 -4.64874,6.82492 -6.80295,10.08979 -1.46765,2.22416 0.71998,4.61398 3.70098,7.32867 -1.16263,-2.65187 -5.10493,-4.97312 0.002,-9.04387 6.36849,-5.07466 3.1,-8.37459 3.1,-8.37459 z m 3.94097,6.48466 c 0,0 -10.76913,2.7145 -5.62568,8.69637 1.51734,1.76324 -0.39853,3.35032 -0.39853,3.35032 0,0 3.85265,-2.00761 2.08324,-4.52145 -1.65256,-2.34431 -2.91966,-3.50918 3.94097,-7.52524 z m 2.06783,10.6887 c -0.42446,-0.0205 -0.88169,0.0431 -1.3527,0.21015 -0.331,0.11862 -0.50454,0.39265 -0.50454,0.39265 0,0 0.20831,-0.0849 0.67513,-0.18298 1.90465,-0.40075 4.63344,2.57386 -1.26835,5.66929 -0.0273,0.0736 -0.11903,0.15636 -0.11903,0.15628 6.89687,-1.83 5.54064,-6.10179 2.56949,-6.24539 z m -13.05077,0.29898 c -0.72485,0.0145 -2.51584,0.16518 -4.60647,1.1852 -3.22882,1.57642 7.98669,2.29345 13.79241,0.75228 0.60359,-0.41599 1.43798,-0.77655 1.43798,-0.77655 0,0 -2.37582,0.42804 -4.74188,0.62949 -2.89509,0.24484 -6.00329,0.29272 -7.56242,0.082 -3.69259,-0.49771 2.02446,-1.86856 2.02446,-1.86856 0,0 -0.0347,-0.002 -0.10073,-0.004 -0.0578,-10e-4 -0.1398,-0.002 -0.24335,0 z m -0.98645,3.6056 c -5.3283,1.78498 2.96456,3.80929 10.40996,1.61182 -0.7914,-0.28164 -1.29485,-0.79693 -1.29485,-0.79693 -3.63876,0.70722 -5.74151,0.68496 -8.40431,0.40769 -2.05911,-0.21497 -0.7108,-1.22258 -0.7108,-1.22258 z m 0.75273,3.47602 c -4.83679,1.36411 2.94168,4.1825 9.09968,1.51864 -1.00861,-0.39588 -1.73049,-0.85323 -1.73049,-0.85323 -2.74698,0.52476 -4.02112,0.56609 -6.51383,0.27907 -2.05758,-0.23876 -0.85536,-0.94448 -0.85536,-0.94448 z m -3.35931,2.30441 c -2.17216,0.0676 -6.42028,2.03965 -2.53575,2.67521 12.55545,2.05514 22.88732,-0.92555 19.6306,-2.40827 0,0 0.88958,0.74002 -0.9797,1.31236 -3.55448,1.08684 -14.79416,1.41492 -17.91649,0.0432 -1.12239,-0.49284 0.98214,-1.17711 1.64424,-1.32062 0.69049,-0.15113 1.08523,-0.12279 1.08523,-0.12279 -0.19503,-0.13868 -0.52588,-0.1916 -0.92813,-0.17909 z M 43.6,47.491978 c 0,0 -0.39635,1.02541 -4.68212,1.83994 -4.83518,0.91841 -10.79848,0.81137 -14.33551,0.22277 8e-5,-9e-5 0.72423,0.60448 4.44744,0.84547 5.66498,0.36601 14.36416,-0.20265 14.57019,-2.90818 z" />
  </g>
</svg>
