<?xml version="1.0" encoding="UTF-8" standalone="no"?>
<svg
   xmlns:dc="http://purl.org/dc/elements/1.1/"
   xmlns:cc="http://creativecommons.org/ns#"
   xmlns:rdf="http://www.w3.org/1999/02/22-rdf-syntax-ns#"
   xmlns:svg="http://www.w3.org/2000/svg"
   xmlns="http://www.w3.org/2000/svg"
   xmlns:xlink="http://www.w3.org/1999/xlink"
   xmlns:sodipodi="http://sodipodi.sourceforge.net/DTD/sodipodi-0.dtd"
   xmlns:inkscape="http://www.inkscape.org/namespaces/inkscape"
   width="64"
   height="64"
   viewBox="0 0 64 64"
   version="1.1"
   id="svg6374"
   inkscape:version="1.0.2 (e86c870879, 2021-01-15)"
   sodipodi:docname="video-x-wmv.svg">
  <defs
     id="defs6368">
    <linearGradient
       inkscape:collect="always"
       xlink:href="#linearGradient940"
       id="linearGradient7379"
       x1="733.23187"
       y1="16.957952"
       x2="733.14349"
       y2="59.221127"
       gradientUnits="userSpaceOnUse"
       gradientTransform="translate(-700)" />
    <linearGradient
       inkscape:collect="always"
       id="linearGradient940">
      <stop
         style="stop-color:#5da6b6;stop-opacity:1"
         offset="0"
         id="stop936" />
      <stop
         style="stop-color:#478e9f;stop-opacity:1"
         offset="1"
         id="stop938" />
    </linearGradient>
  </defs>
  <sodipodi:namedview
     id="base"
     pagecolor="#cecece"
     bordercolor="#666666"
     borderopacity="1.0"
     inkscape:pageopacity="0"
     inkscape:pageshadow="2"
     inkscape:zoom="4.7373963"
     inkscape:cx="14.513545"
     inkscape:cy="31.677071"
     inkscape:document-units="px"
     inkscape:current-layer="layer1"
     inkscape:document-rotation="0"
     showgrid="false"
     units="px"
     inkscape:window-width="1500"
     inkscape:window-height="970"
     inkscape:window-x="68"
     inkscape:window-y="56"
     inkscape:window-maximized="0" />
  <metadata
     id="metadata6371">
    <rdf:RDF>
      <cc:Work
         rdf:about="">
        <dc:format>image/svg+xml</dc:format>
        <dc:type
           rdf:resource="http://purl.org/dc/dcmitype/StillImage" />
        <dc:title></dc:title>
      </cc:Work>
    </rdf:RDF>
  </metadata>
  <g
     inkscape:label="Layer 1"
     inkscape:groupmode="layer"
     id="layer1">
    <rect
       style="opacity:0.45;fill:#0c0c0c;fill-opacity:1;stroke:none;stroke-width:0;stroke-linecap:round;stroke-linejoin:round;stroke-miterlimit:4;stroke-dasharray:none;stroke-dashoffset:0;stroke-opacity:1"
       id="rect7326-4"
       width="54"
       height="42"
       x="5"
       y="18.5"
       rx="3"
       ry="3" />
    <path
       id="rect7326-2-7"
       style="color:#000000;font-style:normal;font-variant:normal;font-weight:normal;font-stretch:normal;font-size:medium;line-height:normal;font-family:sans-serif;font-variant-ligatures:normal;font-variant-position:normal;font-variant-caps:normal;font-variant-numeric:normal;font-variant-alternates:normal;font-variant-east-asian:normal;font-feature-settings:normal;font-variation-settings:normal;text-indent:0;text-align:start;text-decoration:none;text-decoration-line:none;text-decoration-style:solid;text-decoration-color:#000000;letter-spacing:normal;word-spacing:normal;text-transform:none;writing-mode:lr-tb;direction:ltr;text-orientation:mixed;dominant-baseline:auto;baseline-shift:baseline;text-anchor:start;white-space:normal;shape-padding:0;shape-margin:0;inline-size:0;clip-rule:nonzero;display:inline;overflow:visible;visibility:visible;isolation:auto;mix-blend-mode:normal;color-interpolation:sRGB;color-interpolation-filters:linearRGB;solid-color:#000000;solid-opacity:1;vector-effect:none;fill:#478e9f;fill-opacity:1;fill-rule:nonzero;stroke:none;stroke-linecap:round;stroke-linejoin:round;stroke-miterlimit:4;stroke-dasharray:none;stroke-dashoffset:0;stroke-opacity:1;color-rendering:auto;image-rendering:auto;shape-rendering:auto;text-rendering:auto;enable-background:accumulate;stop-color:#000000"
       d="m 8,16.5 c -1.93035,0 -3.5,1.569648 -3.5,3.5 v 36.000001 c 0,1.93035 1.56965,3.5 3.5,3.5 h 48 c 1.93035,0 3.5,-1.56965 3.5,-3.5 V 20 c 0,-1.930352 -1.56965,-3.5 -3.5,-3.5 z m 0,1 h 48 c 1.39365,0 2.5,1.106351 2.5,2.5 v 36.000001 c 0,1.39365 -1.10635,2.5 -2.5,2.5 H 8 c -1.39365,0 -2.5,-1.10635 -2.5,-2.5 V 20 c 0,-1.393649 1.10635,-2.5 2.5,-2.5 z" />
    <rect
       style="fill:url(#linearGradient7379);fill-opacity:1;stroke:none;stroke-width:0;stroke-linecap:round;stroke-linejoin:round;stroke-miterlimit:4;stroke-dasharray:none;stroke-dashoffset:0;stroke-opacity:1"
       id="rect7326"
       width="54"
       height="42"
       x="5"
       y="17"
       rx="3"
       ry="3" />
    <path
       id="rect1323-3-5-2"
       style="display:inline;opacity:0.125;fill:#0c0c0c;fill-opacity:1;stroke:none;stroke-width:1.0003;stroke-linecap:round;stroke-linejoin:round;stroke-miterlimit:4;stroke-dasharray:none;stroke-dashoffset:2.1875;stroke-opacity:1"
       d="m 25.17568,28 v 0.001 c -0.029,0 -0.057,0.004 -0.0861,0.005 -0.0375,0.001 -0.0748,0.002 -0.11237,0.005 -0.0465,0.0035 -0.0923,0.01025 -0.13778,0.0166 -0.029,0.004 -0.0589,0.0075 -0.088,0.0127 -0.0566,0.01 -0.11182,0.0232 -0.16705,0.0371 -0.016,0.004 -0.0315,0.0072 -0.047,0.0117 -0.0629,0.01725 -0.12493,0.03745 -0.18567,0.05957 -0.009,0.003 -0.018,0.0062 -0.0265,0.0097 -0.0658,0.0248 -0.13063,0.05276 -0.19347,0.08301 -0.005,0.002 -0.008,0.004 -0.0125,0.0059 -0.704,0.344135 -1.21102,1.020216 -1.3202,1.828074 -0.007,0.0146 -0.007,0.02935 -0.007,0.04395 -0.005,0.04435 -0.009,0.08874 -0.009,0.133787 -0.007,0.0399 -0.008,0.08027 -0.008,0.120116 -10e-5,0.0095 0,0.0179 0,0.02735 v 19.199652 0.0283 c 0,0.0404 0.008,0.0807 0.008,0.12109 0.005,0.044 0.005,0.0885 0.009,0.13183 0,0.0162 0.007,0.0317 0.007,0.0478 0.0774,0.56608 0.35018,1.06675 0.74953,1.43453 0.0577,0.0532 0.11798,0.10304 0.18077,0.15039 0.062,0.0468 0.12593,0.0912 0.19247,0.13182 0.0653,0.0399 0.13199,0.0767 0.20133,0.11035 0.0653,0.0317 0.13278,0.0611 0.20127,0.0869 0.009,0.003 0.018,0.007 0.0265,0.01 0.0595,0.0216 0.12013,0.0416 0.18171,0.0586 0.0195,0.005 0.0395,0.01 0.0596,0.0147 0.0521,0.013 0.10377,0.0247 0.1573,0.0342 0.0315,0.006 0.0638,0.0101 0.0958,0.0147 0.04,0.005 0.0802,0.0101 0.12117,0.0136 0.046,0.004 0.0923,0.006 0.1388,0.008 0.023,10e-4 0.046,0.003 0.0693,0.003 0.01,0 0.0205,-0.002 0.0305,-0.002 0.0485,-4e-4 0.0962,-0.004 0.14464,-0.007 0.031,-0.002 0.0632,-0.004 0.0938,-0.007 0.0365,-0.004 0.0729,-0.0108 0.10942,-0.0166 0.0501,-0.008 0.0996,-0.0155 0.14854,-0.0263 0,0 -2e-4,-10e-4 0.005,-10e-4 0.005,-5e-4 0.009,-0.002 0.009,-0.003 0.23811,-0.0539 0.4614,-0.14322 0.66648,-0.26171 l 0.0125,-0.008 16.47633,-9.506562 c 0,-5e-4 0.006,-4.55e-4 0.006,-10e-4 0.31905,-0.156095 0.60369,-0.386989 0.83258,-0.680646 0.0115,-0.01485 0.024,-0.02975 0.035,-0.0449 0.0305,-0.0409 0.0589,-0.08366 0.087,-0.126952 0.0155,-0.0241 0.032,-0.04865 0.047,-0.07324 0.007,-0.01135 0.0155,-0.0207 0.0225,-0.0322 0.014,-0.0243 0.024,-0.04965 0.037,-0.07422 0.021,-0.03935 0.0415,-0.07879 0.0606,-0.119136 0.013,-0.02865 0.0245,-0.05801 0.037,-0.08691 0.017,-0.0414 0.035,-0.08275 0.05,-0.124996 0.013,-0.03685 0.025,-0.0732 0.036,-0.110347 0.0105,-0.03705 0.0225,-0.07475 0.031,-0.112302 0.009,-0.03635 0.016,-0.07283 0.0235,-0.109372 0.008,-0.04055 0.0165,-0.08015 0.0225,-0.121092 0.005,-0.0391 0.007,-0.07809 0.0125,-0.117181 0.005,-0.0346 0.005,-0.06969 0.009,-0.104492 0.005,-0.04075 0.005,-0.08142 0.005,-0.122067 0,-0.0411 3e-4,-0.08185 -0.005,-0.123042 0,-0.03425 -0.005,-0.06844 -0.009,-0.102537 -0.005,-0.0401 -0.007,-0.08006 -0.0125,-0.120111 -0.006,-0.0395 -0.0135,-0.07901 -0.0215,-0.118162 -0.007,-0.0374 -0.0145,-0.07408 -0.0235,-0.111327 -0.009,-0.0368 -0.0205,-0.07308 -0.031,-0.109372 -0.0115,-0.039 -0.023,-0.07756 -0.037,-0.116206 -0.0135,-0.03795 -0.029,-0.07598 -0.044,-0.113277 -0.014,-0.0335 -0.0275,-0.06651 -0.043,-0.09961 -0.018,-0.0389 -0.0385,-0.07729 -0.0586,-0.115232 -0.013,-0.02445 -0.024,-0.0491 -0.038,-0.07324 -0.005,-0.01005 -0.0125,-0.01835 -0.0185,-0.0283 -0.018,-0.03 -0.037,-0.05962 -0.0566,-0.08887 -0.026,-0.03945 -0.0511,-0.07881 -0.0791,-0.116207 -0.0105,-0.0139 -0.022,-0.02635 -0.033,-0.04005 -0.04,-0.05176 -0.0815,-0.102688 -0.12507,-0.150386 -0.19873,-0.216999 -0.43188,-0.391394 -0.68599,-0.519516 L 26.38242,28.32337 C 26.17524,28.203683 25.95,28.113446 25.70914,28.059702 c 0,-5e-4 -0.006,-4.5e-4 -0.006,-0.001 -0.0552,-0.0122 -0.11152,-0.02185 -0.16805,-0.03025 -0.0265,-0.004 -0.0526,-0.0087 -0.0791,-0.0117 -0.038,-0.0045 -0.0778,-0.0063 -0.11627,-0.0088 -0.0435,-0.003 -0.0865,-0.0063 -0.12998,-0.0069 -0.0105,0 -0.0215,-0.001 -0.031,-0.001 z" />
    <path
       id="rect1323-3-5"
       style="display:inline;fill:#fcfcfa;fill-opacity:1;stroke:none;stroke-width:1.0003;stroke-linecap:round;stroke-linejoin:round;stroke-miterlimit:4;stroke-dasharray:none;stroke-dashoffset:2.1875;stroke-opacity:1"
       d="m 24.67568,26 v 0.001 c -0.029,0 -0.057,0.004 -0.0861,0.005 -0.0375,0.001 -0.0748,0.002 -0.11237,0.005 -0.0465,0.0035 -0.0923,0.01025 -0.13778,0.0166 -0.029,0.004 -0.0589,0.0075 -0.088,0.0127 -0.0566,0.01 -0.11182,0.0232 -0.16705,0.0371 -0.016,0.004 -0.0315,0.0072 -0.047,0.0117 -0.0629,0.01725 -0.12493,0.03745 -0.18567,0.05957 -0.009,0.003 -0.018,0.0062 -0.0265,0.0097 -0.0658,0.0248 -0.13063,0.05276 -0.19347,0.08301 -0.005,0.002 -0.008,0.004 -0.0125,0.0059 -0.704,0.344135 -1.21102,1.020216 -1.3202,1.828074 -0.007,0.0146 -0.007,0.02935 -0.007,0.04395 -0.005,0.04435 -0.009,0.08874 -0.009,0.133787 -0.007,0.0399 -0.008,0.08027 -0.008,0.120116 -10e-5,0.0095 0,0.0179 0,0.02735 v 19.199652 0.0283 c 0,0.0404 0.008,0.0807 0.008,0.12109 0.005,0.044 0.005,0.0885 0.009,0.13183 0,0.0162 0.007,0.0317 0.007,0.0478 0.0774,0.56608 0.35018,1.06675 0.74953,1.43453 0.0577,0.0532 0.11798,0.10304 0.18077,0.15039 0.062,0.0468 0.12593,0.0912 0.19247,0.13182 0.0653,0.0399 0.13199,0.0767 0.20133,0.11035 0.0653,0.0317 0.13278,0.0611 0.20127,0.0869 0.009,0.003 0.018,0.007 0.0265,0.01 0.0595,0.0216 0.12013,0.0416 0.18171,0.0586 0.0195,0.005 0.0395,0.01 0.0596,0.0147 0.0521,0.013 0.10377,0.0247 0.1573,0.0342 0.0315,0.006 0.0638,0.0101 0.0958,0.0147 0.04,0.005 0.0802,0.0101 0.12117,0.0136 0.046,0.004 0.0923,0.006 0.1388,0.008 0.023,10e-4 0.046,0.003 0.0693,0.003 0.01,0 0.0205,-0.002 0.0305,-0.002 0.0485,-4e-4 0.0962,-0.004 0.14464,-0.007 0.031,-0.002 0.0632,-0.004 0.0938,-0.007 0.0365,-0.004 0.0729,-0.0108 0.10942,-0.0166 0.0501,-0.008 0.0996,-0.0155 0.14854,-0.0263 0,0 -2e-4,-10e-4 0.005,-10e-4 0.005,-5e-4 0.009,-0.002 0.009,-0.003 0.23811,-0.0539 0.4614,-0.14322 0.66648,-0.26171 l 0.0125,-0.008 16.47633,-9.506562 c 0,-5e-4 0.006,-4.55e-4 0.006,-10e-4 0.31905,-0.156095 0.60369,-0.386989 0.83258,-0.680646 0.0115,-0.01485 0.024,-0.02975 0.035,-0.0449 0.0305,-0.0409 0.0589,-0.08366 0.087,-0.126952 0.0155,-0.0241 0.032,-0.04865 0.047,-0.07324 0.007,-0.01135 0.0155,-0.0207 0.0225,-0.0322 0.014,-0.0243 0.024,-0.04965 0.037,-0.07422 0.021,-0.03935 0.0415,-0.07879 0.0606,-0.119136 0.013,-0.02865 0.0245,-0.05801 0.037,-0.08691 0.017,-0.0414 0.035,-0.08275 0.05,-0.124996 0.013,-0.03685 0.025,-0.0732 0.036,-0.110347 0.0105,-0.03705 0.0225,-0.07475 0.031,-0.112302 0.009,-0.03635 0.016,-0.07283 0.0235,-0.109372 0.008,-0.04055 0.0165,-0.08015 0.0225,-0.121092 0.005,-0.0391 0.007,-0.07809 0.0125,-0.117181 0.005,-0.0346 0.005,-0.06969 0.009,-0.104492 0.005,-0.04075 0.005,-0.08142 0.005,-0.122067 0,-0.0411 3e-4,-0.08185 -0.005,-0.123042 0,-0.03425 -0.005,-0.06844 -0.009,-0.102537 -0.005,-0.0401 -0.007,-0.08006 -0.0125,-0.120111 -0.006,-0.0395 -0.0135,-0.07901 -0.0215,-0.118162 -0.007,-0.0374 -0.0145,-0.07408 -0.0235,-0.111327 -0.009,-0.0368 -0.0205,-0.07308 -0.031,-0.109372 -0.0115,-0.039 -0.023,-0.07756 -0.037,-0.116206 -0.0135,-0.03795 -0.029,-0.07598 -0.044,-0.113277 -0.014,-0.0335 -0.0275,-0.06651 -0.043,-0.09961 -0.018,-0.0389 -0.0385,-0.07729 -0.0586,-0.115232 -0.013,-0.02445 -0.024,-0.0491 -0.038,-0.07324 -0.005,-0.01005 -0.0125,-0.01835 -0.0185,-0.0283 -0.018,-0.03 -0.037,-0.05962 -0.0566,-0.08887 -0.026,-0.03945 -0.0511,-0.07881 -0.0791,-0.116207 -0.0105,-0.0139 -0.022,-0.02635 -0.033,-0.04005 -0.04,-0.05176 -0.0815,-0.102688 -0.12507,-0.150386 -0.19873,-0.216999 -0.43188,-0.391394 -0.68599,-0.519516 L 25.88242,26.32337 C 25.67524,26.203683 25.45,26.113446 25.20914,26.059702 c 0,-5e-4 -0.006,-4.5e-4 -0.006,-0.001 -0.0552,-0.0122 -0.11152,-0.02185 -0.16805,-0.03025 -0.0265,-0.004 -0.0526,-0.0087 -0.0791,-0.0117 -0.038,-0.0045 -0.0778,-0.0063 -0.11627,-0.0088 -0.0435,-0.003 -0.0865,-0.0063 -0.12998,-0.0069 -0.0105,0 -0.0215,-0.001 -0.031,-0.001 z" />
  </g>
</svg>
