<?xml version="1.0" encoding="UTF-8" standalone="no"?>
<svg
   xmlns:dc="http://purl.org/dc/elements/1.1/"
   xmlns:cc="http://creativecommons.org/ns#"
   xmlns:rdf="http://www.w3.org/1999/02/22-rdf-syntax-ns#"
   xmlns:svg="http://www.w3.org/2000/svg"
   xmlns="http://www.w3.org/2000/svg"
   xmlns:sodipodi="http://sodipodi.sourceforge.net/DTD/sodipodi-0.dtd"
   xmlns:inkscape="http://www.inkscape.org/namespaces/inkscape"
   width="64"
   height="64"
   viewBox="0 0 16.933333 16.933334"
   version="1.1"
   id="svg841"
   inkscape:version="1.0.2 (e86c870879, 2021-01-15)"
   sodipodi:docname="emblem-flag-symbolic.svg">
  <defs
     id="defs835" />
  <sodipodi:namedview
     id="base"
     pagecolor="#c4c4c4"
     bordercolor="#666666"
     borderopacity="1.0"
     inkscape:pageopacity="0"
     inkscape:pageshadow="2"
     inkscape:zoom="2.8903394"
     inkscape:cx="46.372831"
     inkscape:cy="36.927888"
     inkscape:document-units="px"
     inkscape:current-layer="layer1"
     inkscape:document-rotation="0"
     showgrid="false"
     units="px"
     inkscape:window-width="2048"
     inkscape:window-height="1080"
     inkscape:window-x="0"
     inkscape:window-y="0"
     inkscape:window-maximized="1" />
  <metadata
     id="metadata838">
    <rdf:RDF>
      <cc:Work
         rdf:about="">
        <dc:format>image/svg+xml</dc:format>
        <dc:type
           rdf:resource="http://purl.org/dc/dcmitype/StillImage" />
        <dc:title></dc:title>
      </cc:Work>
    </rdf:RDF>
  </metadata>
  <g
     inkscape:label="Layer 1"
     inkscape:groupmode="layer"
     id="layer1">
    <path
       id="rect2557-1-6-3-7-3-7"
       style="fill:#808084;fill-opacity:1;stroke:none;stroke-width:0;stroke-dashoffset:2.1875"
       d="m 5.4901247,1.0583333 c -0.513027,0 -0.926042,0.413015 -0.926042,0.926042 V 14.948959 c 0,0.513027 0.413015,0.926041 0.926042,0.926041 0.513027,0 0.926042,-0.413014 0.926042,-0.926041 V 8.4397952 c 0.01587,-0.0037 0.03136,-0.007 0.04703,-0.01188 0.02894,-0.0087 0.05659,-0.01931 0.08371,-0.03101 0.0096,-0.0042 0.01982,-0.0064 0.02946,-0.01085 L 11.961051,5.8280723 h 0.0031 c 0.0035,-0.0027 0.0062,-0.0038 0.0098,-0.0052 l 0.03411,-0.01602 c 0.0046,-0.0027 0.0076,-0.0051 0.01188,-0.0072 0.03274,-0.0164 0.06396,-0.03408 0.09354,-0.05478 0.01095,-0.0077 0.02122,-0.01557 0.03152,-0.02377 0.02315,-0.01826 0.0448,-0.03741 0.06511,-0.05839 0.0122,-0.0127 0.0231,-0.02591 0.03411,-0.03927 0.0094,-0.01138 0.02058,-0.0209 0.02894,-0.03307 0.0041,-0.0061 0.0059,-0.01252 0.0098,-0.0186 0.01286,-0.01984 0.02344,-0.04054 0.03359,-0.0615 0.0076,-0.01561 0.0154,-0.03112 0.02119,-0.04703 0.0071,-0.01905 0.01117,-0.03835 0.01603,-0.05788 0.0046,-0.01905 0.0097,-0.03722 0.01188,-0.05633 0.0032,-0.01905 0.0036,-0.03774 0.0036,-0.05684 -3.2e-5,-0.01879 -5.3e-4,-0.0376 -0.0036,-0.05633 -0.0032,-0.01905 -0.0074,-0.03787 -0.01188,-0.05684 -0.0046,-0.01958 -0.009,-0.03885 -0.01603,-0.05788 -0.0058,-0.01587 -0.01347,-0.03103 -0.02119,-0.04651 -0.01029,-0.02143 -0.0213,-0.04259 -0.03462,-0.06305 -0.0035,-0.0056 -0.0053,-0.0115 -0.0093,-0.01705 -0.0071,-0.01032 -0.01659,-0.0185 -0.02429,-0.02842 -0.01318,-0.01667 -0.02756,-0.03253 -0.04289,-0.04806 -0.01834,-0.01852 -0.03798,-0.03533 -0.05839,-0.05168 -0.01156,-0.0093 -0.02278,-0.01825 -0.03514,-0.02687 -0.02862,-0.01984 -0.05783,-0.03787 -0.0894,-0.05374 -0.0051,-0.0027 -0.0094,-0.0059 -0.01447,-0.0083 l -0.03514,-0.01602 -0.0088,-0.0047 h -0.0031 L 6.5763667,2.1993493 c -0.0096,-0.0045 -0.01982,-0.0066 -0.02946,-0.01085 -0.02701,-0.01164 -0.05473,-0.02222 -0.08371,-0.03101 -0.01558,-0.0047 -0.03128,-0.0082 -0.04703,-0.01188 v -0.161231 c 0,-0.513027 -0.413015,-0.926042 -0.926042,-0.926042 z" />
  </g>
</svg>
