<?xml version="1.0" encoding="UTF-8" standalone="no"?>
<svg
   xmlns:dc="http://purl.org/dc/elements/1.1/"
   xmlns:cc="http://creativecommons.org/ns#"
   xmlns:rdf="http://www.w3.org/1999/02/22-rdf-syntax-ns#"
   xmlns:svg="http://www.w3.org/2000/svg"
   xmlns="http://www.w3.org/2000/svg"
   xmlns:sodipodi="http://sodipodi.sourceforge.net/DTD/sodipodi-0.dtd"
   xmlns:inkscape="http://www.inkscape.org/namespaces/inkscape"
   width="64"
   height="64"
   viewBox="0 0 16.933333 16.933334"
   version="1.1"
   id="svg841"
   inkscape:version="1.0.2 (e86c870879, 2021-01-15)"
   sodipodi:docname="document-open-recent-symbolic.svg">
  <defs
     id="defs835" />
  <sodipodi:namedview
     id="base"
     pagecolor="#c4c4c4"
     bordercolor="#666666"
     borderopacity="1.0"
     inkscape:pageopacity="0"
     inkscape:pageshadow="2"
     inkscape:zoom="5.3673315"
     inkscape:cx="42.862655"
     inkscape:cy="26.12157"
     inkscape:document-units="px"
     inkscape:current-layer="layer1"
     inkscape:document-rotation="0"
     showgrid="false"
     units="px"
     inkscape:window-width="2048"
     inkscape:window-height="1080"
     inkscape:window-x="0"
     inkscape:window-y="0"
     inkscape:window-maximized="1" />
  <metadata
     id="metadata838">
    <rdf:RDF>
      <cc:Work
         rdf:about="">
        <dc:format>image/svg+xml</dc:format>
        <dc:type
           rdf:resource="http://purl.org/dc/dcmitype/StillImage" />
        <dc:title></dc:title>
      </cc:Work>
    </rdf:RDF>
  </metadata>
  <g
     inkscape:label="Layer 1"
     inkscape:groupmode="layer"
     id="layer1">
    <path
       id="path1116-1-2-7"
       style="display:inline;opacity:0.25;fill:#808084;fill-opacity:1;stroke:none;stroke-width:0.128587;stroke-linecap:round;stroke-linejoin:round;stroke-miterlimit:4;stroke-dasharray:none;stroke-dashoffset:2.1875;stroke-opacity:1"
       d="m 8.466747,12.038567 a 3.1750009,2.1166668 0 0 0 -3.1750001,2.116667 h 3.1750001 3.175 a 3.1750009,2.1166668 0 0 0 -3.175,-2.116667 z" />
    <path
       id="path1116-1-2-7-7-3-5"
       style="display:inline;opacity:0.25;fill:#808084;fill-opacity:1;stroke:none;stroke-width:0.117383;stroke-linecap:round;stroke-linejoin:round;stroke-miterlimit:4;stroke-dasharray:none;stroke-dashoffset:2.1875;stroke-opacity:1"
       d="m 6.3500803,4.2995047 a 2.1166668,2.6458334 0 0 0 1.8520833,2.6251694 v 3.1563999 c 0,0.146579 0.1180042,0.264583 0.2645834,0.264583 0.1465791,0 0.2645833,-0.118004 0.2645833,-0.264583 V 6.9246741 A 2.1166668,2.6458334 0 0 0 10.583414,4.2995047 H 8.466747 Z" />
    <path
       id="rect2732-3-5"
       style="display:inline;fill:#808084;fill-opacity:1;stroke-width:0;stroke-linecap:round;stroke-linejoin:round;stroke-dashoffset:2.1875"
       d="M 3.4266725,0.46302249 C 3.2989581,0.46275789 3.1733868,0.49435439 3.061812,0.55655799 2.8251422,0.68900839 2.6785366,0.93923809 2.678907,1.2107799 2.6788806,4.0263436 3.6760423,6.6549949 5.4658163,8.1664272 5.5967586,8.2769702 5.7332571,8.3720376 5.8699144,8.465118 5.7329925,8.558278 5.5970761,8.6561022 5.4658163,8.7669097 3.6760423,10.278315 2.6788806,12.906475 2.678907,15.722041 c 0,0.271539 0.1462352,0.52234 0.382905,0.654738 0.1115219,0.06247 0.2370932,0.09364 0.3648605,0.09353 H 13.504599 c 0.119036,0 0.237834,-0.02962 0.343641,-0.08423 0.248179,-0.128322 0.40595,-0.384299 0.406188,-0.66404 0,-2.815564 -0.998696,-5.443699 -2.78847,-6.9551313 -0.131022,-0.1106223 -0.265959,-0.2084731 -0.402563,-0.3017917 0.136286,-0.093107 0.27178,-0.1882801 0.402563,-0.2986908 1.789774,-1.5114323 2.78847,-4.1400836 2.78847,-6.9556473 -2.6e-5,-0.27995361 -0.157824,-0.53560991 -0.406188,-0.66403861 -0.105807,-0.05461 -0.224605,-0.0837168 -0.343641,-0.0837168 z M 4.317551,1.9611224 h 8.3008 C 12.444493,4.0930291 11.683128,6.028787 10.50478,7.0238638 10.206277,7.2758768 9.9027998,7.4675991 9.5968358,7.6057381 a 0.06614966,0.06615902 0 0 0 -0.03929,0.060978 v -0.039274 l -0.083715,0.044961 -0.1214437,0.062529 C 9.236023,7.7967144 9.1747455,7.9191768 9.1777353,8.0434383 v 0.00159 c 0,0.010663 -0.00265,0.020876 0,0.031522 v 0.778764 c -0.00265,0.012726 2.117e-4,0.024977 0,0.037724 v 0.023257 h 0.00265 c 0.00609,0.11475 0.063844,0.224674 0.172085,0.282152 l 0.1214437,0.06253 0.1188508,0.06408 a 0.06614966,0.06615902 0 0 0 0.0037,0.0026 c 0.305991,0.138113 0.6094412,0.33043 0.9079712,0.582393 1.178322,0.9950707 1.939687,2.9307787 2.113544,5.0627387 H 4.3177098 C 4.4911442,12.840062 5.248514,10.90536 6.4271534,9.9100503 c 0.298106,-0.251777 0.602271,-0.444201 0.9079442,-0.582393 a 0.06614966,0.06615902 0 0 0 0.0037,-0.0026 l 0.1188509,-0.06201 0.1214437,-0.0646 c 0.1083998,-0.0576 0.1672432,-0.167532 0.1736461,-0.282152 h 0.00265 v -0.013441 c 0,-0.017753 0.00265,-0.034941 0,-0.05271 V 8.0827475 C 7.775232,7.9454076 7.7095095,7.8036941 7.5802076,7.7349659 L 7.4587638,7.6703679 7.339913,7.6078415 a 0.06614966,0.06615902 0 0 0 -0.0037,-0.00265 C 7.0305357,7.4669509 6.7263707,7.2750698 6.4282646,7.0233187 5.2497311,6.0280885 4.4923348,4.0936192 4.318821,1.961096 Z" />
  </g>
</svg>
