<?xml version="1.0" encoding="UTF-8" standalone="no"?>
<svg
   xmlns:dc="http://purl.org/dc/elements/1.1/"
   xmlns:cc="http://creativecommons.org/ns#"
   xmlns:rdf="http://www.w3.org/1999/02/22-rdf-syntax-ns#"
   xmlns:svg="http://www.w3.org/2000/svg"
   xmlns="http://www.w3.org/2000/svg"
   xmlns:xlink="http://www.w3.org/1999/xlink"
   xmlns:sodipodi="http://sodipodi.sourceforge.net/DTD/sodipodi-0.dtd"
   xmlns:inkscape="http://www.inkscape.org/namespaces/inkscape"
   width="64"
   height="64"
   viewBox="0 0 16.933333 16.933334"
   version="1.1"
   id="svg841"
   inkscape:version="1.0.2 (e86c870879, 2021-01-15)"
   sodipodi:docname="calendar-go-today.svg">
  <defs
     id="defs835">
    <linearGradient
       inkscape:collect="always"
       xlink:href="#linearGradient1338-8"
       id="linearGradient1374"
       gradientUnits="userSpaceOnUse"
       x1="8.2020836"
       y1="1.3229167"
       x2="8.2029152"
       y2="5.0272117" />
    <linearGradient
       inkscape:collect="always"
       id="linearGradient1338-8">
      <stop
         style="stop-color:#fdfdfa;stop-opacity:0.44999999"
         offset="0"
         id="stop1334-9" />
      <stop
         style="stop-color:#fdfdfa;stop-opacity:0;"
         offset="1"
         id="stop1336-0" />
    </linearGradient>
  </defs>
  <sodipodi:namedview
     id="base"
     pagecolor="#c4c4c4"
     bordercolor="#666666"
     borderopacity="1.0"
     inkscape:pageopacity="0"
     inkscape:pageshadow="2"
     inkscape:zoom="8.1487271"
     inkscape:cx="23.88914"
     inkscape:cy="29.991234"
     inkscape:document-units="px"
     inkscape:current-layer="layer1"
     inkscape:document-rotation="0"
     showgrid="false"
     units="px"
     inkscape:window-width="2048"
     inkscape:window-height="1080"
     inkscape:window-x="0"
     inkscape:window-y="0"
     inkscape:window-maximized="1" />
  <metadata
     id="metadata838">
    <rdf:RDF>
      <cc:Work
         rdf:about="">
        <dc:format>image/svg+xml</dc:format>
        <dc:type
           rdf:resource="http://purl.org/dc/dcmitype/StillImage" />
        <dc:title />
      </cc:Work>
    </rdf:RDF>
  </metadata>
  <g
     inkscape:label="Layer 1"
     inkscape:groupmode="layer"
     id="layer1">
    <path
       id="rect848-6-3-6-7-0-9-3-9-1-6-6-7-9-6"
       style="color:#000000;font-style:normal;font-variant:normal;font-weight:normal;font-stretch:normal;font-size:medium;line-height:normal;font-family:sans-serif;font-variant-ligatures:normal;font-variant-position:normal;font-variant-caps:normal;font-variant-numeric:normal;font-variant-alternates:normal;font-variant-east-asian:normal;font-feature-settings:normal;font-variation-settings:normal;text-indent:0;text-align:start;text-decoration:none;text-decoration-line:none;text-decoration-style:solid;text-decoration-color:#000000;letter-spacing:normal;word-spacing:normal;text-transform:none;writing-mode:lr-tb;direction:ltr;text-orientation:mixed;dominant-baseline:auto;baseline-shift:baseline;text-anchor:start;white-space:normal;shape-padding:0;shape-margin:0;inline-size:0;clip-rule:nonzero;display:inline;overflow:visible;visibility:visible;opacity:0.25;isolation:auto;mix-blend-mode:normal;color-interpolation:sRGB;color-interpolation-filters:linearRGB;solid-color:#000000;solid-opacity:1;vector-effect:none;fill:#0c0c0c;fill-opacity:1;fill-rule:nonzero;stroke:none;stroke-width:0;stroke-linecap:round;stroke-linejoin:round;stroke-miterlimit:4;stroke-dasharray:none;stroke-dashoffset:2.1875;stroke-opacity:1;paint-order:normal;color-rendering:auto;image-rendering:auto;shape-rendering:auto;text-rendering:auto;enable-background:accumulate;stop-color:#000000"
       d="M 1.3224008,5.1594015 A 0.26460982,0.26463435 0 0 0 1.0583333,5.4234821 v 8.9966539 c 0,1.021583 0.830088,1.851739 1.8515674,1.851739 H 14.023436 c 1.021476,0 1.851564,-0.830156 1.851564,-1.851739 V 5.4234821 A 0.26460982,0.26463435 0 0 0 15.609385,5.1594015 Z M 1.5880186,5.6891238 H 15.345836 v 8.7310122 c 0,0.737553 -0.58493,1.32252 -1.3224,1.322546 H 2.9099007 c -0.737473,0 -1.3218821,-0.584993 -1.3218821,-1.322546 z" />
    <path
       id="rect848-6-3-7-5-6-0-6-5-4-1-7-4-2-1"
       style="color:#000000;font-style:normal;font-variant:normal;font-weight:normal;font-stretch:normal;font-size:medium;line-height:normal;font-family:sans-serif;font-variant-ligatures:normal;font-variant-position:normal;font-variant-caps:normal;font-variant-numeric:normal;font-variant-alternates:normal;font-variant-east-asian:normal;font-feature-settings:normal;font-variation-settings:normal;text-indent:0;text-align:start;text-decoration:none;text-decoration-line:none;text-decoration-style:solid;text-decoration-color:#000000;letter-spacing:normal;word-spacing:normal;text-transform:none;writing-mode:lr-tb;direction:ltr;text-orientation:mixed;dominant-baseline:auto;baseline-shift:baseline;text-anchor:start;white-space:normal;shape-padding:0;shape-margin:0;inline-size:0;clip-rule:nonzero;display:inline;overflow:visible;visibility:visible;isolation:auto;mix-blend-mode:normal;color-interpolation:sRGB;color-interpolation-filters:linearRGB;solid-color:#000000;solid-opacity:1;vector-effect:none;fill:#0a5243;fill-opacity:1;fill-rule:nonzero;stroke:none;stroke-width:0.999897;stroke-linecap:round;stroke-linejoin:round;stroke-miterlimit:4;stroke-dasharray:none;stroke-dashoffset:2.1875;stroke-opacity:1;color-rendering:auto;image-rendering:auto;shape-rendering:auto;text-rendering:auto;enable-background:accumulate;stop-color:#000000"
       d="m 2.9099642,1.0583333 c -1.0215112,0 -1.8516283,0.8319558 -1.8516283,1.8531946 v 2.114603 A 0.26461898,0.26454505 0 0 0 1.3239618,5.2916667 H 15.611438 a 0.26461898,0.26454505 0 0 0 0.26356,-0.2655358 v -2.114603 c 0,-1.0212388 -0.830117,-1.8531946 -1.851631,-1.8531946 z m 0,0.5295635 H 14.023367 c 0.737499,0 1.322445,0.5863432 1.322445,1.3236311 V 4.7626323 H 1.5875212 V 2.9115279 c 0,-0.7372879 0.5849462,-1.3236311 1.322443,-1.3236311 z" />
    <path
       id="rect848-6-3-6-7-0-9-2-0-4-8-4-1-293"
       style="color:#000000;font-style:normal;font-variant:normal;font-weight:normal;font-stretch:normal;font-size:medium;line-height:normal;font-family:sans-serif;font-variant-ligatures:normal;font-variant-position:normal;font-variant-caps:normal;font-variant-numeric:normal;font-variant-alternates:normal;font-variant-east-asian:normal;font-feature-settings:normal;font-variation-settings:normal;text-indent:0;text-align:start;text-decoration:none;text-decoration-line:none;text-decoration-style:solid;text-decoration-color:#000000;letter-spacing:normal;word-spacing:normal;text-transform:none;writing-mode:lr-tb;direction:ltr;text-orientation:mixed;dominant-baseline:auto;baseline-shift:baseline;text-anchor:start;white-space:normal;shape-padding:0;shape-margin:0;inline-size:0;clip-rule:nonzero;display:inline;overflow:visible;visibility:visible;isolation:auto;mix-blend-mode:normal;color-interpolation:sRGB;color-interpolation-filters:linearRGB;solid-color:#000000;solid-opacity:1;vector-effect:none;fill:#393941;fill-opacity:1;fill-rule:nonzero;stroke:none;stroke-width:1.00005;stroke-linecap:round;stroke-linejoin:round;stroke-miterlimit:4;stroke-dasharray:none;stroke-dashoffset:2.1875;stroke-opacity:1;paint-order:normal;color-rendering:auto;image-rendering:auto;shape-rendering:auto;text-rendering:auto;enable-background:accumulate;stop-color:#000000"
       d="M 1.3224008,4.7625265 A 0.26460982,0.26463435 0 0 0 1.0583333,5.0266071 v 8.9966539 c 0,1.021583 0.830088,1.851739 1.8515674,1.851739 H 14.023436 c 1.021476,0 1.851564,-0.830156 1.851564,-1.851739 V 5.0266071 A 0.26460982,0.26463435 0 0 0 15.609385,4.7625265 Z M 1.5880186,5.2922488 H 15.345836 v 8.7310122 c 0,0.737552 -0.58493,1.322546 -1.3224,1.322546 H 2.9099007 c -0.737473,0 -1.3218821,-0.584994 -1.3218821,-1.322546 z" />
    <path
       id="rect848-6-3-6-4-22-2-9-3-7-19"
       style="fill:#fdfbfc;fill-opacity:1;stroke-width:1.19063;stroke-linecap:round;stroke-linejoin:round;stroke-dashoffset:2.1875"
       d="m 1.3229167,5.0270834 v 8.9958336 c 0,0.879475 0.708025,1.5875 1.5874999,1.5875 H 14.022917 c 0.879475,0 1.5875,-0.708025 1.5875,-1.5875 V 5.0270834 Z" />
    <path
       id="rect848-6-3-7-5-6-0-5-5-2-3-6-6-4"
       style="color:#000000;font-style:normal;font-variant:normal;font-weight:normal;font-stretch:normal;font-size:medium;line-height:normal;font-family:sans-serif;font-variant-ligatures:normal;font-variant-position:normal;font-variant-caps:normal;font-variant-numeric:normal;font-variant-alternates:normal;font-variant-east-asian:normal;font-feature-settings:normal;font-variation-settings:normal;text-indent:0;text-align:start;text-decoration:none;text-decoration-line:none;text-decoration-style:solid;text-decoration-color:#000000;letter-spacing:normal;word-spacing:normal;text-transform:none;writing-mode:lr-tb;direction:ltr;text-orientation:mixed;dominant-baseline:auto;baseline-shift:baseline;text-anchor:start;white-space:normal;shape-padding:0;shape-margin:0;inline-size:0;clip-rule:nonzero;display:inline;overflow:visible;visibility:visible;opacity:0.2;isolation:auto;mix-blend-mode:normal;color-interpolation:sRGB;color-interpolation-filters:linearRGB;solid-color:#000000;solid-opacity:1;vector-effect:none;fill:#0a5c4a;fill-opacity:1;fill-rule:nonzero;stroke:none;stroke-width:0.999897;stroke-linecap:round;stroke-linejoin:round;stroke-miterlimit:4;stroke-dasharray:none;stroke-dashoffset:2.1875;stroke-opacity:1;color-rendering:auto;image-rendering:auto;shape-rendering:auto;text-rendering:auto;enable-background:accumulate;stop-color:#000000"
       d="m 2.9099642,1.0583333 c -1.0215112,0 -1.8516283,0.8319558 -1.8516283,1.8531946 v 2.114603 A 0.26461898,0.26454505 0 0 0 1.3239618,5.2916667 H 15.611438 a 0.26461898,0.26454505 0 0 0 0.26356,-0.2655358 v -2.114603 c 0,-1.0212388 -0.830117,-1.8531946 -1.851631,-1.8531946 z m 0,0.5295635 H 14.023367 c 0.737499,0 1.322445,0.5863432 1.322445,1.3236311 V 4.7626323 H 1.5875212 V 2.9115279 c 0,-0.7372879 0.5849462,-1.3236311 1.322443,-1.3236311 z" />
    <path
       id="rect848-6-3-7-5-9-29-8-7-8-0-78"
       style="fill:#13a584;fill-opacity:1;stroke-width:1.19063;stroke-linecap:round;stroke-linejoin:round;stroke-dashoffset:2.1875"
       d="m 2.9104166,1.3229166 c -0.8794749,0 -1.5874999,0.708025 -1.5874999,1.5875 V 5.0270834 H 15.610417 V 2.9104166 c 0,-0.879475 -0.708025,-1.5875 -1.5875,-1.5875 z" />
    <path
       id="rect848-6-3-7-5-6-8-9-4-0-8-3-8-6-4"
       style="fill:url(#linearGradient1374);fill-opacity:1;stroke-width:1.19063;stroke-linecap:round;stroke-linejoin:round;stroke-dashoffset:2.1875"
       d="m 2.9104166,1.3229166 c -0.879475,0 -1.5875,0.708025 -1.5875,1.5875 V 5.0270834 H 1.5874999 V 2.9104166 c 0,-0.7328958 0.5900209,-1.3229167 1.3229167,-1.3229167 H 14.022917 c 0.732896,0 1.322917,0.5900209 1.322917,1.3229167 v 2.1166668 h 0.264583 V 2.9104166 c 0,-0.879475 -0.708025,-1.5875 -1.5875,-1.5875 z" />
    <rect
       style="fill:#0a5243;fill-opacity:1;stroke:none;stroke-width:0.529167;stroke-linecap:round;stroke-linejoin:round;stroke-miterlimit:4;stroke-dasharray:none;stroke-dashoffset:2.1875;stroke-opacity:1;paint-order:normal"
       id="rect1239-6-2-8-2-4-2-5"
       width="14.2875"
       height="0.26458335"
       x="1.3229167"
       y="4.7624679" />
    <path
       id="rect1580-4-0-6-3-3"
       style="fill:#43434c;fill-opacity:1;stroke:none;stroke-width:0.529167;stroke-linecap:round;stroke-linejoin:round;stroke-miterlimit:4;stroke-dasharray:none;stroke-dashoffset:2.1875;stroke-opacity:1;paint-order:normal"
       d="m 2.910414,6.3500001 c -0.1465712,0 -0.2645807,0.1180041 -0.2645807,0.2645833 v 7.4083336 c 0,0.146579 0.1180095,0.264583 0.2645807,0.264583 h 11.1125 c 0.146579,0 0.264589,-0.118004 0.264589,-0.264583 V 6.6145834 c 0,-0.1465792 -0.11801,-0.2645833 -0.264589,-0.2645833 z m 0.2645886,0.396875 h 3.0871505 c 0.0733,0 0.1322917,0.058999 0.1322917,0.1322916 v 1.8520832 c 0,0.07329 -0.059002,0.132292 -0.1322917,0.132292 H 3.1750026 c -0.0733,0 -0.132289,-0.059 -0.132289,-0.132292 V 6.8791667 c 0,-0.07329 0.058999,-0.1322916 0.132289,-0.1322916 z m 3.7480903,0 h 3.0871501 c 0.0733,0 0.132289,0.058999 0.132289,0.1322916 v 1.8520832 c 0,0.07329 -0.059,0.132292 -0.132289,0.132292 H 6.9230929 c -0.0733,0 -0.1322891,-0.059 -0.1322891,-0.132292 V 6.8791667 c 0,-0.07329 0.059,-0.1322916 0.1322891,-0.1322916 z m 3.7480901,0 h 3.087151 c 0.0733,0 0.132291,0.058999 0.132291,0.1322916 v 1.8520832 c 0,0.07329 -0.059,0.132292 -0.132291,0.132292 h -3.087151 c -0.0733,0 -0.132289,-0.059 -0.132289,-0.132292 V 6.8791667 c 0,-0.07329 0.059,-0.1322916 0.132289,-0.1322916 z M 3.1750026,9.2604169 h 3.0871505 c 0.0733,0 0.1322917,0.059 0.1322917,0.132292 v 1.8520831 c 0,0.07329 -0.059002,0.132292 -0.1322917,0.132292 H 3.1750026 c -0.0733,0 -0.132289,-0.059 -0.132289,-0.132292 V 9.3927089 c 0,-0.07329 0.058999,-0.132292 0.132289,-0.132292 z m 3.7480903,0 h 3.0871501 c 0.0733,0 0.132292,0.059 0.132292,0.132292 v 1.8520831 c 0,0.07329 -0.059,0.132292 -0.132292,0.132292 H 6.9230929 c -0.0733,0 -0.1322891,-0.059 -0.1322891,-0.132292 V 9.3927089 c 0,-0.07329 0.059,-0.132292 0.1322891,-0.132292 z m 3.7480901,0 h 3.087151 c 0.0733,0 0.132291,0.059 0.132291,0.132292 v 1.8520831 c 0,0.07329 -0.059,0.132292 -0.132291,0.132292 h -3.087151 c -0.0733,0 -0.132289,-0.059 -0.132289,-0.132292 V 9.3927089 c 0,-0.07329 0.059,-0.132292 0.132289,-0.132292 z M 3.1750026,11.773959 h 3.0871505 c 0.0733,0 0.1322917,0.059 0.1322917,0.132291 v 1.852084 c 0,0.07329 -0.059002,0.132291 -0.1322917,0.132291 H 3.1750026 c -0.0733,0 -0.132289,-0.059 -0.132289,-0.132291 V 11.90625 c 0,-0.07329 0.058999,-0.132291 0.132289,-0.132291 z m 3.7480903,0 h 3.0871501 c 0.0733,0 0.132292,0.059 0.132292,0.132291 v 1.852084 c 0,0.07329 -0.059,0.132291 -0.132292,0.132291 H 6.9230929 c -0.0733,0 -0.1322891,-0.059 -0.1322891,-0.132291 V 11.90625 c 0,-0.07329 0.059,-0.132291 0.1322891,-0.132291 z m 3.7480901,0 h 3.087151 c 0.0733,0 0.132291,0.059 0.132291,0.132291 v 1.852084 c 0,0.07329 -0.059,0.132291 -0.132291,0.132291 h -3.087151 c -0.0733,0 -0.132289,-0.059 -0.132289,-0.132291 V 11.90625 c 0,-0.07329 0.059,-0.132291 0.132289,-0.132291 z" />
    <path
       id="rect848-6-3-6-7-0-9-2-0-4-8-4-1-3-6"
       style="color:#000000;font-style:normal;font-variant:normal;font-weight:normal;font-stretch:normal;font-size:medium;line-height:normal;font-family:sans-serif;font-variant-ligatures:normal;font-variant-position:normal;font-variant-caps:normal;font-variant-numeric:normal;font-variant-alternates:normal;font-variant-east-asian:normal;font-feature-settings:normal;font-variation-settings:normal;text-indent:0;text-align:start;text-decoration:none;text-decoration-line:none;text-decoration-style:solid;text-decoration-color:#000000;letter-spacing:normal;word-spacing:normal;text-transform:none;writing-mode:lr-tb;direction:ltr;text-orientation:mixed;dominant-baseline:auto;baseline-shift:baseline;text-anchor:start;white-space:normal;shape-padding:0;shape-margin:0;inline-size:0;clip-rule:nonzero;display:inline;overflow:visible;visibility:visible;opacity:0.2;isolation:auto;mix-blend-mode:normal;color-interpolation:sRGB;color-interpolation-filters:linearRGB;solid-color:#000000;solid-opacity:1;vector-effect:none;fill:#43434c;fill-opacity:1;fill-rule:nonzero;stroke:none;stroke-width:1.00005;stroke-linecap:round;stroke-linejoin:round;stroke-miterlimit:4;stroke-dasharray:none;stroke-dashoffset:2.1875;stroke-opacity:1;paint-order:normal;color-rendering:auto;image-rendering:auto;shape-rendering:auto;text-rendering:auto;enable-background:accumulate;stop-color:#000000"
       d="M 1.3224008,4.7625027 A 0.26460982,0.26463435 0 0 0 1.0583333,5.0265833 v 8.9966537 c 0,1.021583 0.830088,1.85174 1.8515674,1.85174 H 14.023436 c 1.021476,0 1.851564,-0.830157 1.851564,-1.85174 V 5.0265833 A 0.26460982,0.26463435 0 0 0 15.609385,4.7625027 Z M 1.5880186,5.292225 H 15.345836 v 8.731012 c 0,0.737553 -0.58493,1.322546 -1.3224,1.322546 H 2.9099007 c -0.7374731,0 -1.3218821,-0.584993 -1.3218821,-1.322546 z" />
    <rect
       style="opacity:1;fill:#13a584;fill-opacity:1;stroke:none;stroke-width:0.529167;stroke-linecap:round;stroke-linejoin:round;stroke-miterlimit:4;stroke-dasharray:none;stroke-dashoffset:2.1875;stroke-opacity:1;paint-order:normal"
       id="rect1342-8-9-1-6-4-5-1-8-8-33-9-8-6-6-3-6-2-6"
       width="3.3514771"
       height="2.1166668"
       x="6.7910609"
       y="9.260417"
       rx="0.13229167"
       ry="0.13229167" />
    <path
       id="rect1342-8-7-7-1-8-1-9"
       style="fill:#0f8066;fill-opacity:1;stroke:none;stroke-width:0.529167;stroke-linecap:round;stroke-linejoin:round;stroke-miterlimit:4;stroke-dasharray:none;stroke-dashoffset:2.1875;stroke-opacity:1;paint-order:normal"
       d="m 6.6587695,8.8635418 c -0.146579,0 -0.264584,0.118004 -0.264584,0.264584 v 2.3812512 c 0,0.146578 0.118005,0.264582 0.264584,0.264582 h 3.6158015 c 0.146579,0 0.264584,-0.118004 0.264584,-0.264582 V 9.1281258 c 0,-0.14658 -0.118005,-0.264584 -0.264584,-0.264584 z m 0.264583,0.396875 h 3.0866355 c 0.07329,0 0.132292,0.059 0.132292,0.132292 v 1.8520842 c 0,0.07329 -0.059,0.132292 -0.132292,0.132292 H 6.9233525 c -0.07329,0 -0.132292,-0.059 -0.132292,-0.132292 V 9.3927088 c 0,-0.07329 0.059,-0.132292 0.132292,-0.132292 z" />
  </g>
</svg>
