<?xml version="1.0" encoding="UTF-8" standalone="no"?>
<svg
   xmlns:dc="http://purl.org/dc/elements/1.1/"
   xmlns:cc="http://creativecommons.org/ns#"
   xmlns:rdf="http://www.w3.org/1999/02/22-rdf-syntax-ns#"
   xmlns:svg="http://www.w3.org/2000/svg"
   xmlns="http://www.w3.org/2000/svg"
   xmlns:xlink="http://www.w3.org/1999/xlink"
   xmlns:sodipodi="http://sodipodi.sourceforge.net/DTD/sodipodi-0.dtd"
   xmlns:inkscape="http://www.inkscape.org/namespaces/inkscape"
   width="64"
   height="64"
   viewBox="0 0 64 64"
   version="1.1"
   id="svg6374"
   inkscape:version="1.0.2 (e86c870879, 2021-01-15)"
   sodipodi:docname="document-print-preview.svg">
  <defs
     id="defs6368">
    <linearGradient
       inkscape:collect="always"
       xlink:href="#linearGradient840"
       id="linearGradient892"
       gradientUnits="userSpaceOnUse"
       gradientTransform="matrix(0.53035872,-0.53035485,0.53035872,0.53035485,12.1535,12.46634)"
       x1="-18.586054"
       y1="35.771"
       x2="21.414059"
       y2="35.771" />
    <linearGradient
       inkscape:collect="always"
       id="linearGradient840">
      <stop
         style="stop-color:#f5f5fa;stop-opacity:0.45098037"
         offset="0"
         id="stop838" />
      <stop
         style="stop-color:#c1c1cb;stop-opacity:0.45098037"
         offset="1"
         id="stop836" />
    </linearGradient>
    <linearGradient
       inkscape:collect="always"
       xlink:href="#linearGradient1323-6"
       id="linearGradient1737"
       x1="680.10419"
       y1="-49.900558"
       x2="723.22919"
       y2="-49.900558"
       gradientUnits="userSpaceOnUse"
       gradientTransform="translate(-661.66669,84.713066)" />
    <linearGradient
       inkscape:collect="always"
       id="linearGradient1323-6">
      <stop
         style="stop-color:#aaa2aa;stop-opacity:1"
         offset="0"
         id="stop1319-5" />
      <stop
         style="stop-color:#958e95;stop-opacity:1"
         offset="1"
         id="stop1321-6" />
    </linearGradient>
  </defs>
  <sodipodi:namedview
     id="base"
     pagecolor="#cecece"
     bordercolor="#666666"
     borderopacity="1.0"
     inkscape:pageopacity="0"
     inkscape:pageshadow="2"
     inkscape:zoom="3.4872062"
     inkscape:cx="7.4669648"
     inkscape:cy="77.794134"
     inkscape:document-units="px"
     inkscape:current-layer="layer1"
     inkscape:document-rotation="0"
     showgrid="false"
     units="px"
     inkscape:window-width="1500"
     inkscape:window-height="970"
     inkscape:window-x="68"
     inkscape:window-y="56"
     inkscape:window-maximized="0" />
  <metadata
     id="metadata6371">
    <rdf:RDF>
      <cc:Work
         rdf:about="">
        <dc:format>image/svg+xml</dc:format>
        <dc:type
           rdf:resource="http://purl.org/dc/dcmitype/StillImage" />
        <dc:title />
      </cc:Work>
    </rdf:RDF>
  </metadata>
  <g
     inkscape:label="Layer 1"
     inkscape:groupmode="layer"
     id="layer1">
    <path
       id="rect954-7-0-7-3-0-0-0-6-2-3-3"
       style="color:#000000;font-style:normal;font-variant:normal;font-weight:normal;font-stretch:normal;font-size:medium;line-height:normal;font-family:sans-serif;font-variant-ligatures:normal;font-variant-position:normal;font-variant-caps:normal;font-variant-numeric:normal;font-variant-alternates:normal;font-variant-east-asian:normal;font-feature-settings:normal;font-variation-settings:normal;text-indent:0;text-align:start;text-decoration:none;text-decoration-line:none;text-decoration-style:solid;text-decoration-color:#000000;letter-spacing:normal;word-spacing:normal;text-transform:none;writing-mode:lr-tb;direction:ltr;text-orientation:mixed;dominant-baseline:auto;baseline-shift:baseline;text-anchor:start;white-space:normal;shape-padding:0;shape-margin:0;inline-size:0;clip-rule:nonzero;display:inline;overflow:visible;visibility:visible;opacity:0.85;isolation:auto;mix-blend-mode:normal;color-interpolation:sRGB;color-interpolation-filters:linearRGB;solid-color:#000000;solid-opacity:1;vector-effect:none;fill:#2a2a2c;fill-opacity:1;fill-rule:nonzero;stroke:none;stroke-linecap:round;stroke-linejoin:round;stroke-miterlimit:4;stroke-dasharray:none;stroke-dashoffset:2.1875;stroke-opacity:1;color-rendering:auto;image-rendering:auto;shape-rendering:auto;text-rendering:auto;enable-background:accumulate;stop-color:#000000"
       d="M 6,2.5 C 3.533,2.5 1.5,4.53295 1.5,7 v 49.99999 c 0,2.46706 2.033,4.5 4.5,4.5 h 38 c 2.467,0 4.5,-2.03294 4.5,-4.5 V 7 C 48.5,4.53295 46.467,2.5 44,2.5 Z m 0,3 h 38 c 0.8569,0 1.5,0.64306 1.5,1.5 v 49.99999 c 0,0.85695 -0.6431,1.5 -1.5,1.5 H 6 c -0.8569,0 -1.5,-0.64305 -1.5,-1.5 V 7 C 4.5,6.14306 5.1431,5.5 6,5.5 Z" />
    <rect
       style="fill:#fcfcfc;fill-opacity:1;stroke-width:0.495;stroke-linecap:round;stroke-linejoin:round;stroke-miterlimit:4;stroke-dasharray:none;stroke-dashoffset:2.1875"
       id="rect954-7-0-7-3-0-0-8-6-6"
       width="44"
       height="56"
       x="2.9999969"
       y="4.000061"
       rx="3"
       ry="3" />
    <path
       id="path4505-7"
       style="opacity:0.85;fill:url(#linearGradient892);fill-opacity:1;stroke:none;stroke-width:2.9678;stroke-linecap:round;stroke-linejoin:round;stroke-miterlimit:4;stroke-dasharray:none;stroke-opacity:1;paint-order:stroke fill markers"
       d="m 31.9402,15.68764 a 15.000851,15.000741 0 0 0 -10.67198,4.39327 15.000851,15.000741 0 0 0 0,21.2134 15.000851,15.000741 0 0 0 21.21357,0 15.000851,15.000741 0 0 0 0,-21.2134 15.000851,15.000741 0 0 0 -10.54159,-4.39327 z" />
    <path
       id="path2165-5-1-6-2"
       style="color:#000000;font-style:normal;font-variant:normal;font-weight:normal;font-stretch:normal;font-size:medium;line-height:normal;font-family:sans-serif;font-variant-ligatures:normal;font-variant-position:normal;font-variant-caps:normal;font-variant-numeric:normal;font-variant-alternates:normal;font-variant-east-asian:normal;font-feature-settings:normal;font-variation-settings:normal;text-indent:0;text-align:start;text-decoration:none;text-decoration-line:none;text-decoration-style:solid;text-decoration-color:#000000;letter-spacing:normal;word-spacing:normal;text-transform:none;writing-mode:lr-tb;direction:ltr;text-orientation:mixed;dominant-baseline:auto;baseline-shift:baseline;text-anchor:start;white-space:normal;shape-padding:0;shape-margin:0;inline-size:0;clip-rule:nonzero;display:inline;overflow:visible;visibility:visible;opacity:0.25;isolation:auto;mix-blend-mode:normal;color-interpolation:sRGB;color-interpolation-filters:linearRGB;solid-color:#000000;solid-opacity:1;vector-effect:none;fill:#0c0c0c;fill-opacity:1;fill-rule:nonzero;stroke:none;stroke-width:0.750165;stroke-linecap:round;stroke-linejoin:round;stroke-miterlimit:4;stroke-dasharray:none;stroke-dashoffset:2.1875;stroke-opacity:1;color-rendering:auto;image-rendering:auto;shape-rendering:auto;text-rendering:auto;enable-background:accumulate;stop-color:#000000"
       d="m 35.11,13.625 c -4.61443,0 -9.22846,1.75148 -12.73106,5.25398 -7.00529,7.00493 -7.00521,18.45621 0,25.46115 6.02168,6.02145 15.30574,6.82784 22.25335,2.49366 l 10.2373,10.23837 c 1.5704,1.57045 4.13212,1.57045 5.70254,0 1.5705,-1.57035 1.5705,-4.13195 0,-5.70231 L 50.33481,41.13147 C 54.66916,34.18414 53.86275,24.90043 47.84105,18.87898 44.33843,15.37647 39.72444,13.625 35.11,13.625 Z m 0,1.49444 c 4.22837,0 8.45641,1.60656 11.67026,4.8203 5.6682,5.66799 6.32937,14.49613 2.00437,20.90604 a 0.75025372,0.750225 0 0 0 0.0923,0.94941 l 10.63436,10.63543 c 1.00108,1.00097 1.00108,2.57981 0,3.58079 -1.001,1.00103 -2.57845,1.00103 -3.57946,0 L 45.29599,45.37598 a 0.75025372,0.750225 0 0 0 -0.95091,-0.0908 C 37.93493,49.61 29.10791,48.94739 23.43972,43.27941 c -6.42766,-6.4274 -6.42773,-16.91223 0,-23.33963 3.21383,-3.21374 7.44187,-4.8203 11.67025,-4.8203 z m 0,3.72731 c -3.26074,0 -6.52161,1.24833 -9.01827,3.74489 -4.9933,4.99311 -4.99321,13.04279 0,18.03583 4.9934,4.99318 13.04324,4.9931 18.03653,0 4.99331,-4.9931 4.99331,-13.04273 0,-18.03583 C 41.6316,20.09508 38.37075,18.84675 35.11,18.84675 Z m 0,1.48711 c 2.87213,0 5.74451,1.10566 7.95746,3.31853 4.42592,4.42576 4.42592,11.48857 0,15.91432 -4.42593,4.42576 -11.48892,4.42583 -15.91492,0 -4.42584,-4.42566 -4.42592,-11.48857 0,-15.91432 2.21296,-2.21287 5.08533,-3.31853 7.95746,-3.31853 z" />
    <path
       id="path2165-5-1"
       style="color:#000000;font-style:normal;font-variant:normal;font-weight:normal;font-stretch:normal;font-size:medium;line-height:normal;font-family:sans-serif;font-variant-ligatures:normal;font-variant-position:normal;font-variant-caps:normal;font-variant-numeric:normal;font-variant-alternates:normal;font-variant-east-asian:normal;font-feature-settings:normal;font-variation-settings:normal;text-indent:0;text-align:start;text-decoration:none;text-decoration-line:none;text-decoration-style:solid;text-decoration-color:#000000;letter-spacing:normal;word-spacing:normal;text-transform:none;writing-mode:lr-tb;direction:ltr;text-orientation:mixed;dominant-baseline:auto;baseline-shift:baseline;text-anchor:start;white-space:normal;shape-padding:0;shape-margin:0;inline-size:0;clip-rule:nonzero;display:inline;overflow:visible;visibility:visible;isolation:auto;mix-blend-mode:normal;color-interpolation:sRGB;color-interpolation-filters:linearRGB;solid-color:#000000;solid-opacity:1;vector-effect:none;fill:url(#linearGradient1737);fill-opacity:1;fill-rule:nonzero;stroke:none;stroke-width:0.75003;stroke-linecap:round;stroke-linejoin:round;stroke-miterlimit:4;stroke-dasharray:none;stroke-dashoffset:2.1875;stroke-opacity:1;color-rendering:auto;image-rendering:auto;shape-rendering:auto;text-rendering:auto;enable-background:accumulate;stop-color:#000000"
       d="m 23.47365,18.28618 c -6.71491,6.71482 -6.71483,17.68144 0,24.39626 5.92152,5.92152 15.14843,6.61792 21.85119,2.09552 l 10.63301,10.63293 c 1.28541,1.28549 3.35513,1.28549 4.64053,0 1.28548,-1.28541 1.28548,-3.35512 0,-4.64053 l -10.63293,-10.633 c 4.5224,-6.70275 3.826,-15.92967 -2.09552,-21.85118 -6.71491,-6.7149 -17.68145,-6.7149 -24.39628,0 z m 3.71244,3.71244 c 4.7085,-4.70849 12.26284,-4.70849 16.97133,0 4.70847,4.70848 4.70847,12.26282 0,16.97131 -4.7085,4.70848 -12.26275,4.70856 -16.97133,0 -4.70841,-4.70841 -4.70849,-12.26283 0,-16.97131 z" />
    <path
       id="path2165-5-1-6"
       style="color:#000000;font-style:normal;font-variant:normal;font-weight:normal;font-stretch:normal;font-size:medium;line-height:normal;font-family:sans-serif;font-variant-ligatures:normal;font-variant-position:normal;font-variant-caps:normal;font-variant-numeric:normal;font-variant-alternates:normal;font-variant-east-asian:normal;font-feature-settings:normal;font-variation-settings:normal;text-indent:0;text-align:start;text-decoration:none;text-decoration-line:none;text-decoration-style:solid;text-decoration-color:#000000;letter-spacing:normal;word-spacing:normal;text-transform:none;writing-mode:lr-tb;direction:ltr;text-orientation:mixed;dominant-baseline:auto;baseline-shift:baseline;text-anchor:start;white-space:normal;shape-padding:0;shape-margin:0;inline-size:0;clip-rule:nonzero;display:inline;overflow:visible;visibility:visible;opacity:0.85;isolation:auto;mix-blend-mode:normal;color-interpolation:sRGB;color-interpolation-filters:linearRGB;solid-color:#000000;solid-opacity:1;vector-effect:none;fill:#454045;fill-opacity:1;fill-rule:nonzero;stroke:none;stroke-width:0.750165;stroke-linecap:round;stroke-linejoin:round;stroke-miterlimit:4;stroke-dasharray:none;stroke-dashoffset:2.1875;stroke-opacity:1;color-rendering:auto;image-rendering:auto;shape-rendering:auto;text-rendering:auto;enable-background:accumulate;stop-color:#000000"
       d="m 35.86,12.5 c -4.61443,0 -9.22846,1.75148 -12.73106,5.25398 -7.00529,7.00493 -7.00521,18.45621 0,25.46115 6.02168,6.02145 15.30574,6.82784 22.25335,2.49366 l 10.2373,10.23837 c 1.5704,1.57045 4.13212,1.57045 5.70254,0 1.5705,-1.57035 1.5705,-4.13195 0,-5.70231 L 51.08481,40.00647 C 55.41916,33.05914 54.61275,23.77543 48.59105,17.75398 45.08843,14.25147 40.47444,12.5 35.86,12.5 Z m 0,1.49444 c 4.22837,0 8.45641,1.60656 11.67026,4.8203 5.6682,5.66799 6.32937,14.49613 2.00437,20.90604 a 0.75025372,0.750225 0 0 0 0.0923,0.94941 l 10.63436,10.63543 c 1.00108,1.00097 1.00108,2.57981 0,3.58079 -1.001,1.00103 -2.57845,1.00103 -3.57946,0 L 46.04599,44.25098 a 0.75025372,0.750225 0 0 0 -0.95091,-0.0908 c -6.41015,4.32482 -15.23717,3.66221 -20.90536,-2.00577 -6.42766,-6.4274 -6.42773,-16.91223 0,-23.33963 3.21383,-3.21374 7.44187,-4.8203 11.67025,-4.8203 z m 0,3.72731 c -3.26074,0 -6.52161,1.24833 -9.01827,3.74489 -4.9933,4.99311 -4.99321,13.04279 0,18.03583 4.9934,4.99318 13.04324,4.9931 18.03653,0 4.99331,-4.9931 4.99331,-13.04273 0,-18.03583 C 42.3816,18.97008 39.12075,17.72175 35.86,17.72175 Z m 0,1.48711 c 2.87213,0 5.74451,1.10566 7.95746,3.31853 4.42592,4.42576 4.42592,11.48857 0,15.91432 -4.42593,4.42576 -11.48892,4.42583 -15.91492,0 -4.42584,-4.42566 -4.42592,-11.48857 0,-15.91432 2.21296,-2.21287 5.08533,-3.31853 7.95746,-3.31853 z" />
  </g>
</svg>
