<?xml version="1.0" encoding="UTF-8" standalone="no"?>
<svg
   xmlns:dc="http://purl.org/dc/elements/1.1/"
   xmlns:cc="http://creativecommons.org/ns#"
   xmlns:rdf="http://www.w3.org/1999/02/22-rdf-syntax-ns#"
   xmlns:svg="http://www.w3.org/2000/svg"
   xmlns="http://www.w3.org/2000/svg"
   xmlns:xlink="http://www.w3.org/1999/xlink"
   xmlns:sodipodi="http://sodipodi.sourceforge.net/DTD/sodipodi-0.dtd"
   xmlns:inkscape="http://www.inkscape.org/namespaces/inkscape"
   width="64"
   height="64"
   viewBox="0 0 64 64"
   version="1.1"
   id="svg6374"
   inkscape:version="1.0.2 (e86c870879, 2021-01-15)"
   sodipodi:docname="insert-text.svg">
  <defs
     id="defs6368">
    <linearGradient
       inkscape:collect="always"
       xlink:href="#linearGradient1508"
       id="linearGradient1543"
       gradientUnits="userSpaceOnUse"
       gradientTransform="translate(-699.99999,-600)"
       x1="731.77112"
       y1="608.02588"
       x2="731.24408"
       y2="655.19653" />
    <linearGradient
       inkscape:collect="always"
       id="linearGradient1508">
      <stop
         style="stop-color:#b2aeb2;stop-opacity:1"
         offset="0"
         id="stop1504" />
      <stop
         style="stop-color:#9c969c;stop-opacity:1"
         offset="1"
         id="stop1506" />
    </linearGradient>
  </defs>
  <sodipodi:namedview
     id="base"
     pagecolor="#cecece"
     bordercolor="#666666"
     borderopacity="1.0"
     inkscape:pageopacity="0"
     inkscape:pageshadow="2"
     inkscape:zoom="6.7666484"
     inkscape:cx="23.360015"
     inkscape:cy="49.374867"
     inkscape:document-units="px"
     inkscape:current-layer="layer1"
     inkscape:document-rotation="0"
     showgrid="false"
     units="px"
     inkscape:window-width="1500"
     inkscape:window-height="970"
     inkscape:window-x="68"
     inkscape:window-y="56"
     inkscape:window-maximized="0" />
  <metadata
     id="metadata6371">
    <rdf:RDF>
      <cc:Work
         rdf:about="">
        <dc:format>image/svg+xml</dc:format>
        <dc:type
           rdf:resource="http://purl.org/dc/dcmitype/StillImage" />
        <dc:title />
      </cc:Work>
    </rdf:RDF>
  </metadata>
  <g
     inkscape:label="Layer 1"
     inkscape:groupmode="layer"
     id="layer1">
    <path
       id="rect1180-5-5-4-7-8-0"
       style="color:#000000;font-style:normal;font-variant:normal;font-weight:normal;font-stretch:normal;font-size:medium;line-height:normal;font-family:sans-serif;font-variant-ligatures:normal;font-variant-position:normal;font-variant-caps:normal;font-variant-numeric:normal;font-variant-alternates:normal;font-variant-east-asian:normal;font-feature-settings:normal;font-variation-settings:normal;text-indent:0;text-align:start;text-decoration:none;text-decoration-line:none;text-decoration-style:solid;text-decoration-color:#000000;letter-spacing:normal;word-spacing:normal;text-transform:none;writing-mode:lr-tb;direction:ltr;text-orientation:mixed;dominant-baseline:auto;baseline-shift:baseline;text-anchor:start;white-space:normal;shape-padding:0;shape-margin:0;inline-size:0;clip-rule:nonzero;display:inline;overflow:visible;visibility:visible;opacity:0.15;isolation:auto;mix-blend-mode:normal;color-interpolation:sRGB;color-interpolation-filters:linearRGB;solid-color:#000000;solid-opacity:1;vector-effect:none;fill:#0c0c0c;fill-opacity:1;fill-rule:nonzero;stroke:none;stroke-linecap:round;stroke-linejoin:round;stroke-miterlimit:4;stroke-dasharray:none;stroke-dashoffset:2.1875;stroke-opacity:1;color-rendering:auto;image-rendering:auto;shape-rendering:auto;text-rendering:auto;enable-background:accumulate;stop-color:#000000"
       d="m 13,8.5 c -1.09071,0 -2,0.9093 -2,2 v 5 7.5 c 0,1.09071 0.90929,2 2,2 h 3.5 c 1.0907,0 2,-0.90929 2,-2 v -2.75 c -5e-5,-1.52199 1.20657,-2.7381 2.72851,-2.75 H 26.5 v 30.75 c 4e-5,1.52199 -1.20657,2.73811 -2.72852,2.75 H 21 c -1.09071,0 -2,0.9093 -2,2 v 3.5 c 0,1.09071 0.90929,2 2,2 h 22 c 1.0907,0 2,-0.90929 2,-2 V 53 c 0,-1.0907 -0.9093,-2 -2,-2 H 40.22851 C 38.70657,50.9881 37.49995,49.77199 37.5,48.25 V 17.5 h 5.27148 c 1.52207,0.012 2.72856,1.22814 2.72852,2.75 V 23 c 0,1.09071 0.90929,2 2,2 H 51 c 1.0907,0 2,-0.90929 2,-2 v -7.5 -5 C 53,10.22673 52.9441,9.96215 52.8457,9.72657 52.74219,9.47873 52.59262,9.26444 52.41406,9.08594 52.05454,8.72632 51.54708,8.5 51,8.5 Z m 0,2 h 38 v 5 7.5 h -3.5 v -2.75 c 8e-5,-2.59726 -2.11563,-4.7295 -4.71289,-4.75 a 1.0001,1.0001 0 0 0 -0.008,0 h -6.27929 a 1.0001,1.0001 0 0 0 -1,1 v 31.75 c -8e-5,2.59737 2.1156,4.72971 4.71289,4.75 a 1.0001,1.0001 0 0 0 0.008,0 h 2.7793 v 3.5 h -22 V 53 h 2.77929 a 1.0001,1.0001 0 0 0 0.008,0 c 2.59728,-0.0203 4.71297,-2.15263 4.71289,-4.75 V 16.5 a 1.0001,1.0001 0 0 0 -1,-1 h -6.2793 a 1.0001,1.0001 0 0 0 -0.008,0 C 18.6156,15.5203 16.49992,17.65264 16.5,20.25 V 23 H 13 v -7.5 z" />
    <path
       id="rect1180-5-53-9-3"
       style="fill:url(#linearGradient1543);fill-opacity:1;stroke-width:5;stroke-dashoffset:2.1875"
       d="m 13,8 c -0.554,0 -1,0.446 -1,1 v 5 7.5 c 0,0.554 0.446,1 1,1 h 3.5 c 0.554,0 1,-0.446 1,-1 V 18.75 A 3.75,3.75 0 0 1 21.2207,15 H 27.5 V 46.75 A 3.75,3.75 0 0 1 23.7793,50.5 H 21 c -0.554,0 -1,0.446 -1,1 V 55 c 0,0.554 0.446,1 1,1 h 22 c 0.554,0 1,-0.446 1,-1 v -3.5 c 0,-0.554 -0.446,-1 -1,-1 H 40.2207 A 3.75,3.75 0 0 1 36.5,46.75 V 15 h 6.2793 A 3.7503024,3.75 0 0 1 46.5,18.75 v 2.75 c 0,0.554 0.446,1 1,1 H 51 c 0.554,0 1,-0.446 1,-1 V 14 9 C 52,8.8615 51.972,8.73105 51.922,8.61133 51.872,8.49161 51.7975,8.38334 51.7071,8.29297 51.5264,8.11222 51.2771,8 51.0001,8 Z" />
    <path
       id="rect1180-5-5-5-7-6"
       style="color:#000000;font-style:normal;font-variant:normal;font-weight:normal;font-stretch:normal;font-size:medium;line-height:normal;font-family:sans-serif;font-variant-ligatures:normal;font-variant-position:normal;font-variant-caps:normal;font-variant-numeric:normal;font-variant-alternates:normal;font-variant-east-asian:normal;font-feature-settings:normal;font-variation-settings:normal;text-indent:0;text-align:start;text-decoration:none;text-decoration-line:none;text-decoration-style:solid;text-decoration-color:#000000;letter-spacing:normal;word-spacing:normal;text-transform:none;writing-mode:lr-tb;direction:ltr;text-orientation:mixed;dominant-baseline:auto;baseline-shift:baseline;text-anchor:start;white-space:normal;shape-padding:0;shape-margin:0;inline-size:0;clip-rule:nonzero;display:inline;overflow:visible;visibility:visible;opacity:0.85;isolation:auto;mix-blend-mode:normal;color-interpolation:sRGB;color-interpolation-filters:linearRGB;solid-color:#000000;solid-opacity:1;vector-effect:none;fill:#444044;fill-opacity:1;fill-rule:nonzero;stroke:none;stroke-linecap:round;stroke-linejoin:round;stroke-miterlimit:4;stroke-dasharray:none;stroke-dashoffset:2.1875;stroke-opacity:1;color-rendering:auto;image-rendering:auto;shape-rendering:auto;text-rendering:auto;enable-background:accumulate;stop-color:#000000"
       d="m 13,7 c -1.09071,0 -2,0.9093 -2,2 v 5 7.5 c 0,1.09071 0.90929,2 2,2 h 3.5 c 1.0907,0 2,-0.90929 2,-2 v -2.75 c -5e-5,-1.52199 1.20657,-2.7381 2.72851,-2.75 H 26.5 v 30.75 c 4e-5,1.52199 -1.20657,2.73811 -2.72852,2.75 H 21 c -1.09071,0 -2,0.9093 -2,2 V 55 c 0,1.09071 0.90929,2 2,2 h 22 c 1.0907,0 2,-0.90929 2,-2 v -3.5 c 0,-1.0907 -0.9093,-2 -2,-2 H 40.22851 C 38.70657,49.4881 37.49995,48.27199 37.5,46.75 V 16 h 5.27148 c 1.52207,0.012 2.72856,1.22814 2.72852,2.75 v 2.75 c 0,1.09071 0.90929,2 2,2 H 51 c 1.0907,0 2,-0.90929 2,-2 V 14 9 C 53,8.72673 52.9441,8.46215 52.8457,8.22657 52.74219,7.97873 52.59262,7.76444 52.41406,7.58594 52.05454,7.22632 51.54708,7 51,7 Z m 0,2 h 38 v 5 7.5 h -3.5 v -2.75 c 8e-5,-2.59726 -2.11563,-4.7295 -4.71289,-4.75 a 1.0001,1.0001 0 0 0 -0.008,0 h -6.27929 a 1.0001,1.0001 0 0 0 -1,1 v 31.75 c -8e-5,2.59737 2.1156,4.72971 4.71289,4.75 a 1.0001,1.0001 0 0 0 0.008,0 h 2.7793 V 55 h -22 v -3.5 h 2.77929 a 1.0001,1.0001 0 0 0 0.008,0 c 2.59728,-0.0203 4.71297,-2.15263 4.71289,-4.75 V 15 a 1.0001,1.0001 0 0 0 -1,-1 h -6.2793 a 1.0001,1.0001 0 0 0 -0.008,0 C 18.6156,14.0203 16.49992,16.15264 16.5,18.75 V 21.5 H 13 V 14 Z" />
  </g>
</svg>
