<?xml version="1.0" encoding="UTF-8" standalone="no"?>
<svg
   xmlns:dc="http://purl.org/dc/elements/1.1/"
   xmlns:cc="http://creativecommons.org/ns#"
   xmlns:rdf="http://www.w3.org/1999/02/22-rdf-syntax-ns#"
   xmlns:svg="http://www.w3.org/2000/svg"
   xmlns="http://www.w3.org/2000/svg"
   xmlns:sodipodi="http://sodipodi.sourceforge.net/DTD/sodipodi-0.dtd"
   xmlns:inkscape="http://www.inkscape.org/namespaces/inkscape"
   width="64"
   height="64"
   viewBox="0 0 64 64"
   version="1.1"
   id="svg6374"
   inkscape:version="1.0.2 (e86c870879, 2021-01-15)"
   sodipodi:docname="insert-link.svg">
  <defs
     id="defs6368" />
  <sodipodi:namedview
     id="base"
     pagecolor="#cecece"
     bordercolor="#666666"
     borderopacity="1.0"
     inkscape:pageopacity="0"
     inkscape:pageshadow="2"
     inkscape:zoom="8.2935039"
     inkscape:cx="16.208673"
     inkscape:cy="32.496121"
     inkscape:document-units="px"
     inkscape:current-layer="layer1"
     inkscape:document-rotation="0"
     showgrid="false"
     units="px"
     inkscape:window-width="1500"
     inkscape:window-height="970"
     inkscape:window-x="68"
     inkscape:window-y="56"
     inkscape:window-maximized="0" />
  <metadata
     id="metadata6371">
    <rdf:RDF>
      <cc:Work
         rdf:about="">
        <dc:format>image/svg+xml</dc:format>
        <dc:type
           rdf:resource="http://purl.org/dc/dcmitype/StillImage" />
        <dc:title />
      </cc:Work>
    </rdf:RDF>
  </metadata>
  <g
     inkscape:label="Layer 1"
     inkscape:groupmode="layer"
     id="layer1">
    <path
       id="rect2836-4-9-9-6-3"
       style="color:#000000;font-style:normal;font-variant:normal;font-weight:normal;font-stretch:normal;font-size:medium;line-height:normal;font-family:sans-serif;font-variant-ligatures:normal;font-variant-position:normal;font-variant-caps:normal;font-variant-numeric:normal;font-variant-alternates:normal;font-variant-east-asian:normal;font-feature-settings:normal;font-variation-settings:normal;text-indent:0;text-align:start;text-decoration:none;text-decoration-line:none;text-decoration-style:solid;text-decoration-color:#000000;letter-spacing:normal;word-spacing:normal;text-transform:none;writing-mode:lr-tb;direction:ltr;text-orientation:mixed;dominant-baseline:auto;baseline-shift:baseline;text-anchor:start;white-space:normal;shape-padding:0;shape-margin:0;inline-size:0;clip-rule:nonzero;display:inline;overflow:visible;visibility:visible;opacity:0.15;isolation:auto;mix-blend-mode:normal;color-interpolation:sRGB;color-interpolation-filters:linearRGB;solid-color:#000000;solid-opacity:1;vector-effect:none;fill:#0c0c0c;fill-opacity:1;fill-rule:nonzero;stroke:none;stroke-width:1.00021;stroke-linecap:round;stroke-linejoin:round;stroke-miterlimit:4;stroke-dasharray:none;stroke-dashoffset:2.1875;stroke-opacity:1;color-rendering:auto;image-rendering:auto;shape-rendering:auto;text-rendering:auto;enable-background:accumulate;stop-color:#000000"
       d="m 51.22694,2.63 c -2.84767,0 -5.69952,1.09847 -7.87522,3.27388 L 32.9211,16.32913 c -3.20401,3.2036 -4.04318,7.86294 -2.52607,11.8356 a 1.000376,1.0002363 0 0 0 0.80881,0.63681 L 27.7947,32.2102 a 1.000376,1.0002363 0 0 0 -0.63494,-0.81066 c -1.2423,-0.47424 -2.55013,-0.71611 -3.85849,-0.73057 -2.87939,-0.0314 -5.77777,1.05355 -7.98071,3.2563 L 4.89385,44.35444 c -4.3518,4.35121 -4.3518,11.40092 0,15.75214 4.3519,4.35123 11.40245,4.35123 15.75435,0 l 10.42865,-10.4272 c 3.20399,-3.20347 4.04303,-7.86306 2.52608,-11.8356 a 1.000376,1.0002363 0 0 0 -0.80881,-0.63486 l 3.40914,-3.40866 a 1.000376,1.0002363 0 0 0 0.63689,0.80871 c 3.97307,1.51663 8.63148,0.67777 11.8353,-2.52575 l 10.43062,-10.4272 c 4.3519,-4.35122 4.35191,-11.40092 0,-15.75214 C 56.93015,3.72824 54.07451,2.63 51.22694,2.63 Z m 0,2.00027 c 2.3363,0 4.66854,0.89194 6.46468,2.68787 3.59264,3.59206 3.59264,9.33155 0,12.92363 L 47.261,30.66702 c -2.2175,2.21728 -5.23931,2.96641 -8.08426,2.44174 l 3.06921,-3.06877 c 1.03075,-0.25174 2.03073,-0.72755 2.84453,-1.54123 L 55.51914,18.0696 c 2.36574,-2.36531 2.36574,-6.21789 0,-8.5832 -2.36558,-2.36528 -6.21873,-2.36524 -8.58439,0 L 36.50608,19.91361 c -0.81474,0.81454 -1.29357,1.81561 -1.54535,2.84803 l -3.06724,3.06683 c -0.52475,-2.84491 0.22459,-5.86789 2.44206,-8.08509 L 44.76617,7.31814 c 1.79639,-1.79616 4.12436,-2.68787 6.46077,-2.68787 z m 0,5.06709 c 1.03706,0 2.07451,0.40016 2.87775,1.2033 1.60672,1.60643 1.60672,4.14825 0,5.75468 L 43.67602,27.0845 c -0.44129,0.44123 -1.00712,0.61086 -1.55902,0.80284 l 1.67038,-1.67015 c 1.37257,-1.37238 1.37257,-3.62633 0,-4.99873 -0.68639,-0.68615 -1.59653,-1.03725 -2.50069,-1.03725 -0.90409,0 -1.81322,0.35184 -2.49873,1.03725 l -1.67233,1.67211 c 0.19218,-0.55292 0.36251,-1.12042 0.8049,-1.56271 l 10.42866,-10.4272 c 0.80331,-0.80315 1.84069,-1.2033 2.87775,-1.2033 z m -9.94025,12.48412 c 0.39193,0 0.77946,0.14456 1.08624,0.45125 0.61356,0.61347 0.61356,1.55673 0,2.17021 L 23.79554,43.37773 c -0.61323,0.61311 -1.55752,0.61299 -2.17052,0 -0.61356,-0.61347 -0.61351,-1.55684 0,-2.17021 L 40.20241,22.63273 c 0.30746,-0.30743 0.69249,-0.45125 1.08428,-0.45125 z M 23.27977,32.66924 c 0.50617,0.006 0.99082,0.19426 1.49064,0.28325 l -3.0145,3.01408 c -1.03329,0.25225 -2.0361,0.73094 -2.85039,1.54513 L 8.47882,47.9389 c -2.36583,2.36554 -2.36583,6.21963 0,8.58515 2.36558,2.36529 6.21685,2.36529 8.58245,0 L 27.49189,46.0949 c 0.81464,-0.81454 1.29193,-1.81623 1.54339,-2.84804 l 3.06725,-3.06682 c 0.52557,2.84514 -0.2219,5.86721 -2.44013,8.08508 l -10.42865,10.4272 c -3.59264,3.59208 -9.33281,3.59208 -12.92545,0 -3.59254,-3.59206 -3.59254,-9.33156 0,-12.92363 l 10.42866,-10.4272 c 1.8169,-1.81674 4.17841,-2.69804 6.54281,-2.67225 z m -1.39491,5.44997 -1.67429,1.67405 c -1.37262,1.37232 -1.37257,3.62634 0,4.99874 1.37293,1.37288 3.62633,1.37276 4.99943,0 l 1.67038,-1.67016 c -0.19201,0.55177 -0.36164,1.11755 -0.80296,1.55881 l -10.43061,10.4272 c -1.60651,1.60628 -4.14707,1.60627 -5.75354,0 -1.60641,-1.60621 -1.60641,-4.14848 0,-5.75469 l 10.4267,-10.4272 c 0.44321,-0.44315 1.01135,-0.61426 1.56489,-0.80675 z" />
    <path
       id="rect2836-4-9-9"
       style="display:inline;fill:#dddde1;fill-opacity:1;stroke:none;stroke-width:0;stroke-linecap:round;stroke-linejoin:round;stroke-miterlimit:4;stroke-dasharray:none;stroke-dashoffset:2.1875;stroke-opacity:1"
       d="m 51.22248,1.63 c -2.59133,0 -5.18182,0.99335 -7.16732,2.97886 L 33.62802,15.03402 c -2.9228,2.92283 -3.67894,7.15529 -2.29844,10.77076 l 4.48898,-4.48902 c 0.17436,-0.98607 0.62814,-1.93307 1.39321,-2.69806 L 47.63871,8.19253 c 1.98559,-1.9855 5.18191,-1.9855 7.1674,0 1.98569,1.9856 1.98569,5.18167 0,7.16727 L 44.38093,25.78681 c -0.76407,0.76406 -1.70977,1.21673 -2.69454,1.39137 l -4.49084,4.49077 c 3.61545,1.38032 7.84631,0.62436 10.76902,-2.29847 L 58.39161,18.94532 c 3.97118,-3.97111 3.97118,-10.36536 0,-14.33646 C 56.40613,2.62335 53.81369,1.63 51.22248,1.63 Z m -9.93752,17.54746 c -0.64776,0 -1.29451,0.24882 -1.79085,0.74517 L 20.92052,38.49431 c -0.99279,0.99271 -0.99279,2.59079 0,3.58359 0.99269,0.9928 2.59261,0.9928 3.5855,0 L 43.07777,23.50631 c 0.99279,-0.9928 0.99279,-2.59088 0,-3.58368 -0.49645,-0.49635 -1.14495,-0.74517 -1.79281,-0.74517 z M 23.29279,29.66382 c -2.62118,-0.0286 -5.24983,0.95501 -7.25919,2.96448 L 5.60831,43.05531 c -3.97107,3.9711 -3.97107,10.36526 0,14.33636 3.97117,3.97111 10.36548,3.97111 14.33665,0 L 30.37015,46.96476 c 2.9229,-2.92283 3.67895,-7.15354 2.29855,-10.76901 l -4.49085,4.49087 c -0.17462,0.98478 -0.62729,1.93039 -1.39136,2.69446 L 16.35937,53.808 c -1.9855,1.9855 -5.18183,1.9855 -7.16732,0 -1.98558,-1.9856 -1.98558,-5.18351 0,-7.16911 L 19.61734,36.21372 c 0.76497,-0.76498 1.71197,-1.22042 2.69804,-1.39487 l 4.48908,-4.48902 c -1.12984,-0.43138 -2.32021,-0.65284 -3.51167,-0.66601 z" />
    <path
       id="rect2836-4-9-9-6"
       style="color:#000000;font-style:normal;font-variant:normal;font-weight:normal;font-stretch:normal;font-size:medium;line-height:normal;font-family:sans-serif;font-variant-ligatures:normal;font-variant-position:normal;font-variant-caps:normal;font-variant-numeric:normal;font-variant-alternates:normal;font-variant-east-asian:normal;font-feature-settings:normal;font-variation-settings:normal;text-indent:0;text-align:start;text-decoration:none;text-decoration-line:none;text-decoration-style:solid;text-decoration-color:#000000;letter-spacing:normal;word-spacing:normal;text-transform:none;writing-mode:lr-tb;direction:ltr;text-orientation:mixed;dominant-baseline:auto;baseline-shift:baseline;text-anchor:start;white-space:normal;shape-padding:0;shape-margin:0;inline-size:0;clip-rule:nonzero;display:inline;overflow:visible;visibility:visible;opacity:0.85;isolation:auto;mix-blend-mode:normal;color-interpolation:sRGB;color-interpolation-filters:linearRGB;solid-color:#000000;solid-opacity:1;vector-effect:none;fill:#60606c;fill-opacity:1;fill-rule:nonzero;stroke:none;stroke-width:1.00021;stroke-linecap:round;stroke-linejoin:round;stroke-miterlimit:4;stroke-dasharray:none;stroke-dashoffset:2.1875;stroke-opacity:1;color-rendering:auto;image-rendering:auto;shape-rendering:auto;text-rendering:auto;enable-background:accumulate;stop-color:#000000"
       d="m 51.22694,0.63 c -2.84767,0 -5.69952,1.09847 -7.87522,3.27388 L 32.9211,14.32913 c -3.20401,3.2036 -4.04318,7.86294 -2.52607,11.8356 a 1.000376,1.0002363 0 0 0 0.80881,0.63681 L 27.7947,30.2102 a 1.000376,1.0002363 0 0 0 -0.63494,-0.81066 c -1.2423,-0.47424 -2.55013,-0.71611 -3.85849,-0.73057 -2.87939,-0.0314 -5.77777,1.05355 -7.98071,3.2563 L 4.89385,42.35444 c -4.3518,4.35121 -4.3518,11.40092 0,15.75214 4.3519,4.35123 11.40245,4.35123 15.75435,0 l 10.42865,-10.4272 c 3.20399,-3.20347 4.04303,-7.86306 2.52608,-11.8356 a 1.000376,1.0002363 0 0 0 -0.80881,-0.63486 l 3.40914,-3.40866 a 1.000376,1.0002363 0 0 0 0.63689,0.80871 c 3.97307,1.51663 8.63148,0.67777 11.8353,-2.52575 l 10.43062,-10.4272 c 4.3519,-4.35122 4.35191,-11.40092 0,-15.75214 C 56.93015,1.72824 54.07451,0.63 51.22694,0.63 Z m 0,2.00027 c 2.3363,0 4.66854,0.89194 6.46468,2.68787 3.59264,3.59206 3.59264,9.33155 0,12.92363 L 47.261,28.66702 c -2.2175,2.21728 -5.23931,2.96641 -8.08426,2.44174 l 3.06921,-3.06877 c 1.03075,-0.25174 2.03073,-0.72755 2.84453,-1.54123 L 55.51914,16.0696 c 2.36574,-2.36531 2.36574,-6.21789 0,-8.5832 -2.36558,-2.36528 -6.21873,-2.36524 -8.58439,0 L 36.50608,17.91361 c -0.81474,0.81454 -1.29357,1.81561 -1.54535,2.84803 l -3.06724,3.06683 c -0.52475,-2.84491 0.22459,-5.86789 2.44206,-8.08509 L 44.76617,5.31814 c 1.79639,-1.79616 4.12436,-2.68787 6.46077,-2.68787 z m 0,5.06709 c 1.03706,0 2.07451,0.40016 2.87775,1.2033 1.60672,1.60643 1.60672,4.14825 0,5.75468 L 43.67602,25.0845 c -0.44129,0.44123 -1.00712,0.61086 -1.55902,0.80284 l 1.67038,-1.67015 c 1.37257,-1.37238 1.37257,-3.62633 0,-4.99873 -0.68639,-0.68615 -1.59653,-1.03725 -2.50069,-1.03725 -0.90409,0 -1.81322,0.35184 -2.49873,1.03725 l -1.67233,1.67211 c 0.19218,-0.55292 0.36251,-1.12042 0.8049,-1.56271 L 48.34919,8.90066 c 0.80331,-0.80315 1.84069,-1.2033 2.87775,-1.2033 z m -9.94025,12.48412 c 0.39193,0 0.77946,0.14456 1.08624,0.45125 0.61356,0.61347 0.61356,1.55673 0,2.17021 L 23.79554,41.37773 c -0.61323,0.61311 -1.55752,0.61299 -2.17052,0 -0.61356,-0.61347 -0.61351,-1.55684 0,-2.17021 L 40.20241,20.63273 c 0.30746,-0.30743 0.69249,-0.45125 1.08428,-0.45125 z M 23.27977,30.66924 c 0.50617,0.006 0.99082,0.19426 1.49064,0.28325 l -3.0145,3.01408 c -1.03329,0.25225 -2.0361,0.73094 -2.85039,1.54513 L 8.47882,45.9389 c -2.36583,2.36554 -2.36583,6.21963 0,8.58515 2.36558,2.36529 6.21685,2.36529 8.58245,0 L 27.49189,44.0949 c 0.81464,-0.81454 1.29193,-1.81623 1.54339,-2.84804 l 3.06725,-3.06682 c 0.52557,2.84514 -0.2219,5.86721 -2.44013,8.08508 l -10.42865,10.4272 c -3.59264,3.59208 -9.33281,3.59208 -12.92545,0 -3.59254,-3.59206 -3.59254,-9.33156 0,-12.92363 l 10.42866,-10.4272 c 1.8169,-1.81674 4.17841,-2.69804 6.54281,-2.67225 z m -1.39491,5.44997 -1.67429,1.67405 c -1.37262,1.37232 -1.37257,3.62634 0,4.99874 1.37293,1.37288 3.62633,1.37276 4.99943,0 l 1.67038,-1.67016 c -0.19201,0.55177 -0.36164,1.11755 -0.80296,1.55881 l -10.43061,10.4272 c -1.60651,1.60628 -4.14707,1.60627 -5.75354,0 -1.60641,-1.60621 -1.60641,-4.14848 0,-5.75469 l 10.4267,-10.4272 c 0.44321,-0.44315 1.01135,-0.61426 1.56489,-0.80675 z" />
  </g>
</svg>
