<?xml version="1.0" encoding="UTF-8" standalone="no"?>
<svg
   xmlns:dc="http://purl.org/dc/elements/1.1/"
   xmlns:cc="http://creativecommons.org/ns#"
   xmlns:rdf="http://www.w3.org/1999/02/22-rdf-syntax-ns#"
   xmlns:svg="http://www.w3.org/2000/svg"
   xmlns="http://www.w3.org/2000/svg"
   xmlns:sodipodi="http://sodipodi.sourceforge.net/DTD/sodipodi-0.dtd"
   xmlns:inkscape="http://www.inkscape.org/namespaces/inkscape"
   width="64"
   height="64"
   viewBox="0 0 64 64"
   version="1.1"
   id="svg6374"
   inkscape:version="1.0.2 (e86c870879, 2021-01-15)"
   sodipodi:docname="mail-attachment.svg">
  <defs
     id="defs6368" />
  <sodipodi:namedview
     id="base"
     pagecolor="#cecece"
     bordercolor="#666666"
     borderopacity="1.0"
     inkscape:pageopacity="0"
     inkscape:pageshadow="2"
     inkscape:zoom="8.2935039"
     inkscape:cx="16.208673"
     inkscape:cy="32.616697"
     inkscape:document-units="px"
     inkscape:current-layer="layer1"
     inkscape:document-rotation="0"
     showgrid="false"
     units="px"
     inkscape:window-width="1500"
     inkscape:window-height="970"
     inkscape:window-x="68"
     inkscape:window-y="56"
     inkscape:window-maximized="0" />
  <metadata
     id="metadata6371">
    <rdf:RDF>
      <cc:Work
         rdf:about="">
        <dc:format>image/svg+xml</dc:format>
        <dc:type
           rdf:resource="http://purl.org/dc/dcmitype/StillImage" />
        <dc:title />
      </cc:Work>
    </rdf:RDF>
  </metadata>
  <g
     inkscape:label="Layer 1"
     inkscape:groupmode="layer"
     id="layer1">
    <path
       id="path1085-36-7-6-7-4-5"
       style="color:#000000;font-style:normal;font-variant:normal;font-weight:normal;font-stretch:normal;font-size:medium;line-height:normal;font-family:sans-serif;font-variant-ligatures:normal;font-variant-position:normal;font-variant-caps:normal;font-variant-numeric:normal;font-variant-alternates:normal;font-variant-east-asian:normal;font-feature-settings:normal;font-variation-settings:normal;text-indent:0;text-align:start;text-decoration:none;text-decoration-line:none;text-decoration-style:solid;text-decoration-color:#000000;letter-spacing:normal;word-spacing:normal;text-transform:none;writing-mode:lr-tb;direction:ltr;text-orientation:mixed;dominant-baseline:auto;baseline-shift:baseline;text-anchor:start;white-space:normal;shape-padding:0;shape-margin:0;inline-size:0;clip-rule:nonzero;display:inline;overflow:visible;visibility:visible;opacity:0.15;isolation:auto;mix-blend-mode:normal;color-interpolation:sRGB;color-interpolation-filters:linearRGB;solid-color:#000000;solid-opacity:1;vector-effect:none;fill:#0c0c0c;fill-opacity:1;fill-rule:nonzero;stroke:none;stroke-width:1.00034;stroke-linecap:round;stroke-linejoin:round;stroke-miterlimit:4;stroke-dasharray:none;stroke-dashoffset:0;stroke-opacity:1;color-rendering:auto;image-rendering:auto;shape-rendering:auto;text-rendering:auto;enable-background:accumulate;stop-color:#000000"
       d="m 48.820492,2.63004 c -3.48073,4e-5 -6.96167,1.31811 -9.59973,3.95688 l -24.18687,24.19457 c -2.15648,2.15695 -3.00204,5.31187 -2.21337,8.25766 0.78865,2.94605 3.09895,5.25484 6.04428,6.04376 2.94503,0.78886 6.09737,-0.0569 8.25373,-2.2139 a 1.0003163,1.0005541 0 0 0 0.28717,-0.59011 l -0.0273,0.33218 12.3679,-12.3728 4.44627,-4.44734 c 1.36479,-1.36522 1.36484,-3.60772 0,-4.97295 -1.36485,-1.36515 -3.60688,-1.36518 -4.97177,0 l -4.44627,4.44732 -12.62773,12.63074 c -0.39017,0.39027 -0.92871,0.5354 -1.46126,0.39276 -0.53208,-0.14252 -0.93006,-0.53863 -1.0725,-1.0708 -0.14262,-0.53269 0.002,-1.07323 0.39266,-1.46355 l 24.18687,-24.19459 c 2.59174,-2.59243 6.66432,-2.59228 9.25592,0 2.59158,2.59231 2.59169,6.66767 0,9.26007 l -24.18687,24.19262 -9.42587,9.43006 0.041,-0.0352 a 1.0003163,1.0005541 0 0 0 -0.0547,0.0527 c -0.003,0.003 -0.007,0.003 -0.01,0.006 a 1.0003163,1.0005541 0 0 0 -0.27154,0.60183 l 0.0352,-0.39471 c -2.26715,2.05247 -5.59647,2.28551 -8.12871,0.51195 -2.6251995,-1.8387 -3.5325595,-5.22352 -2.1781995,-8.12868 0.8154895,-1.74894 0.0487,-3.85596 -1.69959,-4.67205 -1.74945,-0.81668 -3.85771,-0.0505 -4.67289,1.7 -2.77589005,5.95423 -0.86341,13.09309 4.51661,16.86116 5.2774795,3.6963 12.4320195,3.09597 17.0876795,-1.31114 a 1.0003163,1.0005541 0 0 0 0.28912,-0.20126 l 9.44345,-9.44569 24.18687,-24.19458 a 1.0003163,1.0005541 0 0 0 0.12503,-0.15242 c 5.13405,-5.28892 5.10557,-13.81948 -0.12112,-19.04965 a 1.0003163,1.0005541 0 0 0 -0.004,-0.004 C 55.781972,3.94815 52.300952,2.62996 48.820232,2.63 Z m -29.24461,52.04315 c 0.0694,-0.0628 0.14166,-0.1213 0.20904,-0.18758 l -0.20904,0.17977 z M 48.820492,4.62313 c 2.96463,-4e-5 5.92982,1.1245 8.18145,3.37459 10e-4,10e-4 0.003,0.003 0.004,0.004 a 1.0003163,1.0005541 0 0 0 0,0.002 c 4.50435,4.50549 4.50443,11.86902 0,16.37461 a 1.0003163,1.0005541 0 0 0 -0.29303,0.67805 v -0.38495 l -23.89384,23.90148 -9.44149,9.44374 -0.002,0.002 c -3.96338,3.95544 -10.22662,4.50047 -14.8137395,1.2877 -4.59084,-3.21535 -6.22098,-9.29513 -3.8524,-14.37567 0.35848,-0.76981 1.24484,-1.09382 2.0141,-0.7347 a 1.0003163,1.0005541 0 0 0 0,0.002 c 0.76874,0.35883 1.0912,1.24354 0.73259,2.01263 -1.75482,3.76418 -0.55663,8.23213 2.8443595,10.61419 3.3975,2.37958 7.99557,1.98041 10.93205,-0.94769 a 1.0003163,1.0005541 0 0 0 0.29694,-0.58816 l -0.0254,0.31459 9.1719,-9.17603 24.18687,-24.19262 c 3.34403,-3.34496 3.34394,-8.74459 0,-12.08948 -3.34398,-3.34488 -8.74066,-3.34489 -12.08464,0 l -24.18687,24.19458 c -0.88664,0.88691 -1.23478,2.18243 -0.91036,3.39411 0.32444,1.21216 1.27508,2.16289 2.48687,2.48746 1.21135,0.32447 2.50861,-0.0236 3.39526,-0.91057 l 12.62578,-12.63073 4.44627,-4.44733 c 0.6058,-0.60592 1.53736,-0.60583 2.14305,0 0.60565,0.60583 0.60568,1.53768 0,2.14355 l -4.44627,4.44733 -12.62773,12.63073 c -1.65149,1.65199 -4.0662,2.30024 -6.32169,1.69609 -2.2552,-0.60406 -4.02408,-2.37324 -4.62795,-4.62906 -0.60401,-2.25607 0.0422,-4.67322 1.69372,-6.32513 L 40.635162,8.00186 c 2.25222,-2.25281 5.21898,-3.37845 8.18537,-3.37849 z" />
    <path
       id="path1085-36-7-6-7"
       style="color:#000000;font-style:normal;font-variant:normal;font-weight:normal;font-stretch:normal;font-size:medium;line-height:normal;font-family:sans-serif;font-variant-ligatures:normal;font-variant-position:normal;font-variant-caps:normal;font-variant-numeric:normal;font-variant-alternates:normal;font-variant-east-asian:normal;font-feature-settings:normal;font-variation-settings:normal;text-indent:0;text-align:start;text-decoration:none;text-decoration-line:none;text-decoration-style:solid;text-decoration-color:#000000;letter-spacing:normal;word-spacing:normal;text-transform:none;writing-mode:lr-tb;direction:ltr;text-orientation:mixed;dominant-baseline:auto;baseline-shift:baseline;text-anchor:start;white-space:normal;shape-padding:0;shape-margin:0;inline-size:0;clip-rule:nonzero;display:inline;overflow:visible;visibility:visible;isolation:auto;mix-blend-mode:normal;color-interpolation:sRGB;color-interpolation-filters:linearRGB;solid-color:#000000;solid-opacity:1;vector-effect:none;fill:#dddde1;fill-opacity:1;fill-rule:nonzero;stroke:none;stroke-width:0;stroke-linecap:butt;stroke-linejoin:round;stroke-miterlimit:4;stroke-dasharray:none;stroke-dashoffset:0;stroke-opacity:1;color-rendering:auto;image-rendering:auto;shape-rendering:auto;text-rendering:auto;enable-background:accumulate;stop-color:#000000"
       d="m 57.701752,5.29688 c -4.88906,-4.88926 -12.89135,-4.88915 -17.78057,2.1e-4 l -24.18171,24.18266 c -1.9036,1.90356 -2.64937,4.68776 -1.95318,7.28751 0.69611,2.59975 2.73438,4.63812 5.33408,5.33429 2.5997,0.69619 5.38377,-0.0496 7.28728,-1.95324 l 6e-5,-7.1e-4 12.62425,-12.62478 4.44525,-4.44532 c 0.98502,-0.9851 0.98507,-2.57118 4e-5,-3.55626 -0.98506,-0.98504 -2.57106,-0.98504 -3.55619,6e-5 l -4.44515,4.44533 -12.62426,12.62478 c -0.63827,0.63831 -1.55672,0.88465 -2.42848,0.6512 -0.87175,-0.23344 -1.545,-0.90667 -1.77839,-1.77844 -0.23347,-0.87179 0.0129,-1.79027 0.65119,-2.4286 l -4e-5,2.4e-4 24.1817,-24.18266 c 2.96722,-2.96732 7.7016,-2.96772 10.66875,-4.8e-4 2.96712,2.96725 2.9671,7.70208 -1.2e-4,10.66941 l -24.18189,24.18264 -9.42896,9.42934 a 2.5145405,2.5146454 17.140027 0 0 -4.3e-4,0.005 l -0.0105,0.009 c -2.60106,2.59302 -6.64254,2.94466 -9.6519,0.83743 C 7.8601225,51.87606 6.8073025,47.95057 8.3615525,44.61741 a 2.5145405,2.5146454 17.140027 0 0 -1.21547,-3.3416 2.5145405,2.5146454 17.140027 0 0 -3.34284,1.21695 c -2.57168,5.51488 -0.80026,12.12145 4.18409,15.61158 4.9812395,3.48797 11.7894095,2.89471 16.0924995,-1.40079 l -5e-5,7.2e-4 9.44144,-9.44183 24.1818,-24.18265 v -2.4e-4 c 4.88922,-4.88933 4.88934,-12.89187 1.8e-4,-17.78112 z" />
    <path
       id="path1085-36-7-6-7-4"
       style="color:#000000;font-style:normal;font-variant:normal;font-weight:normal;font-stretch:normal;font-size:medium;line-height:normal;font-family:sans-serif;font-variant-ligatures:normal;font-variant-position:normal;font-variant-caps:normal;font-variant-numeric:normal;font-variant-alternates:normal;font-variant-east-asian:normal;font-feature-settings:normal;font-variation-settings:normal;text-indent:0;text-align:start;text-decoration:none;text-decoration-line:none;text-decoration-style:solid;text-decoration-color:#000000;letter-spacing:normal;word-spacing:normal;text-transform:none;writing-mode:lr-tb;direction:ltr;text-orientation:mixed;dominant-baseline:auto;baseline-shift:baseline;text-anchor:start;white-space:normal;shape-padding:0;shape-margin:0;inline-size:0;clip-rule:nonzero;display:inline;overflow:visible;visibility:visible;opacity:0.85;isolation:auto;mix-blend-mode:normal;color-interpolation:sRGB;color-interpolation-filters:linearRGB;solid-color:#000000;solid-opacity:1;vector-effect:none;fill:#60606c;fill-opacity:1;fill-rule:nonzero;stroke:none;stroke-width:1.00034;stroke-linecap:round;stroke-linejoin:round;stroke-miterlimit:4;stroke-dasharray:none;stroke-dashoffset:0;stroke-opacity:1;color-rendering:auto;image-rendering:auto;shape-rendering:auto;text-rendering:auto;enable-background:accumulate;stop-color:#000000"
       d="m 48.820492,0.63004 c -3.48073,4e-5 -6.96167,1.31811 -9.59973,3.95688 l -24.18687,24.19457 c -2.15648,2.15695 -3.00204,5.31187 -2.21337,8.25766 0.78865,2.94605 3.09895,5.25484 6.04428,6.04376 2.94503,0.78886 6.09737,-0.0569 8.25373,-2.2139 a 1.0003163,1.0005541 0 0 0 0.28717,-0.59011 l -0.0273,0.33218 12.3679,-12.3728 4.44627,-4.44734 c 1.36479,-1.36522 1.36484,-3.60772 0,-4.97295 -1.36485,-1.36515 -3.60688,-1.36518 -4.97177,0 l -4.44627,4.44732 -12.62773,12.63074 c -0.39017,0.39027 -0.92871,0.5354 -1.46126,0.39276 -0.53208,-0.14252 -0.93006,-0.53863 -1.0725,-1.0708 -0.14262,-0.53269 0.002,-1.07323 0.39266,-1.46355 L 44.192572,9.55987 c 2.59174,-2.59243 6.66432,-2.59228 9.25592,0 2.59158,2.59231 2.59169,6.66767 0,9.26007 l -24.18687,24.19262 -9.42587,9.43006 0.041,-0.0352 a 1.0003163,1.0005541 0 0 0 -0.0547,0.0527 c -0.003,0.003 -0.007,0.003 -0.01,0.006 a 1.0003163,1.0005541 0 0 0 -0.27154,0.60183 l 0.0352,-0.39471 c -2.26715,2.05247 -5.59647,2.28551 -8.12871,0.51195 -2.6251995,-1.8387 -3.5325595,-5.22352 -2.1781995,-8.12868 0.8154895,-1.74894 0.0487,-3.85596 -1.69959,-4.67205 -1.74945,-0.81668 -3.85771,-0.0505 -4.67289,1.7 -2.77589005,5.95423 -0.86341,13.09309 4.51661,16.86116 5.2774795,3.6963 12.4320195,3.09597 17.0876795,-1.31114 a 1.0003163,1.0005541 0 0 0 0.28912,-0.20126 l 9.44345,-9.44569 24.18687,-24.19458 a 1.0003163,1.0005541 0 0 0 0.12503,-0.15242 c 5.13405,-5.28892 5.10557,-13.81948 -0.12112,-19.04965 a 1.0003163,1.0005541 0 0 0 -0.004,-0.004 C 55.781972,1.94815 52.300952,0.62996 48.820232,0.63 Z m -29.24461,52.04315 c 0.0694,-0.0628 0.14166,-0.1213 0.20904,-0.18758 l -0.20904,0.17977 z M 48.820492,2.62313 c 2.96463,-4e-5 5.92982,1.1245 8.18145,3.37459 10e-4,10e-4 0.003,0.003 0.004,0.004 a 1.0003163,1.0005541 0 0 0 0,0.002 c 4.50435,4.50549 4.50443,11.86902 0,16.37461 a 1.0003163,1.0005541 0 0 0 -0.29303,0.67805 v -0.38495 l -23.89384,23.90148 -9.44149,9.44374 -0.002,0.002 c -3.96338,3.95544 -10.22662,4.50047 -14.8137395,1.2877 -4.59084,-3.21535 -6.22098,-9.29513 -3.8524,-14.37567 0.35848,-0.76981 1.24484,-1.09382 2.0141,-0.7347 a 1.0003163,1.0005541 0 0 0 0,0.002 c 0.76874,0.35883 1.0912,1.24354 0.73259,2.01263 -1.75482,3.76418 -0.55663,8.23213 2.8443595,10.61419 3.3975,2.37958 7.99557,1.98041 10.93205,-0.94769 a 1.0003163,1.0005541 0 0 0 0.29694,-0.58816 l -0.0254,0.31459 9.1719,-9.17603 24.18687,-24.19262 c 3.34403,-3.34496 3.34394,-8.74459 0,-12.08948 -3.34398,-3.34488 -8.74066,-3.34489 -12.08464,0 l -24.18687,24.19458 c -0.88664,0.88691 -1.23478,2.18243 -0.91036,3.39411 0.32444,1.21216 1.27508,2.16289 2.48687,2.48746 1.21135,0.32447 2.50861,-0.0236 3.39526,-0.91057 l 12.62578,-12.63073 4.44627,-4.44733 c 0.6058,-0.60592 1.53736,-0.60583 2.14305,0 0.60565,0.60583 0.60568,1.53768 0,2.14355 l -4.44627,4.44733 -12.62773,12.63073 c -1.65149,1.65199 -4.0662,2.30024 -6.32169,1.69609 -2.2552,-0.60406 -4.02408,-2.37324 -4.62795,-4.62906 -0.60401,-2.25607 0.0422,-4.67322 1.69372,-6.32513 L 40.635162,6.00186 c 2.25222,-2.25281 5.21898,-3.37845 8.18537,-3.37849 z" />
  </g>
</svg>
