<?xml version="1.0" encoding="UTF-8" standalone="no"?>
<svg
   xmlns:dc="http://purl.org/dc/elements/1.1/"
   xmlns:cc="http://creativecommons.org/ns#"
   xmlns:rdf="http://www.w3.org/1999/02/22-rdf-syntax-ns#"
   xmlns:svg="http://www.w3.org/2000/svg"
   xmlns="http://www.w3.org/2000/svg"
   xmlns:xlink="http://www.w3.org/1999/xlink"
   xmlns:sodipodi="http://sodipodi.sourceforge.net/DTD/sodipodi-0.dtd"
   xmlns:inkscape="http://www.inkscape.org/namespaces/inkscape"
   width="64"
   height="64"
   viewBox="0 0 64 64"
   version="1.1"
   id="svg6374"
   inkscape:version="1.0.2 (e86c870879, 2021-01-15)"
   sodipodi:docname="object-inverse.svg">
  <defs
     id="defs6368">
    <linearGradient
       inkscape:collect="always"
       xlink:href="#linearGradient2151"
       id="linearGradient2153"
       x1="519.82941"
       y1="906.72815"
       x2="519.92444"
       y2="961.18848"
       gradientUnits="userSpaceOnUse"
       gradientTransform="translate(-500,-902)" />
    <linearGradient
       inkscape:collect="always"
       id="linearGradient2151">
      <stop
         style="stop-color:#e9e9ef;stop-opacity:0;"
         offset="0"
         id="stop2149" />
      <stop
         style="stop-color:#f6f6f8;stop-opacity:1"
         offset="1"
         id="stop2147" />
    </linearGradient>
    <linearGradient
       inkscape:collect="always"
       xlink:href="#linearGradient2143"
       id="linearGradient2145"
       x1="547.1192"
       y1="906.55463"
       x2="547.22083"
       y2="960.02014"
       gradientUnits="userSpaceOnUse"
       gradientTransform="translate(-500,-902)" />
    <linearGradient
       inkscape:collect="always"
       id="linearGradient2143">
      <stop
         style="stop-color:#28282a;stop-opacity:1"
         offset="0"
         id="stop2139" />
      <stop
         style="stop-color:#28282a;stop-opacity:0;"
         offset="1"
         id="stop2141" />
    </linearGradient>
  </defs>
  <sodipodi:namedview
     id="base"
     pagecolor="#cecece"
     bordercolor="#666666"
     borderopacity="1.0"
     inkscape:pageopacity="0"
     inkscape:pageshadow="2"
     inkscape:zoom="6.8818909"
     inkscape:cx="20.896034"
     inkscape:cy="43.869284"
     inkscape:document-units="px"
     inkscape:current-layer="layer1"
     inkscape:document-rotation="0"
     showgrid="false"
     units="px"
     inkscape:window-width="1500"
     inkscape:window-height="970"
     inkscape:window-x="68"
     inkscape:window-y="56"
     inkscape:window-maximized="0" />
  <metadata
     id="metadata6371">
    <rdf:RDF>
      <cc:Work
         rdf:about="">
        <dc:format>image/svg+xml</dc:format>
        <dc:type
           rdf:resource="http://purl.org/dc/dcmitype/StillImage" />
        <dc:title />
      </cc:Work>
    </rdf:RDF>
  </metadata>
  <g
     inkscape:label="Layer 1"
     inkscape:groupmode="layer"
     id="layer1">
    <path
       id="path1026-5-7-7"
       style="color:#000000;font-style:normal;font-variant:normal;font-weight:normal;font-stretch:normal;font-size:medium;line-height:normal;font-family:sans-serif;font-variant-ligatures:normal;font-variant-position:normal;font-variant-caps:normal;font-variant-numeric:normal;font-variant-alternates:normal;font-variant-east-asian:normal;font-feature-settings:normal;font-variation-settings:normal;text-indent:0;text-align:start;text-decoration:none;text-decoration-line:none;text-decoration-style:solid;text-decoration-color:#000000;letter-spacing:normal;word-spacing:normal;text-transform:none;writing-mode:lr-tb;direction:ltr;text-orientation:mixed;dominant-baseline:auto;baseline-shift:baseline;text-anchor:start;white-space:normal;shape-padding:0;shape-margin:0;inline-size:0;clip-rule:nonzero;display:inline;overflow:visible;visibility:visible;opacity:0.15;isolation:auto;mix-blend-mode:normal;color-interpolation:sRGB;color-interpolation-filters:linearRGB;solid-color:#000000;solid-opacity:1;vector-effect:none;fill:#0c0c0c;fill-opacity:1;fill-rule:nonzero;stroke:none;stroke-width:3.77933;stroke-linecap:round;stroke-linejoin:round;stroke-miterlimit:4;stroke-dasharray:none;stroke-dashoffset:2.1875;stroke-opacity:1;color-rendering:auto;image-rendering:auto;shape-rendering:auto;text-rendering:auto;enable-background:accumulate;stop-color:#000000"
       d="M 33.49902,4.5 C 17.77721,4.5 5,17.27873 5,33 5,48.72128 17.77721,61.5 33.49902,61.5 49.22083,61.5 62,48.72128 62,33 62,17.27873 49.22083,4.5 33.49902,4.5 Z m 0,2.99785 C 47.59957,7.49785 58.9962,18.89994 58.9962,33 58.9962,47.10007 47.59957,58.49436 33.49902,58.49436 19.39848,58.49436 8.0038,47.10007 8.0038,33 8.0038,18.89994 19.39848,7.49785 33.49902,7.49785 Z" />
    <path
       id="path1026-5-2-3-0"
       style="color:#000000;font-style:normal;font-variant:normal;font-weight:normal;font-stretch:normal;font-size:medium;line-height:normal;font-family:sans-serif;font-variant-ligatures:normal;font-variant-position:normal;font-variant-caps:normal;font-variant-numeric:normal;font-variant-alternates:normal;font-variant-east-asian:normal;font-feature-settings:normal;font-variation-settings:normal;text-indent:0;text-align:start;text-decoration:none;text-decoration-line:none;text-decoration-style:solid;text-decoration-color:#000000;letter-spacing:normal;word-spacing:normal;text-transform:none;writing-mode:lr-tb;direction:ltr;text-orientation:mixed;dominant-baseline:auto;baseline-shift:baseline;text-anchor:start;white-space:normal;shape-padding:0;shape-margin:0;inline-size:0;clip-rule:nonzero;display:inline;overflow:visible;visibility:visible;opacity:0.85;isolation:auto;mix-blend-mode:normal;color-interpolation:sRGB;color-interpolation-filters:linearRGB;solid-color:#000000;solid-opacity:1;vector-effect:none;fill:#515152;fill-opacity:1;fill-rule:nonzero;stroke:none;stroke-width:0;stroke-linecap:round;stroke-linejoin:round;stroke-miterlimit:4;stroke-dasharray:none;stroke-dashoffset:2.1875;stroke-opacity:1;color-rendering:auto;image-rendering:auto;shape-rendering:auto;text-rendering:auto;enable-background:accumulate;stop-color:#000000"
       d="M 33.49902,3 C 17.77721,3 5,15.77873 5,31.5 5,47.22128 17.77721,60 33.49902,60 49.22083,60 62,47.22128 62,31.5 62,15.77873 49.22083,3 33.49902,3 Z m 0,2.99785 c 14.10055,0 25.49718,11.40209 25.49718,25.50215 0,14.10007 -11.39663,25.49436 -25.49718,25.49436 C 19.39848,56.99436 8.0038,45.60007 8.0038,31.5 8.0038,17.39994 19.39848,5.99785 33.49902,5.99785 Z" />
    <path
       id="path901-61-9"
       style="fill:#28282a;fill-opacity:1;stroke-width:0;stroke-linecap:round;stroke-linejoin:round;stroke-dashoffset:2.1875"
       d="M 33.47266,4.5 A 27,27 0 0 0 6.5,31.5 a 27,27 0 0 0 27,27 v -54 a 27,27 0 0 0 -0.0273,0 z" />
    <path
       id="path901-6-2-3"
       style="fill:#f6f6f8;fill-opacity:1;stroke-width:0;stroke-linecap:round;stroke-linejoin:round;stroke-dashoffset:2.1875"
       d="m 33.52734,4.5 a 27,27 0 0 1 26.97266,27 27,27 0 0 1 -27,27 v -54 a 27,27 0 0 1 0.0272,0 z" />
    <path
       id="path901-6-2-2-6-4-6"
       style="color:#000000;font-style:normal;font-variant:normal;font-weight:normal;font-stretch:normal;font-size:medium;line-height:normal;font-family:sans-serif;font-variant-ligatures:normal;font-variant-position:normal;font-variant-caps:normal;font-variant-numeric:normal;font-variant-alternates:normal;font-variant-east-asian:normal;font-feature-settings:normal;font-variation-settings:normal;text-indent:0;text-align:start;text-decoration:none;text-decoration-line:none;text-decoration-style:solid;text-decoration-color:#000000;letter-spacing:normal;word-spacing:normal;text-transform:none;writing-mode:lr-tb;direction:ltr;text-orientation:mixed;dominant-baseline:auto;baseline-shift:baseline;text-anchor:start;white-space:normal;shape-padding:0;shape-margin:0;inline-size:0;clip-rule:nonzero;display:inline;overflow:visible;visibility:visible;isolation:auto;mix-blend-mode:normal;color-interpolation:sRGB;color-interpolation-filters:linearRGB;solid-color:#000000;solid-opacity:1;vector-effect:none;fill:url(#linearGradient2153);fill-opacity:1;fill-rule:nonzero;stroke:none;stroke-linecap:round;stroke-linejoin:round;stroke-miterlimit:4;stroke-dasharray:none;stroke-dashoffset:2.1875;stroke-opacity:1;color-rendering:auto;image-rendering:auto;shape-rendering:auto;text-rendering:auto;enable-background:accumulate;stop-color:#000000"
       d="M 33.47266,4.5 A 27,27 0 0 0 6.5,31.50001 a 27,27 0 0 0 27,27 V 4.5 a 27,27 0 0 0 -0.0273,0 z M 23.70703,4.73242 C 23.40755,4.84225 23.11306,4.96253 22.81836,5.08203 23.11299,4.96256 23.40761,4.84222 23.70703,4.73242 Z M 32,6.15039 V 56.84961 C 18.61379,56.06011 8,45.08711 8,31.50001 7.99999,17.91439 18.61236,6.9403 32,6.15039 Z M 8.07617,44.36131 c 0.12136,0.2391 0.23934,0.4797 0.36719,0.7149 -0.12775,-0.235 -0.24592,-0.476 -0.36719,-0.7149 z" />
    <path
       id="path901-6-2-2-6-4-6-2"
       style="color:#000000;font-style:normal;font-variant:normal;font-weight:normal;font-stretch:normal;font-size:medium;line-height:normal;font-family:sans-serif;font-variant-ligatures:normal;font-variant-position:normal;font-variant-caps:normal;font-variant-numeric:normal;font-variant-alternates:normal;font-variant-east-asian:normal;font-feature-settings:normal;font-variation-settings:normal;text-indent:0;text-align:start;text-decoration:none;text-decoration-line:none;text-decoration-style:solid;text-decoration-color:#000000;letter-spacing:normal;word-spacing:normal;text-transform:none;writing-mode:lr-tb;direction:ltr;text-orientation:mixed;dominant-baseline:auto;baseline-shift:baseline;text-anchor:start;white-space:normal;shape-padding:0;shape-margin:0;inline-size:0;clip-rule:nonzero;display:inline;overflow:visible;visibility:visible;isolation:auto;mix-blend-mode:normal;color-interpolation:sRGB;color-interpolation-filters:linearRGB;solid-color:#000000;solid-opacity:1;vector-effect:none;fill:url(#linearGradient2145);fill-opacity:1;fill-rule:nonzero;stroke:none;stroke-linecap:round;stroke-linejoin:round;stroke-miterlimit:4;stroke-dasharray:none;stroke-dashoffset:2.1875;stroke-opacity:1;color-rendering:auto;image-rendering:auto;shape-rendering:auto;text-rendering:auto;enable-background:accumulate;stop-color:#000000"
       d="M 33.52734,4.5 A 27,27 0 0 1 60.5,31.50001 a 27,27 0 0 1 -27,27 V 4.5 a 27,27 0 0 1 0.0273,0 z m 9.76563,0.23242 c 0.29948,0.10983 0.59397,0.23011 0.88867,0.34961 C 43.88701,4.96256 43.59239,4.84222 43.29297,4.73242 Z M 35,6.15039 V 56.84961 C 48.38621,56.06011 59,45.0871 59,31.50001 59.00001,17.91439 48.38764,6.9403 35,6.15039 Z m 23.92383,38.21092 c -0.12136,0.2391 -0.23934,0.4797 -0.36719,0.71489 0.12775,-0.235 0.24592,-0.476 0.36719,-0.71489 z" />
  </g>
</svg>
