<?xml version="1.0" encoding="UTF-8" standalone="no"?>
<svg
   xmlns:dc="http://purl.org/dc/elements/1.1/"
   xmlns:cc="http://creativecommons.org/ns#"
   xmlns:rdf="http://www.w3.org/1999/02/22-rdf-syntax-ns#"
   xmlns:svg="http://www.w3.org/2000/svg"
   xmlns="http://www.w3.org/2000/svg"
   xmlns:sodipodi="http://sodipodi.sourceforge.net/DTD/sodipodi-0.dtd"
   xmlns:inkscape="http://www.inkscape.org/namespaces/inkscape"
   width="64"
   height="64"
   viewBox="0 0 16.933333 16.933334"
   version="1.1"
   id="svg841"
   inkscape:version="1.0.2 (e86c870879, 2021-01-15)"
   sodipodi:docname="vc-push-24.svg">
  <defs
     id="defs835" />
  <sodipodi:namedview
     id="base"
     pagecolor="#c4c4c4"
     bordercolor="#666666"
     borderopacity="1.0"
     inkscape:pageopacity="0"
     inkscape:pageshadow="2"
     inkscape:zoom="5.0029159"
     inkscape:cx="-7.4062871"
     inkscape:cy="57.437858"
     inkscape:document-units="px"
     inkscape:current-layer="layer1"
     inkscape:document-rotation="0"
     showgrid="false"
     units="px"
     inkscape:window-width="1500"
     inkscape:window-height="970"
     inkscape:window-x="68"
     inkscape:window-y="56"
     inkscape:window-maximized="0" />
  <metadata
     id="metadata838">
    <rdf:RDF>
      <cc:Work
         rdf:about="">
        <dc:format>image/svg+xml</dc:format>
        <dc:type
           rdf:resource="http://purl.org/dc/dcmitype/StillImage" />
        <dc:title />
      </cc:Work>
    </rdf:RDF>
  </metadata>
  <g
     inkscape:label="Layer 1"
     inkscape:groupmode="layer"
     id="layer1">
    <path
       id="path1113-1-0-6-8-3-2-5-4-0-7-1-7-4-7-10-1-5-3"
       style="color:#000000;font-style:normal;font-variant:normal;font-weight:normal;font-stretch:normal;font-size:medium;line-height:normal;font-family:sans-serif;font-variant-ligatures:normal;font-variant-position:normal;font-variant-caps:normal;font-variant-numeric:normal;font-variant-alternates:normal;font-variant-east-asian:normal;font-feature-settings:normal;font-variation-settings:normal;text-indent:0;text-align:start;text-decoration:none;text-decoration-line:none;text-decoration-style:solid;text-decoration-color:#000000;letter-spacing:normal;word-spacing:normal;text-transform:none;writing-mode:lr-tb;direction:ltr;text-orientation:mixed;dominant-baseline:auto;baseline-shift:baseline;text-anchor:start;white-space:normal;shape-padding:0;shape-margin:0;inline-size:0;clip-rule:nonzero;display:inline;overflow:visible;visibility:visible;opacity:0.075;isolation:auto;mix-blend-mode:normal;color-interpolation:sRGB;color-interpolation-filters:linearRGB;solid-color:#000000;solid-opacity:1;vector-effect:none;fill:#0c0c0c;fill-opacity:1;fill-rule:nonzero;stroke:none;stroke-width:0.335492;stroke-linecap:round;stroke-linejoin:round;stroke-miterlimit:4;stroke-dasharray:none;stroke-dashoffset:0;stroke-opacity:1;color-rendering:auto;image-rendering:auto;shape-rendering:auto;text-rendering:auto;enable-background:accumulate;stop-color:#000000"
       d="m 14.616386,1.6574843 c 0.131786,0.090593 0.220583,0.2426229 0.220594,0.4193381 l -0.0035,6.4922935 c 3.5e-5,0.11041 -0.03554,0.218704 -0.101351,0.3085571 -0.166074,0.229446 -0.489561,0.279558 -0.714632,0.122449 L 13.077552,8.3422349 12.34922,7.8323569 9.0905391,12.486272 c -0.2072746,0.296307 -0.619125,0.372322 -0.909373,0.16928 L 6.4827862,11.466409 C 6.1921626,11.263156 6.1236514,10.850221 6.3310239,10.554073 L 9.5896826,5.9001049 8.8614328,5.3902789 7.9215031,4.7323925 C 7.5945337,4.5035014 7.6657833,3.9571897 8.0473337,3.8181512 L 14.146941,1.5944605 c 0.165677,-0.061172 0.338024,-0.028257 0.468998,0.063235 z m -0.288144,0.4112418 c -0.0013,-0.00476 -0.01103,0 -0.01707,0 L 8.2121426,4.2928402 c -0.025929,0.0037 -0.025109,0.00344 0.00212,0.023548 l 0.9397603,0.6580717 0.9323181,0.6529652 a 0.24921735,0.25409175 34.998346 0 1 0.05841,0.3511018 L 6.7403318,10.840643 c -0.049355,0.07414 -0.036433,0.160337 0.03501,0.210291 l 1.6983657,1.189408 c 0.071702,0.04929 0.1585913,0.03368 0.2094892,-0.03916 L 12.087703,7.3391459 a 0.24921735,0.25409175 34.998346 0 1 0.349924,-0.06488 l 0.932294,0.652939 0.939832,0.658125 c 0.01437,0.0066 0.01693,0.005 0.02151,0.0029 0.0013,0 0.003,0.0026 0.0027,-0.0032 l 0.0035,-6.4923195 c 0.0016,-0.00556 -0.0021,-0.012171 -0.0063,-0.016404 z" />
    <path
       id="path1113-1-0-6-8-3-2-5-4-3-4-44-1-1-3-7"
       style="color:#000000;font-style:normal;font-variant:normal;font-weight:normal;font-stretch:normal;font-size:medium;line-height:normal;font-family:sans-serif;font-variant-ligatures:normal;font-variant-position:normal;font-variant-caps:normal;font-variant-numeric:normal;font-variant-alternates:normal;font-variant-east-asian:normal;font-feature-settings:normal;font-variation-settings:normal;text-indent:0;text-align:start;text-decoration:none;text-decoration-line:none;text-decoration-style:solid;text-decoration-color:#000000;letter-spacing:normal;word-spacing:normal;text-transform:none;writing-mode:lr-tb;direction:ltr;text-orientation:mixed;dominant-baseline:auto;baseline-shift:baseline;text-anchor:start;white-space:normal;shape-padding:0;shape-margin:0;inline-size:0;clip-rule:nonzero;display:inline;overflow:visible;visibility:visible;isolation:auto;mix-blend-mode:normal;color-interpolation:sRGB;color-interpolation-filters:linearRGB;solid-color:#000000;solid-opacity:1;vector-effect:none;fill:#ae84cd;fill-opacity:1;fill-rule:nonzero;stroke:none;stroke-width:0;stroke-linecap:round;stroke-linejoin:round;stroke-miterlimit:4;stroke-dasharray:none;stroke-dashoffset:0;stroke-opacity:1;color-rendering:auto;image-rendering:auto;shape-rendering:auto;text-rendering:auto;enable-background:accumulate;stop-color:#000000"
       d="m 8.3549568,11.943559 c 0.1804643,0.127185 0.4303765,0.08001 0.5595435,-0.104352 l 3.4032567,-4.8604231 0.931352,0.651987 0.939459,0.658177 a 0.26602762,0.26648556 34.981372 0 0 0.367673,-0.06146 0.26602762,0.26648556 34.981372 0 0 0.05137,-0.157242 l 0.005,-6.4898857 A 0.26602762,0.26648556 34.981372 0 0 14.255661,1.3302211 L 8.1590831,3.5548379 a 0.26602762,0.26648556 34.981372 0 0 -0.062248,0.4683918 l 0.9394401,0.6578601 0.931516,0.652436 -3.4033646,4.8603432 c -0.1287966,0.1846 -0.087479,0.43479 0.093342,0.561393 z" />
    <path
       id="path1113-1-0-6-8-3-2-5-4-0-7-1-7-4-7-10-1-5"
       style="color:#000000;font-style:normal;font-variant:normal;font-weight:normal;font-stretch:normal;font-size:medium;line-height:normal;font-family:sans-serif;font-variant-ligatures:normal;font-variant-position:normal;font-variant-caps:normal;font-variant-numeric:normal;font-variant-alternates:normal;font-variant-east-asian:normal;font-feature-settings:normal;font-variation-settings:normal;text-indent:0;text-align:start;text-decoration:none;text-decoration-line:none;text-decoration-style:solid;text-decoration-color:#000000;letter-spacing:normal;word-spacing:normal;text-transform:none;writing-mode:lr-tb;direction:ltr;text-orientation:mixed;dominant-baseline:auto;baseline-shift:baseline;text-anchor:start;white-space:normal;shape-padding:0;shape-margin:0;inline-size:0;clip-rule:nonzero;display:inline;overflow:visible;visibility:visible;opacity:0.85;isolation:auto;mix-blend-mode:normal;color-interpolation:sRGB;color-interpolation-filters:linearRGB;solid-color:#000000;solid-opacity:1;vector-effect:none;fill:#4c2966;fill-opacity:1;fill-rule:nonzero;stroke:none;stroke-width:0.335492;stroke-linecap:round;stroke-linejoin:round;stroke-miterlimit:4;stroke-dasharray:none;stroke-dashoffset:0;stroke-opacity:1;color-rendering:auto;image-rendering:auto;shape-rendering:auto;text-rendering:auto;enable-background:accumulate;stop-color:#000000"
       d="m 14.642665,1.1525534 c 0.131788,0.090593 0.220585,0.2426229 0.220593,0.4193382 l -0.0035,6.4922663 c 3.4e-5,0.110437 -0.03554,0.218731 -0.101354,0.308584 -0.166071,0.229446 -0.489561,0.279559 -0.714629,0.122449 L 13.103827,7.8372779 12.375495,7.3273999 9.1168139,11.981341 c -0.2072666,0.296281 -0.6191144,0.372322 -0.909365,0.169281 L 6.509062,10.961478 C 6.218441,10.758199 6.1499272,10.34529 6.3572996,10.049115 L 9.615961,5.3951473 8.8877112,4.8853216 7.9477789,4.2274616 C 7.6208094,3.9985706 7.6920617,3.4522589 8.0736094,3.3131939 L 14.173217,1.0895032 c 0.165679,-0.061172 0.338024,-0.028231 0.468998,0.063262 z m -0.288142,0.4112154 c -0.0013,-0.00476 -0.01103,0 -0.01707,0 L 8.2384237,3.7878829 c -0.025929,0.0037 -0.025109,0.00318 0.00212,0.023548 l 0.939757,0.6580716 0.9323203,0.6529652 a 0.24921735,0.25409175 34.998346 0 1 0.05841,0.3511021 L 6.7666101,10.335686 c -0.049358,0.07414 -0.036433,0.160311 0.035007,0.21029 l 1.6983684,1.189408 c 0.071702,0.04927 0.1585886,0.03368 0.2094865,-0.03916 l 3.404506,-4.8620361 a 0.24921735,0.25409175 34.998346 0 1 0.349925,-0.0649 l 0.932296,0.652966 0.939832,0.658124 c 0.01437,0.0066 0.01693,0.0048 0.02151,0.0029 0.0013,0 0.003,0.0026 0.0027,-0.0032 l 0.0035,-6.4922934 c 0.0016,-0.00556 -0.0021,-0.012171 -0.0063,-0.016404 z" />
  </g>
</svg>
