<?xml version="1.0" encoding="UTF-8" standalone="no"?>
<svg
   xmlns:dc="http://purl.org/dc/elements/1.1/"
   xmlns:cc="http://creativecommons.org/ns#"
   xmlns:rdf="http://www.w3.org/1999/02/22-rdf-syntax-ns#"
   xmlns:svg="http://www.w3.org/2000/svg"
   xmlns="http://www.w3.org/2000/svg"
   xmlns:sodipodi="http://sodipodi.sourceforge.net/DTD/sodipodi-0.dtd"
   xmlns:inkscape="http://www.inkscape.org/namespaces/inkscape"
   width="64"
   height="64"
   viewBox="0 0 64 64"
   version="1.1"
   id="svg6374"
   inkscape:version="1.0.2 (e86c870879, 2021-01-15)"
   sodipodi:docname="folder-download-symbolic.svg">
  <defs
     id="defs6368" />
  <sodipodi:namedview
     id="base"
     pagecolor="#cecece"
     bordercolor="#666666"
     borderopacity="1.0"
     inkscape:pageopacity="0"
     inkscape:pageshadow="2"
     inkscape:zoom="2.7670192"
     inkscape:cx="72.214076"
     inkscape:cy="50.634689"
     inkscape:document-units="px"
     inkscape:current-layer="layer1"
     inkscape:document-rotation="0"
     showgrid="false"
     units="px"
     inkscape:window-width="1500"
     inkscape:window-height="970"
     inkscape:window-x="68"
     inkscape:window-y="56"
     inkscape:window-maximized="0" />
  <metadata
     id="metadata6371">
    <rdf:RDF>
      <cc:Work
         rdf:about="">
        <dc:format>image/svg+xml</dc:format>
        <dc:type
           rdf:resource="http://purl.org/dc/dcmitype/StillImage" />
        <dc:title></dc:title>
      </cc:Work>
    </rdf:RDF>
  </metadata>
  <g
     inkscape:label="Layer 1"
     inkscape:groupmode="layer"
     id="layer1">
    <path
       id="rect904-5-6-0"
       style="fill:#808084;stroke-width:4.99999;stroke-linecap:round;stroke-linejoin:round;stroke-dashoffset:2.1875"
       d="m 28.624058,0.50017885 c -0.553996,0 -1,0.446 -1,1.00000005 V 30.681819 h -5.25 v -18.18164 c 0,-0.554 -0.446003,-1 -1,-1 h -4 c -0.553996,0 -1,0.446 -1,1 v 18.18164 H 9.934605 c -0.0035,0 -0.0063,0.002 -0.0098,0.002 -0.518417,-0.006 -1.040245,0.18868 -1.4375,0.58594 l -3.357422,3.35937 c -0.783469,0.78347 -0.783469,2.04466 0,2.82813 l 22.095703,22.09765 3.359375,3.35743 c 0.783471,0.78347 2.044654,0.78347 2.828125,0 l 3.359375,-3.35743 22.097656,-22.09765 c 0.783469,-0.78347 0.783469,-2.04466 0,-2.82813 l -3.359375,-3.35937 c -0.253595,-0.2536 -0.559524,-0.41643 -0.880859,-0.50586 -0.0093,-0.004 -0.01985,-0.004 -0.0293,-0.008 -0.07904,-0.0207 -0.157714,-0.038 -0.238281,-0.0488 -0.04402,-0.006 -0.08323,-0.0254 -0.128907,-0.0254 H 47.62402 v -18.18164 c 0,-0.554 -0.446003,-1 -1,-1 h -4 c -0.553996,0 -1,0.446 -1,1 v 18.18164 h -5.25 V 1.5000589 c 0,-0.55400005 -0.446003,-1.00000005 -1,-1.00000005 z" />
  </g>
</svg>
