<?xml version="1.0" encoding="UTF-8" standalone="no"?>
<svg
   xmlns:dc="http://purl.org/dc/elements/1.1/"
   xmlns:cc="http://creativecommons.org/ns#"
   xmlns:rdf="http://www.w3.org/1999/02/22-rdf-syntax-ns#"
   xmlns:svg="http://www.w3.org/2000/svg"
   xmlns="http://www.w3.org/2000/svg"
   xmlns:sodipodi="http://sodipodi.sourceforge.net/DTD/sodipodi-0.dtd"
   xmlns:inkscape="http://www.inkscape.org/namespaces/inkscape"
   width="64"
   height="64"
   viewBox="0 0 16.933333 16.933334"
   version="1.1"
   id="svg841"
   inkscape:version="1.0.2 (e86c870879, 2021-01-15)"
   sodipodi:docname="media-playlist-play-symbolic.svg">
  <defs
     id="defs835" />
  <sodipodi:namedview
     id="base"
     pagecolor="#c4c4c4"
     bordercolor="#666666"
     borderopacity="1.0"
     inkscape:pageopacity="0"
     inkscape:pageshadow="2"
     inkscape:zoom="3.5451024"
     inkscape:cx="68.811251"
     inkscape:cy="38.515083"
     inkscape:document-units="px"
     inkscape:current-layer="layer1"
     inkscape:document-rotation="0"
     showgrid="false"
     units="px"
     inkscape:window-width="2048"
     inkscape:window-height="1080"
     inkscape:window-x="0"
     inkscape:window-y="0"
     inkscape:window-maximized="1" />
  <metadata
     id="metadata838">
    <rdf:RDF>
      <cc:Work
         rdf:about="">
        <dc:format>image/svg+xml</dc:format>
        <dc:type
           rdf:resource="http://purl.org/dc/dcmitype/StillImage" />
        <dc:title />
      </cc:Work>
    </rdf:RDF>
  </metadata>
  <g
     inkscape:label="Layer 1"
     inkscape:groupmode="layer"
     id="layer1">
    <path
       id="rect1323-3-4"
       style="display:inline;fill:#808084;fill-opacity:1;stroke:none;stroke-width:0.354542;stroke-linecap:round;stroke-linejoin:round;stroke-miterlimit:4;stroke-dasharray:none;stroke-dashoffset:2.1875;stroke-opacity:1"
       d="m 9.9192027,5.5139168 v 3.54e-4 c -0.01028,0 -0.02019,0.0014 -0.03047,0.0017 -0.01329,3.55e-4 -0.02652,7.37e-4 -0.03982,0.0017 -0.01649,0.0013 -0.03269,0.0036 -0.04882,0.0059 -0.01028,0.0014 -0.0209,0.0026 -0.03116,0.0045 -0.02009,0.0036 -0.03962,0.0082 -0.05919,0.01315 -0.0057,0.0014 -0.01117,0.0025 -0.01666,0.0042 -0.0223,0.0061 -0.04427,0.01328 -0.06579,0.02112 -0.0032,0.0011 -0.0064,0.0022 -0.0094,0.0035 -0.02331,0.0088 -0.04628,0.01871 -0.06855,0.02943 -0.0017,7.37e-4 -0.0027,0.0014 -0.0044,0.0021 -0.24944,0.122014 -0.429087,0.361716 -0.467769,0.6481403 -0.0025,0.0052 -0.0025,0.01041 -0.0025,0.01558 -0.0017,0.01572 -0.003,0.03146 -0.003,0.04744 -0.0025,0.01414 -0.0028,0.02846 -0.0028,0.04259 -3.5e-5,0.0034 0,0.0064 0,0.0097 v 6.8071879 0.01003 c 0,0.0143 0.0028,0.02861 0.0028,0.04293 0.0017,0.0156 0.0017,0.03139 0.003,0.04675 0,0.0058 0.0025,0.01124 0.0025,0.01696 0.0274,0.200702 0.124074,0.378213 0.265572,0.508608 0.02046,0.01885 0.0418,0.03654 0.06405,0.05332 0.02196,0.01658 0.04462,0.03233 0.0682,0.04674 0.02315,0.01416 0.04677,0.02717 0.07133,0.03912 0.02315,0.01124 0.04705,0.02167 0.07132,0.03081 0.003,0.0011 0.0064,0.0024 0.0094,0.0035 0.02109,0.0077 0.04257,0.01475 0.06439,0.02078 0.0069,0.0019 0.014,0.0034 0.02113,0.0052 0.01849,0.0046 0.03677,0.0088 0.05574,0.01213 0.01117,0.002 0.0226,0.0036 0.03393,0.0052 0.01418,0.0019 0.0284,0.0036 0.04293,0.0048 0.01631,0.0014 0.03269,0.0022 0.04918,0.0027 0.0082,3.55e-4 0.01631,0.0011 0.02459,0.0011 0.0036,0 0.0073,-7.37e-4 0.01081,-7.37e-4 0.01719,-1.41e-4 0.03406,-0.0013 0.05125,-0.0024 0.01099,-8.71e-4 0.02243,-0.0013 0.03324,-0.0024 0.01294,-0.0014 0.02583,-0.0038 0.03877,-0.0059 0.01776,-0.0028 0.03526,-0.0055 0.05263,-0.0093 0,0 -6.9e-5,-3.55e-4 0.0017,-3.55e-4 0.0017,-1.77e-4 0.0032,-8.71e-4 0.0032,-0.0011 0.08436,-0.01911 0.163482,-0.05078 0.236146,-0.09279 l 0.0044,-0.0027 5.83789,-3.37053 c 0,-1.77e-4 0.0021,-1.61e-4 0.0021,-3.54e-4 0.113047,-0.05534 0.213897,-0.137208 0.294999,-0.241323 0.0041,-0.0053 0.0085,-0.01055 0.01241,-0.01592 0.01081,-0.0145 0.02088,-0.02966 0.03081,-0.04501 0.0055,-0.0085 0.01134,-0.01725 0.01666,-0.02597 0.0025,-0.004 0.0055,-0.0073 0.008,-0.01142 0.005,-0.0086 0.0085,-0.0176 0.01312,-0.02631 0.0074,-0.01395 0.01471,-0.02793 0.02147,-0.04224 0.0046,-0.01016 0.0087,-0.02057 0.01312,-0.03081 0.006,-0.01468 0.01241,-0.02934 0.01773,-0.04432 0.0046,-0.01306 0.0089,-0.02596 0.01276,-0.03912 0.0038,-0.01314 0.008,-0.02651 0.01099,-0.03982 0.0032,-0.01289 0.0057,-0.02582 0.0083,-0.03878 0.0028,-0.01438 0.0058,-0.02842 0.008,-0.04293 0.0019,-0.01386 0.0027,-0.02768 0.0044,-0.04155 0.0017,-0.01227 0.0017,-0.02471 0.0032,-0.03704 0.0017,-0.01444 0.0017,-0.02887 0.0017,-0.04328 0,-0.01457 1.06e-4,-0.02902 -0.0017,-0.04362 0,-0.01214 -0.0017,-0.02427 -0.0032,-0.03635 -0.0017,-0.01422 -0.0025,-0.02839 -0.0044,-0.04259 -0.0019,-0.014 -0.0048,-0.02801 -0.0076,-0.0419 -0.0025,-0.01326 -0.0052,-0.02626 -0.0083,-0.03947 -0.0032,-0.01305 -0.0073,-0.02591 -0.011,-0.03878 -0.0041,-0.01383 -0.0082,-0.0275 -0.01312,-0.0412 -0.0048,-0.01345 -0.01029,-0.02694 -0.0156,-0.04016 -0.005,-0.01188 -0.0097,-0.02358 -0.01524,-0.03532 -0.0064,-0.01379 -0.01365,-0.0274 -0.02078,-0.04086 -0.0046,-0.0087 -0.0085,-0.01741 -0.01347,-0.02597 -0.0019,-0.0036 -0.0044,-0.0065 -0.0066,-0.01004 -0.0064,-0.01064 -0.01312,-0.02114 -0.02009,-0.03151 -0.0092,-0.01399 -0.01812,-0.02794 -0.02805,-0.0412 -0.0038,-0.005 -0.0078,-0.0093 -0.0117,-0.0142 -0.01418,-0.01835 -0.0289,-0.03641 -0.04432,-0.05332 -0.07041,-0.07694 -0.153023,-0.138768 -0.24306,-0.184194 l -5.85379,-3.3791843 c -0.07341,-0.04244 -0.153217,-0.07443 -0.238556,-0.09348 0,-1.77e-4 -0.0021,-1.6e-4 -0.0021,-3.55e-4 -0.01955,-0.0044 -0.03952,-0.0077 -0.05954,-0.01073 -0.0094,-0.0014 -0.01865,-0.0031 -0.02805,-0.0042 -0.01347,-0.0016 -0.02755,-0.0022 -0.0412,-0.0031 -0.01542,-0.0011 -0.03063,-0.0023 -0.04606,-0.0024 -0.0038,0 -0.0076,-3.55e-4 -0.01099,-3.55e-4 z" />
    <rect
       style="fill:#808084;fill-opacity:1;stroke:none;stroke-width:0;stroke-linecap:square;stroke-miterlimit:4;stroke-dasharray:none"
       id="rect851-9-1-7-0"
       width="4.4979167"
       height="1.587503"
       x="0.26458335"
       y="2.9104166"
       rx="0.26458335"
       ry="0.26458335" />
    <rect
       style="fill:#808084;fill-opacity:1;stroke:none;stroke-width:0;stroke-linecap:square;stroke-miterlimit:4;stroke-dasharray:none"
       id="rect851-7-2-5-7-8"
       width="4.4979167"
       height="1.587503"
       x="0.26458335"
       y="7.6729283"
       rx="0.26458335"
       ry="0.26458335" />
    <rect
       style="fill:#808084;fill-opacity:1;stroke:none;stroke-width:0;stroke-linecap:square;stroke-miterlimit:4;stroke-dasharray:none"
       id="rect851-5-66-9-1-8"
       width="4.4979167"
       height="1.587503"
       x="0.26458335"
       y="12.435431"
       rx="0.26458335"
       ry="0.26458335" />
  </g>
</svg>
