<?xml version="1.0" encoding="UTF-8" standalone="no"?>
<svg
   xmlns:dc="http://purl.org/dc/elements/1.1/"
   xmlns:cc="http://creativecommons.org/ns#"
   xmlns:rdf="http://www.w3.org/1999/02/22-rdf-syntax-ns#"
   xmlns:svg="http://www.w3.org/2000/svg"
   xmlns="http://www.w3.org/2000/svg"
   xmlns:sodipodi="http://sodipodi.sourceforge.net/DTD/sodipodi-0.dtd"
   xmlns:inkscape="http://www.inkscape.org/namespaces/inkscape"
   width="64"
   height="64"
   viewBox="0 0 16.933333 16.933334"
   version="1.1"
   id="svg841"
   inkscape:version="1.0.2 (e86c870879, 2021-01-15)"
   sodipodi:docname="special-notes-symbolic.svg">
  <defs
     id="defs835" />
  <sodipodi:namedview
     id="base"
     pagecolor="#c4c4c4"
     bordercolor="#666666"
     borderopacity="1.0"
     inkscape:pageopacity="0"
     inkscape:pageshadow="2"
     inkscape:zoom="7.9751982"
     inkscape:cx="52.406009"
     inkscape:cy="37.799949"
     inkscape:document-units="px"
     inkscape:current-layer="layer1"
     inkscape:document-rotation="0"
     showgrid="false"
     units="px"
     inkscape:window-width="2048"
     inkscape:window-height="1080"
     inkscape:window-x="0"
     inkscape:window-y="0"
     inkscape:window-maximized="1" />
  <metadata
     id="metadata838">
    <rdf:RDF>
      <cc:Work
         rdf:about="">
        <dc:format>image/svg+xml</dc:format>
        <dc:type
           rdf:resource="http://purl.org/dc/dcmitype/StillImage" />
        <dc:title />
      </cc:Work>
    </rdf:RDF>
  </metadata>
  <g
     inkscape:label="Layer 1"
     inkscape:groupmode="layer"
     id="layer1">
    <rect
       style="fill:#808084;stroke:none;stroke-width:0.520965;stroke-linecap:round;stroke-linejoin:round;stroke-dashoffset:2.1875"
       id="rect939-7-6"
       width="6.8791666"
       height="1.190625"
       x="4.7624998"
       y="5.6885371"
       rx="0.59531248"
       ry="0.59531248" />
    <rect
       style="fill:#808084;stroke:none;stroke-width:0.520965;stroke-linecap:round;stroke-linejoin:round;stroke-dashoffset:2.1875"
       id="rect939-5-8-8"
       width="4.2333336"
       height="1.190625"
       x="4.7624998"
       y="9.1281185"
       rx="0.59531248"
       ry="0.59531248" />
    <rect
       style="fill:#808084;stroke:none;stroke-width:0.520965;stroke-linecap:round;stroke-linejoin:round;stroke-dashoffset:2.1875"
       id="rect939-3-4-9"
       width="2.3812499"
       height="1.190625"
       x="4.7624998"
       y="12.56771"
       rx="0.59531248"
       ry="0.59531248" />
    <rect
       style="opacity:0.25;fill:#808084;fill-opacity:1;stroke:none;stroke-width:0.520965;stroke-linecap:round;stroke-linejoin:round;stroke-dashoffset:2.1875"
       id="rect990-0-2"
       width="13.758333"
       height="3.7041667"
       x="1.5875"
       y="0.26458681"
       rx="1.3229166"
       ry="1.3229166" />
    <path
       id="rect994-5-9-4"
       style="fill:#808084;fill-opacity:1;stroke:none;stroke-width:0.520965;stroke-linecap:round;stroke-linejoin:round;stroke-dashoffset:2.1875"
       d="m 2.910417,0.26458334 c -0.732896,0 -1.322917,0.590021 -1.322917,1.32291596 v 1.455209 0.926042 11.3770827 c 0,0.732896 0.590021,1.322917 1.322917,1.322917 H 5.55625 6.879167 7.408334 c 0.146578,0 0.264583,-0.118004 0.264583,-0.264583 v -0.661459 c 0,-0.146579 -0.118005,-0.264583 -0.264583,-0.264583 H 6.879167 5.55625 3.439583 c -0.366448,0 -0.661458,-0.295011 -0.661458,-0.661459 V 3.9687503 h 11.377084 v 1.5875 1.322916 0.529167 c 0,0.146579 0.118004,0.264583 0.264583,0.264583 h 0.661458 c 0.146579,0 0.264584,-0.118004 0.264584,-0.264583 v -0.529167 -1.322916 -1.5875 -0.926042 -1.455209 c 0,-0.73289496 -0.590021,-1.32291596 -1.322917,-1.32291596 z M 3.439583,1.4552083 H 13.49375 c 0.366448,0 0.661459,0.29501 0.661459,0.661458 v 0.926042 H 2.778125 v -0.926042 c 0,-0.366448 0.29501,-0.661458 0.661458,-0.661458 z" />
    <path
       id="rect1475-9-6-4"
       style="display:inline;fill:#808084;fill-opacity:1;stroke-width:0.127501;stroke-linecap:round;stroke-linejoin:round;stroke-dashoffset:2.1875;stroke-opacity:0.74902"
       d="m 14.391076,9.2394893 a 0.81601823,0.8159978 0 0 0 -0.370496,-0.215878 0.81601823,0.8159978 0 0 0 -0.999316,0.577024 0.81601823,0.8159978 0 0 0 -0.02395,0.131719 l -1.677081,0.4493687 a 0.81601823,0.8159978 0 0 0 -0.08666,-0.102115 0.81601823,0.8159978 0 0 0 -1.154094,0 0.81601823,0.8159978 0 0 0 1.5e-5,1.154056 0.81601823,0.8159978 0 0 0 0.102317,0.08644 l -0.4494296,1.677252 a 0.81601823,0.8159978 0 0 0 -0.131725,0.02395 0.81601823,0.8159978 0 0 0 -0.577044,0.999293 0.81601823,0.8159978 0 0 0 0.9993056,0.577026 0.81601823,0.8159978 0 0 0 0.126266,-0.04525 l 1.227696,1.227668 a 0.81601823,0.8159978 0 0 0 -0.04531,0.126233 0.81601823,0.8159978 0 0 0 0.577042,0.999279 0.81601823,0.8159978 0 0 0 0.999316,-0.577025 0.81601823,0.8159978 0 0 0 0.02394,-0.131708 l 1.677082,-0.449369 a 0.81601823,0.8159978 0 0 0 0.08665,0.102111 0.81601823,0.8159978 0 0 0 1.154091,1.3e-5 0.81601823,0.8159978 0 0 0 10e-7,-1.154065 0.81601823,0.8159978 0 0 0 -0.102329,-0.08645 l 0.44943,-1.677251 a 0.81601823,0.8159978 0 0 0 0.131712,-0.02395 0.81601823,0.8159978 0 0 0 0.577056,-0.999291 0.81601823,0.8159978 0 0 0 -0.999318,-0.577029 0.81601823,0.8159978 0 0 0 -0.126253,0.04525 l -1.227696,-1.227669 a 0.81601823,0.8159978 0 0 0 0.04531,-0.126232 0.81601823,0.8159978 0 0 0 -0.206558,-0.7834037 z m -0.244416,1.3153607 1.227876,1.227836 a 0.81601823,0.8159978 0 0 0 -0.06904,0.257666 l -1.677437,0.449365 a 0.81601823,0.8159978 0 0 0 -0.18841,-0.188407 l 0.449376,-1.677397 a 0.81601823,0.8159978 0 0 0 0.257798,-0.06902 z m -1.000944,-0.268196 a 0.81601823,0.8159978 0 0 0 0.188775,0.188769 l -0.449386,1.677038 a 0.81601823,0.8159978 0 0 0 -0.131888,0.02411 0.81601823,0.8159978 0 0 0 -0.125898,0.04525 l -1.227887,-1.227839 a 0.81601823,0.8159978 0 0 0 0.06902,-0.25779 z m 2.308187,2.308134 a 0.81601823,0.8159978 0 0 0 0.188779,0.188756 l -0.449429,1.677251 a 0.81601823,0.8159978 0 0 0 -0.257787,0.06902 L 13.707578,13.30198 a 0.81601823,0.8159978 0 0 0 0.06904,-0.257786 z m -4.460183,-1.195099 1.227873,1.227848 a 0.81601823,0.8159978 0 0 0 -0.06904,0.257653 l -1.677248,0.449549 A 0.81601823,0.8159978 0 0 0 10.28653,13.14597 l 0.449429,-1.677251 a 0.81601823,0.8159978 0 0 0 0.257786,-0.06902 z m 2.308012,2.307954 1.227885,1.227852 a 0.81601823,0.8159978 0 0 0 -0.06904,0.257786 l -1.677245,0.449536 a 0.81601823,0.8159978 0 0 0 -0.188779,-0.188756 l 0.44943,-1.677252 a 0.81601823,0.8159978 0 0 0 0.131712,-0.02395 0.81601823,0.8159978 0 0 0 0.125898,-0.04526 z M 12.301019,13.43947 a 0.81601823,0.8159978 0 0 0 0.188763,0.188766 l -0.449426,1.677238 a 0.81601823,0.8159978 0 0 0 -0.257802,0.06903 l -1.227872,-1.227849 a 0.81601823,0.8159978 0 0 0 0.06904,-0.257652 z" />
  </g>
</svg>
