<?xml version="1.0" encoding="UTF-8" standalone="no"?>
<svg
   xmlns:dc="http://purl.org/dc/elements/1.1/"
   xmlns:cc="http://creativecommons.org/ns#"
   xmlns:rdf="http://www.w3.org/1999/02/22-rdf-syntax-ns#"
   xmlns:svg="http://www.w3.org/2000/svg"
   xmlns="http://www.w3.org/2000/svg"
   xmlns:sodipodi="http://sodipodi.sourceforge.net/DTD/sodipodi-0.dtd"
   xmlns:inkscape="http://www.inkscape.org/namespaces/inkscape"
   width="64"
   height="64"
   viewBox="0 0 16.933333 16.933334"
   version="1.1"
   id="svg841"
   inkscape:version="1.0.2 (e86c870879, 2021-01-15)"
   sodipodi:docname="edit-tag-symbolic-rtl.svg">
  <defs
     id="defs835" />
  <sodipodi:namedview
     id="base"
     pagecolor="#c4c4c4"
     bordercolor="#666666"
     borderopacity="1.0"
     inkscape:pageopacity="0"
     inkscape:pageshadow="2"
     inkscape:zoom="4.4950457"
     inkscape:cx="68.787371"
     inkscape:cy="47.471689"
     inkscape:document-units="px"
     inkscape:current-layer="layer1"
     inkscape:document-rotation="0"
     showgrid="false"
     units="px"
     inkscape:window-width="2048"
     inkscape:window-height="1080"
     inkscape:window-x="0"
     inkscape:window-y="0"
     inkscape:window-maximized="1" />
  <metadata
     id="metadata838">
    <rdf:RDF>
      <cc:Work
         rdf:about="">
        <dc:format>image/svg+xml</dc:format>
        <dc:type
           rdf:resource="http://purl.org/dc/dcmitype/StillImage" />
        <dc:title></dc:title>
      </cc:Work>
    </rdf:RDF>
  </metadata>
  <g
     inkscape:label="Layer 1"
     inkscape:groupmode="layer"
     id="layer1">
    <circle
       style="fill:#808084;fill-opacity:1;stroke-width:0.672026;stroke-linecap:round;stroke-linejoin:round;stroke-dashoffset:2.1875"
       id="path1070"
       cx="12.282255"
       cy="4.6508799"
       r="1.3229166" />
    <path
       id="rect863-3-1-7-0-9-2-2"
       style="fill:#808084;fill-opacity:1;stroke-width:1.19063;stroke-linecap:round;stroke-linejoin:round;stroke-dashoffset:2.1875"
       d="m 14.663802,0.68156667 c 0.439738,0 0.836507,0.177114 1.123448,0.46405403 0.28694,0.286942 0.464052,0.683708 0.464052,1.123446 v 4.7624998 c -2e-6,0.439922 -0.176897,0.836477 -0.464052,1.123446 l 5.29e-4,5.29e-4 -4.212146,4.2121465 -3.6509401,3.65094 c -0.310941,0.310944 -0.811472,0.310941 -1.1224131,0 L 0.91530084,10.131649 c -0.310939,-0.3109392 -0.310941,-0.8114712 0,-1.1224125 l 3.65093996,-3.65094 4.2121461,-4.2121458 -0.0011,-5.3e-4 C 9.0642949,0.85846467 9.4613659,0.68156667 9.9012889,0.68156667 Z M 10.298177,1.8716747 c -0.220056,-2e-6 -0.4182241,0.08885 -0.5617211,0.232544 L 2.5513648,9.2893108 c -0.155472,0.155471 -0.155472,0.405736 0,0.561206 L 7.0828709,14.38254 c 0.155469,0.155469 0.405735,0.155472 0.561205,0 l 7.1850911,-7.1850915 -5.29e-4,-0.001 c 0.143682,-0.1435 0.232542,-0.341669 0.232545,-0.561723 l -5.29e-4,-3.96875 c 0,-0.4397368 -0.354013,-0.7937498 -0.79375,-0.7937498 z" />
  </g>
</svg>
