<?xml version="1.0" encoding="UTF-8" standalone="no"?>
<svg
   xmlns:dc="http://purl.org/dc/elements/1.1/"
   xmlns:cc="http://creativecommons.org/ns#"
   xmlns:rdf="http://www.w3.org/1999/02/22-rdf-syntax-ns#"
   xmlns:svg="http://www.w3.org/2000/svg"
   xmlns="http://www.w3.org/2000/svg"
   xmlns:xlink="http://www.w3.org/1999/xlink"
   xmlns:sodipodi="http://sodipodi.sourceforge.net/DTD/sodipodi-0.dtd"
   xmlns:inkscape="http://www.inkscape.org/namespaces/inkscape"
   width="64"
   height="64"
   viewBox="0 0 64 64"
   version="1.1"
   id="svg6374"
   inkscape:version="1.0.2 (e86c870879, 2021-01-15)"
   sodipodi:docname="document-new.svg">
  <defs
     id="defs6368">
    <linearGradient
       inkscape:collect="always"
       xlink:href="#linearGradient877"
       id="linearGradient879"
       x1="47.75"
       y1="33.5"
       x2="48.25"
       y2="61.5"
       gradientUnits="userSpaceOnUse"
       gradientTransform="translate(-16,-15.5)" />
    <linearGradient
       inkscape:collect="always"
       id="linearGradient877">
      <stop
         style="stop-color:#17cea7;stop-opacity:1"
         offset="0"
         id="stop873" />
      <stop
         style="stop-color:#13ae8d;stop-opacity:1"
         offset="1"
         id="stop875" />
    </linearGradient>
  </defs>
  <sodipodi:namedview
     id="base"
     pagecolor="#cecece"
     bordercolor="#666666"
     borderopacity="1.0"
     inkscape:pageopacity="0"
     inkscape:pageshadow="2"
     inkscape:zoom="12.149552"
     inkscape:cx="13.512592"
     inkscape:cy="25.040983"
     inkscape:document-units="px"
     inkscape:current-layer="layer1"
     inkscape:document-rotation="0"
     showgrid="false"
     units="px"
     inkscape:window-width="2048"
     inkscape:window-height="1080"
     inkscape:window-x="0"
     inkscape:window-y="0"
     inkscape:window-maximized="1" />
  <metadata
     id="metadata6371">
    <rdf:RDF>
      <cc:Work
         rdf:about="">
        <dc:format>image/svg+xml</dc:format>
        <dc:type
           rdf:resource="http://purl.org/dc/dcmitype/StillImage" />
        <dc:title />
      </cc:Work>
    </rdf:RDF>
  </metadata>
  <g
     inkscape:label="Layer 1"
     inkscape:groupmode="layer"
     id="layer1">
    <path
       id="rect954-7-0-7-3-0-0-0-6-31"
       style="color:#000000;font-style:normal;font-variant:normal;font-weight:normal;font-stretch:normal;font-size:medium;line-height:normal;font-family:sans-serif;font-variant-ligatures:normal;font-variant-position:normal;font-variant-caps:normal;font-variant-numeric:normal;font-variant-alternates:normal;font-variant-east-asian:normal;font-feature-settings:normal;font-variation-settings:normal;text-indent:0;text-align:start;text-decoration:none;text-decoration-line:none;text-decoration-style:solid;text-decoration-color:#000000;letter-spacing:normal;word-spacing:normal;text-transform:none;writing-mode:lr-tb;direction:ltr;text-orientation:mixed;dominant-baseline:auto;baseline-shift:baseline;text-anchor:start;white-space:normal;shape-padding:0;shape-margin:0;inline-size:0;clip-rule:nonzero;display:inline;overflow:visible;visibility:visible;opacity:0.85;isolation:auto;mix-blend-mode:normal;color-interpolation:sRGB;color-interpolation-filters:linearRGB;solid-color:#000000;solid-opacity:1;vector-effect:none;fill:#0a5c48;fill-opacity:1;fill-rule:nonzero;stroke:none;stroke-linecap:round;stroke-linejoin:round;stroke-miterlimit:4;stroke-dasharray:none;stroke-dashoffset:2.1875;stroke-opacity:1;color-rendering:auto;image-rendering:auto;shape-rendering:auto;text-rendering:auto;enable-background:accumulate;stop-color:#000000"
       d="M 13,2.5 C 10.53295,2.5 8.5,4.53295 8.5,7 v 50 c 0,2.46705 2.03295,4.5 4.5,4.5 h 38 c 2.467,0 4.5,-2.03295 4.5,-4.5 V 7 C 55.5,4.53295 53.467,2.5 51,2.5 Z m 0,3 h 38 c 0.8569,0 1.5,0.64306 1.5,1.5 v 50 c 0,0.85695 -0.6431,1.5 -1.5,1.5 H 13 c -0.85695,0 -1.5,-0.64305 -1.5,-1.5 V 7 c 0,-0.85694 0.64305,-1.5 1.5,-1.5 z" />
    <rect
       style="fill:#fcfcfc;fill-opacity:1;stroke-width:0.495;stroke-linecap:round;stroke-linejoin:round;stroke-miterlimit:4;stroke-dasharray:none;stroke-dashoffset:2.1875"
       id="rect954-7-0-7-3-0-0-9"
       width="44"
       height="56"
       x="10.000031"
       y="3.9999995"
       rx="3"
       ry="3" />
    <path
       id="rect4307-0-2-6-35-2-1-0"
       style="opacity:0.25;fill:#095343;fill-opacity:1;stroke:none;stroke-width:0;stroke-linecap:round;stroke-linejoin:round;stroke-miterlimit:4;stroke-dasharray:none;stroke-dashoffset:2.1875;stroke-opacity:1"
       d="m 30.5,19.75 c -0.554,0 -1,0.446 -1,1 V 31.500003 H 18.75 c -0.554,0 -1,0.446 -1,1.0001 v 2.9999 c 0,0.554 0.446,1 1,1 H 29.5 v 10.7501 c 0,0.554 0.446,0.9999 1,0.9999 h 3 c 0.554,0 1,-0.4459 1,-0.9999 v -10.7501 h 10.75 c 0.554,0 1,-0.446 1,-1 v -2.9999 c 0,-0.5541 -0.446,-1.0001 -1,-1.0001 H 34.5 V 20.75 c 0,-0.554 -0.446,-1 -1,-1 z" />
    <path
       id="rect4307-0-2-6-35-2-1"
       style="fill:url(#linearGradient879);fill-opacity:1;stroke:none;stroke-width:0;stroke-linecap:round;stroke-linejoin:round;stroke-miterlimit:4;stroke-dasharray:none;stroke-dashoffset:2.1875;stroke-opacity:1"
       d="m 30.5,17.75 c -0.554,0 -1,0.446 -1,1 V 29.500003 H 18.75 c -0.554,0 -1,0.446 -1,1.0001 v 2.9999 c 0,0.554 0.446,1 1,1 H 29.5 v 10.7501 c 0,0.554 0.446,0.9999 1,0.9999 h 3 c 0.554,0 1,-0.4459 1,-0.9999 v -10.7501 h 10.75 c 0.554,0 1,-0.446 1,-1 v -2.9999 c 0,-0.5541 -0.446,-1.0001 -1,-1.0001 H 34.5 V 18.75 c 0,-0.554 -0.446,-1 -1,-1 z" />
    <path
       id="rect4307-0-2-9-9-1-5-3-6"
       style="color:#000000;font-style:normal;font-variant:normal;font-weight:normal;font-stretch:normal;font-size:medium;line-height:normal;font-family:sans-serif;font-variant-ligatures:normal;font-variant-position:normal;font-variant-caps:normal;font-variant-numeric:normal;font-variant-alternates:normal;font-variant-east-asian:normal;font-feature-settings:normal;font-variation-settings:normal;text-indent:0;text-align:start;text-decoration:none;text-decoration-line:none;text-decoration-style:solid;text-decoration-color:#000000;letter-spacing:normal;word-spacing:normal;text-transform:none;writing-mode:lr-tb;direction:ltr;text-orientation:mixed;dominant-baseline:auto;baseline-shift:baseline;text-anchor:start;white-space:normal;shape-padding:0;shape-margin:0;inline-size:0;clip-rule:nonzero;display:inline;overflow:visible;visibility:visible;opacity:1;isolation:auto;mix-blend-mode:normal;color-interpolation:sRGB;color-interpolation-filters:linearRGB;solid-color:#000000;solid-opacity:1;vector-effect:none;fill:#0a5c4a;fill-opacity:1;fill-rule:nonzero;stroke:none;stroke-width:3.77953;stroke-linecap:round;stroke-linejoin:round;stroke-miterlimit:4;stroke-dasharray:none;stroke-dashoffset:2.1875;stroke-opacity:1;color-rendering:auto;image-rendering:auto;shape-rendering:auto;text-rendering:auto;enable-background:accumulate;stop-color:#000000"
       d="m 30.50195,17 c -0.95652,0 -1.75,0.7915 -1.75,1.7481 V 28.752003 H 18.75 c -0.95653,0 -1.75,0.7915 -1.75,1.748 v 2.9981 c 0,0.9565 0.79347,1.75 1.75,1.75 h 10.00195 v 10.002 c 0,0.9565 0.79348,1.75 1.75,1.75 h 2.9961 c 0.95652,0 1.75,-0.7935 1.75,-1.75 v -10.002 H 45.25 c 0.95653,0 1.75,-0.7935 1.75,-1.75 v -2.9981 c 0,-0.9565 -0.79347,-1.748 -1.75,-1.748 H 35.24805 V 18.7481 c 0,-0.9566 -0.79348,-1.7481 -1.75,-1.7481 z m 0,1.4981 h 2.9961 c 0.15148,0 0.25194,0.099 0.25194,0.2498 v 10.748003 a 0.75007497,0.75007497 0 0 0 0.75195,0.7539 H 45.25 c 0.15148,0 0.25194,0.099 0.25194,0.2499 v 2.998 c 0,0.1516 -0.10046,0.2499 -0.25194,0.2499 H 34.50194 a 0.75007497,0.75007497 0 0 0 -0.75195,0.7539 v 10.748 c 0,0.1516 -0.10046,0.2498 -0.25194,0.2498 h -2.9961 c -0.15148,0 -0.25194,-0.099 -0.25194,-0.2498 v -10.748 a 0.75007497,0.75007497 0 0 0 -0.7461,-0.7539 h -10.7539 c -0.15148,0 -0.25194,-0.099 -0.25194,-0.2499 v -2.998 c 0,-0.1516 0.10046,-0.2499 0.25194,-0.2499 h 10.7539 A 0.75007497,0.75007497 0 0 0 30.25,29.495903 V 18.7479 c 0,-0.1515 0.10046,-0.2498 0.25194,-0.2498 z" />
  </g>
</svg>
