<?xml version="1.0" encoding="UTF-8" standalone="no"?>
<svg
   xmlns:dc="http://purl.org/dc/elements/1.1/"
   xmlns:cc="http://creativecommons.org/ns#"
   xmlns:rdf="http://www.w3.org/1999/02/22-rdf-syntax-ns#"
   xmlns:svg="http://www.w3.org/2000/svg"
   xmlns="http://www.w3.org/2000/svg"
   xmlns:sodipodi="http://sodipodi.sourceforge.net/DTD/sodipodi-0.dtd"
   xmlns:inkscape="http://www.inkscape.org/namespaces/inkscape"
   width="64"
   height="64"
   viewBox="0 0 64 64"
   version="1.1"
   id="svg6374"
   inkscape:version="1.0.2 (e86c870879, 2021-01-15)"
   sodipodi:docname="gtk-convert.svg">
  <defs
     id="defs6368" />
  <sodipodi:namedview
     id="base"
     pagecolor="#cecece"
     bordercolor="#666666"
     borderopacity="1.0"
     inkscape:pageopacity="0"
     inkscape:pageshadow="2"
     inkscape:zoom="6.8818909"
     inkscape:cx="20.896034"
     inkscape:cy="43.869284"
     inkscape:document-units="px"
     inkscape:current-layer="layer1"
     inkscape:document-rotation="0"
     showgrid="false"
     units="px"
     inkscape:window-width="1500"
     inkscape:window-height="970"
     inkscape:window-x="68"
     inkscape:window-y="56"
     inkscape:window-maximized="0" />
  <metadata
     id="metadata6371">
    <rdf:RDF>
      <cc:Work
         rdf:about="">
        <dc:format>image/svg+xml</dc:format>
        <dc:type
           rdf:resource="http://purl.org/dc/dcmitype/StillImage" />
        <dc:title />
      </cc:Work>
    </rdf:RDF>
  </metadata>
  <g
     inkscape:label="Layer 1"
     inkscape:groupmode="layer"
     id="layer1">
    <path
       id="path1778-2-9"
       style="color:#000000;font-style:normal;font-variant:normal;font-weight:normal;font-stretch:normal;font-size:medium;line-height:normal;font-family:sans-serif;font-variant-ligatures:normal;font-variant-position:normal;font-variant-caps:normal;font-variant-numeric:normal;font-variant-alternates:normal;font-variant-east-asian:normal;font-feature-settings:normal;font-variation-settings:normal;text-indent:0;text-align:start;text-decoration:none;text-decoration-line:none;text-decoration-style:solid;text-decoration-color:#000000;letter-spacing:normal;word-spacing:normal;text-transform:none;writing-mode:lr-tb;direction:ltr;text-orientation:mixed;dominant-baseline:auto;baseline-shift:baseline;text-anchor:start;white-space:normal;shape-padding:0;shape-margin:0;inline-size:0;clip-rule:nonzero;display:inline;overflow:visible;visibility:visible;opacity:0.075;isolation:auto;mix-blend-mode:normal;color-interpolation:sRGB;color-interpolation-filters:linearRGB;solid-color:#000000;solid-opacity:1;vector-effect:none;fill:#0c0c0c;fill-opacity:1;fill-rule:nonzero;stroke:none;stroke-width:1.00001;stroke-linecap:round;stroke-linejoin:round;stroke-miterlimit:4;stroke-dasharray:none;stroke-dashoffset:0;stroke-opacity:1;color-rendering:auto;image-rendering:auto;shape-rendering:auto;text-rendering:auto;enable-background:accumulate;stop-color:#000000"
       d="m 27.27278,5.0507764 a 1.0001104,1.0001 0 0 0 -0.0312,0.002 l -18.1779195,0.56055 a 1.0001104,1.0001 0 0 0 -0.0254,0 c -0.10156,0.006 -0.21991,0.0226 -0.33985,0.0527 -0.13504,0.0328 -0.23928,0.0745 -0.32226,0.11328 -10e-4,4.9e-4 -0.003,10e-4 -0.004,0.002 -0.0905,0.0411 -0.216,0.10312 -0.35938,0.23047 a 1.0001104,1.0001 0 0 0 -0.0234,0.0215 l -0.004,0.004 c -0.40635,0.35226 -0.59541,0.8686 -0.5918,1.3418 a 1.0001104,1.0001 0 0 0 0.25586,0.66211 c 0.0851,0.21568 0.0905,0.45741 0.24805,0.63867 l 0.45509,0.52539 4.0644895,4.6738296 c -4.1949095,4.16283 -7.0765095,9.53444 -8.0469595,15.44141 -0.37518,2.28376 -0.47022,4.64059 -0.26172,7.02343 1.09857,12.55634 10.4329895,22.87626 22.7736795,25.25977 a 1.0001104,1.0001 0 0 0 0.0137,0.002 l 0.43554,0.0781 a 1.0001104,1.0001 0 0 0 0.002,0 c 1.01292,0.17921 2.01112,-0.51791 2.18948,-1.53125 l 1.04298,-5.91211 c 0.16584,-0.94117 -0.42729,-1.86061 -1.32619,-2.13086 a 1.0001104,1.0001 0 0 0 -0.22656,-0.0703 c -8.24148,-1.46239 -14.43066,-8.22256 -15.16032,-16.5625 -0.47116,-5.38491 1.49621,-10.44979 5.01177,-14.18164 l 3.53519,4.06445 0.60939,0.70117 c 0.64011,0.73614 1.81727,0.98338 2.62698,0.2832 0,0 0,-0.002 0,-0.002 0.1656,-0.14332 0.25354,-0.27535 0.30078,-0.3457 a 1.0001104,1.0001 0 0 0 0.0215,-0.0352 c 0.0448,-0.071 0.0927,-0.15858 0.13867,-0.26953 0.0696,-0.16533 0.0948,-0.30081 0.10937,-0.40039 L 29.28841,7.3731564 c 0.11058,-0.63915 -0.13428,-1.21348 -0.48047,-1.61328 a 1.0001104,1.0001 0 0 0 -0.002,-0.002 c -0.34672,-0.39925 -0.8794,-0.72675 -1.53322,-0.70703 z m 9.01573,1.24023 c -0.87213,0.0276 -1.65642,0.67396 -1.81252,1.56055 l -1.04298,5.9101496 c -0.16473,0.93478 0.4229,1.84846 1.31055,2.125 a 1.0001104,1.0001 0 0 0 0.24219,0.0762 c 8.24148,1.46246 14.43264,8.22454 15.16227,16.56446 0.47125,5.38576 -1.49702,10.44783 -5.01372,14.17969 l -3.5352,-4.0625 -0.60742,-0.70313 a 1.0001104,1.0001 0 0 0 -0.002,-0.002 c -0.64218,-0.73848 -1.82079,-0.9799 -2.62894,-0.27735 -0.1642,0.14244 -0.25081,0.27398 -0.29883,0.34571 a 1.0001104,1.0001 0 0 0 -0.0977,0.18554 l -0.004,0.01 c -0.0191,0.0372 -0.0381,0.0645 -0.0566,0.10937 -0.0614,0.14546 -0.0934,0.27578 -0.11133,0.39844 l -3.08206,17.91992 c -0.10967,0.6383 0.13662,1.21393 0.48243,1.61329 0.34867,0.40147 0.88385,0.72468 1.53322,0.70507 l 18.21112,-0.55859 a 1.0001104,1.0001 0 0 0 0.0254,0 c 0.1129,-0.006 0.22748,-0.0253 0.32618,-0.0488 0,0 0.002,0 0.002,0 0.11295,-0.0265 0.21848,-0.0638 0.32228,-0.11133 l 0.004,-0.002 c 0.11332,-0.0513 0.23933,-0.12126 0.3711,-0.23828 a 1.0001104,1.0001 0 0 0 0.0215,-0.0195 l 0.0352,-0.0332 -0.0312,0.0273 c 0.40633,-0.35226 0.59733,-0.86667 0.59376,-1.33985 a 1.0001104,1.0001 0 0 0 -0.25782,-0.66211 c -0.0851,-0.21555 -0.0905,-0.45751 -0.24805,-0.63867 h 0.002 l -0.45508,-0.52539 a 1.0001104,1.0001 0 0 0 -0.002,0 l -4.0645,-4.67383 c 4.19491,-4.16283 7.07651,-9.5364 8.04696,-15.44335 0.37517,-2.28378 0.47217,-4.63864 0.26367,-7.02149 C 58.79382,19.103986 49.45742,8.7840764 37.11677,6.4005564 a 1.0001104,1.0001 0 0 0 -0.0137,-0.002 l -0.43556,-0.0801 a 1.0001104,1.0001 0 0 0 -0.002,0 c -0.12663,-0.0224 -0.25237,-0.0313 -0.37695,-0.0273 z m -8.97081,0.74219 -0.004,0.0176 h 0.0195 c -0.0424,10e-4 -0.0175,0.0117 -0.0195,0.0117 l -3.00199,17.4472696 -0.40234,-0.46289 -4.29692,-4.94141 a 1.0001104,1.0001 0 0 0 -1.44142,-0.0703 c -4.42342,4.18722 -6.86805,10.2444 -6.31062,16.61523 0.80154,9.16153 7.5936,16.61943 16.61542,18.3086 a 1.0001104,1.0001 0 0 0 0.10156,0.0352 l -1.00587,5.70117 -0.32228,-0.0586 C 15.78623,57.416276 7.1213105,47.836516 6.1005905,36.169976 c -0.19385,-2.2154 -0.10429,-4.40448 0.24414,-6.52539 0.95086,-5.78771 3.8287895,-11.07322 8.0879795,-15.01758 a 1.0001104,1.0001 0 0 0 0.0762,-1.39063 L 9.8623805,7.8945864 9.6045605,7.5957564 27.30591,7.0508364 c -5.1e-4,-0.005 0.005,0.0197 0.0117,-0.0176 z m 9.10948,1.27344 0.30859,0.0566 c 11.47001,2.2153396 20.14314,11.7993396 21.16428,23.4706996 0.19385,2.21539 0.10233,4.4025 -0.24609,6.52344 -0.95086,5.78769 -3.82878,11.07515 -8.08797,15.01953 a 1.0001104,1.0001 0 0 0 -0.0762,1.38867 l 4.64653,5.34375 0.25782,0.29883 -17.6994,0.54297 c 3e-5,0.003 -0.009,-0.0167 -0.0137,0.0176 l 0.004,-0.0176 h -0.0195 c 0.0392,-0.001 0.0164,-0.0103 0.0195,-0.01 l 3.00198,-17.45117 0.40236,0.46484 4.29691,4.93946 a 1.0001104,1.0001 0 0 0 1.44338,0.0703 c 4.42331,-4.1871 6.86805,-10.2405 6.31061,-16.61133 -0.80128,-9.15881 -7.59174,-16.61643 -16.60955,-18.30859 0,0 -0.002,0 -0.002,0 a 1.0001104,1.0001 0 0 0 -0.10742,-0.0371 z" />
    <path
       id="path1778"
       style="fill:#4bc4b0;fill-opacity:1;stroke:none;stroke-width:7.78204;stroke-linecap:butt;stroke-linejoin:round;stroke-miterlimit:4;stroke-dasharray:none;stroke-opacity:1"
       d="m 27.30366,4.0506364 -18.2092395,0.56055 c -0.0537,0.003 -0.10459,0.01 -0.15625,0.0234 -0.048,0.0112 -0.096,0.0299 -0.14064,0.0508 -0.0431,0.0194 -0.0854,0.0425 -0.12109,0.0742 l -0.0352,0.0332 c -0.16767,0.14535 -0.24974,0.35564 -0.24804,0.57813 h 0.002 c 0.002,0.22242 0.088,0.45703 0.25781,0.65234 l 0.45509,0.52539 4.6465395,5.3437496 c -4.4210895,4.09429 -7.4091895,9.57973 -8.3965895,15.58985 -0.36181,2.20234 -0.45508,4.47431 -0.25392,6.77343 1.05988,12.11384 10.0636695,22.06581 21.9690595,24.36524 l 0.43556,0.0781 c 0.48497,0.0858 0.94387,-0.23524 1.02932,-0.7207 l 1.04298,-5.91211 c 0.0855,-0.48521 -0.23545,-0.94577 -0.72072,-1.03125 l -0.0215,-0.0117 c -8.67979,-1.54016 -15.21419,-8.67754 -15.98265,-17.46094 -0.53054,-6.06342 1.79426,-11.8177 6.00204,-15.80078 l 4.29693,4.94141 0.60939,0.70117 c 0.33976,0.39073 0.88381,0.47285 1.21877,0.18164 0.0497,-0.0429 0.0877,-0.0958 0.12305,-0.14844 l 0.006,-0.01 c 0.0248,-0.0393 0.0476,-0.0809 0.0645,-0.12305 0.021,-0.0488 0.033,-0.10349 0.041,-0.1582 L 28.30384,5.2027064 c 0.049,-0.2832 -0.0599,-0.56727 -0.25195,-0.78906 -0.19263,-0.22181 -0.46021,-0.37197 -0.74806,-0.36329 z m 9.18763,1.25196 c -0.48498,-0.0858 -0.94385,0.23533 -1.02932,0.7207 L 34.419,11.935406 c -0.0855,0.48519 0.23542,0.94381 0.72071,1.0293 l 0.0215,0.0137 c 8.67978,1.54023 15.21422,8.67755 15.98266,17.46094 0.53054,6.06342 -1.79426,11.81575 -6.00205,15.79882 l -4.29693,-4.93945 -0.60939,-0.70312 c -0.33977,-0.39073 -0.88381,-0.47088 -1.21876,-0.17969 -0.0497,0.0429 -0.0878,0.0958 -0.12305,0.14844 l -0.004,0.01 c -0.0248,0.0393 -0.0476,0.081 -0.0644,0.12305 -0.021,0.0488 -0.035,0.10348 -0.043,0.1582 l -3.08598,17.94336 c -0.049,0.28321 0.0599,0.56727 0.25195,0.78906 0.19262,0.2218 0.46024,0.37002 0.74806,0.36133 l 18.2112,-0.55859 c 0.0537,-0.003 0.10264,-0.0108 0.15429,-0.0234 0.048,-0.0112 0.096,-0.0279 0.14064,-0.0488 0.0431,-0.0194 0.0854,-0.0445 0.12109,-0.0762 l 0.0352,-0.0332 c 0.16766,-0.14535 0.24974,-0.35565 0.24805,-0.57813 h -0.002 c -0.002,-0.22245 -0.088,-0.45704 -0.25781,-0.65234 l -0.45509,-0.52539 -4.64654,-5.34375 c 4.4211,-4.0943 7.40919,-9.57973 8.3966,-15.58984 0.36179,-2.20236 0.45508,-4.47432 0.25391,-6.77344 C 57.83599,17.632416 48.83218,7.6804464 36.9268,5.3810264 Z" />
    <path
       id="path1778-2"
       style="color:#000000;font-style:normal;font-variant:normal;font-weight:normal;font-stretch:normal;font-size:medium;line-height:normal;font-family:sans-serif;font-variant-ligatures:normal;font-variant-position:normal;font-variant-caps:normal;font-variant-numeric:normal;font-variant-alternates:normal;font-variant-east-asian:normal;font-feature-settings:normal;font-variation-settings:normal;text-indent:0;text-align:start;text-decoration:none;text-decoration-line:none;text-decoration-style:solid;text-decoration-color:#000000;letter-spacing:normal;word-spacing:normal;text-transform:none;writing-mode:lr-tb;direction:ltr;text-orientation:mixed;dominant-baseline:auto;baseline-shift:baseline;text-anchor:start;white-space:normal;shape-padding:0;shape-margin:0;inline-size:0;clip-rule:nonzero;display:inline;overflow:visible;visibility:visible;opacity:0.95;isolation:auto;mix-blend-mode:normal;color-interpolation:sRGB;color-interpolation-filters:linearRGB;solid-color:#000000;solid-opacity:1;vector-effect:none;fill:#205b50;fill-opacity:1;fill-rule:nonzero;stroke:none;stroke-width:1.00001;stroke-linecap:round;stroke-linejoin:round;stroke-miterlimit:4;stroke-dasharray:none;stroke-dashoffset:0;stroke-opacity:1;color-rendering:auto;image-rendering:auto;shape-rendering:auto;text-rendering:auto;enable-background:accumulate;stop-color:#000000"
       d="m 27.27278,3.0507764 a 1.0001104,1.0001 0 0 0 -0.0312,0.002 l -18.1779195,0.56055 a 1.0001104,1.0001 0 0 0 -0.0254,0 c -0.10156,0.006 -0.21991,0.0226 -0.33985,0.0527 -0.13504,0.0328 -0.23928,0.0745 -0.32226,0.11328 -10e-4,4.9e-4 -0.003,0.001 -0.004,0.002 -0.0905,0.0411 -0.216,0.10312 -0.35938,0.23047 a 1.0001104,1.0001 0 0 0 -0.0234,0.0215 l -0.004,0.004 c -0.40635,0.35226 -0.59541,0.8686 -0.5918,1.3418 a 1.0001104,1.0001 0 0 0 0.25586,0.66211 c 0.0851,0.21568 0.0905,0.45741 0.24805,0.63867 l 0.45509,0.52539 4.0644895,4.6738296 c -4.1949095,4.16283 -7.0765095,9.53444 -8.0469595,15.44141 -0.37518,2.28376 -0.47022,4.64059 -0.26172,7.02343 1.09857,12.55634 10.4329895,22.87626 22.7736795,25.25977 a 1.0001104,1.0001 0 0 0 0.0137,0.002 l 0.43554,0.0781 a 1.0001104,1.0001 0 0 0 0.002,0 c 1.01292,0.17921 2.01112,-0.51791 2.18948,-1.53125 l 1.04298,-5.91211 c 0.16584,-0.94117 -0.42729,-1.86061 -1.32619,-2.13086 a 1.0001104,1.0001 0 0 0 -0.22656,-0.0703 c -8.24148,-1.46239 -14.43066,-8.22256 -15.16032,-16.5625 -0.47116,-5.38491 1.49621,-10.44979 5.01177,-14.18164 l 3.53519,4.06445 0.60939,0.70117 c 0.64011,0.73614 1.81727,0.98338 2.62698,0.2832 0,0 0,-0.002 0,-0.002 0.1656,-0.14332 0.25354,-0.27535 0.30078,-0.3457 a 1.0001104,1.0001 0 0 0 0.0215,-0.0352 c 0.0448,-0.071 0.0927,-0.15858 0.13867,-0.26953 0.0696,-0.16533 0.0948,-0.30081 0.10937,-0.40039 L 29.28841,5.3731564 c 0.11058,-0.63915 -0.13428,-1.21348 -0.48047,-1.61328 a 1.0001104,1.0001 0 0 0 -0.002,-0.002 c -0.34672,-0.39925 -0.8794,-0.72675 -1.53322,-0.70703 z m 9.01573,1.24023 c -0.87213,0.0276 -1.65642,0.67396 -1.81252,1.56055 l -1.04298,5.9101496 c -0.16473,0.93478 0.4229,1.84846 1.31055,2.125 a 1.0001104,1.0001 0 0 0 0.24219,0.0762 c 8.24148,1.46246 14.43264,8.22454 15.16227,16.56446 0.47125,5.38576 -1.49702,10.44783 -5.01372,14.17969 l -3.5352,-4.0625 -0.60742,-0.70313 a 1.0001104,1.0001 0 0 0 -0.002,-0.002 c -0.64218,-0.73848 -1.82079,-0.9799 -2.62894,-0.27735 -0.1642,0.14244 -0.25081,0.27398 -0.29883,0.34571 a 1.0001104,1.0001 0 0 0 -0.0977,0.18554 l -0.004,0.01 c -0.0191,0.0372 -0.0381,0.0645 -0.0566,0.10937 -0.0614,0.14546 -0.0934,0.27578 -0.11133,0.39844 l -3.08206,17.91992 c -0.10967,0.6383 0.13662,1.21393 0.48243,1.61329 0.34867,0.40147 0.88385,0.72468 1.53322,0.70507 l 18.21112,-0.55859 a 1.0001104,1.0001 0 0 0 0.0254,0 c 0.1129,-0.006 0.22748,-0.0253 0.32618,-0.0488 0,0 0.002,0 0.002,0 0.11295,-0.0265 0.21848,-0.0638 0.32228,-0.11133 l 0.004,-0.002 c 0.11332,-0.0513 0.23933,-0.12126 0.3711,-0.23828 a 1.0001104,1.0001 0 0 0 0.0215,-0.0195 l 0.0352,-0.0332 -0.0312,0.0273 c 0.40633,-0.35226 0.59733,-0.86667 0.59376,-1.33985 a 1.0001104,1.0001 0 0 0 -0.25782,-0.66211 c -0.0851,-0.21555 -0.0905,-0.45751 -0.24805,-0.63867 h 0.002 l -0.45508,-0.52539 a 1.0001104,1.0001 0 0 0 -0.002,0 l -4.0645,-4.67383 c 4.19491,-4.16283 7.07651,-9.5364 8.04696,-15.44335 0.37517,-2.28378 0.47217,-4.63864 0.26367,-7.02149 C 58.79382,17.103986 49.45742,6.7840764 37.11677,4.4005564 a 1.0001104,1.0001 0 0 0 -0.0137,-0.002 l -0.43556,-0.0801 a 1.0001104,1.0001 0 0 0 -0.002,0 c -0.12663,-0.0224 -0.25237,-0.0313 -0.37695,-0.0273 z m -8.97081,0.74219 -0.004,0.0176 h 0.0195 c -0.0424,10e-4 -0.0175,0.0117 -0.0195,0.0117 l -3.00199,17.4472696 -0.40234,-0.46289 -4.29692,-4.94141 a 1.0001104,1.0001 0 0 0 -1.44142,-0.0703 c -4.42342,4.18722 -6.86805,10.2444 -6.31062,16.61523 0.80154,9.16153 7.5936,16.61943 16.61542,18.3086 a 1.0001104,1.0001 0 0 0 0.10156,0.0352 l -1.00587,5.70117 -0.32228,-0.0586 C 15.78623,55.416276 7.1213105,45.836516 6.1005905,34.169976 c -0.19385,-2.2154 -0.10429,-4.40448 0.24414,-6.52539 0.95086,-5.78771 3.8287895,-11.07322 8.0879795,-15.01758 a 1.0001104,1.0001 0 0 0 0.0762,-1.39063 L 9.8623805,5.8945864 9.6045605,5.5957564 27.30591,5.0508364 c -5.1e-4,-0.005 0.005,0.0197 0.0117,-0.0176 z m 9.10948,1.27344 0.30859,0.0566 c 11.47001,2.21534 20.14314,11.7993396 21.16428,23.4706996 0.19385,2.21539 0.10233,4.4025 -0.24609,6.52344 -0.95086,5.78769 -3.82878,11.07515 -8.08797,15.01953 a 1.0001104,1.0001 0 0 0 -0.0762,1.38867 l 4.64653,5.34375 0.25782,0.29883 -17.6994,0.54297 c 3e-5,0.003 -0.009,-0.0167 -0.0137,0.0176 l 0.004,-0.0176 h -0.0195 c 0.0392,-0.001 0.0164,-0.0103 0.0195,-0.01 l 3.00198,-17.45117 0.40236,0.46484 4.29691,4.93946 a 1.0001104,1.0001 0 0 0 1.44338,0.0703 c 4.42331,-4.1871 6.86805,-10.2405 6.31061,-16.61133 -0.80128,-9.15881 -7.59174,-16.61643 -16.60955,-18.30859 0,0 -0.002,0 -0.002,0 a 1.0001104,1.0001 0 0 0 -0.10742,-0.0371 z" />
  </g>
</svg>
