<?xml version="1.0" encoding="UTF-8" standalone="no"?>
<svg
   xmlns:dc="http://purl.org/dc/elements/1.1/"
   xmlns:cc="http://creativecommons.org/ns#"
   xmlns:rdf="http://www.w3.org/1999/02/22-rdf-syntax-ns#"
   xmlns:svg="http://www.w3.org/2000/svg"
   xmlns="http://www.w3.org/2000/svg"
   xmlns:sodipodi="http://sodipodi.sourceforge.net/DTD/sodipodi-0.dtd"
   xmlns:inkscape="http://www.inkscape.org/namespaces/inkscape"
   width="64"
   height="64"
   viewBox="0 0 16.933333 16.933334"
   version="1.1"
   id="svg841"
   inkscape:version="1.0.2 (e86c870879, 2021-01-15)"
   sodipodi:docname="vc-add-24.svg">
  <defs
     id="defs835" />
  <sodipodi:namedview
     id="base"
     pagecolor="#c4c4c4"
     bordercolor="#666666"
     borderopacity="1.0"
     inkscape:pageopacity="0"
     inkscape:pageshadow="2"
     inkscape:zoom="2.8903394"
     inkscape:cx="46.372831"
     inkscape:cy="36.927888"
     inkscape:document-units="px"
     inkscape:current-layer="layer1"
     inkscape:document-rotation="0"
     showgrid="false"
     units="px"
     inkscape:window-width="2048"
     inkscape:window-height="1080"
     inkscape:window-x="0"
     inkscape:window-y="0"
     inkscape:window-maximized="1" />
  <metadata
     id="metadata838">
    <rdf:RDF>
      <cc:Work
         rdf:about="">
        <dc:format>image/svg+xml</dc:format>
        <dc:type
           rdf:resource="http://purl.org/dc/dcmitype/StillImage" />
        <dc:title />
      </cc:Work>
    </rdf:RDF>
  </metadata>
  <g
     inkscape:label="Layer 1"
     inkscape:groupmode="layer"
     id="layer1">
    <path
       id="rect954-7-0-7-3-0-0-5-1-3-4-5-0-1-4-1"
       style="color:#000000;font-style:normal;font-variant:normal;font-weight:normal;font-stretch:normal;font-size:medium;line-height:normal;font-family:sans-serif;font-variant-ligatures:normal;font-variant-position:normal;font-variant-caps:normal;font-variant-numeric:normal;font-variant-alternates:normal;font-variant-east-asian:normal;font-feature-settings:normal;font-variation-settings:normal;text-indent:0;text-align:start;text-decoration:none;text-decoration-line:none;text-decoration-style:solid;text-decoration-color:#000000;letter-spacing:normal;word-spacing:normal;text-transform:none;writing-mode:lr-tb;direction:ltr;text-orientation:mixed;dominant-baseline:auto;baseline-shift:baseline;text-anchor:start;white-space:normal;shape-padding:0;shape-margin:0;inline-size:0;clip-rule:nonzero;display:inline;overflow:visible;visibility:visible;opacity:0.15;isolation:auto;mix-blend-mode:normal;color-interpolation:sRGB;color-interpolation-filters:linearRGB;solid-color:#000000;solid-opacity:1;vector-effect:none;fill:#0c0c0c;fill-opacity:1;fill-rule:nonzero;stroke:none;stroke-width:0.264583;stroke-linecap:round;stroke-linejoin:round;stroke-miterlimit:4;stroke-dasharray:none;stroke-dashoffset:2.1875;stroke-opacity:1;color-rendering:auto;image-rendering:auto;shape-rendering:auto;text-rendering:auto;enable-background:accumulate;stop-color:#000000"
       d="m 3.4395834,2.6458334 c -0.652743,0 -1.190625,0.5378979 -1.190625,1.190625 V 13.890625 c 0,0.652754 0.537882,1.190625 1.190625,1.190625 H 13.49375 c 0.652762,0 1.190633,-0.537871 1.190633,-1.190625 V 3.8364584 c 0,-0.6527271 -0.537871,-1.190625 -1.190633,-1.190625 z m 0,0.79375 H 13.49375 c 0.226722,0 0.396875,0.1701536 0.396875,0.396875 V 13.890625 c 0,0.226748 -0.170153,0.396875 -0.396875,0.396875 H 3.4395834 c -0.2267347,0 -0.396875,-0.170127 -0.396875,-0.396875 V 3.8364584 c 0,-0.2267214 0.1701403,-0.396875 0.396875,-0.396875 z" />
    <path
       id="rect954-7-0-7-3-0-0-5-1-3-4-5-0-6-3"
       style="color:#000000;font-style:normal;font-variant:normal;font-weight:normal;font-stretch:normal;font-size:medium;line-height:normal;font-family:sans-serif;font-variant-ligatures:normal;font-variant-position:normal;font-variant-caps:normal;font-variant-numeric:normal;font-variant-alternates:normal;font-variant-east-asian:normal;font-feature-settings:normal;font-variation-settings:normal;text-indent:0;text-align:start;text-decoration:none;text-decoration-line:none;text-decoration-style:solid;text-decoration-color:#000000;letter-spacing:normal;word-spacing:normal;text-transform:none;writing-mode:lr-tb;direction:ltr;text-orientation:mixed;dominant-baseline:auto;baseline-shift:baseline;text-anchor:start;white-space:normal;shape-padding:0;shape-margin:0;inline-size:0;clip-rule:nonzero;display:inline;overflow:visible;visibility:visible;opacity:0.95;isolation:auto;mix-blend-mode:normal;color-interpolation:sRGB;color-interpolation-filters:linearRGB;solid-color:#000000;solid-opacity:1;vector-effect:none;fill:#0a5c48;fill-opacity:1;fill-rule:nonzero;stroke:none;stroke-width:0.264583;stroke-linecap:round;stroke-linejoin:round;stroke-miterlimit:4;stroke-dasharray:none;stroke-dashoffset:2.1875;stroke-opacity:1;color-rendering:auto;image-rendering:auto;shape-rendering:auto;text-rendering:auto;enable-background:accumulate;stop-color:#000000"
       d="m 3.4395834,2.2489584 c -0.652743,0 -1.190625,0.5378979 -1.190625,1.190625 V 13.49375 c 0,0.652754 0.537882,1.190625 1.190625,1.190625 H 13.49375 c 0.652754,0 1.190625,-0.537871 1.190625,-1.190625 V 3.4395834 c 0,-0.6527271 -0.537871,-1.190625 -1.190625,-1.190625 z m 0,0.79375 H 13.49375 c 0.226722,0 0.396875,0.1701536 0.396875,0.396875 V 13.49375 c 0,0.226748 -0.170153,0.396875 -0.396875,0.396875 H 3.4395834 c -0.2267347,0 -0.396875,-0.170127 -0.396875,-0.396875 V 3.4395834 c 0,-0.2267214 0.1701403,-0.396875 0.396875,-0.396875 z" />
    <rect
       style="fill:#fbfaf9;fill-opacity:1;stroke-width:0.130969;stroke-linecap:round;stroke-linejoin:round;stroke-miterlimit:4;stroke-dasharray:none;stroke-dashoffset:2.1875"
       id="rect954-7-0-7-3-0-0-5-1-3-4-9-1"
       width="11.641667"
       height="11.641667"
       x="2.6458333"
       y="2.6458657"
       rx="0.79375005"
       ry="0.79375005" />
    <path
       id="rect4307-0-2-6-35-2-1-0"
       style="opacity:0.15;fill:#0c0c0c;fill-opacity:1;stroke:none;stroke-width:0;stroke-linecap:round;stroke-linejoin:round;stroke-miterlimit:4;stroke-dasharray:none;stroke-dashoffset:2.1875;stroke-opacity:1"
       d="m 8.0697919,5.225521 c -0.1465792,0 -0.2645834,0.1180041 -0.2645834,0.2645833 V 8.3343752 H 4.9609376 c -0.1465791,0 -0.2645833,0.1180042 -0.2645833,0.2646098 v 0.7937236 c 0,0.1465791 0.1180042,0.2645833 0.2645833,0.2645833 h 2.8442709 v 2.8442971 c 0,0.146579 0.1180042,0.264557 0.2645834,0.264557 h 0.79375 c 0.1465792,0 0.2645833,-0.117978 0.2645833,-0.264557 V 9.6572919 h 2.8442708 c 0.146579,0 0.264583,-0.1180042 0.264583,-0.2645833 V 8.598985 c 0,-0.1466056 -0.118004,-0.2646098 -0.264583,-0.2646098 H 9.1281252 V 5.4901043 c 0,-0.1465792 -0.1180041,-0.2645833 -0.2645833,-0.2645833 z" />
    <path
       id="rect4307-0-2-6-35-2-1"
       style="fill:#13af8e;fill-opacity:1;stroke:none;stroke-width:0;stroke-linecap:round;stroke-linejoin:round;stroke-miterlimit:4;stroke-dasharray:none;stroke-dashoffset:2.1875;stroke-opacity:1"
       d="m 8.0697919,4.6963543 c -0.1465792,0 -0.2645834,0.1180042 -0.2645834,0.2645833 V 7.8052085 H 4.9609376 c -0.1465791,0 -0.2645833,0.1180042 -0.2645833,0.2646098 v 0.7937236 c 0,0.1465792 0.1180042,0.2645833 0.2645833,0.2645833 h 2.8442709 v 2.8442978 c 0,0.146579 0.1180042,0.264556 0.2645834,0.264556 h 0.79375 c 0.1465792,0 0.2645833,-0.117977 0.2645833,-0.264556 V 9.1281252 h 2.8442708 c 0.146579,0 0.264583,-0.1180041 0.264583,-0.2645833 V 8.0698183 c 0,-0.1466056 -0.118004,-0.2646098 -0.264583,-0.2646098 H 9.1281252 V 4.9609376 c 0,-0.1465791 -0.1180041,-0.2645833 -0.2645833,-0.2645833 z" />
    <path
       id="rect4307-0-2-9-9-1-5-3-6"
       style="color:#000000;font-style:normal;font-variant:normal;font-weight:normal;font-stretch:normal;font-size:medium;line-height:normal;font-family:sans-serif;font-variant-ligatures:normal;font-variant-position:normal;font-variant-caps:normal;font-variant-numeric:normal;font-variant-alternates:normal;font-variant-east-asian:normal;font-feature-settings:normal;font-variation-settings:normal;text-indent:0;text-align:start;text-decoration:none;text-decoration-line:none;text-decoration-style:solid;text-decoration-color:#000000;letter-spacing:normal;word-spacing:normal;text-transform:none;writing-mode:lr-tb;direction:ltr;text-orientation:mixed;dominant-baseline:auto;baseline-shift:baseline;text-anchor:start;white-space:normal;shape-padding:0;shape-margin:0;inline-size:0;clip-rule:nonzero;display:inline;overflow:visible;visibility:visible;isolation:auto;mix-blend-mode:normal;color-interpolation:sRGB;color-interpolation-filters:linearRGB;solid-color:#000000;solid-opacity:1;vector-effect:none;fill:#0a5c48;fill-opacity:1;fill-rule:nonzero;stroke:none;stroke-width:1;stroke-linecap:round;stroke-linejoin:round;stroke-miterlimit:4;stroke-dasharray:none;stroke-dashoffset:2.1875;stroke-opacity:1;color-rendering:auto;image-rendering:auto;shape-rendering:auto;text-rendering:auto;enable-background:accumulate;stop-color:#000000"
       d="m 8.0703078,4.4979168 c -0.2530792,0 -0.4630208,0.2094177 -0.4630208,0.4625181 V 7.6073002 H 4.9609376 c -0.2530819,0 -0.4630208,0.2094177 -0.4630208,0.4624917 v 0.7932473 c 0,0.2530739 0.2099389,0.4630208 0.4630208,0.4630208 H 7.607287 v 2.646363 c 0,0.253074 0.2099416,0.46302 0.4630208,0.46302 H 8.863026 c 0.2530792,0 0.463021,-0.209946 0.463021,-0.46302 V 9.32606 h 2.646349 c 0.253082,0 0.463021,-0.2099469 0.463021,-0.4630208 V 8.0697919 c 0,-0.253074 -0.209939,-0.4624917 -0.463021,-0.4624917 H 9.326047 V 4.9604349 c 0,-0.2531004 -0.2099418,-0.4625181 -0.463021,-0.4625181 z m 0,0.3963723 H 8.863026 c 0.040079,0 0.066659,0.026194 0.066659,0.066093 v 2.8437417 a 0.19845734,0.19845734 0 0 0 0.1989534,0.1994694 h 2.8437576 c 0.04008,0 0.06666,0.026194 0.06666,0.066119 V 8.862933 c 0,0.040111 -0.02658,0.066119 -0.06666,0.066119 H 9.1286385 A 0.19845734,0.19845734 0 0 0 8.9296851,9.1285221 v 2.8437419 c 0,0.04011 -0.02658,0.06609 -0.066659,0.06609 H 8.0703078 c -0.040079,0 -0.066659,-0.02619 -0.066659,-0.06609 V 9.1285221 A 0.19845734,0.19845734 0 0 0 7.8062431,8.9290527 H 4.9609403 c -0.040079,0 -0.066659,-0.026194 -0.066659,-0.066119 V 8.0697125 c 0,-0.040111 0.02658,-0.066119 0.066659,-0.066119 H 7.8062431 A 0.19845734,0.19845734 0 0 0 8.003646,7.8041237 V 4.960382 c 0,-0.040084 0.02658,-0.066093 0.066659,-0.066093 z" />
  </g>
</svg>
