<?xml version="1.0" encoding="UTF-8" standalone="no"?>
<svg
   xmlns:dc="http://purl.org/dc/elements/1.1/"
   xmlns:cc="http://creativecommons.org/ns#"
   xmlns:rdf="http://www.w3.org/1999/02/22-rdf-syntax-ns#"
   xmlns:svg="http://www.w3.org/2000/svg"
   xmlns="http://www.w3.org/2000/svg"
   xmlns:sodipodi="http://sodipodi.sourceforge.net/DTD/sodipodi-0.dtd"
   xmlns:inkscape="http://www.inkscape.org/namespaces/inkscape"
   width="64"
   height="64"
   viewBox="0 0 16.933333 16.933334"
   version="1.1"
   id="svg841"
   inkscape:version="1.0.2 (e86c870879, 2021-01-15)"
   sodipodi:docname="vc-update-24.svg">
  <defs
     id="defs835" />
  <sodipodi:namedview
     id="base"
     pagecolor="#c4c4c4"
     bordercolor="#666666"
     borderopacity="1.0"
     inkscape:pageopacity="0"
     inkscape:pageshadow="2"
     inkscape:zoom="5.7491576"
     inkscape:cx="-21.195338"
     inkscape:cy="43.328717"
     inkscape:document-units="px"
     inkscape:current-layer="layer1"
     inkscape:document-rotation="0"
     showgrid="false"
     units="px"
     inkscape:window-width="2048"
     inkscape:window-height="1080"
     inkscape:window-x="0"
     inkscape:window-y="0"
     inkscape:window-maximized="1" />
  <metadata
     id="metadata838">
    <rdf:RDF>
      <cc:Work
         rdf:about="">
        <dc:format>image/svg+xml</dc:format>
        <dc:type
           rdf:resource="http://purl.org/dc/dcmitype/StillImage" />
        <dc:title />
      </cc:Work>
    </rdf:RDF>
  </metadata>
  <g
     inkscape:label="Layer 1"
     inkscape:groupmode="layer"
     id="layer1">
    <path
       id="path1113-1-0-6-8-3-2-5-4-0-7-1-1-3"
       style="color:#000000;font-style:normal;font-variant:normal;font-weight:normal;font-stretch:normal;font-size:medium;line-height:normal;font-family:sans-serif;font-variant-ligatures:normal;font-variant-position:normal;font-variant-caps:normal;font-variant-numeric:normal;font-variant-alternates:normal;font-variant-east-asian:normal;font-feature-settings:normal;font-variation-settings:normal;text-indent:0;text-align:start;text-decoration:none;text-decoration-line:none;text-decoration-style:solid;text-decoration-color:#000000;letter-spacing:normal;word-spacing:normal;text-transform:none;writing-mode:lr-tb;direction:ltr;text-orientation:mixed;dominant-baseline:auto;baseline-shift:baseline;text-anchor:start;white-space:normal;shape-padding:0;shape-margin:0;inline-size:0;clip-rule:nonzero;display:inline;overflow:visible;visibility:visible;opacity:0.075;isolation:auto;mix-blend-mode:normal;color-interpolation:sRGB;color-interpolation-filters:linearRGB;solid-color:#000000;solid-opacity:1;vector-effect:none;fill:#0c0c0c;fill-opacity:1;fill-rule:nonzero;stroke:none;stroke-width:0.335492;stroke-linecap:round;stroke-linejoin:round;stroke-miterlimit:4;stroke-dasharray:none;stroke-dashoffset:0;stroke-opacity:1;color-rendering:auto;image-rendering:auto;shape-rendering:auto;text-rendering:auto;enable-background:accumulate;stop-color:#000000"
       d="m 8.4697054,16.404167 c -0.1598744,0 -0.3199553,-0.07231 -0.4211637,-0.217011 L 4.3275368,10.866993 c -0.063299,-0.09046 -0.096343,-0.199575 -0.094096,-0.310991 0.00566,-0.283078 0.2397575,-0.510143 0.5152576,-0.510116 H 5.8960164 6.785064 V 4.3644873 c 0,-0.3615796 0.2930102,-0.6603206 0.6476392,-0.6603206 h 2.0733571 c 0.354629,0 0.6476337,0.298741 0.6476337,0.6603206 v 5.6813987 h 0.889053 1.147321 c 0.399055,1.58e-4 0.65406,0.488341 0.421161,0.821107 l -3.7210103,5.320163 c -0.1012031,0.1447 -0.2606437,0.217011 -0.4205133,0.217011 z m 0,-0.502179 c 0.00524,0 0.01016,-0.0032 0.014896,-0.0098 l 3.7203656,-5.320162 c 0.01434,-0.02037 0.0168,-0.01799 -0.01495,-0.01799 H 11.0427 9.9044562 A 0.2492172,0.25409161 0 0 1 9.6552663,10.299965 V 4.3644873 c 0,-0.088847 -0.062114,-0.1521618 -0.1492514,-0.1521618 H 7.4326578 c -0.087143,0 -0.1492567,0.063315 -0.1492567,0.1521618 V 10.299965 A 0.2492172,0.25409161 0 0 1 7.0342059,10.554044 H 5.895971 4.7486503 c -0.01442,0 -0.01741,0.0048 -0.017542,0.01191 -3.18e-5,0.0026 2.645e-4,0.0037 0.00212,0.0061 l 3.7210154,5.320162 c 0.00479,0.0069 0.010319,0.0098 0.015584,0.0098 z" />
    <path
       id="path1113-1-0-6-8-3-2-5-4-3-5"
       style="color:#000000;font-style:normal;font-variant:normal;font-weight:normal;font-stretch:normal;font-size:medium;line-height:normal;font-family:sans-serif;font-variant-ligatures:normal;font-variant-position:normal;font-variant-caps:normal;font-variant-numeric:normal;font-variant-alternates:normal;font-variant-east-asian:normal;font-feature-settings:normal;font-variation-settings:normal;text-indent:0;text-align:start;text-decoration:none;text-decoration-line:none;text-decoration-style:solid;text-decoration-color:#000000;letter-spacing:normal;word-spacing:normal;text-transform:none;writing-mode:lr-tb;direction:ltr;text-orientation:mixed;dominant-baseline:auto;baseline-shift:baseline;text-anchor:start;white-space:normal;shape-padding:0;shape-margin:0;inline-size:0;clip-rule:nonzero;display:inline;overflow:visible;visibility:visible;isolation:auto;mix-blend-mode:normal;color-interpolation:sRGB;color-interpolation-filters:linearRGB;solid-color:#000000;solid-opacity:1;vector-effect:none;fill:#f2ae03;fill-opacity:1;fill-rule:nonzero;stroke:none;stroke-width:0;stroke-linecap:round;stroke-linejoin:round;stroke-miterlimit:4;stroke-dasharray:none;stroke-dashoffset:0;stroke-opacity:1;color-rendering:auto;image-rendering:auto;shape-rendering:auto;text-rendering:auto;enable-background:accumulate;stop-color:#000000"
       d="m 7.4307581,3.429 c -0.2207313,0 -0.398436,0.1812661 -0.398436,0.4064 V 9.768867 H 5.8954286 4.7484148 a 0.26602746,0.26648543 0 0 0 -0.2660094,0.261144 0.26602746,0.26648543 0 0 0 0.048101,0.158273 l 3.7183934,5.319078 a 0.26602746,0.26648543 0 0 0 0.4358216,0 L 12.402811,10.188284 A 0.26602746,0.26648543 0 0 0 12.185057,9.768867 H 11.038233 9.9009928 V 3.8354 c 0,-0.2251339 -0.1777047,-0.4064 -0.3984334,-0.4064 z" />
    <path
       id="path1113-1-0-6-8-3-2-5-4-0-7-1-62"
       style="color:#000000;font-style:normal;font-variant:normal;font-weight:normal;font-stretch:normal;font-size:medium;line-height:normal;font-family:sans-serif;font-variant-ligatures:normal;font-variant-position:normal;font-variant-caps:normal;font-variant-numeric:normal;font-variant-alternates:normal;font-variant-east-asian:normal;font-feature-settings:normal;font-variation-settings:normal;text-indent:0;text-align:start;text-decoration:none;text-decoration-line:none;text-decoration-style:solid;text-decoration-color:#000000;letter-spacing:normal;word-spacing:normal;text-transform:none;writing-mode:lr-tb;direction:ltr;text-orientation:mixed;dominant-baseline:auto;baseline-shift:baseline;text-anchor:start;white-space:normal;shape-padding:0;shape-margin:0;inline-size:0;clip-rule:nonzero;display:inline;overflow:visible;visibility:visible;opacity:0.95;isolation:auto;mix-blend-mode:normal;color-interpolation:sRGB;color-interpolation-filters:linearRGB;solid-color:#000000;solid-opacity:1;vector-effect:none;fill:#644802;fill-opacity:1;fill-rule:nonzero;stroke:none;stroke-width:0.335492;stroke-linecap:round;stroke-linejoin:round;stroke-miterlimit:4;stroke-dasharray:none;stroke-dashoffset:0;stroke-opacity:1;color-rendering:auto;image-rendering:auto;shape-rendering:auto;text-rendering:auto;enable-background:accumulate;stop-color:#000000"
       d="m 8.4697054,15.875 c -0.1598744,0 -0.3199553,-0.07231 -0.4211637,-0.217011 L 4.3275368,10.337827 C 4.2642378,10.247367 4.2311938,10.138252 4.2334408,10.026836 4.2391008,9.743758 4.4731983,9.516692 4.7486984,9.516719 H 5.8960164 6.785064 V 3.8353207 C 6.785064,3.4737411 7.0780742,3.175 7.4327032,3.175 h 2.0733571 c 0.354629,0 0.6476337,0.2987411 0.6476337,0.6603207 V 9.516719 h 0.889053 1.147321 c 0.399055,1.59e-4 0.65406,0.488341 0.421161,0.821108 L 8.8902187,15.657989 C 8.7890156,15.80269 8.629575,15.875 8.4697054,15.875 Z m 0,-0.502179 c 0.00524,0 0.01016,-0.0032 0.014896,-0.0098 l 3.7203656,-5.320163 c 0.01434,-0.02037 0.0168,-0.01799 -0.01495,-0.01799 H 11.0427 9.9044562 A 0.2492172,0.25409161 0 0 1 9.6552663,9.770798 V 3.8353207 c 0,-0.088847 -0.062114,-0.1521619 -0.1492514,-0.1521619 H 7.4326578 c -0.087143,0 -0.1492567,0.063315 -0.1492567,0.1521619 V 9.770798 a 0.2492172,0.25409161 0 0 1 -0.2491952,0.25408 H 5.895971 4.7486503 c -0.01442,0 -0.01741,0.0048 -0.017542,0.01191 -3.18e-5,0.0026 2.645e-4,0.0037 0.00212,0.0061 l 3.7210154,5.320163 c 0.00479,0.0069 0.010319,0.0098 0.015584,0.0098 z" />
  </g>
</svg>
