<?xml version="1.0" encoding="UTF-8" standalone="no"?>
<svg
   xmlns:dc="http://purl.org/dc/elements/1.1/"
   xmlns:cc="http://creativecommons.org/ns#"
   xmlns:rdf="http://www.w3.org/1999/02/22-rdf-syntax-ns#"
   xmlns:svg="http://www.w3.org/2000/svg"
   xmlns="http://www.w3.org/2000/svg"
   xmlns:sodipodi="http://sodipodi.sourceforge.net/DTD/sodipodi-0.dtd"
   xmlns:inkscape="http://www.inkscape.org/namespaces/inkscape"
   width="64"
   height="64"
   viewBox="0 0 64 64"
   version="1.1"
   id="svg6374"
   inkscape:version="1.0.2 (e86c870879, 2021-01-15)"
   sodipodi:docname="emblem-synchronizing.svg">
  <defs
     id="defs6368" />
  <sodipodi:namedview
     id="base"
     pagecolor="#cecece"
     bordercolor="#666666"
     borderopacity="1.0"
     inkscape:pageopacity="0"
     inkscape:pageshadow="2"
     inkscape:zoom="6.8818909"
     inkscape:cx="20.896034"
     inkscape:cy="43.869284"
     inkscape:document-units="px"
     inkscape:current-layer="layer1"
     inkscape:document-rotation="0"
     showgrid="false"
     units="px"
     inkscape:window-width="1500"
     inkscape:window-height="970"
     inkscape:window-x="68"
     inkscape:window-y="56"
     inkscape:window-maximized="0" />
  <metadata
     id="metadata6371">
    <rdf:RDF>
      <cc:Work
         rdf:about="">
        <dc:format>image/svg+xml</dc:format>
        <dc:type
           rdf:resource="http://purl.org/dc/dcmitype/StillImage" />
        <dc:title></dc:title>
      </cc:Work>
    </rdf:RDF>
  </metadata>
  <g
     inkscape:label="Layer 1"
     inkscape:groupmode="layer"
     id="layer1">
    <circle
       style="fill:#fbfaf9;fill-opacity:1;stroke:none;stroke-width:1.81438;stroke-linecap:round;stroke-linejoin:round;stroke-miterlimit:4;stroke-dasharray:none;stroke-opacity:1"
       id="path2379-0-9-1-0-6-4-3"
       cx="32.000122"
       cy="32.000004"
       r="26" />
    <path
       id="path2379-6-6-7-2-9-1-4-8"
       style="fill:#1e5c52;fill-opacity:1;stroke:none;stroke-width:1.88416;stroke-linecap:round;stroke-linejoin:round;stroke-miterlimit:4;stroke-dasharray:none;stroke-opacity:1"
       d="M 31.9727,5.0000034 A 27,27 0 0 0 5,32.000003 a 27,27 0 0 0 27,27 27,27 0 0 0 27,-27 27,27 0 0 0 -27,-26.9999996 27,27 0 0 0 -0.027,0 z m -0.08,1 a 26,26 0 0 1 0.1074,0 26,26 0 0 1 26,25.9999996 26,26 0 0 1 -26,26 26,26 0 0 1 -26,-26 26,26 0 0 1 25.8926,-25.9999996 z" />
    <path
       id="path2379-7-6-36-0-5-8-3-8"
       style="color:#000000;font-style:normal;font-variant:normal;font-weight:normal;font-stretch:normal;font-size:medium;line-height:normal;font-family:sans-serif;font-variant-ligatures:normal;font-variant-position:normal;font-variant-caps:normal;font-variant-numeric:normal;font-variant-alternates:normal;font-variant-east-asian:normal;font-feature-settings:normal;font-variation-settings:normal;text-indent:0;text-align:start;text-decoration:none;text-decoration-line:none;text-decoration-style:solid;text-decoration-color:#000000;letter-spacing:normal;word-spacing:normal;text-transform:none;writing-mode:lr-tb;direction:ltr;text-orientation:mixed;dominant-baseline:auto;baseline-shift:baseline;text-anchor:start;white-space:normal;shape-padding:0;shape-margin:0;inline-size:0;clip-rule:nonzero;display:inline;overflow:visible;visibility:visible;opacity:0.15;isolation:auto;mix-blend-mode:normal;color-interpolation:sRGB;color-interpolation-filters:linearRGB;solid-color:#000000;solid-opacity:1;vector-effect:none;fill:#1e5c52;fill-opacity:1;fill-rule:nonzero;stroke:none;stroke-linecap:round;stroke-linejoin:round;stroke-miterlimit:4;stroke-dasharray:none;stroke-dashoffset:0;stroke-opacity:1;color-rendering:auto;image-rendering:auto;shape-rendering:auto;text-rendering:auto;enable-background:accumulate;stop-color:#000000"
       d="m 32,5.0000034 c -14.8999,0 -27,12.1001996 -27,26.9999996 0,14.8999 12.1001,27 27,27 14.8998,0 27,-12.1001 27,-27 C 59,17.100203 46.8998,5.0000034 32,5.0000034 Z m 0,2 c 13.8189,0 25,11.1810996 25,24.9999996 0,13.819 -11.1811,25 -25,25 -13.819,0 -25,-11.181 -25,-25 C 7,18.181103 18.181,7.0000034 32,7.0000034 Z" />
    <path
       id="path1778-5-6-4"
       style="color:#000000;font-style:normal;font-variant:normal;font-weight:normal;font-stretch:normal;font-size:medium;line-height:normal;font-family:sans-serif;font-variant-ligatures:normal;font-variant-position:normal;font-variant-caps:normal;font-variant-numeric:normal;font-variant-alternates:normal;font-variant-east-asian:normal;font-feature-settings:normal;font-variation-settings:normal;text-indent:0;text-align:start;text-decoration:none;text-decoration-line:none;text-decoration-style:solid;text-decoration-color:#000000;letter-spacing:normal;word-spacing:normal;text-transform:none;writing-mode:lr-tb;direction:ltr;text-orientation:mixed;dominant-baseline:auto;baseline-shift:baseline;text-anchor:start;white-space:normal;shape-padding:0;shape-margin:0;inline-size:0;clip-rule:nonzero;display:inline;overflow:visible;visibility:visible;isolation:auto;mix-blend-mode:normal;color-interpolation:sRGB;color-interpolation-filters:linearRGB;solid-color:#000000;solid-opacity:1;vector-effect:none;fill:#194d45;fill-opacity:1;fill-rule:nonzero;stroke:none;stroke-linecap:butt;stroke-linejoin:round;stroke-miterlimit:4;stroke-dasharray:none;stroke-dashoffset:0;stroke-opacity:1;color-rendering:auto;image-rendering:auto;shape-rendering:auto;text-rendering:auto;enable-background:accumulate;stop-color:#000000"
       d="m 29.0458,13.999803 a 0.50005,0.50005 0 0 0 -0.076,0.01 l -11.3125,0.3496 c -0.132,0 -0.1869,0.021 -0.1582,0.018 a 0.50005,0.50005 0 0 0 -0.1,0.021 c -0.02,0.01 -0.066,0.021 -0.1328,0.051 -0.059,0.026 -0.1254,0.063 -0.1914,0.1172 a 0.50005,0.50005 0 0 0 -0.025,0.024 v 0 c -0.2239,0.194 -0.3297,0.4779 -0.3281,0.7421 4e-4,0.2703 0.1033,0.5275 0.2832,0.7344 l 0.2851,0.3281 2.6446,3.041 c -2.6507,2.5979 -4.5002,5.948 -5.1094,9.6563 -0.2333,1.4197 -0.2917,2.8839 -0.1621,4.3652 0.6829,7.8059 6.4863,14.2214 14.1582,15.7031 a 0.50005,0.50005 0 0 0 0.01,0 l 0.2735,0.049 c 0.5679,0.101 1.1247,-0.2896 1.2246,-0.8574 l 0.6523,-3.7012 c 0.089,-0.4979 -0.2075,-0.9675 -0.6621,-1.1484 0,-6e-4 0,0 0,0 a 0.50005,0.50005 0 0 0 -0.2031,-0.084 c -5.2155,-0.9254 -9.136,-5.2067 -9.5977,-10.4843 -0.3025,-3.4572 0.9764,-6.7137 3.2637,-9.084 l 2.3106,2.6562 0.3808,0.4395 c 0.3634,0.4179 1.0216,0.5511 1.4688,0.1621 0.087,-0.076 0.1362,-0.1487 0.166,-0.1934 l -0.053,0.066 a 0.50005,0.50005 0 0 0 0.062,-0.076 c 0.034,-0.052 0.061,-0.1025 0.084,-0.1602 v -0.01 c 0.033,-0.081 0.05,-0.154 0.059,-0.2148 l 1.9297,-11.2207 c 0.062,-0.3572 -0.076,-0.6793 -0.2715,-0.9063 -0.1977,-0.2277 -0.498,-0.4095 -0.8613,-0.3984 z m 5.8516,0.7988 c -0.5681,-0.101 -1.1247,0.2876 -1.2247,0.8555 l -0.6523,3.7011 c -0.087,0.4965 0.2115,0.966 0.666,1.1465 a 0.50005,0.50005 0 0 0 0.2031,0.086 c 5.2155,0.9254 9.1359,5.2068 9.5977,10.4844 0.3025,3.4577 -0.9758,6.7117 -3.2637,9.082 l -2.3105,-2.6543 -0.3809,-0.4394 c -0.3639,-0.4185 -1.0224,-0.5499 -1.4687,-0.1621 -0.087,0.076 -0.1343,0.1468 -0.1641,0.1915 a 0.50005,0.50005 0 0 0 -0.061,0.1269 c -0.01,0.015 -0.019,0.029 -0.025,0.045 -9e-4,0 0,0 0,0.01 -0.03,0.073 -0.048,0.1429 -0.059,0.2129 l -1.9297,11.2226 c -0.062,0.3572 0.076,0.6795 0.2715,0.9063 0.1985,0.2285 0.4983,0.4092 0.8594,0.3984 l 11.3867,-0.3496 c 0.1321,0 0.1862,-0.021 0.1563,-0.018 a 0.50005,0.50005 0 0 0 0.098,-0.021 c 0.01,0 0.06,-0.016 0.1328,-0.049 0.06,-0.026 0.137,-0.067 0.211,-0.1347 a 0.50005,0.50005 0 0 0 0.01,-0.01 v -0.01 c 0.2239,-0.1941 0.3297,-0.476 0.3281,-0.7402 -5e-4,-0.2696 -0.1038,-0.5276 -0.2832,-0.7344 v 0 l -0.2851,-0.3281 -2.6446,-3.041 c 2.6507,-2.5979 4.4982,-5.948 5.1075,-9.6563 0.2331,-1.4197 0.2936,-2.8838 0.164,-4.3652 -0.6829,-7.8059 -6.4863,-14.2214 -14.1582,-15.7031 l -0.2773,-0.055 a 0.50005,0.50005 0 0 0 -0.01,0 z m -5.8106,0.2051 c 0.01,0 0.028,0.01 0.066,0.051 0.04,0.048 0.041,0.083 0.041,0.08 l -1.9277,11.2109 c 0.011,-0.01 0,0.01 -0.049,-0.055 l -0.3828,-0.4394 -2.6895,-3.0938 a 0.50005,0.50005 0 0 0 -0.7207,-0.035 c -2.7424,2.5959 -4.2597,6.3507 -3.9141,10.3007 0.4956,5.6653 4.6925,10.2623 10.2637,11.3262 a 0.50005,0.50005 0 0 0 0.1699,0.064 c 0.039,0.01 0.052,0.027 0.045,0.066 l -0.6524,3.7012 c -0.01,0.04 -0.025,0.054 -0.064,0.047 l -0.2657,-0.049 c -7.2365,-1.3977 -12.7073,-7.4451 -13.3515,-14.8086 -0.1223,-1.3977 -0.066,-2.777 0.1543,-4.1152 0.5999,-3.6518 2.4163,-6.9861 5.1035,-9.4746 a 0.50005,0.50005 0 0 0 0.037,-0.6953 l -2.9082,-3.3458 -0.2852,-0.3281 c -0.023,-0.026 -0.024,-0.041 -0.027,-0.057 l 11.3437,-0.3496 a 0.50005,0.50005 0 0 0 0.014,0 z m 5.6348,0.7793 0.2715,0.051 c 7.2365,1.3977 12.7073,7.4432 13.3515,14.8066 0.1223,1.3977 0.066,2.7789 -0.1543,4.1172 -0.5999,3.6518 -2.4163,6.9861 -5.1035,9.4746 a 0.50005,0.50005 0 0 0 -0.037,0.6953 l 2.9082,3.3457 0.2852,0.3282 c 0.023,0.026 0.024,0.041 0.027,0.057 l -11.3437,0.3496 c 4e-4,0 -0.033,-0.01 -0.074,-0.055 -0.044,-0.051 -0.044,-0.083 -0.045,-0.08 l 1.9277,-11.2032 c -10e-5,0 0,-0.01 0.043,0.045 v 0 l 0.3828,0.4394 2.6894,3.0918 a 0.50005,0.50005 0 0 0 0.7227,0.035 c 2.7423,-2.5959 4.2576,-6.3486 3.9121,-10.2988 -0.4955,-5.6629 -4.6897,-10.258 -10.2578,-11.3242 a 0.50005,0.50005 0 0 0 -0.1758,-0.066 c -0.04,-0.01 -0.052,-0.025 -0.045,-0.066 l 0.6523,-3.7012 c 0.01,-0.04 0.025,-0.052 0.065,-0.045 z m 11.6601,32.8671 c -0.096,0.012 -0.1011,0.01 -0.037,0.01 a 0.50005,0.50005 0 0 0 -0.01,0 z" />
    <path
       id="path1778-5-6"
       style="fill:#2db39e;fill-opacity:1;stroke:none;stroke-width:4.87248;stroke-linecap:butt;stroke-linejoin:round;stroke-miterlimit:4;stroke-dasharray:none;stroke-opacity:1"
       d="m 29.0578,14.501203 -11.4012,0.351 c -0.034,0 -0.065,0.01 -0.098,0.014 -0.03,0.01 -0.06,0.019 -0.088,0.032 -0.027,0.012 -0.053,0.027 -0.076,0.046 l -0.022,0.021 c -0.105,0.091 -0.1564,0.2227 -0.1553,0.362 v 0 c 0,0.1393 0.055,0.2861 0.1614,0.4085 l 0.285,0.3289 2.9092,3.3458 c -2.7681,2.5635 -4.639,5.9981 -5.2572,9.7611 -0.2266,1.379 -0.2849,2.8015 -0.159,4.241 0.6636,7.5847 6.301,13.8158 13.7552,15.2555 l 0.2728,0.049 c 0.3037,0.054 0.591,-0.1472 0.6445,-0.4512 l 0.6531,-3.7017 c 0.054,-0.3038 -0.1475,-0.5922 -0.4513,-0.6457 l -0.014,-0.01 c -5.4347,-0.9643 -9.526,-5.4332 -10.0071,-10.9326 -0.3322,-3.7964 1.1234,-7.3993 3.758,-9.8932 l 2.6904,3.0939 0.3815,0.4391 c 0.2127,0.2446 0.5534,0.2961 0.7631,0.1137 0.031,-0.027 0.055,-0.06 0.077,-0.093 l 0.01,-0.01 c 0.016,-0.024 0.03,-0.051 0.04,-0.077 0.013,-0.031 0.021,-0.065 0.026,-0.099 l 1.9322,-11.2347 c 0.031,-0.1773 -0.038,-0.3552 -0.1577,-0.494 -0.1206,-0.1389 -0.2883,-0.2329 -0.4685,-0.2274 z m 5.7526,0.7839 c -0.3037,-0.054 -0.591,0.1473 -0.6445,0.4513 l -0.653,3.7016 c -0.053,0.3038 0.1474,0.591 0.4512,0.6445 l 0.014,0.01 c 5.4346,0.9643 9.5259,5.4332 10.0071,10.9325 0.3321,3.7965 -1.1235,7.3981 -3.7581,9.892 l -2.6903,-3.0927 -0.3816,-0.4402 c -0.2127,-0.2446 -0.5533,-0.2948 -0.7631,-0.1125 -0.031,0.027 -0.055,0.06 -0.077,0.093 v 0.01 c -0.016,0.024 -0.03,0.051 -0.04,0.077 -0.013,0.031 -0.022,0.065 -0.027,0.099 l -1.9322,11.2347 c -0.031,0.1773 0.038,0.3551 0.1578,0.494 0.1206,0.1388 0.2881,0.2316 0.4683,0.2262 l 11.4024,-0.3497 c 0.034,0 0.064,-0.01 0.097,-0.014 0.03,-0.01 0.06,-0.018 0.088,-0.031 0.027,-0.012 0.053,-0.027 0.076,-0.048 l 0.022,-0.021 c 0.105,-0.091 0.1564,-0.2227 0.1553,-0.362 v 0 c 0,-0.1393 -0.055,-0.2862 -0.1614,-0.4085 l -0.285,-0.3289 -2.9092,-3.3459 c 2.7681,-2.5635 4.639,-5.998 5.2572,-9.761 0.2265,-1.379 0.2849,-2.8015 0.159,-4.241 -0.6636,-7.5847 -6.301,-13.8158 -13.7552,-15.2555 z" />
    <path
       id="path1778-5-6-6"
       style="fill:#16463f;fill-opacity:1;stroke:none;stroke-width:4.87247;stroke-linecap:butt;stroke-linejoin:round;stroke-miterlimit:4;stroke-dasharray:none;stroke-opacity:1"
       d="m 29.056,14.496403 -0.01,0.01 -11.4003,0.3496 c -0.034,0 -0.065,0.01 -0.098,0.014 -0.03,0.01 -0.06,0.02 -0.088,0.033 -0.027,0.012 -0.053,0.026 -0.076,0.045 l -0.022,0.021 c -0.105,0.091 -0.1573,0.222 -0.1562,0.3613 0,0.1393 0.056,0.2877 0.1621,0.4101 l 0.2852,0.3282 0.6582,0.7558 10.7343,-0.33 0.01,-0.01 c 0.1426,0 0.2691,0.063 0.3789,0.1562 l 0.2461,-1.4257 c 0.031,-0.1773 -0.038,-0.3554 -0.1582,-0.4942 -0.1206,-0.1389 -0.2866,-0.232 -0.4668,-0.2265 z m 5.7481,0.791 c -0.3037,-0.054 -0.5911,0.1471 -0.6446,0.4511 l -0.6543,3.7012 c -0.04,0.23 0.067,0.4497 0.252,0.5664 l 0.4023,-2.2773 c 0.054,-0.304 0.3409,-0.5052 0.6446,-0.4512 l 0.2773,0.053 c 7.4542,1.4397 13.0923,7.6712 13.7559,15.2559 0.015,0.1705 0.017,0.3398 0.027,0.5098 0.049,-0.8242 0.046,-1.659 -0.027,-2.5 -0.6636,-7.5847 -6.3017,-13.8162 -13.7559,-15.2559 z m -15.1602,5.0547 c -2.259,2.4384 -3.7894,5.5053 -4.3359,8.832 -0.2002,1.2182 -0.2591,2.4704 -0.1856,3.7383 0.035,-0.5887 0.091,-1.1727 0.1856,-1.7481 0.6182,-3.763 2.4897,-7.1982 5.2578,-9.7617 z m 24.3301,12.6445 c -0.2253,3.0555 -1.5787,5.8726 -3.7539,7.9316 l -2.6895,-3.0918 -0.3828,-0.4394 c -0.2127,-0.2446 -0.5519,-0.2956 -0.7617,-0.1133 -0.031,0.027 -0.056,0.061 -0.078,0.094 v 0.01 c -0.016,0.024 -0.029,0.05 -0.039,0.076 -0.013,0.031 -0.022,0.066 -0.027,0.1 l -1.9316,11.2344 c -0.031,0.1773 0.036,0.3552 0.1563,0.4941 0.025,0.029 0.061,0.046 0.09,0.07 l 1.6855,-9.8086 c 0.01,-0.034 0.014,-0.069 0.027,-0.1 0.01,-0.026 0.023,-0.052 0.039,-0.076 v -0.012 c 0.022,-0.033 0.047,-0.065 0.078,-0.092 0.2098,-0.1823 0.549,-0.1332 0.7617,0.1114 l 0.3828,0.4414 2.6895,3.0918 c 2.6346,-2.4939 4.0899,-6.0942 3.7578,-9.8907 -9e-4,-0.01 0,-0.021 0,-0.031 z m -23.9668,0.021 c -0.048,0.6453 -0.062,1.297 0,1.959 0.4811,5.4994 4.5712,9.9693 10.0058,10.9336 l 0.016,0.01 c 0.074,0.013 0.1396,0.041 0.1992,0.078 l 0.2519,-1.4218 c 0.054,-0.3038 -0.1473,-0.593 -0.4511,-0.6465 l -0.016,-0.01 c -5.4242,-0.9624 -9.508,-5.4174 -10.0019,-10.9023 z m 24.3359,12.6523 c -0.2963,0.3198 -0.6029,0.6305 -0.9238,0.9278 l 2.2539,2.5898 0.6641,-0.02 c 0.034,0 0.065,-0.012 0.098,-0.016 0.03,-0.01 0.06,-0.016 0.088,-0.029 0.027,-0.012 0.053,-0.028 0.076,-0.049 l 0.021,-0.022 c 0.105,-0.091 0.1573,-0.222 0.1562,-0.3613 0,-0.1393 -0.056,-0.2859 -0.1621,-0.4082 l -0.2852,-0.3301 z" />
  </g>
</svg>
