<?xml version="1.0" encoding="UTF-8" standalone="no"?>
<svg
   xmlns:dc="http://purl.org/dc/elements/1.1/"
   xmlns:cc="http://creativecommons.org/ns#"
   xmlns:rdf="http://www.w3.org/1999/02/22-rdf-syntax-ns#"
   xmlns:svg="http://www.w3.org/2000/svg"
   xmlns="http://www.w3.org/2000/svg"
   xmlns:xlink="http://www.w3.org/1999/xlink"
   xmlns:sodipodi="http://sodipodi.sourceforge.net/DTD/sodipodi-0.dtd"
   xmlns:inkscape="http://www.inkscape.org/namespaces/inkscape"
   width="64"
   height="64"
   viewBox="0 0 16.933333 16.933334"
   version="1.1"
   id="svg841"
   inkscape:version="1.0.2 (e86c870879, 2021-01-15)"
   sodipodi:docname="drive-removable-media-usb.svg">
  <defs
     id="defs835">
    <linearGradient
       inkscape:collect="always"
       xlink:href="#linearGradient2269"
       id="linearGradient2244"
       gradientUnits="userSpaceOnUse"
       x1="8.4197826"
       y1="118.44896"
       x2="8.4656801"
       y2="121.5854"
       gradientTransform="translate(1.4855176e-7,-105.23802)" />
    <linearGradient
       inkscape:collect="always"
       id="linearGradient2269">
      <stop
         style="stop-color:#f1f1f4;stop-opacity:1"
         offset="0"
         id="stop2265" />
      <stop
         style="stop-color:#e3e3e9;stop-opacity:1"
         offset="1"
         id="stop2267" />
    </linearGradient>
    <linearGradient
       inkscape:collect="always"
       xlink:href="#linearGradient2263"
       id="linearGradient2246"
       gradientUnits="userSpaceOnUse"
       x1="3.96875"
       y1="105.83338"
       x2="12.96458"
       y2="118.53338"
       gradientTransform="translate(1.4855176e-7,-105.23802)" />
    <linearGradient
       inkscape:collect="always"
       id="linearGradient2263">
      <stop
         style="stop-color:#878287;stop-opacity:1"
         offset="0"
         id="stop2259" />
      <stop
         style="stop-color:#b0abb0;stop-opacity:1"
         offset="1"
         id="stop2261" />
    </linearGradient>
    <linearGradient
       inkscape:collect="always"
       xlink:href="#linearGradient2509"
       id="linearGradient2335"
       gradientUnits="userSpaceOnUse"
       x1="9.9190454"
       y1="145.92909"
       x2="9.9457912"
       y2="147.31841"
       gradientTransform="translate(-2.9104166,-131.69636)" />
    <linearGradient
       inkscape:collect="always"
       id="linearGradient2509">
      <stop
         style="stop-color:#3b3b40;stop-opacity:1"
         offset="0"
         id="stop2505" />
      <stop
         style="stop-color:#fcfcfc;stop-opacity:1"
         offset="1"
         id="stop2507" />
    </linearGradient>
    <linearGradient
       inkscape:collect="always"
       xlink:href="#linearGradient2497"
       id="linearGradient2306"
       x1="9.9190454"
       y1="145.92909"
       x2="9.9146814"
       y2="147.32338"
       gradientUnits="userSpaceOnUse"
       gradientTransform="translate(1.4855176e-7,-131.69636)" />
    <linearGradient
       inkscape:collect="always"
       id="linearGradient2497">
      <stop
         style="stop-color:#313135;stop-opacity:1"
         offset="0"
         id="stop2493" />
      <stop
         style="stop-color:#fcfcfc;stop-opacity:1"
         offset="1"
         id="stop2495" />
    </linearGradient>
  </defs>
  <sodipodi:namedview
     id="base"
     pagecolor="#c4c4c4"
     bordercolor="#666666"
     borderopacity="1.0"
     inkscape:pageopacity="0"
     inkscape:pageshadow="2"
     inkscape:zoom="5.7290549"
     inkscape:cx="67.617832"
     inkscape:cy="37.065634"
     inkscape:document-units="px"
     inkscape:current-layer="layer1"
     inkscape:document-rotation="0"
     showgrid="false"
     units="px"
     inkscape:window-width="2048"
     inkscape:window-height="1080"
     inkscape:window-x="0"
     inkscape:window-y="0"
     inkscape:window-maximized="1" />
  <metadata
     id="metadata838">
    <rdf:RDF>
      <cc:Work
         rdf:about="">
        <dc:format>image/svg+xml</dc:format>
        <dc:type
           rdf:resource="http://purl.org/dc/dcmitype/StillImage" />
        <dc:title />
      </cc:Work>
    </rdf:RDF>
  </metadata>
  <g
     inkscape:label="Layer 1"
     inkscape:groupmode="layer"
     id="layer1">
    <path
       id="rect1494-0-6-3-0"
       style="color:#000000;font-style:normal;font-variant:normal;font-weight:normal;font-stretch:normal;font-size:medium;line-height:normal;font-family:sans-serif;font-variant-ligatures:normal;font-variant-position:normal;font-variant-caps:normal;font-variant-numeric:normal;font-variant-alternates:normal;font-variant-east-asian:normal;font-feature-settings:normal;font-variation-settings:normal;text-indent:0;text-align:start;text-decoration:none;text-decoration-line:none;text-decoration-style:solid;text-decoration-color:#000000;letter-spacing:normal;word-spacing:normal;text-transform:none;writing-mode:lr-tb;direction:ltr;text-orientation:mixed;dominant-baseline:auto;baseline-shift:baseline;text-anchor:start;white-space:normal;shape-padding:0;shape-margin:0;inline-size:0;clip-rule:nonzero;display:inline;overflow:visible;visibility:visible;opacity:0.15;isolation:auto;mix-blend-mode:normal;color-interpolation:sRGB;color-interpolation-filters:linearRGB;solid-color:#000000;solid-opacity:1;vector-effect:none;fill:#0c0c0c;fill-opacity:1;fill-rule:nonzero;stroke:none;stroke-width:1.00004;stroke-linecap:round;stroke-linejoin:round;stroke-miterlimit:4;stroke-dasharray:none;stroke-dashoffset:2.1875;stroke-opacity:1;color-rendering:auto;image-rendering:auto;shape-rendering:auto;text-rendering:auto;enable-background:accumulate;stop-color:#000000"
       d="m 5.9516277,11.707818 c -0.3641884,0 -0.6599608,0.297821 -0.6599608,0.66198 v 3.70313 c 0,0.364159 0.2957724,0.661979 0.6599608,0.661979 h 5.0280093 c 0.364191,0 0.66203,-0.29782 0.66203,-0.661979 v -3.70313 c 0,-0.364159 -0.297839,-0.66198 -0.66203,-0.66198 z m 0,0.263549 h 5.0280093 c 0.222176,0 0.396391,0.176271 0.396391,0.398431 v 3.70313 c 0,0.22216 -0.174215,0.396359 -0.396391,0.396359 H 5.9516277 c -0.2221733,0 -0.3963882,-0.174199 -0.3963882,-0.396359 v -3.70313 c 0,-0.22216 0.1742149,-0.398431 0.3963882,-0.398431 z" />
    <rect
       style="fill:url(#linearGradient2244);fill-opacity:1;stroke:none;stroke-width:0;stroke-linecap:round;stroke-linejoin:round;stroke-miterlimit:4;stroke-dasharray:none;stroke-dashoffset:2.1875;stroke-opacity:1"
       id="rect1494-8"
       width="6.0854168"
       height="4.7624998"
       x="5.4239621"
       y="11.575532"
       rx="0.5291667"
       ry="0.5291667" />
    <path
       id="rect1494-0-6-9"
       style="color:#000000;font-style:normal;font-variant:normal;font-weight:normal;font-stretch:normal;font-size:medium;line-height:normal;font-family:sans-serif;font-variant-ligatures:normal;font-variant-position:normal;font-variant-caps:normal;font-variant-numeric:normal;font-variant-alternates:normal;font-variant-east-asian:normal;font-feature-settings:normal;font-variation-settings:normal;text-indent:0;text-align:start;text-decoration:none;text-decoration-line:none;text-decoration-style:solid;text-decoration-color:#000000;letter-spacing:normal;word-spacing:normal;text-transform:none;writing-mode:lr-tb;direction:ltr;text-orientation:mixed;dominant-baseline:auto;baseline-shift:baseline;text-anchor:start;white-space:normal;shape-padding:0;shape-margin:0;inline-size:0;clip-rule:nonzero;display:inline;overflow:visible;visibility:visible;opacity:0.85;isolation:auto;mix-blend-mode:normal;color-interpolation:sRGB;color-interpolation-filters:linearRGB;solid-color:#000000;solid-opacity:1;vector-effect:none;fill:#44444a;fill-opacity:1;fill-rule:nonzero;stroke:none;stroke-width:1.00004;stroke-linecap:round;stroke-linejoin:round;stroke-miterlimit:4;stroke-dasharray:none;stroke-dashoffset:2.1875;stroke-opacity:1;color-rendering:auto;image-rendering:auto;shape-rendering:auto;text-rendering:auto;enable-background:accumulate;stop-color:#000000"
       d="m 5.9516277,11.443227 c -0.3641884,0 -0.6599608,0.29782 -0.6599608,0.66198 v 3.703132 c 0,0.364159 0.2957724,0.661979 0.6599608,0.661979 h 5.0280093 c 0.364191,0 0.66203,-0.29782 0.66203,-0.661979 v -3.703132 c 0,-0.36416 -0.297839,-0.66198 -0.66203,-0.66198 z m 0,0.263552 h 5.0280093 c 0.222176,0 0.396391,0.176268 0.396391,0.398428 v 3.703132 c 0,0.22216 -0.174215,0.396359 -0.396391,0.396359 H 5.9516277 c -0.2221733,0 -0.3963882,-0.174199 -0.3963882,-0.396359 v -3.703132 c 0,-0.22216 0.1742149,-0.398428 0.3963882,-0.398428 z" />
    <path
       id="path1447-4-5-3-0-6-1-7-4-6"
       style="color:#000000;font-style:normal;font-variant:normal;font-weight:normal;font-stretch:normal;font-size:medium;line-height:normal;font-family:sans-serif;font-variant-ligatures:normal;font-variant-position:normal;font-variant-caps:normal;font-variant-numeric:normal;font-variant-alternates:normal;font-variant-east-asian:normal;font-feature-settings:normal;font-variation-settings:normal;text-indent:0;text-align:start;text-decoration:none;text-decoration-line:none;text-decoration-style:solid;text-decoration-color:#000000;letter-spacing:normal;word-spacing:normal;text-transform:none;writing-mode:lr-tb;direction:ltr;text-orientation:mixed;dominant-baseline:auto;baseline-shift:baseline;text-anchor:start;white-space:normal;shape-padding:0;shape-margin:0;inline-size:0;clip-rule:nonzero;display:inline;overflow:visible;visibility:visible;opacity:0.15;isolation:auto;mix-blend-mode:normal;color-interpolation:sRGB;color-interpolation-filters:linearRGB;solid-color:#000000;solid-opacity:1;vector-effect:none;fill:#0c0c0c;fill-opacity:1;fill-rule:nonzero;stroke:none;stroke-width:1;stroke-linecap:round;stroke-linejoin:round;stroke-miterlimit:4;stroke-dasharray:none;stroke-dashoffset:2.1875;stroke-opacity:1;color-rendering:auto;image-rendering:auto;shape-rendering:auto;text-rendering:auto;enable-background:accumulate;stop-color:#000000"
       d="M 8.4684394,0.5953178 C 7.4897804,0.5951564 6.5112718,0.6272186 5.7418634,0.6893163 5.3573153,0.7205186 5.0248505,0.7585181 4.7553115,0.8102362 4.6228637,0.8356362 4.5021767,0.863137 4.3842572,0.9058381 4.3365263,0.9231418 4.0950438,1.0187279 3.9604899,1.2086484 3.825854,1.3986987 3.8005969,1.6006869 3.7827164,1.6990378 c -0.025532,0.1403985 -0.043331,0.2949892 -0.06046,0.4722998 -0.034642,0.3583093 -0.062431,0.8180599 -0.08423,1.3538703 -0.04363,1.0712397 -0.06604,2.4421492 -0.066151,3.8161807 -1.085e-4,1.3739602 0.02114,2.7468884 0.064601,3.8182294 0.021722,0.535659 0.04912,0.994849 0.083719,1.35337 0.01733,0.179408 0.037539,0.335129 0.062529,0.472821 0.017648,0.0971 0.042291,0.298558 0.1777762,0.489868 0.1354481,0.191291 0.3784971,0.286411 0.4237673,0.30281 0.1187079,0.0431 0.2391992,0.0702 0.3710543,0.0956 0.2692426,0.0519 0.6017392,0.0918 0.9865492,0.122981 0.7697629,0.0625 1.746131,0.0918 2.72451,0.092 0.978141,1.59e-4 1.9549396,-0.0276 2.7250276,-0.0899 0.384853,-0.0312 0.717455,-0.0712 0.98655,-0.122981 0.135519,-0.02601 0.255479,-0.0547 0.368988,-0.0956 a 0.39693346,0.3969006 0 0 0 0.0021,0 c 0.04395,-0.01601 0.288007,-0.11126 0.423767,-0.30281 0.135875,-0.191781 0.160174,-0.39515 0.177774,-0.49194 0.02495,-0.137329 0.04519,-0.291219 0.06253,-0.47076 0.03464,-0.358309 0.06191,-0.817541 0.08372,-1.35336 0.04364,-1.07148 0.06449,-2.4444007 0.0646,-3.8182312 1.26e-4,-1.3739591 -0.02112,-2.7453687 -0.06458,-3.8166878 -0.02172,-0.5356913 -0.04911,-0.9948307 -0.08372,-1.3533596 -0.0172,-0.1781599 -0.03518,-0.3336211 -0.06046,-0.4728211 -0.01804,-0.099301 -0.04546,-0.3000904 -0.179843,-0.4898707 -0.134641,-0.1901481 -0.377674,-0.2861099 -0.423767,-0.3028183 -0.113525,-0.041301 -0.234593,-0.071702 -0.369504,-0.0977 h -0.0016 c -0.26915,-0.0518 -0.600471,-0.0898 -0.984482,-0.1209199 -0.769734,-0.0625 -1.7466466,-0.0938 -2.7250286,-0.094001 z m -0.01757,0.7952687 a 0.39693346,0.3969006 0 0 0 0.01757,0 c 0.961962,2.011e-4 1.9243776,0.029702 2.6604276,0.0894 0.368131,0.0298 0.679993,0.067101 0.900248,0.1095507 0.109124,0.021008 0.193063,0.0439 0.250126,0.064601 0.02503,0.009 0.03504,0.010292 0.04392,0.011404 0.0011,0.00212 -0.0011,0.00106 0.0011,0.004 0.03576,0.050501 0.02119,0.0313 0.04703,0.1736302 0.0186,0.1024414 0.03654,0.2391516 0.05271,0.4066805 0.03213,0.3328591 0.05871,0.7810791 0.0801,1.308399 0.04277,1.0546107 0.06419,2.4196914 0.06408,3.7851716 -1.08e-4,1.3655993 -0.02114,2.7301995 -0.06408,3.7846515 -0.02146,0.527169 -0.04997,0.977408 -0.08217,1.31046 -0.01603,0.16614 -0.03168,0.301868 -0.05064,0.406159 -0.02633,0.144799 -0.01273,0.125719 -0.04703,0.174149 -0.0021,0.003 -2.65e-4,0.0021 -0.0016,0.004 -0.0064,-7.94e-4 -0.01897,0.0011 -0.04341,0.009 -0.05764,0.02069 -0.142346,0.0436 -0.251677,0.0646 -0.22061,0.0424 -0.532713,0.0797 -0.900764,0.109538 -0.735719,0.0595 -1.6982276,0.0901 -2.6604296,0.0899 -0.961959,-1.98e-4 -1.9259553,-0.0302 -2.6619785,-0.0899 -0.3680831,-0.0298 -0.6782515,-0.0691 -0.8986944,-0.111609 -0.112985,-0.0218 -0.1971701,-0.0435 -0.2496106,-0.0625 -0.026194,-0.01 -0.037568,-0.01101 -0.046508,-0.01191 -7.938e-4,-0.0011 2.646e-4,-2.6e-4 -5.292e-4,-0.0021 -0.034311,-0.0485 -0.021908,-0.0345 -0.04703,-0.174151 v -0.0021 c -0.018785,-0.103759 -0.036732,-0.240649 -0.05271,-0.406159 -0.03212,-0.332859 -0.058711,-0.781622 -0.0801,-1.30891 -0.04277,-1.05464 -0.064701,-2.4212426 -0.06459,-3.7867202 1.085e-4,-1.365422 0.023707,-2.7304921 0.066659,-3.7851716 0.021458,-0.5271585 0.0479,-0.9753388 0.0801,-1.308399 0.016272,-0.1683702 0.032239,-0.3049296 0.050641,-0.4061619 0.026061,-0.1432798 0.011483,-0.1239599 0.04703,-0.1741381 0.00159,-0.00212 -1.59e-5,-0.00106 0.00106,-0.00299 0.0087,-7.938e-4 0.020055,-0.00299 0.04599,-0.012409 0.053229,-0.019288 0.1372076,-0.040899 0.2496079,-0.0625 0.2201678,-0.042299 0.5324052,-0.0797 0.9007634,-0.1095481 0.7315412,-0.0591 1.6890524,-0.089202 2.6444074,-0.0894 z" />
    <path
       id="path1447-4-5-3-0-6-1-2"
       style="color:#000000;font-style:normal;font-variant:normal;font-weight:normal;font-stretch:normal;font-size:medium;line-height:normal;font-family:sans-serif;font-variant-ligatures:normal;font-variant-position:normal;font-variant-caps:normal;font-variant-numeric:normal;font-variant-alternates:normal;font-variant-east-asian:normal;font-feature-settings:normal;font-variation-settings:normal;text-indent:0;text-align:start;text-decoration:none;text-decoration-line:none;text-decoration-style:solid;text-decoration-color:#000000;letter-spacing:normal;word-spacing:normal;text-transform:none;writing-mode:lr-tb;direction:ltr;text-orientation:mixed;dominant-baseline:auto;baseline-shift:baseline;text-anchor:start;white-space:normal;shape-padding:0;shape-margin:0;inline-size:0;clip-rule:nonzero;display:inline;overflow:visible;visibility:visible;opacity:0.75;isolation:auto;mix-blend-mode:normal;color-interpolation:sRGB;color-interpolation-filters:linearRGB;solid-color:#000000;solid-opacity:1;vector-effect:none;fill:#4b464b;fill-opacity:1;fill-rule:nonzero;stroke:none;stroke-width:1;stroke-linecap:round;stroke-linejoin:round;stroke-miterlimit:4;stroke-dasharray:none;stroke-dashoffset:2.1875;stroke-opacity:1;color-rendering:auto;image-rendering:auto;shape-rendering:auto;text-rendering:auto;enable-background:accumulate;stop-color:#000000"
       d="m 8.4684394,0.19844808 c -0.978656,-1.614e-4 -1.9571676,0.0318982 -2.726576,0.0939985 -0.3845454,0.0311997 -0.7170129,0.0692018 -0.9865519,0.12091988 -0.1324478,0.0254 -0.2531348,0.0529008 -0.3710543,0.0956019 -0.047731,0.017304 -0.2892134,0.1128898 -0.4237673,0.3028077 C 3.825854,1.0018263 3.8005969,1.2038171 3.7827164,1.3021681 c -0.025532,0.1403985 -0.043331,0.2949892 -0.06046,0.4722997 -0.034642,0.3583094 -0.062431,0.81806 -0.08423,1.3538704 -0.04363,1.0712397 -0.06604,2.4421492 -0.066151,3.8161781 -1.085e-4,1.3739601 0.02114,2.7468914 0.064601,3.8182317 0.021722,0.535659 0.04912,0.994849 0.083719,1.35337 0.01733,0.179409 0.037539,0.335129 0.062532,0.472821 0.017648,0.0971 0.042288,0.298559 0.1777735,0.489868 0.1354481,0.191291 0.3784971,0.286412 0.4237673,0.302811 0.1187079,0.0431 0.2391992,0.0702 0.3710543,0.0956 0.2692426,0.0519 0.6017392,0.0918 0.9865519,0.122981 0.7697629,0.0625 1.746128,0.0918 2.724507,0.092 0.978141,1.58e-4 1.9549396,-0.0276 2.7250276,-0.0899 0.384853,-0.0312 0.717455,-0.0712 0.98655,-0.122981 0.135519,-0.02601 0.255479,-0.0547 0.368988,-0.0956 a 0.39693346,0.3969006 0 0 0 0.0021,0 c 0.04395,-0.01601 0.288007,-0.11126 0.423767,-0.30281 0.135875,-0.191781 0.160174,-0.39515 0.177774,-0.49194 0.02495,-0.137329 0.04519,-0.291221 0.06253,-0.47076 0.03464,-0.358309 0.06191,-0.817541 0.08372,-1.353359 0.04364,-1.0714813 0.06449,-2.4444015 0.0646,-3.8182319 1.08e-4,-1.3739602 -0.02114,-2.7453697 -0.0646,-3.8166888 -0.02172,-0.5356913 -0.04911,-0.9948307 -0.08372,-1.3533597 -0.0172,-0.1781624 -0.03518,-0.333621 -0.06046,-0.472821 C 13.134631,1.2044469 13.107215,1.0036572 12.972833,0.8138769 12.838192,0.6237261 12.595159,0.527767 12.549066,0.5110586 12.435541,0.4697571 12.314473,0.4393565 12.179562,0.41335854 h -0.0016 C 11.908824,0.36155842 11.577503,0.32355631 11.193492,0.29243867 10.423758,0.22993614 9.4468454,0.19863858 8.4684634,0.1984375 Z m -0.01757,0.79526872 a 0.39693346,0.3969006 0 0 0 0.01757,0 c 0.961962,2.011e-4 1.9243776,0.029699 2.6604276,0.0894 0.368131,0.0298 0.679993,0.067101 0.900248,0.1095507 0.109124,0.021008 0.193063,0.0439 0.250126,0.064601 0.02503,0.009 0.03504,0.010292 0.04392,0.011404 0.0011,0.00212 -0.0011,0.00106 0.0011,0.004 0.03576,0.050501 0.02119,0.0313 0.04703,0.1736302 0.0186,0.1024414 0.03654,0.2391489 0.05271,0.4066805 0.03213,0.332859 0.05871,0.7810791 0.0801,1.308399 0.04277,1.0546106 0.06419,2.4196913 0.06408,3.7851716 -1.08e-4,1.3655993 -0.02114,2.7301989 -0.06408,3.7846512 -0.02146,0.527169 -0.04997,0.977408 -0.08217,1.31046 -0.01603,0.16614 -0.03168,0.301868 -0.05064,0.406159 -0.02633,0.144799 -0.01273,0.12572 -0.04703,0.174149 -0.0021,0.003 -2.65e-4,0.0021 -0.0016,0.004 -0.0064,-7.93e-4 -0.01897,0.0011 -0.04341,0.009 -0.05764,0.02069 -0.142346,0.0436 -0.251677,0.0646 -0.22061,0.0424 -0.532713,0.0797 -0.900764,0.10954 -0.735719,0.0595 -1.6982276,0.0901 -2.6604296,0.0899 -0.961959,-1.98e-4 -1.9259553,-0.0302 -2.6619785,-0.0899 -0.3680831,-0.0298 -0.6782489,-0.0691 -0.8986944,-0.111609 -0.112985,-0.0218 -0.1971701,-0.0435 -0.2496106,-0.0625 -0.026194,-0.01 -0.037568,-0.01101 -0.046508,-0.01191 -7.938e-4,-0.0011 2.646e-4,-2.59e-4 -5.292e-4,-0.0021 -0.034311,-0.0485 -0.021908,-0.0345 -0.04703,-0.174148 v -0.0021 c -0.018759,-0.103759 -0.036729,-0.240649 -0.05271,-0.406159 -0.03212,-0.332862 -0.058711,-0.781622 -0.0801,-1.30891 -0.04277,-1.0546403 -0.064701,-2.4212427 -0.06459,-3.7867229 1.111e-4,-1.3654194 0.023707,-2.7304895 0.066659,-3.7851689 0.021458,-0.5271612 0.0479,-0.9753389 0.0801,-1.3083991 0.016272,-0.1683702 0.032239,-0.3049296 0.050641,-0.4061618 0.026061,-0.1432799 0.011483,-0.12396 0.04703,-0.1741382 0.00159,-0.00212 -1.59e-5,-0.00106 0.00106,-0.00299 0.0087,-7.938e-4 0.020055,-0.00299 0.04599,-0.012409 0.053229,-0.019288 0.1372076,-0.040899 0.2496079,-0.0625 0.2201678,-0.042299 0.5324079,-0.0797 0.9007634,-0.1095508 0.7315412,-0.0591 1.6890524,-0.089199 2.6444074,-0.0894 z" />
    <path
       id="path1447-4-5-3-6"
       style="color:#000000;font-style:normal;font-variant:normal;font-weight:normal;font-stretch:normal;font-size:medium;line-height:normal;font-family:sans-serif;font-variant-ligatures:normal;font-variant-position:normal;font-variant-caps:normal;font-variant-numeric:normal;font-variant-alternates:normal;font-variant-east-asian:normal;font-feature-settings:normal;font-variation-settings:normal;text-indent:0;text-align:start;text-decoration:none;text-decoration-line:none;text-decoration-style:solid;text-decoration-color:#000000;letter-spacing:normal;word-spacing:normal;text-transform:none;writing-mode:lr-tb;direction:ltr;text-orientation:mixed;dominant-baseline:auto;baseline-shift:baseline;text-anchor:start;white-space:normal;shape-padding:0;shape-margin:0;inline-size:0;clip-rule:nonzero;display:inline;overflow:visible;visibility:visible;isolation:auto;mix-blend-mode:normal;color-interpolation:sRGB;color-interpolation-filters:linearRGB;solid-color:#000000;solid-opacity:1;vector-effect:none;fill:url(#linearGradient2246);fill-opacity:1;fill-rule:nonzero;stroke:none;stroke-width:0.476062;stroke-linecap:round;stroke-linejoin:round;stroke-miterlimit:4;stroke-dasharray:none;stroke-dashoffset:2.1875;stroke-opacity:1;color-rendering:auto;image-rendering:auto;shape-rendering:auto;text-rendering:auto;enable-background:accumulate;stop-color:#000000"
       d="m 8.4676274,0.5953072 c -0.970124,-1.587e-4 -1.9407532,0.0308 -2.6936198,0.091601 -0.3764333,0.030499 -0.6981957,0.068199 -0.9430332,0.1152393 -0.1224201,0.023495 -0.2250652,0.048099 -0.3106367,0.0791 -0.085569,0.031099 -0.1500638,0.039799 -0.2351538,0.1599089 -0.085093,0.1201208 -0.090771,0.2106295 -0.1127363,0.3314515 -0.02196,0.1208193 -0.038936,0.2658083 -0.055642,0.438658 -0.03342,0.3456914 -0.060621,0.8001 -0.082251,1.3316003 -0.043291,1.0630006 -0.065693,2.4320421 -0.065805,3.8018218 -1.085e-4,1.3697692 0.021722,2.7383587 0.064839,3.801388 0.021564,0.531493 0.048411,0.985891 0.081775,1.331593 0.016695,0.17286 0.035158,0.319169 0.057092,0.439989 0.021934,0.12083 0.027183,0.212201 0.1122547,0.33234 0.085074,0.12015 0.1500717,0.128019 0.235638,0.15902 0.085569,0.0311 0.1882193,0.0555 0.310634,0.0791 0.2448322,0.0472 0.5656369,0.0852 0.9420675,0.115689 0.7528587,0.0611 1.7234956,0.0914 2.6936226,0.0916 0.970124,1.59e-4 1.9397846,-0.0289 2.6926506,-0.0898 0.376434,-0.0305 0.697712,-0.0686 0.942552,-0.115692 0.122417,-0.0235 0.225063,-0.0496 0.310634,-0.0804 0.08557,-0.0311 0.150548,-0.0385 0.235638,-0.15857 0.08509,-0.12011 0.09029,-0.211989 0.112252,-0.33279 0.02196,-0.120809 0.0404,-0.265801 0.05709,-0.43865 0.03342,-0.345689 0.06062,-0.8001 0.08225,-1.331611 0.04329,-1.0629983 0.06473,-2.4320508 0.06484,-3.8018199 1.08e-4,-1.3697691 -0.02172,-2.7383608 -0.06484,-3.8013694 -0.02156,-0.5315214 -0.04841,-0.985901 -0.08178,-1.3316109 C 12.80129,1.6402474 12.78377,1.4952663 12.761831,1.3744364 12.739897,1.2536276 12.733679,1.1626983 12.64861,1.0425483 12.563539,0.9223984 12.499504,0.9145482 12.413938,0.8835284 12.328369,0.8524267 12.225721,0.8262276 12.103304,0.8027273 11.858472,0.7555283 11.536699,0.7175262 11.160271,0.6870462 10.407414,0.6259486 9.4377434,0.5956485 8.4676194,0.5954474 Z" />
    <path
       id="path1447-4-5-3-0-6-1-7-6"
       style="color:#000000;font-style:normal;font-variant:normal;font-weight:normal;font-stretch:normal;font-size:medium;line-height:normal;font-family:sans-serif;font-variant-ligatures:normal;font-variant-position:normal;font-variant-caps:normal;font-variant-numeric:normal;font-variant-alternates:normal;font-variant-east-asian:normal;font-feature-settings:normal;font-variation-settings:normal;text-indent:0;text-align:start;text-decoration:none;text-decoration-line:none;text-decoration-style:solid;text-decoration-color:#000000;letter-spacing:normal;word-spacing:normal;text-transform:none;writing-mode:lr-tb;direction:ltr;text-orientation:mixed;dominant-baseline:auto;baseline-shift:baseline;text-anchor:start;white-space:normal;shape-padding:0;shape-margin:0;inline-size:0;clip-rule:nonzero;display:inline;overflow:visible;visibility:visible;opacity:0.15;isolation:auto;mix-blend-mode:normal;color-interpolation:sRGB;color-interpolation-filters:linearRGB;solid-color:#000000;solid-opacity:1;vector-effect:none;fill:#0c0c0c;fill-opacity:1;fill-rule:nonzero;stroke:none;stroke-width:1;stroke-linecap:round;stroke-linejoin:round;stroke-miterlimit:4;stroke-dasharray:none;stroke-dashoffset:2.1875;stroke-opacity:1;color-rendering:auto;image-rendering:auto;shape-rendering:auto;text-rendering:auto;enable-background:accumulate;stop-color:#000000"
       d="m 8.4684394,0.19844808 c -0.978656,-1.614e-4 -1.9571676,0.0318982 -2.726576,0.0939985 -0.3845454,0.0311997 -0.7170129,0.0692018 -0.9865519,0.12091988 -0.1324478,0.0254 -0.2531348,0.0529008 -0.3710543,0.0956019 -0.047731,0.017304 -0.2892134,0.1128898 -0.4237673,0.3028077 C 3.825854,1.0018263 3.8005969,1.2038171 3.7827164,1.3021681 c -0.025532,0.1403985 -0.043331,0.2949892 -0.06046,0.4722997 -0.034642,0.3583094 -0.062431,0.81806 -0.08423,1.3538704 -0.04363,1.0712397 -0.06604,2.4421492 -0.066151,3.8161781 -1.085e-4,1.3739601 0.02114,2.7468914 0.064601,3.8182317 0.021722,0.535659 0.04912,0.994849 0.083719,1.35337 0.01733,0.179409 0.037539,0.335129 0.062532,0.472821 0.017648,0.0971 0.042288,0.298559 0.1777735,0.489868 0.1354481,0.191291 0.3784971,0.286412 0.4237673,0.302811 0.1187079,0.0431 0.2391992,0.0702 0.3710543,0.0956 0.2692426,0.0519 0.6017392,0.0918 0.9865519,0.122981 0.7697629,0.0625 1.746128,0.0918 2.724507,0.092 0.978141,1.58e-4 1.9549396,-0.0276 2.7250276,-0.0899 0.384853,-0.0312 0.717455,-0.0712 0.98655,-0.122981 0.135519,-0.02601 0.255479,-0.0547 0.368988,-0.0956 a 0.39693346,0.3969006 0 0 0 0.0021,0 c 0.04395,-0.01601 0.288007,-0.11126 0.423767,-0.30281 0.135875,-0.191781 0.160174,-0.39515 0.177774,-0.49194 0.02495,-0.137329 0.04519,-0.291221 0.06253,-0.47076 0.03464,-0.358309 0.06191,-0.817541 0.08372,-1.353359 0.04364,-1.0714813 0.06449,-2.4444015 0.0646,-3.8182319 1.08e-4,-1.3739602 -0.02114,-2.7453697 -0.0646,-3.8166888 -0.02172,-0.5356913 -0.04911,-0.9948307 -0.08372,-1.3533597 -0.0172,-0.1781624 -0.03518,-0.333621 -0.06046,-0.472821 C 13.134631,1.2044469 13.107215,1.0036572 12.972833,0.8138769 12.838192,0.6237261 12.595159,0.527767 12.549066,0.5110586 12.435541,0.4697571 12.314473,0.4393565 12.179562,0.41335854 h -0.0016 C 11.908824,0.36155842 11.577503,0.32355631 11.193492,0.29243867 10.423758,0.22993614 9.4468454,0.19863858 8.4684634,0.1984375 Z m -0.01757,0.79526872 a 0.39693346,0.3969006 0 0 0 0.01757,0 c 0.961962,2.011e-4 1.9243776,0.029699 2.6604276,0.0894 0.368131,0.0298 0.679993,0.067101 0.900248,0.1095507 0.109124,0.021008 0.193063,0.0439 0.250126,0.064601 0.02503,0.009 0.03504,0.010292 0.04392,0.011404 0.0011,0.00212 -0.0011,0.00106 0.0011,0.004 0.03576,0.050501 0.02119,0.0313 0.04703,0.1736302 0.0186,0.1024414 0.03654,0.2391489 0.05271,0.4066805 0.03213,0.332859 0.05871,0.7810791 0.0801,1.308399 0.04277,1.0546106 0.06419,2.4196913 0.06408,3.7851716 -1.08e-4,1.3655993 -0.02114,2.7301989 -0.06408,3.7846512 -0.02146,0.527169 -0.04997,0.977408 -0.08217,1.31046 -0.01603,0.16614 -0.03168,0.301868 -0.05064,0.406159 -0.02633,0.144799 -0.01273,0.12572 -0.04703,0.174149 -0.0021,0.003 -2.65e-4,0.0021 -0.0016,0.004 -0.0064,-7.93e-4 -0.01897,0.0011 -0.04341,0.009 -0.05764,0.02069 -0.142346,0.0436 -0.251677,0.0646 -0.22061,0.0424 -0.532713,0.0797 -0.900764,0.10954 -0.735719,0.0595 -1.6982276,0.0901 -2.6604296,0.0899 -0.961959,-1.98e-4 -1.9259553,-0.0302 -2.6619785,-0.0899 -0.3680831,-0.0298 -0.6782489,-0.0691 -0.8986944,-0.111609 -0.112985,-0.0218 -0.1971701,-0.0435 -0.2496106,-0.0625 -0.026194,-0.01 -0.037568,-0.01101 -0.046508,-0.01191 -7.938e-4,-0.0011 2.646e-4,-2.59e-4 -5.292e-4,-0.0021 -0.034311,-0.0485 -0.021908,-0.0345 -0.04703,-0.174148 v -0.0021 c -0.018759,-0.103759 -0.036729,-0.240649 -0.05271,-0.406159 -0.03212,-0.332862 -0.058711,-0.781622 -0.0801,-1.30891 -0.04277,-1.0546403 -0.064701,-2.4212427 -0.06459,-3.7867229 1.111e-4,-1.3654194 0.023707,-2.7304895 0.066659,-3.7851689 0.021458,-0.5271612 0.0479,-0.9753389 0.0801,-1.3083991 0.016272,-0.1683702 0.032239,-0.3049296 0.050641,-0.4061618 0.026061,-0.1432799 0.011483,-0.12396 0.04703,-0.1741382 0.00159,-0.00212 -1.59e-5,-0.00106 0.00106,-0.00299 0.0087,-7.938e-4 0.020055,-0.00299 0.04599,-0.012409 0.053229,-0.019288 0.1372076,-0.040899 0.2496079,-0.0625 0.2201678,-0.042299 0.5324079,-0.0797 0.9007634,-0.1095508 0.7315412,-0.0591 1.6890524,-0.089199 2.6444074,-0.0894 z" />
    <rect
       style="opacity:0.6;fill:#1c1c22;fill-opacity:1;stroke:none;stroke-width:0.79375;stroke-linecap:round;stroke-linejoin:round;stroke-miterlimit:4;stroke-dasharray:none;stroke-dashoffset:2.1875;stroke-opacity:1"
       id="rect1914-49"
       width="1.3229167"
       height="1.3229167"
       x="6.3500037"
       y="14.221349"
       rx="0.19843751"
       ry="0.19843751" />
    <path
       id="rect1914-5-5-7-43-4-1"
       style="fill:url(#linearGradient2335);fill-opacity:1;stroke:none;stroke-width:0.79375;stroke-linecap:round;stroke-linejoin:round;stroke-miterlimit:4;stroke-dasharray:none;stroke-dashoffset:2.1875;stroke-opacity:1"
       d="m 6.5484378,14.221357 c -0.1099344,0 -0.1984375,0.0885 -0.1984375,0.198441 v 0.926039 c 0,0.109931 0.0885,0.19844 0.1984375,0.19844 h 0.9260416 c 0.109932,0 0.198435,-0.0885 0.198435,-0.19844 v -0.926039 c 0,-0.10994 -0.0885,-0.198441 -0.198435,-0.198441 z m 0.03307,0.132292 h 0.8598936 c 0.05497,0 0.09922,0.0443 0.09922,0.0992 v 0.85989 c 0,0.055 -0.04425,0.0992 -0.09922,0.0992 H 6.5815107 c -0.05497,0 -0.099221,-0.0442 -0.099221,-0.0992 v -0.85989 c 0,-0.055 0.044252,-0.0992 0.099221,-0.0992 z" />
    <rect
       style="opacity:0.6;fill:#1c1c22;fill-opacity:1;stroke:none;stroke-width:0.79375;stroke-linecap:round;stroke-linejoin:round;stroke-miterlimit:4;stroke-dasharray:none;stroke-dashoffset:2.1875;stroke-opacity:1"
       id="rect1914-4-5"
       width="1.3229167"
       height="1.3229167"
       x="9.2604198"
       y="14.221349"
       rx="0.19843751"
       ry="0.19843751" />
    <path
       id="rect1914-5-5-7-43-4"
       style="fill:url(#linearGradient2306);fill-opacity:1;stroke:none;stroke-width:0.79375;stroke-linecap:round;stroke-linejoin:round;stroke-miterlimit:4;stroke-dasharray:none;stroke-dashoffset:2.1875;stroke-opacity:1"
       d="m 9.4588544,14.221357 c -0.109934,0 -0.198437,0.0885 -0.198437,0.198441 v 0.926039 c 0,0.109931 0.0885,0.19844 0.198437,0.19844 h 0.9260416 c 0.109932,0 0.198435,-0.0885 0.198435,-0.19844 v -0.926039 c 0,-0.10994 -0.0885,-0.198441 -0.198435,-0.198441 z m 0.03307,0.132292 h 0.8598936 c 0.05497,0 0.09922,0.0443 0.09922,0.0992 v 0.85989 c 0,0.055 -0.04425,0.0992 -0.09922,0.0992 H 9.4919274 c -0.05497,0 -0.09922,-0.0442 -0.09922,-0.0992 v -0.85989 c 0,-0.055 0.04425,-0.0992 0.09922,-0.0992 z" />
  </g>
</svg>
