<?xml version="1.0" encoding="UTF-8" standalone="no"?>
<svg
   xmlns:dc="http://purl.org/dc/elements/1.1/"
   xmlns:cc="http://creativecommons.org/ns#"
   xmlns:rdf="http://www.w3.org/1999/02/22-rdf-syntax-ns#"
   xmlns:svg="http://www.w3.org/2000/svg"
   xmlns="http://www.w3.org/2000/svg"
   xmlns:xlink="http://www.w3.org/1999/xlink"
   xmlns:sodipodi="http://sodipodi.sourceforge.net/DTD/sodipodi-0.dtd"
   xmlns:inkscape="http://www.inkscape.org/namespaces/inkscape"
   width="64"
   height="64"
   viewBox="0 0 16.933333 16.933334"
   version="1.1"
   id="svg841"
   inkscape:version="1.0.2 (e86c870879, 2021-01-15)"
   sodipodi:docname="keyboard.svg">
  <defs
     id="defs835">
    <linearGradient
       inkscape:collect="always"
       xlink:href="#linearGradient3008"
       id="linearGradient2977"
       gradientUnits="userSpaceOnUse"
       x1="8.4666672"
       y1="2.6458337"
       x2="8.4666672"
       y2="14.816668" />
    <linearGradient
       inkscape:collect="always"
       id="linearGradient3008">
      <stop
         style="stop-color:#b7b7bd;stop-opacity:1"
         offset="0"
         id="stop3004" />
      <stop
         style="stop-color:#8f8f95;stop-opacity:1"
         offset="1"
         id="stop3006" />
    </linearGradient>
  </defs>
  <sodipodi:namedview
     id="base"
     pagecolor="#c4c4c4"
     bordercolor="#666666"
     borderopacity="1.0"
     inkscape:pageopacity="0"
     inkscape:pageshadow="2"
     inkscape:zoom="8.5355149"
     inkscape:cx="-7.0295873"
     inkscape:cy="38.343812"
     inkscape:document-units="px"
     inkscape:current-layer="layer1"
     inkscape:document-rotation="0"
     showgrid="false"
     units="px"
     inkscape:window-width="2048"
     inkscape:window-height="1080"
     inkscape:window-x="0"
     inkscape:window-y="0"
     inkscape:window-maximized="1" />
  <metadata
     id="metadata838">
    <rdf:RDF>
      <cc:Work
         rdf:about="">
        <dc:format>image/svg+xml</dc:format>
        <dc:type
           rdf:resource="http://purl.org/dc/dcmitype/StillImage" />
        <dc:title />
      </cc:Work>
    </rdf:RDF>
  </metadata>
  <g
     inkscape:label="Layer 1"
     inkscape:groupmode="layer"
     id="layer1">
    <path
       id="rect1250-0-6-3-7-5-5"
       style="color:#000000;font-style:normal;font-variant:normal;font-weight:normal;font-stretch:normal;font-size:medium;line-height:normal;font-family:sans-serif;font-variant-ligatures:normal;font-variant-position:normal;font-variant-caps:normal;font-variant-numeric:normal;font-variant-alternates:normal;font-variant-east-asian:normal;font-feature-settings:normal;font-variation-settings:normal;text-indent:0;text-align:start;text-decoration:none;text-decoration-line:none;text-decoration-style:solid;text-decoration-color:#000000;letter-spacing:normal;word-spacing:normal;text-transform:none;writing-mode:lr-tb;direction:ltr;text-orientation:mixed;dominant-baseline:auto;baseline-shift:baseline;text-anchor:start;white-space:normal;shape-padding:0;shape-margin:0;inline-size:0;clip-rule:nonzero;display:inline;overflow:visible;visibility:visible;opacity:0.15;isolation:auto;mix-blend-mode:normal;color-interpolation:sRGB;color-interpolation-filters:linearRGB;solid-color:#000000;solid-opacity:1;vector-effect:none;fill:#0c0c10;fill-opacity:1;fill-rule:nonzero;stroke:none;stroke-width:1.00002;stroke-linecap:round;stroke-linejoin:round;stroke-miterlimit:4;stroke-dasharray:none;stroke-dashoffset:2.1875;stroke-opacity:1;color-rendering:auto;image-rendering:auto;shape-rendering:auto;text-rendering:auto;enable-background:accumulate;stop-color:#000000"
       d="m 1.5875459,2.513542 c -0.79934493,0 -1.45525403,0.657437 -1.45525403,1.456758 v 10.052616 c 0,0.799322 0.6559091,1.455208 1.45525403,1.455208 H 15.345788 c 0.799346,0 1.455254,-0.655886 1.455254,-1.455208 V 3.9703 c 0,-0.799321 -0.655908,-1.456758 -1.455254,-1.456758 z m 0,0.794783 H 15.345788 c 0.373325,0 0.661996,0.288662 0.661996,0.661975 v 10.052616 c 0,0.373313 -0.288671,0.662492 -0.661996,0.662492 H 1.5875459 c -0.373325,0 -0.66199603,-0.289179 -0.66199603,-0.662492 V 3.9703 c 0,-0.373313 0.28867103,-0.661975 0.66199603,-0.661975 z" />
    <path
       id="rect1250-0-6-3-2-5-0-9"
       style="color:#000000;font-style:normal;font-variant:normal;font-weight:normal;font-stretch:normal;font-size:medium;line-height:normal;font-family:sans-serif;font-variant-ligatures:normal;font-variant-position:normal;font-variant-caps:normal;font-variant-numeric:normal;font-variant-alternates:normal;font-variant-east-asian:normal;font-feature-settings:normal;font-variation-settings:normal;text-indent:0;text-align:start;text-decoration:none;text-decoration-line:none;text-decoration-style:solid;text-decoration-color:#000000;letter-spacing:normal;word-spacing:normal;text-transform:none;writing-mode:lr-tb;direction:ltr;text-orientation:mixed;dominant-baseline:auto;baseline-shift:baseline;text-anchor:start;white-space:normal;shape-padding:0;shape-margin:0;inline-size:0;clip-rule:nonzero;display:inline;overflow:visible;visibility:visible;opacity:0.75;isolation:auto;mix-blend-mode:normal;color-interpolation:sRGB;color-interpolation-filters:linearRGB;solid-color:#000000;solid-opacity:1;vector-effect:none;fill:#494950;fill-opacity:1;fill-rule:nonzero;stroke:none;stroke-width:1.00002;stroke-linecap:round;stroke-linejoin:round;stroke-miterlimit:4;stroke-dasharray:none;stroke-dashoffset:2.1875;stroke-opacity:1;color-rendering:auto;image-rendering:auto;shape-rendering:auto;text-rendering:auto;enable-background:accumulate;stop-color:#000000"
       d="m 1.5875456,1.984375 c -0.79934493,0 -1.45525393,0.657437 -1.45525393,1.456758 v 10.052616 c 0,0.799322 0.655909,1.455208 1.45525393,1.455208 H 15.345788 c 0.799346,0 1.455254,-0.655886 1.455254,-1.455208 V 3.441133 c 0,-0.799321 -0.655908,-1.456758 -1.455254,-1.456758 z m 0,0.794783 H 15.345788 c 0.373325,0 0.661996,0.288662 0.661996,0.661975 v 10.052616 c 0,0.373313 -0.288671,0.662492 -0.661996,0.662492 H 1.5875456 c -0.373325,0 -0.66199603,-0.289179 -0.66199603,-0.662492 V 3.441133 c 0,-0.373313 0.28867103,-0.661975 0.66199603,-0.661975 z" />
    <rect
       style="fill:url(#linearGradient2977);fill-opacity:1;stroke-width:0;stroke-linecap:round;stroke-linejoin:round;stroke-dashoffset:2.1875"
       id="rect1250-3-9-6"
       width="15.875"
       height="12.170834"
       x="0.529167"
       y="2.3812504"
       rx="1.0583334"
       ry="1.0583334" />
    <path
       id="rect1250-0-6-3-0-6-3-1"
       style="color:#000000;font-style:normal;font-variant:normal;font-weight:normal;font-stretch:normal;font-size:medium;line-height:normal;font-family:sans-serif;font-variant-ligatures:normal;font-variant-position:normal;font-variant-caps:normal;font-variant-numeric:normal;font-variant-alternates:normal;font-variant-east-asian:normal;font-feature-settings:normal;font-variation-settings:normal;text-indent:0;text-align:start;text-decoration:none;text-decoration-line:none;text-decoration-style:solid;text-decoration-color:#000000;letter-spacing:normal;word-spacing:normal;text-transform:none;writing-mode:lr-tb;direction:ltr;text-orientation:mixed;dominant-baseline:auto;baseline-shift:baseline;text-anchor:start;white-space:normal;shape-padding:0;shape-margin:0;inline-size:0;clip-rule:nonzero;display:inline;overflow:visible;visibility:visible;opacity:0.15;isolation:auto;mix-blend-mode:normal;color-interpolation:sRGB;color-interpolation-filters:linearRGB;solid-color:#000000;solid-opacity:1;vector-effect:none;fill:#313135;fill-opacity:1;fill-rule:nonzero;stroke:none;stroke-width:1.00002;stroke-linecap:round;stroke-linejoin:round;stroke-miterlimit:4;stroke-dasharray:none;stroke-dashoffset:2.1875;stroke-opacity:1;color-rendering:auto;image-rendering:auto;shape-rendering:auto;text-rendering:auto;enable-background:accumulate;stop-color:#000000"
       d="m 1.587546,1.984375 c -0.79934503,0 -1.45525393,0.657437 -1.45525393,1.456758 v 10.052616 c 0,0.799322 0.6559089,1.455208 1.45525393,1.455208 h 13.758242 c 0.799346,0 1.455254,-0.655886 1.455254,-1.455208 V 3.441133 c 0,-0.799321 -0.655908,-1.456758 -1.455254,-1.456758 z m 0,0.794783 h 13.758242 c 0.373325,0 0.661996,0.288662 0.661996,0.661975 v 10.052616 c 0,0.373313 -0.288671,0.662492 -0.661996,0.662492 H 1.587546 c -0.373325,0 -0.66199613,-0.289179 -0.66199613,-0.662492 V 3.441133 c 0,-0.373313 0.28867113,-0.661975 0.66199613,-0.661975 z" />
    <rect
       style="opacity:0.35;fill:#313135;fill-opacity:1;stroke:none;stroke-width:1.85208;stroke-miterlimit:4;stroke-dasharray:none;stroke-dashoffset:2.1875;stroke-opacity:1"
       id="rect2471-6-6-8-1-6-1-9-7-6-6-4-5-7"
       width="2.2489583"
       height="2.2489583"
       x="2.9765606"
       y="4.2333298"
       rx="0.5291667"
       ry="0.5291667" />
    <rect
       style="opacity:0.35;fill:#313135;fill-opacity:1;stroke:none;stroke-width:1.85208;stroke-miterlimit:4;stroke-dasharray:none;stroke-dashoffset:2.1875;stroke-opacity:1"
       id="rect2471-6-6-8-1-6-1-2-9-1-5-3-2-4"
       width="2.2489583"
       height="2.2489583"
       x="7.3421874"
       y="4.2333298"
       rx="0.5291667"
       ry="0.5291667" />
    <rect
       style="opacity:0.35;fill:#313135;fill-opacity:1;stroke:none;stroke-width:1.85208;stroke-miterlimit:4;stroke-dasharray:none;stroke-dashoffset:2.1875;stroke-opacity:1"
       id="rect2471-6-6-8-1-6-1-2-3-2-5-6-0-1-5-5"
       width="2.2489583"
       height="2.2489583"
       x="11.707811"
       y="4.2333298"
       rx="0.5291667"
       ry="0.5291667" />
    <rect
       style="opacity:0.35;fill:#313135;fill-opacity:1;stroke:none;stroke-width:1.85208;stroke-miterlimit:4;stroke-dasharray:none;stroke-dashoffset:2.1875;stroke-opacity:1"
       id="rect2471-6-7-2-7-2-1-9-3-9-7-7-2"
       width="12.7"
       height="1.8520833"
       x="2.1166649"
       y="11.840105"
       rx="0.39687499"
       ry="0.39687499" />
    <rect
       style="opacity:0.35;fill:#313135;fill-opacity:1;stroke:none;stroke-width:1.85208;stroke-miterlimit:4;stroke-dasharray:none;stroke-dashoffset:2.1875;stroke-opacity:1"
       id="rect2471-6-6-8-1-6-1-9-7-6-6-3-8-3-5"
       width="2.2489583"
       height="2.2489583"
       x="2.9765625"
       y="8.0697918"
       rx="0.5291667"
       ry="0.5291667" />
    <path
       id="rect2471-6-6-8-1-6-1-2-3-2-5-6-09-1-0-65-6-3-1-4"
       style="color:#000000;font-style:normal;font-variant:normal;font-weight:normal;font-stretch:normal;font-size:medium;line-height:normal;font-family:sans-serif;font-variant-ligatures:normal;font-variant-position:normal;font-variant-caps:normal;font-variant-numeric:normal;font-variant-alternates:normal;font-variant-east-asian:normal;font-feature-settings:normal;font-variation-settings:normal;text-indent:0;text-align:start;text-decoration:none;text-decoration-line:none;text-decoration-style:solid;text-decoration-color:#000000;letter-spacing:normal;word-spacing:normal;text-transform:none;writing-mode:lr-tb;direction:ltr;text-orientation:mixed;dominant-baseline:auto;baseline-shift:baseline;text-anchor:start;white-space:normal;shape-padding:0;shape-margin:0;inline-size:0;clip-rule:nonzero;display:inline;overflow:visible;visibility:visible;opacity:0.75;isolation:auto;mix-blend-mode:normal;color-interpolation:sRGB;color-interpolation-filters:linearRGB;solid-color:#000000;solid-opacity:1;vector-effect:none;fill:#3b3b40;fill-opacity:1;fill-rule:nonzero;stroke:none;stroke-width:1;stroke-linecap:round;stroke-linejoin:round;stroke-miterlimit:4;stroke-dasharray:none;stroke-dashoffset:2.1875;stroke-opacity:1;color-rendering:auto;image-rendering:auto;shape-rendering:auto;text-rendering:auto;enable-background:accumulate;stop-color:#000000"
       d="m 3.240628,7.540624 c -0.217581,0 -0.396357,0.178777 -0.396358,0.396358 v 0.859379 0.59583 c 0,0.364159 0.297816,0.661975 0.661975,0.661975 h 1.189591 c 0.364159,0 0.661975,-0.297816 0.661975,-0.661975 V 8.796361 7.936982 c 0,-0.217581 -0.178777,-0.396358 -0.396358,-0.396358 z m 0,0.26355 h 1.720825 c 0.07558,0 0.130742,0.05723 0.130742,0.132808 v 0.859379 0.59583 c 0,0.222156 -0.174202,0.396358 -0.396359,0.396358 H 3.506245 c -0.222157,0 -0.398426,-0.174202 -0.398426,-0.396358 V 8.796361 7.936982 c 0,-0.07558 0.05723,-0.132808 0.132809,-0.132808 z" />
    <path
       id="rect2471-6-6-8-1-6-1-2-3-2-5-6-09-1-2-6-7"
       style="fill:#fdfcfb;fill-opacity:1;stroke:none;stroke-width:1.85208;stroke-miterlimit:4;stroke-dasharray:none;stroke-dashoffset:2.1875;stroke-opacity:1"
       d="m 3.241145,7.672916 c -0.14658,0 -0.264583,0.118004 -0.264583,0.264583 v 0.859895 0.595314 c 0,0.293158 0.236008,0.529166 0.529167,0.529166 h 1.190625 c 0.293158,0 0.529166,-0.236008 0.529166,-0.529166 V 8.797394 7.937499 c 0,-0.146579 -0.118003,-0.264583 -0.264583,-0.264583 z" />
    <path
       id="rect2471-6-7-2-7-2-1-9-3-9-6-3-9-0-4"
       style="color:#000000;font-style:normal;font-variant:normal;font-weight:normal;font-stretch:normal;font-size:medium;line-height:normal;font-family:sans-serif;font-variant-ligatures:normal;font-variant-position:normal;font-variant-caps:normal;font-variant-numeric:normal;font-variant-alternates:normal;font-variant-east-asian:normal;font-feature-settings:normal;font-variation-settings:normal;text-indent:0;text-align:start;text-decoration:none;text-decoration-line:none;text-decoration-style:solid;text-decoration-color:#000000;letter-spacing:normal;word-spacing:normal;text-transform:none;writing-mode:lr-tb;direction:ltr;text-orientation:mixed;dominant-baseline:auto;baseline-shift:baseline;text-anchor:start;white-space:normal;shape-padding:0;shape-margin:0;inline-size:0;clip-rule:nonzero;display:inline;overflow:visible;visibility:visible;opacity:0.75;isolation:auto;mix-blend-mode:normal;color-interpolation:sRGB;color-interpolation-filters:linearRGB;solid-color:#000000;solid-opacity:1;vector-effect:none;fill:#3b3b40;fill-opacity:1;fill-rule:nonzero;stroke:none;stroke-width:0.999879;stroke-linecap:round;stroke-linejoin:round;stroke-miterlimit:4;stroke-dasharray:none;stroke-dashoffset:2.1875;stroke-opacity:1;color-rendering:auto;image-rendering:auto;shape-rendering:auto;text-rendering:auto;enable-background:accumulate;stop-color:#000000"
       d="m 2.513542,11.310938 c -0.29087,0 -0.529167,0.238756 -0.529167,0.529553 v 1.058076 c 0,0.290799 0.238297,0.529038 0.529167,0.529038 h 11.906252 c 0.290871,0 0.529166,-0.238239 0.529166,-0.529038 v -1.058076 c 0,-0.290798 -0.238295,-0.529553 -0.529166,-0.529553 z m 0,0.263486 h 11.906252 c 0.148868,0 0.263549,0.117238 0.263549,0.266068 v 1.058076 c 0,0.14883 -0.114681,0.263485 -0.263549,0.263485 H 2.513542 c -0.148867,0 -0.265617,-0.114656 -0.265617,-0.263485 v -1.058076 c 0,-0.14883 0.11675,-0.266068 0.265617,-0.266068 z" />
    <rect
       style="fill:#fdfcfb;fill-opacity:1;stroke:none;stroke-width:1.85208;stroke-miterlimit:4;stroke-dasharray:none;stroke-dashoffset:2.1875;stroke-opacity:1"
       id="rect2471-6-7-2-7-2-1-9-3-9-6-4"
       width="12.7"
       height="1.8520833"
       x="2.1166668"
       y="11.443228"
       rx="0.39687499"
       ry="0.39687499" />
    <rect
       style="opacity:0.35;fill:#313135;fill-opacity:1;stroke:none;stroke-width:1.85208;stroke-miterlimit:4;stroke-dasharray:none;stroke-dashoffset:2.1875;stroke-opacity:1"
       id="rect2471-6-6-8-1-6-1-2-9-1-5-7-6-0-3"
       width="2.2489583"
       height="2.2489583"
       x="7.3421874"
       y="8.0697918"
       rx="0.5291667"
       ry="0.5291667" />
    <path
       id="rect2471-6-6-8-1-6-1-2-3-2-5-6-09-1-0-65-6-3-2-0"
       style="color:#000000;font-style:normal;font-variant:normal;font-weight:normal;font-stretch:normal;font-size:medium;line-height:normal;font-family:sans-serif;font-variant-ligatures:normal;font-variant-position:normal;font-variant-caps:normal;font-variant-numeric:normal;font-variant-alternates:normal;font-variant-east-asian:normal;font-feature-settings:normal;font-variation-settings:normal;text-indent:0;text-align:start;text-decoration:none;text-decoration-line:none;text-decoration-style:solid;text-decoration-color:#000000;letter-spacing:normal;word-spacing:normal;text-transform:none;writing-mode:lr-tb;direction:ltr;text-orientation:mixed;dominant-baseline:auto;baseline-shift:baseline;text-anchor:start;white-space:normal;shape-padding:0;shape-margin:0;inline-size:0;clip-rule:nonzero;display:inline;overflow:visible;visibility:visible;opacity:0.75;isolation:auto;mix-blend-mode:normal;color-interpolation:sRGB;color-interpolation-filters:linearRGB;solid-color:#000000;solid-opacity:1;vector-effect:none;fill:#3b3b40;fill-opacity:1;fill-rule:nonzero;stroke:none;stroke-width:1;stroke-linecap:round;stroke-linejoin:round;stroke-miterlimit:4;stroke-dasharray:none;stroke-dashoffset:2.1875;stroke-opacity:1;color-rendering:auto;image-rendering:auto;shape-rendering:auto;text-rendering:auto;enable-background:accumulate;stop-color:#000000"
       d="m 7.606253,7.540624 c -0.217581,0 -0.396357,0.178777 -0.396358,0.396358 v 0.859379 0.59583 c 0,0.364159 0.297816,0.661975 0.661975,0.661975 h 1.189591 c 0.364159,0 0.661976,-0.297816 0.661976,-0.661975 V 8.796361 7.936982 c 0,-0.217581 -0.178777,-0.396358 -0.396359,-0.396358 z m 0,0.26355 h 1.720825 c 0.07558,0 0.130743,0.05723 0.130743,0.132808 v 0.859379 0.59583 c 0,0.222156 -0.174203,0.396358 -0.39636,0.396358 H 7.87187 c -0.222157,0 -0.398426,-0.174202 -0.398426,-0.396358 V 8.796361 7.936982 c 0,-0.07558 0.05723,-0.132808 0.132809,-0.132808 z" />
    <path
       id="rect2471-6-6-8-1-6-1-2-3-2-5-6-09-1-8-7"
       style="fill:#fdfcfb;fill-opacity:1;stroke:none;stroke-width:1.85208;stroke-miterlimit:4;stroke-dasharray:none;stroke-dashoffset:2.1875;stroke-opacity:1"
       d="m 7.60677,7.672916 c -0.146579,0 -0.264583,0.118004 -0.264583,0.264583 v 0.859895 0.595314 c 0,0.293158 0.236008,0.529166 0.529167,0.529166 h 1.190625 c 0.293158,0 0.529167,-0.236008 0.529167,-0.529166 V 8.797394 7.937499 c 0,-0.146579 -0.118003,-0.264583 -0.264584,-0.264583 z" />
    <rect
       style="opacity:0.35;fill:#313135;fill-opacity:1;stroke:none;stroke-width:1.85208;stroke-miterlimit:4;stroke-dasharray:none;stroke-dashoffset:2.1875;stroke-opacity:1"
       id="rect2471-6-6-8-1-6-1-2-3-2-5-6-4-8-2-8"
       width="2.2489583"
       height="2.2489583"
       x="11.707811"
       y="8.0697918"
       rx="0.5291667"
       ry="0.5291667" />
    <path
       id="rect2471-6-6-8-1-6-1-2-3-2-5-6-09-1-0-65-6-3-9-6"
       style="color:#000000;font-style:normal;font-variant:normal;font-weight:normal;font-stretch:normal;font-size:medium;line-height:normal;font-family:sans-serif;font-variant-ligatures:normal;font-variant-position:normal;font-variant-caps:normal;font-variant-numeric:normal;font-variant-alternates:normal;font-variant-east-asian:normal;font-feature-settings:normal;font-variation-settings:normal;text-indent:0;text-align:start;text-decoration:none;text-decoration-line:none;text-decoration-style:solid;text-decoration-color:#000000;letter-spacing:normal;word-spacing:normal;text-transform:none;writing-mode:lr-tb;direction:ltr;text-orientation:mixed;dominant-baseline:auto;baseline-shift:baseline;text-anchor:start;white-space:normal;shape-padding:0;shape-margin:0;inline-size:0;clip-rule:nonzero;display:inline;overflow:visible;visibility:visible;opacity:0.75;isolation:auto;mix-blend-mode:normal;color-interpolation:sRGB;color-interpolation-filters:linearRGB;solid-color:#000000;solid-opacity:1;vector-effect:none;fill:#3b3b40;fill-opacity:1;fill-rule:nonzero;stroke:none;stroke-width:1;stroke-linecap:round;stroke-linejoin:round;stroke-miterlimit:4;stroke-dasharray:none;stroke-dashoffset:2.1875;stroke-opacity:1;color-rendering:auto;image-rendering:auto;shape-rendering:auto;text-rendering:auto;enable-background:accumulate;stop-color:#000000"
       d="m 11.971879,7.540624 c -0.217581,0 -0.396357,0.178777 -0.396358,0.396358 v 0.859379 0.59583 c 0,0.364159 0.297816,0.661975 0.661975,0.661975 h 1.189591 c 0.364159,0 0.661975,-0.297816 0.661975,-0.661975 V 8.796361 7.936982 c 0,-0.217581 -0.178777,-0.396358 -0.396358,-0.396358 z m 0,0.26355 h 1.720825 c 0.07558,0 0.130742,0.05723 0.130742,0.132808 v 0.859379 0.59583 c 0,0.222156 -0.174202,0.396358 -0.396359,0.396358 h -1.189591 c -0.222157,0 -0.398426,-0.174202 -0.398426,-0.396358 V 8.796361 7.936982 c 0,-0.07558 0.05723,-0.132808 0.132809,-0.132808 z" />
    <path
       id="rect2471-6-6-8-1-6-1-2-3-2-5-6-09-1-0-9-8"
       style="fill:#fdfcfb;fill-opacity:1;stroke:none;stroke-width:1.85208;stroke-miterlimit:4;stroke-dasharray:none;stroke-dashoffset:2.1875;stroke-opacity:1"
       d="m 11.972397,7.672916 c -0.14658,0 -0.264584,0.118004 -0.264584,0.264583 v 0.859895 0.595314 c 0,0.293158 0.236009,0.529166 0.529167,0.529166 h 1.190625 c 0.293158,0 0.529167,-0.236008 0.529167,-0.529166 V 8.797394 7.937499 c 0,-0.146579 -0.118004,-0.264583 -0.264584,-0.264583 z" />
    <path
       id="rect2471-6-6-8-1-6-1-2-3-2-5-6-09-1-0-65-6-3-84"
       style="color:#000000;font-style:normal;font-variant:normal;font-weight:normal;font-stretch:normal;font-size:medium;line-height:normal;font-family:sans-serif;font-variant-ligatures:normal;font-variant-position:normal;font-variant-caps:normal;font-variant-numeric:normal;font-variant-alternates:normal;font-variant-east-asian:normal;font-feature-settings:normal;font-variation-settings:normal;text-indent:0;text-align:start;text-decoration:none;text-decoration-line:none;text-decoration-style:solid;text-decoration-color:#000000;letter-spacing:normal;word-spacing:normal;text-transform:none;writing-mode:lr-tb;direction:ltr;text-orientation:mixed;dominant-baseline:auto;baseline-shift:baseline;text-anchor:start;white-space:normal;shape-padding:0;shape-margin:0;inline-size:0;clip-rule:nonzero;display:inline;overflow:visible;visibility:visible;opacity:0.75;isolation:auto;mix-blend-mode:normal;color-interpolation:sRGB;color-interpolation-filters:linearRGB;solid-color:#000000;solid-opacity:1;vector-effect:none;fill:#3b3b40;fill-opacity:1;fill-rule:nonzero;stroke:none;stroke-width:1;stroke-linecap:round;stroke-linejoin:round;stroke-miterlimit:4;stroke-dasharray:none;stroke-dashoffset:2.1875;stroke-opacity:1;color-rendering:auto;image-rendering:auto;shape-rendering:auto;text-rendering:auto;enable-background:accumulate;stop-color:#000000"
       d="m 11.971879,3.704166 c -0.217581,0 -0.396357,0.178777 -0.396358,0.396358 v 0.859379 0.595829 c 0,0.36416 0.297816,0.661975 0.661975,0.661975 h 1.189591 c 0.364159,0 0.661975,-0.297815 0.661975,-0.661975 V 4.959903 4.100524 c 0,-0.217581 -0.178777,-0.396358 -0.396358,-0.396358 z m 0,0.26355 h 1.720825 c 0.07558,0 0.130742,0.05723 0.130742,0.132808 v 0.859379 0.595829 c 0,0.222157 -0.174202,0.396359 -0.396359,0.396359 h -1.189591 c -0.222157,0 -0.398426,-0.174202 -0.398426,-0.396359 V 4.959903 4.100524 c 0,-0.07558 0.05723,-0.132808 0.132809,-0.132808 z" />
    <path
       id="rect2471-6-6-8-1-6-1-2-3-2-5-6-09-1-0-3"
       style="fill:#fdfcfb;fill-opacity:1;stroke:none;stroke-width:1.85208;stroke-miterlimit:4;stroke-dasharray:none;stroke-dashoffset:2.1875;stroke-opacity:1"
       d="m 11.972397,3.836457 c -0.14658,0 -0.264584,0.118005 -0.264584,0.264584 v 0.859896 0.595312 c 0,0.293159 0.236009,0.529167 0.529167,0.529167 h 1.190625 c 0.293158,0 0.529167,-0.236008 0.529167,-0.529167 V 4.960937 4.101041 c 0,-0.146579 -0.118004,-0.264584 -0.264584,-0.264584 z" />
    <path
       id="rect2471-6-6-8-1-6-1-2-3-2-5-6-09-1-0-65-6-3-4-1"
       style="color:#000000;font-style:normal;font-variant:normal;font-weight:normal;font-stretch:normal;font-size:medium;line-height:normal;font-family:sans-serif;font-variant-ligatures:normal;font-variant-position:normal;font-variant-caps:normal;font-variant-numeric:normal;font-variant-alternates:normal;font-variant-east-asian:normal;font-feature-settings:normal;font-variation-settings:normal;text-indent:0;text-align:start;text-decoration:none;text-decoration-line:none;text-decoration-style:solid;text-decoration-color:#000000;letter-spacing:normal;word-spacing:normal;text-transform:none;writing-mode:lr-tb;direction:ltr;text-orientation:mixed;dominant-baseline:auto;baseline-shift:baseline;text-anchor:start;white-space:normal;shape-padding:0;shape-margin:0;inline-size:0;clip-rule:nonzero;display:inline;overflow:visible;visibility:visible;opacity:0.75;isolation:auto;mix-blend-mode:normal;color-interpolation:sRGB;color-interpolation-filters:linearRGB;solid-color:#000000;solid-opacity:1;vector-effect:none;fill:#3b3b40;fill-opacity:1;fill-rule:nonzero;stroke:none;stroke-width:1;stroke-linecap:round;stroke-linejoin:round;stroke-miterlimit:4;stroke-dasharray:none;stroke-dashoffset:2.1875;stroke-opacity:1;color-rendering:auto;image-rendering:auto;shape-rendering:auto;text-rendering:auto;enable-background:accumulate;stop-color:#000000"
       d="m 7.606253,3.704166 c -0.217581,0 -0.396357,0.178777 -0.396358,0.396358 v 0.859379 0.595829 c 0,0.36416 0.297816,0.661975 0.661975,0.661975 h 1.189591 c 0.364159,0 0.661976,-0.297815 0.661976,-0.661975 V 4.959903 4.100524 c 0,-0.217581 -0.178777,-0.396358 -0.396359,-0.396358 z m 0,0.26355 h 1.720825 c 0.07558,0 0.130743,0.05723 0.130743,0.132808 v 0.859379 0.595829 c 0,0.222157 -0.174203,0.396359 -0.39636,0.396359 H 7.87187 c -0.222157,0 -0.398426,-0.174202 -0.398426,-0.396359 V 4.959903 4.100524 c 0,-0.07558 0.05723,-0.132808 0.132809,-0.132808 z" />
    <path
       id="rect2471-6-6-8-1-6-1-2-3-2-5-6-09-1-0-7-4"
       style="fill:#fdfcfb;fill-opacity:1;stroke:none;stroke-width:1.85208;stroke-miterlimit:4;stroke-dasharray:none;stroke-dashoffset:2.1875;stroke-opacity:1"
       d="m 7.606771,3.836457 c -0.14658,0 -0.264584,0.118005 -0.264584,0.264584 v 0.859896 0.595312 c 0,0.293159 0.236009,0.529167 0.529167,0.529167 h 1.190625 c 0.293158,0 0.529168,-0.236008 0.529168,-0.529167 V 4.960937 4.101041 c 0,-0.146579 -0.118004,-0.264584 -0.264585,-0.264584 z" />
    <path
       id="rect2471-6-6-8-1-6-1-2-3-2-5-6-09-1-0-65-6-3-8-9"
       style="color:#000000;font-style:normal;font-variant:normal;font-weight:normal;font-stretch:normal;font-size:medium;line-height:normal;font-family:sans-serif;font-variant-ligatures:normal;font-variant-position:normal;font-variant-caps:normal;font-variant-numeric:normal;font-variant-alternates:normal;font-variant-east-asian:normal;font-feature-settings:normal;font-variation-settings:normal;text-indent:0;text-align:start;text-decoration:none;text-decoration-line:none;text-decoration-style:solid;text-decoration-color:#000000;letter-spacing:normal;word-spacing:normal;text-transform:none;writing-mode:lr-tb;direction:ltr;text-orientation:mixed;dominant-baseline:auto;baseline-shift:baseline;text-anchor:start;white-space:normal;shape-padding:0;shape-margin:0;inline-size:0;clip-rule:nonzero;display:inline;overflow:visible;visibility:visible;opacity:0.75;isolation:auto;mix-blend-mode:normal;color-interpolation:sRGB;color-interpolation-filters:linearRGB;solid-color:#000000;solid-opacity:1;vector-effect:none;fill:#3b3b40;fill-opacity:1;fill-rule:nonzero;stroke:none;stroke-width:1;stroke-linecap:round;stroke-linejoin:round;stroke-miterlimit:4;stroke-dasharray:none;stroke-dashoffset:2.1875;stroke-opacity:1;color-rendering:auto;image-rendering:auto;shape-rendering:auto;text-rendering:auto;enable-background:accumulate;stop-color:#000000"
       d="m 3.240628,3.704166 c -0.217581,0 -0.396357,0.178777 -0.396358,0.396358 v 0.859379 0.595829 c 0,0.36416 0.297816,0.661975 0.661975,0.661975 h 1.189591 c 0.364159,0 0.661975,-0.297815 0.661975,-0.661975 V 4.959903 4.100524 c 0,-0.217581 -0.178777,-0.396358 -0.396358,-0.396358 z m 0,0.26355 h 1.720825 c 0.07558,0 0.130742,0.05723 0.130742,0.132808 v 0.859379 0.595829 c 0,0.222157 -0.174202,0.396359 -0.396359,0.396359 H 3.506245 c -0.222157,0 -0.398426,-0.174202 -0.398426,-0.396359 V 4.959903 4.100524 c 0,-0.07558 0.05723,-0.132808 0.132809,-0.132808 z" />
    <path
       id="rect2471-6-6-8-1-6-1-2-3-2-5-6-09-1-0-71-2"
       style="fill:#fdfcfb;fill-opacity:1;stroke:none;stroke-width:1.85208;stroke-miterlimit:4;stroke-dasharray:none;stroke-dashoffset:2.1875;stroke-opacity:1"
       d="m 3.241146,3.836458 c -0.14658,0 -0.264584,0.118004 -0.264584,0.264583 v 0.859896 0.595312 c 0,0.293159 0.236009,0.529167 0.529167,0.529167 h 1.190625 c 0.293158,0 0.529167,-0.236008 0.529167,-0.529167 V 4.960937 4.101041 c 0,-0.146579 -0.118004,-0.264584 -0.264584,-0.264584 z" />
  </g>
</svg>
