<?xml version="1.0" encoding="UTF-8" standalone="no"?>
<svg
   xmlns:dc="http://purl.org/dc/elements/1.1/"
   xmlns:cc="http://creativecommons.org/ns#"
   xmlns:rdf="http://www.w3.org/1999/02/22-rdf-syntax-ns#"
   xmlns:svg="http://www.w3.org/2000/svg"
   xmlns="http://www.w3.org/2000/svg"
   xmlns:xlink="http://www.w3.org/1999/xlink"
   xmlns:sodipodi="http://sodipodi.sourceforge.net/DTD/sodipodi-0.dtd"
   xmlns:inkscape="http://www.inkscape.org/namespaces/inkscape"
   width="64"
   height="64"
   viewBox="0 0 16.933333 16.933334"
   version="1.1"
   id="svg841"
   inkscape:version="1.0.2 (e86c870879, 2021-01-15)"
   sodipodi:docname="appointment.svg">
  <defs
     id="defs835">
    <linearGradient
       inkscape:collect="always"
       xlink:href="#linearGradient1338-8"
       id="linearGradient3912-6"
       gradientUnits="userSpaceOnUse"
       x1="8.2020836"
       y1="1.3229167"
       x2="8.2029152"
       y2="5.0272117"
       gradientTransform="translate(-5.6250001e-8,0.39687779)" />
    <linearGradient
       inkscape:collect="always"
       id="linearGradient1338-8">
      <stop
         style="stop-color:#fdfdfa;stop-opacity:0.44999999"
         offset="0"
         id="stop1334-9" />
      <stop
         style="stop-color:#fdfdfa;stop-opacity:0;"
         offset="1"
         id="stop1336-0" />
    </linearGradient>
    <linearGradient
       inkscape:collect="always"
       xlink:href="#linearGradient877"
       id="linearGradient1267"
       x1="30.386377"
       y1="226.49901"
       x2="29.613922"
       y2="254.49901"
       gradientUnits="userSpaceOnUse"
       gradientTransform="matrix(0.26458334,0,0,0.26458334,-5.6250001e-8,-52.916668)" />
    <linearGradient
       inkscape:collect="always"
       id="linearGradient877">
      <stop
         style="stop-color:#17cea7;stop-opacity:1"
         offset="0"
         id="stop873" />
      <stop
         style="stop-color:#13ae8d;stop-opacity:1"
         offset="1"
         id="stop875" />
    </linearGradient>
    <linearGradient
       inkscape:collect="always"
       xlink:href="#linearGradient4452"
       id="linearGradient4454"
       x1="614"
       y1="998"
       x2="622"
       y2="1010"
       gradientUnits="userSpaceOnUse"
       gradientTransform="matrix(0.26458334,0,0,0.26458334,-158.75,-263.78959)" />
    <linearGradient
       inkscape:collect="always"
       id="linearGradient4452">
      <stop
         style="stop-color:#333347;stop-opacity:0.85000002"
         offset="0"
         id="stop4448" />
      <stop
         style="stop-color:#333347;stop-opacity:0.75"
         offset="1"
         id="stop4450" />
    </linearGradient>
    <linearGradient
       inkscape:collect="always"
       xlink:href="#linearGradient4231"
       id="linearGradient4233"
       x1="612.60675"
       y1="978.63715"
       x2="620.60675"
       y2="990.63715"
       gradientUnits="userSpaceOnUse"
       gradientTransform="matrix(0.26458334,0,0,0.26458334,-158.38137,-258.66652)" />
    <linearGradient
       inkscape:collect="always"
       id="linearGradient4231">
      <stop
         style="stop-color:#d5d5db;stop-opacity:0"
         offset="0"
         id="stop4227" />
      <stop
         style="stop-color:#42424d;stop-opacity:0.54901963"
         offset="1"
         id="stop4229" />
    </linearGradient>
    <linearGradient
       inkscape:collect="always"
       xlink:href="#linearGradient4452"
       id="linearGradient4503"
       gradientUnits="userSpaceOnUse"
       x1="614"
       y1="998"
       x2="622"
       y2="1010"
       gradientTransform="matrix(0.26458334,0,0,0.26458334,-151.34166,-263.78959)" />
    <linearGradient
       inkscape:collect="always"
       xlink:href="#linearGradient4231"
       id="linearGradient4505"
       gradientUnits="userSpaceOnUse"
       gradientTransform="matrix(0.26458334,0,0,0.26458334,-150.97303,-258.66649)"
       x1="612.60675"
       y1="978.63715"
       x2="620.60675"
       y2="990.63715" />
  </defs>
  <sodipodi:namedview
     id="base"
     pagecolor="#c4c4c4"
     bordercolor="#666666"
     borderopacity="1.0"
     inkscape:pageopacity="0"
     inkscape:pageshadow="2"
     inkscape:zoom="9.769488"
     inkscape:cx="14.320873"
     inkscape:cy="44.067013"
     inkscape:document-units="px"
     inkscape:current-layer="layer1"
     inkscape:document-rotation="0"
     showgrid="false"
     units="px"
     inkscape:window-width="2048"
     inkscape:window-height="1080"
     inkscape:window-x="0"
     inkscape:window-y="0"
     inkscape:window-maximized="1" />
  <metadata
     id="metadata838">
    <rdf:RDF>
      <cc:Work
         rdf:about="">
        <dc:format>image/svg+xml</dc:format>
        <dc:type
           rdf:resource="http://purl.org/dc/dcmitype/StillImage" />
        <dc:title />
      </cc:Work>
    </rdf:RDF>
  </metadata>
  <g
     inkscape:label="Layer 1"
     inkscape:groupmode="layer"
     id="layer1">
    <path
       id="rect848-6-3-6-7-0-9-3-9-1-6-6"
       style="color:#000000;font-style:normal;font-variant:normal;font-weight:normal;font-stretch:normal;font-size:medium;line-height:normal;font-family:sans-serif;font-variant-ligatures:normal;font-variant-position:normal;font-variant-caps:normal;font-variant-numeric:normal;font-variant-alternates:normal;font-variant-east-asian:normal;font-feature-settings:normal;font-variation-settings:normal;text-indent:0;text-align:start;text-decoration:none;text-decoration-line:none;text-decoration-style:solid;text-decoration-color:#000000;letter-spacing:normal;word-spacing:normal;text-transform:none;writing-mode:lr-tb;direction:ltr;text-orientation:mixed;dominant-baseline:auto;baseline-shift:baseline;text-anchor:start;white-space:normal;shape-padding:0;shape-margin:0;inline-size:0;clip-rule:nonzero;display:inline;overflow:visible;visibility:visible;opacity:0.25;isolation:auto;mix-blend-mode:normal;color-interpolation:sRGB;color-interpolation-filters:linearRGB;solid-color:#000000;solid-opacity:1;vector-effect:none;fill:#0c0c0c;fill-opacity:1;fill-rule:nonzero;stroke:none;stroke-width:0;stroke-linecap:round;stroke-linejoin:round;stroke-miterlimit:4;stroke-dasharray:none;stroke-dashoffset:2.1875;stroke-opacity:1;paint-order:normal;color-rendering:auto;image-rendering:auto;shape-rendering:auto;text-rendering:auto;enable-background:accumulate;stop-color:#000000"
       d="M 1.3224007,5.5562529 A 0.26460982,0.26463435 0 0 0 1.0583333,5.8203335 v 8.9966805 c 0,1.021582 0.8300879,1.851739 1.8515674,1.851739 H 14.023435 c 1.021477,0 1.851565,-0.830157 1.851565,-1.851739 V 5.8203335 A 0.26460982,0.26463435 0 0 0 15.609385,5.5562529 Z M 1.5880185,6.0860016 H 15.345836 v 8.7310124 c 0,0.737552 -0.58493,1.322519 -1.322401,1.322519 H 2.9099007 c -0.7374731,0 -1.3218822,-0.584967 -1.3218822,-1.322519 z" />
    <path
       id="rect848-6-3-6-7-0-9-2-0-4-8"
       style="color:#000000;font-style:normal;font-variant:normal;font-weight:normal;font-stretch:normal;font-size:medium;line-height:normal;font-family:sans-serif;font-variant-ligatures:normal;font-variant-position:normal;font-variant-caps:normal;font-variant-numeric:normal;font-variant-alternates:normal;font-variant-east-asian:normal;font-feature-settings:normal;font-variation-settings:normal;text-indent:0;text-align:start;text-decoration:none;text-decoration-line:none;text-decoration-style:solid;text-decoration-color:#000000;letter-spacing:normal;word-spacing:normal;text-transform:none;writing-mode:lr-tb;direction:ltr;text-orientation:mixed;dominant-baseline:auto;baseline-shift:baseline;text-anchor:start;white-space:normal;shape-padding:0;shape-margin:0;inline-size:0;clip-rule:nonzero;display:inline;overflow:visible;visibility:visible;opacity:1;isolation:auto;mix-blend-mode:normal;color-interpolation:sRGB;color-interpolation-filters:linearRGB;solid-color:#000000;solid-opacity:1;vector-effect:none;fill:#393941;fill-opacity:1;fill-rule:nonzero;stroke:none;stroke-width:1.00005;stroke-linecap:round;stroke-linejoin:round;stroke-miterlimit:4;stroke-dasharray:none;stroke-dashoffset:2.1875;stroke-opacity:1;paint-order:normal;color-rendering:auto;image-rendering:auto;shape-rendering:auto;text-rendering:auto;enable-background:accumulate;stop-color:#000000"
       d="M 1.3224007,5.1593779 A 0.26460982,0.26463435 0 0 0 1.0583333,5.4234585 v 8.9966805 c 0,1.021582 0.8300879,1.851739 1.8515674,1.851739 H 14.023435 c 1.021477,0 1.851565,-0.830157 1.851565,-1.851739 V 5.4234585 A 0.26460982,0.26463435 0 0 0 15.609385,5.1593779 Z M 1.5880185,5.6891266 H 15.345836 v 8.7310124 c 0,0.737552 -0.58493,1.322519 -1.322401,1.322519 H 2.9099007 c -0.7374731,0 -1.3218822,-0.584967 -1.3218822,-1.322519 z" />
    <path
       id="rect848-6-3-7-5-6-0-6-5-4-1-7"
       style="color:#000000;font-style:normal;font-variant:normal;font-weight:normal;font-stretch:normal;font-size:medium;line-height:normal;font-family:sans-serif;font-variant-ligatures:normal;font-variant-position:normal;font-variant-caps:normal;font-variant-numeric:normal;font-variant-alternates:normal;font-variant-east-asian:normal;font-feature-settings:normal;font-variation-settings:normal;text-indent:0;text-align:start;text-decoration:none;text-decoration-line:none;text-decoration-style:solid;text-decoration-color:#000000;letter-spacing:normal;word-spacing:normal;text-transform:none;writing-mode:lr-tb;direction:ltr;text-orientation:mixed;dominant-baseline:auto;baseline-shift:baseline;text-anchor:start;white-space:normal;shape-padding:0;shape-margin:0;inline-size:0;clip-rule:nonzero;display:inline;overflow:visible;visibility:visible;isolation:auto;mix-blend-mode:normal;color-interpolation:sRGB;color-interpolation-filters:linearRGB;solid-color:#000000;solid-opacity:1;vector-effect:none;fill:#6e162e;fill-opacity:1;fill-rule:nonzero;stroke:none;stroke-width:0.999897;stroke-linecap:round;stroke-linejoin:round;stroke-miterlimit:4;stroke-dasharray:none;stroke-dashoffset:2.1875;stroke-opacity:1;color-rendering:auto;image-rendering:auto;shape-rendering:auto;text-rendering:auto;enable-background:accumulate;stop-color:#000000"
       d="m 2.9099642,1.4552111 c -1.0215113,0 -1.8516283,0.8319559 -1.8516283,1.8531682 v 2.114603 A 0.26461898,0.26454505 0 0 0 1.3239617,5.6885446 H 15.611438 a 0.26461898,0.26454505 0 0 0 0.263559,-0.2655623 v -2.114603 c 0,-1.0212123 -0.830117,-1.8531682 -1.851631,-1.8531682 z m 0,0.5295636 H 14.023366 c 0.7375,0 1.322446,0.5863167 1.322446,1.3236046 V 5.1595102 H 1.5875211 V 3.3083793 c 0,-0.7372879 0.5849461,-1.3236046 1.3224431,-1.3236046 z" />
    <path
       id="rect848-6-3-6-4-22-2-9"
       style="fill:#fdfbfc;fill-opacity:1;stroke-width:1.19063;stroke-linecap:round;stroke-linejoin:round;stroke-dashoffset:2.1875"
       d="m 1.3229166,5.4239612 v 8.9958338 c 0,0.879475 0.708025,1.5875 1.5875,1.5875 H 14.022917 c 0.879475,0 1.5875,-0.708025 1.5875,-1.5875 V 5.4239612 Z" />
    <path
       id="rect16-6-1-5-5-9-7-6-0-1-7"
       style="display:inline;opacity:0.25;fill:#095343;fill-opacity:1;stroke:none;stroke-width:0;stroke-miterlimit:4;stroke-dasharray:none"
       d="m 11.713186,7.3963771 c -0.288653,-0.00503 -0.574815,0.1291167 -0.753565,0.384387 L 7.4953258,12.727387 5.9260846,10.857048 C 5.6055657,10.475069 5.0400056,10.425221 4.6580266,10.745711 4.276053,11.066201 4.2261711,11.631748 4.5466873,12.0137 l 2.3146095,2.757514 c 0.1348449,0.160682 0.3131053,0.259795 0.5027665,0.300011 0.01442,0.0034 0.028818,0.0056 0.04336,0.0082 0.033128,0.0053 0.066119,0.01006 0.099621,0.01164 0.04594,0.0032 0.091488,0.0026 0.1371124,-0.0026 0.2559499,-0.02223 0.5002741,-0.149516 0.6598099,-0.377349 L 12.43393,8.8127451 c 0.286006,-0.40848 0.188126,-0.966804 -0.220327,-1.252792 C 12.060425,7.4527175 11.886369,7.3989277 11.713181,7.3958585 Z" />
    <path
       id="rect848-6-3-7-5-6-0-5-5-2-3"
       style="color:#000000;font-style:normal;font-variant:normal;font-weight:normal;font-stretch:normal;font-size:medium;line-height:normal;font-family:sans-serif;font-variant-ligatures:normal;font-variant-position:normal;font-variant-caps:normal;font-variant-numeric:normal;font-variant-alternates:normal;font-variant-east-asian:normal;font-feature-settings:normal;font-variation-settings:normal;text-indent:0;text-align:start;text-decoration:none;text-decoration-line:none;text-decoration-style:solid;text-decoration-color:#000000;letter-spacing:normal;word-spacing:normal;text-transform:none;writing-mode:lr-tb;direction:ltr;text-orientation:mixed;dominant-baseline:auto;baseline-shift:baseline;text-anchor:start;white-space:normal;shape-padding:0;shape-margin:0;inline-size:0;clip-rule:nonzero;display:inline;overflow:visible;visibility:visible;opacity:0.2;isolation:auto;mix-blend-mode:normal;color-interpolation:sRGB;color-interpolation-filters:linearRGB;solid-color:#000000;solid-opacity:1;vector-effect:none;fill:#1c1650;fill-opacity:1;fill-rule:nonzero;stroke:none;stroke-width:0.999897;stroke-linecap:round;stroke-linejoin:round;stroke-miterlimit:4;stroke-dasharray:none;stroke-dashoffset:2.1875;stroke-opacity:1;color-rendering:auto;image-rendering:auto;shape-rendering:auto;text-rendering:auto;enable-background:accumulate;stop-color:#000000"
       d="m 2.9099642,1.7197945 c -1.0215113,0 -1.8516283,0.8319558 -1.8516283,1.8531681 v 2.114603 A 0.26461898,0.26454505 0 0 0 1.3239617,5.9531279 H 15.611438 a 0.26461898,0.26454505 0 0 0 0.263559,-0.2655623 v -2.114603 c 0,-1.0212123 -0.830117,-1.8531681 -1.851631,-1.8531681 z m 0,0.5295635 H 14.023366 c 0.7375,0 1.322446,0.5863167 1.322446,1.3236046 V 5.4240935 H 1.5875211 V 3.5729626 c 0,-0.7372879 0.5849461,-1.3236046 1.3224431,-1.3236046 z" />
    <path
       id="rect848-6-3-7-5-9-29-8-7"
       style="fill:#d53460;fill-opacity:1;stroke-width:1.19063;stroke-linecap:round;stroke-linejoin:round;stroke-dashoffset:2.1875"
       d="m 2.9104166,1.7197945 c -0.879475,0 -1.5875,0.708025 -1.5875,1.5875 V 5.4239612 H 15.610417 V 3.3072945 c 0,-0.879475 -0.708025,-1.5875 -1.5875,-1.5875 z" />
    <rect
       style="opacity:0.45;fill:#fdfdfa;fill-opacity:1;stroke-width:1.19063;stroke-linecap:round;stroke-linejoin:round;stroke-dashoffset:2.1875"
       id="rect915-6-5-97"
       width="2.1166668"
       height="3.1750004"
       x="3.7041667"
       y="0.7937541"
       rx="0.5291667"
       ry="0.5291667" />
    <rect
       style="opacity:0.85;fill:#551124;fill-opacity:1;stroke-width:1.19063;stroke-linecap:round;stroke-linejoin:round;stroke-dashoffset:2.1875"
       id="rect915-6-5-97-6"
       width="2.1166668"
       height="3.1750004"
       x="3.7041667"
       y="0.52917075"
       rx="0.5291667"
       ry="0.5291667" />
    <path
       id="rect848-6-3-7-5-6-8-9-4-0-8-3"
       style="fill:url(#linearGradient3912-6);fill-opacity:1;stroke-width:1.19063;stroke-linecap:round;stroke-linejoin:round;stroke-dashoffset:2.1875"
       d="m 2.9104166,1.7197945 c -0.879475,0 -1.5875,0.708025 -1.5875,1.5875 V 5.4239612 H 1.5874999 V 3.3072945 c 0,-0.7328959 0.5900209,-1.3229167 1.3229167,-1.3229167 H 14.022917 c 0.732895,0 1.322916,0.5900208 1.322916,1.3229167 v 2.1166667 h 0.264584 V 3.3072945 c 0,-0.879475 -0.708025,-1.5875 -1.5875,-1.5875 z" />
    <rect
       style="fill:#6e162e;fill-opacity:1;stroke:none;stroke-width:0.529167;stroke-linecap:round;stroke-linejoin:round;stroke-miterlimit:4;stroke-dasharray:none;stroke-dashoffset:2.1875;stroke-opacity:1;paint-order:normal"
       id="rect1239-6-2-8-2"
       width="14.2875"
       height="0.26458335"
       x="1.3229166"
       y="5.159379" />
    <path
       id="rect16-6-1-5-5-9-7-6-0-1"
       style="display:inline;fill:url(#linearGradient1267);fill-opacity:1;stroke:none;stroke-width:0;stroke-miterlimit:4;stroke-dasharray:none"
       d="m 11.713287,6.8672898 c -0.288653,-0.00503 -0.574816,0.1291167 -0.753566,0.3843867 L 7.4954263,12.1983 5.9261852,10.32796 C 5.6056663,9.9459811 5.0401062,9.8961341 4.6581272,10.216624 4.2761535,10.537114 4.2262716,11.10266 4.5467879,11.484613 l 2.3146094,2.757514 c 0.1348449,0.160681 0.3131053,0.259794 0.5027666,0.300011 0.01442,0.0034 0.028821,0.0056 0.04336,0.0082 0.033131,0.0053 0.066119,0.01005 0.099621,0.01164 0.04594,0.0032 0.09149,0.0026 0.1371124,-0.0026 0.25595,-0.02223 0.5002768,-0.149516 0.65981,-0.377349 L 12.43403,8.2836991 C 12.720037,7.8751781 12.622157,7.3168539 12.213704,7.0308658 12.060526,6.9236302 11.88647,6.8698404 11.713281,6.8667712 Z" />
    <path
       id="rect16-6-1-5-5-1-7-5-6-2-9-7"
       style="color:#000000;font-style:normal;font-variant:normal;font-weight:normal;font-stretch:normal;font-size:medium;line-height:normal;font-family:sans-serif;font-variant-ligatures:normal;font-variant-position:normal;font-variant-caps:normal;font-variant-numeric:normal;font-variant-alternates:normal;font-variant-east-asian:normal;font-feature-settings:normal;font-variation-settings:normal;text-indent:0;text-align:start;text-decoration:none;text-decoration-line:none;text-decoration-style:solid;text-decoration-color:#000000;letter-spacing:normal;word-spacing:normal;text-transform:none;writing-mode:lr-tb;direction:ltr;text-orientation:mixed;dominant-baseline:auto;baseline-shift:baseline;text-anchor:start;white-space:normal;shape-padding:0;shape-margin:0;inline-size:0;clip-rule:nonzero;display:inline;overflow:visible;visibility:visible;isolation:auto;mix-blend-mode:normal;color-interpolation:sRGB;color-interpolation-filters:linearRGB;solid-color:#000000;solid-opacity:1;vector-effect:none;fill:#0a5c4a;fill-opacity:1;fill-rule:nonzero;stroke:none;stroke-width:0.909092;stroke-linecap:round;stroke-linejoin:round;stroke-miterlimit:4;stroke-dasharray:none;stroke-dashoffset:0;stroke-opacity:1;color-rendering:auto;image-rendering:auto;shape-rendering:auto;text-rendering:auto;enable-background:accumulate;stop-color:#000000"
       d="m 11.71684,6.7470367 c -0.327359,-0.00582 -0.652177,0.147955 -0.854189,0.4363773 l -3.3758792,4.816581 -1.468755,-1.74879 C 5.6559847,9.8198811 5.0113248,9.7633401 4.5798026,10.125316 c -0.4314455,0.36195 -0.4880108,1.00502 -0.1259205,1.436397 l 2.3154296,2.756826 c 0.1527572,0.182007 0.3559599,0.295672 0.5699258,0.341021 0.018944,0.0042 0.035092,0.0066 0.046522,0.009 a 0.12029386,0.12026143 0 0 0 0.00331,0 c 0.034449,0.0056 0.07071,0.01191 0.1118261,0.01429 0.05343,0.0037 0.1054179,0 0.1545802,-0.0037 0.2889012,-0.02487 0.5669571,-0.169651 0.7475299,-0.427437 L 12.533463,8.3538361 C 12.856424,7.8926561 12.744847,7.2563336 12.28348,6.9333831 12.129077,6.8252744 11.952706,6.7807185 11.77698,6.7666162 a 0.12029386,0.12026143 0 0 0 -0.06014,-0.019315 z m -0.0052,0.2414852 c 0.149733,0.00265 0.299596,0.048313 0.4332,0.1418167 0.355653,0.2489993 0.440806,0.7289275 0.191696,1.0846065 L 8.2060805,14.112799 c -0.1385464,0.197855 -0.348742,0.307154 -0.5718122,0.326443 -0.041518,0.0037 -0.08106,0.0042 -0.1188694,0.0026 a 0.12029386,0.12026143 0 0 0 -0.00185,0 c -0.025903,-0.0026 -0.0551,-0.0058 -0.086929,-0.01085 l 0.00132,0.0026 c -0.016827,-0.0032 -0.027339,-0.0053 -0.03524,-0.0071 a 0.12029386,0.12026143 0 0 0 -0.0037,-0.0026 C 7.223604,14.38892 7.0708997,14.304066 6.953938,14.164683 L 4.6384925,11.407884 c -0.2790349,-0.332449 -0.2367572,-0.820129 0.095848,-1.099159 0.3325416,-0.27895 0.8198909,-0.234818 1.098984,0.09771 l 1.5697703,1.869493 a 0.12029386,0.12026143 0 0 0 0.190291,-0.009 L 11.058064,7.3207592 c 0.155544,-0.2220913 0.403538,-0.3360473 0.653564,-0.3316288 z" />
    <rect
       style="fill:#f3f3f9;fill-opacity:1;stroke-width:1.19063;stroke-linecap:round;stroke-linejoin:round;stroke-dashoffset:2.1875"
       id="rect915-6-5"
       width="2.1166668"
       height="3.1750004"
       x="3.7041667"
       y="0.26458335"
       rx="0.5291667"
       ry="0.5291667" />
    <path
       id="rect915-3-2-9-3-8-0-4"
       style="fill:url(#linearGradient4454);fill-opacity:1;stroke-width:1.19063;stroke-linecap:round;stroke-linejoin:round;stroke-dashoffset:2.1875"
       d="m 4.2333333,0.26458609 c -0.2931583,0 -0.5291666,0.2360083 -0.5291666,0.5291667 V 2.910393 c 0,0.2931584 0.2360083,0.5291667 0.5291666,0.5291667 h 1.0583334 c 0.2931583,0 0.5291667,-0.2360083 0.5291667,-0.5291667 V 0.79375279 c 0,-0.2931584 -0.2360084,-0.5291667 -0.5291667,-0.5291667 z m 0,0.2645833 h 1.0583334 c 0.1465792,0 0.2645833,0.1180042 0.2645833,0.2645834 V 2.910393 c 0,0.1465792 -0.1180041,0.2645834 -0.2645833,0.2645834 H 4.2333333 C 4.0867542,3.1749764 3.96875,3.0569722 3.96875,2.910393 V 0.79375279 c 0,-0.1465792 0.1180042,-0.2645834 0.2645833,-0.2645834 z" />
    <rect
       style="fill:url(#linearGradient4233);fill-opacity:1;stroke-width:1.19063;stroke-linecap:round;stroke-linejoin:round;stroke-dashoffset:2.1875"
       id="rect915-6-5-9"
       width="2.1166668"
       height="3.1750004"
       x="3.7041667"
       y="0.26458335"
       rx="0.5291667"
       ry="0.5291667" />
    <rect
       style="opacity:0.45;fill:#fdfdfa;fill-opacity:1;stroke-width:1.19063;stroke-linecap:round;stroke-linejoin:round;stroke-dashoffset:2.1875"
       id="rect915-6-5-97-0"
       width="2.1166668"
       height="3.1750004"
       x="11.1125"
       y="0.7937541"
       rx="0.5291667"
       ry="0.5291667" />
    <rect
       style="opacity:0.85;fill:#551124;fill-opacity:1;stroke-width:1.19063;stroke-linecap:round;stroke-linejoin:round;stroke-dashoffset:2.1875"
       id="rect915-6-5-97-6-9"
       width="2.1166668"
       height="3.1750004"
       x="11.1125"
       y="0.52917075"
       rx="0.5291667"
       ry="0.5291667" />
    <rect
       style="fill:#f3f3f9;fill-opacity:1;stroke-width:1.19063;stroke-linecap:round;stroke-linejoin:round;stroke-dashoffset:2.1875"
       id="rect915-6-5-2"
       width="2.1166668"
       height="3.1750004"
       x="11.1125"
       y="0.26458335"
       rx="0.5291667"
       ry="0.5291667" />
    <path
       id="rect915-3-2-9-3-8-0-4-5"
       style="fill:url(#linearGradient4503);fill-opacity:1;stroke-width:1.19063;stroke-linecap:round;stroke-linejoin:round;stroke-dashoffset:2.1875"
       d="m 11.641672,0.26458609 c -0.293159,0 -0.529167,0.2360083 -0.529167,0.5291667 V 2.910393 c 0,0.2931584 0.236008,0.5291667 0.529167,0.5291667 h 1.058333 c 0.293158,0 0.529167,-0.2360083 0.529167,-0.5291667 V 0.79375279 c 0,-0.2931584 -0.236009,-0.5291667 -0.529167,-0.5291667 z m 0,0.2645833 h 1.058333 c 0.146579,0 0.264583,0.1180042 0.264583,0.2645834 V 2.910393 c 0,0.1465792 -0.118004,0.2645834 -0.264583,0.2645834 h -1.058333 c -0.146579,0 -0.264584,-0.1180042 -0.264584,-0.2645834 V 0.79375279 c 0,-0.1465792 0.118005,-0.2645834 0.264584,-0.2645834 z" />
    <rect
       style="fill:url(#linearGradient4505);fill-opacity:1;stroke-width:1.19063;stroke-linecap:round;stroke-linejoin:round;stroke-dashoffset:2.1875"
       id="rect915-6-5-9-4"
       width="2.1166668"
       height="3.1750004"
       x="11.1125"
       y="0.26458335"
       rx="0.5291667"
       ry="0.5291667" />
  </g>
</svg>
