<?xml version="1.0" encoding="UTF-8" standalone="no"?>
<svg
   xmlns:dc="http://purl.org/dc/elements/1.1/"
   xmlns:cc="http://creativecommons.org/ns#"
   xmlns:rdf="http://www.w3.org/1999/02/22-rdf-syntax-ns#"
   xmlns:svg="http://www.w3.org/2000/svg"
   xmlns="http://www.w3.org/2000/svg"
   xmlns:sodipodi="http://sodipodi.sourceforge.net/DTD/sodipodi-0.dtd"
   xmlns:inkscape="http://www.inkscape.org/namespaces/inkscape"
   width="64"
   height="64"
   viewBox="0 0 64 64"
   version="1.1"
   id="svg6374"
   inkscape:version="1.0.2 (e86c870879, 2021-01-15)"
   sodipodi:docname="document-import-rtl.svg">
  <defs
     id="defs6368" />
  <sodipodi:namedview
     id="base"
     pagecolor="#cecece"
     bordercolor="#666666"
     borderopacity="1.0"
     inkscape:pageopacity="0"
     inkscape:pageshadow="2"
     inkscape:zoom="3.8730982"
     inkscape:cx="7.9573605"
     inkscape:cy="66.041324"
     inkscape:document-units="px"
     inkscape:current-layer="layer1"
     inkscape:document-rotation="0"
     showgrid="false"
     units="px"
     inkscape:window-width="1500"
     inkscape:window-height="970"
     inkscape:window-x="68"
     inkscape:window-y="56"
     inkscape:window-maximized="0" />
  <metadata
     id="metadata6371">
    <rdf:RDF>
      <cc:Work
         rdf:about="">
        <dc:format>image/svg+xml</dc:format>
        <dc:type
           rdf:resource="http://purl.org/dc/dcmitype/StillImage" />
        <dc:title></dc:title>
      </cc:Work>
    </rdf:RDF>
  </metadata>
  <g
     inkscape:label="Layer 1"
     inkscape:groupmode="layer"
     id="layer1">
    <path
       id="rect954-7-0-7-3-0-0-0-6-7-75"
       style="color:#000000;font-style:normal;font-variant:normal;font-weight:normal;font-stretch:normal;font-size:medium;line-height:normal;font-family:sans-serif;font-variant-ligatures:normal;font-variant-position:normal;font-variant-caps:normal;font-variant-numeric:normal;font-variant-alternates:normal;font-variant-east-asian:normal;font-feature-settings:normal;font-variation-settings:normal;text-indent:0;text-align:start;text-decoration:none;text-decoration-line:none;text-decoration-style:solid;text-decoration-color:#000000;letter-spacing:normal;word-spacing:normal;text-transform:none;writing-mode:lr-tb;direction:ltr;text-orientation:mixed;dominant-baseline:auto;baseline-shift:baseline;text-anchor:start;white-space:normal;shape-padding:0;shape-margin:0;inline-size:0;clip-rule:nonzero;display:inline;overflow:visible;visibility:visible;opacity:0.85;isolation:auto;mix-blend-mode:normal;color-interpolation:sRGB;color-interpolation-filters:linearRGB;solid-color:#000000;solid-opacity:1;vector-effect:none;fill:#245d6b;fill-opacity:1;fill-rule:nonzero;stroke:none;stroke-linecap:round;stroke-linejoin:round;stroke-miterlimit:4;stroke-dasharray:none;stroke-dashoffset:2.1875;stroke-opacity:1;color-rendering:auto;image-rendering:auto;shape-rendering:auto;text-rendering:auto;enable-background:accumulate;stop-color:#000000"
       d="M 17.5,2.5 C 15.03295,2.5 13,4.53296 13,7 v 50 c 0,2.46706 2.03295,4.5 4.5,4.5 h 38 C 57.96699,61.5 60,59.46706 60,57 V 7 C 60,4.53296 57.96699,2.5 55.5,2.5 Z m 0,3 h 38 C 56.3569,5.5 57,6.14306 57,7 v 50 c 0,0.85695 -0.6431,1.5 -1.5,1.5 h -38 C 16.64304,58.5 16,57.85695 16,57 V 7 c 0,-0.85694 0.64304,-1.5 1.5,-1.5 z" />
    <rect
       style="fill:#fcfcfc;fill-opacity:1;stroke-width:0.495;stroke-linecap:round;stroke-linejoin:round;stroke-miterlimit:4;stroke-dasharray:none;stroke-dashoffset:2.1875"
       id="rect954-7-0-7-3-0-0-5-0-3"
       width="44"
       height="56"
       x="14.500051"
       y="4.000001"
       rx="3"
       ry="3" />
    <path
       id="path1113-1-0-6-8-3-2-5-4-0-7-1-1-9-4-7"
       style="color:#000000;font-style:normal;font-variant:normal;font-weight:normal;font-stretch:normal;font-size:medium;line-height:normal;font-family:sans-serif;font-variant-ligatures:normal;font-variant-position:normal;font-variant-caps:normal;font-variant-numeric:normal;font-variant-alternates:normal;font-variant-east-asian:normal;font-feature-settings:normal;font-variation-settings:normal;text-indent:0;text-align:start;text-decoration:none;text-decoration-line:none;text-decoration-style:solid;text-decoration-color:#000000;letter-spacing:normal;word-spacing:normal;text-transform:none;writing-mode:lr-tb;direction:ltr;text-orientation:mixed;dominant-baseline:auto;baseline-shift:baseline;text-anchor:start;white-space:normal;shape-padding:0;shape-margin:0;inline-size:0;clip-rule:nonzero;display:inline;overflow:visible;visibility:visible;opacity:0.075;isolation:auto;mix-blend-mode:normal;color-interpolation:sRGB;color-interpolation-filters:linearRGB;solid-color:#000000;solid-opacity:1;vector-effect:none;fill:#0c0c0c;fill-opacity:1;fill-rule:nonzero;stroke:none;stroke-width:1.268;stroke-linecap:round;stroke-linejoin:round;stroke-miterlimit:4;stroke-dasharray:none;stroke-dashoffset:0;stroke-opacity:1;color-rendering:auto;image-rendering:auto;shape-rendering:auto;text-rendering:auto;enable-background:accumulate;stop-color:#000000"
       d="m 52,33.98851 c 0,0.60425 -0.27329,1.20928 -0.82021,1.59179 L 31.07205,49.64395 c -0.34185,0.23924 -0.75427,0.36413 -1.17532,0.35564 -1.06989,-0.0215 -1.92813,-0.90617 -1.92799,-1.94743 V 43.71583 40.35566 H 6.49565 C 5.1291,40.35566 4,39.24822 4,37.90788 v -7.83631 c 0,-1.34032 1.1291,-2.44775 2.49565,-2.44775 h 21.47309 v -3.3602 -4.33632 c 5.8e-4,-1.50824 1.84562,-2.47205 3.10331,-1.5918 L 51.17979,32.39917 C 51.72671,32.78167 52,33.38428 52,33.98851 Z m -1.89801,0 c 0,-0.0198 -0.0115,-0.0384 -0.0375,-0.0564 L 29.95673,19.87088 c -0.0773,-0.0542 -0.0675,-0.0635 -0.0675,0.0565 v 4.33633 4.30202 a 0.9603462,0.94192325 0 0 1 -0.96026,0.94181 H 6.49569 c -0.33581,0 -0.57516,0.23477 -0.57516,0.56411 v 7.83631 c 0,0.32936 0.23935,0.56412 0.57516,0.56412 h 22.43333 a 0.9603462,0.94192325 0 0 1 0.96024,0.94184 v 4.30199 4.33633 c 0,0.0545 0.0179,0.0658 0.0451,0.0663 0.006,1.2e-4 0.0142,-0.001 0.0225,-0.007 L 50.0646,34.04786 c 0.0259,-0.0181 0.0375,-0.039 0.0375,-0.0589 z" />
    <path
       id="path1113-1-0-6-8-3-2-5-4-3-4-44-4"
       style="color:#000000;font-style:normal;font-variant:normal;font-weight:normal;font-stretch:normal;font-size:medium;line-height:normal;font-family:sans-serif;font-variant-ligatures:normal;font-variant-position:normal;font-variant-caps:normal;font-variant-numeric:normal;font-variant-alternates:normal;font-variant-east-asian:normal;font-feature-settings:normal;font-variation-settings:normal;text-indent:0;text-align:start;text-decoration:none;text-decoration-line:none;text-decoration-style:solid;text-decoration-color:#000000;letter-spacing:normal;word-spacing:normal;text-transform:none;writing-mode:lr-tb;direction:ltr;text-orientation:mixed;dominant-baseline:auto;baseline-shift:baseline;text-anchor:start;white-space:normal;shape-padding:0;shape-margin:0;inline-size:0;clip-rule:nonzero;display:inline;overflow:visible;visibility:visible;isolation:auto;mix-blend-mode:normal;color-interpolation:sRGB;color-interpolation-filters:linearRGB;solid-color:#000000;solid-opacity:1;vector-effect:none;fill:#68bace;fill-opacity:1;fill-rule:nonzero;stroke:none;stroke-width:0;stroke-linecap:round;stroke-linejoin:round;stroke-miterlimit:4;stroke-dasharray:none;stroke-dashoffset:0;stroke-opacity:1;color-rendering:auto;image-rendering:auto;shape-rendering:auto;text-rendering:auto;enable-background:accumulate;stop-color:#000000"
       d="m 4.96,35.91525 c 0,0.83426 0.68507,1.50589 1.53602,1.50589 h 22.42565 v 4.29692 4.33518 a 1.007189,1.0054581 0 0 0 0.98701,1.00539 1.007189,1.0054581 0 0 0 0.5982,-0.1818 L 50.61055,32.82305 a 1.007189,1.0054581 0 0 0 0,-1.64719 L 30.50688,17.12324 a 1.007189,1.0054581 0 0 0 -1.58521,0.823 v 4.33446 4.29823 H 6.49603 c -0.85095,0 -1.53602,0.67163 -1.53602,1.50589 z" />
    <path
       id="path1113-1-0-6-8-3-2-5-4-0-7-1-7-4-1"
       style="color:#000000;font-style:normal;font-variant:normal;font-weight:normal;font-stretch:normal;font-size:medium;line-height:normal;font-family:sans-serif;font-variant-ligatures:normal;font-variant-position:normal;font-variant-caps:normal;font-variant-numeric:normal;font-variant-alternates:normal;font-variant-east-asian:normal;font-feature-settings:normal;font-variation-settings:normal;text-indent:0;text-align:start;text-decoration:none;text-decoration-line:none;text-decoration-style:solid;text-decoration-color:#000000;letter-spacing:normal;word-spacing:normal;text-transform:none;writing-mode:lr-tb;direction:ltr;text-orientation:mixed;dominant-baseline:auto;baseline-shift:baseline;text-anchor:start;white-space:normal;shape-padding:0;shape-margin:0;inline-size:0;clip-rule:nonzero;display:inline;overflow:visible;visibility:visible;opacity:0.95;isolation:auto;mix-blend-mode:normal;color-interpolation:sRGB;color-interpolation-filters:linearRGB;solid-color:#000000;solid-opacity:1;vector-effect:none;fill:#245d6b;fill-opacity:1;fill-rule:nonzero;stroke:none;stroke-width:1.268;stroke-linecap:round;stroke-linejoin:round;stroke-miterlimit:4;stroke-dasharray:none;stroke-dashoffset:0;stroke-opacity:1;color-rendering:auto;image-rendering:auto;shape-rendering:auto;text-rendering:auto;enable-background:accumulate;stop-color:#000000"
       d="m 52,31.98851 c 0,0.60425 -0.27329,1.20928 -0.82021,1.59179 L 31.07205,47.64395 c -0.34185,0.23924 -0.75427,0.36413 -1.17532,0.35564 -1.06989,-0.0215 -1.92813,-0.90617 -1.92799,-1.94743 V 41.71583 38.35566 H 6.49565 C 5.1291,38.35566 4,37.24822 4,35.90788 v -7.83631 c 0,-1.34032 1.1291,-2.44775 2.49565,-2.44775 h 21.47309 v -3.3602 -4.33632 c 5.8e-4,-1.50824 1.84562,-2.47205 3.10331,-1.5918 L 51.17979,30.39917 C 51.72671,30.78167 52,31.38428 52,31.98851 Z m -1.89801,0 c 0,-0.0198 -0.0115,-0.0384 -0.0375,-0.0564 L 29.95673,17.87088 c -0.0773,-0.0542 -0.0675,-0.0635 -0.0675,0.0565 v 4.33633 4.30202 a 0.9603462,0.94192325 0 0 1 -0.96026,0.94181 H 6.49569 c -0.33581,0 -0.57516,0.23477 -0.57516,0.56411 v 7.83631 c 0,0.32936 0.23935,0.56412 0.57516,0.56412 h 22.43333 a 0.9603462,0.94192325 0 0 1 0.96024,0.94184 v 4.30199 4.33633 c 0,0.0545 0.0179,0.0658 0.0451,0.0663 0.006,1.2e-4 0.0142,-0.001 0.0225,-0.007 L 50.0646,32.04786 c 0.0259,-0.0181 0.0375,-0.039 0.0375,-0.0589 z" />
  </g>
</svg>
