<?xml version="1.0" encoding="UTF-8" standalone="no"?>
<svg
   xmlns:dc="http://purl.org/dc/elements/1.1/"
   xmlns:cc="http://creativecommons.org/ns#"
   xmlns:rdf="http://www.w3.org/1999/02/22-rdf-syntax-ns#"
   xmlns:svg="http://www.w3.org/2000/svg"
   xmlns="http://www.w3.org/2000/svg"
   xmlns:sodipodi="http://sodipodi.sourceforge.net/DTD/sodipodi-0.dtd"
   xmlns:inkscape="http://www.inkscape.org/namespaces/inkscape"
   width="64"
   height="64"
   viewBox="0 0 64 64"
   version="1.1"
   id="svg6374"
   inkscape:version="1.0.2 (e86c870879, 2021-01-15)"
   sodipodi:docname="edit-redo.svg">
  <defs
     id="defs6368" />
  <sodipodi:namedview
     id="base"
     pagecolor="#cecece"
     bordercolor="#666666"
     borderopacity="1.0"
     inkscape:pageopacity="0"
     inkscape:pageshadow="2"
     inkscape:zoom="6.8818909"
     inkscape:cx="20.896034"
     inkscape:cy="43.578666"
     inkscape:document-units="px"
     inkscape:current-layer="layer1"
     inkscape:document-rotation="0"
     showgrid="false"
     units="px"
     inkscape:window-width="1500"
     inkscape:window-height="970"
     inkscape:window-x="68"
     inkscape:window-y="56"
     inkscape:window-maximized="0" />
  <metadata
     id="metadata6371">
    <rdf:RDF>
      <cc:Work
         rdf:about="">
        <dc:format>image/svg+xml</dc:format>
        <dc:type
           rdf:resource="http://purl.org/dc/dcmitype/StillImage" />
        <dc:title></dc:title>
      </cc:Work>
    </rdf:RDF>
  </metadata>
  <g
     inkscape:label="Layer 1"
     inkscape:groupmode="layer"
     id="layer1">
    <path
       id="path958-2"
       style="color:#000000;font-style:normal;font-variant:normal;font-weight:normal;font-stretch:normal;font-size:medium;line-height:normal;font-family:sans-serif;font-variant-ligatures:normal;font-variant-position:normal;font-variant-caps:normal;font-variant-numeric:normal;font-variant-alternates:normal;font-variant-east-asian:normal;font-feature-settings:normal;font-variation-settings:normal;text-indent:0;text-align:start;text-decoration:none;text-decoration-line:none;text-decoration-style:solid;text-decoration-color:#000000;letter-spacing:normal;word-spacing:normal;text-transform:none;writing-mode:lr-tb;direction:ltr;text-orientation:mixed;dominant-baseline:auto;baseline-shift:baseline;text-anchor:start;white-space:normal;shape-padding:0;shape-margin:0;inline-size:0;clip-rule:nonzero;display:inline;overflow:visible;visibility:visible;opacity:0.075;isolation:auto;mix-blend-mode:normal;color-interpolation:sRGB;color-interpolation-filters:linearRGB;solid-color:#000000;solid-opacity:1;vector-effect:none;fill:#0c0c0c;fill-opacity:1;fill-rule:nonzero;stroke:none;stroke-width:0;stroke-linecap:round;stroke-linejoin:round;stroke-miterlimit:4;stroke-dasharray:none;stroke-dashoffset:0;stroke-opacity:1;color-rendering:auto;image-rendering:auto;shape-rendering:auto;text-rendering:auto;enable-background:accumulate;stop-color:#000000"
       d="m 37.74546,7.3139315 a 1.0002167,1.0000973 0 0 1 0.10157,0.0093 z m -0.007,0 c 0.36875,0.0094 0.72705,0.127583 1.02893,0.339357 L 56.22044,19.890592 c 1.0394,0.72917 1.0394,2.341633 0,3.070802 L 38.76785,35.198695 c -1.19412,0.83776 -2.95112,-0.0773 -2.9515,-1.535158 v -3.77392 -0.6792 -2.02295 H 25.54913 a 1.0002167,1.0000973 0 0 1 -0.0464,0.002 c -6.15416,0 -11.00023,4.845533 -11.00023,10.999018 0,6.14869 4.84039,10.99145 10.98753,10.99902 a 1.0002167,1.0000973 0 0 1 0.009,0 h 10.44646 c 1.02157,0 1.8752,0.85355 1.8752,1.87501 v 7.75093 c 0,1.02146 -0.85363,1.875 -1.8752,1.875 H 25.50294 C 13.13745,60.688445 3,50.552465 3,38.188445 c 0,-12.3613 10.13381,-22.495523 22.49562,-22.5 h 0.007 10.31362 V 13.704558 12.964812 9.1889315 c -1.7e-4,-1.009535 0.82831,-1.854906 1.83859,-1.875 0.0267,-5.49e-4 0.0544,-6e-4 0.0811,0 a 1.0002167,1.0000973 0 0 1 10e-4,0 c 2.5e-4,8e-6 7.5e-4,-7e-6 10e-4,0 z m 0.0786,2.114748 v 3.5361315 0.739746 2.984374 a 1.0002167,1.0000973 0 0 1 -1.00011,1 h -11.31421 -0.008 c -11.26958,0.0041 -20.49442,9.230323 -20.49442,20.499514 0,11.27167 9.22872,20.49951 20.50174,20.49951 H 35.8201 v -7.5 h -10.277 a 1.0002167,1.0000973 0 0 1 -0.0459,0.002 c -7.21247,-0.003 -12.99359,-5.789389 -12.99359,-13.001469 0,-7.148668 5.68538,-12.877728 12.809,-12.98095 a 1.0002167,1.0000973 0 0 1 0.18996,-0.01855 h 11.31422 a 1.0002167,1.0000973 0 0 1 1.00011,1.000487 v 3.020995 0.6792 3.53222 L 54.92861,21.426356 Z" />
    <path
       id="rect867-2"
       style="fill:#af87cd;fill-opacity:1;stroke:none;stroke-width:1.99975;stroke-linecap:round;stroke-miterlimit:4;stroke-dasharray:none;stroke-opacity:1"
       d="m 37.68194,6.3131855 a 0.87407909,0.8755177 0 0 1 0.47986,0.158203 L 55.60919,18.709129 a 0.87407909,0.8755177 0 0 1 0,1.434077 L 38.1618,32.379484 a 0.87407909,0.8755177 0 0 1 -1.37563,-0.716795 v -3.773913 -0.678707 -3.02196 H 25.47643 v 5e-4 c -6.68211,0 -11.99608,5.315742 -11.99608,11.999465 0,6.68208 5.3114,11.99831 11.9912,12.00092 v -10e-4 h 10.44276 c 0.48463,0 0.87478,0.39025 0.87478,0.875 v 7.74997 c 0,0.48474 -0.39015,0.87499 -0.87478,0.87499 H 25.47643 c -11.81511,0 -21.49472,-9.68195 -21.49472,-21.49991 0,-11.815335 9.67536,-21.495625 21.48691,-21.499903 h 0.008 11.30973 V 11.705285 10.963589 7.1887025 a 0.87407909,0.8755177 0 0 1 0.85673,-0.875485 0.87407909,0.8755177 0 0 1 0.039,0 z" />
    <path
       id="path958"
       style="color:#000000;font-style:normal;font-variant:normal;font-weight:normal;font-stretch:normal;font-size:medium;line-height:normal;font-family:sans-serif;font-variant-ligatures:normal;font-variant-position:normal;font-variant-caps:normal;font-variant-numeric:normal;font-variant-alternates:normal;font-variant-east-asian:normal;font-feature-settings:normal;font-variation-settings:normal;text-indent:0;text-align:start;text-decoration:none;text-decoration-line:none;text-decoration-style:solid;text-decoration-color:#000000;letter-spacing:normal;word-spacing:normal;text-transform:none;writing-mode:lr-tb;direction:ltr;text-orientation:mixed;dominant-baseline:auto;baseline-shift:baseline;text-anchor:start;white-space:normal;shape-padding:0;shape-margin:0;inline-size:0;clip-rule:nonzero;display:inline;overflow:visible;visibility:visible;opacity:0.85;isolation:auto;mix-blend-mode:normal;color-interpolation:sRGB;color-interpolation-filters:linearRGB;solid-color:#000000;solid-opacity:1;vector-effect:none;fill:#4c2a65;fill-opacity:1;fill-rule:nonzero;stroke:none;stroke-width:0;stroke-linecap:round;stroke-linejoin:round;stroke-miterlimit:4;stroke-dasharray:none;stroke-dashoffset:0;stroke-opacity:1;color-rendering:auto;image-rendering:auto;shape-rendering:auto;text-rendering:auto;enable-background:accumulate;stop-color:#000000"
       d="m 37.74546,5.3134315 a 1.0002167,1.0000973 0 0 1 0.10157,0.0093 z m -0.007,0 c 0.36875,0.0094 0.72705,0.127584 1.02893,0.339356 L 56.22044,17.890091 c 1.0394,0.72917 1.0394,2.341633 0,3.070803 l -17.45259,12.2373 c -1.19412,0.83776 -2.95112,-0.0773 -2.9515,-1.535158 v -3.77392 -0.6792 -2.02295 H 25.54913 a 1.0002167,1.0000973 0 0 1 -0.0464,0.002 c -6.15416,0 -11.00023,4.845533 -11.00023,10.999018 0,6.14869 4.84039,10.99145 10.98753,10.99902 a 1.0002167,1.0000973 0 0 1 0.009,0 h 10.44646 c 1.02157,0 1.8752,0.85355 1.8752,1.87501 v 7.75093 c 0,1.02146 -0.85363,1.875 -1.8752,1.875 H 25.50294 C 13.13745,58.687944 3,48.551964 3,36.187944 c 0,-12.3613 10.13381,-22.495523 22.49562,-22.5 h 0.007 10.31362 V 11.704057 10.964311 7.1884315 c -1.7e-4,-1.009535 0.82831,-1.854907 1.83859,-1.875 0.0267,-5.5e-4 0.0544,-6e-4 0.0811,0 a 1.0002167,1.0000973 0 0 1 10e-4,0 c 2.5e-4,9e-6 7.5e-4,-8e-6 10e-4,0 z m 0.0786,2.114746 v 3.5361335 0.739746 2.984374 a 1.0002167,1.0000973 0 0 1 -1.00011,1 h -11.31421 -0.008 c -11.26958,0.0041 -20.49442,9.230323 -20.49442,20.499513 0,11.27167 9.22872,20.49951 20.50174,20.49951 H 35.8201 v -7.5 h -10.277 a 1.0002167,1.0000973 0 0 1 -0.0459,0.002 c -7.21247,-0.003 -12.99359,-5.78939 -12.99359,-13.00147 0,-7.148668 5.68538,-12.877728 12.809,-12.98095 a 1.0002167,1.0000973 0 0 1 0.18996,-0.01855 h 11.31422 a 1.0002167,1.0000973 0 0 1 1.00011,1.000487 v 3.020995 0.6792 3.53222 L 54.92861,19.425854 Z" />
  </g>
</svg>
