<?xml version="1.0" encoding="UTF-8" standalone="no"?>
<svg
   xmlns:dc="http://purl.org/dc/elements/1.1/"
   xmlns:cc="http://creativecommons.org/ns#"
   xmlns:rdf="http://www.w3.org/1999/02/22-rdf-syntax-ns#"
   xmlns:svg="http://www.w3.org/2000/svg"
   xmlns="http://www.w3.org/2000/svg"
   xmlns:xlink="http://www.w3.org/1999/xlink"
   xmlns:sodipodi="http://sodipodi.sourceforge.net/DTD/sodipodi-0.dtd"
   xmlns:inkscape="http://www.inkscape.org/namespaces/inkscape"
   width="64"
   height="64"
   viewBox="0 0 16.933333 16.933334"
   version="1.1"
   id="svg841"
   inkscape:version="1.0.2 (e86c870879, 2021-01-15)"
   sodipodi:docname="new-24h-appointment.svg">
  <defs
     id="defs835">
    <linearGradient
       inkscape:collect="always"
       xlink:href="#linearGradient1338-8"
       id="linearGradient4647-6"
       gradientUnits="userSpaceOnUse"
       gradientTransform="translate(-5.6250001e-8,0.39687504)"
       x1="8.2020836"
       y1="1.3229167"
       x2="8.2029152"
       y2="5.0272117" />
    <linearGradient
       inkscape:collect="always"
       id="linearGradient1338-8">
      <stop
         style="stop-color:#fdfdfa;stop-opacity:0.44999999"
         offset="0"
         id="stop1334-9" />
      <stop
         style="stop-color:#fdfdfa;stop-opacity:0;"
         offset="1"
         id="stop1336-0" />
    </linearGradient>
    <linearGradient
       inkscape:collect="always"
       xlink:href="#linearGradient4452"
       id="linearGradient4649-8"
       gradientUnits="userSpaceOnUse"
       x1="614"
       y1="998"
       x2="622"
       y2="1010"
       gradientTransform="matrix(0.26458334,0,0,0.26458334,-158.75,-263.78959)" />
    <linearGradient
       inkscape:collect="always"
       id="linearGradient4452">
      <stop
         style="stop-color:#333347;stop-opacity:0.85000002"
         offset="0"
         id="stop4448" />
      <stop
         style="stop-color:#333347;stop-opacity:0.75"
         offset="1"
         id="stop4450" />
    </linearGradient>
    <linearGradient
       inkscape:collect="always"
       xlink:href="#linearGradient4231"
       id="linearGradient4651-8"
       gradientUnits="userSpaceOnUse"
       gradientTransform="matrix(0.26458334,0,0,0.26458334,-158.38137,-258.66652)"
       x1="612.60675"
       y1="978.63715"
       x2="620.60675"
       y2="990.63715" />
    <linearGradient
       inkscape:collect="always"
       id="linearGradient4231">
      <stop
         style="stop-color:#d5d5db;stop-opacity:0"
         offset="0"
         id="stop4227" />
      <stop
         style="stop-color:#42424d;stop-opacity:0.54901963"
         offset="1"
         id="stop4229" />
    </linearGradient>
    <linearGradient
       inkscape:collect="always"
       xlink:href="#linearGradient4452"
       id="linearGradient4653-2"
       gradientUnits="userSpaceOnUse"
       gradientTransform="matrix(0.26458334,0,0,0.26458334,-151.34166,-263.78959)"
       x1="614"
       y1="998"
       x2="622"
       y2="1010" />
    <linearGradient
       inkscape:collect="always"
       xlink:href="#linearGradient4231"
       id="linearGradient4655-4"
       gradientUnits="userSpaceOnUse"
       gradientTransform="matrix(0.26458334,0,0,0.26458334,-150.97303,-258.66649)"
       x1="612.60675"
       y1="978.63715"
       x2="620.60675"
       y2="990.63715" />
  </defs>
  <sodipodi:namedview
     id="base"
     pagecolor="#c4c4c4"
     bordercolor="#666666"
     borderopacity="1.0"
     inkscape:pageopacity="0"
     inkscape:pageshadow="2"
     inkscape:zoom="23.047299"
     inkscape:cx="35.009817"
     inkscape:cy="30.785464"
     inkscape:document-units="px"
     inkscape:current-layer="layer1"
     inkscape:document-rotation="0"
     showgrid="false"
     units="px"
     inkscape:window-width="2048"
     inkscape:window-height="1080"
     inkscape:window-x="0"
     inkscape:window-y="0"
     inkscape:window-maximized="1" />
  <metadata
     id="metadata838">
    <rdf:RDF>
      <cc:Work
         rdf:about="">
        <dc:format>image/svg+xml</dc:format>
        <dc:type
           rdf:resource="http://purl.org/dc/dcmitype/StillImage" />
        <dc:title />
      </cc:Work>
    </rdf:RDF>
  </metadata>
  <g
     inkscape:label="Layer 1"
     inkscape:groupmode="layer"
     id="layer1">
    <path
       id="rect848-6-3-6-7-0-9-3-9-1-6-6-4-0"
       style="color:#000000;font-style:normal;font-variant:normal;font-weight:normal;font-stretch:normal;font-size:medium;line-height:normal;font-family:sans-serif;font-variant-ligatures:normal;font-variant-position:normal;font-variant-caps:normal;font-variant-numeric:normal;font-variant-alternates:normal;font-variant-east-asian:normal;font-feature-settings:normal;font-variation-settings:normal;text-indent:0;text-align:start;text-decoration:none;text-decoration-line:none;text-decoration-style:solid;text-decoration-color:#000000;letter-spacing:normal;word-spacing:normal;text-transform:none;writing-mode:lr-tb;direction:ltr;text-orientation:mixed;dominant-baseline:auto;baseline-shift:baseline;text-anchor:start;white-space:normal;shape-padding:0;shape-margin:0;inline-size:0;clip-rule:nonzero;display:inline;overflow:visible;visibility:visible;opacity:0.25;isolation:auto;mix-blend-mode:normal;color-interpolation:sRGB;color-interpolation-filters:linearRGB;solid-color:#000000;solid-opacity:1;vector-effect:none;fill:#0c0c0c;fill-opacity:1;fill-rule:nonzero;stroke:none;stroke-width:0;stroke-linecap:round;stroke-linejoin:round;stroke-miterlimit:4;stroke-dasharray:none;stroke-dashoffset:2.1875;stroke-opacity:1;paint-order:normal;color-rendering:auto;image-rendering:auto;shape-rendering:auto;text-rendering:auto;enable-background:accumulate;stop-color:#000000"
       d="M 1.3224007,5.5562501 A 0.26460982,0.26463435 0 0 0 1.0583333,5.8203308 v 8.9966802 c 0,1.021583 0.8300879,1.851739 1.8515674,1.851739 H 14.023436 c 1.021477,0 1.851564,-0.830156 1.851564,-1.851739 V 5.8203308 A 0.26460982,0.26463435 0 0 0 15.609385,5.5562501 Z M 1.5880185,6.0859989 H 15.345836 v 8.7310121 c 0,0.737553 -0.58493,1.32252 -1.3224,1.32252 H 2.9099007 c -0.7374731,0 -1.3218822,-0.584967 -1.3218822,-1.32252 z" />
    <path
       id="rect848-6-3-6-7-0-9-2-0-4-8-7-6"
       style="color:#000000;font-style:normal;font-variant:normal;font-weight:normal;font-stretch:normal;font-size:medium;line-height:normal;font-family:sans-serif;font-variant-ligatures:normal;font-variant-position:normal;font-variant-caps:normal;font-variant-numeric:normal;font-variant-alternates:normal;font-variant-east-asian:normal;font-feature-settings:normal;font-variation-settings:normal;text-indent:0;text-align:start;text-decoration:none;text-decoration-line:none;text-decoration-style:solid;text-decoration-color:#000000;letter-spacing:normal;word-spacing:normal;text-transform:none;writing-mode:lr-tb;direction:ltr;text-orientation:mixed;dominant-baseline:auto;baseline-shift:baseline;text-anchor:start;white-space:normal;shape-padding:0;shape-margin:0;inline-size:0;clip-rule:nonzero;display:inline;overflow:visible;visibility:visible;opacity:1;isolation:auto;mix-blend-mode:normal;color-interpolation:sRGB;color-interpolation-filters:linearRGB;solid-color:#000000;solid-opacity:1;vector-effect:none;fill:#393941;fill-opacity:1;fill-rule:nonzero;stroke:none;stroke-width:1.00005;stroke-linecap:round;stroke-linejoin:round;stroke-miterlimit:4;stroke-dasharray:none;stroke-dashoffset:2.1875;stroke-opacity:1;paint-order:normal;color-rendering:auto;image-rendering:auto;shape-rendering:auto;text-rendering:auto;enable-background:accumulate;stop-color:#000000"
       d="M 1.3224007,5.1593751 A 0.26460982,0.26463435 0 0 0 1.0583333,5.4234558 v 8.9966802 c 0,1.021583 0.8300879,1.851739 1.8515674,1.851739 H 14.023436 c 1.021477,0 1.851564,-0.830156 1.851564,-1.851739 V 5.4234558 A 0.26460982,0.26463435 0 0 0 15.609385,5.1593751 Z M 1.5880185,5.6891239 H 15.345836 v 8.7310121 c 0,0.737553 -0.58493,1.32252 -1.3224,1.32252 H 2.9099007 c -0.7374731,0 -1.3218822,-0.584967 -1.3218822,-1.32252 z" />
    <path
       id="rect848-6-3-7-5-6-0-6-5-4-1-7-75-2"
       style="color:#000000;font-style:normal;font-variant:normal;font-weight:normal;font-stretch:normal;font-size:medium;line-height:normal;font-family:sans-serif;font-variant-ligatures:normal;font-variant-position:normal;font-variant-caps:normal;font-variant-numeric:normal;font-variant-alternates:normal;font-variant-east-asian:normal;font-feature-settings:normal;font-variation-settings:normal;text-indent:0;text-align:start;text-decoration:none;text-decoration-line:none;text-decoration-style:solid;text-decoration-color:#000000;letter-spacing:normal;word-spacing:normal;text-transform:none;writing-mode:lr-tb;direction:ltr;text-orientation:mixed;dominant-baseline:auto;baseline-shift:baseline;text-anchor:start;white-space:normal;shape-padding:0;shape-margin:0;inline-size:0;clip-rule:nonzero;display:inline;overflow:visible;visibility:visible;isolation:auto;mix-blend-mode:normal;color-interpolation:sRGB;color-interpolation-filters:linearRGB;solid-color:#000000;solid-opacity:1;vector-effect:none;fill:#6e162e;fill-opacity:1;fill-rule:nonzero;stroke:none;stroke-width:0.999897;stroke-linecap:round;stroke-linejoin:round;stroke-miterlimit:4;stroke-dasharray:none;stroke-dashoffset:2.1875;stroke-opacity:1;color-rendering:auto;image-rendering:auto;shape-rendering:auto;text-rendering:auto;enable-background:accumulate;stop-color:#000000"
       d="m 2.9099642,1.4552084 c -1.0215113,0 -1.8516283,0.8319558 -1.8516283,1.8531681 v 2.114603 A 0.26461898,0.26454505 0 0 0 1.3239617,5.6885418 H 15.611438 a 0.26461898,0.26454505 0 0 0 0.26356,-0.2655623 v -2.114603 c 0,-1.0212123 -0.830117,-1.8531681 -1.851631,-1.8531681 z m 0,0.5295635 H 14.023367 c 0.737499,0 1.322446,0.5863167 1.322446,1.3236046 V 5.1595074 H 1.5875211 V 3.3083765 c 0,-0.7372879 0.5849461,-1.3236046 1.3224431,-1.3236046 z" />
    <path
       id="rect848-6-3-6-4-22-2-9-4-9"
       style="fill:#fdfcfb;fill-opacity:1;stroke-width:1.19063;stroke-linecap:round;stroke-linejoin:round;stroke-dashoffset:2.1875"
       d="m 1.3229166,5.4239585 v 8.9958335 c 0,0.879475 0.708025,1.5875 1.5875,1.5875 H 14.022917 c 0.879475,0 1.5875,-0.708025 1.5875,-1.5875 V 5.4239585 Z" />
    <path
       style="fill:#43434c;fill-opacity:1;stroke-width:0.621234;stroke-linecap:round;stroke-linejoin:round;stroke-dashoffset:2.1875"
       d="m 5.2566597,6.9456831 c -1.2486746,0 -2.2866801,0.8246269 -2.5136793,2.0881449 A 0.28880923,0.28880184 0 0 0 2.9589545,9.365456 L 3.6833334,9.543415 A 0.28880923,0.28880184 0 0 0 4.0376343,9.304391 C 4.1497885,8.540353 4.6546955,8.1958129 5.2566597,8.1958129 c 0.6944625,0 1.2040579,0.4503741 1.2040579,1.2173741 0,0.375127 -0.1192133,0.648415 -0.3615822,0.91485 l -0.3231568,0.291201 a 0.28880923,0.28880184 0 0 0 -0.0263,0.02328 l -2.915708,2.624405 a 0.28880923,0.28880184 0 0 0 -0.095451,0.214789 v 0.715036 a 0.28880923,0.28880184 0 0 0 0.2887821,0.28919 h 4.4400942 a 0.28880923,0.28880184 0 0 0 0.28878,-0.28919 v -0.715036 a 0.28880923,0.28880184 0 0 0 -0.28878,-0.288819 H 5.3755608 4.8437033 l 2.1152935,-1.903678 a 0.28880923,0.28880184 0 0 0 0.010901,-0.01005 l 0.035997,-0.03641 -0.00889,0.0085 c 0.01905,-0.01773 0.00741,-0.0071 0.010504,-0.01111 0.4848601,-0.477256 0.7486441,-1.075293 0.7486441,-1.792896 0,-1.3976088 -1.02688,-2.469092 -2.4457346,-2.4966087 a 0.28880923,0.28880184 0 0 0 -0.05379,-0.00529 z"
       id="path3761-1-6-1" />
    <path
       id="rect848-6-3-7-5-6-0-5-5-2-3-1-9"
       style="color:#000000;font-style:normal;font-variant:normal;font-weight:normal;font-stretch:normal;font-size:medium;line-height:normal;font-family:sans-serif;font-variant-ligatures:normal;font-variant-position:normal;font-variant-caps:normal;font-variant-numeric:normal;font-variant-alternates:normal;font-variant-east-asian:normal;font-feature-settings:normal;font-variation-settings:normal;text-indent:0;text-align:start;text-decoration:none;text-decoration-line:none;text-decoration-style:solid;text-decoration-color:#000000;letter-spacing:normal;word-spacing:normal;text-transform:none;writing-mode:lr-tb;direction:ltr;text-orientation:mixed;dominant-baseline:auto;baseline-shift:baseline;text-anchor:start;white-space:normal;shape-padding:0;shape-margin:0;inline-size:0;clip-rule:nonzero;display:inline;overflow:visible;visibility:visible;opacity:0.2;isolation:auto;mix-blend-mode:normal;color-interpolation:sRGB;color-interpolation-filters:linearRGB;solid-color:#000000;solid-opacity:1;vector-effect:none;fill:#1c1650;fill-opacity:1;fill-rule:nonzero;stroke:none;stroke-width:0.999897;stroke-linecap:round;stroke-linejoin:round;stroke-miterlimit:4;stroke-dasharray:none;stroke-dashoffset:2.1875;stroke-opacity:1;color-rendering:auto;image-rendering:auto;shape-rendering:auto;text-rendering:auto;enable-background:accumulate;stop-color:#000000"
       d="m 2.9099642,1.7197917 c -1.0215113,0 -1.8516283,0.8319559 -1.8516283,1.8531682 v 2.114603 A 0.26461898,0.26454505 0 0 0 1.3239617,5.9531251 H 15.611438 a 0.26461898,0.26454505 0 0 0 0.26356,-0.2655622 v -2.114603 c 0,-1.0212123 -0.830117,-1.8531682 -1.851631,-1.8531682 z m 0,0.5295636 H 14.023367 c 0.737499,0 1.322446,0.5863166 1.322446,1.3236046 V 5.4240908 H 1.5875211 V 3.5729599 c 0,-0.737288 0.5849461,-1.3236046 1.3224431,-1.3236046 z" />
    <path
       id="path3718-6-3-7"
       style="fill:#43434c;fill-opacity:1;stroke-width:0.621242;stroke-linecap:round;stroke-linejoin:round;stroke-dashoffset:2.1875"
       d="m 12.118925,6.9453127 a 0.28880893,0.28880896 0 0 0 -0.237011,0.1233487 l -1.62914,2.3268256 -1.5247911,2.17797 -0.0093,0.01296 -0.116078,0.165841 a 0.28880893,0.28880896 0 0 0 -0.05258,0.165417 v 0.535887 a 0.28880893,0.28880896 0 0 0 0.289184,0.288767 h 0.498287 2.4922461 v 1.001024 0.453787 a 0.28880893,0.28880896 0 0 0 0.289184,0.288793 h 0.715073 a 0.28880893,0.28880896 0 0 0 0.288782,-0.288793 v -1.454811 h 0.783426 A 0.28880893,0.28880896 0 0 0 14.19499,12.453562 V 11.738901 A 0.28880893,0.28880896 0 0 0 13.906193,11.450109 H 13.122767 V 7.2341054 A 0.28880893,0.28880896 0 0 0 12.833985,6.9453127 Z M 11.829738,9.397101 v 2.053034 h -1.437023 z" />
    <path
       id="rect848-6-3-7-5-9-29-8-7-28-8"
       style="fill:#d53460;fill-opacity:1;stroke-width:1.19063;stroke-linecap:round;stroke-linejoin:round;stroke-dashoffset:2.1875"
       d="m 2.9104166,1.7197917 c -0.879475,0 -1.5875,0.708025 -1.5875,1.5875 V 5.4239585 H 15.610417 V 3.3072917 c 0,-0.879475 -0.708025,-1.5875 -1.5875,-1.5875 z" />
    <rect
       style="opacity:0.45;fill:#fdfdfa;fill-opacity:1;stroke-width:1.19063;stroke-linecap:round;stroke-linejoin:round;stroke-dashoffset:2.1875"
       id="rect915-6-5-97-9-1"
       width="2.1166668"
       height="3.1750002"
       x="3.7041667"
       y="0.79374999"
       rx="0.5291667"
       ry="0.5291667" />
    <rect
       style="opacity:0.85;fill:#551124;fill-opacity:1;stroke-width:1.19063;stroke-linecap:round;stroke-linejoin:round;stroke-dashoffset:2.1875"
       id="rect915-6-5-97-6-3-0"
       width="2.1166668"
       height="3.1750002"
       x="3.7041667"
       y="0.52916664"
       rx="0.5291667"
       ry="0.5291667" />
    <path
       id="rect848-6-3-7-5-6-8-9-4-0-8-3-6-3"
       style="fill:url(#linearGradient4647-6);fill-opacity:1;stroke-width:1.19063;stroke-linecap:round;stroke-linejoin:round;stroke-dashoffset:2.1875"
       d="m 2.9104166,1.7197917 c -0.879475,0 -1.5875,0.708025 -1.5875,1.5875 V 5.4239585 H 1.5874999 V 3.3072917 c 0,-0.7328958 0.5900209,-1.3229166 1.3229167,-1.3229166 H 14.022917 c 0.732896,0 1.322917,0.5900208 1.322917,1.3229166 v 2.1166668 h 0.264583 V 3.3072917 c 0,-0.879475 -0.708025,-1.5875 -1.5875,-1.5875 z" />
    <rect
       style="fill:#6e162e;fill-opacity:1;stroke:none;stroke-width:0.529167;stroke-linecap:round;stroke-linejoin:round;stroke-miterlimit:4;stroke-dasharray:none;stroke-dashoffset:2.1875;stroke-opacity:1;paint-order:normal"
       id="rect1239-6-2-8-2-8-4"
       width="14.2875"
       height="0.26458335"
       x="1.3229169"
       y="5.1593752" />
    <rect
       style="fill:#f3f3f9;fill-opacity:1;stroke-width:1.19063;stroke-linecap:round;stroke-linejoin:round;stroke-dashoffset:2.1875"
       id="rect915-6-5-1-0"
       width="2.1166668"
       height="3.1750002"
       x="3.7041667"
       y="0.26458341"
       rx="0.5291667"
       ry="0.5291667" />
    <path
       id="rect915-3-2-9-3-8-0-4-0-3"
       style="fill:url(#linearGradient4649-8);fill-opacity:1;stroke-width:1.19063;stroke-linecap:round;stroke-linejoin:round;stroke-dashoffset:2.1875"
       d="m 4.2333333,0.26458334 c -0.2931583,0 -0.5291666,0.2360084 -0.5291666,0.5291667 V 2.9103903 c 0,0.2931583 0.2360083,0.5291667 0.5291666,0.5291667 h 1.0583334 c 0.2931583,0 0.5291667,-0.2360084 0.5291667,-0.5291667 V 0.79375004 c 0,-0.2931583 -0.2360084,-0.5291667 -0.5291667,-0.5291667 z m 0,0.2645834 h 1.0583334 c 0.1465792,0 0.2645833,0.1180041 0.2645833,0.2645833 V 2.9103903 c 0,0.1465792 -0.1180041,0.2645833 -0.2645833,0.2645833 H 4.2333333 C 4.0867542,3.1749736 3.96875,3.0569695 3.96875,2.9103903 V 0.79375004 c 0,-0.1465792 0.1180042,-0.2645833 0.2645833,-0.2645833 z" />
    <rect
       style="fill:url(#linearGradient4651-8);fill-opacity:1;stroke-width:1.19063;stroke-linecap:round;stroke-linejoin:round;stroke-dashoffset:2.1875"
       id="rect915-6-5-9-5-9"
       width="2.1166668"
       height="3.1750002"
       x="3.7041667"
       y="0.26458341"
       rx="0.5291667"
       ry="0.5291667" />
    <rect
       style="opacity:0.45;fill:#fdfdfa;fill-opacity:1;stroke-width:1.19063;stroke-linecap:round;stroke-linejoin:round;stroke-dashoffset:2.1875"
       id="rect915-6-5-97-0-1-1"
       width="2.1166668"
       height="3.1750002"
       x="11.1125"
       y="0.79374999"
       rx="0.5291667"
       ry="0.5291667" />
    <rect
       style="opacity:0.85;fill:#551124;fill-opacity:1;stroke-width:1.19063;stroke-linecap:round;stroke-linejoin:round;stroke-dashoffset:2.1875"
       id="rect915-6-5-97-6-9-1-9"
       width="2.1166668"
       height="3.1750002"
       x="11.1125"
       y="0.52916664"
       rx="0.5291667"
       ry="0.5291667" />
    <rect
       style="fill:#f3f3f9;fill-opacity:1;stroke-width:1.19063;stroke-linecap:round;stroke-linejoin:round;stroke-dashoffset:2.1875"
       id="rect915-6-5-2-0-6"
       width="2.1166668"
       height="3.1750002"
       x="11.1125"
       y="0.26458341"
       rx="0.5291667"
       ry="0.5291667" />
    <path
       id="rect915-3-2-9-3-8-0-4-5-8-9"
       style="fill:url(#linearGradient4653-2);fill-opacity:1;stroke-width:1.19063;stroke-linecap:round;stroke-linejoin:round;stroke-dashoffset:2.1875"
       d="m 11.641672,0.26458334 c -0.293158,0 -0.529166,0.2360084 -0.529166,0.5291667 V 2.9103903 c 0,0.2931583 0.236008,0.5291667 0.529166,0.5291667 h 1.058334 c 0.293158,0 0.529166,-0.2360084 0.529166,-0.5291667 V 0.79375004 c 0,-0.2931583 -0.236008,-0.5291667 -0.529166,-0.5291667 z m 0,0.2645834 h 1.058334 c 0.146579,0 0.264583,0.1180041 0.264583,0.2645833 V 2.9103903 c 0,0.1465792 -0.118004,0.2645833 -0.264583,0.2645833 h -1.058334 c -0.146579,0 -0.264583,-0.1180041 -0.264583,-0.2645833 V 0.79375004 c 0,-0.1465792 0.118004,-0.2645833 0.264583,-0.2645833 z" />
    <rect
       style="fill:url(#linearGradient4655-4);fill-opacity:1;stroke-width:1.19063;stroke-linecap:round;stroke-linejoin:round;stroke-dashoffset:2.1875"
       id="rect915-6-5-9-4-5-3"
       width="2.1166668"
       height="3.1750002"
       x="11.1125"
       y="0.26458341"
       rx="0.5291667"
       ry="0.5291667" />
  </g>
</svg>
