<?xml version="1.0" encoding="UTF-8" standalone="no"?>
<svg
   xmlns:dc="http://purl.org/dc/elements/1.1/"
   xmlns:cc="http://creativecommons.org/ns#"
   xmlns:rdf="http://www.w3.org/1999/02/22-rdf-syntax-ns#"
   xmlns:svg="http://www.w3.org/2000/svg"
   xmlns="http://www.w3.org/2000/svg"
   xmlns:xlink="http://www.w3.org/1999/xlink"
   xmlns:sodipodi="http://sodipodi.sourceforge.net/DTD/sodipodi-0.dtd"
   xmlns:inkscape="http://www.inkscape.org/namespaces/inkscape"
   width="64"
   height="64"
   viewBox="0 0 16.933333 16.933334"
   version="1.1"
   id="svg841"
   inkscape:version="1.0.2 (e86c870879, 2021-01-15)"
   sodipodi:docname="notebook.new.svg">
  <defs
     id="defs835">
    <linearGradient
       inkscape:collect="always"
       xlink:href="#linearGradient877"
       id="linearGradient1474"
       gradientUnits="userSpaceOnUse"
       x1="847.93756"
       y1="533.50037"
       x2="848.06256"
       y2="561.50037"
       gradientTransform="matrix(0.26458334,0,0,0.26458334,-211.79897,-132.29167)" />
    <linearGradient
       inkscape:collect="always"
       id="linearGradient877">
      <stop
         style="stop-color:#17cea7;stop-opacity:1"
         offset="0"
         id="stop873" />
      <stop
         style="stop-color:#13ae8d;stop-opacity:1"
         offset="1"
         id="stop875" />
    </linearGradient>
  </defs>
  <sodipodi:namedview
     id="base"
     pagecolor="#c4c4c4"
     bordercolor="#666666"
     borderopacity="1.0"
     inkscape:pageopacity="0"
     inkscape:pageshadow="2"
     inkscape:zoom="10.743029"
     inkscape:cx="26.661281"
     inkscape:cy="47.816269"
     inkscape:document-units="px"
     inkscape:current-layer="layer1"
     inkscape:document-rotation="0"
     showgrid="false"
     units="px"
     inkscape:window-width="2048"
     inkscape:window-height="1080"
     inkscape:window-x="0"
     inkscape:window-y="0"
     inkscape:window-maximized="1" />
  <metadata
     id="metadata838">
    <rdf:RDF>
      <cc:Work
         rdf:about="">
        <dc:format>image/svg+xml</dc:format>
        <dc:type
           rdf:resource="http://purl.org/dc/dcmitype/StillImage" />
        <dc:title />
      </cc:Work>
    </rdf:RDF>
  </metadata>
  <g
     inkscape:label="Layer 1"
     inkscape:groupmode="layer"
     id="layer1">
    <path
       id="rect869-36-0-1-8-7-9-9-4-3"
       style="color:#000000;font-style:normal;font-variant:normal;font-weight:normal;font-stretch:normal;font-size:medium;line-height:normal;font-family:sans-serif;font-variant-ligatures:normal;font-variant-position:normal;font-variant-caps:normal;font-variant-numeric:normal;font-variant-alternates:normal;font-variant-east-asian:normal;font-feature-settings:normal;font-variation-settings:normal;text-indent:0;text-align:start;text-decoration:none;text-decoration-line:none;text-decoration-style:solid;text-decoration-color:#000000;letter-spacing:normal;word-spacing:normal;text-transform:none;writing-mode:lr-tb;direction:ltr;text-orientation:mixed;dominant-baseline:auto;baseline-shift:baseline;text-anchor:start;white-space:normal;shape-padding:0;shape-margin:0;inline-size:0;clip-rule:nonzero;display:inline;overflow:visible;visibility:visible;opacity:0.25;isolation:auto;mix-blend-mode:normal;color-interpolation:sRGB;color-interpolation-filters:linearRGB;solid-color:#000000;solid-opacity:1;vector-effect:none;fill:#0c0c10;fill-opacity:1;fill-rule:nonzero;stroke:none;stroke-width:1.00002;stroke-linecap:round;stroke-linejoin:round;stroke-miterlimit:4;stroke-dasharray:none;stroke-dashoffset:2.1875;stroke-opacity:1;color-rendering:auto;image-rendering:auto;shape-rendering:auto;text-rendering:auto;enable-background:accumulate;stop-color:#000000"
       d="m 3.1734495,0.59532045 c -0.6527403,0 -1.1890745,0.53686875 -1.1890745,1.18962755 v 13.760321 c 0,0.65278 0.5363342,1.18963 1.1890745,1.18963 h 5.2932173 4.2322992 c 1.239059,0 2.249995,-1.00942 2.249993,-2.248509 V 2.8438291 c 0,-1.2390888 -1.010934,-2.24850865 -2.249993,-2.24850865 H 8.4666668 Z m 0,0.79325795 h 5.2932173 4.2322992 c 0.813051,0 1.455208,0.6421913 1.455208,1.4552507 V 14.48639 c 3e-6,0.813078 -0.642157,1.455259 -1.455208,1.455259 H 8.4666668 3.1734495 c -0.2267373,0 -0.3963591,-0.16963 -0.3963591,-0.39637 V 1.7849586 c 0,-0.2267506 0.1696218,-0.3963697 0.3963591,-0.3963802 z" />
    <path
       id="rect869-36-0-1-8-2-9-6"
       style="fill:#77adcf;fill-opacity:1;stroke-width:1.19063;stroke-linecap:round;stroke-linejoin:round;stroke-dashoffset:2.1875"
       d="m 3.175,0.59532045 c -0.4397375,0 -0.79375,0.3540178 -0.79375,0.79375795 V 15.147409 c 0,0.439741 0.3540125,0.79374 0.79375,0.79374 H 8.4666668 12.7 c 1.026055,0 1.852086,-0.826029 1.852084,-1.852081 V 2.4473985 C 14.552084,1.4213496 13.726055,0.59532045 12.7,0.59532045 H 8.4666668 Z" />
    <rect
       style="opacity:0.25;fill:#0c0c0c;fill-opacity:1;stroke:none;stroke-width:0.79375;stroke-linecap:round;stroke-linejoin:round;stroke-miterlimit:4;stroke-dasharray:none;stroke-dashoffset:2.1875;stroke-opacity:1"
       id="rect2031-7-0-5-7"
       width="0.39687505"
       height="16.139584"
       x="4.6302085"
       y="0.19845363" />
    <rect
       style="opacity:0.25;fill:#0c0c0c;fill-opacity:1;stroke:none;stroke-width:0.79375;stroke-linecap:round;stroke-linejoin:round;stroke-miterlimit:4;stroke-dasharray:none;stroke-dashoffset:2.1875;stroke-opacity:1"
       id="rect2246-3-8-2-0-5"
       width="0.39687496"
       height="8.9164562"
       x="17.165089"
       y="-3.4758224"
       rx="0.19843748"
       ry="0.19843748"
       transform="rotate(45)" />
    <rect
       style="opacity:0.25;fill:#0c0c0c;fill-opacity:1;stroke:none;stroke-width:0.79375;stroke-linecap:round;stroke-linejoin:round;stroke-miterlimit:4;stroke-dasharray:none;stroke-dashoffset:2.1875;stroke-opacity:1"
       id="rect2246-8-1-3-4-3"
       width="0.39687496"
       height="8.9164562"
       x="5.4718409"
       y="6.2529802"
       rx="0.19843748"
       ry="0.19843748"
       transform="rotate(-45)" />
    <rect
       style="fill:#428ab8;fill-opacity:1;stroke:none;stroke-width:0.79375;stroke-linecap:round;stroke-linejoin:round;stroke-miterlimit:4;stroke-dasharray:none;stroke-dashoffset:2.1875;stroke-opacity:1"
       id="rect2029-7-8-5"
       width="2.3812499"
       height="15.345834"
       x="2.3812499"
       y="0.59532863"
       rx="0.79375011"
       ry="0.79375011" />
    <rect
       style="fill:#0d1c26;fill-opacity:1;stroke:none;stroke-width:0.79375;stroke-linecap:round;stroke-linejoin:round;stroke-miterlimit:4;stroke-dasharray:none;stroke-dashoffset:2.1875;stroke-opacity:1"
       id="rect2031-5-6-7-6"
       width="0.39687505"
       height="16.139584"
       x="4.4979167"
       y="0.19845363" />
    <path
       style="fill:#428ab8;fill-opacity:1;stroke:none;stroke-width:0.793742;stroke-linecap:round;stroke-linejoin:round;stroke-miterlimit:4;stroke-dasharray:none;stroke-dashoffset:2.1875;stroke-opacity:1"
       d="m 9.1280854,0.1986201 0.1963685,-1.06e-5 h 0.3875776 l 0.7394895,1.06e-5 2.247402,-1.06e-5 c 1.239277,0 2.250007,1.0095495 2.249996,2.2489187 l 3e-6,2.2489108 -6e-6,0.9260099 6e-6,0.3968697 c -3e-6,0.1466109 -0.117986,0.2645807 -0.264586,0.2645807 h -0.264584 c -0.03829,-2.91e-5 -0.07418,-0.009 -0.106965,-0.02331 -0.04067,-0.012091 -0.07991,-0.0308 -0.112147,-0.063101 l -0.04596,-0.046 L 13.265328,5.2621578 9.886204,1.8825793 8.9958229,0.99273786 8.9503619,0.94723746 c -0.031959,-0.0319987 -0.050808,-0.0707999 -0.06305,-0.11110913 -0.01479,-0.0329988 -0.02376,-0.0692997 -0.023786,-0.10801879 l 5.3e-6,-0.26458069 C 8.8635283,0.31691792 8.9815033,0.1984375 9.1281116,0.1984375 Z"
       id="path1865-3-0-8-8-9-1-2" />
    <rect
       style="fill:#0d1c26;fill-opacity:1;stroke:none;stroke-width:0.79375;stroke-linecap:round;stroke-linejoin:round;stroke-miterlimit:4;stroke-dasharray:none;stroke-dashoffset:2.1875;stroke-opacity:1"
       id="rect2246-8-2-7-9"
       width="0.39687496"
       height="8.9164562"
       x="5.6589055"
       y="6.2528348"
       rx="0.19843748"
       ry="0.19843748"
       transform="rotate(-45)" />
    <path
       style="fill:#428ab8;fill-opacity:1;stroke:none;stroke-width:0.793742;stroke-linecap:round;stroke-linejoin:round;stroke-miterlimit:4;stroke-dasharray:none;stroke-dashoffset:2.1875;stroke-opacity:1"
       d="m 14.948882,10.51731 3e-6,0.19636 -3e-6,0.38758 -3e-6,0.739489 6e-6,2.2474 c 2e-6,1.23928 -1.009545,2.250009 -2.248914,2.250001 H 10.45106 9.5250451 9.128178 c -0.1466135,0 -0.2645833,-0.11798 -0.2645859,-0.26458 v -0.264592 c 3.7e-5,-0.0383 0.009,-0.0742 0.023283,-0.106957 0.012092,-0.0407 0.030819,-0.0799 0.063101,-0.112152 l 0.045969,-0.046 0.8893334,-0.889349 3.3795715,-3.379121 0.889846,-0.890378 0.04548,-0.0455 c 0.03197,-0.032 0.07081,-0.0508 0.111106,-0.0631 0.03302,-0.01479 0.0693,-0.02381 0.108024,-0.02381 h 0.264576 c 0.146611,0 0.265094,0.117959 0.265091,0.26457 z"
       id="path1865-3-0-8-4-2-2-1" />
    <rect
       style="fill:#0d1c26;fill-opacity:1;stroke:none;stroke-width:0.79375;stroke-linecap:round;stroke-linejoin:round;stroke-miterlimit:4;stroke-dasharray:none;stroke-dashoffset:2.1875;stroke-opacity:1"
       id="rect2246-3-89-7-2"
       width="0.39687496"
       height="8.9164562"
       x="17.352221"
       y="-3.4758101"
       rx="0.19843748"
       ry="0.19843748"
       transform="rotate(45)" />
    <path
       id="rect869-36-0-1-8-7-9-2-0-7-2-7"
       style="color:#000000;font-style:normal;font-variant:normal;font-weight:normal;font-stretch:normal;font-size:medium;line-height:normal;font-family:sans-serif;font-variant-ligatures:normal;font-variant-position:normal;font-variant-caps:normal;font-variant-numeric:normal;font-variant-alternates:normal;font-variant-east-asian:normal;font-feature-settings:normal;font-variation-settings:normal;text-indent:0;text-align:start;text-decoration:none;text-decoration-line:none;text-decoration-style:solid;text-decoration-color:#000000;letter-spacing:normal;word-spacing:normal;text-transform:none;writing-mode:lr-tb;direction:ltr;text-orientation:mixed;dominant-baseline:auto;baseline-shift:baseline;text-anchor:start;white-space:normal;shape-padding:0;shape-margin:0;inline-size:0;clip-rule:nonzero;display:inline;overflow:visible;visibility:visible;isolation:auto;mix-blend-mode:normal;color-interpolation:sRGB;color-interpolation-filters:linearRGB;solid-color:#000000;solid-opacity:1;vector-effect:none;fill:#1b384b;fill-opacity:1;fill-rule:nonzero;stroke:none;stroke-width:1.00002;stroke-linecap:round;stroke-linejoin:round;stroke-miterlimit:4;stroke-dasharray:none;stroke-dashoffset:2.1875;stroke-opacity:1;color-rendering:auto;image-rendering:auto;shape-rendering:auto;text-rendering:auto;enable-background:accumulate;stop-color:#000000"
       d="m 3.1734495,0.1984481 c -0.6527403,0 -1.1890745,0.53687134 -1.1890745,1.1896302 V 15.148399 c 0,0.65278 0.5363342,1.18963 1.1890745,1.18963 h 5.2932146 4.2322989 c 1.23906,0 2.250001,-1.00942 2.250001,-2.248508 V 2.4469593 c 0,-1.2390914 -1.010941,-2.2485112 -2.250001,-2.2485112 H 8.4666641 Z m 0,0.79326053 h 5.2932146 4.2322989 c 0.813052,0 1.455211,0.64219137 1.455211,1.45525067 V 14.089521 c 0,0.813077 -0.642159,1.455248 -1.455211,1.455248 H 8.4666641 3.1734495 c -0.2267373,0 -0.3963591,-0.169619 -0.3963591,-0.396359 V 1.3880889 c 0,-0.2267506 0.1696218,-0.39636969 0.3963591,-0.39638027 z" />
    <path
       id="path1181-0-2-9-62-2-2-7-5-6-4"
       style="color:#000000;font-style:normal;font-variant:normal;font-weight:normal;font-stretch:normal;font-size:medium;line-height:normal;font-family:sans-serif;font-variant-ligatures:normal;font-variant-position:normal;font-variant-caps:normal;font-variant-numeric:normal;font-variant-alternates:normal;font-variant-east-asian:normal;font-feature-settings:normal;font-variation-settings:normal;text-indent:0;text-align:start;text-decoration:none;text-decoration-line:none;text-decoration-style:solid;text-decoration-color:#000000;letter-spacing:normal;word-spacing:normal;text-transform:none;writing-mode:lr-tb;direction:ltr;text-orientation:mixed;dominant-baseline:auto;baseline-shift:baseline;text-anchor:start;white-space:normal;shape-padding:0;shape-margin:0;inline-size:0;clip-rule:nonzero;display:inline;overflow:visible;visibility:visible;opacity:0.25;isolation:auto;mix-blend-mode:normal;color-interpolation:sRGB;color-interpolation-filters:linearRGB;solid-color:#000000;solid-opacity:1;vector-effect:none;fill:#0c0c0c;fill-opacity:1;fill-rule:nonzero;stroke:none;stroke-width:0;stroke-linecap:round;stroke-linejoin:round;stroke-miterlimit:4;stroke-dasharray:none;stroke-dashoffset:2.1875;stroke-opacity:1;color-rendering:auto;image-rendering:auto;shape-rendering:auto;text-rendering:auto;enable-background:accumulate;stop-color:#000000"
       d="m 12.567708,8.8470053 c -2.189109,0 -3.9687496,1.7799047 -3.9687496,3.9689887 0,2.189056 1.7796406,3.968644 3.9687496,3.968644 2.18911,0 3.96875,-1.779588 3.96875,-3.968644 0,-2.189084 -1.77964,-3.9689887 -3.96875,-3.9689887 z m 0,0.4958028 c 1.920981,0 3.473265,1.5522309 3.473265,3.4731859 0,1.920954 -1.552284,3.472841 -3.473265,3.472841 -1.920981,0 -3.4732644,-1.551887 -3.4732644,-3.472841 0,-1.920955 1.5522834,-3.4731859 3.4732644,-3.4731859 z" />
    <path
       id="path1181-0-6-2-9-0-9-5-3-1-7"
       style="color:#000000;font-style:normal;font-variant:normal;font-weight:normal;font-stretch:normal;font-size:medium;line-height:normal;font-family:sans-serif;font-variant-ligatures:normal;font-variant-position:normal;font-variant-caps:normal;font-variant-numeric:normal;font-variant-alternates:normal;font-variant-east-asian:normal;font-feature-settings:normal;font-variation-settings:normal;text-indent:0;text-align:start;text-decoration:none;text-decoration-line:none;text-decoration-style:solid;text-decoration-color:#000000;letter-spacing:normal;word-spacing:normal;text-transform:none;writing-mode:lr-tb;direction:ltr;text-orientation:mixed;dominant-baseline:auto;baseline-shift:baseline;text-anchor:start;white-space:normal;shape-padding:0;shape-margin:0;inline-size:0;clip-rule:nonzero;display:inline;overflow:visible;visibility:visible;opacity:0.85;isolation:auto;mix-blend-mode:normal;color-interpolation:sRGB;color-interpolation-filters:linearRGB;solid-color:#000000;solid-opacity:1;vector-effect:none;fill:#0c6e59;fill-opacity:1;fill-rule:nonzero;stroke:none;stroke-width:0.625041;stroke-linecap:round;stroke-linejoin:round;stroke-miterlimit:4;stroke-dasharray:none;stroke-dashoffset:2.1875;stroke-opacity:1;color-rendering:auto;image-rendering:auto;shape-rendering:auto;text-rendering:auto;enable-background:accumulate;stop-color:#000000"
       d="m 12.567708,8.5989584 c -2.189109,0 -3.9687496,1.7799056 -3.9687496,3.9689616 0,2.189083 1.7796406,3.968671 3.9687496,3.968671 2.18911,0 3.96875,-1.779588 3.96875,-3.968671 0,-2.189056 -1.77964,-3.9689616 -3.96875,-3.9689616 z m 0,0.4958028 c 1.920981,0 3.473265,1.5522308 3.473265,3.4731588 0,1.920981 -1.552284,3.472868 -3.473265,3.472868 -1.920981,0 -3.4732644,-1.551887 -3.4732644,-3.472868 0,-1.920928 1.5522834,-3.4731588 3.4732644,-3.4731588 z" />
    <ellipse
       style="fill:url(#linearGradient1474);fill-opacity:1;stroke:#771832;stroke-width:0;stroke-linecap:round;stroke-linejoin:round;stroke-miterlimit:4;stroke-dasharray:none;stroke-dashoffset:2.1875;stroke-opacity:1"
       id="path1181-0-1-2-1-3-5-2-8"
       cx="12.567724"
       cy="12.567805"
       rx="3.7207029"
       ry="3.720763" />
    <path
       id="path1181-0-2-9-3-2-7-7-6-2-3-4"
       style="color:#000000;font-style:normal;font-variant:normal;font-weight:normal;font-stretch:normal;font-size:medium;line-height:normal;font-family:sans-serif;font-variant-ligatures:normal;font-variant-position:normal;font-variant-caps:normal;font-variant-numeric:normal;font-variant-alternates:normal;font-variant-east-asian:normal;font-feature-settings:normal;font-variation-settings:normal;text-indent:0;text-align:start;text-decoration:none;text-decoration-line:none;text-decoration-style:solid;text-decoration-color:#000000;letter-spacing:normal;word-spacing:normal;text-transform:none;writing-mode:lr-tb;direction:ltr;text-orientation:mixed;dominant-baseline:auto;baseline-shift:baseline;text-anchor:start;white-space:normal;shape-padding:0;shape-margin:0;inline-size:0;clip-rule:nonzero;display:inline;overflow:visible;visibility:visible;opacity:0.15;isolation:auto;mix-blend-mode:normal;color-interpolation:sRGB;color-interpolation-filters:linearRGB;solid-color:#000000;solid-opacity:1;vector-effect:none;fill:#0a5c4a;fill-opacity:1;fill-rule:nonzero;stroke:none;stroke-width:0;stroke-linecap:round;stroke-linejoin:round;stroke-miterlimit:4;stroke-dasharray:none;stroke-dashoffset:2.1875;stroke-opacity:1;color-rendering:auto;image-rendering:auto;shape-rendering:auto;text-rendering:auto;enable-background:accumulate;stop-color:#000000"
       d="m 12.567708,8.5989584 c -2.189109,0 -3.9687496,1.7799056 -3.9687496,3.9689616 0,2.189083 1.7796406,3.968671 3.9687496,3.968671 2.18911,0 3.96875,-1.779588 3.96875,-3.968671 0,-2.189056 -1.77964,-3.9689616 -3.96875,-3.9689616 z m 0,0.4958028 c 1.920981,0 3.473265,1.5522308 3.473265,3.4731588 0,1.920981 -1.552284,3.472868 -3.473265,3.472868 -1.920981,0 -3.4732644,-1.551887 -3.4732644,-3.472868 0,-1.920928 1.5522834,-3.4731588 3.4732644,-3.4731588 z" />
    <path
       id="rect2388-9-6-0-6-2-9-1-5"
       style="color:#000000;font-style:normal;font-variant:normal;font-weight:normal;font-stretch:normal;font-size:medium;line-height:normal;font-family:sans-serif;font-variant-ligatures:normal;font-variant-position:normal;font-variant-caps:normal;font-variant-numeric:normal;font-variant-alternates:normal;font-variant-east-asian:normal;font-feature-settings:normal;font-variation-settings:normal;text-indent:0;text-align:start;text-decoration:none;text-decoration-line:none;text-decoration-style:solid;text-decoration-color:#000000;letter-spacing:normal;word-spacing:normal;text-transform:none;writing-mode:lr-tb;direction:ltr;text-orientation:mixed;dominant-baseline:auto;baseline-shift:baseline;text-anchor:start;white-space:normal;shape-padding:0;shape-margin:0;inline-size:0;clip-rule:nonzero;display:inline;overflow:visible;visibility:visible;opacity:0.35;isolation:auto;mix-blend-mode:normal;color-interpolation:sRGB;color-interpolation-filters:linearRGB;solid-color:#000000;solid-opacity:1;vector-effect:none;fill:#0a5c4a;fill-opacity:1;fill-rule:nonzero;stroke:none;stroke-width:0.264583;stroke-linecap:round;stroke-linejoin:round;stroke-miterlimit:4;stroke-dasharray:none;stroke-dashoffset:2.1875;stroke-opacity:1;color-rendering:auto;image-rendering:auto;shape-rendering:auto;text-rendering:auto;enable-background:accumulate;stop-color:#000000"
       d="m 12.303125,10.351823 c -0.217593,0 -0.396875,0.179308 -0.396875,0.396875 v 1.422136 h -1.422135 c -0.217567,0 -0.396875,0.179308 -0.396875,0.396875 v 0.529166 c 0,0.217594 0.179308,0.396875 0.396875,0.396875 h 1.422135 v 1.422136 c 0,0.217593 0.179308,0.396875 0.396875,0.396875 h 0.529167 c 0.217593,0 0.396875,-0.179282 0.396875,-0.396875 V 13.49375 h 1.422135 c 0.217593,0 0.396875,-0.179281 0.396875,-0.396875 v -0.529166 c 0,-0.217567 -0.179282,-0.396875 -0.396875,-0.396875 h -1.422135 v -1.422136 c 0,-0.217567 -0.179282,-0.396875 -0.396875,-0.396875 z m 0,0.264584 h 0.529167 c 0.07556,0 0.132291,0.05675 0.132291,0.132291 v 1.554427 a 0.1323049,0.1323049 0 0 0 0.132292,0.132292 h 1.554427 c 0.07559,0 0.132292,0.05673 0.132292,0.132292 v 0.529166 c 0,0.07559 -0.0567,0.132292 -0.132292,0.132292 h -1.554427 a 0.1323049,0.1323049 0 0 0 -0.132292,0.132292 v 1.554427 c 0,0.07559 -0.0567,0.132291 -0.132291,0.132291 h -0.529167 c -0.07559,0 -0.132292,-0.0567 -0.132292,-0.132291 v -1.554427 a 0.1323049,0.1323049 0 0 0 -0.132291,-0.132292 h -1.554427 c -0.07559,0 -0.132292,-0.0567 -0.132292,-0.132292 v -0.529166 c 0,-0.07556 0.0567,-0.132292 0.132292,-0.132292 h 1.554427 a 0.1323049,0.1323049 0 0 0 0.132291,-0.132292 v -1.554427 c 0,-0.07554 0.05673,-0.132291 0.132292,-0.132291 z" />
    <path
       id="rect2388-9-6-0-6-1-9-0"
       style="color:#000000;font-style:normal;font-variant:normal;font-weight:normal;font-stretch:normal;font-size:medium;line-height:normal;font-family:sans-serif;font-variant-ligatures:normal;font-variant-position:normal;font-variant-caps:normal;font-variant-numeric:normal;font-variant-alternates:normal;font-variant-east-asian:normal;font-feature-settings:normal;font-variation-settings:normal;text-indent:0;text-align:start;text-decoration:none;text-decoration-line:none;text-decoration-style:solid;text-decoration-color:#000000;letter-spacing:normal;word-spacing:normal;text-transform:none;writing-mode:lr-tb;direction:ltr;text-orientation:mixed;dominant-baseline:auto;baseline-shift:baseline;text-anchor:start;white-space:normal;shape-padding:0;shape-margin:0;inline-size:0;clip-rule:nonzero;display:inline;overflow:visible;visibility:visible;isolation:auto;mix-blend-mode:normal;color-interpolation:sRGB;color-interpolation-filters:linearRGB;solid-color:#000000;solid-opacity:1;vector-effect:none;fill:#0a5c4a;fill-opacity:1;fill-rule:nonzero;stroke:none;stroke-width:0.264583;stroke-linecap:round;stroke-linejoin:round;stroke-miterlimit:4;stroke-dasharray:none;stroke-dashoffset:2.1875;stroke-opacity:1;color-rendering:auto;image-rendering:auto;shape-rendering:auto;text-rendering:auto;enable-background:accumulate;stop-color:#000000"
       d="m 12.303125,10.08724 c -0.217593,0 -0.396875,0.179308 -0.396875,0.396875 v 1.422135 h -1.422135 c -0.217567,0 -0.396875,0.179308 -0.396875,0.396875 v 0.529167 c 0,0.217593 0.179308,0.396875 0.396875,0.396875 h 1.422135 v 1.422135 c 0,0.217594 0.179308,0.396875 0.396875,0.396875 h 0.529167 c 0.217593,0 0.396875,-0.179281 0.396875,-0.396875 v -1.422135 h 1.422135 c 0.217593,0 0.396875,-0.179282 0.396875,-0.396875 v -0.529167 c 0,-0.217567 -0.179282,-0.396875 -0.396875,-0.396875 h -1.422135 v -1.422135 c 0,-0.217567 -0.179282,-0.396875 -0.396875,-0.396875 z m 0,0.264583 h 0.529167 c 0.07556,0 0.132291,0.05675 0.132291,0.132292 v 1.554427 a 0.1323049,0.1323049 0 0 0 0.132292,0.132292 h 1.554427 c 0.07559,0 0.132292,0.05673 0.132292,0.132291 v 0.529167 c 0,0.07559 -0.0567,0.132292 -0.132292,0.132292 h -1.554427 a 0.1323049,0.1323049 0 0 0 -0.132292,0.132291 v 1.554427 c 0,0.07559 -0.0567,0.132292 -0.132291,0.132292 h -0.529167 c -0.07559,0 -0.132292,-0.0567 -0.132292,-0.132292 v -1.554427 a 0.1323049,0.1323049 0 0 0 -0.132291,-0.132291 h -1.554427 c -0.07559,0 -0.132292,-0.0567 -0.132292,-0.132292 v -0.529167 c 0,-0.07556 0.0567,-0.132291 0.132292,-0.132291 h 1.554427 a 0.1323049,0.1323049 0 0 0 0.132291,-0.132292 v -1.554427 c 0,-0.07554 0.05673,-0.132292 0.132292,-0.132292 z" />
    <path
       id="rect2388-9-6-2-4-3"
       style="fill:#fdfbfc;fill-opacity:1;stroke-width:0.309621;stroke-linecap:round;stroke-linejoin:round;stroke-dashoffset:2.1875"
       d="m 12.303125,10.219531 c -0.146579,0 -0.264583,0.118031 -0.264583,0.264584 v 1.554427 h -1.554427 c -0.146579,0 -0.264584,0.118004 -0.264584,0.264583 v 0.529167 c 0,0.146579 0.118005,0.264583 0.264584,0.264583 h 1.554427 v 1.554427 c 0,0.14658 0.118004,0.264584 0.264583,0.264584 h 0.529167 c 0.146579,0 0.264583,-0.118004 0.264583,-0.264584 v -1.554427 h 1.554427 c 0.146579,0 0.264583,-0.118004 0.264583,-0.264583 v -0.529167 c 0,-0.146579 -0.118004,-0.264583 -0.264583,-0.264583 h -1.554427 v -1.554427 c 0,-0.146553 -0.118004,-0.264584 -0.264583,-0.264584 z" />
  </g>
</svg>
