<?xml version="1.0" encoding="UTF-8" standalone="no"?>
<svg
   xmlns:dc="http://purl.org/dc/elements/1.1/"
   xmlns:cc="http://creativecommons.org/ns#"
   xmlns:rdf="http://www.w3.org/1999/02/22-rdf-syntax-ns#"
   xmlns:svg="http://www.w3.org/2000/svg"
   xmlns="http://www.w3.org/2000/svg"
   xmlns:xlink="http://www.w3.org/1999/xlink"
   xmlns:sodipodi="http://sodipodi.sourceforge.net/DTD/sodipodi-0.dtd"
   xmlns:inkscape="http://www.inkscape.org/namespaces/inkscape"
   width="64"
   height="64"
   viewBox="0 0 16.933333 16.933334"
   version="1.1"
   id="svg841"
   inkscape:version="1.0.2 (e86c870879, 2021-01-15)"
   sodipodi:docname="task-new.svg">
  <defs
     id="defs835">
    <linearGradient
       inkscape:collect="always"
       xlink:href="#linearGradient1447"
       id="linearGradient2602"
       gradientUnits="userSpaceOnUse"
       x1="3.4395835"
       y1="2.1166675"
       x2="13.493752"
       y2="16.404167" />
    <linearGradient
       inkscape:collect="always"
       id="linearGradient1447">
      <stop
         style="stop-color:#71b1c1;stop-opacity:1;"
         offset="0"
         id="stop1443" />
      <stop
         style="stop-color:#5fa7b9;stop-opacity:1"
         offset="1"
         id="stop1445" />
    </linearGradient>
    <linearGradient
       inkscape:collect="always"
       xlink:href="#linearGradient3680-7"
       id="linearGradient2604"
       gradientUnits="userSpaceOnUse"
       gradientTransform="translate(-0.16224778,-23.078187)"
       x1="6.9795055"
       y1="23.404812"
       x2="10.278595"
       y2="26.579811" />
    <linearGradient
       inkscape:collect="always"
       id="linearGradient3680-7">
      <stop
         style="stop-color:#fcfcfc;stop-opacity:0.55000001"
         offset="0"
         id="stop3678-2" />
      <stop
         style="stop-color:#fcfcfc;stop-opacity:0"
         offset="1"
         id="stop3676-7" />
    </linearGradient>
    <linearGradient
       inkscape:collect="always"
       xlink:href="#linearGradient877"
       id="linearGradient879"
       x1="47.75"
       y1="33.5"
       x2="48.25"
       y2="61.5"
       gradientUnits="userSpaceOnUse"
       gradientTransform="matrix(0.26458334,0,0,0.26458334,-4.2333335,-3.0427089)" />
    <linearGradient
       inkscape:collect="always"
       id="linearGradient877">
      <stop
         style="stop-color:#fdfbfc;stop-opacity:1"
         offset="0"
         id="stop873" />
      <stop
         style="stop-color:#faf5f7;stop-opacity:1"
         offset="1"
         id="stop875" />
    </linearGradient>
  </defs>
  <sodipodi:namedview
     id="base"
     pagecolor="#c4c4c4"
     bordercolor="#666666"
     borderopacity="1.0"
     inkscape:pageopacity="0"
     inkscape:pageshadow="2"
     inkscape:zoom="4.4529495"
     inkscape:cx="-32.954012"
     inkscape:cy="14.675041"
     inkscape:document-units="px"
     inkscape:current-layer="layer1"
     inkscape:document-rotation="0"
     showgrid="false"
     units="px"
     inkscape:window-width="2048"
     inkscape:window-height="1080"
     inkscape:window-x="0"
     inkscape:window-y="0"
     inkscape:window-maximized="1" />
  <metadata
     id="metadata838">
    <rdf:RDF>
      <cc:Work
         rdf:about="">
        <dc:format>image/svg+xml</dc:format>
        <dc:type
           rdf:resource="http://purl.org/dc/dcmitype/StillImage" />
        <dc:title />
      </cc:Work>
    </rdf:RDF>
  </metadata>
  <g
     inkscape:label="Layer 1"
     inkscape:groupmode="layer"
     id="layer1">
    <rect
       style="opacity:0.25;fill:#0c0c0c;fill-opacity:1;stroke-width:1.19063;stroke-linecap:round;stroke-linejoin:round;stroke-dashoffset:2.1875"
       id="rect848-6-3-2-3-2-6-4-2"
       width="13.229167"
       height="14.2875"
       x="1.8520832"
       y="2.3812826"
       rx="0.79375011"
       ry="0.79375011" />
    <path
       id="rect848-6-3-2-3-2-63-2-4-2"
       style="color:#000000;font-style:normal;font-variant:normal;font-weight:normal;font-stretch:normal;font-size:medium;line-height:normal;font-family:sans-serif;font-variant-ligatures:normal;font-variant-position:normal;font-variant-caps:normal;font-variant-numeric:normal;font-variant-alternates:normal;font-variant-east-asian:normal;font-feature-settings:normal;font-variation-settings:normal;text-indent:0;text-align:start;text-decoration:none;text-decoration-line:none;text-decoration-style:solid;text-decoration-color:#000000;letter-spacing:normal;word-spacing:normal;text-transform:none;writing-mode:lr-tb;direction:ltr;text-orientation:mixed;dominant-baseline:auto;baseline-shift:baseline;text-anchor:start;white-space:normal;shape-padding:0;shape-margin:0;inline-size:0;clip-rule:nonzero;display:inline;overflow:visible;visibility:visible;isolation:auto;mix-blend-mode:normal;color-interpolation:sRGB;color-interpolation-filters:linearRGB;solid-color:#000000;solid-opacity:1;vector-effect:none;fill:#2b5864;fill-opacity:1;fill-rule:nonzero;stroke:none;stroke-width:1.00002;stroke-linecap:round;stroke-linejoin:round;stroke-miterlimit:4;stroke-dasharray:none;stroke-dashoffset:2.1875;stroke-opacity:1;color-rendering:auto;image-rendering:auto;shape-rendering:auto;text-rendering:auto;enable-background:accumulate;stop-color:#000000"
       d="M 2.6458731,1.5875 C 2.0641099,1.5875 1.5875,2.062533 1.5875,2.6442724 V 15.345305 c 0,0.581739 0.4766099,1.058862 1.0583731,1.058862 H 14.286945 c 0.58176,0 1.058889,-0.477123 1.058889,-1.058862 V 2.6442724 C 15.345834,2.062533 14.868705,1.5875 14.286945,1.5875 Z m 0,0.5276057 H 14.286945 c 0.297746,0 0.529185,0.231431 0.529185,0.5291667 V 15.345305 c 0,0.297735 -0.231439,0.529695 -0.529185,0.529695 H 2.6458731 c -0.2977462,0 -0.5291852,-0.23196 -0.5291852,-0.529695 V 2.6442724 c 0,-0.2977357 0.231439,-0.5291667 0.5291852,-0.5291667 z" />
    <rect
       style="fill:url(#linearGradient2602);fill-opacity:1;stroke-width:1.19063;stroke-linecap:round;stroke-linejoin:round;stroke-dashoffset:2.1875"
       id="rect848-6-3-2-3-2-3-8"
       width="13.229167"
       height="14.2875"
       x="1.8520832"
       y="1.8521159"
       rx="0.79375011"
       ry="0.79375011" />
    <ellipse
       style="opacity:0.3;fill:#254b56;fill-opacity:1;stroke:none;stroke-width:0;stroke-linecap:round;stroke-linejoin:round;stroke-dashoffset:2.1875"
       id="path1414-4-6-62-5-1-4-1"
       cx="8.4666624"
       cy="2.3771484"
       rx="1.6495433"
       ry="1.6495448" />
    <ellipse
       style="fill:#fcb503;fill-opacity:1;stroke:none;stroke-width:0;stroke-linecap:round;stroke-linejoin:round;stroke-dashoffset:2.1875"
       id="path1414-4-6-3-5-5-0"
       cx="8.4666624"
       cy="1.91416"
       rx="1.6495433"
       ry="1.6495448" />
    <ellipse
       style="opacity:0.451;fill:url(#linearGradient2604);fill-opacity:1;stroke:none;stroke-width:0;stroke-linecap:round;stroke-linejoin:round;stroke-dashoffset:2.1875"
       id="path1414-4-6-13-6-4-0-63"
       cx="8.4667959"
       cy="1.91416"
       rx="1.6495433"
       ry="1.6495448" />
    <path
       id="path1414-4-6-629-1-3-0-1-5-5-4-2"
       style="opacity:0.65;fill:#0c0c0c;fill-opacity:1;stroke:none;stroke-width:0;stroke-linecap:round;stroke-linejoin:round;stroke-dashoffset:2.1875"
       d="M 8.466632,0.26458334 A 1.6495433,1.6495449 0 0 0 6.817122,1.9140753 1.6495433,1.6495449 0 0 0 8.466632,3.5635936 1.6495433,1.6495449 0 0 0 10.116143,1.9140753 1.6495433,1.6495449 0 0 0 8.466632,0.26458334 Z m 0,0.2645834 A 1.3849602,1.3849615 0 0 1 9.85156,1.9140753 1.3849602,1.3849615 0 0 1 8.466632,3.2990103 1.3849602,1.3849615 0 0 1 7.081705,1.9140753 1.3849602,1.3849615 0 0 1 8.466632,0.52916674 Z" />
    <path
       id="rect4307-0-2-6-35-2-1-0"
       style="opacity:0.25;fill:#1f3e47;fill-opacity:1;stroke:none;stroke-width:0;stroke-linecap:round;stroke-linejoin:round;stroke-miterlimit:4;stroke-dasharray:none;stroke-dashoffset:2.1875;stroke-opacity:1"
       d="m 8.0697918,6.2838541 c -0.1465791,0 -0.2645833,0.118004 -0.2645833,0.264583 v 2.844271 H 4.9609376 c -0.1465792,0 -0.2645834,0.118004 -0.2645834,0.26461 v 0.7937239 c 0,0.146579 0.1180042,0.264583 0.2645834,0.264583 h 2.8442709 v 2.844297 c 0,0.146579 0.1180042,0.264557 0.2645833,0.264557 h 0.7937501 c 0.1465791,0 0.2645833,-0.117978 0.2645833,-0.264557 v -2.844297 h 2.8442718 c 0.146579,0 0.264583,-0.118004 0.264583,-0.264583 V 9.6573181 c 0,-0.146606 -0.118004,-0.26461 -0.264583,-0.26461 H 9.1281252 v -2.844271 c 0,-0.146579 -0.1180042,-0.264583 -0.2645833,-0.264583 z" />
    <path
       id="rect4307-0-2-9-9-1-5-3-6"
       style="color:#000000;font-style:normal;font-variant:normal;font-weight:normal;font-stretch:normal;font-size:medium;line-height:normal;font-family:sans-serif;font-variant-ligatures:normal;font-variant-position:normal;font-variant-caps:normal;font-variant-numeric:normal;font-variant-alternates:normal;font-variant-east-asian:normal;font-feature-settings:normal;font-variation-settings:normal;text-indent:0;text-align:start;text-decoration:none;text-decoration-line:none;text-decoration-style:solid;text-decoration-color:#000000;letter-spacing:normal;word-spacing:normal;text-transform:none;writing-mode:lr-tb;direction:ltr;text-orientation:mixed;dominant-baseline:auto;baseline-shift:baseline;text-anchor:start;white-space:normal;shape-padding:0;shape-margin:0;inline-size:0;clip-rule:nonzero;display:inline;overflow:visible;visibility:visible;opacity:1;isolation:auto;mix-blend-mode:normal;color-interpolation:sRGB;color-interpolation-filters:linearRGB;solid-color:#000000;solid-opacity:1;vector-effect:none;fill:#1f3e47;fill-opacity:1;fill-rule:nonzero;stroke:none;stroke-width:1;stroke-linecap:round;stroke-linejoin:round;stroke-miterlimit:4;stroke-dasharray:none;stroke-dashoffset:2.1875;stroke-opacity:1;color-rendering:auto;image-rendering:auto;shape-rendering:auto;text-rendering:auto;enable-background:accumulate;stop-color:#000000"
       d="m 8.0703078,5.5562501 c -0.2530793,0 -0.4630209,0.209417 -0.4630209,0.462518 v 2.646865 H 4.9609376 c -0.2530819,0 -0.4630209,0.209418 -0.4630209,0.462492 v 0.793247 c 0,0.2530739 0.209939,0.4630209 0.4630209,0.4630209 h 2.6463493 v 2.646363 c 0,0.253074 0.2099416,0.46302 0.4630209,0.46302 h 0.7927181 c 0.2530793,0 0.4630209,-0.209946 0.4630209,-0.46302 v -2.646363 h 2.6463502 c 0.253081,0 0.46302,-0.209947 0.46302,-0.4630209 v -0.793247 c 0,-0.253074 -0.209939,-0.462492 -0.46302,-0.462492 H 9.3260468 v -2.646865 c 0,-0.253101 -0.2099416,-0.462518 -0.4630209,-0.462518 z m 0,0.396372 h 0.7927181 c 0.040079,0 0.066659,0.02619 0.066659,0.06609 v 2.843742 a 0.19845734,0.19845734 0 0 0 0.1989535,0.199469 h 2.8437586 c 0.04008,0 0.06666,0.02619 0.06666,0.06612 v 0.793221 c 0,0.04011 -0.02658,0.06612 -0.06666,0.06612 H 9.1286385 A 0.19845734,0.19845734 0 0 0 8.929685,10.186853 v 2.843742 c 0,0.04011 -0.02658,0.06609 -0.066659,0.06609 H 8.0703078 c -0.040079,0 -0.066659,-0.02619 -0.066659,-0.06609 v -2.84374 A 0.19845734,0.19845734 0 0 0 7.806243,9.9873861 H 4.9609402 c -0.040079,0 -0.066659,-0.02619 -0.066659,-0.06612 v -0.793221 c 0,-0.04011 0.02658,-0.06612 0.066659,-0.06612 H 7.806243 a 0.19845734,0.19845734 0 0 0 0.197403,-0.199469 v -2.843742 c 0,-0.04008 0.02658,-0.06609 0.066659,-0.06609 z" />
    <path
       id="rect4307-0-2-6-35-2-1"
       style="fill:url(#linearGradient879);fill-opacity:1;stroke:none;stroke-width:0;stroke-linecap:round;stroke-linejoin:round;stroke-miterlimit:4;stroke-dasharray:none;stroke-dashoffset:2.1875;stroke-opacity:1"
       d="m 8.0697918,5.7546871 c -0.1465791,0 -0.2645833,0.118004 -0.2645833,0.264584 v 2.844271 H 4.9609376 c -0.1465792,0 -0.2645834,0.118004 -0.2645834,0.264609 v 0.793724 c 0,0.1465789 0.1180042,0.2645829 0.2645834,0.2645829 h 2.8442709 v 2.844298 c 0,0.146579 0.1180042,0.264556 0.2645833,0.264556 h 0.7937501 c 0.1465791,0 0.2645833,-0.117977 0.2645833,-0.264556 v -2.844298 h 2.8442718 c 0.146579,0 0.264583,-0.118004 0.264583,-0.2645829 v -0.793724 c 0,-0.146605 -0.118004,-0.264609 -0.264583,-0.264609 H 9.1281252 v -2.844271 c 0,-0.14658 -0.1180042,-0.264584 -0.2645833,-0.264584 z" />
  </g>
</svg>
