<?xml version="1.0" encoding="UTF-8" standalone="no"?>
<svg
   xmlns:dc="http://purl.org/dc/elements/1.1/"
   xmlns:cc="http://creativecommons.org/ns#"
   xmlns:rdf="http://www.w3.org/1999/02/22-rdf-syntax-ns#"
   xmlns:svg="http://www.w3.org/2000/svg"
   xmlns="http://www.w3.org/2000/svg"
   xmlns:sodipodi="http://sodipodi.sourceforge.net/DTD/sodipodi-0.dtd"
   xmlns:inkscape="http://www.inkscape.org/namespaces/inkscape"
   width="64"
   height="64"
   viewBox="0 0 64 64"
   version="1.1"
   id="svg6374"
   inkscape:version="1.0.2 (e86c870879, 2021-01-15)"
   sodipodi:docname="document-properties.svg">
  <defs
     id="defs6368" />
  <sodipodi:namedview
     id="base"
     pagecolor="#cecece"
     bordercolor="#666666"
     borderopacity="1.0"
     inkscape:pageopacity="0"
     inkscape:pageshadow="2"
     inkscape:zoom="6.3001721"
     inkscape:cx="-28.98441"
     inkscape:cy="47.68668"
     inkscape:document-units="px"
     inkscape:current-layer="layer1"
     inkscape:document-rotation="0"
     showgrid="false"
     units="px"
     inkscape:window-width="2048"
     inkscape:window-height="1080"
     inkscape:window-x="0"
     inkscape:window-y="0"
     inkscape:window-maximized="1" />
  <metadata
     id="metadata6371">
    <rdf:RDF>
      <cc:Work
         rdf:about="">
        <dc:format>image/svg+xml</dc:format>
        <dc:type
           rdf:resource="http://purl.org/dc/dcmitype/StillImage" />
        <dc:title />
      </cc:Work>
    </rdf:RDF>
  </metadata>
  <g
     inkscape:label="Layer 1"
     inkscape:groupmode="layer"
     id="layer1">
    <path
       id="rect954-7-0-7-3-0-0-0-6"
       style="color:#000000;font-style:normal;font-variant:normal;font-weight:normal;font-stretch:normal;font-size:medium;line-height:normal;font-family:sans-serif;font-variant-ligatures:normal;font-variant-position:normal;font-variant-caps:normal;font-variant-numeric:normal;font-variant-alternates:normal;font-variant-east-asian:normal;font-feature-settings:normal;font-variation-settings:normal;text-indent:0;text-align:start;text-decoration:none;text-decoration-line:none;text-decoration-style:solid;text-decoration-color:#000000;letter-spacing:normal;word-spacing:normal;text-transform:none;writing-mode:lr-tb;direction:ltr;text-orientation:mixed;dominant-baseline:auto;baseline-shift:baseline;text-anchor:start;white-space:normal;shape-padding:0;shape-margin:0;inline-size:0;clip-rule:nonzero;display:inline;overflow:visible;visibility:visible;opacity:0.85;isolation:auto;mix-blend-mode:normal;color-interpolation:sRGB;color-interpolation-filters:linearRGB;solid-color:#000000;solid-opacity:1;vector-effect:none;fill:#692658;fill-opacity:1;fill-rule:nonzero;stroke:none;stroke-linecap:round;stroke-linejoin:round;stroke-miterlimit:4;stroke-dasharray:none;stroke-dashoffset:2.1875;stroke-opacity:1;color-rendering:auto;image-rendering:auto;shape-rendering:auto;text-rendering:auto;enable-background:accumulate;stop-color:#000000"
       d="M 13,2.5 C 10.53295,2.5 8.5,4.53295 8.5,6.9999965 V 56.999995 c 0,2.46706 2.03295,4.5 4.5,4.5 h 38 c 2.467,0 4.5,-2.032941 4.5,-4.5 V 6.9999965 C 55.5,4.53295 53.467,2.5 51,2.5 Z m 0,2.999996 h 38 c 0.8569,0 1.5,0.64306 1.5,1.5000005 V 56.999994 c 0,0.85695 -0.6431,1.5 -1.5,1.5 H 13 c -0.85695,0 -1.5,-0.64305 -1.5,-1.5 V 6.9999965 C 11.5,6.143056 12.14305,5.499996 13,5.499996 Z" />
    <rect
       style="fill:#fcfcfc;fill-opacity:1;stroke-width:0.495;stroke-linecap:round;stroke-linejoin:round;stroke-miterlimit:4;stroke-dasharray:none;stroke-dashoffset:2.1875"
       id="rect954-7-0-7-3-0-0"
       width="44"
       height="56"
       x="10.000061"
       y="4.0000005"
       rx="3"
       ry="3" />
    <path
       id="rect1649-7-15-4-62-93-7"
       style="display:inline;opacity:0.15;fill:#0c0c10;fill-opacity:1;stroke-width:0.5386;stroke-linecap:round;stroke-linejoin:round;stroke-dashoffset:2.1875;stroke-opacity:0.74902"
       d="m 18.37157,43.901769 a 3.4440908,3.4499951 0 0 1 -1.28481,-1.27675 3.4440908,3.4499951 0 0 1 1.26085,-4.71243 3.4440908,3.4499951 0 0 1 3.90792,0.32225 l 6.34622,-3.670319 a 3.4440908,3.4499951 0 0 1 -0.0458,-0.564981 3.4440908,3.4499951 0 0 1 0.0468,-0.56371 l -6.34708,-3.67078 a 3.4440908,3.4499951 0 0 1 -3.90846,0.322992 3.4440908,3.4499951 0 0 1 -1.26069,-4.71306 3.4440908,3.4499951 0 0 1 4.705,-1.26286 3.4440908,3.4499951 0 0 1 1.67496,3.55215 l 6.34709,3.670739 a 3.4440908,3.4499951 0 0 1 0.97467,-0.564499 v -7.34148 a 3.4440908,3.4499951 0 0 1 -2.23252,-3.22904 3.4440908,3.4499951 0 0 1 3.44361,-3.44999 3.4440908,3.4499951 0 0 1 3.44414,3.44949 3.4440908,3.4499951 0 0 1 -2.23296,3.2299 v 7.341489 a 3.4440908,3.4499951 0 0 1 0.97581,0.564341 l 6.34762,-3.67074 a 3.4440908,3.4499951 0 0 1 1.67501,-3.55258 3.4440908,3.4499951 0 0 1 4.70431,1.26308 3.4440908,3.4499951 0 0 1 -1.26086,4.71236 3.4440908,3.4499951 0 0 1 -3.90791,-0.32224 l -6.34676,3.67128 a 3.4440908,3.4499951 0 0 1 0.0463,0.56407 3.4440908,3.4499951 0 0 1 -0.0468,0.56371 l 6.34708,3.67079 a 3.4440908,3.4499951 0 0 1 3.90845,-0.32306 3.4440908,3.4499951 0 0 1 1.2607,4.71307 3.4440908,3.4499951 0 0 1 -4.70501,1.26286 3.4440908,3.4499951 0 0 1 -1.67497,-3.5521 l -6.34708,-3.6708 a 3.4440908,3.4499951 0 0 1 -0.97558,0.56398 l 3.6e-4,7.34202 a 3.4440908,3.4499951 0 0 1 2.23253,3.22908 3.4440908,3.4499951 0 0 1 -3.44359,3.45 3.4440908,3.4499951 0 0 1 -3.44416,-3.4495 3.4440908,3.4499951 0 0 1 2.23296,-3.2299 l -3.2e-4,-7.34203 a 3.4440908,3.4499951 0 0 1 -0.97398,-0.56326 l -6.34817,3.6716 a 3.4440908,3.4499951 0 0 1 -1.67538,3.55112 3.4440908,3.4499951 0 0 1 -3.41949,0.0145 z" />
    <path
       id="rect1649-7-15-4-62-93"
       style="display:inline;fill:#ce79b9;fill-opacity:1;stroke-width:0.5386;stroke-linecap:round;stroke-linejoin:round;stroke-dashoffset:2.1875;stroke-opacity:0.74902"
       d="m 18.37157,41.901769 a 3.4440908,3.4499951 0 0 1 -1.28481,-1.27675 3.4440908,3.4499951 0 0 1 1.26085,-4.71243 3.4440908,3.4499951 0 0 1 3.90792,0.32225 l 6.34622,-3.670319 a 3.4440908,3.4499951 0 0 1 -0.0458,-0.564981 3.4440908,3.4499951 0 0 1 0.0468,-0.56371 L 22.25567,27.76505 a 3.4440908,3.4499951 0 0 1 -3.90846,0.322991 3.4440908,3.4499951 0 0 1 -1.26069,-4.71306 3.4440908,3.4499951 0 0 1 4.705,-1.26286 3.4440908,3.4499951 0 0 1 1.67496,3.55215 l 6.34709,3.670739 a 3.4440908,3.4499951 0 0 1 0.97467,-0.564499 v -7.34148 a 3.4440908,3.4499951 0 0 1 -2.23252,-3.22904 3.4440908,3.4499951 0 0 1 3.44361,-3.44999 3.4440908,3.4499951 0 0 1 3.44414,3.44949 3.4440908,3.4499951 0 0 1 -2.23296,3.2299 v 7.341489 a 3.4440908,3.4499951 0 0 1 0.97581,0.564341 l 6.34762,-3.67074 a 3.4440908,3.4499951 0 0 1 1.67501,-3.55258 3.4440908,3.4499951 0 0 1 4.70431,1.26308 3.4440908,3.4499951 0 0 1 -1.26086,4.71236 3.4440908,3.4499951 0 0 1 -3.90791,-0.32224 l -6.34676,3.67128 a 3.4440908,3.4499951 0 0 1 0.0463,0.564069 3.4440908,3.4499951 0 0 1 -0.0468,0.56371 l 6.34708,3.670791 a 3.4440908,3.4499951 0 0 1 3.90845,-0.32306 3.4440908,3.4499951 0 0 1 1.2607,4.71307 3.4440908,3.4499951 0 0 1 -4.70501,1.26286 3.4440908,3.4499951 0 0 1 -1.67497,-3.5521 l -6.34708,-3.6708 a 3.4440908,3.4499951 0 0 1 -0.97558,0.56398 l 3.6e-4,7.34202 a 3.4440908,3.4499951 0 0 1 2.23253,3.22908 3.4440908,3.4499951 0 0 1 -3.44359,3.45 3.4440908,3.4499951 0 0 1 -3.44416,-3.4495 3.4440908,3.4499951 0 0 1 2.23296,-3.2299 l -3.2e-4,-7.34203 a 3.4440908,3.4499951 0 0 1 -0.97398,-0.56326 l -6.34817,3.6716 a 3.4440908,3.4499951 0 0 1 -1.67538,3.55112 3.4440908,3.4499951 0 0 1 -3.41949,0.0145 z" />
    <path
       id="rect1649-7-15-4-6-5-6"
       style="color:#000000;font-style:normal;font-variant:normal;font-weight:normal;font-stretch:normal;font-size:medium;line-height:normal;font-family:sans-serif;font-variant-ligatures:normal;font-variant-position:normal;font-variant-caps:normal;font-variant-numeric:normal;font-variant-alternates:normal;font-variant-east-asian:normal;font-feature-settings:normal;font-variation-settings:normal;text-indent:0;text-align:start;text-decoration:none;text-decoration-line:none;text-decoration-style:solid;text-decoration-color:#000000;letter-spacing:normal;word-spacing:normal;text-transform:none;writing-mode:lr-tb;direction:ltr;text-orientation:mixed;dominant-baseline:auto;baseline-shift:baseline;text-anchor:start;white-space:normal;shape-padding:0;shape-margin:0;inline-size:0;clip-rule:nonzero;display:inline;overflow:visible;visibility:visible;opacity:0.85;isolation:auto;mix-blend-mode:normal;color-interpolation:sRGB;color-interpolation-filters:linearRGB;solid-color:#000000;solid-opacity:1;vector-effect:none;fill:#692658;fill-opacity:1;fill-rule:nonzero;stroke:none;stroke-width:2.3688;stroke-linecap:round;stroke-linejoin:round;stroke-miterlimit:4;stroke-dasharray:none;stroke-dashoffset:2.1875;stroke-opacity:1;color-rendering:auto;image-rendering:auto;shape-rendering:auto;text-rendering:auto;enable-background:accumulate;stop-color:#000000"
       d="m 31.99756,14.125 c -2.24045,3.1e-4 -4.06808,1.8306 -4.06808,4.074709 1.9e-4,1.51561 0.9235,2.793421 2.23341,3.49523 v 6.723391 c -0.11671,0.0602 -0.23211,0.12355 -0.34247,0.19478 l -5.80613,-3.35679 c 0.05,-1.48883 -0.59764,-2.92746 -1.9093,-3.68635 -1.94057,-1.12237 -4.4412,-0.45291 -5.56151,1.49096 -1.12055,1.94373 -0.45218,4.44842 1.48853,5.57056 1.31157,0.7581 2.88061,0.59723 4.14269,-0.18989 l 5.77312,3.33841 c -0.004,0.0727 -0.0182,0.14521 -0.0185,0.218061 -9e-5,0.073 0.0145,0.14398 0.0185,0.216849 l -5.76944,3.34332 c -1.2628,-0.78962 -2.83339,-0.94893 -4.14637,-0.1899 -1.94033,1.12206 -2.60854,3.62694 -1.48853,5.57056 0.30844,0.5352 0.78193,0.93763 1.29039,1.28269 0.002,10e-4 0.003,0.004 0.005,0.005 a 0.62629824,0.627318 0 0 0 0.20792,0.21195 0.62629824,0.627318 0 0 0 0.0135,0.01 c 1.2542,0.71141 2.79669,0.70361 4.04485,-0.0185 1.31141,-0.75862 1.95884,-2.19784 1.90928,-3.68635 l 5.80613,-3.3617 c 0.11073,0.0715 0.22533,0.13434 0.34247,0.19478 v 6.723391 c -1.31034,0.7019 -2.23352,1.98407 -2.2334,3.500129 3.1e-4,2.244141 1.8276,4.074751 4.06808,4.07472 2.24046,-3.2e-4 4.07298,-1.83061 4.07298,-4.07472 C 36.0705,44.28466 35.14719,43.002 33.83727,42.300161 V 35.57677 c 0.11732,-0.0605 0.23154,-0.12314 0.34247,-0.19478 l 5.80602,3.36185 c -0.0486,1.4874 0.59879,2.92812 1.9093,3.68635 1.94057,1.12236 4.44119,0.45291 5.56151,-1.49097 1.12054,-1.94373 0.45218,-4.44841 -1.48853,-5.57055 -1.31175,-0.75819 -2.88422,-0.60244 -4.14638,0.184981 l -5.76942,-3.33351 c 0.004,-0.0732 0.0182,-0.14469 0.0182,-0.21807 a 0.62629824,0.627318 0 0 0 0,-0.004 c 0,-0.0729 -0.0145,-0.14534 -0.0182,-0.21806 l 5.7731,-3.33842 c 1.26158,0.78468 2.83255,0.94729 4.1427,0.18989 1.94029,-1.12205 2.60848,-3.62695 1.48853,-5.57056 -1.12022,-1.94348 -3.62105,-2.61273 -5.56151,-1.49096 -1.31186,0.75894 -1.95948,2.19734 -1.9093,3.68635 l -5.81102,3.35689 c -0.1097,-0.0707 -0.22161,-0.13497 -0.33759,-0.19479 v -6.72339 c 1.31036,-0.70188 2.23353,-1.97916 2.23343,-3.49522 -3.2e-4,-2.24414 -1.8325,-4.07475 -4.07299,-4.07472 z m 0,1.24961 c 1.56366,-1.9e-5 2.82029,1.258901 2.82051,2.825099 9e-5,1.17815 -0.72499,2.22948 -1.82611,2.64378 a 0.62629824,0.627318 0 0 0 -0.4073,0.58316 v 7.343291 a 0.62629824,0.627318 0 0 0 0.4073,0.58805 c 0.28965,0.10897 0.55599,0.26265 0.79502,0.45942 a 0.62629824,0.627318 0 0 0 0.71186,0.06 l 6.34675,-3.67287 a 0.62629824,0.627318 0 0 0 0.30578,-0.64318 c -0.19266,-1.16229 0.35375,-2.31791 1.37233,-2.90719 1.35427,-0.7829 3.0649,-0.32482 3.8467,1.03154 0.78164,1.35646 0.32306,3.07478 -1.03108,3.85786 -1.01845,0.58877 -2.29107,0.48305 -3.19967,-0.26461 a 0.62629824,0.627318 0 0 0 -0.70697,-0.06 l -6.34674,3.67165 a 0.62629824,0.627318 0 0 0 -0.30579,0.64808 c 0.0252,0.15253 0.038,0.3048 0.038,0.45942 -1.4e-4,0.15453 -0.0125,0.31066 -0.038,0.46308 a 0.62629824,0.627318 0 0 0 0.30579,0.64318 l 6.34674,3.67166 a 0.62629824,0.627318 0 0 0 0.70697,-0.0551 c 0.90855,-0.74807 2.18099,-0.85709 3.19967,-0.26829 1.35445,0.78315 1.81313,2.500079 1.03108,3.85663 -0.78187,1.35665 -2.49234,1.81609 -3.8467,1.03277 -1.01841,-0.58921 -1.56484,-1.74136 -1.37233,-2.9035 a 0.62629824,0.627318 0 0 0 -0.30578,-0.64808 l -6.34675,-3.66798 a 0.62629824,0.627318 0 0 0 -0.71186,0.0563 c -0.239,0.19666 -0.50545,0.35421 -0.79502,0.4631 a 0.62629824,0.627318 0 0 0 -0.4073,0.58804 v 7.33841 a 0.62629824,0.627318 0 0 0 0.4073,0.588039 c 1.10075,0.414341 1.82598,1.465961 1.82611,2.643781 0,1.56618 -1.25687,2.81998 -2.82051,2.8202 -1.56365,2.9e-5 -2.81538,-1.254001 -2.81561,-2.8202 -9e-5,-1.178161 0.72499,-2.229471 1.82612,-2.643781 a 0.62629824,0.627318 0 0 0 0.40729,-0.588039 v -7.33841 a 0.62629824,0.627318 0 0 0 -0.40729,-0.58804 c -0.28908,-0.10886 -0.55639,-0.26678 -0.79503,-0.4631 a 0.62629824,0.627318 0 0 0 -0.71185,-0.0563 l -6.34677,3.67288 a 0.62629824,0.627318 0 0 0 -0.30454,0.64318 c 0.19206,1.16196 -0.35532,2.3145 -1.37356,2.9035 -0.86552,0.50066 -1.92755,0.50681 -2.79727,0.0135 -0.43715,-0.24812 -0.80191,-0.61037 -1.0531,-1.04624 -0.78167,-1.35646 -0.31942,-3.06987 1.03475,-3.85296 1.01845,-0.58877 2.28618,-0.48305 3.19478,0.26462 a 0.62629824,0.627318 0 0 0 0.71186,0.0551 l 6.34675,-3.666759 a 0.62629824,0.627318 0 0 0 0.30578,-0.648081 c -0.0251,-0.15279 -0.0381,-0.30823 -0.0379,-0.463079 1.5e-4,-0.154541 0.0125,-0.307011 0.0379,-0.45942 A 0.62629824,0.627318 0 0 0 28.91409,30.89059 l -6.34675,-3.671649 a 0.62629824,0.627318 0 0 0 -0.71186,0.06 c -0.90856,0.748059 -2.1761,0.85343 -3.19478,0.26461 -1.35444,-0.78314 -1.8168,-2.5013 -1.03475,-3.85786 0.78188,-1.35664 2.49602,-1.81486 3.85037,-1.03153 1.01843,0.58923 1.56608,1.74502 1.37356,2.90718 a 0.62629824,0.627318 0 0 0 0.30454,0.64319 l 6.34677,3.67286 a 0.62629824,0.627318 0 0 0 0.70817,-0.06 c 0.23875,-0.19673 0.50936,-0.35033 0.79871,-0.45942 a 0.62629824,0.627318 0 0 0 0.40729,-0.58805 v -7.34329 a 0.62629824,0.627318 0 0 0 -0.40729,-0.58316 c -1.10075,-0.41433 -1.82596,-1.46597 -1.82612,-2.64378 0,-1.56618 1.25198,-2.82487 2.81561,-2.8251 z" />
  </g>
</svg>
