<?xml version="1.0" encoding="UTF-8" standalone="no"?>
<svg
   xmlns:dc="http://purl.org/dc/elements/1.1/"
   xmlns:cc="http://creativecommons.org/ns#"
   xmlns:rdf="http://www.w3.org/1999/02/22-rdf-syntax-ns#"
   xmlns:svg="http://www.w3.org/2000/svg"
   xmlns="http://www.w3.org/2000/svg"
   xmlns:xlink="http://www.w3.org/1999/xlink"
   xmlns:sodipodi="http://sodipodi.sourceforge.net/DTD/sodipodi-0.dtd"
   xmlns:inkscape="http://www.inkscape.org/namespaces/inkscape"
   width="64"
   height="64"
   viewBox="0 0 64 64"
   version="1.1"
   id="svg6374"
   inkscape:version="1.0.2 (e86c870879, 2021-01-15)"
   sodipodi:docname="media-eject.svg">
  <defs
     id="defs6368">
    <linearGradient
       inkscape:collect="always"
       xlink:href="#linearGradient2658"
       id="linearGradient1929"
       gradientUnits="userSpaceOnUse"
       gradientTransform="rotate(-90,166.62751,767.84917)"
       x1="892.09692"
       y1="632.71039"
       x2="883.12396"
       y2="632.67603" />
    <linearGradient
       inkscape:collect="always"
       id="linearGradient2658">
      <stop
         style="stop-color:#fdfcfb;stop-opacity:0.55000001"
         offset="0"
         id="stop2654" />
      <stop
         style="stop-color:#fcfcfc;stop-opacity:0"
         offset="1"
         id="stop2656" />
    </linearGradient>
    <linearGradient
       inkscape:collect="always"
       xlink:href="#linearGradient2658"
       id="linearGradient2253"
       x1="741.22394"
       y1="823.58893"
       x2="741.59686"
       y2="843.41125"
       gradientUnits="userSpaceOnUse"
       gradientTransform="translate(-709.28256,-812.21365)" />
  </defs>
  <sodipodi:namedview
     id="base"
     pagecolor="#cecece"
     bordercolor="#666666"
     borderopacity="1.0"
     inkscape:pageopacity="0"
     inkscape:pageshadow="2"
     inkscape:zoom="3.8306558"
     inkscape:cx="2.6569011"
     inkscape:cy="47.851486"
     inkscape:document-units="px"
     inkscape:current-layer="layer1"
     inkscape:document-rotation="0"
     showgrid="false"
     units="px"
     inkscape:window-width="1500"
     inkscape:window-height="970"
     inkscape:window-x="68"
     inkscape:window-y="56"
     inkscape:window-maximized="0" />
  <metadata
     id="metadata6371">
    <rdf:RDF>
      <cc:Work
         rdf:about="">
        <dc:format>image/svg+xml</dc:format>
        <dc:type
           rdf:resource="http://purl.org/dc/dcmitype/StillImage" />
        <dc:title></dc:title>
      </cc:Work>
    </rdf:RDF>
  </metadata>
  <g
     inkscape:label="Layer 1"
     inkscape:groupmode="layer"
     id="layer1">
    <path
       id="rect1044-1-2-3-6-2-1"
       style="color:#000000;font-style:normal;font-variant:normal;font-weight:normal;font-stretch:normal;font-size:medium;line-height:normal;font-family:sans-serif;font-variant-ligatures:normal;font-variant-position:normal;font-variant-caps:normal;font-variant-numeric:normal;font-variant-alternates:normal;font-variant-east-asian:normal;font-feature-settings:normal;font-variation-settings:normal;text-indent:0;text-align:start;text-decoration:none;text-decoration-line:none;text-decoration-style:solid;text-decoration-color:#000000;letter-spacing:normal;word-spacing:normal;text-transform:none;writing-mode:lr-tb;direction:ltr;text-orientation:mixed;dominant-baseline:auto;baseline-shift:baseline;text-anchor:start;white-space:normal;shape-padding:0;shape-margin:0;inline-size:0;clip-rule:nonzero;display:inline;overflow:visible;visibility:visible;opacity:0.1;isolation:auto;mix-blend-mode:normal;color-interpolation:sRGB;color-interpolation-filters:linearRGB;solid-color:#000000;solid-opacity:1;vector-effect:none;fill:#0c0c0c;fill-opacity:1;fill-rule:nonzero;stroke:none;stroke-width:0.999902;stroke-linecap:round;stroke-linejoin:round;stroke-miterlimit:4;stroke-dasharray:none;stroke-dashoffset:2.1875;stroke-opacity:1;color-rendering:auto;image-rendering:auto;shape-rendering:auto;text-rendering:auto;enable-background:accumulate;stop-color:#000000"
       d="m 31.928694,11.875467 c -1.25997,0.0183 -2.44528,0.3921 -3.24154,1.24414 l -15.01268,16.07813 c -0.42981,0.46117 -0.69059,1.0664 -0.6737,1.66797 0.0169,0.60157 0.29011,1.14116 0.67175,1.55078 0.76326,0.81924 1.94907,1.24702 3.32552,1.24805 l 29.99802,0.01 c 1.37779,4.7e-4 2.56474,-0.42505 3.32941,-1.24414 0.38235,-0.40954 0.65633,-0.95068 0.6737,-1.55273 0.0174,-0.60206 -0.24153,-1.20636 -0.67174,-1.66797 l -14.98534,-16.08789 c -0.83411,-0.8948 -2.09159,-1.26529 -3.4134,-1.2461 z m 0.0293,2 c 0.87128,-0.0127 1.65918,0.32798 1.9215,0.60938 l 14.98338,16.08789 a 0.99990375,1.0001 0 0 0 0.002,0 c 0.14672,0.15743 0.13773,0.2099 0.13669,0.24609 -0.001,0.0362 -0.0155,0.11423 -0.13865,0.2461 -0.24621,0.26373 -0.93566,0.60969 -1.86681,0.60937 l -29.99608,-0.01 c -0.93017,-7e-4 -1.61762,-0.34805 -1.86291,-0.61133 -0.12265,-0.13164 -0.13762,-0.20797 -0.13864,-0.24414 -10e-4,-0.0362 -0.008,-0.0888 0.13864,-0.2461 h -0.002 l 15.01267,-16.07812 c 0.25073,-0.26828 0.97996,-0.59731 1.8102,-0.60938 z" />
    <path
       id="rect1044-1-2-3-6-2"
       style="color:#000000;font-style:normal;font-variant:normal;font-weight:normal;font-stretch:normal;font-size:medium;line-height:normal;font-family:sans-serif;font-variant-ligatures:normal;font-variant-position:normal;font-variant-caps:normal;font-variant-numeric:normal;font-variant-alternates:normal;font-variant-east-asian:normal;font-feature-settings:normal;font-variation-settings:normal;text-indent:0;text-align:start;text-decoration:none;text-decoration-line:none;text-decoration-style:solid;text-decoration-color:#000000;letter-spacing:normal;word-spacing:normal;text-transform:none;writing-mode:lr-tb;direction:ltr;text-orientation:mixed;dominant-baseline:auto;baseline-shift:baseline;text-anchor:start;white-space:normal;shape-padding:0;shape-margin:0;inline-size:0;clip-rule:nonzero;display:inline;overflow:visible;visibility:visible;opacity:0.85;isolation:auto;mix-blend-mode:normal;color-interpolation:sRGB;color-interpolation-filters:linearRGB;solid-color:#000000;solid-opacity:1;vector-effect:none;fill:#4c4c4d;fill-opacity:1;fill-rule:nonzero;stroke:none;stroke-width:0.999902;stroke-linecap:round;stroke-linejoin:round;stroke-miterlimit:4;stroke-dasharray:none;stroke-dashoffset:2.1875;stroke-opacity:1;color-rendering:auto;image-rendering:auto;shape-rendering:auto;text-rendering:auto;enable-background:accumulate;stop-color:#000000"
       d="m 31.928694,10.375467 c -1.25997,0.0183 -2.44528,0.3921 -3.24154,1.24414 l -15.01268,16.07813 c -0.42981,0.46117 -0.69059,1.0664 -0.6737,1.66797 0.0169,0.60157 0.29011,1.14116 0.67175,1.55078 0.76326,0.81924 1.94907,1.24702 3.32552,1.24805 l 29.99802,0.01 c 1.37779,4.7e-4 2.56474,-0.42505 3.32941,-1.24414 0.38235,-0.40954 0.65633,-0.95068 0.6737,-1.55273 0.0174,-0.60206 -0.24153,-1.20636 -0.67174,-1.66797 l -14.98534,-16.08789 c -0.83411,-0.8948 -2.09159,-1.26529 -3.4134,-1.2461 z m 0.0293,2 c 0.87128,-0.0127 1.65918,0.32798 1.9215,0.60938 l 14.98338,16.08789 a 0.99990375,1.0001 0 0 0 0.002,0 c 0.14672,0.15743 0.13773,0.2099 0.13669,0.24609 -0.001,0.0362 -0.0155,0.11423 -0.13865,0.2461 -0.24621,0.26373 -0.93566,0.60969 -1.86681,0.60937 l -29.99608,-0.01 c -0.93017,-7e-4 -1.61762,-0.34805 -1.86291,-0.61133 -0.12265,-0.13164 -0.13762,-0.20797 -0.13864,-0.24414 -10e-4,-0.0362 -0.008,-0.0888 0.13864,-0.2461 h -0.002 l 15.01267,-16.07812 c 0.25073,-0.26828 0.97996,-0.59731 1.8102,-0.60938 z" />
    <path
       style="fill:#a0a0a2;fill-opacity:1;stroke-width:4.04998;stroke-linecap:round;stroke-linejoin:round;stroke-dashoffset:2.1875"
       d="m 31.942884,11.375517 a 2.999604,1.8565326 1.3075649e-6 0 0 -2.52601,0.92634 l -15.01545,16.0783 a 2.999604,1.8565326 1.3075649e-6 0 0 2.59457,2.78431 l 30.00277,0.0105 a 2.999604,1.8565326 1.3075649e-6 0 0 2.59984,-2.7843 l -14.98733,-16.08706 a 2.999604,1.8565326 1.3075649e-6 0 0 -2.66839,-0.9281 z"
       id="rect1044-1-2-3" />
    <path
       id="rect1304-1-6-7-7-8-5-9-96-7"
       style="color:#000000;font-style:normal;font-variant:normal;font-weight:normal;font-stretch:normal;font-size:medium;line-height:normal;font-family:sans-serif;font-variant-ligatures:normal;font-variant-position:normal;font-variant-caps:normal;font-variant-numeric:normal;font-variant-alternates:normal;font-variant-east-asian:normal;font-feature-settings:normal;font-variation-settings:normal;text-indent:0;text-align:start;text-decoration:none;text-decoration-line:none;text-decoration-style:solid;text-decoration-color:#000000;letter-spacing:normal;word-spacing:normal;text-transform:none;writing-mode:lr-tb;direction:ltr;text-orientation:mixed;dominant-baseline:auto;baseline-shift:baseline;text-anchor:start;white-space:normal;shape-padding:0;shape-margin:0;inline-size:0;clip-rule:nonzero;display:inline;overflow:visible;visibility:visible;opacity:0.1;isolation:auto;mix-blend-mode:normal;color-interpolation:sRGB;color-interpolation-filters:linearRGB;solid-color:#000000;solid-opacity:1;vector-effect:none;fill:#0c0c0c;fill-opacity:1;fill-rule:nonzero;stroke:none;stroke-linecap:round;stroke-linejoin:round;stroke-miterlimit:4;stroke-dasharray:none;stroke-dashoffset:2.1875;stroke-opacity:1;color-rendering:auto;image-rendering:auto;shape-rendering:auto;text-rendering:auto;enable-background:accumulate;stop-color:#000000"
       d="m 13.000004,50.624997 c 0,1.64469 1.3553,3 3,3 h 32 c 1.64471,0 3,-1.35531 3,-3 v -4.75 c 0,-1.6447 -1.35529,-3 -3,-3 h -32 c -1.6447,0 -3,1.3553 -3,3 z m 2,0 v -4.75 c 0,-0.5713 0.42871,-1 1,-1 h 32 c 0.5713,0 1,0.4287 1,1 v 4.75 c 0,0.57129 -0.4287,1 -1,1 h -32 c -0.57129,0 -1,-0.42871 -1,-1 z" />
    <path
       id="rect1304-1-6-7-7-8-4-0"
       style="color:#000000;font-style:normal;font-variant:normal;font-weight:normal;font-stretch:normal;font-size:medium;line-height:normal;font-family:sans-serif;font-variant-ligatures:normal;font-variant-position:normal;font-variant-caps:normal;font-variant-numeric:normal;font-variant-alternates:normal;font-variant-east-asian:normal;font-feature-settings:normal;font-variation-settings:normal;text-indent:0;text-align:start;text-decoration:none;text-decoration-line:none;text-decoration-style:solid;text-decoration-color:#000000;letter-spacing:normal;word-spacing:normal;text-transform:none;writing-mode:lr-tb;direction:ltr;text-orientation:mixed;dominant-baseline:auto;baseline-shift:baseline;text-anchor:start;white-space:normal;shape-padding:0;shape-margin:0;inline-size:0;clip-rule:nonzero;display:inline;overflow:visible;visibility:visible;opacity:0.85;isolation:auto;mix-blend-mode:normal;color-interpolation:sRGB;color-interpolation-filters:linearRGB;solid-color:#000000;solid-opacity:1;vector-effect:none;fill:#4c4c4d;fill-opacity:1;fill-rule:nonzero;stroke:none;stroke-linecap:round;stroke-linejoin:round;stroke-miterlimit:4;stroke-dasharray:none;stroke-dashoffset:2.1875;stroke-opacity:1;color-rendering:auto;image-rendering:auto;shape-rendering:auto;text-rendering:auto;enable-background:accumulate;stop-color:#000000"
       d="m 13.000044,49.124997 c 0,1.64469 1.3553,3 3,3 h 32 c 1.64471,0 3,-1.35531 3,-3 v -4.75 c 0,-1.6447 -1.35529,-3 -3,-3 h -32 c -1.6447,0 -3,1.3553 -3,3 z m 2,0 v -4.75 c 0,-0.5713 0.42871,-1 1,-1 h 32 c 0.5713,0 1,0.4287 1,1 v 4.75 c 0,0.57129 -0.4287,1 -1,1 h -32 c -0.57129,0 -1,-0.42871 -1,-1 z" />
    <rect
       style="fill:#a0a0a2;fill-opacity:1;stroke:none;stroke-width:2;stroke-linecap:round;stroke-linejoin:round;stroke-miterlimit:4;stroke-dasharray:none;stroke-opacity:1"
       id="rect1956"
       width="36"
       height="8.75"
       x="14.000003"
       y="42.374996"
       rx="2"
       ry="2" />
    <path
       id="rect1304-1-6-7-7-8-5-3-3"
       style="color:#000000;font-style:normal;font-variant:normal;font-weight:normal;font-stretch:normal;font-size:medium;line-height:normal;font-family:sans-serif;font-variant-ligatures:normal;font-variant-position:normal;font-variant-caps:normal;font-variant-numeric:normal;font-variant-alternates:normal;font-variant-east-asian:normal;font-feature-settings:normal;font-variation-settings:normal;text-indent:0;text-align:start;text-decoration:none;text-decoration-line:none;text-decoration-style:solid;text-decoration-color:#000000;letter-spacing:normal;word-spacing:normal;text-transform:none;writing-mode:lr-tb;direction:ltr;text-orientation:mixed;dominant-baseline:auto;baseline-shift:baseline;text-anchor:start;white-space:normal;shape-padding:0;shape-margin:0;inline-size:0;clip-rule:nonzero;display:inline;overflow:visible;visibility:visible;opacity:0.25;isolation:auto;mix-blend-mode:normal;color-interpolation:sRGB;color-interpolation-filters:linearRGB;solid-color:#000000;solid-opacity:1;vector-effect:none;fill:#4c4c4d;fill-opacity:1;fill-rule:nonzero;stroke:none;stroke-linecap:round;stroke-linejoin:round;stroke-miterlimit:4;stroke-dasharray:none;stroke-dashoffset:2.1875;stroke-opacity:1;color-rendering:auto;image-rendering:auto;shape-rendering:auto;text-rendering:auto;enable-background:accumulate;stop-color:#000000"
       d="m 13.000004,49.124997 c 0,1.64469 1.3553,3 3,3 h 32 c 1.64471,0 3,-1.35531 3,-3 v -4.75 c 0,-1.6447 -1.35529,-3 -3,-3 h -32 c -1.6447,0 -3,1.3553 -3,3 z m 2,0 v -4.75 c 0,-0.5713 0.42871,-1 1,-1 h 32 c 0.5713,0 1,0.4287 1,1 v 4.75 c 0,0.57129 -0.4287,1 -1,1 h -32 c -0.57129,0 -1,-0.42871 -1,-1 z" />
    <path
       id="rect1304-1-6-7-7-8-2-38-6"
       style="color:#000000;font-style:normal;font-variant:normal;font-weight:normal;font-stretch:normal;font-size:medium;line-height:normal;font-family:sans-serif;font-variant-ligatures:normal;font-variant-position:normal;font-variant-caps:normal;font-variant-numeric:normal;font-variant-alternates:normal;font-variant-east-asian:normal;font-feature-settings:normal;font-variation-settings:normal;text-indent:0;text-align:start;text-decoration:none;text-decoration-line:none;text-decoration-style:solid;text-decoration-color:#000000;letter-spacing:normal;word-spacing:normal;text-transform:none;writing-mode:lr-tb;direction:ltr;text-orientation:mixed;dominant-baseline:auto;baseline-shift:baseline;text-anchor:start;white-space:normal;shape-padding:0;shape-margin:0;inline-size:0;clip-rule:nonzero;display:inline;overflow:visible;visibility:visible;isolation:auto;mix-blend-mode:normal;color-interpolation:sRGB;color-interpolation-filters:linearRGB;solid-color:#000000;solid-opacity:1;vector-effect:none;fill:url(#linearGradient1929);fill-opacity:1;fill-rule:nonzero;stroke:none;stroke-linecap:round;stroke-linejoin:round;stroke-miterlimit:4;stroke-dasharray:none;stroke-dashoffset:2.1875;stroke-opacity:1;color-rendering:auto;image-rendering:auto;shape-rendering:auto;text-rendering:auto;enable-background:accumulate;stop-color:#000000"
       d="m 14.000044,49.124997 c 0,1.10799 0.892,2 2,2 h 32 c 1.108,0 2,-0.89201 2,-2 v -4.75 c 0,-1.108 -0.892,-2 -2,-2 h -32 c -1.108,0 -2,0.892 -2,2 z m 1,0 v -4.75 c 0,-0.5713 0.42871,-1 1,-1 h 32 c 0.5713,0 1,0.4287 1,1 v 4.75 c 0,0.57129 -0.4287,1 -1,1 h -32 c -0.57129,0 -1,-0.42871 -1,-1 z" />
    <path
       id="rect1044-1-2-3-6-2-6"
       style="color:#000000;font-style:normal;font-variant:normal;font-weight:normal;font-stretch:normal;font-size:medium;line-height:normal;font-family:sans-serif;font-variant-ligatures:normal;font-variant-position:normal;font-variant-caps:normal;font-variant-numeric:normal;font-variant-alternates:normal;font-variant-east-asian:normal;font-feature-settings:normal;font-variation-settings:normal;text-indent:0;text-align:start;text-decoration:none;text-decoration-line:none;text-decoration-style:solid;text-decoration-color:#000000;letter-spacing:normal;word-spacing:normal;text-transform:none;writing-mode:lr-tb;direction:ltr;text-orientation:mixed;dominant-baseline:auto;baseline-shift:baseline;text-anchor:start;white-space:normal;shape-padding:0;shape-margin:0;inline-size:0;clip-rule:nonzero;display:inline;overflow:visible;visibility:visible;opacity:0.25;isolation:auto;mix-blend-mode:normal;color-interpolation:sRGB;color-interpolation-filters:linearRGB;solid-color:#000000;solid-opacity:1;vector-effect:none;fill:#4c4c4d;fill-opacity:1;fill-rule:nonzero;stroke:none;stroke-width:0.999902;stroke-linecap:round;stroke-linejoin:round;stroke-miterlimit:4;stroke-dasharray:none;stroke-dashoffset:2.1875;stroke-opacity:1;color-rendering:auto;image-rendering:auto;shape-rendering:auto;text-rendering:auto;enable-background:accumulate;stop-color:#000000"
       d="m 31.928694,10.375467 c -1.25997,0.0183 -2.44528,0.3921 -3.24154,1.24414 l -15.01268,16.07813 c -0.42981,0.46118 -0.69059,1.06641 -0.6737,1.66797 0.0169,0.60157 0.29011,1.14116 0.67175,1.55078 0.76326,0.81924 1.94907,1.24702 3.32552,1.24805 l 29.99802,0.01 c 1.37779,4.7e-4 2.56474,-0.42505 3.32941,-1.24414 0.38235,-0.40954 0.65633,-0.95068 0.6737,-1.55273 0.0174,-0.60206 -0.24153,-1.20636 -0.67174,-1.66796 l -14.98534,-16.0879 c -0.83411,-0.8948 -2.09159,-1.26529 -3.4134,-1.24609 z m 0.0293,2 c 0.87128,-0.0127 1.65918,0.32798 1.9215,0.60938 l 14.98338,16.08789 a 0.99990375,1.0001 0 0 0 0.002,0 c 0.14672,0.15743 0.13773,0.2099 0.13669,0.24609 -0.001,0.0362 -0.0155,0.11423 -0.13865,0.2461 -0.24621,0.26373 -0.93566,0.60969 -1.86681,0.60937 l -29.99608,-0.01 c -0.93017,-7e-4 -1.61762,-0.34805 -1.86291,-0.61133 -0.12265,-0.13163 -0.13762,-0.20797 -0.13864,-0.24414 -10e-4,-0.0362 -0.008,-0.0888 0.13864,-0.2461 h -0.002 l 15.01267,-16.07812 c 0.25073,-0.26828 0.97996,-0.59731 1.8102,-0.60938 z" />
    <path
       id="rect1044-1-2-3-6-2-1-3-1"
       style="color:#000000;font-style:normal;font-variant:normal;font-weight:normal;font-stretch:normal;font-size:medium;line-height:normal;font-family:sans-serif;font-variant-ligatures:normal;font-variant-position:normal;font-variant-caps:normal;font-variant-numeric:normal;font-variant-alternates:normal;font-variant-east-asian:normal;font-feature-settings:normal;font-variation-settings:normal;text-indent:0;text-align:start;text-decoration:none;text-decoration-line:none;text-decoration-style:solid;text-decoration-color:#000000;letter-spacing:normal;word-spacing:normal;text-transform:none;writing-mode:lr-tb;direction:ltr;text-orientation:mixed;dominant-baseline:auto;baseline-shift:baseline;text-anchor:start;white-space:normal;shape-padding:0;shape-margin:0;inline-size:0;clip-rule:nonzero;display:inline;overflow:visible;visibility:visible;isolation:auto;mix-blend-mode:normal;color-interpolation:sRGB;color-interpolation-filters:linearRGB;solid-color:#000000;solid-opacity:1;vector-effect:none;fill:url(#linearGradient2253);fill-opacity:1;fill-rule:nonzero;stroke:none;stroke-width:0.99987;stroke-linecap:round;stroke-linejoin:round;stroke-miterlimit:4;stroke-dasharray:none;stroke-dashoffset:2.1875;stroke-opacity:1;color-rendering:auto;image-rendering:auto;shape-rendering:auto;text-rendering:auto;enable-background:accumulate;stop-color:#000000"
       d="m 31.941404,11.375287 a 2.999604,1.8564135 1.3073769e-6 0 0 -2.52539,0.92767 l -15.01563,16.0771 a 2.999604,1.8564135 1.3073769e-6 0 0 2.59375,2.78302 l 30.00391,0.0117 a 2.999604,1.8564135 1.3073769e-6 0 0 2.59961,-2.78498 l -14.98828,-16.08684 a 2.999604,1.8564135 1.3073769e-6 0 0 -2.66797,-0.92767 z m 0.0156,0.99994 c 0.87128,-0.0127 1.65956,0.32795 1.92188,0.60934 l 14.98437,16.08686 a 0.99990375,1.0000359 0 0 0 0.002,0 c 0.14672,0.15741 0.13776,0.20988 0.13672,0.24607 -9.9e-4,0.0362 -0.0155,0.11421 -0.13867,0.24607 -0.24621,0.26372 -0.93604,0.60966 -1.86719,0.60934 l -29.99612,-0.01 c -0.93017,-7e-4 -1.61798,-0.34803 -1.86328,-0.6113 -0.12265,-0.13163 -0.13765,-0.20795 -0.13867,-0.24412 -10e-4,-0.0362 -0.008,-0.0888 0.13867,-0.24607 h -0.002 l 15.01367,-16.07709 c 0.25073,-0.26828 0.97835,-0.59727 1.80859,-0.60934 z" />
  </g>
</svg>
