<?xml version="1.0" encoding="UTF-8" standalone="no"?>
<svg
   xmlns:dc="http://purl.org/dc/elements/1.1/"
   xmlns:cc="http://creativecommons.org/ns#"
   xmlns:rdf="http://www.w3.org/1999/02/22-rdf-syntax-ns#"
   xmlns:svg="http://www.w3.org/2000/svg"
   xmlns="http://www.w3.org/2000/svg"
   xmlns:sodipodi="http://sodipodi.sourceforge.net/DTD/sodipodi-0.dtd"
   xmlns:inkscape="http://www.inkscape.org/namespaces/inkscape"
   width="64"
   height="64"
   viewBox="0 0 16.933333 16.933334"
   version="1.1"
   id="svg841"
   inkscape:version="1.0.2 (e86c870879, 2021-01-15)"
   sodipodi:docname="active-notes.svg">
  <defs
     id="defs835" />
  <sodipodi:namedview
     id="base"
     pagecolor="#c4c4c4"
     bordercolor="#666666"
     borderopacity="1.0"
     inkscape:pageopacity="0"
     inkscape:pageshadow="2"
     inkscape:zoom="2.8903394"
     inkscape:cx="46.372831"
     inkscape:cy="36.927888"
     inkscape:document-units="px"
     inkscape:current-layer="layer1"
     inkscape:document-rotation="0"
     showgrid="false"
     units="px"
     inkscape:window-width="2048"
     inkscape:window-height="1080"
     inkscape:window-x="0"
     inkscape:window-y="0"
     inkscape:window-maximized="1" />
  <metadata
     id="metadata838">
    <rdf:RDF>
      <cc:Work
         rdf:about="">
        <dc:format>image/svg+xml</dc:format>
        <dc:type
           rdf:resource="http://purl.org/dc/dcmitype/StillImage" />
        <dc:title></dc:title>
      </cc:Work>
    </rdf:RDF>
  </metadata>
  <g
     inkscape:label="Layer 1"
     inkscape:groupmode="layer"
     id="layer1">
    <path
       id="rect2480-2-6-5-9-6-0-8-4-0-6"
       style="color:#000000;font-style:normal;font-variant:normal;font-weight:normal;font-stretch:normal;font-size:medium;line-height:normal;font-family:sans-serif;font-variant-ligatures:normal;font-variant-position:normal;font-variant-caps:normal;font-variant-numeric:normal;font-variant-alternates:normal;font-variant-east-asian:normal;font-feature-settings:normal;font-variation-settings:normal;text-indent:0;text-align:start;text-decoration:none;text-decoration-line:none;text-decoration-style:solid;text-decoration-color:#000000;letter-spacing:normal;word-spacing:normal;text-transform:none;writing-mode:lr-tb;direction:ltr;text-orientation:mixed;dominant-baseline:auto;baseline-shift:baseline;text-anchor:start;white-space:normal;shape-padding:0;shape-margin:0;inline-size:0;clip-rule:nonzero;display:inline;overflow:visible;visibility:visible;opacity:0.25;isolation:auto;mix-blend-mode:normal;color-interpolation:sRGB;color-interpolation-filters:linearRGB;solid-color:#000000;solid-opacity:1;vector-effect:none;fill:#0c0c10;fill-opacity:1;fill-rule:nonzero;stroke:none;stroke-width:1.00003;stroke-linecap:round;stroke-linejoin:round;stroke-miterlimit:4;stroke-dasharray:none;stroke-dashoffset:2.1875;stroke-opacity:1;color-rendering:auto;image-rendering:auto;shape-rendering:auto;text-rendering:auto;enable-background:accumulate;stop-color:#000000"
       d="m 3.1739681,0.5953125 c -0.652743,0 -1.1895931,0.536366 -1.1895931,1.1891513 V 15.545229 c 0,0.652785 0.5368501,1.18967 1.1895931,1.189667 H 13.757818 c 0.65274,0 1.191141,-0.536882 1.191141,-1.189667 V 1.7844638 c 0,-0.6527853 -0.538401,-1.1891513 -1.191141,-1.1891513 z m 0,0.7927658 H 13.757818 c 0.226732,0 0.396359,0.1696349 0.396359,0.3963829 V 15.545226 c 0,0.226748 -0.169627,0.396383 -0.396359,0.396383 H 3.1739681 c -0.2267347,0 -0.396875,-0.169635 -0.396875,-0.396383 V 1.7844612 c 0,-0.226748 0.1701403,-0.3963829 0.396875,-0.3963829 z" />
    <path
       id="rect2480-2-6-5-9-6-2-9-0-0-5-2"
       style="color:#000000;font-style:normal;font-variant:normal;font-weight:normal;font-stretch:normal;font-size:medium;line-height:normal;font-family:sans-serif;font-variant-ligatures:normal;font-variant-position:normal;font-variant-caps:normal;font-variant-numeric:normal;font-variant-alternates:normal;font-variant-east-asian:normal;font-feature-settings:normal;font-variation-settings:normal;text-indent:0;text-align:start;text-decoration:none;text-decoration-line:none;text-decoration-style:solid;text-decoration-color:#000000;letter-spacing:normal;word-spacing:normal;text-transform:none;writing-mode:lr-tb;direction:ltr;text-orientation:mixed;dominant-baseline:auto;baseline-shift:baseline;text-anchor:start;white-space:normal;shape-padding:0;shape-margin:0;inline-size:0;clip-rule:nonzero;display:inline;overflow:visible;visibility:visible;opacity:0.9;isolation:auto;mix-blend-mode:normal;color-interpolation:sRGB;color-interpolation-filters:linearRGB;solid-color:#000000;solid-opacity:1;vector-effect:none;fill:#256a5b;fill-opacity:1;fill-rule:nonzero;stroke:none;stroke-width:1.00003;stroke-linecap:round;stroke-linejoin:round;stroke-miterlimit:4;stroke-dasharray:none;stroke-dashoffset:2.1875;stroke-opacity:1;color-rendering:auto;image-rendering:auto;shape-rendering:auto;text-rendering:auto;enable-background:accumulate;stop-color:#000000"
       d="m 3.1739681,0.1984375 c -0.652743,0 -1.1895931,0.536366 -1.1895931,1.1891513 V 15.148354 c 0,0.652785 0.5368501,1.18967 1.1895931,1.189667 H 13.757818 c 0.65274,0 1.191141,-0.536882 1.191141,-1.189667 V 1.3875888 c 0,-0.6527853 -0.538401,-1.1891513 -1.191141,-1.1891513 z m 0,0.7927658 H 13.757818 c 0.226732,0 0.396359,0.1696349 0.396359,0.3963829 V 15.148351 c 0,0.226748 -0.169627,0.396383 -0.396359,0.396383 H 3.1739681 c -0.2267347,0 -0.396875,-0.169635 -0.396875,-0.396383 V 1.3875862 c 0,-0.226748 0.1701403,-0.3963829 0.396875,-0.3963829 z" />
    <rect
       style="fill:#fcf5b6;fill-opacity:1;stroke:none;stroke-width:0;stroke-linecap:round;stroke-linejoin:round;stroke-miterlimit:4;stroke-dasharray:none;stroke-dashoffset:2.1875;stroke-opacity:1"
       id="rect2480-2-6-5-2-2-3-6-6"
       width="12.170834"
       height="15.345834"
       x="2.3812661"
       y="0.5953126"
       rx="0.79375005"
       ry="0.79375005" />
    <rect
       style="opacity:0.25;fill:#0c0c0c;fill-opacity:1;stroke:none;stroke-width:0;stroke-linecap:round;stroke-linejoin:round;stroke-miterlimit:4;stroke-dasharray:none;stroke-dashoffset:2.1875;stroke-opacity:1"
       id="rect3498-5-21-1"
       width="7.9375"
       height="1.0583334"
       x="4.4979167"
       y="6.4161458"
       rx="0.5291667"
       ry="0.5291667" />
    <rect
       style="opacity:0.2;fill:#0c0c0c;fill-opacity:1;stroke:none;stroke-width:0;stroke-linecap:round;stroke-linejoin:round;stroke-miterlimit:4;stroke-dasharray:none;stroke-dashoffset:2.1875;stroke-opacity:1"
       id="rect3576-5-9-4"
       width="12.170834"
       height="0.39687502"
       x="2.3812499"
       y="3.1750002" />
    <path
       style="opacity:0.65;fill:#3baa92;fill-opacity:1;stroke:none;stroke-width:0;stroke-linecap:round;stroke-linejoin:round;stroke-miterlimit:4;stroke-dasharray:none;stroke-dashoffset:2.1875;stroke-opacity:1"
       d="m 3.1750053,0.5953125 c -0.4397349,0 -0.79375,0.3540125 -0.79375,0.79375 V 2.9765626 H 14.552092 V 1.3890625 c 0,-0.4397375 -0.354016,-0.79375 -0.79375,-0.79375 z"
       id="rect2480-2-6-5-5-4-9-0-33-8-7" />
    <rect
       style="fill:#277262;fill-opacity:1;stroke:none;stroke-width:0;stroke-linecap:round;stroke-linejoin:round;stroke-miterlimit:4;stroke-dasharray:none;stroke-dashoffset:2.1875;stroke-opacity:1"
       id="rect3498-5-10-9-6-5"
       width="7.9375"
       height="1.0583334"
       x="4.4979167"
       y="6.1515622"
       rx="0.5291667"
       ry="0.5291667" />
    <rect
       style="opacity:0.25;fill:#0c0c0c;fill-opacity:1;stroke:none;stroke-width:0;stroke-linecap:round;stroke-linejoin:round;stroke-miterlimit:4;stroke-dasharray:none;stroke-dashoffset:2.1875;stroke-opacity:1"
       id="rect3498-7-4-5-0"
       width="5.291667"
       height="1.0583334"
       x="4.4979167"
       y="9.3927078"
       rx="0.5291667"
       ry="0.5291667" />
    <rect
       style="fill:#277262;fill-opacity:1;stroke:none;stroke-width:0;stroke-linecap:round;stroke-linejoin:round;stroke-miterlimit:4;stroke-dasharray:none;stroke-dashoffset:2.1875;stroke-opacity:1"
       id="rect3498-7-4-5-19-4-6"
       width="5.291667"
       height="1.0583334"
       x="4.4979167"
       y="9.1281252"
       rx="0.5291667"
       ry="0.5291667" />
    <rect
       style="opacity:0.25;fill:#0c0c0c;fill-opacity:1;stroke:none;stroke-width:0;stroke-linecap:round;stroke-linejoin:round;stroke-miterlimit:4;stroke-dasharray:none;stroke-dashoffset:2.1875;stroke-opacity:1"
       id="rect3498-8-0-9-7"
       width="6.8791666"
       height="1.0583334"
       x="4.4979167"
       y="12.36927"
       rx="0.5291667"
       ry="0.5291667" />
    <rect
       style="fill:#277262;fill-opacity:1;stroke:none;stroke-width:0;stroke-linecap:round;stroke-linejoin:round;stroke-miterlimit:4;stroke-dasharray:none;stroke-dashoffset:2.1875;stroke-opacity:1"
       id="rect3498-8-0-1-6-0-9"
       width="6.8791666"
       height="1.0583334"
       x="4.4979167"
       y="12.104688"
       rx="0.5291667"
       ry="0.5291667" />
    <rect
       style="opacity:0.9;fill:#256a5b;fill-opacity:1;stroke:none;stroke-width:0;stroke-linecap:round;stroke-linejoin:round;stroke-miterlimit:4;stroke-dasharray:none;stroke-dashoffset:2.1875;stroke-opacity:1"
       id="rect3576-5-1-9-0-8"
       width="12.170834"
       height="0.39687502"
       x="2.3812661"
       y="2.9765625" />
  </g>
</svg>
