<?xml version="1.0" encoding="UTF-8" standalone="no"?>
<svg
   xmlns:dc="http://purl.org/dc/elements/1.1/"
   xmlns:cc="http://creativecommons.org/ns#"
   xmlns:rdf="http://www.w3.org/1999/02/22-rdf-syntax-ns#"
   xmlns:svg="http://www.w3.org/2000/svg"
   xmlns="http://www.w3.org/2000/svg"
   xmlns:sodipodi="http://sodipodi.sourceforge.net/DTD/sodipodi-0.dtd"
   xmlns:inkscape="http://www.inkscape.org/namespaces/inkscape"
   width="64"
   height="64"
   viewBox="0 0 16.933333 16.933334"
   version="1.1"
   id="svg841"
   inkscape:version="1.0.2 (e86c870879, 2021-01-15)"
   sodipodi:docname="special-notes.svg">
  <defs
     id="defs835" />
  <sodipodi:namedview
     id="base"
     pagecolor="#c4c4c4"
     bordercolor="#666666"
     borderopacity="1.0"
     inkscape:pageopacity="0"
     inkscape:pageshadow="2"
     inkscape:zoom="2.8903394"
     inkscape:cx="46.372831"
     inkscape:cy="36.927888"
     inkscape:document-units="px"
     inkscape:current-layer="layer1"
     inkscape:document-rotation="0"
     showgrid="false"
     units="px"
     inkscape:window-width="2048"
     inkscape:window-height="1080"
     inkscape:window-x="0"
     inkscape:window-y="0"
     inkscape:window-maximized="1" />
  <metadata
     id="metadata838">
    <rdf:RDF>
      <cc:Work
         rdf:about="">
        <dc:format>image/svg+xml</dc:format>
        <dc:type
           rdf:resource="http://purl.org/dc/dcmitype/StillImage" />
        <dc:title></dc:title>
      </cc:Work>
    </rdf:RDF>
  </metadata>
  <g
     inkscape:label="Layer 1"
     inkscape:groupmode="layer"
     id="layer1">
    <path
       id="rect2480-2-6-5-9-6-0-5-7"
       style="color:#000000;font-style:normal;font-variant:normal;font-weight:normal;font-stretch:normal;font-size:medium;line-height:normal;font-family:sans-serif;font-variant-ligatures:normal;font-variant-position:normal;font-variant-caps:normal;font-variant-numeric:normal;font-variant-alternates:normal;font-variant-east-asian:normal;font-feature-settings:normal;font-variation-settings:normal;text-indent:0;text-align:start;text-decoration:none;text-decoration-line:none;text-decoration-style:solid;text-decoration-color:#000000;letter-spacing:normal;word-spacing:normal;text-transform:none;writing-mode:lr-tb;direction:ltr;text-orientation:mixed;dominant-baseline:auto;baseline-shift:baseline;text-anchor:start;white-space:normal;shape-padding:0;shape-margin:0;inline-size:0;clip-rule:nonzero;display:inline;overflow:visible;visibility:visible;opacity:0.25;isolation:auto;mix-blend-mode:normal;color-interpolation:sRGB;color-interpolation-filters:linearRGB;solid-color:#000000;solid-opacity:1;vector-effect:none;fill:#0c0c10;fill-opacity:1;fill-rule:nonzero;stroke:none;stroke-width:1.00003;stroke-linecap:round;stroke-linejoin:round;stroke-miterlimit:4;stroke-dasharray:none;stroke-dashoffset:2.1875;stroke-opacity:1;color-rendering:auto;image-rendering:auto;shape-rendering:auto;text-rendering:auto;enable-background:accumulate;stop-color:#000000"
       d="m 3.1739681,0.59531253 c -0.652743,0 -1.1895931,0.53636597 -1.1895931,1.18915127 V 15.545229 c 0,0.652785 0.5368501,1.18967 1.1895931,1.189667 H 13.757818 c 0.65274,0 1.191141,-0.536882 1.191141,-1.189667 V 1.7844638 c 0,-0.6527853 -0.538401,-1.18915127 -1.191141,-1.18915127 z m 0,0.79276567 H 13.757818 c 0.226732,0 0.396359,0.169635 0.396359,0.3963829 V 15.545227 c 0,0.226747 -0.169627,0.396382 -0.396359,0.396382 H 3.1739681 c -0.2267347,0 -0.396875,-0.169635 -0.396875,-0.396382 V 1.7844611 c 0,-0.2267479 0.1701403,-0.3963829 0.396875,-0.3963829 z" />
    <path
       id="rect2480-2-6-5-9-6-2-9-4-2"
       style="color:#000000;font-style:normal;font-variant:normal;font-weight:normal;font-stretch:normal;font-size:medium;line-height:normal;font-family:sans-serif;font-variant-ligatures:normal;font-variant-position:normal;font-variant-caps:normal;font-variant-numeric:normal;font-variant-alternates:normal;font-variant-east-asian:normal;font-feature-settings:normal;font-variation-settings:normal;text-indent:0;text-align:start;text-decoration:none;text-decoration-line:none;text-decoration-style:solid;text-decoration-color:#000000;letter-spacing:normal;word-spacing:normal;text-transform:none;writing-mode:lr-tb;direction:ltr;text-orientation:mixed;dominant-baseline:auto;baseline-shift:baseline;text-anchor:start;white-space:normal;shape-padding:0;shape-margin:0;inline-size:0;clip-rule:nonzero;display:inline;overflow:visible;visibility:visible;opacity:0.9;isolation:auto;mix-blend-mode:normal;color-interpolation:sRGB;color-interpolation-filters:linearRGB;solid-color:#000000;solid-opacity:1;vector-effect:none;fill:#642b40;fill-opacity:1;fill-rule:nonzero;stroke:none;stroke-width:1.00003;stroke-linecap:round;stroke-linejoin:round;stroke-miterlimit:4;stroke-dasharray:none;stroke-dashoffset:2.1875;stroke-opacity:1;color-rendering:auto;image-rendering:auto;shape-rendering:auto;text-rendering:auto;enable-background:accumulate;stop-color:#000000"
       d="m 3.1739681,0.1984375 c -0.652743,0 -1.1895931,0.53636603 -1.1895931,1.1891513 V 15.148354 c 0,0.652783 0.5368501,1.18967 1.1895931,1.189667 H 13.757818 c 0.65274,0 1.191141,-0.536887 1.191141,-1.189667 V 1.3875888 c 0,-0.65278527 -0.538401,-1.1891513 -1.191141,-1.1891513 z m 0,0.79276573 H 13.757818 c 0.226732,0 0.396359,0.16963497 0.396359,0.39638287 V 15.148352 c 0,0.226747 -0.169627,0.396382 -0.396359,0.396382 H 3.1739681 c -0.2267347,0 -0.396875,-0.169635 -0.396875,-0.396382 V 1.3875861 c 0,-0.2267479 0.1701403,-0.39638287 0.396875,-0.39638287 z" />
    <rect
       style="fill:#fcf5b6;fill-opacity:1;stroke:none;stroke-width:0;stroke-linecap:round;stroke-linejoin:round;stroke-miterlimit:4;stroke-dasharray:none;stroke-dashoffset:2.1875;stroke-opacity:1"
       id="rect2480-2-6-5-2-8-8"
       width="12.170834"
       height="15.345834"
       x="2.3812661"
       y="0.59531248"
       rx="0.79375005"
       ry="0.79375005" />
    <rect
       style="opacity:0.2;fill:#0c0c0c;fill-opacity:1;stroke:none;stroke-width:0;stroke-linecap:round;stroke-linejoin:round;stroke-miterlimit:4;stroke-dasharray:none;stroke-dashoffset:2.1875;stroke-opacity:1"
       id="rect3576-5-9-9"
       width="12.170834"
       height="0.39687502"
       x="2.3812499"
       y="3.175" />
    <path
       id="rect1475-9-6-4-0-2-7-6"
       style="color:#000000;font-style:normal;font-variant:normal;font-weight:normal;font-stretch:normal;font-size:medium;line-height:normal;font-family:sans-serif;font-variant-ligatures:normal;font-variant-position:normal;font-variant-caps:normal;font-variant-numeric:normal;font-variant-alternates:normal;font-variant-east-asian:normal;font-feature-settings:normal;font-variation-settings:normal;text-indent:0;text-align:start;text-decoration:none;text-decoration-line:none;text-decoration-style:solid;text-decoration-color:#000000;letter-spacing:normal;word-spacing:normal;text-transform:none;writing-mode:lr-tb;direction:ltr;text-orientation:mixed;dominant-baseline:auto;baseline-shift:baseline;text-anchor:start;white-space:normal;shape-padding:0;shape-margin:0;inline-size:0;clip-rule:nonzero;display:inline;overflow:visible;visibility:visible;opacity:0.25;isolation:auto;mix-blend-mode:normal;color-interpolation:sRGB;color-interpolation-filters:linearRGB;solid-color:#000000;solid-opacity:1;vector-effect:none;fill:#0c0c0c;fill-opacity:1;fill-rule:nonzero;stroke:none;stroke-width:1.00009;stroke-linecap:round;stroke-linejoin:round;stroke-miterlimit:4;stroke-dasharray:none;stroke-dashoffset:2.1875;stroke-opacity:1;paint-order:normal;color-rendering:auto;image-rendering:auto;shape-rendering:auto;text-rendering:auto;enable-background:accumulate;stop-color:#000000"
       d="M 9.3375719,5.9547311 C 8.9108043,5.9293841 8.5093335,6.2062573 8.3944937,6.6349299 c -0.00479,0.017939 -0.00611,0.036613 -0.00979,0.054793 L 6.9233283,7.0825467 c -0.012568,-0.014208 -0.023257,-0.029493 -0.03669,-0.042902 -0.358611,-0.3587247 -0.944126,-0.3587247 -1.3027343,0 -0.3586427,0.3586851 -0.3586533,0.943835 0,1.3025121 0.013652,0.0136 0.030491,0.024474 0.044961,0.037222 l -0.3927343,1.459639 c -0.018177,0.0037 -0.03683,0.005 -0.054771,0.0098 -0.4898152,0.131268 -0.7833281,0.6389082 -0.6521424,1.1288422 0.1312439,0.489916 0.638765,0.781947 1.1285882,0.650735 0.01815,-0.005 0.03492,-0.0137 0.05271,-0.01961 l 1.0707158,1.070438 c -0.00601,0.01781 -0.014764,0.03461 -0.019632,0.0527 -0.1311751,0.489931 0.1602661,0.996029 0.6500734,1.127302 0.4898284,0.131207 0.9978628,-0.160832 1.1291094,-0.650743 0.00479,-0.01799 0.00601,-0.0361 0.00979,-0.0543 l 1.4587939,-0.392825 c 0.01257,0.01421 0.02379,0.0295 0.03721,0.0429 0.358606,0.358722 0.944121,0.358708 1.302737,0 0.358653,-0.358691 0.358651,-0.944351 0,-1.303031 -0.01344,-0.01341 -0.02866,-0.02471 -0.04289,-0.0372 l 0.390668,-1.459133 c 0.01881,-0.0038 0.03777,-0.0048 0.05633,-0.0098 0.489818,-0.13126 0.781775,-0.6394214 0.650592,-1.1293583 -0.131244,-0.4899211 -0.637207,-0.781431 -1.12704,-0.6502242 -0.01815,0.00489 -0.03492,0.013679 -0.05271,0.019632 L 10.15406,7.1641998 c 0.006,-0.01778 0.01476,-0.034589 0.01963,-0.052721 C 10.24615,6.8409106 10.13608,6.5745043 9.9742259,6.3516854 A 0.13230218,0.13233199 0 0 0 9.9411579,6.2266011 C 9.8259769,6.1095283 9.6796597,6.0272032 9.5210367,5.9847058 9.4598068,5.9683016 9.3985558,5.9583533 9.3375905,5.9547258 Z m -0.016536,0.262054 c 0.043601,0.00265 0.08781,0.0099 0.1317731,0.021696 0.1130697,0.030303 0.21658,0.09022 0.2986828,0.1736699 0.1632901,0.1659969 0.2266281,0.4061565 0.1663961,0.6311 -0.0093,0.034814 -0.02228,0.069019 -0.03721,0.1018223 a 0.13230218,0.13233199 0 0 0 0.02739,0.1483465 l 1.1875001,1.1877649 a 0.13230218,0.13233199 0 0 0 0.148307,0.025321 c 0.0328,-0.014896 0.06648,-0.025823 0.101285,-0.035153 0.351727,-0.094221 0.708798,0.1113367 0.803034,0.4631161 0.0942,0.3517953 -0.111294,0.710515 -0.46301,0.804765 -0.03474,0.0093 -0.07169,0.01611 -0.107484,0.01963 a 0.13230218,0.13233199 0 0 0 -0.113171,0.09769 l -0.435623,1.6214202 a 0.13230218,0.13233199 0 0 0 0.05064,0.142661 c 0.0293,0.0209 0.05667,0.0428 0.08217,0.0682 0.257525,0.25755 0.257525,0.670232 0,0.92778 -0.257503,0.25758 -0.670078,0.25758 -0.927573,0 -0.02545,-0.0254 -0.04934,-0.0529 -0.07028,-0.0822 a 0.13230218,0.13233199 0 0 0 -0.140555,-0.0507 l -1.6210569,0.435721 a 0.13230218,0.13233199 0 0 0 -0.097671,0.11526 c -0.00349,0.0358 -0.010319,0.0707 -0.019632,0.10545 -0.094239,0.351769 -0.4528635,0.5594 -0.8045848,0.46518 -0.3517053,-0.0943 -0.5592656,-0.453501 -0.4650793,-0.805281 0.00931,-0.0348 0.022278,-0.0685 0.037211,-0.101309 A 0.13230218,0.13233199 0 0 0 7.025105,12.550395 L 5.8396717,11.362614 A 0.13230218,0.13233199 0 0 0 5.6913648,11.33732 c -0.032808,0.0149 -0.066998,0.0258 -0.1018011,0.0352 -0.3517185,0.0942 -0.710348,-0.11134 -0.8045847,-0.463114 -0.0942,-0.351792 0.1128501,-0.710509 0.4645607,-0.804767 0.03474,-0.0093 0.070138,-0.01614 0.1059339,-0.01963 a 0.13230218,0.13233199 0 0 0 0.1152366,-0.09769 L 5.9042671,8.3658923 A 0.13230218,0.13233199 0 0 0 5.8531046,8.2232369 c -0.0293,-0.020876 -0.056158,-0.04282 -0.081648,-0.06822 -0.2575269,-0.2575454 -0.2575216,-0.6707479 0,-0.928296 0.2574978,-0.2575851 0.6721423,-0.2590879 0.9296401,-0.00159 a 0.13230218,0.13233199 0 0 0 0,0.00159 c 0.025453,0.025453 0.04726,0.052919 0.06821,0.08218 a 0.13230218,0.13233199 0 0 0 0.1426237,0.050649 L 8.5329846,6.9243444 A 0.13230218,0.13233199 0 0 0 8.6306556,6.809084 c 0.00349,-0.035801 0.010319,-0.071213 0.019632,-0.1059604 0.08246,-0.307803 0.3655457,-0.504989 0.6707479,-0.4863729 z M 8.6461548,7.1993523 a 0.13230218,0.13233199 0 0 0 -0.039269,0.00619 l -1.6210602,0.433656 a 0.13230218,0.13233199 0 0 0 -0.097668,0.1152631 c -0.00701,0.071718 -0.0245,0.1416315 -0.054261,0.207264 a 0.13230218,0.13233199 0 0 0 0.02739,0.1483413 l 1.1854339,1.1877675 a 0.13230218,0.13233199 0 0 0 0.1483095,0.02739 c 0.032711,-0.014896 0.067101,-0.027871 0.1017985,-0.037222 0.034779,-0.00939 0.071131,-0.016087 0.1069684,-0.019632 A 0.13230218,0.13233199 0 0 0 8.5174827,9.1706808 L 8.95259,7.5492585 A 0.13230218,0.13233199 0 0 0 8.9019487,7.4066005 C 8.8433303,7.3646508 8.7914534,7.3148218 8.7495064,7.2561928 a 0.13230218,0.13233199 0 0 0 -0.1033516,-0.05634 z m 0.9668458,0.2599849 a 0.13230218,0.13233199 0 0 0 -0.058388,0.01188 c -0.065622,0.029779 -0.1355037,0.04934 -0.207219,0.056338 A 0.13230218,0.13233199 0 0 0 9.2321567,7.6236964 L 8.7986025,9.2466691 a 0.13230218,0.13233199 0 0 0 0.050639,0.141105 c 0.058491,0.041889 0.1105614,0.093448 0.1524449,0.1519581 a 0.13230218,0.13233199 0 0 0 0.1405547,0.051171 L 10.763298,9.1551815 a 0.13230218,0.13233199 0 0 0 0.09767,-0.1131967 c 0.007,-0.071689 0.02708,-0.1416632 0.05684,-0.207264 A 0.13230218,0.13233199 0 0 0 10.89042,8.6863795 L 9.7106689,7.5063669 a 0.13230218,0.13233199 0 0 0 -0.00781,-0.00781 0.13230218,0.13233199 0 0 0 -0.06046,-0.03515 0.13230218,0.13233199 0 0 0 -0.029451,-0.0041 z m -1.0076683,0.021696 c 0.022728,0.025374 0.04694,0.04966 0.07235,0.072372 L 8.2828819,9.0223474 c -0.018203,0.0037 -0.036819,0.00489 -0.054779,0.00979 -0.018097,0.00489 -0.03497,0.013679 -0.05271,0.019632 L 7.0995117,7.9751345 c 0.010795,-0.03283 0.020347,-0.065918 0.02739,-0.099748 z m 0.9627129,0.2579185 1.0820798,1.0802621 c -0.01111,0.03361 -0.02021,0.066638 -0.02739,0.1013036 L 9.1463708,9.3154079 c -0.022781,-0.025453 -0.046889,-0.04958 -0.07235,-0.072361 L 9.4683052,7.7642827 c 0.033721,-0.00701 0.067011,-0.014552 0.099729,-0.025321 z M 6.5631219,8.2775321 a 0.13230218,0.13233199 0 0 0 -0.012409,5.292e-4 0.13230218,0.13233199 0 0 0 -0.043408,0.00979 c -0.065622,0.029779 -0.1349904,0.04934 -0.206703,0.056338 A 0.13230218,0.13233199 0 0 0 6.1853657,8.4418807 L 5.7497425,10.063303 a 0.13230218,0.13233199 0 0 0 0.050641,0.140589 c 0.058618,0.04195 0.110498,0.09384 0.1524424,0.152474 a 0.13230218,0.13233199 0 0 0 0.142621,0.05117 L 7.716504,9.9733618 a 0.13230218,0.13233199 0 0 0 0.097671,-0.11526 c 0.00699,-0.07169 0.02503,-0.14115 0.054779,-0.206748 A 0.13230218,0.13233199 0 0 0 7.8415648,9.5030133 L 6.6618142,8.3230007 a 0.13230218,0.13233199 0 0 0 -0.00569,-0.00619 0.13230218,0.13233199 0 0 0 -0.047022,-0.03102 0.13230218,0.13233199 0 0 0 -0.04599,-0.00831 z m -0.04186,0.2775585 1.0820797,1.0823262 c -0.010795,0.03281 -0.020346,0.06594 -0.02739,0.09975 L 6.0975207,10.132058 c -0.022833,-0.02553 -0.046821,-0.04954 -0.07234,-0.07236 L 6.4215275,8.5824776 c 0.033832,-0.00701 0.066911,-0.016589 0.09974,-0.02739 z M 10.87646,9.4322188 a 0.13230218,0.13233199 0 0 0 -0.03721,0.0041 l -1.6210571,0.433655 a 0.13230218,0.13233199 0 0 0 -0.097671,0.11526 c -0.00701,0.07173 -0.026559,0.1416342 -0.05633,0.2072672 a 0.13230218,0.13233199 0 0 0 0.02739,0.148341 l 1.1875001,1.18777 a 0.13230218,0.13233199 0 0 0 0.14831,0.0274 c 0.06562,-0.0298 0.135504,-0.0499 0.207216,-0.0568 a 0.13230218,0.13233199 0 0 0 0.115237,-0.0956 l 0.433557,-1.6234922 a 0.13230218,0.13233199 0 0 0 -0.05116,-0.140589 c -0.05861,-0.04194 -0.10998,-0.09385 -0.151927,-0.1524765 a 0.13230218,0.13233199 0 0 0 -0.103867,-0.05479 z m -0.04082,0.279625 c 0.02281,0.02553 0.04682,0.04954 0.07234,0.07236 l -0.394798,1.4787672 c -0.03372,0.007 -0.0665,0.0145 -0.09922,0.02529 L 9.3318781,10.208009 c 0.01106,-0.03341 0.020214,-0.06737 0.02739,-0.101822 z M 7.827616,10.248874 a 0.13230218,0.13233199 0 0 0 -0.03669,0.0041 l -1.6210545,0.435729 a 0.13230218,0.13233199 0 0 0 -0.097671,0.113194 c -0.00701,0.07169 -0.02503,0.143219 -0.054779,0.208815 a 0.13230218,0.13233199 0 0 0 0.02739,0.14679 l 1.1854313,1.187771 a 0.13230218,0.13233199 0 0 0 0.1483095,0.0274 c 0.065619,-0.0298 0.1355011,-0.0499 0.207219,-0.0569 a 0.13230218,0.13233199 0 0 0 0.1152367,-0.0956 l 0.4356232,-1.623491 a 0.13230218,0.13233199 0 0 0 -0.051163,-0.140589 c -0.058618,-0.04195 -0.109982,-0.09385 -0.1519211,-0.152474 a 0.13230218,0.13233199 0 0 0 -0.1059365,-0.05479 z m 0.957027,0.259985 a 0.13230218,0.13233199 0 0 0 -0.046511,0.01188 c -0.03271,0.0149 -0.067098,0.0258 -0.1017984,0.03515 -0.03474,0.0093 -0.06963,0.01561 -0.1054179,0.01913 a 0.13230218,0.13233199 0 0 0 -0.1152393,0.09769 l -0.4335542,1.62142 a 0.13230218,0.13233199 0 0 0 0.050641,0.142661 c 0.058619,0.0419 0.1084289,0.0918 0.1503733,0.15041 a 0.13230218,0.13233199 0 0 0 0.1426237,0.0512 l 1.6210577,-0.43366 a 0.13230218,0.13233199 0 0 0 0.09767,-0.115261 c 0.007,-0.0717 0.025,-0.141629 0.05478,-0.207269 a 0.13230218,0.13233199 0 0 0 -0.02532,-0.148339 L 8.8864468,10.546104 a 0.13230218,0.13233199 0 0 0 -0.056848,-0.03308 0.13230218,0.13233199 0 0 0 -0.02894,-0.0041 0.13230218,0.13233199 0 0 0 -0.016034,0 z m -0.9957832,0.01963 c 0.022834,0.02551 0.046818,0.04954 0.072348,0.07236 l -0.3968671,1.478762 c -0.033208,0.007 -0.065418,0.01691 -0.097668,0.0274 l -1.0836354,-1.08232 c 0.011007,-0.03341 0.020293,-0.06737 0.02739,-0.101825 z m 0.9683962,0.263602 1.0763989,1.076637 c -0.01079,0.0328 -0.02035,0.0654 -0.02739,0.0992 l -1.4763675,0.39696 c -0.022701,-0.0254 -0.046969,-0.0496 -0.07234,-0.0724 l 0.3927317,-1.471015 c 0.018177,-0.0037 0.036319,-0.005 0.054261,-0.0098 0.018097,-0.0049 0.03497,-0.01368 0.05271,-0.01963 z" />
    <rect
       style="opacity:0.9;fill:#642b40;fill-opacity:1;stroke:none;stroke-width:0;stroke-linecap:round;stroke-linejoin:round;stroke-miterlimit:4;stroke-dasharray:none;stroke-dashoffset:2.1875;stroke-opacity:1"
       id="rect3576-5-3-2"
       width="12.170834"
       height="0.39687502"
       x="2.3812661"
       y="2.9765625" />
    <path
       style="opacity:0.65;fill:#c9829c;fill-opacity:1;stroke:none;stroke-width:0;stroke-linecap:round;stroke-linejoin:round;stroke-miterlimit:4;stroke-dasharray:none;stroke-dashoffset:2.1875;stroke-opacity:1"
       d="m 3.175,0.59531253 c -0.4397375,0 -0.79375,0.3540125 -0.79375,0.79374997 v 1.5875 h 12.170834 v -1.5875 c 0,-0.43973747 -0.354013,-0.79374997 -0.79375,-0.79374997 z"
       id="rect2480-2-6-5-5-4-9-6-9" />
    <path
       id="rect1475-9-6-4-0"
       style="display:inline;fill:#b45075;fill-opacity:1;stroke:none;stroke-width:0;stroke-linecap:round;stroke-linejoin:round;stroke-miterlimit:4;stroke-dasharray:none;stroke-dashoffset:2.1875;stroke-opacity:0.74902"
       d="M 9.8456009,6.0563655 A 0.78881708,0.78879787 0 0 0 9.4874558,5.8476834 0.78881708,0.78879787 0 0 0 8.5214514,6.4054753 0.78881708,0.78879787 0 0 0 8.4983004,6.5328008 L 6.8771215,6.967191 a 0.78881708,0.78879787 0 0 0 -0.08377,-0.098708 0.78881708,0.78879787 0 0 0 -1.1156236,0 0.78881708,0.78879787 0 0 0 1.59e-5,1.1155866 0.78881708,0.78879787 0 0 0 0.098909,0.083561 l -0.434448,1.6213422 a 0.78881708,0.78879787 0 0 0 -0.1273334,0.02315 0.78881708,0.78879787 0 0 0 -0.5578105,0.9659842 0.78881708,0.78879787 0 0 0 0.9659964,0.557791 0.78881708,0.78879787 0 0 0 0.122055,-0.04374 L 6.931885,12.378904 A 0.78881708,0.78879787 0 0 0 6.888086,12.50093 0.78881708,0.78879787 0 0 0 7.4458912,13.4669 0.78881708,0.78879787 0 0 0 8.4118956,12.909108 0.78881708,0.78879787 0 0 0 8.4350466,12.78179 L 10.056225,12.3474 a 0.78881708,0.78879787 0 0 0 0.08376,0.09871 0.78881708,0.78879787 0 0 0 1.11562,1.3e-5 0.78881708,0.78879787 0 0 0 0,-1.115597 0.78881708,0.78879787 0 0 0 -0.09892,-0.08357 l 0.434448,-1.6213432 a 0.78881708,0.78879787 0 0 0 0.127324,-0.023148 0.78881708,0.78879787 0 0 0 0.557821,-0.9659804 0.78881708,0.78879787 0 0 0 -0.966007,-0.5577946 0.78881708,0.78879787 0 0 0 -0.122044,0.043741 L 10.001457,6.9356818 A 0.78881708,0.78879787 0 0 0 10.045256,6.8136586 0.78881708,0.78879787 0 0 0 9.8455829,6.0563682 Z M 9.6093334,7.3278816 10.796278,8.5147893 A 0.78881708,0.78879787 0 0 0 10.729538,8.763868 L 9.1080168,9.198253 A 0.78881708,0.78879787 0 0 0 8.9258882,9.0161271 L 9.3602864,7.3946439 a 0.78881708,0.78879787 0 0 0 0.2492031,-0.06672 z M 8.6417548,7.068627 A 0.78881708,0.78879787 0 0 0 8.8242353,7.2511022 L 8.3898291,8.8722387 A 0.78881708,0.78879787 0 0 0 8.262337,8.8955487 0.78881708,0.78879787 0 0 0 8.1406366,8.9392897 L 6.9536813,7.7523818 a 0.78881708,0.78879787 0 0 0 0.06672,-0.2491978 z m 2.2312442,2.2311943 a 0.78881708,0.78879787 0 0 0 0.182486,0.1824672 l -0.434446,1.6213405 a 0.78881708,0.78879787 0 0 0 -0.249195,0.06672 L 9.1848862,9.9834408 a 0.78881708,0.78879787 0 0 0 0.066741,-0.249195 z M 6.5614921,8.1445578 7.7484341,9.3314787 A 0.78881708,0.78879787 0 0 0 7.6816956,9.5805442 L 6.0603554,10.015109 A 0.78881708,0.78879787 0 0 0 5.8778749,9.8326308 L 6.3123234,8.2112884 a 0.78881708,0.78879787 0 0 0 0.2491925,-0.06672 z M 8.79257,10.375583 9.9795249,11.562506 a 0.78881708,0.78879787 0 0 0 -0.06674,0.249193 L 8.2914491,12.246251 A 0.78881708,0.78879787 0 0 0 8.1089633,12.063786 l 0.4344485,-1.621343 a 0.78881708,0.78879787 0 0 0 0.1273202,-0.02315 0.78881708,0.78879787 0 0 0 0.121703,-0.04375 z M 7.8252136,10.116349 a 0.78881708,0.78879787 0 0 0 0.1824725,0.182473 l -0.4344458,1.62133 a 0.78881708,0.78879787 0 0 0 -0.2492084,0.06673 L 6.1370898,10.799961 a 0.78881708,0.78879787 0 0 0 0.066738,-0.249063 z" />
    <path
       id="rect1475-9-6-4-0-2-7"
       style="color:#000000;font-style:normal;font-variant:normal;font-weight:normal;font-stretch:normal;font-size:medium;line-height:normal;font-family:sans-serif;font-variant-ligatures:normal;font-variant-position:normal;font-variant-caps:normal;font-variant-numeric:normal;font-variant-alternates:normal;font-variant-east-asian:normal;font-feature-settings:normal;font-variation-settings:normal;text-indent:0;text-align:start;text-decoration:none;text-decoration-line:none;text-decoration-style:solid;text-decoration-color:#000000;letter-spacing:normal;word-spacing:normal;text-transform:none;writing-mode:lr-tb;direction:ltr;text-orientation:mixed;dominant-baseline:auto;baseline-shift:baseline;text-anchor:start;white-space:normal;shape-padding:0;shape-margin:0;inline-size:0;clip-rule:nonzero;display:inline;overflow:visible;visibility:visible;isolation:auto;mix-blend-mode:normal;color-interpolation:sRGB;color-interpolation-filters:linearRGB;solid-color:#000000;solid-opacity:1;vector-effect:none;fill:#642b40;fill-opacity:1;fill-rule:nonzero;stroke:none;stroke-width:1.00009;stroke-linecap:round;stroke-linejoin:round;stroke-miterlimit:4;stroke-dasharray:none;stroke-dashoffset:2.1875;stroke-opacity:1;paint-order:normal;color-rendering:auto;image-rendering:auto;shape-rendering:auto;text-rendering:auto;enable-background:accumulate;stop-color:#000000"
       d="M 9.3375719,5.6901478 C 8.9108043,5.6648007 8.5093335,5.9416739 8.3944937,6.3703492 c -0.00479,0.017939 -0.00611,0.036608 -0.00979,0.05479 L 6.9233283,6.8179634 c -0.012568,-0.014208 -0.023257,-0.029493 -0.03669,-0.042902 -0.358611,-0.3587247 -0.944126,-0.3587247 -1.3027343,0 -0.3586427,0.358685 -0.3586533,0.9438349 0,1.3025147 0.013652,0.0136 0.030491,0.024474 0.044961,0.037219 L 5.2361307,9.574435 c -0.018177,0.0037 -0.03683,0.005 -0.054771,0.00979 -0.4898152,0.1312678 -0.7833281,0.638909 -0.6521424,1.128843 0.1312439,0.489916 0.638765,0.781947 1.1285882,0.650737 0.01815,-0.005 0.03492,-0.0137 0.05271,-0.01961 l 1.0707158,1.070438 c -0.00601,0.01781 -0.014764,0.0346 -0.019632,0.0527 -0.1311751,0.489929 0.1602661,0.996029 0.6500734,1.1273 0.4898284,0.131209 0.9978628,-0.160831 1.1291094,-0.650741 0.00479,-0.01799 0.00601,-0.0361 0.00979,-0.0543 l 1.4587939,-0.392818 c 0.01257,0.01421 0.02379,0.0295 0.03721,0.0429 0.358606,0.35872 0.944121,0.358709 1.302737,0 0.358653,-0.358689 0.358651,-0.94435 0,-1.303031 -0.01344,-0.01341 -0.02866,-0.02471 -0.04289,-0.0372 l 0.390668,-1.4591302 c 0.01881,-0.0038 0.03777,-0.0048 0.05633,-0.0098 0.489818,-0.131264 0.781775,-0.6394246 0.650592,-1.1293589 -0.131244,-0.4899236 -0.637207,-0.7814336 -1.12704,-0.6502241 -0.01815,0.00489 -0.03492,0.013679 -0.05271,0.019632 l -1.0702,-1.070954 c 0.006,-0.01778 0.01476,-0.034592 0.01963,-0.052718 0.07246,-0.2705709 -0.03761,-0.5369772 -0.1994641,-0.7598014 A 0.13230218,0.13233199 0 0 0 9.9411579,5.9620231 C 9.8259769,5.8449502 9.6796597,5.7626251 9.5210367,5.7201277 9.4598068,5.7037236 9.3985558,5.6937752 9.3375905,5.6901478 Z m -0.016536,0.2620539 c 0.043601,0.00265 0.08781,0.0099 0.1317731,0.021696 0.1130697,0.030303 0.21658,0.090218 0.2986828,0.1736698 0.1632901,0.1659943 0.2266281,0.4061566 0.1663961,0.6311001 -0.0093,0.034809 -0.02228,0.069019 -0.03721,0.1018222 a 0.13230218,0.13233199 0 0 0 0.02739,0.1483413 l 1.1875001,1.1877702 a 0.13230218,0.13233199 0 0 0 0.148307,0.025321 c 0.0328,-0.014896 0.06648,-0.025823 0.101285,-0.03515 0.351727,-0.094221 0.708798,0.1113393 0.803034,0.4631161 0.0942,0.3517927 -0.111294,0.7105148 -0.46301,0.8047646 -0.03474,0.00929 -0.07169,0.016113 -0.107484,0.019632 a 0.13230218,0.13233199 0 0 0 -0.113171,0.097692 l -0.435623,1.621417 a 0.13230218,0.13233199 0 0 0 0.05064,0.142661 c 0.0293,0.0209 0.05667,0.0428 0.08217,0.0682 0.257525,0.25755 0.257525,0.670229 0,0.92778 -0.257503,0.25758 -0.670078,0.25758 -0.927573,0 -0.02545,-0.0254 -0.04934,-0.0529 -0.07028,-0.0822 a 0.13230218,0.13233199 0 0 0 -0.140555,-0.0507 l -1.6210569,0.435722 a 0.13230218,0.13233199 0 0 0 -0.097671,0.11526 c -0.00349,0.0358 -0.010319,0.0707 -0.019632,0.10545 -0.094239,0.351769 -0.4528635,0.559398 -0.8045848,0.46518 -0.3517053,-0.0943 -0.5592656,-0.453502 -0.4650793,-0.805281 0.00931,-0.0348 0.022278,-0.0685 0.037211,-0.101309 A 0.13230218,0.13233199 0 0 0 7.025105,12.285816 L 5.8396717,11.098033 a 0.13230218,0.13233199 0 0 0 -0.1483069,-0.02529 c -0.032808,0.0149 -0.066998,0.0258 -0.1018011,0.0352 -0.3517185,0.0942 -0.710348,-0.111339 -0.8045847,-0.463116 -0.0942,-0.35179 0.1128501,-0.7105102 0.4645607,-0.8047652 0.03474,-0.0093 0.070138,-0.01614 0.1059339,-0.01963 a 0.13230218,0.13233199 0 0 0 0.1152366,-0.09769 L 5.9042671,8.1013116 A 0.13230218,0.13233199 0 0 0 5.8531046,7.9586562 c -0.0293,-0.020876 -0.056158,-0.04282 -0.081648,-0.06822 -0.2575269,-0.2575454 -0.2575216,-0.6707479 0,-0.9282986 0.2574978,-0.2575825 0.6721423,-0.2590853 0.9296401,-0.00159 a 0.13230218,0.13233199 0 0 0 0,0.00159 c 0.025453,0.025453 0.04726,0.052922 0.06821,0.08218 a 0.13230218,0.13233199 0 0 0 0.1426237,0.050652 L 8.5329846,6.6597637 a 0.13230218,0.13233199 0 0 0 0.097671,-0.1152631 c 0.00349,-0.035798 0.010319,-0.07121 0.019632,-0.1059577 0.08246,-0.3078056 0.3655457,-0.504989 0.6707479,-0.4863756 z M 8.6461548,6.934769 a 0.13230218,0.13233199 0 0 0 -0.039269,0.00619 L 6.9858256,7.374615 a 0.13230218,0.13233199 0 0 0 -0.097668,0.1152631 c -0.00701,0.071721 -0.0245,0.1416314 -0.054261,0.207264 a 0.13230218,0.13233199 0 0 0 0.02739,0.1483439 L 8.0467205,9.0332509 A 0.13230218,0.13233199 0 0 0 8.19503,9.0606429 c 0.032711,-0.014896 0.067101,-0.027871 0.1017985,-0.037222 0.034779,-0.00939 0.071131,-0.016087 0.1069684,-0.019632 A 0.13230218,0.13233199 0 0 0 8.5174827,8.9061001 L 8.95259,7.2846778 A 0.13230218,0.13233199 0 0 0 8.9019487,7.1420198 C 8.8433303,7.1000701 8.7914534,7.0502411 8.7495064,6.9916121 a 0.13230218,0.13233199 0 0 0 -0.1033516,-0.05634 z m 0.9668458,0.2599849 a 0.13230218,0.13233199 0 0 0 -0.058388,0.01188 c -0.065622,0.029782 -0.1355037,0.04934 -0.207219,0.05634 A 0.13230218,0.13233199 0 0 0 9.2321567,7.359113 L 8.7986025,8.9820858 a 0.13230218,0.13233199 0 0 0 0.050639,0.1411049 c 0.058491,0.041892 0.1105614,0.093451 0.1524449,0.1519608 a 0.13230218,0.13233199 0 0 0 0.1405547,0.05117 L 10.763298,8.8906008 a 0.13230218,0.13233199 0 0 0 0.09767,-0.1131967 c 0.007,-0.071692 0.02708,-0.1416632 0.05684,-0.207264 A 0.13230218,0.13233199 0 0 0 10.89042,8.4217988 L 9.7106689,7.2417836 a 0.13230218,0.13233199 0 0 0 -0.00781,-0.00781 0.13230218,0.13233199 0 0 0 -0.06046,-0.03515 0.13230218,0.13233199 0 0 0 -0.029451,-0.0041 z m -1.0076683,0.021696 c 0.022728,0.025374 0.04694,0.04966 0.07235,0.072369 L 8.2828819,8.7577641 c -0.018203,0.0037 -0.036819,0.00489 -0.054779,0.00979 -0.018097,0.00489 -0.03497,0.013679 -0.05271,0.019632 L 7.0995117,7.7105512 c 0.010795,-0.03283 0.020347,-0.065921 0.02739,-0.099751 z m 0.9627129,0.2579158 1.0820798,1.0802621 c -0.01111,0.03361 -0.02021,0.066641 -0.02739,0.1013063 l -1.4763642,0.394888 c -0.022781,-0.025453 -0.046889,-0.04958 -0.07235,-0.072358 L 9.4683052,7.4996968 c 0.033721,-0.00701 0.067011,-0.014552 0.099729,-0.025321 z M 6.5631219,8.0129461 a 0.13230218,0.13233199 0 0 0 -0.012409,5.292e-4 0.13230218,0.13233199 0 0 0 -0.043408,0.00979 c -0.065622,0.029782 -0.1349904,0.04934 -0.206703,0.05634 A 0.13230218,0.13233199 0 0 0 6.1853657,8.1772947 L 5.7497425,9.7987168 a 0.13230218,0.13233199 0 0 0 0.050641,0.140589 c 0.058618,0.04195 0.110498,0.09384 0.1524424,0.1524772 a 0.13230218,0.13233199 0 0 0 0.142621,0.05117 L 7.7165042,9.7087798 a 0.13230218,0.13233199 0 0 0 0.097671,-0.11526 c 0.00699,-0.071689 0.02503,-0.141153 0.054779,-0.2067485 A 0.13230218,0.13233199 0 0 0 7.8415648,9.23843 L 6.6618142,8.0584148 a 0.13230218,0.13233199 0 0 0 -0.00569,-0.00619 0.13230218,0.13233199 0 0 0 -0.047022,-0.031017 0.13230218,0.13233199 0 0 0 -0.04599,-0.00831 z m -0.04186,0.2775612 1.0820797,1.0823231 c -0.010795,0.032811 -0.020346,0.065939 -0.02739,0.099751 L 6.0975214,9.8674718 c -0.022833,-0.02553 -0.046821,-0.04954 -0.07234,-0.07236 L 6.4215275,8.3178916 c 0.033832,-0.00701 0.066911,-0.016589 0.09974,-0.02739 z M 10.87646,9.1676328 a 0.13230218,0.13233199 0 0 0 -0.03721,0.0041 l -1.6210571,0.433652 a 0.13230218,0.13233199 0 0 0 -0.097671,0.115261 c -0.00701,0.07173 -0.026559,0.141634 -0.05633,0.207266 a 0.13230218,0.13233199 0 0 0 0.02739,0.1483442 l 1.1875001,1.187768 a 0.13230218,0.13233199 0 0 0 0.14831,0.0274 c 0.06562,-0.0298 0.135504,-0.0499 0.207216,-0.0568 a 0.13230218,0.13233199 0 0 0 0.115237,-0.0956 l 0.433557,-1.6234916 a 0.13230218,0.13233199 0 0 0 -0.05116,-0.140589 c -0.05861,-0.041939 -0.10998,-0.09385 -0.151927,-0.1524767 a 0.13230218,0.13233199 0 0 0 -0.103867,-0.05479 z m -0.04082,0.2796275 c 0.02281,0.025532 0.04682,0.049541 0.07234,0.072358 l -0.394798,1.4787677 c -0.03372,0.007 -0.0665,0.0145 -0.09922,0.02529 L 9.3318781,9.9434228 c 0.01106,-0.03341 0.020214,-0.06737 0.02739,-0.101822 z M 7.827616,9.9842878 a 0.13230218,0.13233199 0 0 0 -0.03669,0.0041 L 6.1698715,10.424117 a 0.13230218,0.13233199 0 0 0 -0.097671,0.113194 c -0.00701,0.07169 -0.02503,0.143219 -0.054779,0.208815 a 0.13230218,0.13233199 0 0 0 0.02739,0.146788 l 1.1854313,1.18777 a 0.13230218,0.13233199 0 0 0 0.1483095,0.0274 c 0.065619,-0.0298 0.1355011,-0.0499 0.207219,-0.0569 a 0.13230218,0.13233199 0 0 0 0.1152367,-0.0956 l 0.4356228,-1.623488 a 0.13230218,0.13233199 0 0 0 -0.051163,-0.140589 c -0.058618,-0.04195 -0.109982,-0.09385 -0.1519211,-0.152477 a 0.13230218,0.13233199 0 0 0 -0.1059365,-0.05479 z m 0.957027,0.2599882 a 0.13230218,0.13233199 0 0 0 -0.046511,0.01188 c -0.03271,0.0149 -0.067098,0.0258 -0.1017984,0.03515 -0.03474,0.0093 -0.06963,0.01561 -0.1054179,0.01913 a 0.13230218,0.13233199 0 0 0 -0.1152393,0.09769 l -0.4335542,1.621422 a 0.13230218,0.13233199 0 0 0 0.050641,0.142661 c 0.058619,0.0419 0.1084289,0.0918 0.1503733,0.150408 a 0.13230218,0.13233199 0 0 0 0.1426237,0.0512 l 1.6210577,-0.43366 a 0.13230218,0.13233199 0 0 0 0.09767,-0.115261 c 0.007,-0.0717 0.025,-0.141631 0.05478,-0.207269 a 0.13230218,0.13233199 0 0 0 -0.02532,-0.148341 L 8.8864468,10.281521 a 0.13230218,0.13233199 0 0 0 -0.056848,-0.03308 0.13230218,0.13233199 0 0 0 -0.02894,-0.0041 0.13230218,0.13233199 0 0 0 -0.016034,0 z m -0.9957832,0.01963 c 0.022834,0.0255 0.046818,0.04954 0.072348,0.07236 l -0.3968671,1.478759 c -0.033208,0.007 -0.065418,0.01691 -0.097668,0.0274 l -1.083636,-1.082318 c 0.011007,-0.03341 0.020293,-0.06737 0.02739,-0.101825 z m 0.9683962,0.263601 1.0763989,1.07664 c -0.01079,0.0328 -0.02035,0.0654 -0.02739,0.0992 l -1.4763675,0.39696 c -0.022701,-0.0254 -0.046969,-0.0496 -0.07234,-0.0724 l 0.3927317,-1.471015 c 0.018177,-0.0037 0.036319,-0.005 0.054261,-0.0098 0.018097,-0.0049 0.03497,-0.01368 0.05271,-0.01963 z" />
  </g>
</svg>
